{
    "luaDataPath": "",
    "entityBan": "",
    "disableNpcLod": true,
    "startFade": {
        "startFadeInDuration": 0.30000001192092896,
        "startFadeOutDuration": 0.30000001192092896
    },
    "endFade": {
        "startFadeOutDuration": 0.0
    },
    "actors": [
        {
            "alias": "Avatar",
            "visible": true,
            "bornPointName": "Q4134102Playerpos",
            "relativePosNpcAlias": "",
            "bindMovingTargetKey": ""
        },
        {
            "configID": 211901,
            "alias": "211901",
            "visible": true,
            "bornPointName": "",
            "relativePosNpcAlias": "",
            "bindMovingTargetKey": ""
        },
        {
            "configID": 211801,
            "alias": "211801",
            "visible": true,
            "bornPointName": "Q4134102Mengmeng",
            "relativePos": {
                "x": -0.5,
                "z": -0.5
            },
            "relativePosNpcAlias": "",
            "bindMovingTargetKey": ""
        }
    ],
    "group": [
        [
            {
                "$type": "BCJBNCJOPCE",
                "type": "CAMERA_MOVE",
                "duration": 1.0,
                "AKFGKKEOEFA": {
                    "x": 1103.878662109375,
                    "y": 206.13011169433594,
                    "z": 342.6503601074219
                },
                "NGEBMAEFFGJ": {
                    "x": 1103.1729736328125,
                    "y": 206.01870727539062,
                    "z": 341.9505920410156
                },
                "GFIOJGJJGCN": 6,
                "ABAEPHOGOFF": "EaseInOutCubic",
                "KFDBMBFFANN": {},
                "KIPMIDIKECP": "",
                "BDLGHOJPJHD": "",
                "LCOJGFEOLCK": "",
                "BBBGAEDCJEL": ""
            }
        ],
        [
            {
                "$type": "CCEEIGNAILH",
                "type": "DIALOG",
                "aliasList": [
                    "211901"
                ],
                "KICBIOMGHIN": 413410401
            }
        ],
        [
            {
                "$type": "CCEEIGNAILH",
                "type": "DIALOG",
                "aliasList": [
                    "211801"
                ],
                "KICBIOMGHIN": 413410402
            }
        ],
        [
            {
                "$type": "CCEEIGNAILH",
                "type": "DIALOG",
                "aliasList": [
                    "211801"
                ],
                "KICBIOMGHIN": 413410403
            }
        ],
        [
            {
                "$type": "CCEEIGNAILH",
                "type": "DIALOG",
                "aliasList": [
                    "211901"
                ],
                "KICBIOMGHIN": 413410404
            }
        ],
        [
            {
                "$type": "CCEEIGNAILH",
                "type": "DIALOG",
                "aliasList": [
                    "211801"
                ],
                "KICBIOMGHIN": 413410405
            }
        ],
        [
            {
                "$type": "MEKNGCBGKEJ",
                "type": "DIALOG_SELECT",
                "delayTime": 0.4000000059604645,
                "aliasList": [
                    "Avatar"
                ],
                "MLAABINGLAA": [
                    413410407,
                    413410408
                ],
                "HPBPDBFGKID": [
                    290516603,
                    290516603
                ],
                "CFJOJADDHHG": true
            },
            {
                "$type": "CCEEIGNAILH",
                "type": "DIALOG",
                "aliasList": [
                    "211901"
                ],
                "KICBIOMGHIN": 413410406
            }
        ],
        [
            {
                "$type": "CCEEIGNAILH",
                "type": "DIALOG",
                "aliasList": [
                    "211901"
                ],
                "KICBIOMGHIN": 413410409
            }
        ],
        [
            {
                "$type": "CCEEIGNAILH",
                "type": "DIALOG",
                "aliasList": [
                    "211801"
                ],
                "KICBIOMGHIN": 413410410
            }
        ],
        [
            {
                "$type": "CCEEIGNAILH",
                "type": "DIALOG",
                "aliasList": [
                    "211801"
                ],
                "KICBIOMGHIN": 413410411
            }
        ],
        [
            {
                "$type": "MoleMole.Config.ConfigTimeProtectAction",
                "type": "TIME_PROTECT",
                "duration": 0.10000000149011612
            },
            {
                "$type": "MoleMole.Config.ConfigSimpleBlackScreenAction",
                "type": "SIMPLE_BLACK_SCREEN",
                "durationToBlack": 0.20000000298023224,
                "durationKeepBlack": 0.6000000238418579,
                "durationFromBlack": 0.20000000298023224,
                "textMapID": ""
            },
            {
                "$type": "MoleMole.Config.ConfigVisibleInterAction",
                "type": "VISIBLE",
                "delayTime": 0.5,
                "aliasList": [
                    "211901"
                ],
                "extraParam": ""
            },
            {
                "$type": "MoleMole.Config.ConfigVisibleInterAction",
                "type": "VISIBLE",
                "delayTime": 0.5,
                "aliasList": [
                    "211801"
                ],
                "extraParam": ""
            }
        ]
    ],
    "groupId": [
        {
            "grpId": 290516596,
            "nextGrpId": 290516597
        },
        {
            "index": 1,
            "grpId": 290516597,
            "nextGrpId": 290516598
        },
        {
            "index": 2,
            "grpId": 290516598,
            "nextGrpId": 290516599
        },
        {
            "index": 3,
            "grpId": 290516599,
            "nextGrpId": 290516600
        },
        {
            "index": 4,
            "grpId": 290516600,
            "nextGrpId": 290516601
        },
        {
            "index": 5,
            "grpId": 290516601,
            "nextGrpId": 290516602
        },
        {
            "index": 6,
            "grpId": 290516602,
            "nextGrpId": 290516603
        },
        {
            "index": 7,
            "grpId": 290516603,
            "nextGrpId": 290516604
        },
        {
            "index": 8,
            "grpId": 290516604,
            "nextGrpId": 416079932
        },
        {
            "index": 9,
            "grpId": 416079932,
            "nextGrpId": 416079933
        },
        {
            "index": 10,
            "grpId": 416079933,
            "nextGrpId": 416079934
        }
    ],
    "freeStyleDic": {
        "211901": [],
        "211801": []
    }
}