{
    "talkId": 740260005,
    "type": "NARRATOR",
    "dialogList": [
        {
            "id": 740260005,
            "talkRole": {
                "id": ""
            },
            "talkContentTextMapHash": 1538802250,
            "talkRoleNameTextMapHash": 826146979,
            "talkAssetPath": "",
            "talkAssetPathAlter": "",
            "talkAudioName": "",
            "actionBefore": "",
            "actionWhile": "",
            "actionAfter": "",
            "optionIcon": ""
        },
        {
            "id": 740260006,
            "talkRole": {
                "id": ""
            },
            "talkContentTextMapHash": 658585882,
            "talkRoleNameTextMapHash": 3129987067,
            "talkAssetPath": "",
            "talkAssetPathAlter": "",
            "talkAudioName": "",
            "actionBefore": "",
            "actionWhile": "",
            "actionAfter": "",
            "optionIcon": ""
        },
        {
            "id": 740260007,
            "talkRole": {
                "id": ""
            },
            "talkContentTextMapHash": 412674306,
            "talkRoleNameTextMapHash": 3004582171,
            "talkAssetPath": "",
            "talkAssetPathAlter": "",
            "talkAudioName": "",
            "actionBefore": "",
            "actionWhile": "",
            "actionAfter": "",
            "optionIcon": ""
        },
        {
            "id": 740260008,
            "talkRole": {
                "id": ""
            },
            "talkContentTextMapHash": 1360374242,
            "talkRoleNameTextMapHash": 2110103499,
            "talkAssetPath": "",
            "talkAssetPathAlter": "",
            "talkAudioName": "",
            "actionBefore": "",
            "actionWhile": "",
            "actionAfter": "",
            "optionIcon": ""
        }
    ]
}