{
    "talkId": 740729902,
    "type": "NARRATOR",
    "dialogList": [
        {
            "id": 740729906,
            "talkRole": {
                "type": "TALK_ROLE_NPC",
                "id": "20984"
            },
            "talkContentTextMapHash": 626215634,
            "talkRoleNameTextMapHash": 2508635979,
            "talkAssetPath": "",
            "talkAssetPathAlter": "",
            "talkAudioName": "",
            "actionBefore": "",
            "actionWhile": "",
            "actionAfter": "",
            "optionIcon": ""
        },
        {
            "id": 740729907,
            "talkRole": {
                "type": "TALK_ROLE_NPC",
                "id": "1005"
            },
            "talkContentTextMapHash": 3541886378,
            "talkAssetPath": "",
            "talkAssetPathAlter": "",
            "talkAudioName": "",
            "actionBefore": "",
            "actionWhile": "",
            "actionAfter": "",
            "optionIcon": ""
        }
    ]
}