{
    "talkId": 1400902,
    "type": "NARRATOR",
    "dialogList": [
        {
            "id": 140099903,
            "talkRole": {
                "type": "TALK_ROLE_NPC",
                "id": "5202"
            },
            "talkContentTextMapHash": 1491166554,
            "talkAssetPath": "",
            "talkAssetPathAlter": "",
            "talkAudioName": "",
            "actionBefore": "",
            "actionWhile": "",
            "actionAfter": "",
            "optionIcon": ""
        }
    ]
}