{
    "talkId": 7400802,
    "type": "NARRATOR",
    "dialogList": [
        {
            "id": 740089904,
            "talkRole": {
                "id": ""
            },
            "talkContentTextMapHash": 4061346330,
            "talkRoleNameTextMapHash": 2709117219,
            "talkAssetPath": "",
            "talkAssetPathAlter": "",
            "talkAudioName": "",
            "actionBefore": "",
            "actionWhile": "",
            "actionAfter": "",
            "optionIcon": ""
        },
        {
            "id": 740089905,
            "talkRole": {
                "id": ""
            },
            "talkContentTextMapHash": 3201108842,
            "talkRoleNameTextMapHash": 1778430435,
            "talkAssetPath": "",
            "talkAssetPathAlter": "",
            "talkAudioName": "",
            "actionBefore": "",
            "actionWhile": "",
            "actionAfter": "",
            "optionIcon": ""
        },
        {
            "id": 740089906,
            "talkRole": {
                "id": ""
            },
            "talkContentTextMapHash": 3327840442,
            "talkRoleNameTextMapHash": 1799469411,
            "talkAssetPath": "",
            "talkAssetPathAlter": "",
            "talkAudioName": "",
            "actionBefore": "",
            "actionWhile": "",
            "actionAfter": "",
            "optionIcon": ""
        },
        {
            "id": 740089907,
            "talkRole": {
                "id": ""
            },
            "talkContentTextMapHash": 1804641706,
            "talkRoleNameTextMapHash": 3014363107,
            "talkAssetPath": "",
            "talkAssetPathAlter": "",
            "talkAudioName": "",
            "actionBefore": "",
            "actionWhile": "",
            "actionAfter": "",
            "optionIcon": ""
        },
        {
            "id": 740089908,
            "talkRole": {
                "id": ""
            },
            "talkContentTextMapHash": 755087882,
            "talkRoleNameTextMapHash": 3618919715,
            "talkAssetPath": "",
            "talkAssetPathAlter": "",
            "talkAudioName": "",
            "actionBefore": "",
            "actionWhile": "",
            "actionAfter": "",
            "optionIcon": ""
        }
    ]
}