{
    "talkId": 7411601,
    "type": "NARRATOR",
    "dialogList": [
        {
            "id": 741169901,
            "nextDialogs": [
                741169902
            ],
            "talkRole": {
                "type": "TALK_ROLE_NPC",
                "id": "21162"
            },
            "talkContentTextMapHash": 4044613210,
            "talkAssetPath": "",
            "talkAssetPathAlter": "",
            "talkAudioName": "",
            "actionBefore": "",
            "actionWhile": "",
            "actionAfter": "",
            "optionIcon": ""
        },
        {
            "id": 741169902,
            "talkRole": {
                "type": "TALK_ROLE_NPC",
                "id": "1005"
            },
            "talkContentTextMapHash": 762352938,
            "talkAssetPath": "",
            "talkAssetPathAlter": "",
            "talkAudioName": "",
            "actionBefore": "",
            "actionWhile": "",
            "actionAfter": "",
            "optionIcon": ""
        }
    ]
}