{
    "talkId": 7416410,
    "type": "NARRATOR",
    "dialogList": [
        {
            "id": 741649924,
            "nextDialogs": [
                741649925
            ],
            "talkRole": {
                "type": "TALK_ROLE_NPC",
                "id": "1005"
            },
            "talkContentTextMapHash": 1787738194,
            "talkAssetPath": "",
            "talkAssetPathAlter": "",
            "talkAudioName": "",
            "actionBefore": "",
            "actionWhile": "",
            "actionAfter": "",
            "optionIcon": ""
        },
        {
            "id": 741649925,
            "talkRole": {
                "type": "TALK_ROLE_NPC",
                "id": "5291"
            },
            "talkContentTextMapHash": 1377398386,
            "talkAssetPath": "",
            "talkAssetPathAlter": "",
            "talkAudioName": "",
            "actionBefore": "",
            "actionWhile": "",
            "actionAfter": "",
            "optionIcon": ""
        }
    ]
}