{
    "luaDataPath": "",
    "startBlackKeepTime": 0.5,
    "entityBan": "",
    "disableNpcLod": true,
    "isAutoBanNpc": true,
    "isBanWidgetPet": true,
    "protectNpcMobileLod": true,
    "startFade": {
        "startFadeInDuration": 0.5,
        "startFadeOutDuration": 0.5
    },
    "endFade": {
        "startFadeOutDuration": 0.0
    },
    "actors": [
        {
            "alias": "Avatar",
            "visible": true,
            "bornPointName": "N10000005_T7322504_2774",
            "relativePosType": "AVATAR_NEW",
            "relativePosNpcAlias": "",
            "bindMovingTargetKey": ""
        },
        {
            "alias": "AvatarNpc",
            "visible": true,
            "bornPointName": "N10000005_T7322504_2774",
            "removeActorType": "REMOVE",
            "relativePosType": "AVATAR_NEW",
            "relativePosNpcAlias": "",
            "bindMovingTargetKey": ""
        },
        {
            "configID": 4296,
            "alias": "4296",
            "visible": true,
            "bornPointName": "N20723_T7322504",
            "removeActorType": "NEW_REMOVE",
            "relativePosType": "AVATAR_NEW",
            "relativePosNpcAlias": "",
            "bindMovingTargetKey": ""
        },
        {
            "configID": 1005,
            "alias": "1005",
            "visible": true,
            "bornPointName": "",
            "useRelativePos": true,
            "relativePos": {
                "x": 0.5,
                "z": 0.5
            },
            "removeActorType": "REMOVE_WITH_DISAPPEAR",
            "relativePosType": "AVATAR_NEW",
            "relativePosNpcAlias": "",
            "bindMovingTargetKey": ""
        }
    ],
    "group": [
        [
            {
                "$type": "MoleMole.Config.ConfigTimeProtectAction",
                "type": "TIME_PROTECT",
                "duration": 1.0,
                "actionId": 104
            },
            {
                "$type": "MoleMole.Config.ConfigBlackScreenAction",
                "type": "BLACK_SCREEN",
                "duration": 1.0,
                "actionId": 142,
                "blackScreenType": "KEEP_BLACK",
                "durationToBlack": 0.5,
                "durationKeepBlack": 1.0,
                "durationFromBlack": 0.5,
                "inteePos": "",
                "textMapID": "",
                "useTextFade": true
            },
            {
                "$type": "MoleMole.Config.ConfigVisibleInterAction",
                "type": "VISIBLE",
                "aliasList": [
                    "Avatar"
                ],
                "actionId": 147,
                "extraParam": ""
            },
            {
                "$type": "MoleMole.Config.ConfigTeleportToAction",
                "type": "TELEPORT_TO",
                "aliasList": [
                    "Avatar"
                ],
                "actionId": 258,
                "position": {
                    "x": -1238.5140380859375,
                    "y": -20.243000030517578,
                    "z": 5293.373046875
                },
                "forward": {
                    "x": -0.8149999976158142,
                    "y": 0.03799999877810478,
                    "z": 4.077000141143799
                },
                "openLongDisTeleport": true,
                "posBindMovingTargetKey": "",
                "forwardBindMovingTargetKey": ""
            },
            {
                "$type": "MoleMole.Config.ConfigPlayerNPCEnergyTypeAction",
                "type": "SET_PLAYER_NPC_ENERGY_TYPE",
                "aliasList": [
                    "AvatarNpc"
                ],
                "actionId": 145,
                "setHeroEngergyType": true
            },
            {
                "$type": "MoleMole.Config.ConfigTeleportToAction",
                "type": "TELEPORT_TO",
                "aliasList": [
                    "AvatarNpc"
                ],
                "actionId": 151,
                "position": {
                    "x": -1238.5140380859375,
                    "y": -20.243000030517578,
                    "z": 5293.373046875
                },
                "forward": {
                    "x": -0.8149999976158142,
                    "y": 0.03799999877810478,
                    "z": 4.077000141143799
                },
                "openLongDisTeleport": true,
                "posBindMovingTargetKey": "",
                "forwardBindMovingTargetKey": ""
            },
            {
                "$type": "MoleMole.Config.ConfigTeleportToAction",
                "type": "TELEPORT_TO",
                "aliasList": [
                    "4296"
                ],
                "actionId": 152,
                "position": {
                    "x": -1236.634033203125,
                    "y": -32.250999450683594,
                    "z": 5331.134765625
                },
                "forward": {
                    "x": 0.6959999799728394,
                    "y": -0.039000000804662704,
                    "z": 3.1589999198913574
                },
                "openLongDisTeleport": true,
                "posBindMovingTargetKey": "",
                "forwardBindMovingTargetKey": ""
            },
            {
                "$type": "MoleMole.Config.ConfigTeleportToAction",
                "type": "TELEPORT_TO",
                "aliasList": [
                    "1005"
                ],
                "actionId": 153,
                "position": {
                    "x": -1237.4129638671875,
                    "y": -20.24799919128418,
                    "z": 5293.85400390625
                },
                "forward": {
                    "x": -1.0700000524520874,
                    "y": 0.02500000037252903,
                    "z": 4.577000141143799
                },
                "openLongDisTeleport": true,
                "posBindMovingTargetKey": "",
                "forwardBindMovingTargetKey": ""
            },
            {
                "$type": "MoleMole.Config.ConfigSetModelTransform",
                "type": "SET_MODEL_TRANSFORM",
                "delayTime": 0.06800000369548798,
                "aliasList": [
                    "1005"
                ],
                "actionId": 162,
                "groudHight": 1.0
            },
            {
                "$type": "MoleMole.Config.ConfigSetModelTransform",
                "type": "SET_MODEL_TRANSFORM",
                "delayTime": 0.09700000286102295,
                "aliasList": [
                    "AvatarNpc"
                ],
                "actionId": 159,
                "groudHight": 0.5
            }
        ],
        [
            {
                "$type": "MoleMole.Config.ConfigBlackScreenAction",
                "type": "BLACK_SCREEN",
                "duration": 0.5,
                "actionId": 143,
                "blackScreenType": "FROM_BLACK",
                "durationToBlack": 0.5,
                "durationKeepBlack": 0.5,
                "durationFromBlack": 0.5,
                "inteePos": "",
                "textMapID": "",
                "useTextFade": true
            },
            {
                "$type": "BCJBNCJOPCE",
                "type": "CAMERA_MOVE",
                "duration": 0.5,
                "actionId": 158,
                "AKFGKKEOEFA": {
                    "x": -1236.7869873046875,
                    "y": -31.052000045776367,
                    "z": 5331.7880859375
                },
                "NGEBMAEFFGJ": {
                    "x": -1236.64794921875,
                    "y": -30.756999969482422,
                    "z": 5330.8427734375
                },
                "LIGHLBKBDEI": 20.0,
                "GFIOJGJJGCN": 6,
                "ABAEPHOGOFF": "EaseInOutCubic",
                "KFDBMBFFANN": {},
                "IEJBKHHEJEN": true,
                "GDHBGCNKHDE": 343.760986328125,
                "CEDHIBLHMKP": false,
                "KIPMIDIKECP": "",
                "ANFHNPOCMNI": true,
                "BDLGHOJPJHD": "",
                "LCOJGFEOLCK": "",
                "BBBGAEDCJEL": ""
            },
            {
                "$type": "MoleMole.Config.ConfigMoveToAction",
                "type": "MOVE_TO",
                "aliasList": [
                    "Avatar"
                ],
                "actionId": 259,
                "moveType": "WALK",
                "routeList": [
                    {
                        "x": -1239.2750244140625,
                        "y": -20.240999221801758,
                        "z": 5297.09814453125
                    }
                ],
                "exactlyMove": true,
                "closeNavMesh": true,
                "closeAvatarNavMesh": true,
                "openSetPos": true,
                "bindMovingTargetKey": ""
            },
            {
                "$type": "MoleMole.Config.ConfigMoveToAction",
                "type": "MOVE_TO",
                "aliasList": [
                    "AvatarNpc"
                ],
                "actionId": 160,
                "moveType": "WALK",
                "routeList": [
                    {
                        "x": -1239.2750244140625,
                        "y": -20.240999221801758,
                        "z": 5297.09814453125
                    }
                ],
                "exactlyMove": true,
                "closeNavMesh": true,
                "openSetPos": true,
                "bindMovingTargetKey": ""
            },
            {
                "$type": "CCEEIGNAILH",
                "type": "DIALOG",
                "aliasList": [
                    "4296"
                ],
                "actionId": 107,
                "KICBIOMGHIN": 732251301,
                "PNCCODDABKI": 3.0
            },
            {
                "$type": "MoleMole.Config.ConfigMoveToAction",
                "type": "MOVE_TO",
                "aliasList": [
                    "1005"
                ],
                "actionId": 161,
                "moveType": "WALK",
                "routeList": [
                    {
                        "x": -1238.5679931640625,
                        "y": -20.24799919128418,
                        "z": 5297.1630859375
                    }
                ],
                "exactlyMove": true,
                "closeNavMesh": true,
                "openSetPos": true,
                "bindMovingTargetKey": ""
            },
            {
                "$type": "BCJBNCJOPCE",
                "type": "CAMERA_MOVE",
                "delayTime": 0.10000000149011612,
                "duration": 6.000999927520752,
                "actionId": 156,
                "AKFGKKEOEFA": {
                    "x": -1236.8409423828125,
                    "y": -31.05299949645996,
                    "z": 5331.77880859375
                },
                "NGEBMAEFFGJ": {
                    "x": -1236.7509765625,
                    "y": -30.73900032043457,
                    "z": 5330.8330078125
                },
                "LIGHLBKBDEI": 20.0,
                "GFIOJGJJGCN": 2,
                "ABAEPHOGOFF": "EaseOutQuad",
                "KFDBMBFFANN": {},
                "IEJBKHHEJEN": true,
                "GDHBGCNKHDE": 343.65301513671875,
                "CEDHIBLHMKP": false,
                "KIPMIDIKECP": "",
                "ANFHNPOCMNI": true,
                "BDLGHOJPJHD": "",
                "LCOJGFEOLCK": "",
                "BBBGAEDCJEL": ""
            }
        ],
        [
            {
                "$type": "CCEEIGNAILH",
                "type": "DIALOG",
                "aliasList": [
                    "1005"
                ],
                "actionId": 109,
                "KICBIOMGHIN": 732251302,
                "PNCCODDABKI": 2.0
            },
            {
                "$type": "IBPNIIGAIPF",
                "type": "LOOK_AT",
                "aliasList": [
                    "1005"
                ],
                "actionId": 165,
                "GGIENKFBOGL": true,
                "NDOMJCOFKDJ": 0.5,
                "KIPMIDIKECP": "4296",
                "CFEHJBAJLKL": {
                    "y": -10.0
                },
                "FGPHOPBEJDE": true,
                "HJJAFGPMJNJ": "",
                "AOFBAGFCGPJ": ""
            },
            {
                "$type": "IBPNIIGAIPF",
                "type": "LOOK_AT",
                "delayTime": 0.27300000190734863,
                "aliasList": [
                    "AvatarNpc"
                ],
                "actionId": 164,
                "GGIENKFBOGL": true,
                "NDOMJCOFKDJ": 0.5,
                "KIPMIDIKECP": "4296",
                "CFEHJBAJLKL": {
                    "y": -10.0
                },
                "FGPHOPBEJDE": true,
                "HJJAFGPMJNJ": "",
                "AOFBAGFCGPJ": ""
            },
            {
                "$type": "BCJBNCJOPCE",
                "type": "CAMERA_MOVE",
                "delayTime": 0.30000001192092896,
                "duration": 0.5,
                "actionId": 163,
                "AKFGKKEOEFA": {
                    "x": -1240.791015625,
                    "y": -18.19499969482422,
                    "z": 5300.3388671875
                },
                "NGEBMAEFFGJ": {
                    "x": -1240.324951171875,
                    "y": -18.253999710083008,
                    "z": 5299.4560546875
                },
                "LIGHLBKBDEI": 15.0,
                "GFIOJGJJGCN": 6,
                "ABAEPHOGOFF": "EaseInOutCubic",
                "KFDBMBFFANN": {},
                "IEJBKHHEJEN": true,
                "CEDHIBLHMKP": false,
                "KIPMIDIKECP": "",
                "ANFHNPOCMNI": true,
                "BDLGHOJPJHD": "",
                "LCOJGFEOLCK": "",
                "BBBGAEDCJEL": ""
            },
            {
                "$type": "BCJBNCJOPCE",
                "type": "CAMERA_MOVE",
                "delayTime": 0.4000000059604645,
                "duration": 6.166999816894531,
                "actionId": 157,
                "AKFGKKEOEFA": {
                    "x": -1240.6920166015625,
                    "y": -18.277999877929688,
                    "z": 5300.39892578125
                },
                "NGEBMAEFFGJ": {
                    "x": -1240.2259521484375,
                    "y": -18.336999893188477,
                    "z": 5299.51611328125
                },
                "LIGHLBKBDEI": 15.0,
                "GFIOJGJJGCN": 2,
                "ABAEPHOGOFF": "EaseOutQuad",
                "KFDBMBFFANN": {},
                "IEJBKHHEJEN": true,
                "CEDHIBLHMKP": false,
                "KIPMIDIKECP": "",
                "ANFHNPOCMNI": true,
                "BDLGHOJPJHD": "",
                "LCOJGFEOLCK": "",
                "BBBGAEDCJEL": ""
            },
            {
                "$type": "KCBOGFFHPBD",
                "type": "BODY_LANG",
                "delayTime": 0.6869999766349792,
                "aliasList": [
                    "1005"
                ],
                "actionId": 166,
                "GPIEDGOMCGL": 1060,
                "FHLAMNNHMFA": true,
                "KCEHDJLKIAL": false,
                "KCOLHJBDILK": true,
                "AOFEDPBOOIE": ""
            },
            {
                "$type": "KCBOGFFHPBD",
                "type": "BODY_LANG",
                "delayTime": 2.3320000171661377,
                "aliasList": [
                    "1005"
                ],
                "actionId": 167,
                "AHGOBCDHCMC": true,
                "FHLAMNNHMFA": true,
                "KCEHDJLKIAL": false,
                "KCOLHJBDILK": true,
                "AOFEDPBOOIE": ""
            }
        ],
        [
            {
                "$type": "MoleMole.Config.ConfigMoveToAction",
                "type": "MOVE_TO",
                "aliasList": [
                    "Avatar"
                ],
                "actionId": 260,
                "moveType": "WALK",
                "routeList": [
                    {
                        "x": -1239.623046875,
                        "y": -19.974000930786133,
                        "z": 5298.65380859375
                    }
                ],
                "exactlyMove": true,
                "closeNavMesh": true,
                "closeAvatarNavMesh": true,
                "openSetPos": true,
                "bindMovingTargetKey": ""
            },
            {
                "$type": "MoleMole.Config.ConfigMoveToAction",
                "type": "MOVE_TO",
                "aliasList": [
                    "AvatarNpc"
                ],
                "actionId": 169,
                "moveType": "WALK",
                "routeList": [
                    {
                        "x": -1239.623046875,
                        "y": -19.974000930786133,
                        "z": 5298.65380859375
                    }
                ],
                "exactlyMove": true,
                "closeNavMesh": true,
                "openSetPos": true,
                "bindMovingTargetKey": ""
            },
            {
                "$type": "CCEEIGNAILH",
                "type": "DIALOG",
                "aliasList": [
                    "4296"
                ],
                "actionId": 111,
                "KICBIOMGHIN": 732251303,
                "PNCCODDABKI": 0.5
            },
            {
                "$type": "KCBOGFFHPBD",
                "type": "BODY_LANG",
                "aliasList": [
                    "1005"
                ],
                "actionId": 168,
                "AHGOBCDHCMC": true,
                "FHLAMNNHMFA": true,
                "KCEHDJLKIAL": false,
                "KCOLHJBDILK": true,
                "AOFEDPBOOIE": ""
            },
            {
                "$type": "MoleMole.Config.ConfigMoveToAction",
                "type": "MOVE_TO",
                "aliasList": [
                    "1005"
                ],
                "actionId": 170,
                "moveType": "WALK",
                "routeList": [
                    {
                        "x": -1238.9639892578125,
                        "y": -20.023000717163086,
                        "z": 5299.01416015625
                    }
                ],
                "exactlyMove": true,
                "closeNavMesh": true,
                "openSetPos": true,
                "bindMovingTargetKey": ""
            },
            {
                "$type": "BCJBNCJOPCE",
                "type": "CAMERA_MOVE",
                "delayTime": 0.4000000059604645,
                "duration": 0.5,
                "actionId": 172,
                "AKFGKKEOEFA": {
                    "x": -1240.615966796875,
                    "y": -30.836000442504883,
                    "z": 5320.044921875
                },
                "NGEBMAEFFGJ": {
                    "x": -1240.2779541015625,
                    "y": -30.913000106811523,
                    "z": 5320.98291015625
                },
                "LIGHLBKBDEI": 30.0,
                "GFIOJGJJGCN": 6,
                "ABAEPHOGOFF": "EaseInOutCubic",
                "KFDBMBFFANN": {},
                "IEJBKHHEJEN": true,
                "CEDHIBLHMKP": false,
                "KIPMIDIKECP": "",
                "ANFHNPOCMNI": true,
                "BDLGHOJPJHD": "",
                "LCOJGFEOLCK": "",
                "BBBGAEDCJEL": ""
            },
            {
                "$type": "BCJBNCJOPCE",
                "type": "CAMERA_MOVE",
                "delayTime": 0.5,
                "duration": 9.0,
                "actionId": 171,
                "AKFGKKEOEFA": {
                    "x": -1239.7950439453125,
                    "y": -30.87299919128418,
                    "z": 5322.35302734375
                },
                "NGEBMAEFFGJ": {
                    "x": -1239.45703125,
                    "y": -30.950000762939453,
                    "z": 5323.291015625
                },
                "LIGHLBKBDEI": 30.0,
                "GFIOJGJJGCN": 2,
                "ABAEPHOGOFF": "EaseOutQuad",
                "KFDBMBFFANN": {},
                "IEJBKHHEJEN": true,
                "CEDHIBLHMKP": false,
                "KIPMIDIKECP": "",
                "ANFHNPOCMNI": true,
                "BDLGHOJPJHD": "",
                "LCOJGFEOLCK": "",
                "BBBGAEDCJEL": ""
            }
        ],
        [
            {
                "$type": "MoleMole.Config.ConfigTeleportToAction",
                "type": "TELEPORT_TO",
                "aliasList": [
                    "Avatar"
                ],
                "actionId": 261,
                "position": {
                    "x": -1241.636962890625,
                    "y": -31.114999771118164,
                    "z": 5314.2080078125
                },
                "forward": {
                    "x": 0.24199999868869781,
                    "z": 0.9700000286102295
                },
                "openLongDisTeleport": true,
                "posBindMovingTargetKey": "",
                "forwardBindMovingTargetKey": ""
            },
            {
                "$type": "MoleMole.Config.ConfigTeleportToAction",
                "type": "TELEPORT_TO",
                "aliasList": [
                    "AvatarNpc"
                ],
                "actionId": 174,
                "position": {
                    "x": -1241.636962890625,
                    "y": -31.114999771118164,
                    "z": 5314.2080078125
                },
                "forward": {
                    "x": 0.24199999868869781,
                    "z": 0.9700000286102295
                },
                "openLongDisTeleport": true,
                "posBindMovingTargetKey": "",
                "forwardBindMovingTargetKey": ""
            },
            {
                "$type": "IBPNIIGAIPF",
                "type": "LOOK_AT",
                "aliasList": [
                    "AvatarNpc"
                ],
                "actionId": 179,
                "NDOMJCOFKDJ": 0.5,
                "KIPMIDIKECP": "",
                "FGPHOPBEJDE": true,
                "HJJAFGPMJNJ": "",
                "AOFBAGFCGPJ": ""
            },
            {
                "$type": "CCEEIGNAILH",
                "type": "DIALOG",
                "aliasList": [
                    "4296"
                ],
                "actionId": 113,
                "KICBIOMGHIN": 732251304,
                "PNCCODDABKI": 1.0
            },
            {
                "$type": "MoleMole.Config.ConfigTeleportToAction",
                "type": "TELEPORT_TO",
                "aliasList": [
                    "1005"
                ],
                "actionId": 175,
                "position": {
                    "x": -1242.6590576171875,
                    "y": -31.12700080871582,
                    "z": 5314.68798828125
                },
                "forward": {
                    "x": 0.125,
                    "z": 0.9919999837875366
                },
                "openLongDisTeleport": true,
                "posBindMovingTargetKey": "",
                "forwardBindMovingTargetKey": ""
            },
            {
                "$type": "IBPNIIGAIPF",
                "type": "LOOK_AT",
                "aliasList": [
                    "1005"
                ],
                "actionId": 180,
                "NDOMJCOFKDJ": 0.5,
                "KIPMIDIKECP": "",
                "FGPHOPBEJDE": true,
                "HJJAFGPMJNJ": "",
                "AOFBAGFCGPJ": ""
            },
            {
                "$type": "MoleMole.Config.ConfigSetModelTransform",
                "type": "SET_MODEL_TRANSFORM",
                "delayTime": 0.14100000262260437,
                "aliasList": [
                    "AvatarNpc"
                ],
                "actionId": 177,
                "isReset": true
            },
            {
                "$type": "MoleMole.Config.ConfigSetModelTransform",
                "type": "SET_MODEL_TRANSFORM",
                "delayTime": 0.14900000393390656,
                "aliasList": [
                    "1005"
                ],
                "actionId": 176,
                "isReset": true
            },
            {
                "$type": "MoleMole.Config.ConfigTeleportToAction",
                "type": "TELEPORT_TO",
                "delayTime": 0.5910000205039978,
                "aliasList": [
                    "1005"
                ],
                "actionId": 186,
                "position": {
                    "x": -1240.2530517578125,
                    "y": -32.2869987487793,
                    "z": 5320.01416015625
                },
                "forward": {
                    "x": 0.2720000147819519,
                    "z": 0.9620000123977661
                },
                "openLongDisTeleport": true,
                "posBindMovingTargetKey": "",
                "forwardBindMovingTargetKey": ""
            },
            {
                "$type": "MoleMole.Config.ConfigTeleportToAction",
                "type": "TELEPORT_TO",
                "delayTime": 0.6230000257492065,
                "aliasList": [
                    "Avatar"
                ],
                "actionId": 262,
                "position": {
                    "x": -1240.9739990234375,
                    "y": -32.2869987487793,
                    "z": 5320.2998046875
                },
                "forward": {
                    "x": 0.4880000054836273,
                    "z": 0.8730000257492065
                },
                "openLongDisTeleport": true,
                "posBindMovingTargetKey": "",
                "forwardBindMovingTargetKey": ""
            },
            {
                "$type": "MoleMole.Config.ConfigTeleportToAction",
                "type": "TELEPORT_TO",
                "delayTime": 0.6230000257492065,
                "aliasList": [
                    "AvatarNpc"
                ],
                "actionId": 185,
                "position": {
                    "x": -1240.9739990234375,
                    "y": -32.2869987487793,
                    "z": 5320.2998046875
                },
                "forward": {
                    "x": 0.4880000054836273,
                    "z": 0.8730000257492065
                },
                "openLongDisTeleport": true,
                "posBindMovingTargetKey": "",
                "forwardBindMovingTargetKey": ""
            }
        ],
        [
            {
                "$type": "MoleMole.Config.ConfigMoveToAction",
                "type": "MOVE_TO",
                "aliasList": [
                    "Avatar"
                ],
                "actionId": 263,
                "moveType": "WALK",
                "routeList": [
                    {
                        "x": -1240.1500244140625,
                        "y": -32.2869987487793,
                        "z": 5321.64697265625
                    }
                ],
                "exactlyMove": true,
                "closeNavMesh": true,
                "closeAvatarNavMesh": true,
                "openSetPos": true,
                "bindMovingTargetKey": ""
            },
            {
                "$type": "IBPNIIGAIPF",
                "type": "LOOK_AT",
                "aliasList": [
                    "AvatarNpc"
                ],
                "actionId": 182,
                "GGIENKFBOGL": true,
                "NDOMJCOFKDJ": -1.0,
                "KIPMIDIKECP": "4296",
                "FGPHOPBEJDE": true,
                "HJJAFGPMJNJ": "",
                "AOFBAGFCGPJ": ""
            },
            {
                "$type": "MoleMole.Config.ConfigMoveToAction",
                "type": "MOVE_TO",
                "aliasList": [
                    "AvatarNpc"
                ],
                "actionId": 187,
                "moveType": "WALK",
                "routeList": [
                    {
                        "x": -1240.1500244140625,
                        "y": -32.2869987487793,
                        "z": 5321.64697265625
                    }
                ],
                "exactlyMove": true,
                "closeNavMesh": true,
                "openSetPos": true,
                "bindMovingTargetKey": ""
            },
            {
                "$type": "IBPNIIGAIPF",
                "type": "LOOK_AT",
                "aliasList": [
                    "1005"
                ],
                "actionId": 184,
                "GGIENKFBOGL": true,
                "NDOMJCOFKDJ": -1.0,
                "KIPMIDIKECP": "4296",
                "FGPHOPBEJDE": true,
                "HJJAFGPMJNJ": "",
                "AOFBAGFCGPJ": ""
            },
            {
                "$type": "MoleMole.Config.ConfigMoveToAction",
                "type": "MOVE_TO",
                "aliasList": [
                    "1005"
                ],
                "actionId": 188,
                "moveType": "WALK",
                "routeList": [
                    {
                        "x": -1239.532958984375,
                        "y": -32.2869987487793,
                        "z": 5321.365234375
                    }
                ],
                "exactlyMove": true,
                "closeNavMesh": true,
                "openSetPos": true,
                "bindMovingTargetKey": ""
            },
            {
                "$type": "BCJBNCJOPCE",
                "type": "CAMERA_MOVE",
                "delayTime": 0.10000000149011612,
                "duration": 0.5,
                "actionId": 189,
                "AKFGKKEOEFA": {
                    "x": -1240.656005859375,
                    "y": -31.533000946044922,
                    "z": 5323.703125
                },
                "NGEBMAEFFGJ": {
                    "x": -1240.4560546875,
                    "y": -31.41200065612793,
                    "z": 5322.73095703125
                },
                "LIGHLBKBDEI": 30.0,
                "GFIOJGJJGCN": 6,
                "ABAEPHOGOFF": "EaseInOutCubic",
                "KFDBMBFFANN": {},
                "IEJBKHHEJEN": true,
                "CEDHIBLHMKP": false,
                "KIPMIDIKECP": "",
                "ANFHNPOCMNI": true,
                "BDLGHOJPJHD": "",
                "LCOJGFEOLCK": "",
                "BBBGAEDCJEL": ""
            },
            {
                "$type": "BCJBNCJOPCE",
                "type": "CAMERA_MOVE",
                "delayTime": 0.20000000298023224,
                "duration": 8.923999786376953,
                "actionId": 178,
                "AKFGKKEOEFA": {
                    "x": -1240.626953125,
                    "y": -31.14299964904785,
                    "z": 5323.72705078125
                },
                "NGEBMAEFFGJ": {
                    "x": -1240.428955078125,
                    "y": -31.100000381469727,
                    "z": 5322.748046875
                },
                "LIGHLBKBDEI": 30.0,
                "GFIOJGJJGCN": 2,
                "ABAEPHOGOFF": "EaseOutQuad",
                "KFDBMBFFANN": {},
                "IEJBKHHEJEN": true,
                "CEDHIBLHMKP": false,
                "KIPMIDIKECP": "",
                "ANFHNPOCMNI": true,
                "BDLGHOJPJHD": "",
                "LCOJGFEOLCK": "",
                "BBBGAEDCJEL": ""
            },
            {
                "$type": "CCEEIGNAILH",
                "type": "DIALOG",
                "delayTime": 1.7100000381469727,
                "aliasList": [
                    "1005"
                ],
                "actionId": 115,
                "KICBIOMGHIN": 732251305,
                "PNCCODDABKI": 0.5
            }
        ],
        [
            {
                "$type": "BCJBNCJOPCE",
                "type": "CAMERA_MOVE",
                "duration": 0.5,
                "actionId": 191,
                "AKFGKKEOEFA": {
                    "x": -1237.1619873046875,
                    "y": -30.944000244140625,
                    "z": 5330.19091796875
                },
                "NGEBMAEFFGJ": {
                    "x": -1236.2130126953125,
                    "y": -30.6299991607666,
                    "z": 5330.23095703125
                },
                "LIGHLBKBDEI": 30.0,
                "GFIOJGJJGCN": 6,
                "ABAEPHOGOFF": "EaseInOutCubic",
                "KFDBMBFFANN": {},
                "IEJBKHHEJEN": true,
                "CEDHIBLHMKP": false,
                "KIPMIDIKECP": "",
                "ANFHNPOCMNI": true,
                "BDLGHOJPJHD": "",
                "LCOJGFEOLCK": "",
                "BBBGAEDCJEL": ""
            },
            {
                "$type": "CCEEIGNAILH",
                "type": "DIALOG",
                "aliasList": [
                    "4296"
                ],
                "actionId": 117,
                "KICBIOMGHIN": 732251306,
                "PNCCODDABKI": 0.5
            },
            {
                "$type": "BCJBNCJOPCE",
                "type": "CAMERA_MOVE",
                "delayTime": 0.10000000149011612,
                "duration": 0.6000000238418579,
                "actionId": 190,
                "AKFGKKEOEFA": {
                    "x": -1237.2060546875,
                    "y": -30.923999786376953,
                    "z": 5331.07177734375
                },
                "NGEBMAEFFGJ": {
                    "x": -1236.2569580078125,
                    "y": -30.610000610351562,
                    "z": 5331.11181640625
                },
                "LIGHLBKBDEI": 30.0,
                "GFIOJGJJGCN": 2,
                "ABAEPHOGOFF": "EaseOutQuad",
                "KFDBMBFFANN": {},
                "IEJBKHHEJEN": true,
                "CEDHIBLHMKP": false,
                "KIPMIDIKECP": "",
                "ANFHNPOCMNI": true,
                "BDLGHOJPJHD": "",
                "LCOJGFEOLCK": "",
                "BBBGAEDCJEL": ""
            },
            {
                "$type": "IBPNIIGAIPF",
                "type": "LOOK_AT",
                "delayTime": 0.22699999809265137,
                "aliasList": [
                    "4296"
                ],
                "actionId": 250,
                "GGIENKFBOGL": true,
                "useTargetPos": true,
                "GCOONJBHNIM": true,
                "JHNJNNOPJKG": {
                    "x": -1236.989013671875,
                    "y": -30.92799949645996,
                    "z": 5331.6279296875
                },
                "NDOMJCOFKDJ": 0.5,
                "KIPMIDIKECP": "",
                "AHLPNEGAKGG": "NONE",
                "FGPHOPBEJDE": true,
                "HJJAFGPMJNJ": "",
                "AOFBAGFCGPJ": ""
            },
            {
                "$type": "BCJBNCJOPCE",
                "type": "CAMERA_MOVE",
                "delayTime": 0.699999988079071,
                "duration": 8.36400032043457,
                "actionId": 192,
                "AKFGKKEOEFA": {
                    "x": -1237.20703125,
                    "y": -30.923999786376953,
                    "z": 5331.1201171875
                },
                "NGEBMAEFFGJ": {
                    "x": -1236.258056640625,
                    "y": -30.610000610351562,
                    "z": 5331.16015625
                },
                "LIGHLBKBDEI": 30.0,
                "GFIOJGJJGCN": 2,
                "ABAEPHOGOFF": "EaseOutQuad",
                "KFDBMBFFANN": {},
                "IEJBKHHEJEN": true,
                "CEDHIBLHMKP": false,
                "KIPMIDIKECP": "",
                "ANFHNPOCMNI": true,
                "BDLGHOJPJHD": "",
                "LCOJGFEOLCK": "",
                "BBBGAEDCJEL": ""
            }
        ],
        [
            {
                "$type": "CCEEIGNAILH",
                "type": "DIALOG",
                "aliasList": [
                    "4296"
                ],
                "actionId": 119,
                "KICBIOMGHIN": 732251307,
                "PNCCODDABKI": 0.5
            }
        ],
        [
            {
                "$type": "CCEEIGNAILH",
                "type": "DIALOG",
                "aliasList": [
                    "4296"
                ],
                "actionId": 121,
                "KICBIOMGHIN": 732251308,
                "PNCCODDABKI": 2.5
            },
            {
                "$type": "KCBOGFFHPBD",
                "type": "BODY_LANG",
                "aliasList": [
                    "4296"
                ],
                "actionId": 194,
                "AHGOBCDHCMC": true,
                "FHLAMNNHMFA": true,
                "KCEHDJLKIAL": false,
                "KCOLHJBDILK": true,
                "AOFEDPBOOIE": ""
            },
            {
                "$type": "BCJBNCJOPCE",
                "type": "CAMERA_MOVE",
                "delayTime": 0.30000001192092896,
                "duration": 0.5,
                "actionId": 195,
                "AKFGKKEOEFA": {
                    "x": -1241.3079833984375,
                    "y": -30.79400062561035,
                    "z": 5319.89794921875
                },
                "NGEBMAEFFGJ": {
                    "x": -1240.7779541015625,
                    "y": -30.941999435424805,
                    "z": 5320.73291015625
                },
                "LIGHLBKBDEI": 30.0,
                "GFIOJGJJGCN": 6,
                "ABAEPHOGOFF": "EaseInOutCubic",
                "KFDBMBFFANN": {},
                "IEJBKHHEJEN": true,
                "CEDHIBLHMKP": false,
                "KIPMIDIKECP": "",
                "ANFHNPOCMNI": true,
                "BDLGHOJPJHD": "",
                "LCOJGFEOLCK": "",
                "BBBGAEDCJEL": ""
            },
            {
                "$type": "BCJBNCJOPCE",
                "type": "CAMERA_MOVE",
                "delayTime": 0.4000000059604645,
                "duration": 10.154999732971191,
                "actionId": 193,
                "AKFGKKEOEFA": {
                    "x": -1241.529052734375,
                    "y": -30.792999267578125,
                    "z": 5320.046875
                },
                "NGEBMAEFFGJ": {
                    "x": -1240.9520263671875,
                    "y": -30.94099998474121,
                    "z": 5320.85009765625
                },
                "LIGHLBKBDEI": 30.0,
                "GFIOJGJJGCN": 2,
                "ABAEPHOGOFF": "EaseOutQuad",
                "KFDBMBFFANN": {},
                "IEJBKHHEJEN": true,
                "CEDHIBLHMKP": false,
                "KIPMIDIKECP": "",
                "ANFHNPOCMNI": true,
                "BDLGHOJPJHD": "",
                "LCOJGFEOLCK": "",
                "BBBGAEDCJEL": ""
            },
            {
                "$type": "CNBNGFNKLGP",
                "type": "STEER_TO",
                "delayTime": 1.0329999923706055,
                "duration": 1.0,
                "aliasList": [
                    "4296"
                ],
                "actionId": 196,
                "DEMFHGAIELL": "ABSOLUTE",
                "KDKLEJFHDJG": {
                    "x": -1238.31298828125,
                    "y": -32.26100158691406,
                    "z": 5326.6298828125
                },
                "BBNLLCHBKAI": true,
                "COJBPJMLIFM": true,
                "NLIKMFJCLBP": true,
                "KIPMIDIKECP": "",
                "IDIIDHLNENJ": true,
                "FDLMFGAMGJK": true,
                "AOFBAGFCGPJ": ""
            },
            {
                "$type": "IBPNIIGAIPF",
                "type": "LOOK_AT",
                "delayTime": 1.0490000247955322,
                "aliasList": [
                    "4296"
                ],
                "actionId": 197,
                "GGIENKFBOGL": true,
                "useTargetPos": true,
                "GCOONJBHNIM": true,
                "JHNJNNOPJKG": {
                    "x": -1240.281005859375,
                    "y": -30.871000289916992,
                    "z": 5321.23486328125
                },
                "NDOMJCOFKDJ": 0.5,
                "KIPMIDIKECP": "",
                "AHLPNEGAKGG": "NONE",
                "FGPHOPBEJDE": true,
                "HJJAFGPMJNJ": "",
                "AOFBAGFCGPJ": ""
            }
        ],
        [
            {
                "$type": "BCJBNCJOPCE",
                "type": "CAMERA_MOVE",
                "duration": 0.5,
                "actionId": 199,
                "AKFGKKEOEFA": {
                    "x": -1236.43701171875,
                    "y": -30.679000854492188,
                    "z": 5332.80615234375
                },
                "NGEBMAEFFGJ": {
                    "x": -1236.593017578125,
                    "y": -30.746999740600586,
                    "z": 5331.82080078125
                },
                "LIGHLBKBDEI": 20.0,
                "GFIOJGJJGCN": 6,
                "ABAEPHOGOFF": "EaseInOutCubic",
                "KFDBMBFFANN": {},
                "IEJBKHHEJEN": true,
                "CEDHIBLHMKP": false,
                "KIPMIDIKECP": "",
                "ANFHNPOCMNI": true,
                "BDLGHOJPJHD": "",
                "LCOJGFEOLCK": "",
                "BBBGAEDCJEL": ""
            },
            {
                "$type": "CCEEIGNAILH",
                "type": "DIALOG",
                "aliasList": [
                    "1005"
                ],
                "actionId": 123,
                "KICBIOMGHIN": 732251309,
                "PNCCODDABKI": 0.5
            },
            {
                "$type": "BCJBNCJOPCE",
                "type": "CAMERA_MOVE",
                "delayTime": 0.10000000149011612,
                "duration": 13.718999862670898,
                "actionId": 198,
                "AKFGKKEOEFA": {
                    "x": -1236.5469970703125,
                    "y": -30.677000045776367,
                    "z": 5332.8232421875
                },
                "NGEBMAEFFGJ": {
                    "x": -1236.72705078125,
                    "y": -30.7450008392334,
                    "z": 5331.841796875
                },
                "LIGHLBKBDEI": 20.0,
                "GFIOJGJJGCN": 2,
                "ABAEPHOGOFF": "EaseOutQuad",
                "KFDBMBFFANN": {},
                "IEJBKHHEJEN": true,
                "CEDHIBLHMKP": false,
                "KIPMIDIKECP": "",
                "ANFHNPOCMNI": true,
                "BDLGHOJPJHD": "",
                "LCOJGFEOLCK": "",
                "BBBGAEDCJEL": ""
            },
            {
                "$type": "KCBOGFFHPBD",
                "type": "BODY_LANG",
                "delayTime": 0.26600000262260437,
                "aliasList": [
                    "1005"
                ],
                "actionId": 200,
                "GPIEDGOMCGL": 1300,
                "FHLAMNNHMFA": true,
                "KCEHDJLKIAL": false,
                "KCOLHJBDILK": true,
                "AOFEDPBOOIE": ""
            }
        ],
        [
            {
                "$type": "BCJBNCJOPCE",
                "type": "CAMERA_MOVE",
                "duration": 0.5,
                "actionId": 203,
                "AKFGKKEOEFA": {
                    "x": -1238.27294921875,
                    "y": -31.110000610351562,
                    "z": 5330.2412109375
                },
                "NGEBMAEFFGJ": {
                    "x": -1237.35205078125,
                    "y": -31.018999099731445,
                    "z": 5330.6201171875
                },
                "LIGHLBKBDEI": 30.0,
                "GFIOJGJJGCN": 6,
                "ABAEPHOGOFF": "EaseInOutCubic",
                "KFDBMBFFANN": {},
                "IEJBKHHEJEN": true,
                "CEDHIBLHMKP": false,
                "KIPMIDIKECP": "",
                "ANFHNPOCMNI": true,
                "BDLGHOJPJHD": "",
                "LCOJGFEOLCK": "",
                "BBBGAEDCJEL": ""
            },
            {
                "$type": "CCEEIGNAILH",
                "type": "DIALOG",
                "aliasList": [
                    "4296"
                ],
                "actionId": 125,
                "KICBIOMGHIN": 732251310,
                "PNCCODDABKI": 0.5
            },
            {
                "$type": "BCJBNCJOPCE",
                "type": "CAMERA_MOVE",
                "delayTime": 0.10000000149011612,
                "duration": 9.515000343322754,
                "actionId": 202,
                "AKFGKKEOEFA": {
                    "x": -1238.31201171875,
                    "y": -31.10700035095215,
                    "z": 5330.337890625
                },
                "NGEBMAEFFGJ": {
                    "x": -1237.3909912109375,
                    "y": -31.016000747680664,
                    "z": 5330.716796875
                },
                "LIGHLBKBDEI": 30.0,
                "GFIOJGJJGCN": 2,
                "ABAEPHOGOFF": "EaseOutQuad",
                "KFDBMBFFANN": {},
                "IEJBKHHEJEN": true,
                "CEDHIBLHMKP": false,
                "KIPMIDIKECP": "",
                "ANFHNPOCMNI": true,
                "BDLGHOJPJHD": "",
                "LCOJGFEOLCK": "",
                "BBBGAEDCJEL": ""
            },
            {
                "$type": "KCBOGFFHPBD",
                "type": "BODY_LANG",
                "delayTime": 0.26499998569488525,
                "aliasList": [
                    "4296"
                ],
                "actionId": 204,
                "GPIEDGOMCGL": 1180,
                "FHLAMNNHMFA": true,
                "KCEHDJLKIAL": false,
                "KCOLHJBDILK": true,
                "AOFEDPBOOIE": ""
            },
            {
                "$type": "KCBOGFFHPBD",
                "type": "BODY_LANG",
                "delayTime": 3.7330000400543213,
                "aliasList": [
                    "4296"
                ],
                "actionId": 205,
                "AHGOBCDHCMC": true,
                "FHLAMNNHMFA": true,
                "KCEHDJLKIAL": false,
                "KCOLHJBDILK": true,
                "AOFEDPBOOIE": ""
            }
        ],
        [
            {
                "$type": "BCJBNCJOPCE",
                "type": "CAMERA_MOVE",
                "duration": 0.5,
                "actionId": 208,
                "AKFGKKEOEFA": {
                    "x": -1238.9610595703125,
                    "y": -30.048999786376953,
                    "z": 5325.14697265625
                },
                "NGEBMAEFFGJ": {
                    "x": -1239.135986328125,
                    "y": -30.340999603271484,
                    "z": 5324.20703125
                },
                "LIGHLBKBDEI": 20.0,
                "GFIOJGJJGCN": 6,
                "ABAEPHOGOFF": "EaseInOutCubic",
                "KFDBMBFFANN": {},
                "IEJBKHHEJEN": true,
                "CEDHIBLHMKP": false,
                "KIPMIDIKECP": "",
                "ANFHNPOCMNI": true,
                "BDLGHOJPJHD": "",
                "LCOJGFEOLCK": "",
                "BBBGAEDCJEL": ""
            },
            {
                "$type": "MoleMole.Config.ConfigTimeProtectAction",
                "type": "TIME_PROTECT",
                "duration": 4.895999908447266,
                "actionId": 214
            },
            {
                "$type": "IBPNIIGAIPF",
                "type": "LOOK_AT",
                "aliasList": [
                    "AvatarNpc"
                ],
                "actionId": 210,
                "GGIENKFBOGL": true,
                "useTargetPos": true,
                "GCOONJBHNIM": true,
                "JHNJNNOPJKG": {
                    "x": -1239.4720458984375,
                    "y": -30.98200035095215,
                    "z": 5321.59716796875
                },
                "NDOMJCOFKDJ": 0.5,
                "KIPMIDIKECP": "",
                "AHLPNEGAKGG": "NONE",
                "FGPHOPBEJDE": true,
                "HJJAFGPMJNJ": "",
                "AOFBAGFCGPJ": ""
            },
            {
                "$type": "KCBOGFFHPBD",
                "type": "BODY_LANG",
                "aliasList": [
                    "4296"
                ],
                "actionId": 207,
                "AHGOBCDHCMC": true,
                "FHLAMNNHMFA": true,
                "KCEHDJLKIAL": false,
                "KCOLHJBDILK": true,
                "AOFEDPBOOIE": ""
            },
            {
                "$type": "BCJBNCJOPCE",
                "type": "CAMERA_MOVE",
                "delayTime": 0.10000000149011612,
                "duration": 10.059000015258789,
                "actionId": 209,
                "AKFGKKEOEFA": {
                    "x": -1239.2249755859375,
                    "y": -30.020999908447266,
                    "z": 5325.18896484375
                },
                "NGEBMAEFFGJ": {
                    "x": -1239.4000244140625,
                    "y": -30.312999725341797,
                    "z": 5324.2490234375
                },
                "LIGHLBKBDEI": 20.0,
                "GFIOJGJJGCN": 2,
                "ABAEPHOGOFF": "EaseOutQuad",
                "KFDBMBFFANN": {},
                "IEJBKHHEJEN": true,
                "CEDHIBLHMKP": false,
                "KIPMIDIKECP": "",
                "ANFHNPOCMNI": true,
                "BDLGHOJPJHD": "",
                "LCOJGFEOLCK": "",
                "BBBGAEDCJEL": ""
            },
            {
                "$type": "IBPNIIGAIPF",
                "type": "LOOK_AT",
                "delayTime": 0.2630000114440918,
                "aliasList": [
                    "1005"
                ],
                "actionId": 211,
                "GGIENKFBOGL": true,
                "useTargetPos": true,
                "GCOONJBHNIM": true,
                "JHNJNNOPJKG": {
                    "x": -1240.1590576171875,
                    "y": -30.913999557495117,
                    "z": 5321.85009765625
                },
                "NDOMJCOFKDJ": 0.5,
                "KIPMIDIKECP": "",
                "AHLPNEGAKGG": "NONE",
                "FGPHOPBEJDE": true,
                "HJJAFGPMJNJ": "",
                "AOFBAGFCGPJ": ""
            },
            {
                "$type": "IBPNIIGAIPF",
                "type": "LOOK_AT",
                "delayTime": 1.5,
                "aliasList": [
                    "AvatarNpc"
                ],
                "actionId": 212,
                "GGIENKFBOGL": true,
                "NDOMJCOFKDJ": 0.5,
                "KIPMIDIKECP": "4296",
                "FGPHOPBEJDE": true,
                "HJJAFGPMJNJ": "",
                "AOFBAGFCGPJ": ""
            },
            {
                "$type": "IBPNIIGAIPF",
                "type": "LOOK_AT",
                "delayTime": 1.8140000104904175,
                "aliasList": [
                    "1005"
                ],
                "actionId": 213,
                "GGIENKFBOGL": true,
                "JHNJNNOPJKG": {
                    "x": -1240.1590576171875,
                    "y": -30.913999557495117,
                    "z": 5321.85009765625
                },
                "NDOMJCOFKDJ": 0.5,
                "KIPMIDIKECP": "4296",
                "FGPHOPBEJDE": true,
                "HJJAFGPMJNJ": "",
                "AOFBAGFCGPJ": ""
            },
            {
                "$type": "MoleMole.Config.ConfigMoveToAction",
                "type": "MOVE_TO",
                "delayTime": 2.4690001010894775,
                "aliasList": [
                    "Avatar"
                ],
                "actionId": 264,
                "moveType": "WALK",
                "routeList": [
                    {
                        "x": -1238.4720458984375,
                        "y": -32.26100158691406,
                        "z": 5325.85986328125
                    }
                ],
                "exactlyMove": true,
                "closeNavMesh": true,
                "closeAvatarNavMesh": true,
                "openSetPos": true,
                "bindMovingTargetKey": ""
            },
            {
                "$type": "MoleMole.Config.ConfigMoveToAction",
                "type": "MOVE_TO",
                "delayTime": 2.4690001010894775,
                "aliasList": [
                    "AvatarNpc"
                ],
                "actionId": 215,
                "moveType": "WALK",
                "routeList": [
                    {
                        "x": -1238.4720458984375,
                        "y": -32.26100158691406,
                        "z": 5325.85986328125
                    }
                ],
                "exactlyMove": true,
                "closeNavMesh": true,
                "openSetPos": true,
                "bindMovingTargetKey": ""
            },
            {
                "$type": "MoleMole.Config.ConfigMoveToAction",
                "type": "MOVE_TO",
                "delayTime": 2.6610000133514404,
                "aliasList": [
                    "1005"
                ],
                "actionId": 216,
                "moveType": "WALK",
                "routeList": [
                    {
                        "x": -1237.717041015625,
                        "y": -32.26100158691406,
                        "z": 5325.64111328125
                    }
                ],
                "exactlyMove": true,
                "closeNavMesh": true,
                "openSetPos": true,
                "bindMovingTargetKey": ""
            }
        ],
        [
            {
                "$type": "BCJBNCJOPCE",
                "type": "CAMERA_MOVE",
                "duration": 0.5,
                "actionId": 218,
                "AKFGKKEOEFA": {
                    "x": -1240.698974609375,
                    "y": -31.402999877929688,
                    "z": 5324.923828125
                },
                "NGEBMAEFFGJ": {
                    "x": -1239.9820556640625,
                    "y": -31.41699981689453,
                    "z": 5325.62109375
                },
                "GFIOJGJJGCN": 6,
                "ABAEPHOGOFF": "EaseInOutCubic",
                "KFDBMBFFANN": {},
                "IEJBKHHEJEN": true,
                "CEDHIBLHMKP": false,
                "KIPMIDIKECP": "",
                "ANFHNPOCMNI": true,
                "BDLGHOJPJHD": "",
                "LCOJGFEOLCK": "",
                "BBBGAEDCJEL": ""
            },
            {
                "$type": "CCEEIGNAILH",
                "type": "DIALOG",
                "aliasList": [
                    "4296"
                ],
                "actionId": 127,
                "KICBIOMGHIN": 732251311,
                "PNCCODDABKI": 0.5
            },
            {
                "$type": "BCJBNCJOPCE",
                "type": "CAMERA_MOVE",
                "delayTime": 0.10000000149011612,
                "duration": 12.855999946594238,
                "actionId": 217,
                "AKFGKKEOEFA": {
                    "x": -1240.1939697265625,
                    "y": -31.367000579833984,
                    "z": 5324.4140625
                },
                "NGEBMAEFFGJ": {
                    "x": -1239.510986328125,
                    "y": -31.381000518798828,
                    "z": 5325.14501953125
                },
                "GFIOJGJJGCN": 2,
                "ABAEPHOGOFF": "EaseOutQuad",
                "KFDBMBFFANN": {},
                "IEJBKHHEJEN": true,
                "CEDHIBLHMKP": false,
                "KIPMIDIKECP": "",
                "ANFHNPOCMNI": true,
                "BDLGHOJPJHD": "",
                "LCOJGFEOLCK": "",
                "BBBGAEDCJEL": ""
            },
            {
                "$type": "KCBOGFFHPBD",
                "type": "BODY_LANG",
                "delayTime": 0.32600000500679016,
                "aliasList": [
                    "4296"
                ],
                "actionId": 219,
                "GPIEDGOMCGL": 1170,
                "FHLAMNNHMFA": true,
                "KCEHDJLKIAL": false,
                "KCOLHJBDILK": true,
                "AOFEDPBOOIE": ""
            },
            {
                "$type": "KCBOGFFHPBD",
                "type": "BODY_LANG",
                "delayTime": 4.257999897003174,
                "aliasList": [
                    "4296"
                ],
                "actionId": 220,
                "AHGOBCDHCMC": true,
                "FHLAMNNHMFA": true,
                "KCEHDJLKIAL": false,
                "KCOLHJBDILK": true,
                "AOFEDPBOOIE": ""
            }
        ],
        [
            {
                "$type": "BCJBNCJOPCE",
                "type": "CAMERA_MOVE",
                "duration": 0.5,
                "actionId": 223,
                "AKFGKKEOEFA": {
                    "x": -1237.7860107421875,
                    "y": -30.886999130249023,
                    "z": 5326.79296875
                },
                "NGEBMAEFFGJ": {
                    "x": -1237.5880126953125,
                    "y": -30.95199966430664,
                    "z": 5325.81494140625
                },
                "LIGHLBKBDEI": 25.0,
                "GFIOJGJJGCN": 6,
                "ABAEPHOGOFF": "EaseInOutCubic",
                "KFDBMBFFANN": {},
                "IEJBKHHEJEN": true,
                "CEDHIBLHMKP": false,
                "KIPMIDIKECP": "",
                "ANFHNPOCMNI": true,
                "BDLGHOJPJHD": "",
                "LCOJGFEOLCK": "",
                "BBBGAEDCJEL": ""
            },
            {
                "$type": "KCBOGFFHPBD",
                "type": "BODY_LANG",
                "aliasList": [
                    "4296"
                ],
                "actionId": 221,
                "AHGOBCDHCMC": true,
                "FHLAMNNHMFA": true,
                "KCEHDJLKIAL": false,
                "KCOLHJBDILK": true,
                "AOFEDPBOOIE": ""
            },
            {
                "$type": "CCEEIGNAILH",
                "type": "DIALOG",
                "aliasList": [
                    "1005"
                ],
                "actionId": 129,
                "KICBIOMGHIN": 732251312,
                "PNCCODDABKI": 0.5
            },
            {
                "$type": "KCBOGFFHPBD",
                "type": "BODY_LANG",
                "aliasList": [
                    "1005"
                ],
                "actionId": 224,
                "GPIEDGOMCGL": 1060,
                "FHLAMNNHMFA": true,
                "KCEHDJLKIAL": false,
                "KCOLHJBDILK": true,
                "AOFEDPBOOIE": ""
            },
            {
                "$type": "BCJBNCJOPCE",
                "type": "CAMERA_MOVE",
                "delayTime": 0.10000000149011612,
                "duration": 5.183000087738037,
                "actionId": 222,
                "AKFGKKEOEFA": {
                    "x": -1237.85302734375,
                    "y": -30.886999130249023,
                    "z": 5326.77978515625
                },
                "NGEBMAEFFGJ": {
                    "x": -1237.655029296875,
                    "y": -30.95199966430664,
                    "z": 5325.8017578125
                },
                "LIGHLBKBDEI": 25.0,
                "GFIOJGJJGCN": 2,
                "ABAEPHOGOFF": "EaseOutQuad",
                "KFDBMBFFANN": {},
                "IEJBKHHEJEN": true,
                "CEDHIBLHMKP": false,
                "KIPMIDIKECP": "",
                "ANFHNPOCMNI": true,
                "BDLGHOJPJHD": "",
                "LCOJGFEOLCK": "",
                "BBBGAEDCJEL": ""
            },
            {
                "$type": "KCBOGFFHPBD",
                "type": "BODY_LANG",
                "delayTime": 1.7790000438690186,
                "aliasList": [
                    "1005"
                ],
                "actionId": 225,
                "AHGOBCDHCMC": true,
                "FHLAMNNHMFA": true,
                "KCEHDJLKIAL": false,
                "KCOLHJBDILK": true,
                "AOFEDPBOOIE": ""
            }
        ],
        [
            {
                "$type": "BCJBNCJOPCE",
                "type": "CAMERA_MOVE",
                "duration": 0.5,
                "actionId": 228,
                "AKFGKKEOEFA": {
                    "x": -1237.094970703125,
                    "y": -30.575000762939453,
                    "z": 5330.69677734375
                },
                "NGEBMAEFFGJ": {
                    "x": -1236.218994140625,
                    "y": -30.889999389648438,
                    "z": 5331.06298828125
                },
                "LIGHLBKBDEI": 25.0,
                "GFIOJGJJGCN": 6,
                "ABAEPHOGOFF": "EaseInOutCubic",
                "KFDBMBFFANN": {},
                "IEJBKHHEJEN": true,
                "CEDHIBLHMKP": false,
                "KIPMIDIKECP": "",
                "ANFHNPOCMNI": true,
                "BDLGHOJPJHD": "",
                "LCOJGFEOLCK": "",
                "BBBGAEDCJEL": ""
            },
            {
                "$type": "CCEEIGNAILH",
                "type": "DIALOG",
                "aliasList": [
                    "4296"
                ],
                "actionId": 131,
                "KICBIOMGHIN": 732251313,
                "PNCCODDABKI": 0.5
            },
            {
                "$type": "KCBOGFFHPBD",
                "type": "BODY_LANG",
                "aliasList": [
                    "1005"
                ],
                "actionId": 226,
                "AHGOBCDHCMC": true,
                "FHLAMNNHMFA": true,
                "KCEHDJLKIAL": false,
                "KCOLHJBDILK": true,
                "AOFEDPBOOIE": ""
            },
            {
                "$type": "BCJBNCJOPCE",
                "type": "CAMERA_MOVE",
                "delayTime": 0.10000000149011612,
                "duration": 0.6000000238418579,
                "actionId": 227,
                "AKFGKKEOEFA": {
                    "x": -1237.1529541015625,
                    "y": -30.57200050354004,
                    "z": 5330.837890625
                },
                "NGEBMAEFFGJ": {
                    "x": -1236.2769775390625,
                    "y": -30.886999130249023,
                    "z": 5331.2041015625
                },
                "LIGHLBKBDEI": 25.0,
                "GFIOJGJJGCN": 2,
                "ABAEPHOGOFF": "EaseInOutQuad",
                "KFDBMBFFANN": {},
                "IEJBKHHEJEN": true,
                "CEDHIBLHMKP": false,
                "KIPMIDIKECP": "",
                "ANFHNPOCMNI": true,
                "BDLGHOJPJHD": "",
                "LCOJGFEOLCK": "",
                "BBBGAEDCJEL": ""
            },
            {
                "$type": "MEKNGCBGKEJ",
                "type": "DIALOG_SELECT",
                "delayTime": 0.4000000059604645,
                "aliasList": [
                    "AvatarNpc"
                ],
                "actionId": 144,
                "MLAABINGLAA": [
                    732251314,
                    732251316
                ],
                "HPBPDBFGKID": [
                    1684156015,
                    1684156016
                ],
                "CFJOJADDHHG": true,
                "APEOOMIGHNL": 3656558246
            },
            {
                "$type": "BCJBNCJOPCE",
                "type": "CAMERA_MOVE",
                "delayTime": 0.699999988079071,
                "duration": 6.173999786376953,
                "actionId": 229,
                "AKFGKKEOEFA": {
                    "x": -1237.1739501953125,
                    "y": -30.570999145507812,
                    "z": 5330.88720703125
                },
                "NGEBMAEFFGJ": {
                    "x": -1236.2979736328125,
                    "y": -30.88599967956543,
                    "z": 5331.2529296875
                },
                "LIGHLBKBDEI": 25.0,
                "GFIOJGJJGCN": 2,
                "ABAEPHOGOFF": "EaseOutQuad",
                "KFDBMBFFANN": {},
                "IEJBKHHEJEN": true,
                "CEDHIBLHMKP": false,
                "KIPMIDIKECP": "",
                "ANFHNPOCMNI": true,
                "BDLGHOJPJHD": "",
                "LCOJGFEOLCK": "",
                "BBBGAEDCJEL": ""
            }
        ],
        [
            {
                "$type": "BCJBNCJOPCE",
                "type": "CAMERA_MOVE",
                "duration": 0.5,
                "actionId": 231,
                "AKFGKKEOEFA": {
                    "x": -1243.1949462890625,
                    "y": -31.549999237060547,
                    "z": 5330.8369140625
                },
                "NGEBMAEFFGJ": {
                    "x": -1242.2550048828125,
                    "y": -31.55500030517578,
                    "z": 5330.49609375
                },
                "GFIOJGJJGCN": 6,
                "ABAEPHOGOFF": "EaseInOutCubic",
                "KFDBMBFFANN": {},
                "IEJBKHHEJEN": true,
                "CEDHIBLHMKP": false,
                "KIPMIDIKECP": "",
                "ANFHNPOCMNI": true,
                "BDLGHOJPJHD": "",
                "LCOJGFEOLCK": "",
                "BBBGAEDCJEL": ""
            },
            {
                "$type": "CCEEIGNAILH",
                "type": "DIALOG",
                "aliasList": [
                    "4296"
                ],
                "actionId": 134,
                "KICBIOMGHIN": 732251315,
                "PNCCODDABKI": 0.5
            },
            {
                "$type": "KCBOGFFHPBD",
                "type": "BODY_LANG",
                "aliasList": [
                    "4296"
                ],
                "actionId": 232,
                "GPIEDGOMCGL": 1230,
                "FHLAMNNHMFA": true,
                "KCEHDJLKIAL": false,
                "KCOLHJBDILK": true,
                "AOFEDPBOOIE": ""
            },
            {
                "$type": "BCJBNCJOPCE",
                "type": "CAMERA_MOVE",
                "delayTime": 0.10000000149011612,
                "duration": 8.571999549865723,
                "actionId": 230,
                "AKFGKKEOEFA": {
                    "x": -1244.64697265625,
                    "y": -31.54199981689453,
                    "z": 5331.36279296875
                },
                "NGEBMAEFFGJ": {
                    "x": -1243.70703125,
                    "y": -31.547000885009766,
                    "z": 5331.02197265625
                },
                "GFIOJGJJGCN": 2,
                "ABAEPHOGOFF": "EaseOutQuad",
                "KFDBMBFFANN": {},
                "IEJBKHHEJEN": true,
                "CEDHIBLHMKP": false,
                "KIPMIDIKECP": "",
                "ANFHNPOCMNI": true,
                "BDLGHOJPJHD": "",
                "LCOJGFEOLCK": "",
                "BBBGAEDCJEL": ""
            }
        ],
        [
            {
                "$type": "BCJBNCJOPCE",
                "type": "CAMERA_MOVE",
                "duration": 0.5,
                "actionId": 237,
                "AKFGKKEOEFA": {
                    "x": -1243.1949462890625,
                    "y": -31.549999237060547,
                    "z": 5330.8369140625
                },
                "NGEBMAEFFGJ": {
                    "x": -1242.2550048828125,
                    "y": -31.55500030517578,
                    "z": 5330.49609375
                },
                "GFIOJGJJGCN": 6,
                "ABAEPHOGOFF": "EaseInOutCubic",
                "KFDBMBFFANN": {},
                "IEJBKHHEJEN": true,
                "CEDHIBLHMKP": false,
                "KIPMIDIKECP": "",
                "ANFHNPOCMNI": true,
                "BDLGHOJPJHD": "",
                "LCOJGFEOLCK": "",
                "BBBGAEDCJEL": ""
            },
            {
                "$type": "CCEEIGNAILH",
                "type": "DIALOG",
                "aliasList": [
                    "4296"
                ],
                "actionId": 136,
                "KICBIOMGHIN": 732251317,
                "PNCCODDABKI": 0.5
            },
            {
                "$type": "KCBOGFFHPBD",
                "type": "BODY_LANG",
                "aliasList": [
                    "4296"
                ],
                "actionId": 233,
                "GPIEDGOMCGL": 1230,
                "FHLAMNNHMFA": true,
                "KCEHDJLKIAL": false,
                "KCOLHJBDILK": true,
                "AOFEDPBOOIE": ""
            },
            {
                "$type": "BCJBNCJOPCE",
                "type": "CAMERA_MOVE",
                "delayTime": 0.10000000149011612,
                "duration": 8.571999549865723,
                "actionId": 236,
                "AKFGKKEOEFA": {
                    "x": -1244.64697265625,
                    "y": -31.54199981689453,
                    "z": 5331.36279296875
                },
                "NGEBMAEFFGJ": {
                    "x": -1243.70703125,
                    "y": -31.547000885009766,
                    "z": 5331.02197265625
                },
                "GFIOJGJJGCN": 2,
                "ABAEPHOGOFF": "EaseOutQuad",
                "KFDBMBFFANN": {},
                "IEJBKHHEJEN": true,
                "CEDHIBLHMKP": false,
                "KIPMIDIKECP": "",
                "ANFHNPOCMNI": true,
                "BDLGHOJPJHD": "",
                "LCOJGFEOLCK": "",
                "BBBGAEDCJEL": ""
            }
        ],
        [
            {
                "$type": "MoleMole.Config.ConfigTimeProtectAction",
                "type": "TIME_PROTECT",
                "duration": 0.10000000149011612,
                "actionId": 138
            },
            {
                "$type": "KCBOGFFHPBD",
                "type": "BODY_LANG",
                "aliasList": [
                    "4296"
                ],
                "actionId": 234,
                "AHGOBCDHCMC": true,
                "FHLAMNNHMFA": true,
                "KCEHDJLKIAL": false,
                "KCOLHJBDILK": true,
                "AOFEDPBOOIE": ""
            }
        ],
        [
            {
                "$type": "MoleMole.Config.ConfigSimpleBlackScreenAction",
                "type": "SIMPLE_BLACK_SCREEN",
                "actionId": 139,
                "durationToBlack": 0.5,
                "durationKeepBlack": 1.0,
                "durationFromBlack": 0.5,
                "textMapID": ""
            },
            {
                "$type": "MoleMole.Config.ConfigTimeProtectAction",
                "type": "TIME_PROTECT",
                "duration": 0.699999988079071,
                "actionId": 140
            },
            {
                "$type": "KCBOGFFHPBD",
                "type": "BODY_LANG",
                "aliasList": [
                    "4296"
                ],
                "actionId": 235,
                "AHGOBCDHCMC": true,
                "FHLAMNNHMFA": true,
                "KCEHDJLKIAL": false,
                "KCOLHJBDILK": true,
                "AOFEDPBOOIE": ""
            },
            {
                "$type": "BCJBNCJOPCE",
                "type": "CAMERA_MOVE",
                "delayTime": 0.6000000238418579,
                "duration": 0.10000000149011612,
                "actionId": 238,
                "AKFGKKEOEFA": {
                    "x": -1240.2669677734375,
                    "y": -30.000999450683594,
                    "z": 5322.8779296875
                },
                "NGEBMAEFFGJ": {
                    "x": -1239.77001953125,
                    "y": -30.340999603271484,
                    "z": 5323.67578125
                },
                "GFIOJGJJGCN": 6,
                "ABAEPHOGOFF": "EaseInOutCubic",
                "KFDBMBFFANN": {},
                "IEJBKHHEJEN": true,
                "CEDHIBLHMKP": false,
                "KIPMIDIKECP": "",
                "ANFHNPOCMNI": true,
                "BDLGHOJPJHD": "",
                "LCOJGFEOLCK": "",
                "BBBGAEDCJEL": ""
            },
            {
                "$type": "MoleMole.Config.ConfigVisibleInterAction",
                "type": "VISIBLE",
                "delayTime": 0.6000000238418579,
                "aliasList": [
                    "Avatar"
                ],
                "actionId": 146,
                "isVisible": true,
                "extraParam": ""
            },
            {
                "$type": "MoleMole.Config.ConfigVisibleInterAction",
                "type": "VISIBLE",
                "delayTime": 0.6000000238418579,
                "aliasList": [
                    "AvatarNpc"
                ],
                "actionId": 148,
                "extraParam": ""
            },
            {
                "$type": "MoleMole.Config.ConfigVisibleInterAction",
                "type": "VISIBLE",
                "delayTime": 0.6000000238418579,
                "aliasList": [
                    "4296"
                ],
                "actionId": 141,
                "extraParam": ""
            }
        ]
    ],
    "groupId": [
        {
            "grpId": 3656558247,
            "nextGrpId": 3656558248
        },
        {
            "index": 1,
            "grpId": 3656558248,
            "nextGrpId": 3656558249
        },
        {
            "index": 2,
            "grpId": 3656558249,
            "nextGrpId": 3656558250
        },
        {
            "index": 3,
            "grpId": 3656558250,
            "nextGrpId": 3656558251
        },
        {
            "index": 4,
            "grpId": 3656558251,
            "nextGrpId": 3656558252
        },
        {
            "index": 5,
            "grpId": 3656558252,
            "nextGrpId": 3656558253
        },
        {
            "index": 6,
            "grpId": 3656558253,
            "nextGrpId": 3656558254
        },
        {
            "index": 7,
            "grpId": 3656558254,
            "nextGrpId": 3656558255
        },
        {
            "index": 8,
            "grpId": 3656558255,
            "nextGrpId": 1684156009
        },
        {
            "index": 9,
            "grpId": 1684156009,
            "nextGrpId": 1684156010
        },
        {
            "index": 10,
            "grpId": 1684156010,
            "nextGrpId": 1684156011
        },
        {
            "index": 11,
            "grpId": 1684156011,
            "nextGrpId": 1684156012
        },
        {
            "index": 12,
            "grpId": 1684156012,
            "nextGrpId": 1684156013
        },
        {
            "index": 13,
            "grpId": 1684156013,
            "nextGrpId": 1684156014
        },
        {
            "index": 14,
            "grpId": 1684156014,
            "nextGrpId": 1684156015
        },
        {
            "index": 15,
            "grpId": 1684156015,
            "nextGrpId": 1684156017
        },
        {
            "index": 16,
            "grpId": 1684156016,
            "nextGrpId": 1684156017
        },
        {
            "index": 17,
            "grpId": 1684156017,
            "nextGrpId": 1684156018
        },
        {
            "index": 18,
            "grpId": 1684156018,
            "nextGrpId": 1684156040
        }
    ],
    "freeStyleDic": {
        "1025": [],
        "1026": []
    }
}