{
    "luaDataPath": "",
    "isSimpleTalk": true,
    "entityBan": "",
    "disableNpcLod": true,
    "startFade": {
        "startFadeOutDuration": 0.0
    },
    "endFade": {
        "startFadeOutDuration": 0.0
    },
    "actors": [
        {
            "alias": "Avatar",
            "visible": true,
            "bornPointName": "",
            "relativePosNpcAlias": "",
            "bindMovingTargetKey": ""
        },
        {
            "configID": 20523,
            "alias": "20523",
            "visible": true,
            "bornPointName": "",
            "removeActorType": "REMOVE_WITH_DISAPPEAR",
            "relativePosNpcAlias": "",
            "bindMovingTargetKey": ""
        },
        {
            "configID": 1005,
            "alias": "1005",
            "visible": true,
            "bornPointName": "",
            "useRelativePos": true,
            "relativePos": {
                "x": -0.5600000023841858,
                "z": 0.5
            },
            "removeActorType": "REMOVE_WITH_DISAPPEAR",
            "relativePosNpcAlias": "",
            "bindMovingTargetKey": ""
        }
    ],
    "group": [
        [
            {
                "$type": "MoleMole.Config.ConfigTimeProtectAction",
                "type": "TIME_PROTECT",
                "duration": 0.10000000149011612
            },
            {
                "$type": "BCJBNCJOPCE",
                "type": "CAMERA_FOCUS",
                "duration": 0.10000000149011612,
                "KIPMIDIKECP": "",
                "BDLGHOJPJHD": "",
                "LCOJGFEOLCK": "",
                "BBBGAEDCJEL": ""
            },
            {
                "$type": "CNBNGFNKLGP",
                "type": "STEER_TO",
                "delayTime": 0.30000001192092896,
                "duration": 0.800000011920929,
                "aliasList": [
                    "20523"
                ],
                "DEMFHGAIELL": "TO_LOCAL_AVATAR_ADVANCED",
                "BBNLLCHBKAI": true,
                "COJBPJMLIFM": true,
                "NLIKMFJCLBP": true,
                "KIPMIDIKECP": "",
                "AOFBAGFCGPJ": ""
            },
            {
                "$type": "CNBNGFNKLGP",
                "type": "STEER_TO",
                "delayTime": 0.30000001192092896,
                "duration": 0.800000011920929,
                "aliasList": [
                    "Avatar"
                ],
                "DEMFHGAIELL": "TO_TARGET_ADVANCED",
                "BBNLLCHBKAI": true,
                "COJBPJMLIFM": true,
                "NLIKMFJCLBP": true,
                "KIPMIDIKECP": "20523",
                "AOFBAGFCGPJ": ""
            }
        ],
        [
            {
                "$type": "CCEEIGNAILH",
                "type": "DIALOG",
                "aliasList": [
                    "20523"
                ],
                "KICBIOMGHIN": 710360201,
                "PNCCODDABKI": 0.5
            },
            {
                "$type": "MEKNGCBGKEJ",
                "type": "DIALOG_SELECT",
                "delayTime": 0.4000000059604645,
                "aliasList": [
                    "Avatar"
                ],
                "MLAABINGLAA": [
                    710360202,
                    710360204
                ],
                "HPBPDBFGKID": [
                    1695453236,
                    1695453237
                ],
                "CFJOJADDHHG": true
            }
        ],
        [
            {
                "$type": "CCEEIGNAILH",
                "type": "DIALOG",
                "aliasList": [
                    "20523"
                ],
                "KICBIOMGHIN": 710360203,
                "PNCCODDABKI": 0.5
            }
        ],
        [
            {
                "$type": "CCEEIGNAILH",
                "type": "DIALOG",
                "aliasList": [
                    "20523"
                ],
                "KICBIOMGHIN": 710360205,
                "PNCCODDABKI": 0.5
            }
        ],
        [
            {
                "$type": "CCEEIGNAILH",
                "type": "DIALOG",
                "aliasList": [
                    "1005"
                ],
                "KICBIOMGHIN": 710360206,
                "PNCCODDABKI": 0.5
            }
        ],
        [
            {
                "$type": "CCEEIGNAILH",
                "type": "DIALOG",
                "aliasList": [
                    "20523"
                ],
                "KICBIOMGHIN": 710360207,
                "PNCCODDABKI": 0.5
            }
        ],
        [
            {
                "$type": "CCEEIGNAILH",
                "type": "DIALOG",
                "aliasList": [
                    "20523"
                ],
                "KICBIOMGHIN": 710360208,
                "PNCCODDABKI": 0.5
            }
        ],
        [
            {
                "$type": "CCEEIGNAILH",
                "type": "DIALOG",
                "aliasList": [
                    "20523"
                ],
                "KICBIOMGHIN": 710360209,
                "PNCCODDABKI": 0.5
            }
        ],
        [
            {
                "$type": "CCEEIGNAILH",
                "type": "DIALOG",
                "aliasList": [
                    "20523"
                ],
                "KICBIOMGHIN": 710360210,
                "PNCCODDABKI": 0.5
            }
        ],
        [
            {
                "$type": "CCEEIGNAILH",
                "type": "DIALOG",
                "aliasList": [
                    "20523"
                ],
                "KICBIOMGHIN": 710360211,
                "PNCCODDABKI": 0.5
            }
        ],
        [
            {
                "$type": "CCEEIGNAILH",
                "type": "DIALOG",
                "aliasList": [
                    "20523"
                ],
                "KICBIOMGHIN": 710360212,
                "PNCCODDABKI": 0.5
            }
        ],
        [
            {
                "$type": "CCEEIGNAILH",
                "type": "DIALOG",
                "aliasList": [
                    "20523"
                ],
                "KICBIOMGHIN": 710360213,
                "PNCCODDABKI": 0.5
            }
        ],
        [
            {
                "$type": "CCEEIGNAILH",
                "type": "DIALOG",
                "aliasList": [
                    "20523"
                ],
                "KICBIOMGHIN": 710360214,
                "PNCCODDABKI": 0.5
            },
            {
                "$type": "MEKNGCBGKEJ",
                "type": "DIALOG_SELECT",
                "delayTime": 0.4000000059604645,
                "aliasList": [
                    "Avatar"
                ],
                "MLAABINGLAA": [
                    710360215,
                    710360217
                ],
                "HPBPDBFGKID": [
                    1019442754,
                    1019442755
                ],
                "CFJOJADDHHG": true
            }
        ],
        [
            {
                "$type": "CCEEIGNAILH",
                "type": "DIALOG",
                "aliasList": [
                    "20523"
                ],
                "KICBIOMGHIN": 710360216,
                "PNCCODDABKI": 0.5
            }
        ],
        [
            {
                "$type": "CCEEIGNAILH",
                "type": "DIALOG",
                "aliasList": [
                    "1005"
                ],
                "KICBIOMGHIN": 710360218,
                "PNCCODDABKI": 0.5
            }
        ],
        [
            {
                "$type": "CCEEIGNAILH",
                "type": "DIALOG",
                "aliasList": [
                    "20523"
                ],
                "KICBIOMGHIN": 710360219,
                "PNCCODDABKI": 0.5
            }
        ],
        [
            {
                "$type": "MoleMole.Config.ConfigTimeProtectAction",
                "type": "TIME_PROTECT",
                "duration": 0.10000000149011612
            }
        ],
        [
            {
                "$type": "MoleMole.Config.ConfigTimeProtectAction",
                "type": "TIME_PROTECT",
                "duration": 0.10000000149011612
            }
        ]
    ],
    "groupId": [
        {
            "grpId": 1695453234,
            "nextGrpId": 1695453235
        },
        {
            "index": 1,
            "grpId": 1695453235,
            "nextGrpId": 1695453236
        },
        {
            "index": 2,
            "grpId": 1695453236,
            "nextGrpId": 1695453238
        },
        {
            "index": 3,
            "grpId": 1695453237,
            "nextGrpId": 1695453238
        },
        {
            "index": 4,
            "grpId": 1695453238,
            "nextGrpId": 1695453239
        },
        {
            "index": 5,
            "grpId": 1695453239,
            "nextGrpId": 1695453240
        },
        {
            "index": 6,
            "grpId": 1695453240,
            "nextGrpId": 1695453241
        },
        {
            "index": 7,
            "grpId": 1695453241,
            "nextGrpId": 1695453242
        },
        {
            "index": 8,
            "grpId": 1695453242,
            "nextGrpId": 1019442750
        },
        {
            "index": 9,
            "grpId": 1019442750,
            "nextGrpId": 1019442751
        },
        {
            "index": 10,
            "grpId": 1019442751,
            "nextGrpId": 1019442752
        },
        {
            "index": 11,
            "grpId": 1019442752,
            "nextGrpId": 1019442753
        },
        {
            "index": 12,
            "grpId": 1019442753,
            "nextGrpId": 1019442754
        },
        {
            "index": 13,
            "grpId": 1019442754,
            "nextGrpId": 1019442757
        },
        {
            "index": 14,
            "grpId": 1019442755,
            "nextGrpId": 1019442756
        },
        {
            "index": 15,
            "grpId": 1019442756,
            "nextGrpId": 1019442757
        },
        {
            "index": 16,
            "grpId": 1019442757,
            "nextGrpId": 1019442758
        },
        {
            "index": 17,
            "grpId": 1019442758,
            "nextGrpId": 1019442759
        }
    ],
    "freeStyleDic": {
        "20523": []
    }
}