{
    "luaDataPath": "",
    "entityBan": "",
    "group": [
        [
            {
                "$type": "FOMCPCOIMIK",
                "type": "CUTSCENE",
                "FGGLJJNOAFL": {
                    "$type": "FOAMGDNKJFE",
                    "type": "TIME_LINE_PREFAB",
                    "skipGeneralDialog": true,
                    "luaDataPath": "",
                    "resPath": "ART/Cutscene/Cs_Penumbra_CircusLightup01_Convert",
                    "castListPath": "",
                    "entityBan": "",
                    "needYEuler": true,
                    "fadeInDuration": 0.0
                }
            }
        ]
    ]
}