{
    "common": {
        "effectAttachShape": {
            "$type": "DPGKNHENGLM",
            "DDDEJPIFECG": "EffectMesh"
        },
        "mass": 40.0,
        "height": 1.3799999952316284,
        "scale": 1.149999976158142,
        "BKPPECPBMBF": true,
        "LOGFKHMLOOL": true
    },
    "model": {
        "bornEffect": "",
        "attachEffect": ""
    },
    "dither": {
        "showDitherDuration": 2.0
    },
    "combat": {
        "property": {
            "endureType": "Monster_Slime",
            "weight": 60.0
        },
        "beHit": {
            "hitBloodEffect": ""
        },
        "combatLock": {
            "lockShape": "CircleLockEnemy",
            "lockType": "Avatar&Monster_Lv4"
        },
        "die": {
            "hasAnimatorDie": true,
            "fallWhenAirDie": false,
            "dieEndTime": 2.0,
            "dieForceDisappearTime": 3.0,
            "dieDisappearEffect": "Eff_Death_InWater_Common",
            "dieDisappearEffectDelay": 0.11999999731779099,
            "dieShaderData": "MonsterDieInWater",
            "dieShaderEnableDurationTime": 0.800000011920929,
            "dieModelFadeDelay": 0.30000001192092896,
            "muteHitBox": true,
            "dieDenyLockOn": true,
            "dieIsGhostToEnemy": true,
            "dieIgnoreTriggerBullet": true,
            "muteBillboard": true,
            "mutePushCollider": true
        }
    },
    "abilities": [
        {
            "abilityID": "",
            "abilityName": "FauneAbyssale_Universal_UnderwaterSettings",
            "abilityOverride": ""
        },
        {
            "abilityID": "",
            "abilityName": "FauneAbyssale_SeaHorse_Larva_BubbleTrigger",
            "abilityOverride": ""
        },
        {
            "abilityID": "",
            "abilityName": "FauneAbyssale_SeaHorse_Larva_FreePose",
            "abilityOverride": ""
        },
        {
            "abilityID": "",
            "abilityName": "FauneAbyssale_SeaHorse_Larva_FrolicBubbleTrigger",
            "abilityOverride": ""
        },
        {
            "abilityID": "",
            "abilityName": "FauneAbyssale_SeaHorse_Larva_Bubble_Interest",
            "abilityOverride": ""
        },
        {
            "abilityID": "",
            "abilityName": "FauneAbyssale_ResetPoseParam",
            "abilityOverride": ""
        }
    ],
    "stateLayers": {
        "defaultLayer": {
            "$type": "EPAPJJAGHKG",
            "ACOCIAFGIAD": "",
            "stateIDs": {
                "Born": {
                    "$type": "IJOIMFMEGMM",
                    "DLOHGBDFFGB": {
                        "Born": []
                    }
                },
                "NormalIdle": {
                    "$type": "IJOIMFMEGMM",
                    "DLOHGBDFFGB": {
                        "Standby": []
                    },
                    "POLKCLOHPOO": true,
                    "PGKCBIHGAOC": true,
                    "DLAOMOCMANL": [
                        "DoSkill"
                    ],
                    "LIPMJPLGIKD": true,
                    "DNHGAGILGCG": true
                },
                "NormalSwim": {
                    "$type": "IJOIMFMEGMM",
                    "DLOHGBDFFGB": {
                        "Swim": []
                    },
                    "POLKCLOHPOO": true,
                    "PGKCBIHGAOC": true,
                    "DLAOMOCMANL": [
                        "DoSkill"
                    ],
                    "LIPMJPLGIKD": true,
                    "DNHGAGILGCG": true
                },
                "BeHit": {
                    "$type": "IJOIMFMEGMM",
                    "DLOHGBDFFGB": {
                        "Hit_L": [
                            "Audio_Monster_FauneAbyssale_SeaHorse_Larva_Hit_L"
                        ],
                        "Hit_H": [
                            "Audio_Monster_FauneAbyssale_SeaHorse_Larva_Hit_H"
                        ],
                        "BubbleHit_BS": [
                            "Audio_Monster_FauneAbyssale_SeaHorse_Larva_Hit_L"
                        ],
                        "BubbleHit_AS": [
                            "Audio_Monster_FauneAbyssale_SeaHorse_Larva_Somersaulting"
                        ]
                    },
                    "AJBLILDCLBO": [
                        "BeHit",
                        "DoSkill"
                    ],
                    "OOPPLFOAOGN": true
                },
                "Die": {
                    "$type": "IJOIMFMEGMM",
                    "DLOHGBDFFGB": {
                        "Die": [
                            "FauneAbyssale_SeaHorse_Larva_Die",
                            "Audio_Monster_FauneAbyssale_SeaHorse_Larva_Die"
                        ]
                    },
                    "AJBLILDCLBO": [
                        "DoSkill",
                        "BeHit"
                    ],
                    "PBAOEAEEBNB": [
                        {
                            "name": "StopFlapping"
                        }
                    ]
                },
                "Alert": {
                    "$type": "IJOIMFMEGMM",
                    "DLOHGBDFFGB": {
                        "Alert": [
                            "FauneAbyssale_Common_Alert",
                            "Audio_Monster_FauneAbyssale_SeaHorse_Larva_Alert"
                        ]
                    },
                    "DLAOMOCMANL": [
                        "DoSkill"
                    ]
                },
                "BubbleAttack": {
                    "$type": "IJOIMFMEGMM",
                    "DLOHGBDFFGB": {
                        "BubbleAttack_Combo1": [
                            "FauneAbyssale_SeaHorse_Larva_BubbleAttack",
                            "FauneAbyssale_SeaHorse_Larva_BubbleAttack_BS",
                            "Audio_Monster_FauneAbyssale_SeaHorse_Larva_BubbleAttack_Combo"
                        ],
                        "BubbleAttack_Combo2": [
                            "FauneAbyssale_SeaHorse_Larva_BubbleAttack",
                            "Audio_Monster_FauneAbyssale_SeaHorse_Larva_BubbleAttack_Combo02"
                        ],
                        "BubbleAttack_Combo3": [
                            "FauneAbyssale_SeaHorse_Larva_BubbleAttack",
                            "Audio_Monster_FauneAbyssale_SeaHorse_Larva_BubbleAttack_Combo03"
                        ]
                    },
                    "DLAOMOCMANL": [
                        "DoSkill"
                    ]
                },
                "BubbleAttack_Frolic": {
                    "$type": "IJOIMFMEGMM",
                    "DLOHGBDFFGB": {
                        "BubbleAttack_Frolic": [
                            "FauneAbyssale_SeaHorse_Larva_FrolicBubble",
                            "Audio_Monster_FauneAbyssale_SeaHorse_Larva_BubbleAttack_Combo"
                        ]
                    },
                    "AJBLILDCLBO": [
                        "BubbleHit"
                    ],
                    "DLAOMOCMANL": [
                        "DoSkill"
                    ]
                },
                "Bubble_Interest": {
                    "$type": "IJOIMFMEGMM",
                    "DLOHGBDFFGB": {
                        "Bubble_Interest": [
                            "FauneAbyssale_SeaHorse_Larva_Bubble_Interest",
                            "Audio_Monster_FauneAbyssale_SeaHorse_Larva_BubbleAttack_Combo"
                        ]
                    },
                    "DLAOMOCMANL": [
                        "DoSkill"
                    ]
                },
                "Sleeping": {
                    "$type": "IJOIMFMEGMM",
                    "DLOHGBDFFGB": {
                        "Sleeping": []
                    },
                    "POLKCLOHPOO": true,
                    "PGKCBIHGAOC": true,
                    "DLAOMOCMANL": [
                        "DoSkill"
                    ],
                    "PBAOEAEEBNB": [
                        {
                            "name": "StopFlapping"
                        }
                    ]
                },
                "Frustrated": {
                    "$type": "IJOIMFMEGMM",
                    "DLOHGBDFFGB": {
                        "Frustrated": []
                    },
                    "POLKCLOHPOO": true,
                    "PGKCBIHGAOC": true,
                    "DLAOMOCMANL": [
                        "DoSkill"
                    ],
                    "PBAOEAEEBNB": [
                        {
                            "name": "StopFlapping"
                        }
                    ]
                },
                "Somersaulting": {
                    "$type": "IJOIMFMEGMM",
                    "DLOHGBDFFGB": {
                        "Somersaulting": [
                            "Audio_Monster_FauneAbyssale_SeaHorse_Larva_Somersaulting"
                        ],
                        "Somersaulting_AS": []
                    },
                    "DLAOMOCMANL": [
                        "DoSkill"
                    ]
                },
                "Playing": {
                    "$type": "IJOIMFMEGMM",
                    "DLOHGBDFFGB": {
                        "Playing": [
                            "Audio_Monster_FauneAbyssale_SeaHorse_Larva_Playing"
                        ]
                    },
                    "POLKCLOHPOO": true,
                    "DLAOMOCMANL": [
                        "DoSkill"
                    ]
                }
            }
        }
    },
    "billboard": {
        "$type": "PAOBAEKGGBC",
        "attachPoint": "BillboardAttach",
        "offset": {
            "y": 0.800000011920929
        },
        "LOMMBJLKPHE": 1.0,
        "FMJAGHIMLEI": true,
        "KGHAGECNJPO": true,
        "JLCJBGKPEEC": 15.0
    },
    "initialPoses": {
        "Default": {
            "initialPoseID": 1,
            "initialPoseParams": {
                "intParams": {
                    "FreePoseMark": "1"
                },
                "boolParams": {
                    "DisableWhenReturnToBorn": "false"
                }
            }
        },
        "MuteAll": {
            "initialPoseID": 2,
            "initialPoseParams": {
                "intParams": {
                    "FreePoseMark": "2"
                },
                "boolParams": {
                    "DisableWhenReturnToBorn": "false"
                }
            }
        },
        "Frolic": {
            "initialPoseID": 3,
            "initialPoseParams": {
                "intParams": {
                    "FreePoseMark": "3"
                },
                "boolParams": {
                    "DisableWhenReturnToBorn": "true"
                }
            }
        },
        "ShootForward": {
            "initialPoseID": 4,
            "initialPoseParams": {
                "intParams": {
                    "FreePoseMark": "4"
                },
                "boolParams": {
                    "DisableWhenReturnToBorn": "true"
                }
            }
        },
        "FreeSleeping": {
            "initialPoseID": 1001,
            "initialPoseParams": {
                "intParams": {
                    "FreePoseMark": "1001"
                },
                "boolParams": {
                    "DisableWhenReturnToBorn": "true"
                }
            }
        },
        "AlwaysSleeping": {
            "initialPoseID": 1002,
            "initialPoseParams": {
                "intParams": {
                    "FreePoseMark": "1002"
                },
                "boolParams": {
                    "DisableWhenReturnToBorn": "true"
                }
            }
        },
        "Frustrated": {
            "initialPoseID": 1003,
            "initialPoseParams": {
                "intParams": {
                    "FreePoseMark": "1003"
                },
                "boolParams": {
                    "DisableWhenReturnToBorn": "true"
                }
            }
        }
    },
    "aibeta": {
        "enable": true,
        "moveSetting": {
            "moveCategory": "Dive",
            "useNavMesh": false,
            "useToTheMoon": true,
            "navMeshAgentName": "Undead01"
        },
        "aiCombat": {
            "combatRole": "MAGE"
        },
        "buddySetting": {
            "enable": true,
            "buddyFeatureTagIDs": [
                4027,
                4028
            ]
        },
        "sensing": {
            "settings": {
                "DefaultSetting": {
                    "viewRange": 25.0,
                    "horizontalFov": 150.0,
                    "verticalFov": 100.0,
                    "hearAttractionRange": 5.0,
                    "feelRange": 0.0
                },
                "NeverCombat": {
                    "enableVision": false,
                    "hearAttractionRange": 0.0,
                    "feelRange": 0.0
                },
                "NormalAlert": {
                    "viewPanoramic": true,
                    "hearAttractionRange": 5.0,
                    "feelRange": 17.5
                }
            },
            "templates": {
                "DefaultTemplate": {
                    "DefaultPoses": "DefaultSetting",
                    "101": "NormalAlert",
                    "1001": "NeverCombat"
                },
                "NeverCombatTemplate": {
                    "DefaultPoses": "NeverCombat",
                    "101": "NormalAlert"
                },
                "NormalAlertTemplate": {
                    "DefaultPoses": "NormalAlert",
                    "101": "NormalAlert",
                    "1001": "DefaultSetting"
                }
            }
        },
        "neurons": {
            "DefaultSetting": [
                "HIT"
            ],
            "NeverCombat": []
        },
        "threat": {
            "clearThreatTargetDistance": 25.0,
            "viewThreatGrow": 25.0,
            "feelThreatGrow": 150.0,
            "threatDecreaseSpeed": 45.0,
            "threatBroadcastRange": 8.0,
            "viewAttenuation": [
                {
                    "x": 4.5,
                    "y": 1.0
                },
                {
                    "x": 8.0,
                    "y": 0.5
                },
                {
                    "x": 15.0,
                    "y": 0.20000000298023224
                },
                {
                    "x": 22.5,
                    "y": 0.10000000149011612
                }
            ],
            "JGFOPCOIJOI": ""
        },
        "defendArea": {
            "defendRange": 120.0
        },
        "fly": {
            "enable": true,
            "JBBEJGNPNDL": [
                1,
                2,
                3,
                4,
                101,
                901,
                1001,
                1002,
                1003
            ]
        },
        "poseControl": {
            "items": [
                {
                    "minTime": 40.0,
                    "maxTime": 80.0,
                    "poseID": 1,
                    "RandomPose": [
                        1001
                    ],
                    "switchOnlyInCanDoSkillState": true
                },
                {
                    "minTime": 40.0,
                    "maxTime": 80.0,
                    "poseID": 1001,
                    "RandomPose": [
                        1
                    ],
                    "switchOnlyInCanDoSkillState": true
                }
            ]
        },
        "skillGroupCDConfigs": [
            {
                "skillGroupCDID": 1,
                "skillGroupCDTime": 12.0
            }
        ],
        "skills": {
            "101": {
                "name": "Alert",
                "skillType": "OnAlert",
                "publicCDGroup": "",
                "ignoreGCD": true,
                "HGAMDGAEIGO": "",
                "stateIDs": [
                    "Alert"
                ],
                "skillQueryingTime": 3.0,
                "flagTargetReachable": "10",
                "flagSelfOnTemplateCollider": "01",
                "flagSelfInZone": "10",
                "flagTargetInZone": "11"
            },
            "201": {
                "name": "BubbleAttack",
                "combatSkillType": "RangedAttack",
                "priority": 3,
                "castCondition": {
                    "pose": [
                        101
                    ],
                    "CANPLJNCJCF": [
                        2
                    ],
                    "maxTargetAngleY": 30.0,
                    "pickRangeMin": 2.5,
                    "pickRangeMax": 30.0
                },
                "cd": 5.0,
                "cdUpperRange": 3.0,
                "publicCDGroup": "",
                "HGAMDGAEIGO": "",
                "stateIDs": [
                    "BubbleAttack"
                ],
                "flagTargetReachable": "11",
                "flagSelfOnTemplateCollider": "11",
                "flagSelfInZone": "11",
                "flagTargetInZone": "11"
            },
            "9001": {
                "name": "Somersaulting",
                "skillType": "Free",
                "priority": 3,
                "castCondition": {
                    "pose": [
                        1
                    ]
                },
                "cd": 10.0,
                "cdUpperRange": 20.0,
                "initialCD": 6.0,
                "initialCDUpperRange": 16.0,
                "publicCDGroup": "",
                "skillGroupCDID": 1,
                "HGAMDGAEIGO": "",
                "stateIDs": [
                    "Somersaulting"
                ],
                "flagTargetReachable": "10",
                "flagSelfOnTemplateCollider": "01",
                "flagSelfInZone": "10",
                "flagTargetInZone": "11"
            },
            "9002": {
                "name": "Playing",
                "skillType": "Free",
                "priority": 3,
                "castCondition": {
                    "pose": [
                        1
                    ]
                },
                "cd": 10.0,
                "cdUpperRange": 20.0,
                "initialCD": 6.0,
                "initialCDUpperRange": 16.0,
                "publicCDGroup": "",
                "skillGroupCDID": 1,
                "HGAMDGAEIGO": "",
                "stateIDs": [
                    "Playing"
                ],
                "flagTargetReachable": "10",
                "flagSelfOnTemplateCollider": "01",
                "flagSelfInZone": "10",
                "flagTargetInZone": "11"
            },
            "9003": {
                "name": "BubbleAttack_Frolic",
                "skillType": "FreeBuddy",
                "priority": 2,
                "castCondition": {
                    "pose": [
                        3
                    ],
                    "CANPLJNCJCF": [
                        0,
                        1,
                        2
                    ],
                    "maxTargetAngleY": 30.0
                },
                "cd": 2.0,
                "cdUpperRange": 10.0,
                "initialCDUpperRange": 8.0,
                "publicCDGroup": "",
                "ignoreGCD": true,
                "triggerCDOnStart": true,
                "HGAMDGAEIGO": "",
                "stateIDs": [
                    "BubbleAttack_Frolic"
                ],
                "flagTargetReachable": "10",
                "flagSelfOnTemplateCollider": "01",
                "flagSelfInZone": "10",
                "flagTargetInZone": "11",
                "buddySkillCondition": {
                    "buddyScoring": {
                        "roleScores": [
                            1.0,
                            1.0,
                            1.0,
                            1.0
                        ]
                    }
                }
            },
            "9004": {
                "name": "Bubble_Interest",
                "skillType": "Free",
                "castCondition": {
                    "pose": [
                        4
                    ]
                },
                "cd": 2.0,
                "cdUpperRange": 6.0,
                "initialCDUpperRange": 8.0,
                "publicCDGroup": "",
                "ignoreGCD": true,
                "triggerCDOnStart": true,
                "HGAMDGAEIGO": "",
                "stateIDs": [
                    "Bubble_Interest"
                ],
                "flagTargetReachable": "10",
                "flagSelfOnTemplateCollider": "01",
                "flagSelfInZone": "10",
                "flagTargetInZone": "11"
            }
        },
        "skillGCD": 3.5,
        "spacialWanderTactic": {
            "Default": {
                "PCOJGAMKDJG": 3.4000000953674316,
                "NDEDMGDLDBA": 5.0,
                "DNBBFMBIOLL": 5.0,
                "GNPDKLBKICL": 5.0,
                "FPDFEOEKKJE": 0.4000000059604645,
                "CGLIJAJFKDF": 0.6000000238418579,
                "ECGEJFAHELP": 0.4000000059604645,
                "AGDBELBBOPO": 0.6000000238418579
            }
        },
        "combatFixedMoveTactic": [
            {
                "$type": "CMCHFECOPPI",
                "LMMKNFEMOMG": {
                    "JOCGOKPMCKI": "Spacial",
                    "JOCOJHEICNA": "Default",
                    "DBIELIMGBMC": ""
                }
            },
            {
                "$type": "ADPPBLEBNLM",
                "LMMKNFEMOMG": {
                    "KIHPEPHJMOG": 1,
                    "JOCOJHEICNA": "Default",
                    "DBIELIMGBMC": "",
                    "JOCGOKPMCKI": "Spacial"
                }
            },
            {
                "$type": "KMHBGMELMKD",
                "enable": true,
                "LMMKNFEMOMG": {
                    "JOCGOKPMCKI": "Spacial",
                    "KPOGGFBLNPE": 2.0,
                    "JOCOJHEICNA": "Default",
                    "DBIELIMGBMC": ""
                }
            },
            {
                "$type": "EONBNFNCMNG",
                "LMMKNFEMOMG": {
                    "KIHPEPHJMOG": 1,
                    "IBKLDKBINDG": true,
                    "JOCOJHEICNA": "Default",
                    "DBIELIMGBMC": ""
                }
            },
            {
                "$type": "APBKGIMHIEJ",
                "enable": true,
                "FJANPNOAAFK": {
                    "pose": [
                        101
                    ]
                },
                "LMMKNFEMOMG": {
                    "KIHPEPHJMOG": 2,
                    "EJJMPMENNGE": 20.0,
                    "GABOKKPIPGO": 13.0,
                    "LCHBFANCFAL": 7.0,
                    "OJADAGFHHAF": 3.0,
                    "NCOONJCNMJO": 0.0,
                    "EBNPDABAEEB": 1.0,
                    "JOCOJHEICNA": "Default",
                    "DBIELIMGBMC": ""
                }
            },
            {
                "$type": "PJPGGLCGJNJ",
                "enable": true,
                "FJANPNOAAFK": {
                    "pose": [
                        101
                    ]
                },
                "LMMKNFEMOMG": {
                    "KIHPEPHJMOG": 2,
                    "PKCPKDEDONG": 13.0,
                    "AJCEMHKIMHA": 2.0,
                    "JNMPGLIADPP": 6.0,
                    "CCMODCEDODH": 1.0,
                    "HJILEGNBBIJ": 1.5,
                    "HKAMJKMPHDF": 3.0,
                    "FDGLPPNHMLB": {
                        "GECJAGFGHKL": 0.6000000238418579,
                        "GEECPOOOMFC": 0.20000000298023224,
                        "KEFGIOIFNEO": 0.4000000059604645,
                        "ALHLDKBBFON": 3.0,
                        "JPDHFLJJOPA": 5.0,
                        "LHDCEKHMLPD": 2.0,
                        "BCLEGFPPNIG": 4.0,
                        "PMHKNMGNLFB": 2.0,
                        "CDGJBKJIKLO": 4.0,
                        "CBNDNHHJOBI": 0.10000000149011612,
                        "HDEOOHOCEOM": 0.5,
                        "CFGMPOGHAIB": 0.10000000149011612,
                        "KHMENPJNMME": 0.5
                    },
                    "NIFMKOCLHIJ": false,
                    "JOCOJHEICNA": "Default",
                    "DBIELIMGBMC": ""
                }
            },
            {
                "$type": "JICKAIEGMCB",
                "enable": true,
                "FJANPNOAAFK": {
                    "pose": [
                        1,
                        2
                    ]
                },
                "LMMKNFEMOMG": {
                    "KIHPEPHJMOG": 1,
                    "CBIMEHHAGOA": {
                        "GEECPOOOMFC": 0.699999988079071,
                        "HMOAPLCPFOB": 10.0,
                        "JPDHFLJJOPA": 10.0,
                        "BCLEGFPPNIG": 10.0,
                        "CDGJBKJIKLO": 10.0
                    },
                    "JIFJFPJANHO": 6.0,
                    "JOCOJHEICNA": "Default",
                    "DBIELIMGBMC": "",
                    "FMKOEOHJBCG": 0.75,
                    "PFPIFDOHGPO": 3.0,
                    "POKDCEGEACA": 3.0,
                    "EKDHNAGGGAE": 20.0
                }
            }
        ]
    },
    "inputKeys": [
        {
            "keyID": 201,
            "inputKeyCode": 257,
            "abilityName": ""
        }
    ],
    "move": {
        "$type": "IIGPJJNGCLE",
        "EIEIGIPKLAO": {
            "excludeForces": [
                "RetreatType",
                "RetreatAirType"
            ]
        },
        "MIPACKKJPPI": false,
        "LBMLCBFLOII": true,
        "MIPNOGBEANL": "AirBlend",
        "IJMIGIDACLP": "AirBlend",
        "BEPOPLDKJOP": "SlimeType",
        "EKMHGNLHCNM": 3.0,
        "ELNPBLONMHJ": true,
        "FACNOEFNHIB": "RootNode",
        "CFDFNCLFFOG": true
    }
}