{
    "common": {
        "effectAttachShape": {
            "$type": "DPGKNHENGLM",
            "DDDEJPIFECG": "EffectMesh"
        },
        "mass": 80.0,
        "viewSize": 1.5,
        "affectedByWorld": true,
        "checkInSurface": true,
        "canTriggerElementReactionText": false,
        "useGrassDisplacement": true
    },
    "model": {
        "bornEffect": "",
        "attachEffect": "",
        "canBakeMesh": false
    },
    "dither": {
        "showDitherDuration": 1.0
    },
    "combat": {
        "property": {
            "endureType": "Monster_Minion",
            "weight": 80.0
        },
        "beHit": {
            "hitBloodEffect": "",
            "muteAllHitText": true
        },
        "combatLock": {
            "lockShape": "CircleLockEnemy",
            "lockType": "Animal_Lv2"
        },
        "die": {
            "dieEndTime": 2.0,
            "dieForceDisappearTime": 10.0,
            "dieDisappearEffect": ""
        },
        "animEvents": {
            "RushAtk": {
                "attackPattern": {
                    "$type": "JIOCECPEDFM",
                    "triggerType": "TriggerNoRepeat",
                    "born": {
                        "$type": "NKOODKOFELF",
                        "offset": {
                            "GNGDNIIPPNL": 0.0,
                            "GIIMFINHIED": 0.5,
                            "CLBCHJICOKH": 0.25
                        }
                    },
                    "LOACHGCADCO": 0.6000000238418579
                },
                "attackInfo": {
                    "attackTag": "",
                    "attenuationTag": "",
                    "attenuationGroup": "default",
                    "attackProperty": {
                        "HOGNHNAHNML": 1.0,
                        "BAPILBAGBOJ": 0.0,
                        "bonusCriticalHurt": 100.0,
                        "strikeType": "Blunt",
                        "attackType": "Melee",
                        "damagePercentage": 0.0
                    },
                    "hitPattern": {
                        "onHitEffectName": "default",
                        "hitImpulseType": "LV4",
                        "retreatType": "ByTangent",
                        "canBeDefenceHalt": true
                    }
                }
            }
        }
    },
    "abilities": [
        {
            "abilityID": "CommonInitial",
            "abilityName": "Animal_Common_Initial",
            "abilityOverride": ""
        },
        {
            "abilityID": "AIStateInitial",
            "abilityName": "Animal_Boar_AIStateInitial",
            "abilityOverride": ""
        },
        {
            "abilityID": "Disappear",
            "abilityName": "Animal_Boar_Disappear",
            "abilityOverride": ""
        },
        {
            "abilityID": "Animal_Boar_SetPose",
            "abilityName": "Animal_Boar_SetPose",
            "abilityOverride": ""
        },
        {
            "abilityID": "Animal_Boar_RushAtk",
            "abilityName": "Animal_Boar_RushAtk",
            "abilityOverride": ""
        },
        {
            "abilityID": "Task_Animal_Hunt",
            "abilityName": "Task_Animal_Hunt",
            "abilityOverride": ""
        }
    ],
    "stateLayers": {
        "defaultLayer": {
            "$type": "EPAPJJAGHKG",
            "ACOCIAFGIAD": "",
            "stateIDs": {
                "Born": {
                    "$type": "IJOIMFMEGMM",
                    "DLOHGBDFFGB": {
                        "Born": []
                    },
                    "POLKCLOHPOO": true,
                    "DLAOMOCMANL": [
                        "DoSkill"
                    ]
                },
                "NormalIdle": {
                    "$type": "IJOIMFMEGMM",
                    "DLOHGBDFFGB": {
                        "Standby": []
                    },
                    "POLKCLOHPOO": true,
                    "PGKCBIHGAOC": true,
                    "DLAOMOCMANL": [
                        "DoSkill"
                    ]
                },
                "NormalMove": {
                    "$type": "IJOIMFMEGMM",
                    "DLOHGBDFFGB": {
                        "Walk": [
                            "Audio_Boar_walk"
                        ],
                        "Run": [
                            "Audio_Boar_run"
                        ],
                        "Disappear": []
                    },
                    "POLKCLOHPOO": true,
                    "PGKCBIHGAOC": true,
                    "DLAOMOCMANL": [
                        "DoSkill"
                    ],
                    "LIPMJPLGIKD": true
                },
                "Turn": {
                    "$type": "IJOIMFMEGMM",
                    "DLOHGBDFFGB": {
                        "TurnLeft": [],
                        "TurnRight": []
                    },
                    "POLKCLOHPOO": true,
                    "PGKCBIHGAOC": true,
                    "DLAOMOCMANL": [
                        "DoSkill"
                    ],
                    "LIPMJPLGIKD": true,
                    "HMPOMAMKBEF": true
                },
                "BeHit": {
                    "$type": "IJOIMFMEGMM",
                    "DLOHGBDFFGB": {
                        "Hit_L": [
                            "Audio_Boar_hit_l"
                        ]
                    },
                    "AJBLILDCLBO": [
                        "BeHit"
                    ],
                    "DLAOMOCMANL": [
                        "DoSkill"
                    ]
                },
                "Die": {
                    "$type": "IJOIMFMEGMM",
                    "DLOHGBDFFGB": {
                        "Die": [
                            "Animal_Boar_Die",
                            "Audio_Boar_die"
                        ],
                        "Die_Disappear": [
                            "Animal_Boar_Disappear"
                        ]
                    }
                },
                "Alert": {
                    "$type": "IJOIMFMEGMM",
                    "DLOHGBDFFGB": {
                        "Alert": [
                            "Animal_Boar_Alert"
                        ]
                    },
                    "POLKCLOHPOO": true,
                    "DLAOMOCMANL": [
                        "BeHit",
                        "DoSkill"
                    ]
                },
                "RushAtk": {
                    "$type": "IJOIMFMEGMM",
                    "DLOHGBDFFGB": {
                        "RushAtk": [
                            "Animal_Boar_RushAtk",
                            "Audio_Boar_run"
                        ],
                        "Crash": []
                    },
                    "DLAOMOCMANL": [
                        "BeHit",
                        "DoSkill",
                        "CrashTrigger"
                    ],
                    "LIPMJPLGIKD": true
                },
                "Personality_101": {
                    "$type": "IJOIMFMEGMM",
                    "DLOHGBDFFGB": {
                        "Personality_101": []
                    },
                    "POLKCLOHPOO": true,
                    "DLAOMOCMANL": [
                        "BeHit",
                        "DoSkill"
                    ]
                },
                "Personality_102": {
                    "$type": "IJOIMFMEGMM",
                    "DLOHGBDFFGB": {
                        "Personality_102": []
                    },
                    "POLKCLOHPOO": true,
                    "DLAOMOCMANL": [
                        "BeHit",
                        "DoSkill"
                    ]
                }
            }
        }
    },
    "initialPoses": {
        "Default": {},
        "AnimalView": {
            "initialPoseID": 6001,
            "initialPoseParams": {
                "boolParams": {
                    "AnimalView": "true"
                }
            }
        }
    },
    "aibeta": {
        "enable": true,
        "friendliness": 1,
        "sensing": {
            "settings": {
                "DefaultSetting": {
                    "viewRange": 25.0,
                    "horizontalFov": 90.0,
                    "verticalFov": 45.0,
                    "feelRange": 10.0
                },
                "NeverCombat": {
                    "enableVision": false,
                    "hearAttractionRange": 0.0,
                    "feelRange": 0.0
                }
            },
            "templates": {
                "DefaultTemplate": {
                    "DefaultPoses": "DefaultSetting",
                    "6001": "NeverCombat"
                },
                "NeverCombatTemplate": {
                    "DefaultPoses": "NeverCombat",
                    "6001": "NeverCombat"
                }
            }
        },
        "neurons": {
            "DefaultSetting": [
                "HIT",
                "WEATHER_BAD",
                "FEAR"
            ],
            "NeverCombat": []
        },
        "threat": {
            "feelThreatGrow": 1000.0,
            "threatDecreaseSpeed": 500.0,
            "viewAttenuation": [
                {
                    "x": 10.0,
                    "y": 2.0
                },
                {
                    "x": 15.0,
                    "y": 1.25
                },
                {
                    "x": 20.0,
                    "y": 0.5
                }
            ],
            "JGFOPCOIJOI": ""
        },
        "defendArea": {
            "defendRange": 100.0
        },
        "ui": {
            "hasDirectionIndicator": false,
            "FLMOHOODJBA": ""
        },
        "skills": {
            "3": {
                "name": "OnAlert",
                "skillType": "OnAlert",
                "publicCDGroup": "",
                "ignoreGCD": true,
                "triggerGCD": false,
                "HGAMDGAEIGO": "",
                "stateIDs": [
                    "Alert"
                ],
                "flagTargetReachable": "10",
                "flagSelfOnTemplateCollider": "01",
                "flagSelfInZone": "10",
                "flagTargetInZone": "11"
            },
            "101": {
                "name": "Personality_101",
                "skillType": "Free",
                "cd": 17.5,
                "cdUpperRange": 7.5,
                "initialCD": 5.0,
                "initialCDUpperRange": 7.5,
                "publicCDGroup": "",
                "HGAMDGAEIGO": "",
                "stateIDs": [
                    "Personality_101"
                ],
                "flagTargetReachable": "10",
                "flagSelfOnTemplateCollider": "01",
                "flagSelfInZone": "10",
                "flagTargetInZone": "11"
            },
            "102": {
                "name": "Personality_102",
                "skillType": "Free",
                "cd": 17.5,
                "cdUpperRange": 7.5,
                "initialCD": 5.0,
                "initialCDUpperRange": 7.5,
                "publicCDGroup": "",
                "HGAMDGAEIGO": "",
                "stateIDs": [
                    "Personality_102"
                ],
                "flagTargetReachable": "10",
                "flagSelfOnTemplateCollider": "01",
                "flagSelfInZone": "10",
                "flagTargetInZone": "11"
            },
            "201": {
                "name": "RushAtk",
                "castCondition": {
                    "pose": [
                        201
                    ]
                },
                "cd": 60.0,
                "publicCDGroup": "",
                "ignoreGCD": true,
                "triggerGCD": false,
                "HGAMDGAEIGO": "",
                "stateIDs": [
                    "RushAtk"
                ],
                "flagTargetReachable": "10",
                "flagSelfOnTemplateCollider": "01",
                "flagSelfInZone": "10",
                "flagTargetInZone": "11"
            }
        },
        "skillGCD": 10.0,
        "combatFixedMoveTactic": [
            {
                "$type": "GIMIMAJNOPH",
                "enable": true,
                "FJANPNOAAFK": {
                    "pose": [
                        1,
                        202,
                        102,
                        2,
                        203
                    ]
                },
                "nerveTrigger": [
                    "HIT",
                    "WEATHER_BAD",
                    "FEAR"
                ],
                "LMMKNFEMOMG": {
                    "GEAICNICJAJ": 2.5,
                    "cd": 3.0,
                    "triggerDistance": 100.0,
                    "GGIBBPIGEJF": 4,
                    "PKFMEOPIHEO": 6,
                    "NBBIJDCLJOF": 7.5,
                    "MHMMABHJIIA": 10.0,
                    "JOCOJHEICNA": ""
                },
                "BIDHHBJEKHM": {
                    "203": {
                        "GEAICNICJAJ": 10.0,
                        "cd": 0.10000000149011612,
                        "triggerDistance": 10.0,
                        "IFCLJHAJFHD": 1.0,
                        "NBBIJDCLJOF": 7.5,
                        "MHMMABHJIIA": 10.0,
                        "JOCOJHEICNA": ""
                    }
                }
            },
            {
                "$type": "KMHBGMELMKD",
                "enable": true
            },
            {
                "$type": "GGKADEIBMLG",
                "enable": true,
                "FJANPNOAAFK": {
                    "pose": [
                        1
                    ]
                },
                "LMMKNFEMOMG": {
                    "GEAICNICJAJ": 0.25,
                    "JIFJFPJANHO": 17.5,
                    "CBKHBGCPFBG": 12.5,
                    "EKDHNAGGGAE": 10.0,
                    "BFEJAKFKKFP": 3.0,
                    "KOAMKCEFJED": 5.0,
                    "JOCOJHEICNA": ""
                }
            }
        ]
    },
    "captureGroup": {
        "defaultConfig": {
            "captureEffect": "Eff_SceneObj_CatchAnimal_CaughtSuccess"
        }
    }
}