{
    "common": {
        "effectAttachShape": {
            "$type": "CMIPFEGOJCH",
            "EJAEFCDBDFB": "EffectMesh"
        },
        "mass": 1000.0,
        "height": 2.4000000953674316,
        "modelHeight": 2.4000000953674316,
        "affectedByWorld": true,
        "checkInSurface": true,
        "scale": 0.800000011920929,
        "useGrassDisplacement": true,
        "clearAnimatorOnSetLightDeactive": true,
        "clearAIOnSetLightDeactive": true,
        "DLFJJCMGIBH": true,
        "NICGCIINMFJ": true
    },
    "dither": {
        "showDitherDuration": 2.0
    },
    "combat": {
        "property": {
            "endureType": "Monster_Demiboss_Other",
            "weight": 100.0
        },
        "beHit": {
            "hitBloodEffect": ""
        },
        "combatLock": {
            "lockShape": "CircleLockEnemy",
            "lockType": "Avatar&Monster_Lv4"
        },
        "die": {
            "hasAnimatorDie": true,
            "dieEndTime": 0.8999999761581421,
            "dieDisappearEffect": "Eff_Death_Common",
            "dieShaderData": "MonsterDie",
            "LDOHFFOEPPI": true,
            "BMOKGIFNILM": true,
            "PHCLLDNDFNG": true,
            "CHBAHMJGJBE": true,
            "OPPHENIKFJA": true,
            "CCNGAIMLPIJ": true
        },
        "animEvents": {
            "MeleeAttack_Large": {
                "attackPattern": {
                    "$type": "KKMHAMBPOBM",
                    "triggerType": "TriggerNoRepeat",
                    "born": {
                        "$type": "KDEPFKAAHCG",
                        "offset": {
                            "HMHIOILIGBF": 0.0,
                            "DPPJGBOHAAL": 0.800000011920929,
                            "DDOAGBLBCEF": 0.5
                        }
                    },
                    "DFMMIGEMOHH": 3.0
                },
                "attackInfo": {
                    "attackTag": "",
                    "attenuationTag": "",
                    "attenuationGroup": "default",
                    "attackProperty": {
                        "PCFAAPMOCGJ": 0.5,
                        "LCCBNOKMNFG": 0.0,
                        "bonusCritical": 100.0,
                        "strikeType": "Slash",
                        "enBreak": 100.0,
                        "attackType": "Melee",
                        "FKGFPFNOJMN": 0.0
                    },
                    "hitPattern": {
                        "onHitEffectName": "default",
                        "hitImpulseType": "LV4"
                    },
                    "forceCameraShake": true,
                    "cameraShake": {
                        "shakeType": "CustomVector",
                        "shakeRange": 0.03999999910593033,
                        "shakeTime": 0.09000000357627869,
                        "shakeDir": {
                            "x": 1.0,
                            "z": 1.0
                        }
                    }
                }
            },
            "ChaseAttack_Large": {
                "attackPattern": {
                    "$type": "KKMHAMBPOBM",
                    "triggerType": "TriggerNoRepeat",
                    "born": {
                        "$type": "KDEPFKAAHCG",
                        "offset": {
                            "HMHIOILIGBF": 0.0,
                            "DPPJGBOHAAL": 0.800000011920929,
                            "DDOAGBLBCEF": 0.5
                        }
                    },
                    "DFMMIGEMOHH": 3.0
                },
                "attackInfo": {
                    "attackTag": "",
                    "attenuationTag": "Apep_Underling_ChaseAttack",
                    "attenuationGroup": "Apep_Underling_ChaseAttack",
                    "attackProperty": {
                        "PCFAAPMOCGJ": 1.0,
                        "LCCBNOKMNFG": 0.0,
                        "bonusCritical": 100.0,
                        "strikeType": "Slash",
                        "enBreak": 25.0,
                        "attackType": "Melee",
                        "FKGFPFNOJMN": 0.0
                    },
                    "hitPattern": {
                        "onHitEffectName": "default",
                        "hitImpulseType": "LV4"
                    },
                    "forceCameraShake": true,
                    "cameraShake": {
                        "shakeType": "CustomVector",
                        "shakeRange": 0.03999999910593033,
                        "shakeTime": 0.09000000357627869,
                        "shakeDir": {
                            "x": 1.0,
                            "z": 1.0
                        }
                    }
                }
            }
        }
    },
    "abilities": [
        {
            "abilityID": "",
            "abilityName": "Monster_Apep_Underling_Core_Halo_Ashura",
            "abilityOverride": ""
        },
        {
            "abilityID": "",
            "abilityName": "Monster_Apep_Underling_Summon_Underground",
            "abilityOverride": ""
        },
        {
            "abilityID": "",
            "abilityName": "Monster_Apep_Underling_ReviveEnergy",
            "abilityOverride": ""
        },
        {
            "abilityID": "",
            "abilityName": "Monster_Apep_Underling_SeedOfAshura_ChaseAttack",
            "abilityOverride": ""
        },
        {
            "abilityID": "",
            "abilityName": "Monster_Apep_Underling_SeedOfAshura_Swallow_ChoseTarget",
            "abilityOverride": ""
        },
        {
            "abilityID": "",
            "abilityName": "Monster_Apep_Underling_SeedOfAshura_Swallow",
            "abilityOverride": ""
        },
        {
            "abilityID": "",
            "abilityName": "Monster_Apep_Underling_SeedOfAshura_Swallow_ScaleUp_Start",
            "abilityOverride": ""
        },
        {
            "abilityID": "",
            "abilityName": "Monster_Apep_Underling_SeedOfAshura_Swallow_ScaleUp",
            "abilityOverride": ""
        },
        {
            "abilityID": "",
            "abilityName": "Monster_Apep_Underling_Broadcast",
            "abilityOverride": ""
        }
    ],
    "stateLayers": {
        "defaultLayer": {
            "$type": "KFHJINNNDPN",
            "BOPIBFKFKCA": "",
            "stateIDs": {
                "Born": {
                    "$type": "MEECNDLIOBI",
                    "HKPCLGHBKFD": {
                        "Born": [],
                        "Born_Underground": []
                    },
                    "BAABNFCMKIO": true,
                    "ADPGACLPFHN": [
                        "DoSkill"
                    ]
                },
                "NormalIdle": {
                    "$type": "MEECNDLIOBI",
                    "HKPCLGHBKFD": {
                        "Standby": []
                    },
                    "KNOHBHKACHA": true,
                    "BAABNFCMKIO": true,
                    "ADPGACLPFHN": [
                        "DoSkill"
                    ]
                },
                "NormalMove": {
                    "$type": "MEECNDLIOBI",
                    "HKPCLGHBKFD": {
                        "Run": []
                    },
                    "KNOHBHKACHA": true,
                    "BAABNFCMKIO": true,
                    "ADPGACLPFHN": [
                        "DoSkill"
                    ],
                    "NPMGEMAFACP": true
                },
                "Die": {
                    "$type": "MEECNDLIOBI",
                    "HKPCLGHBKFD": {
                        "Die": []
                    },
                    "PJFELLIJONH": [
                        "DoSkill"
                    ]
                },
                "MeleeAttack": {
                    "$type": "MEECNDLIOBI",
                    "HKPCLGHBKFD": {
                        "MeleeAttack": [
                            "Monster_Apep_Underling_SeedOfAshura_MeleeAttack_Large",
                            "Audio_monster_Apep_Underling_SeedOfAshura_meleeAttack"
                        ]
                    },
                    "PAKNCLFMOAC": 0.0,
                    "IMJBMEIKPJN": 20.0,
                    "ADPGACLPFHN": [
                        "BeHit",
                        "DoSkill"
                    ],
                    "NPMGEMAFACP": true
                },
                "ChaseAttack": {
                    "$type": "MEECNDLIOBI",
                    "HKPCLGHBKFD": {
                        "ChaseAttack": [
                            "Monster_Apep_Underling_SeedOfAshura_ChaseAttack_Large",
                            "Audio_monster_Apep_Underling_SeedOfAshura_chaseAttack"
                        ]
                    },
                    "PAKNCLFMOAC": 0.0,
                    "IMJBMEIKPJN": 20.0,
                    "ADPGACLPFHN": [
                        "BeHit",
                        "DoSkill"
                    ],
                    "NPMGEMAFACP": true
                },
                "Swallow": {
                    "$type": "MEECNDLIOBI",
                    "HKPCLGHBKFD": {
                        "Swallow": [
                            "Monster_Apep_Underling_SeedOfAshura_Swallow",
                            "Audio_monster_Apep_Underling_SeedOfAshura_swallow"
                        ]
                    },
                    "PAKNCLFMOAC": 0.0,
                    "IMJBMEIKPJN": 20.0,
                    "ADPGACLPFHN": [
                        "BeHit",
                        "DoSkill"
                    ],
                    "NPMGEMAFACP": true
                }
            }
        }
    },
    "billboard": {
        "$type": "HFEGKLAIGGI",
        "IIKEHINGEME": "BillboardAttach",
        "offset": {
            "x": 0.03999999910593033
        },
        "GEKOGJAPMMH": "Character",
        "HECLHMINJII": 0.7200000286102295,
        "DMHOOGGGDKG": true,
        "size": "Big"
    },
    "initialPoses": {
        "Default": {}
    },
    "aibeta": {
        "enable": true,
        "sensing": {
            "settings": {
                "DefaultSetting": {
                    "viewRange": 40.0,
                    "viewPanoramic": true,
                    "feelRange": 50.0
                },
                "Apep_NoBroadCast": {
                    "viewRange": 40.0,
                    "viewPanoramic": true,
                    "feelRange": 50.0
                }
            },
            "templates": {
                "DefaultTemplate": {
                    "DefaultPoses": "DefaultSetting"
                },
                "Apep_NoBroadCast": {
                    "DefaultPoses": "Apep_NoBroadCast"
                }
            }
        },
        "neurons": {
            "DefaultSetting": [
                "HIT"
            ],
            "Apep_NoBroadCast": [
                "HIT"
            ]
        },
        "threat": {
            "clearThreatByLostPath": true,
            "viewAttenuation": [
                {
                    "x": 10.0,
                    "y": 2.0
                },
                {
                    "x": 15.0,
                    "y": 0.800000011920929
                },
                {
                    "x": 20.0,
                    "y": 0.5
                },
                {
                    "x": 25.0,
                    "y": 0.30000001192092896
                },
                {
                    "x": 30.0,
                    "y": 0.20000000298023224
                }
            ],
            "resistTauntLevel": "Monster_TauntLevel_5"
        },
        "defendArea": {
            "defendRange": 50.0
        },
        "skills": {
            "201": {
                "name": "MeleeAttack",
                "castCondition": {
                    "pose": [
                        102
                    ],
                    "pickRangeMax": 3.0
                },
                "cd": 2.0,
                "initialCD": 2.0,
                "publicCDGroup": "",
                "CLEPNIDJOLN": "",
                "stateIDs": [
                    "MeleeAttack"
                ],
                "flagTargetReachable": "10",
                "flagSelfOnTemplateCollider": "01",
                "flagSelfInZone": "11",
                "flagTargetInZone": "11"
            },
            "211": {
                "name": "ChaseAttack",
                "castCondition": {
                    "pose": [
                        102
                    ]
                },
                "cd": 7.0,
                "initialCD": 5.0,
                "publicCDGroup": "",
                "CLEPNIDJOLN": "",
                "stateIDs": [
                    "ChaseAttack"
                ],
                "flagTargetReachable": "10",
                "flagSelfOnTemplateCollider": "01",
                "flagSelfInZone": "11",
                "flagTargetInZone": "11"
            },
            "221": {
                "name": "Swallow",
                "priority": 1,
                "castCondition": {
                    "pose": [
                        101
                    ],
                    "needReInitCD": true,
                    "pickRangeMax": 5.0
                },
                "initialCD": 8.0,
                "publicCDGroup": "",
                "CLEPNIDJOLN": "",
                "stateIDs": [
                    "Swallow"
                ],
                "flagTargetReachable": "11",
                "flagSelfOnTemplateCollider": "01",
                "flagSelfInZone": "11",
                "flagTargetInZone": "11"
            },
            "222": {
                "name": "Swallow",
                "priority": 1,
                "castCondition": {
                    "pose": [
                        101
                    ],
                    "pickRangeMax": 5.0
                },
                "cd": 99999.0,
                "initialCD": 2.0,
                "publicCDGroup": "",
                "CLEPNIDJOLN": "",
                "stateIDs": [
                    "Swallow"
                ],
                "flagTargetReachable": "11",
                "flagSelfOnTemplateCollider": "01",
                "flagSelfInZone": "11",
                "flagTargetInZone": "11"
            }
        },
        "combatFixedMoveTactic": [
            {
                "$type": "HLPBLIEBJLM",
                "enable": true,
                "EGJMGEHLDOL": {
                    "pose": [
                        101,
                        102
                    ]
                },
                "NGIEOIGFFDH": {
                    "GPKNKJPPCOM": 5.0,
                    "NDCHJGOOLCF": 99.0,
                    "FDNLEPNLLBP": 3.0,
                    "DANCMNIMNAM": 0.0,
                    "FCFLCFFJKLO": ""
                }
            },
            {
                "$type": "GJGILIGEJMO",
                "enable": true,
                "NGIEOIGFFDH": {
                    "FCFLCFFJKLO": "",
                    "BKCOJDIDEGN": ""
                }
            }
        ]
    },
    "inputKeys": [
        {
            "keyID": 201,
            "inputKeyCode": 257,
            "abilityName": ""
        },
        {
            "keyID": 211,
            "inputKeyCode": 258,
            "abilityName": ""
        },
        {
            "keyID": 221,
            "inputKeyCode": 259,
            "abilityName": ""
        }
    ],
    "move": {
        "$type": "JKDLANFKJIL",
        "ADKJOFPNHNO": "ForwardBackward",
        "LPAKBBIADNC": "RootNode"
    }
}