{
    "common": {
        "effectAttachShape": {
            "$type": "DPGKNHENGLM",
            "DDDEJPIFECG": "EffectMesh"
        },
        "mass": 20.0,
        "height": 0.5,
        "modelHeight": 0.4000000059604645,
        "viewSize": 0.75,
        "affectedByWorld": true,
        "checkInSurface": true,
        "scale": 1.25,
        "enableCrashDamage": false
    },
    "model": {
        "bornEffect": "",
        "attachEffect": "Eff_Monster_Cicin_Water_Born"
    },
    "dither": {
        "showDitherDuration": 2.0
    },
    "combat": {
        "property": {
            "endureType": "Monster_Slime",
            "weight": 60.0
        },
        "beHit": {
            "hitBloodEffect": "",
            "ignoreMinHitVY": true
        },
        "combatLock": {
            "lockShape": "CircleLockEnemy",
            "lockType": "Avatar&Monster_Lv4"
        },
        "die": {
            "hasAnimatorDie": true,
            "dieEndTime": 2.0,
            "dieForceDisappearTime": 8.0,
            "dieDisappearEffect": "",
            "muteHitBox": true,
            "dieDenyLockOn": true,
            "dieIsGhostToEnemy": true,
            "dieIgnoreTriggerBullet": true,
            "muteBillboard": true,
            "mutePushCollider": true
        }
    },
    "abilities": [
        {
            "abilityID": "Monster_Cicin_Water_NormalAtk",
            "abilityName": "Monster_Cicin_Water_NormalAtk",
            "abilityOverride": ""
        },
        {
            "abilityID": "Monster_Cicin_Steer",
            "abilityName": "Monster_Cicin_Steer",
            "abilityOverride": ""
        },
        {
            "abilityID": "Monster_Cicin_Water_CommonEffect",
            "abilityName": "Monster_Cicin_Water_CommonEffect",
            "abilityOverride": ""
        }
    ],
    "stateLayers": {
        "defaultLayer": {
            "$type": "EPAPJJAGHKG",
            "ACOCIAFGIAD": "",
            "stateIDs": {
                "Born": {
                    "$type": "IJOIMFMEGMM",
                    "DLOHGBDFFGB": {
                        "Born": [
                            "Audio_Cicin_Water_Born"
                        ]
                    },
                    "POLKCLOHPOO": true,
                    "DLAOMOCMANL": [
                        "DoSkill"
                    ]
                },
                "NormalIdle": {
                    "$type": "IJOIMFMEGMM",
                    "DLOHGBDFFGB": {
                        "Standby": []
                    },
                    "POLKCLOHPOO": true,
                    "PGKCBIHGAOC": true,
                    "OGNDLAMHMPB": 1.2000000476837158,
                    "DLAOMOCMANL": [
                        "DoSkill"
                    ],
                    "LIPMJPLGIKD": true,
                    "HMPOMAMKBEF": true
                },
                "NormalMove": {
                    "$type": "IJOIMFMEGMM",
                    "DLOHGBDFFGB": {
                        "Walk": [],
                        "Run": [],
                        "Run_Standby": []
                    },
                    "PGKCBIHGAOC": true,
                    "OGNDLAMHMPB": 1.2000000476837158,
                    "DLAOMOCMANL": [
                        "DoSkill"
                    ],
                    "LIPMJPLGIKD": true
                },
                "BeHit": {
                    "$type": "IJOIMFMEGMM",
                    "DLOHGBDFFGB": {
                        "Hit_L": [],
                        "Hit_H": []
                    },
                    "AJBLILDCLBO": [
                        "BeHit"
                    ],
                    "DLAOMOCMANL": [
                        "DoSkill"
                    ]
                },
                "Struggle": {
                    "$type": "IJOIMFMEGMM",
                    "DLOHGBDFFGB": {
                        "Struggle": []
                    },
                    "AJBLILDCLBO": [
                        "BeHit"
                    ],
                    "DLAOMOCMANL": [
                        "DoSkill"
                    ]
                },
                "BeHitThrow": {
                    "$type": "IJOIMFMEGMM",
                    "DLOHGBDFFGB": {
                        "HitThrow": []
                    },
                    "AJBLILDCLBO": [
                        "BeHit",
                        "HitAir2HitDrop"
                    ],
                    "DLAOMOCMANL": [
                        "DoSkill"
                    ]
                },
                "Die": {
                    "$type": "IJOIMFMEGMM",
                    "DLOHGBDFFGB": {
                        "Die": [
                            "Monster_Cicin_Water_Die"
                        ]
                    }
                },
                "Warning": {
                    "$type": "IJOIMFMEGMM",
                    "DLOHGBDFFGB": {
                        "Warning": [
                            "Monster_Slime_Warning"
                        ]
                    },
                    "OGNDLAMHMPB": 1.2000000476837158,
                    "DLAOMOCMANL": [
                        "BeHit",
                        "DoSkill"
                    ]
                },
                "HasOwnerWarning": {
                    "$type": "IJOIMFMEGMM",
                    "DLOHGBDFFGB": {
                        "HasOwnerWarning": []
                    },
                    "OGNDLAMHMPB": 1.2000000476837158,
                    "DLAOMOCMANL": [
                        "BeHit",
                        "DoSkill"
                    ]
                },
                "NormalAtk": {
                    "$type": "IJOIMFMEGMM",
                    "DLOHGBDFFGB": {
                        "NormalAtk": [
                            "Monster_Cicin_Water_NormalAtk"
                        ]
                    },
                    "OGNDLAMHMPB": 1.2000000476837158,
                    "DLAOMOCMANL": [
                        "BeHit",
                        "DoSkill"
                    ],
                    "CFGFMHDOEBF": true
                }
            }
        }
    },
    "billboard": {
        "$type": "PAOBAEKGGBC",
        "attachPoint": "BillboardAttach",
        "offset": {
            "y": 0.20000000298023224
        },
        "KGHAGECNJPO": true
    },
    "initialPoses": {
        "Default": {}
    },
    "aibeta": {
        "enable": true,
        "decisionArchetype": "Cicin",
        "moveSetting": {
            "moveCategory": "Amphibious",
            "useNavMesh": false,
            "navMeshAgentName": "Undead01",
            "almostReachedDistanceWalk": 2.0,
            "almostReachedDistanceRun": 2.0
        },
        "sensing": {
            "settings": {
                "DefaultSetting": {
                    "viewRange": 20.0,
                    "feelRange": 10.0
                }
            }
        },
        "neurons": {
            "DefaultSetting": [
                "HIT"
            ]
        },
        "threat": {
            "clearThreatEdgeDistance": 3.5,
            "clearThreatTimerByDistance": 1.75,
            "viewThreatGrow": 35.0,
            "feelThreatGrow": 1000.0,
            "threatDecreaseSpeed": 10.0,
            "JGFOPCOIJOI": ""
        },
        "order": {
            "servant": {
                "enable": true
            }
        },
        "defendArea": {
            "defendRange": 30.0
        },
        "fly": {
            "enable": true,
            "floatingPoses": [
                1,
                2,
                101,
                201,
                202,
                203
            ]
        },
        "skills": {
            "100": {
                "name": "OnAlert",
                "skillType": "OnAlert",
                "faceTarget": true,
                "publicCDGroup": "",
                "triggerGCD": false,
                "HGAMDGAEIGO": "",
                "stateIDs": [
                    "Warning"
                ],
                "skillQueryingTime": 3.0,
                "flagTargetReachable": "10",
                "flagSelfOnTemplateCollider": "01",
                "flagSelfInZone": "10",
                "flagTargetInZone": "11"
            },
            "301": {
                "name": "NormalAtk",
                "combatSkillType": "RangedAttack",
                "faceTarget": true,
                "castCondition": {
                    "pose": [
                        101
                    ],
                    "pickRangeMax": 30.0
                },
                "cd": 5.0,
                "cdUpperRange": 2.5,
                "publicCDGroup": "",
                "HGAMDGAEIGO": "",
                "stateIDs": [
                    "NormalAtk"
                ],
                "flagTargetReachable": "11",
                "flagSelfOnTemplateCollider": "01",
                "flagSelfInZone": "11",
                "flagTargetInZone": "11"
            },
            "311": {
                "name": "NormalAtk",
                "faceTarget": true,
                "castCondition": {
                    "pose": [
                        201
                    ],
                    "pickRangeMax": 30.0
                },
                "cd": 5.0,
                "cdUpperRange": 7.5,
                "publicCDGroup": "",
                "HGAMDGAEIGO": "",
                "stateIDs": [
                    "NormalAtk"
                ],
                "flagTargetReachable": "11",
                "flagSelfOnTemplateCollider": "01",
                "flagSelfInZone": "11",
                "flagTargetInZone": "11"
            }
        },
        "skillGCD": 1.5,
        "combatFixedMoveTactic": [
            {
                "$type": "KOFCEOHBOMD",
                "enable": true,
                "FJANPNOAAFK": {
                    "pose": [
                        1,
                        2,
                        101,
                        201,
                        203
                    ]
                },
                "LMMKNFEMOMG": {
                    "KIHPEPHJMOG": 1,
                    "GEAICNICJAJ": 10.0,
                    "LIPBFAMLADJ": 1.0,
                    "DAAOCEJBKEP": 1.5,
                    "LOJEKMFGAKH": 0.75,
                    "LFGIDEOEKIB": 2.75,
                    "PBBMCLFLICL": 3.0,
                    "JOCOJHEICNA": "",
                    "DBIELIMGBMC": ""
                },
                "BIDHHBJEKHM": {
                    "101": {
                        "KIHPEPHJMOG": 1,
                        "GEAICNICJAJ": 10.0,
                        "LIPBFAMLADJ": 0.30000001192092896,
                        "DAAOCEJBKEP": 0.6499999761581421,
                        "LOJEKMFGAKH": 0.550000011920929,
                        "LFGIDEOEKIB": 1.2999999523162842,
                        "PBBMCLFLICL": 2.75,
                        "JOCOJHEICNA": "",
                        "DBIELIMGBMC": ""
                    },
                    "201": {
                        "KIHPEPHJMOG": 1,
                        "GEAICNICJAJ": 10.0,
                        "LIPBFAMLADJ": 0.30000001192092896,
                        "DAAOCEJBKEP": 0.6499999761581421,
                        "LOJEKMFGAKH": 0.550000011920929,
                        "LFGIDEOEKIB": 1.2999999523162842,
                        "PBBMCLFLICL": 2.75,
                        "JOCOJHEICNA": "",
                        "DBIELIMGBMC": ""
                    },
                    "203": {
                        "KIHPEPHJMOG": 1,
                        "GEAICNICJAJ": 10.0,
                        "LIPBFAMLADJ": 0.30000001192092896,
                        "DAAOCEJBKEP": 0.6499999761581421,
                        "LOJEKMFGAKH": 0.550000011920929,
                        "LFGIDEOEKIB": 1.2999999523162842,
                        "PBBMCLFLICL": 2.75,
                        "LHNNAOPJFOL": false,
                        "JOCOJHEICNA": "",
                        "DBIELIMGBMC": ""
                    }
                }
            },
            {
                "$type": "KMHBGMELMKD",
                "enable": true,
                "LMMKNFEMOMG": {
                    "KIHPEPHJMOG": 1,
                    "FKIKEIAEEBO": 0.75,
                    "BMLLGHNDPNE": 2.25,
                    "JOCGOKPMCKI": "Spacial",
                    "JOCOJHEICNA": "",
                    "DBIELIMGBMC": ""
                }
            },
            {
                "$type": "APBKGIMHIEJ",
                "enable": true,
                "FJANPNOAAFK": {
                    "pose": [
                        101
                    ]
                },
                "LMMKNFEMOMG": {
                    "KIHPEPHJMOG": 2,
                    "EJJMPMENNGE": 15.0,
                    "GABOKKPIPGO": 7.5,
                    "NCOONJCNMJO": 1.0,
                    "EBNPDABAEEB": 2.5,
                    "segmentDistance": 3.0,
                    "JOCOJHEICNA": "",
                    "DBIELIMGBMC": ""
                }
            },
            {
                "$type": "PAHHOIMHFPA",
                "enable": true,
                "FJANPNOAAFK": {
                    "pose": [
                        1
                    ]
                },
                "LMMKNFEMOMG": {
                    "KIHPEPHJMOG": 2,
                    "JIFJFPJANHO": 20.0,
                    "CBKHBGCPFBG": 15.0,
                    "LOJEKMFGAKH": 1.5,
                    "LFGIDEOEKIB": 3.0,
                    "EKDHNAGGGAE": 30.0,
                    "BFEJAKFKKFP": 2.5,
                    "KOAMKCEFJED": 4.0,
                    "MDBLPMNHKML": 4,
                    "KDCBFEJMPFI": 5,
                    "JOCOJHEICNA": "",
                    "DBIELIMGBMC": ""
                }
            }
        ]
    },
    "inputKeys": [
        {
            "keyID": 401,
            "inputKeyCode": 257,
            "abilityName": ""
        },
        {
            "keyID": 301,
            "inputKeyCode": 258,
            "abilityName": ""
        }
    ],
    "move": {
        "$type": "IIGPJJNGCLE",
        "EIEIGIPKLAO": {
            "excludeForces": [
                "WindZoneType",
                "AirflowType"
            ]
        },
        "MEKENCHCEEN": false,
        "MLKCNHIIMCE": true,
        "BEPOPLDKJOP": "SlimeType",
        "FACNOEFNHIB": "RootNode"
    },
    "audio": {
        "KEEAIACIJBN": "",
        "animAudio": {
            "onTransitionIn": [
                {
                    "currentStateName": "Die",
                    "audioEvent": {
                        "text": "Stop_sfx_monster_cicin_thunder_foley_slow_lp"
                    }
                },
                {
                    "currentStateName": "RushAtk",
                    "audioEvent": {
                        "text": "Play_sfx_monster_cicin_thunder_electricSurround_start"
                    }
                }
            ],
            "onTransitionOut": [
                {
                    "currentStateName": "Die",
                    "audioEvent": {
                        "text": ""
                    }
                }
            ]
        }
    }
}