{
    "common": {
        "effectAttachShape": {
            "$type": "CMIPFEGOJCH",
            "EJAEFCDBDFB": "EffectMesh"
        },
        "mass": 30.0,
        "height": 1.600000023841858,
        "modelHeight": 1.7000000476837158,
        "affectedByWorld": true,
        "checkInSurface": true,
        "useGrassDisplacement": true
    },
    "headControl": {
        "$type": "HLGPLMCNIFB",
        "useHeadControl": true,
        "BADCMJGBCHM": 75.0,
        "AIOGIMNHIGK": 30.0,
        "GDIAFJFLHCE": [
            "NormalIdle/Standby",
            "NormalMove/WalkForward",
            "NormalMove/WalkBack",
            "NormalMove/WalkRight",
            "NormalMove/WalkLeft",
            "NormalMove/Run",
            "Turn/TurnLeft",
            "Turn/TurnRight"
        ]
    },
    "model": {
        "bornEffect": "Eff_Monster_Common_Born",
        "attachEffect": ""
    },
    "dither": {
        "showDitherDuration": 1.0
    },
    "combat": {
        "property": {
            "endureType": "Monster_Minion",
            "weight": 80.0
        },
        "beHit": {
            "hitBloodEffect": ""
        },
        "combatLock": {
            "lockShape": "CircleLockEnemy",
            "lockType": "Avatar&Monster_Lv4"
        },
        "die": {
            "hasAnimatorDie": true,
            "dieEndTime": 4.0,
            "dieForceDisappearTime": 15.0,
            "dieDisappearEffect": "",
            "useRagDoll": true,
            "ragDollDieEndTimeDelay": 15.0,
            "LDOHFFOEPPI": true,
            "BMOKGIFNILM": true,
            "PHCLLDNDFNG": true,
            "CHBAHMJGJBE": true,
            "OPPHENIKFJA": true,
            "CCNGAIMLPIJ": true
        },
        "animEvents": {
            "NormalAtk": {
                "attackPattern": {
                    "$type": "HBFCINNBDFD",
                    "triggerType": "TriggerNoRepeat",
                    "born": {
                        "$type": "KDEPFKAAHCG",
                        "offset": {
                            "HMHIOILIGBF": 0.0,
                            "DPPJGBOHAAL": 0.0,
                            "DDOAGBLBCEF": 0.0
                        }
                    },
                    "NPLOANBGDOK": 90.0,
                    "DFMMIGEMOHH": 1.75
                },
                "attackInfo": {
                    "attackTag": "",
                    "attenuationTag": "",
                    "attenuationGroup": "default",
                    "attackProperty": {
                        "PCFAAPMOCGJ": 1.0,
                        "LCCBNOKMNFG": 0.0,
                        "bonusCritical": 100.0,
                        "strikeType": "Blunt",
                        "enBreak": 100.0,
                        "attackType": "Melee",
                        "FKGFPFNOJMN": 0.0
                    },
                    "hitPattern": {
                        "onHitEffectName": "default",
                        "hitImpulseType": "LV5"
                    },
                    "cameraShake": {
                        "shakeType": "HitVector",
                        "shakeRange": 0.20000000298023224,
                        "shakeTime": 0.15000000596046448,
                        "shakeDistance": 25.0,
                        "shakeDir": {
                            "x": -1.0,
                            "y": -0.30000001192092896
                        }
                    }
                }
            }
        }
    },
    "equipController": {
        "sheathPoint": "",
        "attachPoints": {
            "equip01": "WeaponR",
            "equip02": "WeaponL"
        }
    },
    "abilities": [
        {
            "abilityID": "Alert",
            "abilityName": "Thoarder_Alert",
            "abilityOverride": ""
        },
        {
            "abilityID": "SteerAttack",
            "abilityName": "Thoarder_Male_NoWeapon_SteerAttack",
            "abilityOverride": ""
        },
        {
            "abilityID": "ThrowBomb_Water",
            "abilityName": "Thoarder_Male_NoWeapon_ThrowBomb_Water",
            "abilityOverride": ""
        },
        {
            "abilityID": "ThrowBomb_Water_BombManager",
            "abilityName": "Thoarder_Male_NoWeapon_ThrowBomb_Water_BombManager",
            "abilityOverride": ""
        },
        {
            "abilityID": "SteerMove",
            "abilityName": "Thoarder_SteerMove",
            "abilityOverride": ""
        },
        {
            "abilityID": "SpecialsState_Weapon",
            "abilityName": "Thoarder_SpecialsState_Weapon",
            "abilityOverride": ""
        }
    ],
    "stateLayers": {
        "defaultLayer": {
            "$type": "KFHJINNNDPN",
            "BOPIBFKFKCA": "",
            "stateIDs": {
                "NormalIdle": {
                    "$type": "MEECNDLIOBI",
                    "HKPCLGHBKFD": {
                        "Standby": [
                            "Audio_Monster_Thoarder_NoWeapon_Standby"
                        ],
                        "Born": []
                    },
                    "KNOHBHKACHA": true,
                    "BAABNFCMKIO": true,
                    "ADPGACLPFHN": [
                        "DoSkill"
                    ]
                },
                "NormalMove": {
                    "$type": "MEECNDLIOBI",
                    "HKPCLGHBKFD": {
                        "WalkForward": [
                            "Audio_Monster_Thoarder_NoWeapon_Walk"
                        ],
                        "WalkBack": [
                            "Audio_Monster_Thoarder_NoWeapon_Walk"
                        ],
                        "WalkRight": [
                            "Audio_Monster_Thoarder_NoWeapon_Walk"
                        ],
                        "WalkLeft": [
                            "Audio_Monster_Thoarder_NoWeapon_Walk"
                        ],
                        "Run": [
                            "Audio_Monster_Thoarder_NoWeapon_Run"
                        ]
                    },
                    "KNOHBHKACHA": true,
                    "BAABNFCMKIO": true,
                    "ADPGACLPFHN": [
                        "DoSkill"
                    ],
                    "NPMGEMAFACP": true
                },
                "Turn": {
                    "$type": "MEECNDLIOBI",
                    "HKPCLGHBKFD": {
                        "TurnLeft": [
                            "Audio_Monster_Thoarder_NoWeapon_Walk"
                        ],
                        "TurnRight": [
                            "Audio_Monster_Thoarder_NoWeapon_Walk"
                        ]
                    },
                    "KNOHBHKACHA": true,
                    "BAABNFCMKIO": true,
                    "ADPGACLPFHN": [
                        "DoSkill"
                    ],
                    "NPMGEMAFACP": true
                },
                "BeHit": {
                    "$type": "MEECNDLIOBI",
                    "HKPCLGHBKFD": {
                        "Hit_L": [
                            "Audio_Monster_Thoarder_NoWeapon_Normal_Hit_L"
                        ],
                        "Hit_H": [
                            "Audio_Monster_Thoarder_NoWeapon_Normal_Hit_H"
                        ],
                        "DHit": []
                    },
                    "PJFELLIJONH": [
                        "BeHit"
                    ],
                    "ADPGACLPFHN": [
                        "DoSkill"
                    ]
                },
                "BeHitThrow": {
                    "$type": "MEECNDLIOBI",
                    "HKPCLGHBKFD": {
                        "HitThrow": [
                            "Audio_Monster_Thoarder_NoWeapon_Normal_HitThrow"
                        ],
                        "HitThrowDrop": [],
                        "HitThrowToGround": [
                            "Audio_Monster_Thoarder_NoWeapon_Normal_HitThrowToGround"
                        ]
                    },
                    "PJFELLIJONH": [
                        "BeHit",
                        "HitAir2HitDrop"
                    ],
                    "ADPGACLPFHN": [
                        "DoSkill"
                    ]
                },
                "Struggle": {
                    "$type": "MEECNDLIOBI",
                    "HKPCLGHBKFD": {
                        "Struggle": []
                    },
                    "PJFELLIJONH": [
                        "BeHit",
                        "HitAir2HitDrop"
                    ],
                    "ADPGACLPFHN": [
                        "DoSkill"
                    ]
                },
                "Die": {
                    "$type": "MEECNDLIOBI",
                    "HKPCLGHBKFD": {
                        "Die1": [
                            "Monster_Thoarder_Male_NoWeapon_Die",
                            "Audio_Monster_Thoarder_NoWeapon_Normal_Die"
                        ],
                        "Die2": [
                            "Monster_Thoarder_Male_NoWeapon_Die",
                            "Audio_Monster_Thoarder_NoWeapon_Normal_Die"
                        ],
                        "SwimDie": [
                            "Audio_Monster_Thoarder_NoWeapon_SwimDie"
                        ],
                        "SwimDie_AS": [
                            "Monster_Thoarder_Common_SwimDie",
                            "Audio_Monster_Thoarder_NoWeapon_SwimDie"
                        ]
                    }
                },
                "Die_RagDoll": {
                    "$type": "MEECNDLIOBI",
                    "HKPCLGHBKFD": {
                        "AirDie": [
                            "Monster_Thoarder_Common_AirDie",
                            "Audio_Monster_Thoarder_NoWeapon_Normal_Die"
                        ]
                    },
                    "CKHCPGMBKGA": true
                },
                "Life_Alert": {
                    "$type": "MEECNDLIOBI",
                    "HKPCLGHBKFD": {
                        "Alert": [
                            "Audio_Monster_Thoarder_NoWeapon_Normal_Alert"
                        ]
                    },
                    "ADPGACLPFHN": [
                        "BeHit",
                        "DoSkill"
                    ]
                },
                "Life_Warning": {
                    "$type": "MEECNDLIOBI",
                    "HKPCLGHBKFD": {
                        "Warning": [
                            "Monster_Undead01_Warning",
                            "Monster_Thoarder_Alert",
                            "Audio_Monster_Thoarder_NoWeapon_Normal_Alert"
                        ],
                        "Alert_Armed": [
                            "Monster_Undead01_Warning",
                            "Monster_Thoarder_Alert",
                            "Audio_Monster_Thoarder_NoWeapon_Normal_Alert"
                        ]
                    },
                    "ADPGACLPFHN": [
                        "BeHit",
                        "DoSkill"
                    ]
                },
                "NormalAtk": {
                    "$type": "MEECNDLIOBI",
                    "HKPCLGHBKFD": {
                        "NormalAtk": [
                            "Monster_Thoarder_Male_NoWeapon_NormalAtk",
                            "Audio_Monster_Thoarder_NoWeapon_Normal_NormalAtk"
                        ]
                    },
                    "ADPGACLPFHN": [
                        "BeHit",
                        "DoSkill"
                    ]
                },
                "ThrowBomb_BS": {
                    "$type": "MEECNDLIOBI",
                    "HKPCLGHBKFD": {
                        "ThrowBomb_BS": [
                            "Monster_Thoarder_Male_NoWeapon_BombThrow_Water_BS",
                            "Monster_Thoarder_Male_NoWeapon_BombThrow_Water_Throw",
                            "Audio_Monster_Thoarder_NoWeapon_Normal_ThrowingBottle_Water"
                        ]
                    },
                    "ADPGACLPFHN": [
                        "BeHit",
                        "DoSkill"
                    ]
                },
                "ThrowBomb_Throw": {
                    "$type": "MEECNDLIOBI",
                    "HKPCLGHBKFD": {
                        "ThrowBomb_Throw": []
                    },
                    "ADPGACLPFHN": [
                        "BeHit",
                        "DoSkill"
                    ]
                },
                "Armed": {
                    "$type": "MEECNDLIOBI",
                    "HKPCLGHBKFD": {
                        "Armed": []
                    },
                    "KNOHBHKACHA": true,
                    "ADPGACLPFHN": [
                        "BeHit",
                        "DoSkill"
                    ]
                },
                "Think": {
                    "$type": "MEECNDLIOBI",
                    "HKPCLGHBKFD": {
                        "Think": []
                    },
                    "KNOHBHKACHA": true,
                    "ADPGACLPFHN": [
                        "BeHit",
                        "DoSkill"
                    ]
                },
                "Search": {
                    "$type": "MEECNDLIOBI",
                    "HKPCLGHBKFD": {
                        "Search": []
                    },
                    "KNOHBHKACHA": true,
                    "ADPGACLPFHN": [
                        "BeHit",
                        "DoSkill"
                    ]
                },
                "Sit": {
                    "$type": "MEECNDLIOBI",
                    "HKPCLGHBKFD": {
                        "Sit": []
                    },
                    "KNOHBHKACHA": true,
                    "ADPGACLPFHN": [
                        "BeHit",
                        "DoSkill"
                    ]
                },
                "Sleep": {
                    "$type": "MEECNDLIOBI",
                    "HKPCLGHBKFD": {
                        "Sleep": []
                    },
                    "KNOHBHKACHA": true,
                    "ADPGACLPFHN": [
                        "BeHit",
                        "DoSkill"
                    ]
                },
                "Chat": {
                    "$type": "MEECNDLIOBI",
                    "HKPCLGHBKFD": {
                        "Chat": []
                    },
                    "KNOHBHKACHA": true,
                    "ADPGACLPFHN": [
                        "BeHit",
                        "DoSkill"
                    ]
                },
                "ChatFree01": {
                    "$type": "MEECNDLIOBI",
                    "HKPCLGHBKFD": {
                        "ChatFree01_BS": [],
                        "ChatFree01_Loop": [],
                        "ChatFree01_AS": []
                    },
                    "KNOHBHKACHA": true,
                    "ADPGACLPFHN": [
                        "BeHit",
                        "DoSkill"
                    ]
                },
                "Threat": {
                    "$type": "MEECNDLIOBI",
                    "HKPCLGHBKFD": {
                        "Threat": []
                    },
                    "KNOHBHKACHA": true,
                    "ADPGACLPFHN": [
                        "BeHit",
                        "DoSkill"
                    ]
                },
                "ThreatFree01": {
                    "$type": "MEECNDLIOBI",
                    "HKPCLGHBKFD": {
                        "ThreatFree01": []
                    },
                    "KNOHBHKACHA": true,
                    "ADPGACLPFHN": [
                        "BeHit",
                        "DoSkill"
                    ]
                },
                "Laugh": {
                    "$type": "MEECNDLIOBI",
                    "HKPCLGHBKFD": {
                        "Laugh": []
                    },
                    "KNOHBHKACHA": true,
                    "ADPGACLPFHN": [
                        "BeHit",
                        "DoSkill"
                    ]
                },
                "LaughFree01": {
                    "$type": "MEECNDLIOBI",
                    "HKPCLGHBKFD": {
                        "LaughFree01": []
                    },
                    "KNOHBHKACHA": true,
                    "ADPGACLPFHN": [
                        "BeHit",
                        "DoSkill"
                    ]
                }
            }
        }
    },
    "billboard": {
        "$type": "HFEGKLAIGGI",
        "IIKEHINGEME": "BillboardAttach",
        "offset": {
            "x": -0.05000000074505806
        },
        "GEKOGJAPMMH": "Character",
        "HECLHMINJII": 0.25,
        "DMHOOGGGDKG": true
    },
    "initialPoses": {
        "Default": {},
        "FixedPos": {
            "initialPoseID": 2,
            "initialPoseParams": {
                "boolParams": {
                    "FixedPos": "true"
                }
            }
        },
        "FixedPosArmed": {
            "initialPoseID": 3,
            "initialPoseParams": {
                "boolParams": {
                    "FixedPosArmed": "true"
                }
            }
        },
        "Armed": {
            "initialPoseID": 4,
            "initialPoseParams": {
                "boolParams": {
                    "Armed": "true"
                }
            }
        },
        "Think": {
            "initialPoseID": 9002,
            "initialPoseParams": {
                "boolParams": {
                    "Think": "true"
                }
            }
        },
        "Search": {
            "initialPoseID": 9003,
            "initialPoseParams": {
                "boolParams": {
                    "Search": "true"
                }
            }
        },
        "Sit": {
            "initialPoseID": 9004,
            "initialPoseParams": {
                "boolParams": {
                    "Sit": "true"
                }
            }
        },
        "Sleep": {
            "initialPoseID": 9005,
            "initialPoseParams": {
                "boolParams": {
                    "Sleep": "true"
                }
            }
        },
        "Chat": {
            "initialPoseID": 9006,
            "initialPoseParams": {
                "boolParams": {
                    "Chat": "true"
                }
            }
        },
        "Threat": {
            "initialPoseID": 9007,
            "initialPoseParams": {
                "boolParams": {
                    "Threat": "true"
                }
            }
        },
        "Laugh": {
            "initialPoseID": 9009,
            "initialPoseParams": {
                "boolParams": {
                    "Laugh": "true"
                }
            }
        }
    },
    "aibeta": {
        "enable": true,
        "moveSetting": {
            "navMeshAgentName": "Undead01",
            "almostReachedDistanceRun": 1.5
        },
        "sensing": {
            "settings": {
                "DefaultSetting": {
                    "feelRange": 8.0
                },
                "HighAlert": {
                    "viewRange": 40.0,
                    "feelRange": 10.0
                },
                "LowAlert": {
                    "viewRange": 10.0
                },
                "Sleep": {
                    "viewRange": 0.0,
                    "feelRange": 3.0
                }
            },
            "templates": {
                "DefaultTemplate": {
                    "DefaultPoses": "DefaultSetting",
                    "9002": "LowAlert",
                    "9003": "LowAlert",
                    "9004": "LowAlert",
                    "9005": "Sleep",
                    "9006": "LowAlert",
                    "9007": "LowAlert",
                    "9009": "LowAlert"
                },
                "HighAlertTemplate": {
                    "DefaultPoses": "HighAlert",
                    "9002": "DefaultSetting",
                    "9003": "DefaultSetting",
                    "9004": "DefaultSetting",
                    "9005": "Sleep",
                    "9006": "DefaultSetting",
                    "9007": "DefaultSetting",
                    "9009": "DefaultSetting"
                }
            }
        },
        "neurons": {
            "DefaultSetting": [
                "HIT"
            ]
        },
        "threat": {
            "clearThreatByLostPath": true,
            "clearThreatTimerByDistance": 3.0,
            "viewAttenuation": [
                {
                    "x": 10.0,
                    "y": 2.0
                },
                {
                    "x": 15.0,
                    "y": 0.800000011920929
                },
                {
                    "x": 20.0,
                    "y": 0.5
                },
                {
                    "x": 25.0,
                    "y": 0.30000001192092896
                },
                {
                    "x": 30.0,
                    "y": 0.20000000298023224
                }
            ]
        },
        "defendArea": {},
        "profiling": {},
        "skillGroupCDConfigs": [
            {
                "skillGroupCDID": 1,
                "skillGroupCDTime": 7.0
            },
            {
                "skillGroupCDID": 2,
                "skillGroupCDTime": 3.0
            },
            {
                "skillGroupCDID": 3,
                "skillGroupCDTime": 3.0
            }
        ],
        "skills": {
            "101": {
                "name": "OnAlert",
                "skillType": "OnAlert",
                "faceTarget": true,
                "castCondition": {
                    "pose": [
                        1,
                        2,
                        9002,
                        9003,
                        9004,
                        9005,
                        9006,
                        9009
                    ]
                },
                "publicCDGroup": "",
                "ignoreGCD": true,
                "triggerGCD": false,
                "CLEPNIDJOLN": "",
                "stateIDs": [
                    "Life_Warning"
                ],
                "skillQueryingTime": 3.0,
                "flagTargetReachable": "10",
                "flagSelfOnTemplateCollider": "01",
                "flagSelfInZone": "10",
                "flagTargetInZone": "11"
            },
            "103": {
                "name": "OnAlert_Armed",
                "skillType": "OnAlert",
                "faceTarget": true,
                "castCondition": {
                    "pose": [
                        3,
                        4,
                        9007
                    ]
                },
                "publicCDGroup": "",
                "ignoreGCD": true,
                "triggerGCD": false,
                "CLEPNIDJOLN": "",
                "stateIDs": [
                    "Life_Warning"
                ],
                "skillQueryingTime": 3.0,
                "flagTargetReachable": "10",
                "flagSelfOnTemplateCollider": "01",
                "flagSelfInZone": "10",
                "flagTargetInZone": "11"
            },
            "201": {
                "name": "NoWeapon_Attack",
                "combatSkillType": "MeleeAttack",
                "priority": 2,
                "castCondition": {
                    "pose": [
                        1001,
                        1002
                    ],
                    "pickRangeMax": 3.0,
                    "castRangeMax": 3.0
                },
                "cd": 3.5,
                "publicCDGroup": "",
                "ignoreGCD": true,
                "triggerGCD": false,
                "CLEPNIDJOLN": "",
                "stateIDs": [
                    "NormalAtk"
                ],
                "flagTargetReachable": "10",
                "flagSelfOnTemplateCollider": "01",
                "flagSelfInZone": "10",
                "flagTargetInZone": "11"
            },
            "304": {
                "name": "ThrowBomb",
                "combatSkillType": "RangedAttack",
                "castCondition": {
                    "pose": [
                        1001,
                        1002
                    ],
                    "pickRangeMin": 3.0,
                    "pickRangeMax": 15.0,
                    "castRangeMin": 2.25,
                    "castRangeMax": 10.0
                },
                "cd": 3.5,
                "publicCDGroup": "",
                "skillGroupCDID": 3,
                "CLEPNIDJOLN": "",
                "stateIDs": [
                    "ThrowBomb_BS",
                    "ThrowBomb_Throw"
                ],
                "flagTargetReachable": "10",
                "flagSelfOnTemplateCollider": "01",
                "flagSelfInZone": "10",
                "flagTargetInZone": "11"
            },
            "305": {
                "name": "ThrowBomb",
                "combatSkillType": "RangedAttack",
                "castCondition": {
                    "pose": [
                        1001,
                        1002
                    ],
                    "castRangeMax": 15.0
                },
                "cd": 3.5,
                "publicCDGroup": "",
                "skillGroupCDID": 3,
                "CLEPNIDJOLN": "",
                "stateIDs": [
                    "ThrowBomb_BS",
                    "ThrowBomb_Throw"
                ],
                "flagTargetReachable": "01",
                "flagSelfOnTemplateCollider": "01",
                "flagSelfInZone": "10",
                "flagTargetInZone": "11"
            },
            "90061": {
                "name": "ChatFree01",
                "skillType": "Free",
                "castCondition": {
                    "pose": [
                        9006
                    ]
                },
                "cd": 6.0,
                "cdUpperRange": 15.0,
                "initialCD": 5.0,
                "initialCDUpperRange": 6.0,
                "publicCDGroup": "",
                "CLEPNIDJOLN": "",
                "stateIDs": [
                    "ChatFree01"
                ],
                "flagTargetReachable": "10",
                "flagSelfOnTemplateCollider": "01",
                "flagSelfInZone": "10",
                "flagTargetInZone": "11"
            },
            "90071": {
                "name": "ThreatFree01",
                "skillType": "Free",
                "castCondition": {
                    "pose": [
                        9007
                    ]
                },
                "cd": 6.0,
                "cdUpperRange": 15.0,
                "initialCD": 5.0,
                "initialCDUpperRange": 5.0,
                "publicCDGroup": "",
                "CLEPNIDJOLN": "",
                "stateIDs": [
                    "ThreatFree01"
                ],
                "flagTargetReachable": "10",
                "flagSelfOnTemplateCollider": "01",
                "flagSelfInZone": "10",
                "flagTargetInZone": "11"
            },
            "90091": {
                "name": "LaughFree01",
                "skillType": "Free",
                "castCondition": {
                    "pose": [
                        9009
                    ]
                },
                "cd": 5.0,
                "cdUpperRange": 5.0,
                "initialCD": 3.0,
                "initialCDUpperRange": 5.0,
                "publicCDGroup": "",
                "CLEPNIDJOLN": "",
                "stateIDs": [
                    "LaughFree01"
                ],
                "flagTargetReachable": "10",
                "flagSelfOnTemplateCollider": "01",
                "flagSelfInZone": "10",
                "flagTargetInZone": "11"
            }
        },
        "skillGCD": 3.0,
        "combatFixedMoveTactic": [
            {
                "$type": "KIMPOLMEFNK",
                "enable": true,
                "EGJMGEHLDOL": {
                    "pose": [
                        1001
                    ]
                },
                "NGIEOIGFFDH": {
                    "rangeMin": 7.0,
                    "rangeMax": 10.0,
                    "ODLFCBFIAEG": {
                        "MKGIHLDDOPO": 0.0,
                        "AIMKHLAPJGH": 0.0,
                        "LJGPLFGCHJM": 5.0,
                        "ODFJMMCNEHI": 5.0
                    },
                    "EOBOHLNDGNC": "1111",
                    "JFAHEKLBENF": "1111",
                    "FCFLCFFJKLO": ""
                }
            },
            {
                "$type": "AIFAIEAELGP",
                "enable": true,
                "EGJMGEHLDOL": {
                    "pose": [
                        1,
                        4
                    ]
                }
            },
            {
                "$type": "HLPBLIEBJLM",
                "enable": true,
                "EGJMGEHLDOL": {
                    "pose": [
                        1001
                    ]
                },
                "NGIEOIGFFDH": {
                    "NHPKGHAHIFA": 1,
                    "NDCHJGOOLCF": 50.0,
                    "FDNLEPNLLBP": 10.0,
                    "DANCMNIMNAM": 15.0,
                    "FCFLCFFJKLO": ""
                }
            },
            {
                "$type": "GJGILIGEJMO",
                "enable": true,
                "NGIEOIGFFDH": {
                    "FCFLCFFJKLO": "",
                    "BKCOJDIDEGN": ""
                }
            },
            {
                "$type": "IKIHDEMELGB",
                "enable": true,
                "EGJMGEHLDOL": {
                    "pose": [
                        1,
                        4
                    ]
                },
                "NGIEOIGFFDH": {
                    "HOKGJAONGHG": 3.0,
                    "GJOBDMEBGLM": 1.5,
                    "KDLAOJIPGHP": 15.0,
                    "OEFFOIEOJNC": 3.75,
                    "HAHMEDHEBKE": 7.5,
                    "FCFLCFFJKLO": ""
                }
            }
        ]
    },
    "inputKeys": [
        {
            "keyID": 201,
            "inputKeyCode": 257,
            "abilityName": ""
        },
        {
            "keyID": 304,
            "inputKeyCode": 258,
            "abilityName": ""
        }
    ],
    "move": {
        "$type": "JKDLANFKJIL",
        "ADKJOFPNHNO": "FourDirection",
        "LDHGAEIKIEE": "StoopType",
        "LPAKBBIADNC": "RootNode"
    },
    "audio": {
        "LKJIHNLBIJL": "",
        "animAudio": {},
        "disableEvent": {
            "text": ""
        },
        "destroyEvent": {
            "text": ""
        },
        "randomVariantSwitchGroup": {
            "text": ""
        },
        "randomVariantSwitchValues": [
            {
                "text": ""
            }
        ]
    }
}