{
    "common": {
        "effectAttachShape": {
            "$type": "DPGKNHENGLM",
            "DDDEJPIFECG": "EffectMesh"
        },
        "mass": 10000.0,
        "height": 1.7999999523162842,
        "modelHeight": 2.700000047683716,
        "viewSize": 1.600000023841858,
        "affectedByWorld": true,
        "checkInSurface": true,
        "scale": 0.8999999761581421,
        "shouldPauseAnimatorBeforeReady": true,
        "useGrassDisplacement": true,
        "clearAnimatorOnSetLightDeactive": true,
        "clearAIOnSetLightDeactive": true
    },
    "headControl": {
        "$type": "NJIKCGBDNDF",
        "useHeadControl": true,
        "IKIJCPNMBHI": 20.0,
        "FMKKBCJKMPH": 5.0,
        "FDPCOFKGCHG": [
            "NormalIdle/Standby",
            "NormalMove/WalkForward",
            "NormalMove/WalkBack",
            "NormalMove/WalkRight",
            "NormalMove/WalkLeft",
            "TurnLeft/TurnLeft",
            "TurnRight/TurnRight"
        ]
    },
    "model": {
        "bornEffect": "Eff_Monster_Common_Born",
        "attachEffect": ""
    },
    "dither": {
        "showDitherDuration": 2.0
    },
    "combat": {
        "property": {
            "endureType": "Monster_Grunt_Humanoid",
            "weight": 110.0
        },
        "beHit": {
            "hitBloodEffect": ""
        },
        "combatLock": {
            "lockShape": "CircleLockEnemy",
            "lockType": "Avatar&Monster_Lv4"
        },
        "die": {
            "hasAnimatorDie": true,
            "dieEndTime": 2.5,
            "dieForceDisappearTime": 3.0,
            "dieDisappearEffect": "Eff_Death_Avatar_Common",
            "dieShaderData": "AvatarDie",
            "muteHitBox": true,
            "dieDenyLockOn": true,
            "dieIsGhostToEnemy": true,
            "muteBillboard": true,
            "mutePushCollider": true
        },
        "animEvents": {
            "MeleeAtk1": {
                "attackPattern": {
                    "$type": "HGDDHLFAONH",
                    "triggerType": "TriggerNoRepeat",
                    "CMGJNPCOLLP": true,
                    "born": {
                        "$type": "NKOODKOFELF",
                        "offset": {
                            "GNGDNIIPPNL": 0.0,
                            "GIIMFINHIED": 1.5,
                            "CLBCHJICOKH": 0.0
                        }
                    },
                    "musicSubStates": {
                        "GNGDNIIPPNL": 2.0,
                        "GIIMFINHIED": 2.5,
                        "CLBCHJICOKH": 2.5
                    }
                },
                "attackInfo": {
                    "attackTag": "",
                    "attenuationTag": "",
                    "attenuationGroup": "default",
                    "attackProperty": {
                        "HOGNHNAHNML": 0.800000011920929,
                        "BAPILBAGBOJ": 0.0,
                        "bonusCriticalHurt": 100.0,
                        "strikeType": "Slash",
                        "enBreak": 50.0,
                        "attackType": "Melee",
                        "damagePercentage": 0.0
                    },
                    "hitPattern": {
                        "onHitEffectName": "default",
                        "hitImpulseType": "LV2",
                        "canBeDefenceHalt": true
                    }
                }
            },
            "MeleeAtk2": {
                "attackPattern": {
                    "$type": "HGDDHLFAONH",
                    "triggerType": "TriggerNoRepeat",
                    "CMGJNPCOLLP": true,
                    "born": {
                        "$type": "NKOODKOFELF",
                        "offset": {
                            "GNGDNIIPPNL": 0.0,
                            "GIIMFINHIED": 1.5,
                            "CLBCHJICOKH": 0.0
                        }
                    },
                    "musicSubStates": {
                        "GNGDNIIPPNL": 2.0,
                        "GIIMFINHIED": 2.5,
                        "CLBCHJICOKH": 2.5
                    }
                },
                "attackInfo": {
                    "attackTag": "",
                    "attenuationTag": "",
                    "attenuationGroup": "default",
                    "attackProperty": {
                        "HOGNHNAHNML": 0.800000011920929,
                        "BAPILBAGBOJ": 0.0,
                        "bonusCriticalHurt": 100.0,
                        "strikeType": "Slash",
                        "enBreak": 50.0,
                        "attackType": "Melee",
                        "damagePercentage": 0.0
                    },
                    "hitPattern": {
                        "onHitEffectName": "default",
                        "hitImpulseType": "LV3",
                        "canBeDefenceHalt": true
                    }
                }
            },
            "RushAtk": {
                "attackPattern": {
                    "$type": "HGDDHLFAONH",
                    "triggerType": "TriggerNoRepeat",
                    "CMGJNPCOLLP": true,
                    "born": {
                        "$type": "NKOODKOFELF",
                        "offset": {
                            "GNGDNIIPPNL": 0.0,
                            "GIIMFINHIED": 1.5,
                            "CLBCHJICOKH": -2.0
                        }
                    },
                    "musicSubStates": {
                        "GNGDNIIPPNL": 2.0,
                        "GIIMFINHIED": 2.5,
                        "CLBCHJICOKH": 4.0
                    }
                },
                "attackInfo": {
                    "attackTag": "Monster_BladeMaster_BeBlockAttack",
                    "attenuationTag": "",
                    "attenuationGroup": "default",
                    "attackProperty": {
                        "HOGNHNAHNML": 0.0,
                        "BAPILBAGBOJ": 0.0,
                        "bonusCriticalHurt": 100.0,
                        "enBreak": 0.0,
                        "attackType": "None",
                        "damagePercentage": 0.0
                    },
                    "hitPattern": {
                        "onHitEffectName": "none",
                        "hitImpulseType": "LV0",
                        "retreatType": "ByHitDirection"
                    }
                }
            },
            "ChargeAttack": {
                "attackPattern": {
                    "$type": "HGDDHLFAONH",
                    "triggerType": "TriggerNoRepeat",
                    "CMGJNPCOLLP": true,
                    "born": {
                        "$type": "NKOODKOFELF",
                        "offset": {
                            "GNGDNIIPPNL": 0.0,
                            "GIIMFINHIED": 1.5,
                            "CLBCHJICOKH": -0.5
                        }
                    },
                    "musicSubStates": {
                        "GNGDNIIPPNL": 4.0,
                        "GIIMFINHIED": 3.0,
                        "CLBCHJICOKH": 4.0
                    }
                },
                "attackInfo": {
                    "attackTag": "",
                    "attenuationTag": "",
                    "attenuationGroup": "default",
                    "attackProperty": {
                        "HOGNHNAHNML": 0.8500000238418579,
                        "BAPILBAGBOJ": 0.0,
                        "bonusCriticalHurt": 50.0,
                        "strikeType": "Slash",
                        "enBreak": 100.0,
                        "attackType": "Melee",
                        "damagePercentage": 0.0
                    },
                    "hitPattern": {
                        "onHitEffectName": "default",
                        "hitImpulseType": "LV3",
                        "retreatType": "ByHitDirection",
                        "canBeDefenceHalt": true
                    }
                }
            },
            "PowerAtk1_1": {
                "attackPattern": {
                    "$type": "HGDDHLFAONH",
                    "triggerType": "TriggerNoRepeat",
                    "CMGJNPCOLLP": true,
                    "born": {
                        "$type": "NKOODKOFELF",
                        "offset": {
                            "GNGDNIIPPNL": 0.0,
                            "GIIMFINHIED": 1.25,
                            "CLBCHJICOKH": 0.0
                        }
                    },
                    "musicSubStates": {
                        "GNGDNIIPPNL": 1.2000000476837158,
                        "GIIMFINHIED": 2.5,
                        "CLBCHJICOKH": 2.5
                    }
                },
                "attackInfo": {
                    "attackTag": "",
                    "attenuationTag": "",
                    "attenuationGroup": "default",
                    "attackProperty": {
                        "HOGNHNAHNML": 0.4000000059604645,
                        "BAPILBAGBOJ": 0.0,
                        "bonusCriticalHurt": 50.0,
                        "strikeType": "Slash",
                        "enBreak": 100.0,
                        "attackType": "Melee",
                        "damagePercentage": 0.0
                    },
                    "hitPattern": {
                        "onHitEffectName": "default",
                        "hitImpulseType": "LV3",
                        "retreatType": "ByHitDirection",
                        "canBeDefenceHalt": true
                    }
                }
            },
            "PowerAtk1_2": {
                "attackPattern": {
                    "$type": "HGDDHLFAONH",
                    "triggerType": "TriggerNoRepeat",
                    "CMGJNPCOLLP": true,
                    "born": {
                        "$type": "NKOODKOFELF",
                        "offset": {
                            "GNGDNIIPPNL": 0.0,
                            "GIIMFINHIED": 1.25,
                            "CLBCHJICOKH": 0.0
                        }
                    },
                    "musicSubStates": {
                        "GNGDNIIPPNL": 2.5,
                        "GIIMFINHIED": 2.5,
                        "CLBCHJICOKH": 2.700000047683716
                    }
                },
                "attackInfo": {
                    "attackTag": "",
                    "attenuationTag": "",
                    "attenuationGroup": "default",
                    "attackProperty": {
                        "HOGNHNAHNML": 0.800000011920929,
                        "BAPILBAGBOJ": 0.0,
                        "bonusCriticalHurt": 50.0,
                        "strikeType": "Slash",
                        "enBreak": 100.0,
                        "attackType": "Melee",
                        "damagePercentage": 0.0
                    },
                    "hitPattern": {
                        "onHitEffectName": "default",
                        "hitImpulseType": "LV3",
                        "retreatType": "ByHitDirection",
                        "canBeDefenceHalt": true
                    }
                }
            },
            "PowerAtk2": {
                "attackPattern": {
                    "$type": "HGDDHLFAONH",
                    "triggerType": "TriggerNoRepeat",
                    "CMGJNPCOLLP": true,
                    "born": {
                        "$type": "NKOODKOFELF",
                        "offset": {
                            "GNGDNIIPPNL": 0.0,
                            "GIIMFINHIED": 1.25,
                            "CLBCHJICOKH": 0.0
                        }
                    },
                    "musicSubStates": {
                        "GNGDNIIPPNL": 2.5,
                        "GIIMFINHIED": 2.5,
                        "CLBCHJICOKH": 2.5
                    }
                },
                "attackInfo": {
                    "attackTag": "",
                    "attenuationTag": "",
                    "attenuationGroup": "default",
                    "attackProperty": {
                        "HOGNHNAHNML": 0.6000000238418579,
                        "BAPILBAGBOJ": 0.0,
                        "bonusCriticalHurt": 50.0,
                        "strikeType": "Slash",
                        "enBreak": 100.0,
                        "attackType": "Melee",
                        "damagePercentage": 0.0
                    },
                    "hitPattern": {
                        "onHitEffectName": "default",
                        "hitImpulseType": "LV3",
                        "retreatType": "ByHitDirection",
                        "canBeDefenceHalt": true
                    }
                }
            },
            "BurstAttack": {
                "attackPattern": {
                    "$type": "HGDDHLFAONH",
                    "triggerType": "TriggerNoRepeat",
                    "CMGJNPCOLLP": true,
                    "born": {
                        "$type": "NKOODKOFELF",
                        "offset": {
                            "GNGDNIIPPNL": 0.0,
                            "GIIMFINHIED": 1.5,
                            "CLBCHJICOKH": -0.5
                        }
                    },
                    "musicSubStates": {
                        "GNGDNIIPPNL": 2.0,
                        "GIIMFINHIED": 2.5,
                        "CLBCHJICOKH": 3.0
                    }
                },
                "attackInfo": {
                    "attackTag": "",
                    "attenuationTag": "",
                    "attenuationGroup": "default",
                    "attackProperty": {
                        "HOGNHNAHNML": 1.5,
                        "BAPILBAGBOJ": 0.0,
                        "bonusCriticalHurt": 50.0,
                        "strikeType": "Slash",
                        "enBreak": 100.0,
                        "attackType": "Melee",
                        "damagePercentage": 0.0
                    },
                    "hitPattern": {
                        "onHitEffectName": "default",
                        "hitImpulseType": "LV5",
                        "retreatType": "ByHitDirection",
                        "canBeDefenceHalt": true
                    }
                }
            }
        }
    },
    "equipController": {
        "sheathPoint": "",
        "attachPoints": {
            "equip01": "WeaponR",
            "equip02": "WeaponL"
        }
    },
    "abilities": [
        {
            "abilityID": "",
            "abilityName": "Monster_Samurai_Ronin_Alert",
            "abilityOverride": ""
        },
        {
            "abilityID": "",
            "abilityName": "Monster_Samurai_Ronin_01_Steer",
            "abilityOverride": ""
        },
        {
            "abilityID": "",
            "abilityName": "Monster_Samurai_Ronin_RushAttack_SP",
            "abilityOverride": ""
        },
        {
            "abilityID": "",
            "abilityName": "Monster_Samurai_Ronin_ForceDodge",
            "abilityOverride": ""
        },
        {
            "abilityID": "",
            "abilityName": "Monster_Samurai_Ronin_OutOfBattle",
            "abilityOverride": ""
        },
        {
            "abilityID": "",
            "abilityName": "Monster_Samurai_Ronin_PowderAttack",
            "abilityOverride": ""
        },
        {
            "abilityID": "",
            "abilityName": "Monster_Samurai_Ronin_Shoot",
            "abilityOverride": ""
        },
        {
            "abilityID": "",
            "abilityName": "Monster_Samurai_EnsureVisible",
            "abilityOverride": ""
        },
        {
            "abilityID": "",
            "abilityName": "Monster_Samurai_Ronin_SevenBlade_Affix",
            "abilityOverride": ""
        },
        {
            "abilityID": "",
            "abilityName": "Monster_Samurai_Ronin_RushAtkDefend",
            "abilityOverride": ""
        },
        {
            "abilityID": "",
            "abilityName": "Monster_Samurai_Ronin_BladeMaster_WeaponSpecialDie",
            "abilityOverride": ""
        }
    ],
    "stateLayers": {
        "defaultLayer": {
            "$type": "EPAPJJAGHKG",
            "ACOCIAFGIAD": "",
            "stateIDs": {
                "NormalIdle": {
                    "$type": "IJOIMFMEGMM",
                    "DLOHGBDFFGB": {
                        "Standby": [],
                        "Born": []
                    },
                    "POLKCLOHPOO": true,
                    "PGKCBIHGAOC": true,
                    "DLAOMOCMANL": [
                        "DoSkill"
                    ]
                },
                "Practice": {
                    "$type": "IJOIMFMEGMM",
                    "DLOHGBDFFGB": {
                        "Practice": []
                    },
                    "POLKCLOHPOO": true,
                    "DLAOMOCMANL": [
                        "DoSkill"
                    ]
                },
                "Turn": {
                    "$type": "IJOIMFMEGMM",
                    "DLOHGBDFFGB": {
                        "TurnLeft": [],
                        "TurnRight": []
                    },
                    "POLKCLOHPOO": true,
                    "PGKCBIHGAOC": true,
                    "DLAOMOCMANL": [
                        "DoSkill"
                    ]
                },
                "NormalMove": {
                    "$type": "IJOIMFMEGMM",
                    "DLOHGBDFFGB": {
                        "WalkForward": [
                            "Audio_Samurai_Ronin_Wlak"
                        ],
                        "WalkBack": [
                            "Audio_Samurai_Ronin_Wlak"
                        ],
                        "WalkRight": [
                            "Audio_Samurai_Ronin_Wlak"
                        ],
                        "WalkLeft": [
                            "Audio_Samurai_Ronin_Wlak"
                        ],
                        "WalkFree": [
                            "Audio_Samurai_Ronin_Wlak"
                        ]
                    },
                    "POLKCLOHPOO": true,
                    "PGKCBIHGAOC": true,
                    "DLAOMOCMANL": [
                        "DoSkill"
                    ],
                    "LIPMJPLGIKD": true
                },
                "BeHit": {
                    "$type": "IJOIMFMEGMM",
                    "DLOHGBDFFGB": {
                        "Hit_L": [
                            "Audio_Samurai_Ronin_Hit_L_VO"
                        ],
                        "Hit_H": [
                            "Audio_Samurai_Ronin_Hit_H_VO"
                        ]
                    },
                    "AJBLILDCLBO": [
                        "BeHit"
                    ],
                    "DLAOMOCMANL": [
                        "DoSkill"
                    ]
                },
                "Run": {
                    "$type": "IJOIMFMEGMM",
                    "DLOHGBDFFGB": {
                        "Run": [
                            "Monster_Samurai_Ronin_FootStep",
                            "Audio_Samurai_Ronin_Run"
                        ]
                    },
                    "POLKCLOHPOO": true,
                    "PGKCBIHGAOC": true,
                    "DLAOMOCMANL": [
                        "DoSkill"
                    ],
                    "LIPMJPLGIKD": true
                },
                "RunFree": {
                    "$type": "IJOIMFMEGMM",
                    "DLOHGBDFFGB": {
                        "RunFree": [
                            "Monster_Samurai_Ronin_FootStep",
                            "Audio_Samurai_Ronin_RunFree"
                        ]
                    },
                    "POLKCLOHPOO": true,
                    "PGKCBIHGAOC": true,
                    "DLAOMOCMANL": [
                        "DoSkill"
                    ],
                    "LIPMJPLGIKD": true
                },
                "BeHitThrow": {
                    "$type": "IJOIMFMEGMM",
                    "DLOHGBDFFGB": {
                        "HitThrow": [],
                        "HitThrowDrop": [],
                        "HitThrowToGround": [
                            "Audio_Samurai_Ronin_HitThrowToGround"
                        ]
                    },
                    "AJBLILDCLBO": [
                        "BeHit",
                        "HitAir2HitDrop"
                    ],
                    "DLAOMOCMANL": [
                        "DoSkill"
                    ]
                },
                "Struggle": {
                    "$type": "IJOIMFMEGMM",
                    "DLOHGBDFFGB": {
                        "Struggle": []
                    },
                    "AJBLILDCLBO": [
                        "BeHit",
                        "HitAir2HitDrop"
                    ],
                    "DLAOMOCMANL": [
                        "DoSkill"
                    ]
                },
                "Die": {
                    "$type": "IJOIMFMEGMM",
                    "DLOHGBDFFGB": {
                        "Die": [
                            "Monster_Samurai_Ronin_Die",
                            "Audio_Samurai_Ronin_Die_NoneVO"
                        ],
                        "SwimDie": [],
                        "SwimDie_AS": []
                    }
                },
                "Die_RagDoll": {
                    "$type": "IJOIMFMEGMM",
                    "DLOHGBDFFGB": {
                        "AirDie": [
                            "Monster_Skirmisher_Male_Strong_Gloves_Wind_Die"
                        ]
                    },
                    "CPOLOGIELCD": true
                },
                "Alert": {
                    "$type": "IJOIMFMEGMM",
                    "DLOHGBDFFGB": {
                        "Alert": [
                            "Monster_Samurai_Ronin_Alert",
                            "Audio_Samurai_Ronin_Alert"
                        ]
                    },
                    "DLAOMOCMANL": [
                        "BeHit",
                        "DoSkill"
                    ],
                    "LIPMJPLGIKD": true
                },
                "MeleeAtk1": {
                    "$type": "IJOIMFMEGMM",
                    "DLOHGBDFFGB": {
                        "MeleeAttack1": [
                            "Monster_Samurai_Ronin_MeleeAttack01",
                            "Audio_Samurai_Ronin_MeleeAtk1"
                        ]
                    },
                    "AJBLILDCLBO": [
                        "DoSkill"
                    ],
                    "DLAOMOCMANL": [
                        "BeHit",
                        "DoSkill"
                    ],
                    "LIPMJPLGIKD": true
                },
                "MeleeAtk2": {
                    "$type": "IJOIMFMEGMM",
                    "DLOHGBDFFGB": {
                        "MeleeAttack2": [
                            "Monster_Samurai_Ronin_MeleeAttack02",
                            "Audio_Samurai_Ronin_MeleeAtk2"
                        ]
                    },
                    "AJBLILDCLBO": [
                        "DoSkill"
                    ],
                    "DLAOMOCMANL": [
                        "BeHit",
                        "DoSkill"
                    ],
                    "LIPMJPLGIKD": true
                },
                "RushAtk": {
                    "$type": "IJOIMFMEGMM",
                    "DLOHGBDFFGB": {
                        "RushAtk": [
                            "Monster_Samurai_Ronin_RushAtk",
                            "Audio_Samurai_Ronin_DodgeAtk"
                        ],
                        "DodgeAttack": [
                            "Monster_Samurai_Ronin_RushAtk",
                            "Audio_Samurai_Ronin_DodgeAtk"
                        ]
                    },
                    "DLAOMOCMANL": [
                        "BeHit",
                        "DoSkill"
                    ],
                    "CFGFMHDOEBF": true,
                    "LIPMJPLGIKD": true
                },
                "RushAtk_BS": {
                    "$type": "IJOIMFMEGMM",
                    "DLOHGBDFFGB": {
                        "RushAtk_BS": [
                            "Monster_Samurai_Ronin_RushAtk_SP_BS",
                            "Audio_Samurai_Ronin_DodgeAtk"
                        ]
                    },
                    "AJBLILDCLBO": [
                        "BlockBreak"
                    ],
                    "DLAOMOCMANL": [
                        "BeHit",
                        "DoSkill"
                    ],
                    "CFGFMHDOEBF": true,
                    "LIPMJPLGIKD": true
                },
                "RushAtk_Attack": {
                    "$type": "IJOIMFMEGMM",
                    "DLOHGBDFFGB": {
                        "RushAtk_Attack": [
                            "Monster_Samurai_Ronin_RushAtk_SP_Attack"
                        ]
                    },
                    "DLAOMOCMANL": [
                        "BeHit",
                        "DoSkill"
                    ],
                    "CFGFMHDOEBF": true
                },
                "RushAtk_AS": {
                    "$type": "IJOIMFMEGMM",
                    "DLOHGBDFFGB": {
                        "RushAtk_AS": []
                    },
                    "DLAOMOCMANL": [
                        "BeHit",
                        "DoSkill"
                    ],
                    "CFGFMHDOEBF": true
                },
                "RushAtk_Break": {
                    "$type": "IJOIMFMEGMM",
                    "DLOHGBDFFGB": {
                        "RushAtk_Break": []
                    },
                    "DLAOMOCMANL": [
                        "BeHit",
                        "DoSkill"
                    ],
                    "CFGFMHDOEBF": true,
                    "LIPMJPLGIKD": true
                },
                "BurstAttack": {
                    "$type": "IJOIMFMEGMM",
                    "DLOHGBDFFGB": {
                        "BurstAttack": [
                            "Audio_Samurai_Ronin_BurstAtk"
                        ]
                    },
                    "DLAOMOCMANL": [
                        "BeHit",
                        "DoSkill"
                    ],
                    "LIPMJPLGIKD": true
                },
                "Shoot": {
                    "$type": "IJOIMFMEGMM",
                    "DLOHGBDFFGB": {
                        "Shoot": [
                            "Monster_Samurai_Ronin_Shoot",
                            "Audio_Samurai_Ronin_Shoot"
                        ]
                    },
                    "DLAOMOCMANL": [
                        "BeHit",
                        "DoSkill"
                    ],
                    "LIPMJPLGIKD": true
                },
                "ChargeAttack": {
                    "$type": "IJOIMFMEGMM",
                    "DLOHGBDFFGB": {
                        "ChargeAttack": [
                            "Audio_Samurai_Ronin_ChargeAtk"
                        ]
                    },
                    "DLAOMOCMANL": [
                        "BeHit",
                        "DoSkill"
                    ],
                    "LIPMJPLGIKD": true
                },
                "PowerAtk1": {
                    "$type": "IJOIMFMEGMM",
                    "DLOHGBDFFGB": {
                        "PowerAtk1": [
                            "Audio_Samurai_Ronin_PowerAtk1"
                        ]
                    },
                    "DLAOMOCMANL": [
                        "BeHit",
                        "DoSkill"
                    ],
                    "LIPMJPLGIKD": true
                },
                "PowerAtk2": {
                    "$type": "IJOIMFMEGMM",
                    "DLOHGBDFFGB": {
                        "PowerAtk2": [
                            "Audio_Samurai_Ronin_PowerAtk2"
                        ]
                    },
                    "DLAOMOCMANL": [
                        "BeHit",
                        "DoSkill"
                    ],
                    "LIPMJPLGIKD": true
                },
                "PowderAttack": {
                    "$type": "IJOIMFMEGMM",
                    "DLOHGBDFFGB": {
                        "PowderAttack": [
                            "Monster_Samurai_Ronin_PowderAttack",
                            "Audio_Samurai_Ronin_powderAtk"
                        ]
                    },
                    "DLAOMOCMANL": [
                        "BeHit",
                        "DoSkill"
                    ],
                    "LIPMJPLGIKD": true
                },
                "Dodge": {
                    "$type": "IJOIMFMEGMM",
                    "DLOHGBDFFGB": {
                        "Dodge": [
                            "Audio_Samurai_Ronin_Dodge"
                        ],
                        "ForceDodge": [
                            "Audio_Samurai_Ronin_Dodge"
                        ]
                    },
                    "DLAOMOCMANL": [
                        "BeHit",
                        "DoSkill"
                    ],
                    "LIPMJPLGIKD": true
                },
                "Provoke": {
                    "$type": "IJOIMFMEGMM",
                    "DLOHGBDFFGB": {
                        "Provoke": [
                            "Audio_Samurai_Ronin_Provoke"
                        ]
                    },
                    "DLAOMOCMANL": [
                        "BeHit",
                        "DoSkill"
                    ],
                    "LIPMJPLGIKD": true
                },
                "OutOfBattle": {
                    "$type": "IJOIMFMEGMM",
                    "DLOHGBDFFGB": {
                        "OutOfBattle": [
                            "Audio_Samurai_Ronin_OutOfBattle"
                        ]
                    },
                    "DLAOMOCMANL": [
                        "BeHit",
                        "DoSkill"
                    ]
                },
                "SitDrink": {
                    "$type": "IJOIMFMEGMM",
                    "DLOHGBDFFGB": {
                        "SitDrink": []
                    },
                    "POLKCLOHPOO": true,
                    "DLAOMOCMANL": [
                        "BeHit",
                        "DoSkill"
                    ]
                },
                "SitSleep": {
                    "$type": "IJOIMFMEGMM",
                    "DLOHGBDFFGB": {
                        "SitSleep": []
                    },
                    "POLKCLOHPOO": true,
                    "DLAOMOCMANL": [
                        "BeHit",
                        "DoSkill"
                    ]
                }
            }
        }
    },
    "billboard": {
        "$type": "PAOBAEKGGBC",
        "attachPoint": "BillboardAttach",
        "EMFFJPOKEKF": "Character",
        "KGHAGECNJPO": true,
        "JLCJBGKPEEC": 50.0
    },
    "initialPoses": {
        "Default": {
            "initialPoseID": 1
        },
        "Lie": {
            "initialPoseID": 1001,
            "initialPoseParams": {
                "boolParams": {
                    "Lie": "true"
                }
            }
        },
        "Sit": {
            "initialPoseID": 1003,
            "initialPoseParams": {
                "boolParams": {
                    "Sit": "true"
                }
            }
        },
        "SitDrink": {
            "initialPoseID": 1004,
            "initialPoseParams": {
                "boolParams": {
                    "SitDrink": "true"
                }
            }
        },
        "SitSleep": {
            "initialPoseID": 1005,
            "initialPoseParams": {
                "boolParams": {
                    "SitSleep": "true"
                }
            }
        },
        "Practice": {
            "initialPoseID": 1006,
            "initialPoseParams": {
                "boolParams": {
                    "Practice": "true"
                }
            }
        }
    },
    "aibeta": {
        "enable": true,
        "sensing": {
            "settings": {
                "DefaultSetting": {
                    "viewRange": 25.0,
                    "feelRange": 10.0
                },
                "NeverCombat": {
                    "enableVision": false,
                    "hearAttractionRange": 0.0,
                    "feelRange": 0.0
                },
                "LowAlert": {
                    "viewRange": 5.0
                }
            },
            "templates": {
                "DefaultTemplate": {
                    "DefaultPoses": "DefaultSetting",
                    "1001": "DefaultSetting",
                    "1003": "DefaultSetting",
                    "1004": "LowAlert",
                    "1005": "LowAlert",
                    "1006": "DefaultSetting"
                },
                "NeverCombatTemplate": {
                    "DefaultPoses": "NeverCombat"
                }
            }
        },
        "neurons": {
            "DefaultSetting": [
                "HIT"
            ],
            "NeverCombat": []
        },
        "threat": {
            "clearThreatByLostPath": true,
            "clearThreatTimerByLostPath": 11.0,
            "viewAttenuation": [
                {
                    "x": 10.0,
                    "y": 2.0
                },
                {
                    "x": 15.0,
                    "y": 0.800000011920929
                },
                {
                    "x": 20.0,
                    "y": 0.5
                },
                {
                    "x": 25.0,
                    "y": 0.30000001192092896
                },
                {
                    "x": 30.0,
                    "y": 0.20000000298023224
                }
            ],
            "resistTauntLevel": "Monster_TauntLevel_2",
            "JGFOPCOIJOI": ""
        },
        "defendArea": {
            "defendRange": 30.0
        },
        "skillGroupCDConfigs": [
            {
                "skillGroupCDID": 0,
                "skillGroupCDTime": 5.0
            },
            {
                "skillGroupCDID": 1,
                "skillGroupCDTime": 10.0
            },
            {
                "skillGroupCDID": 2,
                "skillGroupCDTime": 15.0
            }
        ],
        "skillSetting": {
            "skillEliteSet": {
                "1": [
                    101
                ],
                "2": [
                    101,
                    201,
                    901
                ]
            }
        },
        "skills": {
            "1": {
                "name": "OnAlert",
                "skillType": "OnAlert",
                "faceTarget": true,
                "publicCDGroup": "",
                "ignoreGCD": true,
                "triggerGCD": false,
                "HGAMDGAEIGO": "",
                "stateIDs": [
                    "Alert"
                ],
                "skillQueryingTime": 3.0,
                "flagTargetReachable": "10",
                "flagSelfOnTemplateCollider": "01",
                "flagSelfInZone": "10",
                "flagTargetInZone": "11"
            },
            "2": {
                "name": "SitDrink",
                "skillType": "Free",
                "castCondition": {
                    "pose": [
                        1004
                    ]
                },
                "cd": 5.0,
                "cdUpperRange": 5.0,
                "initialCD": 1.0,
                "publicCDGroup": "",
                "HGAMDGAEIGO": "",
                "stateIDs": [
                    "SitDrink"
                ],
                "flagTargetReachable": "10",
                "flagSelfOnTemplateCollider": "01",
                "flagSelfInZone": "10",
                "flagTargetInZone": "11"
            },
            "3": {
                "name": "SitSleep",
                "skillType": "Free",
                "castCondition": {
                    "pose": [
                        1005
                    ]
                },
                "cd": 5.0,
                "cdUpperRange": 5.0,
                "initialCD": 1.0,
                "publicCDGroup": "",
                "HGAMDGAEIGO": "",
                "stateIDs": [
                    "SitSleep"
                ],
                "flagTargetReachable": "10",
                "flagSelfOnTemplateCollider": "01",
                "flagSelfInZone": "10",
                "flagTargetInZone": "11"
            },
            "101": {
                "name": "MeleeAtk1",
                "priority": 2,
                "enableSkillPrepare": true,
                "skillPrepareTimeout": 2.0,
                "castCondition": {
                    "pose": [
                        101
                    ],
                    "maxTargetAngleXZ": 90.0,
                    "pickRangeMax": 5.0,
                    "castRangeMax": 3.0
                },
                "cd": 2.0,
                "cdUpperRange": 5.0,
                "initialCD": 1.0,
                "initialCDUpperRange": 5.0,
                "publicCDGroup": "Samurai_Kairagi_PowerAttack",
                "HGAMDGAEIGO": "",
                "stateIDs": [
                    "MeleeAtk1"
                ],
                "flagTargetReachable": "10",
                "flagSelfOnTemplateCollider": "01",
                "flagSelfInZone": "10",
                "flagTargetInZone": "11"
            },
            "201": {
                "name": "MeleeAtk2",
                "priority": 2,
                "enableSkillPrepare": true,
                "skillPrepareTimeout": 2.0,
                "castCondition": {
                    "pose": [
                        101
                    ],
                    "maxTargetAngleXZ": 90.0,
                    "pickRangeMax": 5.0,
                    "castRangeMax": 2.0
                },
                "cd": 2.0,
                "cdUpperRange": 1.0,
                "initialCD": 1.0,
                "initialCDUpperRange": 5.0,
                "publicCDGroup": "Samurai_Kairagi_PowerAttack",
                "ignoreGCD": true,
                "HGAMDGAEIGO": "",
                "stateIDs": [
                    "MeleeAtk2"
                ],
                "skillQueryingTime": 2.0,
                "flagTargetReachable": "11",
                "flagSelfOnTemplateCollider": "01",
                "flagSelfInZone": "11",
                "flagTargetInZone": "11"
            },
            "301": {
                "name": "RushAtk",
                "priority": 1,
                "castCondition": {
                    "pose": [
                        101
                    ],
                    "maxTargetAngleXZ": 90.0,
                    "pickRangeMax": 5.0
                },
                "cd": 2.5,
                "cdUpperRange": 2.5,
                "initialCD": 1.0,
                "initialCDUpperRange": 5.0,
                "publicCDGroup": "Samurai_Kairagi_PowerAttack",
                "ignoreGCD": true,
                "HGAMDGAEIGO": "",
                "stateIDs": [
                    "RushAtk_BS",
                    "RushAtk_Attack",
                    "RushAtk_AS"
                ],
                "skillQueryingTime": 2.0,
                "flagTargetReachable": "10",
                "flagSelfOnTemplateCollider": "01",
                "flagSelfInZone": "11",
                "flagTargetInZone": "11"
            },
            "901": {
                "name": "PowderAttack",
                "priority": 2,
                "castCondition": {
                    "pose": [
                        101
                    ],
                    "maxTargetAngleXZ": 90.0,
                    "pickRangeMax": 4.0
                },
                "cd": 5.0,
                "cdUpperRange": 2.5,
                "initialCD": 1.0,
                "publicCDGroup": "",
                "ignoreGCD": true,
                "triggerGCD": false,
                "HGAMDGAEIGO": "",
                "stateIDs": [
                    "PowderAttack"
                ],
                "skillQueryingTime": 2.0,
                "flagTargetReachable": "10",
                "flagSelfOnTemplateCollider": "01",
                "flagSelfInZone": "10",
                "flagTargetInZone": "11"
            }
        },
        "skillGCD": 3.0,
        "combatFixedMoveTactic": [
            {
                "$type": "DIIPKNMAPAC",
                "enable": true,
                "FJANPNOAAFK": {
                    "pose": [
                        101
                    ]
                },
                "LMMKNFEMOMG": {
                    "rangeMin": 0.0,
                    "rangeMax": 5.0,
                    "AJCEMHKIMHA": 2.0,
                    "JNMPGLIADPP": 3.0,
                    "CCMODCEDODH": 1.0,
                    "HJILEGNBBIJ": 1.0,
                    "MMKHHBIBJEN": {
                        "GECJAGFGHKL": 0.0,
                        "GEECPOOOMFC": 0.0,
                        "NFMBIOFFKGK": 0.0
                    },
                    "HEGPGPBKGFH": "1111",
                    "AFCLIFKCEKM": "1111",
                    "JOCOJHEICNA": ""
                }
            },
            {
                "$type": "BNAGECKMCIB",
                "enable": true,
                "FJANPNOAAFK": {
                    "pose": [
                        101
                    ]
                },
                "LMMKNFEMOMG": {
                    "MPEMBMLOEDG": 10.0,
                    "IJLGPEJGLEH": 99.0,
                    "JKOGPCLFHCP": 5.0,
                    "IHCAFCNDANA": 0.0,
                    "JOCOJHEICNA": ""
                }
            },
            {
                "$type": "KMHBGMELMKD",
                "enable": true,
                "LMMKNFEMOMG": {
                    "KPOGGFBLNPE": 5.0,
                    "JOCOJHEICNA": "",
                    "DBIELIMGBMC": ""
                }
            },
            {
                "$type": "GGKADEIBMLG",
                "FJANPNOAAFK": {
                    "pose": [
                        1
                    ]
                },
                "LMMKNFEMOMG": {
                    "JIFJFPJANHO": 5.0,
                    "CBKHBGCPFBG": 2.5,
                    "EKDHNAGGGAE": 15.0,
                    "BFEJAKFKKFP": 5.0,
                    "KOAMKCEFJED": 7.5,
                    "JOCOJHEICNA": ""
                }
            }
        ]
    },
    "inputKeys": [
        {
            "keyID": 101,
            "inputKeyCode": 257,
            "abilityName": ""
        },
        {
            "keyID": 201,
            "inputKeyCode": 258,
            "abilityName": ""
        },
        {
            "keyID": 301,
            "inputKeyCode": 259,
            "abilityName": ""
        },
        {
            "keyID": 401,
            "inputKeyCode": 260,
            "abilityName": ""
        },
        {
            "keyID": 501,
            "inputKeyCode": 261,
            "abilityName": ""
        },
        {
            "keyID": 601,
            "inputKeyCode": 262,
            "abilityName": ""
        },
        {
            "keyID": 701,
            "inputKeyCode": 263,
            "abilityName": ""
        },
        {
            "keyID": 801,
            "inputKeyCode": 264,
            "abilityName": ""
        },
        {
            "keyID": 901,
            "inputKeyCode": 265,
            "abilityName": ""
        },
        {
            "keyID": 1002,
            "inputKeyCode": 266,
            "abilityName": ""
        },
        {
            "keyID": 1003,
            "inputKeyCode": 267,
            "abilityName": ""
        },
        {
            "keyID": 1004,
            "inputKeyCode": 268,
            "abilityName": ""
        },
        {
            "keyID": 1005,
            "inputKeyCode": 269,
            "abilityName": ""
        }
    ],
    "move": {
        "$type": "IIGPJJNGCLE",
        "MIPNOGBEANL": "FourDirection",
        "BEPOPLDKJOP": "NormalHumanoidType",
        "FACNOEFNHIB": "RootNode"
    },
    "audio": {
        "KEEAIACIJBN": "",
        "animAudio": {
            "onTransitionIn": [
                {
                    "currentStateName": "Weak_Loop",
                    "audioEvent": {
                        "text": "Play_sfx_monster_gloves_wind_weak_Loop"
                    }
                },
                {
                    "currentStateName": "Block_Loop",
                    "audioEvent": {
                        "text": "Play_sfx_monster_gloves_wind_block_Loop"
                    }
                }
            ],
            "onTransitionOut": [
                {
                    "currentStateName": "Weak_Loop",
                    "audioEvent": {
                        "text": "Stop_sfx_monster_gloves_wind_weak_Loop"
                    }
                },
                {
                    "currentStateName": "Block_Loop",
                    "audioEvent": {
                        "text": "Stop_sfx_monster_gloves_wind_block_Loop"
                    }
                }
            ]
        },
        "disableEvent": {
            "text": ""
        },
        "destroyEvent": {
            "text": ""
        }
    }
}