{
    "common": {
        "effectAttachShape": {
            "$type": "DPGKNHENGLM",
            "DDDEJPIFECG": "EffectMesh"
        },
        "mass": 9999999.0,
        "height": 1.0,
        "affectedByWorld": true,
        "checkInSurface": true,
        "canTriggerElementReactionText": false,
        "useGrassDisplacement": true
    },
    "headControl": {
        "$type": "NJIKCGBDNDF",
        "useHeadControl": true,
        "IKIJCPNMBHI": 60.0,
        "FMKKBCJKMPH": 30.0,
        "FDPCOFKGCHG": [
            "NormalIdle/Standby",
            "NormalIdle/Sit",
            "NormalIdle/Prone",
            "NormalMove/Walk",
            "NormalMove/Run",
            "StandbyToSit",
            "StandbyToProne",
            "SitToStandby",
            "ProneToStandby",
            "Personality_Standby"
        ]
    },
    "model": {
        "bornEffect": "",
        "attachEffect": "",
        "canBakeMesh": false
    },
    "dither": {
        "showDitherDuration": 1.0
    },
    "combat": {
        "property": {
            "endureType": "Monster_Minion",
            "weight": 101.0,
            "isInvincible": true
        },
        "beHit": {
            "hitBloodEffect": "",
            "muteAllHitEffect": true,
            "muteAllHitText": true
        },
        "combatLock": {
            "lockShape": "CircleLockEnemy",
            "denyLockOn": true,
            "lockType": "Animal_Lv2"
        },
        "die": {
            "dieEndTime": 2.0,
            "dieForceDisappearTime": 10.0,
            "dieDisappearEffect": ""
        }
    },
    "abilities": [
        {
            "abilityID": "CommonInitial",
            "abilityName": "Animal_Common_Initial",
            "abilityOverride": ""
        },
        {
            "abilityID": "HungryCoolDown",
            "abilityName": "Animal_Common_HungryCoolDown",
            "abilityOverride": ""
        },
        {
            "abilityID": "Animal_DogPrick_SitDown",
            "abilityName": "Animal_DogPrick_SitDown",
            "abilityOverride": ""
        },
        {
            "abilityID": "Animal_DogPrick_Prone",
            "abilityName": "Animal_DogPrick_Prone",
            "abilityOverride": ""
        },
        {
            "abilityID": "Animal_DogPrick_StandUp",
            "abilityName": "Animal_DogPrick_StandUp",
            "abilityOverride": ""
        },
        {
            "abilityID": "Animal_DogPrick_AIStateInitial",
            "abilityName": "Animal_DogPrick_AIStateInitial",
            "abilityOverride": ""
        },
        {
            "abilityID": "Animal_DogPrick_BeHit",
            "abilityName": "Animal_DogPrick_BeHit",
            "abilityOverride": ""
        },
        {
            "abilityID": "Animal_DogPrick_DogFeedPointRegister",
            "abilityName": "Animal_DogPrick_DogFeedPointRegister",
            "abilityOverride": ""
        }
    ],
    "stateLayers": {
        "defaultLayer": {
            "$type": "EPAPJJAGHKG",
            "ACOCIAFGIAD": "",
            "stateIDs": {
                "Born": {
                    "$type": "IJOIMFMEGMM",
                    "DLOHGBDFFGB": {
                        "Born": [
                            "Audio_Dog_Standby"
                        ]
                    },
                    "DLAOMOCMANL": [
                        "DoSkill"
                    ]
                },
                "NormalIdle": {
                    "$type": "IJOIMFMEGMM",
                    "DLOHGBDFFGB": {
                        "Standby": [
                            "Audio_Dog_Standby"
                        ],
                        "Sit": [
                            "Audio_Dog_Sit"
                        ],
                        "Prone": [
                            "Audio_Dog_Prone"
                        ]
                    },
                    "POLKCLOHPOO": true,
                    "PGKCBIHGAOC": true,
                    "DLAOMOCMANL": [
                        "DoSkill"
                    ]
                },
                "NormalMove": {
                    "$type": "IJOIMFMEGMM",
                    "DLOHGBDFFGB": {
                        "Walk": [
                            "Audio_Dog_Walk"
                        ],
                        "Run": [
                            "Audio_Dog_Run"
                        ],
                        "Sprint": [
                            "Audio_Dog_Sprint"
                        ]
                    },
                    "PGKCBIHGAOC": true,
                    "DLAOMOCMANL": [
                        "DoSkill"
                    ],
                    "LIPMJPLGIKD": true
                },
                "Turn": {
                    "$type": "IJOIMFMEGMM",
                    "DLOHGBDFFGB": {
                        "Turn": [
                            "Audio_Dog_Walk"
                        ]
                    },
                    "PGKCBIHGAOC": true,
                    "DLAOMOCMANL": [
                        "DoSkill"
                    ],
                    "LIPMJPLGIKD": true
                },
                "Flee": {
                    "$type": "IJOIMFMEGMM",
                    "DLOHGBDFFGB": {
                        "Flee": [
                            "Audio_Dog_Run"
                        ],
                        "Disappear": [
                            "Audio_Dog_Run"
                        ]
                    },
                    "PGKCBIHGAOC": true,
                    "DLAOMOCMANL": [
                        "DoSkill"
                    ],
                    "LIPMJPLGIKD": true
                },
                "BeHit": {
                    "$type": "IJOIMFMEGMM",
                    "DLOHGBDFFGB": {
                        "Hit_L": [
                            "BeHit",
                            "Audio_Dog_Hit_L"
                        ]
                    },
                    "AJBLILDCLBO": [
                        "BeHit",
                        "BeHitTrigger"
                    ],
                    "DLAOMOCMANL": [
                        "DoSkill",
                        "BeHitTrigger"
                    ]
                },
                "Die": {
                    "$type": "IJOIMFMEGMM",
                    "DLOHGBDFFGB": {
                        "Die": [
                            "Animal_DogPrick_Disappear",
                            "Audio_Dog_StandbyToProne"
                        ]
                    }
                },
                "Bark": {
                    "$type": "IJOIMFMEGMM",
                    "DLOHGBDFFGB": {
                        "Bark": [
                            "Audio_Dog_Bark",
                            "Animal_DogPrick_Flee"
                        ]
                    },
                    "DLAOMOCMANL": [
                        "BeHit",
                        "DoSkill",
                        "BeHitTrigger"
                    ]
                },
                "StandbyToSit": {
                    "$type": "IJOIMFMEGMM",
                    "DLOHGBDFFGB": {
                        "StandbyToSit": [
                            "Animal_DogPrick_SitDown",
                            "Audio_Dog_StandbyToSit"
                        ]
                    },
                    "DLAOMOCMANL": [
                        "BeHit",
                        "DoSkill"
                    ]
                },
                "StandbyToProne": {
                    "$type": "IJOIMFMEGMM",
                    "DLOHGBDFFGB": {
                        "StandbyToProne": [
                            "Animal_DogPrick_Prone",
                            "Audio_Dog_StandbyToProne"
                        ]
                    },
                    "DLAOMOCMANL": [
                        "BeHit",
                        "DoSkill"
                    ]
                },
                "SitToStandby": {
                    "$type": "IJOIMFMEGMM",
                    "DLOHGBDFFGB": {
                        "SitToStandby": [
                            "Animal_DogPrick_StandUp",
                            "Audio_Dog_SitToStandby"
                        ]
                    },
                    "DLAOMOCMANL": [
                        "BeHit",
                        "DoSkill"
                    ]
                },
                "SitToProne": {
                    "$type": "IJOIMFMEGMM",
                    "DLOHGBDFFGB": {
                        "SitToProne": [
                            "Animal_DogPrick_Prone",
                            "Audio_Dog_SitToProne"
                        ]
                    },
                    "DLAOMOCMANL": [
                        "BeHit",
                        "DoSkill"
                    ]
                },
                "ProneToStandby": {
                    "$type": "IJOIMFMEGMM",
                    "DLOHGBDFFGB": {
                        "ProneToStandby": [
                            "Animal_DogPrick_StandUp",
                            "Audio_Dog_ProneToStandby"
                        ]
                    },
                    "DLAOMOCMANL": [
                        "BeHit",
                        "DoSkill"
                    ]
                },
                "ProneToSit": {
                    "$type": "IJOIMFMEGMM",
                    "DLOHGBDFFGB": {
                        "ProneToSit": [
                            "Animal_DogPrick_SitDown",
                            "Audio_Dog_ProneToSit"
                        ]
                    },
                    "DLAOMOCMANL": [
                        "BeHit",
                        "DoSkill"
                    ]
                },
                "Personality_Standby": {
                    "$type": "IJOIMFMEGMM",
                    "DLOHGBDFFGB": {
                        "Personality_2": [
                            "Audio_Dog_Personality_2"
                        ]
                    },
                    "DLAOMOCMANL": [
                        "BeHit",
                        "DoSkill"
                    ]
                },
                "Personality_Sit1": {
                    "$type": "IJOIMFMEGMM",
                    "DLOHGBDFFGB": {
                        "Personality_3": [
                            "Audio_Dog_Personality_3"
                        ]
                    },
                    "DLAOMOCMANL": [
                        "BeHit",
                        "DoSkill"
                    ]
                },
                "Personality_Sit2": {
                    "$type": "IJOIMFMEGMM",
                    "DLOHGBDFFGB": {
                        "Personality_4": [
                            "Audio_Dog_Personality_4"
                        ]
                    },
                    "DLAOMOCMANL": [
                        "BeHit",
                        "DoSkill"
                    ]
                },
                "HungryAction": {
                    "$type": "IJOIMFMEGMM",
                    "DLOHGBDFFGB": {
                        "HungryAction_BS": [],
                        "HungryAction_Loop": [],
                        "HungryAction_AS": []
                    },
                    "POLKCLOHPOO": true,
                    "DLAOMOCMANL": [
                        "BeHit",
                        "DoSkill"
                    ]
                },
                "HungryAfterAction": {
                    "$type": "IJOIMFMEGMM",
                    "DLOHGBDFFGB": {
                        "HungryAfterActionSit_BS": [
                            "Animal_DogPrick_SitDown"
                        ],
                        "HungryAfterActionSit_Action01": [],
                        "HungryAfterActionSit_Action02": [],
                        "HungryAfterActionProne_BS": [
                            "Animal_DogPrick_Prone"
                        ],
                        "HungryAfterActionNormal_Action01": [],
                        "HungryAfterActionSit_ToStandby": [
                            "Animal_DogPrick_StandUp",
                            "Audio_Dog_SitToStandby"
                        ]
                    },
                    "POLKCLOHPOO": true,
                    "DLAOMOCMANL": [
                        "BeHit",
                        "DoSkill"
                    ]
                }
            }
        }
    },
    "initialPoses": {
        "Default": {
            "initialPoseID": 1,
            "initialPoseParams": {
                "intParams": {
                    "ActionState": "0"
                }
            }
        },
        "Sit": {
            "initialPoseID": 2,
            "initialPoseParams": {
                "intParams": {
                    "ActionState": "1"
                }
            }
        },
        "Prone": {
            "initialPoseID": 3,
            "initialPoseParams": {
                "intParams": {
                    "ActionState": "2"
                }
            }
        },
        "OnlyStandFeed": {
            "initialPoseID": 4,
            "initialPoseParams": {
                "boolParams": {
                    "OnlyStandFeed": "true"
                }
            }
        },
        "OnlyMove": {
            "initialPoseID": 5,
            "initialPoseParams": {
                "boolParams": {
                    "OnlyMove": "true"
                }
            }
        },
        "OnlySit_NoBeHit": {
            "initialPoseID": 22,
            "initialPoseParams": {
                "intParams": {
                    "ActionState": "1"
                },
                "boolParams": {
                    "NoBeHit": "true"
                }
            }
        }
    },
    "aibeta": {
        "enable": true,
        "friendliness": 1,
        "decisionArchetype": "Animal",
        "precombat": {
            "satietyTime": 60.0
        },
        "sensing": {
            "settings": {
                "DefaultSetting": {
                    "viewRange": 10.0,
                    "horizontalFov": 90.0,
                    "verticalFov": 45.0,
                    "feelRange": 3.5
                },
                "NoSensing": {
                    "viewRange": 0.0,
                    "hearAttractionRange": 0.0,
                    "feelRange": 0.0
                }
            },
            "templates": {
                "DefaultTemplate": {
                    "DefaultPoses": "DefaultSetting"
                },
                "NoSensingTemplate": {
                    "DefaultPoses": "NoSensing"
                }
            }
        },
        "neurons": {
            "DefaultSetting": [
                "HIT"
            ],
            "Hungry": [
                "HIT",
                "HUNGRY"
            ]
        },
        "threat": {
            "clearThreatTargetDistance": 15.0,
            "clearThreatTimerByDistance": 1.0,
            "threatDecreaseSpeed": 500.0,
            "JGFOPCOIJOI": ""
        },
        "defendArea": {
            "defendRange": 25.0
        },
        "ui": {
            "hasDirectionIndicator": false,
            "FLMOHOODJBA": ""
        },
        "skills": {
            "1": {
                "name": "ProneOnAware",
                "skillType": "OnAware",
                "castCondition": {
                    "pose": [
                        3
                    ]
                },
                "publicCDGroup": "",
                "HGAMDGAEIGO": "",
                "stateIDs": [
                    "ProneToStandby"
                ],
                "skillQueryingTime": 3.0,
                "flagTargetReachable": "10",
                "flagSelfOnTemplateCollider": "01",
                "flagSelfInZone": "10",
                "flagTargetInZone": "11"
            },
            "2": {
                "name": "SitOnAware",
                "skillType": "OnAware",
                "castCondition": {
                    "pose": [
                        2
                    ]
                },
                "publicCDGroup": "",
                "HGAMDGAEIGO": "",
                "stateIDs": [
                    "SitToStandby"
                ],
                "skillQueryingTime": 3.0,
                "flagTargetReachable": "10",
                "flagSelfOnTemplateCollider": "01",
                "flagSelfInZone": "10",
                "flagTargetInZone": "11"
            },
            "102": {
                "name": "StandbyToSit",
                "skillType": "Free",
                "castCondition": {
                    "pose": [
                        1
                    ]
                },
                "cd": 10.0,
                "cdUpperRange": 10.0,
                "initialCD": 5.0,
                "initialCDUpperRange": 10.0,
                "publicCDGroup": "",
                "HGAMDGAEIGO": "",
                "stateIDs": [
                    "StandbyToSit"
                ],
                "flagTargetReachable": "10",
                "flagSelfOnTemplateCollider": "01",
                "flagSelfInZone": "10",
                "flagTargetInZone": "11"
            },
            "103": {
                "name": "StandbyToProne",
                "skillType": "Free",
                "castCondition": {
                    "pose": [
                        1
                    ]
                },
                "cd": 10.0,
                "cdUpperRange": 10.0,
                "initialCD": 5.0,
                "initialCDUpperRange": 10.0,
                "publicCDGroup": "",
                "HGAMDGAEIGO": "",
                "stateIDs": [
                    "StandbyToProne"
                ],
                "flagTargetReachable": "10",
                "flagSelfOnTemplateCollider": "01",
                "flagSelfInZone": "10",
                "flagTargetInZone": "11"
            },
            "201": {
                "name": "PersonalitySit1",
                "skillType": "Free",
                "castCondition": {
                    "pose": [
                        2
                    ]
                },
                "cd": 30.0,
                "cdUpperRange": 30.0,
                "initialCD": 15.0,
                "initialCDUpperRange": 45.0,
                "publicCDGroup": "",
                "HGAMDGAEIGO": "",
                "stateIDs": [
                    "Personality_Sit1"
                ],
                "flagTargetReachable": "10",
                "flagSelfOnTemplateCollider": "01",
                "flagSelfInZone": "10",
                "flagTargetInZone": "11"
            },
            "202": {
                "name": "PersonalitySit2",
                "skillType": "Free",
                "castCondition": {
                    "pose": [
                        2
                    ]
                },
                "cd": 30.0,
                "cdUpperRange": 30.0,
                "initialCD": 15.0,
                "initialCDUpperRange": 45.0,
                "publicCDGroup": "",
                "HGAMDGAEIGO": "",
                "stateIDs": [
                    "Personality_Sit2"
                ],
                "flagTargetReachable": "10",
                "flagSelfOnTemplateCollider": "01",
                "flagSelfInZone": "10",
                "flagTargetInZone": "11"
            },
            "203": {
                "name": "SitToStandby",
                "skillType": "Free",
                "castCondition": {
                    "pose": [
                        2
                    ]
                },
                "initialCD": 60.0,
                "initialCDUpperRange": 60.0,
                "publicCDGroup": "",
                "HGAMDGAEIGO": "",
                "stateIDs": [
                    "SitToStandby"
                ],
                "flagTargetReachable": "10",
                "flagSelfOnTemplateCollider": "01",
                "flagSelfInZone": "10",
                "flagTargetInZone": "11"
            },
            "204": {
                "name": "SitToProne",
                "skillType": "Free",
                "castCondition": {
                    "pose": [
                        2
                    ]
                },
                "initialCD": 60.0,
                "initialCDUpperRange": 60.0,
                "publicCDGroup": "",
                "HGAMDGAEIGO": "",
                "stateIDs": [
                    "SitToProne"
                ],
                "flagTargetReachable": "10",
                "flagSelfOnTemplateCollider": "01",
                "flagSelfInZone": "10",
                "flagTargetInZone": "11"
            },
            "301": {
                "name": "ProneToStandby",
                "skillType": "Free",
                "castCondition": {
                    "pose": [
                        3
                    ]
                },
                "initialCD": 60.0,
                "initialCDUpperRange": 60.0,
                "publicCDGroup": "",
                "HGAMDGAEIGO": "",
                "stateIDs": [
                    "ProneToStandby"
                ],
                "flagTargetReachable": "10",
                "flagSelfOnTemplateCollider": "01",
                "flagSelfInZone": "10",
                "flagTargetInZone": "11"
            },
            "302": {
                "name": "ProneToSit",
                "skillType": "Free",
                "castCondition": {
                    "pose": [
                        3
                    ]
                },
                "initialCD": 60.0,
                "initialCDUpperRange": 60.0,
                "publicCDGroup": "",
                "HGAMDGAEIGO": "",
                "stateIDs": [
                    "ProneToSit"
                ],
                "flagTargetReachable": "10",
                "flagSelfOnTemplateCollider": "01",
                "flagSelfInZone": "10",
                "flagTargetInZone": "11"
            },
            "111": {
                "name": "PersonalityStandby",
                "castCondition": {
                    "pose": [
                        101
                    ],
                    "pickRangeMax": 5.0
                },
                "cd": 20.0,
                "cdUpperRange": 20.0,
                "initialCD": 10.0,
                "initialCDUpperRange": 15.0,
                "publicCDGroup": "",
                "HGAMDGAEIGO": "",
                "stateIDs": [
                    "Personality_Standby"
                ],
                "flagTargetReachable": "10",
                "flagSelfOnTemplateCollider": "01",
                "flagSelfInZone": "10",
                "flagTargetInZone": "11"
            },
            "112": {
                "name": "StandbyToSit",
                "castCondition": {
                    "pose": [
                        101
                    ],
                    "pickRangeMax": 20.0
                },
                "cd": 20.0,
                "cdUpperRange": 20.0,
                "initialCD": 10.0,
                "initialCDUpperRange": 15.0,
                "publicCDGroup": "",
                "HGAMDGAEIGO": "",
                "stateIDs": [
                    "StandbyToSit"
                ],
                "flagTargetReachable": "10",
                "flagSelfOnTemplateCollider": "01",
                "flagSelfInZone": "10",
                "flagTargetInZone": "11"
            },
            "211": {
                "name": "PersonalitySit1",
                "castCondition": {
                    "pose": [
                        201
                    ],
                    "pickRangeMax": 5.0
                },
                "cd": 15.0,
                "cdUpperRange": 15.0,
                "initialCD": 7.5,
                "initialCDUpperRange": 10.0,
                "publicCDGroup": "",
                "HGAMDGAEIGO": "",
                "stateIDs": [
                    "Personality_Sit1"
                ],
                "flagTargetReachable": "10",
                "flagSelfOnTemplateCollider": "01",
                "flagSelfInZone": "10",
                "flagTargetInZone": "11"
            },
            "212": {
                "name": "PersonalitySit2",
                "castCondition": {
                    "pose": [
                        201
                    ],
                    "pickRangeMax": 5.0
                },
                "cd": 20.0,
                "cdUpperRange": 20.0,
                "initialCD": 7.5,
                "initialCDUpperRange": 10.0,
                "publicCDGroup": "",
                "HGAMDGAEIGO": "",
                "stateIDs": [
                    "Personality_Sit2"
                ],
                "flagTargetReachable": "10",
                "flagSelfOnTemplateCollider": "01",
                "flagSelfInZone": "10",
                "flagTargetInZone": "11"
            },
            "213": {
                "name": "SitToStandby",
                "castCondition": {
                    "pose": [
                        201
                    ],
                    "pickRangeMin": 7.5,
                    "pickRangeMax": 20.0
                },
                "cd": 30.0,
                "cdUpperRange": 30.0,
                "initialCD": 5.0,
                "initialCDUpperRange": 7.5,
                "publicCDGroup": "",
                "ignoreGCD": true,
                "HGAMDGAEIGO": "",
                "stateIDs": [
                    "SitToStandby"
                ],
                "flagTargetReachable": "10",
                "flagSelfOnTemplateCollider": "01",
                "flagSelfInZone": "10",
                "flagTargetInZone": "11"
            },
            "214": {
                "name": "SitToProne",
                "castCondition": {
                    "pose": [
                        201
                    ],
                    "pickRangeMax": 7.5
                },
                "cd": 30.0,
                "cdUpperRange": 30.0,
                "initialCD": 30.0,
                "initialCDUpperRange": 30.0,
                "publicCDGroup": "",
                "HGAMDGAEIGO": "",
                "stateIDs": [
                    "SitToProne"
                ],
                "flagTargetReachable": "10",
                "flagSelfOnTemplateCollider": "01",
                "flagSelfInZone": "10",
                "flagTargetInZone": "11"
            },
            "215": {
                "name": "SitToStandby",
                "castCondition": {
                    "pose": [
                        201
                    ],
                    "pickRangeMax": 5.0
                },
                "cd": 30.0,
                "cdUpperRange": 30.0,
                "initialCD": 10.0,
                "initialCDUpperRange": 20.0,
                "publicCDGroup": "",
                "ignoreGCD": true,
                "HGAMDGAEIGO": "",
                "stateIDs": [
                    "SitToStandby"
                ],
                "flagTargetReachable": "10",
                "flagSelfOnTemplateCollider": "01",
                "flagSelfInZone": "10",
                "flagTargetInZone": "11"
            },
            "311": {
                "name": "ProneToStandby",
                "castCondition": {
                    "pose": [
                        301
                    ],
                    "pickRangeMin": 7.5,
                    "pickRangeMax": 20.0
                },
                "cd": 30.0,
                "cdUpperRange": 30.0,
                "initialCD": 5.0,
                "initialCDUpperRange": 7.5,
                "publicCDGroup": "",
                "ignoreGCD": true,
                "HGAMDGAEIGO": "",
                "stateIDs": [
                    "ProneToStandby"
                ],
                "flagTargetReachable": "10",
                "flagSelfOnTemplateCollider": "01",
                "flagSelfInZone": "10",
                "flagTargetInZone": "11"
            },
            "1301": {
                "name": "HungryAction",
                "skillType": "ActionPoint",
                "castCondition": {
                    "pose": [
                        1,
                        2,
                        3,
                        101,
                        201,
                        301
                    ]
                },
                "publicCDGroup": "",
                "triggerGCD": false,
                "HGAMDGAEIGO": "",
                "stateIDs": [
                    "HungryAction",
                    "HungryAfterAction"
                ],
                "skillQueryingTime": 3.0,
                "flagTargetReachable": "10",
                "flagSelfOnTemplateCollider": "01",
                "flagSelfInZone": "10",
                "flagTargetInZone": "11"
            },
            "1401": {
                "name": "HungryAction",
                "skillType": "ActionPoint",
                "castCondition": {
                    "pose": [
                        4,
                        401
                    ]
                },
                "publicCDGroup": "",
                "triggerGCD": false,
                "HGAMDGAEIGO": "",
                "stateIDs": [
                    "HungryAction",
                    "HungryAfterAction"
                ],
                "skillQueryingTime": 3.0,
                "flagTargetReachable": "10",
                "flagSelfOnTemplateCollider": "01",
                "flagSelfInZone": "10",
                "flagTargetInZone": "11"
            }
        },
        "skillGCD": 5.0,
        "combatFixedMoveTactic": [
            {
                "$type": "GIMIMAJNOPH",
                "enable": true,
                "FJANPNOAAFK": {
                    "pose": [
                        1,
                        2,
                        3,
                        901,
                        902
                    ]
                },
                "nerveTrigger": [
                    "HIT"
                ],
                "LMMKNFEMOMG": {
                    "GEAICNICJAJ": 1.0,
                    "cd": 3.0,
                    "triggerDistance": 100.0,
                    "IFCLJHAJFHD": 75.0,
                    "GGIBBPIGEJF": 3,
                    "PKFMEOPIHEO": 5,
                    "NBBIJDCLJOF": 7.5,
                    "MHMMABHJIIA": 10.0,
                    "JOCOJHEICNA": ""
                }
            },
            {
                "$type": "CMCHFECOPPI",
                "enable": true,
                "LMMKNFEMOMG": {
                    "DCEODHLDKCJ": 1.0,
                    "GAHPENGCPFA": 1.0,
                    "JOCOJHEICNA": "",
                    "DBIELIMGBMC": ""
                }
            },
            {
                "$type": "BNAGECKMCIB",
                "enable": true,
                "FJANPNOAAFK": {
                    "pose": [
                        101
                    ]
                },
                "LMMKNFEMOMG": {
                    "KIHPEPHJMOG": 5,
                    "GEAICNICJAJ": 0.75,
                    "MPEMBMLOEDG": 7.5,
                    "IJLGPEJGLEH": 20.0,
                    "JKOGPCLFHCP": 5.0,
                    "IHCAFCNDANA": 10.0,
                    "OBDJFHBHOMP": 2,
                    "NKGJBMONBFL": false,
                    "JOCOJHEICNA": ""
                }
            },
            {
                "$type": "CMFCOLEFCJI",
                "enable": true,
                "LMMKNFEMOMG": {
                    "BJBAALCCMGL": [
                        {
                            "pointType": "DogFeedPoint",
                            "FCCFALOMHGM": 10.0,
                            "pose": [
                                1,
                                2,
                                3,
                                101,
                                201,
                                301,
                                401
                            ],
                            "nerveTrigger": [
                                "HUNGRY"
                            ],
                            "skillID": 1301
                        }
                    ]
                }
            },
            {
                "$type": "KMHBGMELMKD",
                "enable": true
            },
            {
                "$type": "GGKADEIBMLG",
                "enable": true,
                "FJANPNOAAFK": {
                    "pose": [
                        1
                    ]
                },
                "LMMKNFEMOMG": {
                    "GEAICNICJAJ": 0.75,
                    "JIFJFPJANHO": 12.5,
                    "CBKHBGCPFBG": 7.5,
                    "EKDHNAGGGAE": 15.0,
                    "BFEJAKFKKFP": 5.0,
                    "KOAMKCEFJED": 7.5,
                    "JOCOJHEICNA": ""
                }
            }
        ]
    },
    "animal": {
        "tickAbilityElement": false,
        "hasCharacterRenderering": false
    },
    "captureGroup": {
        "defaultConfig": {
            "captureEffect": "Eff_SceneObj_CatchAnimal_CaughtSuccess"
        }
    }
}