{
    "common": {
        "effectAttachShape": {
            "$type": "DPGKNHENGLM",
            "DDDEJPIFECG": "EffectMesh"
        },
        "mass": 80.0,
        "height": 0.800000011920929,
        "modelHeight": 0.4000000059604645,
        "affectedByWorld": true,
        "checkInSurface": true,
        "scale": 3.0,
        "useGrassDisplacement": true
    },
    "model": {
        "bornEffect": "Eff_Monster_Effigy_Water_OozeBorn",
        "attachEffect": "",
        "canBakeMesh": false
    },
    "combat": {
        "property": {
            "endureType": "Monster_Slime",
            "weight": 60.0
        },
        "beHit": {
            "hitBloodEffect": ""
        },
        "combatLock": {
            "lockShape": "CircleLockEnemy",
            "lockType": "Avatar&Monster_Lv4"
        },
        "die": {
            "dieEndTime": 4.0,
            "dieForceDisappearTime": 8.0,
            "dieDisappearEffect": "",
            "muteHitBox": true,
            "dieDenyLockOn": true,
            "dieIsGhostToEnemy": true,
            "dieIgnoreTriggerBullet": true,
            "muteBillboard": true,
            "mutePushCollider": true
        }
    },
    "abilities": [
        {
            "abilityID": "",
            "abilityName": "Monster_Effigy_Ooze_TypeHeal_State",
            "abilityOverride": ""
        },
        {
            "abilityID": "",
            "abilityName": "Monster_Effigy_Ooze_TypeHeal_TriggerHealBall",
            "abilityOverride": ""
        }
    ],
    "stateLayers": {
        "defaultLayer": {
            "$type": "EPAPJJAGHKG",
            "ACOCIAFGIAD": "",
            "stateIDs": {
                "Born": {
                    "$type": "IJOIMFMEGMM",
                    "DLOHGBDFFGB": {
                        "Born": [
                            "Audio_Slime_02_Born_N"
                        ]
                    },
                    "PGKCBIHGAOC": true,
                    "DLAOMOCMANL": [
                        "DoSkill"
                    ]
                },
                "NormalIdle": {
                    "$type": "IJOIMFMEGMM",
                    "DLOHGBDFFGB": {
                        "Standby": []
                    },
                    "POLKCLOHPOO": true,
                    "PGKCBIHGAOC": true,
                    "DLAOMOCMANL": [
                        "DoSkill"
                    ]
                },
                "NormalMove": {
                    "$type": "IJOIMFMEGMM",
                    "DLOHGBDFFGB": {
                        "Walk": [
                            "Audio_Slime_02_Walk_N"
                        ]
                    },
                    "POLKCLOHPOO": true,
                    "PGKCBIHGAOC": true,
                    "DLAOMOCMANL": [
                        "DoSkill"
                    ],
                    "LIPMJPLGIKD": true
                },
                "BeHit": {
                    "$type": "IJOIMFMEGMM",
                    "DLOHGBDFFGB": {
                        "Hit_L": [
                            "Audio_Slime_02_Hit_L"
                        ],
                        "Hit_H": [
                            "Audio_Slime_02_Hit_H"
                        ]
                    },
                    "AJBLILDCLBO": [
                        "BeHit"
                    ],
                    "DLAOMOCMANL": [
                        "DoSkill"
                    ]
                },
                "BeHitThrow": {
                    "$type": "IJOIMFMEGMM",
                    "DLOHGBDFFGB": {
                        "HitThrow": [
                            "Audio_Slime_02_HitThrow_N"
                        ],
                        "HitThrowDrop": [],
                        "HitThrowToGround": [
                            "Audio_Slime_02_HitThrowToGround_N"
                        ]
                    },
                    "AJBLILDCLBO": [
                        "BeHit",
                        "HitAir2HitDrop"
                    ],
                    "DLAOMOCMANL": [
                        "DoSkill"
                    ]
                },
                "Struggle": {
                    "$type": "IJOIMFMEGMM",
                    "DLOHGBDFFGB": {
                        "Struggle": []
                    },
                    "AJBLILDCLBO": [
                        "BeHit",
                        "HitAir2HitDrop"
                    ],
                    "DLAOMOCMANL": [
                        "DoSkill"
                    ]
                },
                "Die": {
                    "$type": "IJOIMFMEGMM",
                    "DLOHGBDFFGB": {
                        "Die": [
                            "Monster_Effigy_Water_Ooze01_Die"
                        ]
                    }
                },
                "HealBall": {
                    "$type": "IJOIMFMEGMM",
                    "DLOHGBDFFGB": {
                        "HealBall": [
                            "Monster_Effigy_Water_Ooze04_HealBall"
                        ]
                    },
                    "DLAOMOCMANL": [
                        "BeHit",
                        "DoSkill"
                    ]
                }
            }
        }
    },
    "billboard": {
        "$type": "PAOBAEKGGBC",
        "attachPoint": "BillboardAttach",
        "offset": {
            "y": 0.30000001192092896
        },
        "EMFFJPOKEKF": "Character",
        "KGHAGECNJPO": true
    },
    "aibeta": {
        "enable": true,
        "sensing": {
            "settings": {
                "DefaultSetting": {
                    "viewRange": 15.0
                }
            }
        },
        "threat": {
            "enable": false,
            "clearThreatTargetDistance": 30.0,
            "clearThreatEdgeDistance": 3.0,
            "clearThreatTimerByDistance": 2.0,
            "JGFOPCOIJOI": ""
        },
        "defendArea": {
            "defendRange": 50.0
        },
        "skills": {
            "201": {
                "name": "HealBall",
                "skillType": "Free",
                "priority": 1,
                "castCondition": {
                    "pose": [
                        1
                    ]
                },
                "cd": 10.0,
                "initialCD": 5.0,
                "publicCDGroup": "",
                "HGAMDGAEIGO": "",
                "stateIDs": [
                    "HealBall"
                ],
                "flagTargetReachable": "10",
                "flagSelfOnTemplateCollider": "01",
                "flagSelfInZone": "10",
                "flagTargetInZone": "11"
            }
        },
        "skillGCD": 10.0,
        "combatFixedMoveTactic": [
            {
                "$type": "KMHBGMELMKD",
                "enable": true
            }
        ]
    },
    "move": {
        "$type": "IIGPJJNGCLE",
        "MLKCNHIIMCE": true,
        "AFOGPFALECN": 0.10000000149011612,
        "BEPOPLDKJOP": "SlimeType",
        "FACNOEFNHIB": "RootNode"
    }
}