{
    "common": {
        "effectAttachShape": {
            "$type": "CMIPFEGOJCH",
            "EJAEFCDBDFB": "EffectMesh"
        },
        "mass": 500.0,
        "height": 1.75,
        "viewSize": 1.0800000429153442,
        "affectedByWorld": true,
        "checkInSurface": true,
        "scale": 1.25,
        "useGrassDisplacement": true
    },
    "headControl": {
        "$type": "HLGPLMCNIFB",
        "useHeadControl": true,
        "BADCMJGBCHM": 80.0,
        "AIOGIMNHIGK": 30.0,
        "GDIAFJFLHCE": [
            "NormalIdle/Standby",
            "NormalMove/WalkForward",
            "NormalMove/WalkBack",
            "NormalMove/WalkRight",
            "NormalMove/WalkLeft",
            "NormalMove/Run",
            "Turn/TurnLeft",
            "Turn/TurnRight"
        ]
    },
    "model": {
        "bornEffect": "Eff_Monster_Common_Born",
        "attachEffect": ""
    },
    "dither": {
        "showDitherDuration": 1.0
    },
    "combat": {
        "property": {
            "endureType": "Monster_Grunt_Humanoid",
            "weight": 75.0
        },
        "beHit": {
            "hitBloodEffect": ""
        },
        "combatLock": {
            "lockShape": "CircleLockEnemy",
            "lockType": "Avatar&Monster_Lv4"
        },
        "die": {
            "hasAnimatorDie": true,
            "dieEndTime": 2.5,
            "dieForceDisappearTime": 1.5,
            "dieDisappearEffect": "Eff_Death_Avatar_Common",
            "dieShaderData": "AvatarDie",
            "useRagDoll": true,
            "ragDollDieEndTimeDelay": 1.25,
            "LDOHFFOEPPI": true,
            "BMOKGIFNILM": true,
            "PHCLLDNDFNG": true,
            "CHBAHMJGJBE": true,
            "OPPHENIKFJA": true,
            "CCNGAIMLPIJ": true
        },
        "animEvents": {
            "Atk01": {
                "attackPattern": {
                    "$type": "GGBJACPDDCM",
                    "triggerType": "TriggerNoRepeat",
                    "born": {
                        "$type": "KDEPFKAAHCG",
                        "offset": {
                            "HMHIOILIGBF": 0.20000000298023224,
                            "DPPJGBOHAAL": 1.0,
                            "DDOAGBLBCEF": 0.5
                        }
                    },
                    "size": {
                        "HMHIOILIGBF": 0.5,
                        "DPPJGBOHAAL": 0.5,
                        "DDOAGBLBCEF": 4.0
                    }
                },
                "attackInfo": {
                    "attackTag": "",
                    "attenuationTag": "",
                    "attenuationGroup": "default",
                    "attackProperty": {
                        "PCFAAPMOCGJ": 1.0,
                        "LCCBNOKMNFG": 0.0,
                        "bonusCritical": 100.0,
                        "strikeType": "Pierce",
                        "enBreak": 50.0,
                        "attackType": "Melee",
                        "FKGFPFNOJMN": 0.0
                    },
                    "hitPattern": {
                        "onHitEffectName": "default",
                        "hitImpulseType": "LV3",
                        "hitHaltTimeScale": 0.009999999776482582
                    }
                }
            },
            "Atk02": {
                "attackPattern": {
                    "$type": "HBFCINNBDFD",
                    "triggerType": "TriggerNoRepeat",
                    "born": {
                        "$type": "KDEPFKAAHCG",
                        "offset": {
                            "HMHIOILIGBF": 0.0,
                            "DPPJGBOHAAL": 0.0,
                            "DDOAGBLBCEF": 0.5
                        }
                    },
                    "NPLOANBGDOK": 120.0,
                    "DFMMIGEMOHH": 3.0
                },
                "attackInfo": {
                    "attackTag": "",
                    "attenuationTag": "",
                    "attenuationGroup": "default",
                    "attackProperty": {
                        "PCFAAPMOCGJ": 1.0,
                        "LCCBNOKMNFG": 0.0,
                        "bonusCritical": 100.0,
                        "strikeType": "Slash",
                        "enBreak": 50.0,
                        "attackType": "Melee",
                        "FKGFPFNOJMN": 0.0
                    },
                    "hitPattern": {
                        "onHitEffectName": "default",
                        "hitImpulseType": "LV3",
                        "hitHaltTimeScale": 0.009999999776482582
                    }
                }
            },
            "WildSlam01": {
                "attackPattern": {
                    "$type": "HBFCINNBDFD",
                    "triggerType": "TriggerNoRepeat",
                    "born": {
                        "$type": "KDEPFKAAHCG",
                        "offset": {
                            "HMHIOILIGBF": 0.0,
                            "DPPJGBOHAAL": 0.0,
                            "DDOAGBLBCEF": 0.5
                        }
                    },
                    "NPLOANBGDOK": 150.0,
                    "DFMMIGEMOHH": 3.0
                },
                "attackInfo": {
                    "attackTag": "",
                    "attenuationTag": "",
                    "attenuationGroup": "default",
                    "attackProperty": {
                        "PCFAAPMOCGJ": 1.0,
                        "LCCBNOKMNFG": 0.0,
                        "bonusCritical": 100.0,
                        "strikeType": "Slash",
                        "enBreak": 100.0,
                        "FKGFPFNOJMN": 0.0
                    },
                    "hitPattern": {
                        "onHitEffectName": "default",
                        "hitImpulseType": "LV4",
                        "hitHaltTime": 0.05999999865889549,
                        "hitHaltTimeScale": 0.009999999776482582
                    },
                    "cameraShake": {
                        "shakeType": "HitVector",
                        "shakeRange": 0.11999999731779099,
                        "shakeTime": 0.11999999731779099,
                        "shakeDistance": 25.0,
                        "shakeDir": {
                            "z": 1.0
                        }
                    }
                }
            },
            "WildSlam02": {
                "attackPattern": {
                    "$type": "HBFCINNBDFD",
                    "triggerType": "TriggerNoRepeat",
                    "born": {
                        "$type": "KDEPFKAAHCG",
                        "offset": {
                            "HMHIOILIGBF": 0.0,
                            "DPPJGBOHAAL": 0.0,
                            "DDOAGBLBCEF": 0.5
                        }
                    },
                    "NPLOANBGDOK": 150.0,
                    "DFMMIGEMOHH": 3.0
                },
                "attackInfo": {
                    "attackTag": "",
                    "attenuationTag": "",
                    "attenuationGroup": "default",
                    "attackProperty": {
                        "PCFAAPMOCGJ": 1.0,
                        "LCCBNOKMNFG": 0.0,
                        "bonusCritical": 100.0,
                        "strikeType": "Slash",
                        "enBreak": 100.0,
                        "attackType": "Melee",
                        "FKGFPFNOJMN": 0.0
                    },
                    "hitPattern": {
                        "onHitEffectName": "default",
                        "hitImpulseType": "LV4"
                    }
                }
            },
            "WildSlam03": {
                "attackPattern": {
                    "$type": "HBFCINNBDFD",
                    "triggerType": "TriggerNoRepeat",
                    "born": {
                        "$type": "KDEPFKAAHCG",
                        "offset": {
                            "HMHIOILIGBF": 0.0,
                            "DPPJGBOHAAL": 0.0,
                            "DDOAGBLBCEF": 0.5
                        }
                    },
                    "NPLOANBGDOK": 150.0,
                    "DFMMIGEMOHH": 3.0
                },
                "attackInfo": {
                    "attackTag": "",
                    "attenuationTag": "",
                    "attenuationGroup": "default",
                    "attackProperty": {
                        "PCFAAPMOCGJ": 1.25,
                        "LCCBNOKMNFG": 0.0,
                        "bonusCritical": 100.0,
                        "strikeType": "Slash",
                        "enBreak": 100.0,
                        "attackType": "Melee",
                        "FKGFPFNOJMN": 0.0
                    },
                    "hitPattern": {
                        "onHitEffectName": "default",
                        "hitImpulseType": "LV5"
                    },
                    "cameraShake": {
                        "shakeType": "HitVector",
                        "shakeRange": 0.11999999731779099,
                        "shakeTime": 0.11999999731779099,
                        "shakeDistance": 25.0,
                        "shakeDir": {
                            "z": 1.0
                        }
                    }
                }
            }
        }
    },
    "equipController": {
        "sheathPoint": "",
        "attachPoints": {
            "equip01": "WeaponR",
            "equip02": "WeaponL"
        }
    },
    "abilities": [
        {
            "abilityID": "SteerAttack",
            "abilityName": "Human_Male_Pole_SteerAttack",
            "abilityOverride": ""
        },
        {
            "abilityID": "SteerMove",
            "abilityName": "Millelith_SteerMove",
            "abilityOverride": ""
        },
        {
            "abilityID": "Attack01_RushMove01",
            "abilityName": "Human_Male_Pole_Attack01_RushMove01",
            "abilityOverride": ""
        },
        {
            "abilityID": "Attack02_RushMove01",
            "abilityName": "Human_Male_Pole_Attack02_RushMove01",
            "abilityOverride": ""
        },
        {
            "abilityID": "WildSlam_RushMove01",
            "abilityName": "Human_Male_Pole_WildSlam_RushMove01",
            "abilityOverride": ""
        },
        {
            "abilityID": "WildSlam_RushMove02",
            "abilityName": "Human_Male_Pole_WildSlam_RushMove02",
            "abilityOverride": ""
        },
        {
            "abilityID": "WildSlam_RushMove03",
            "abilityName": "Human_Male_Pole_WildSlam_RushMove03",
            "abilityOverride": ""
        },
        {
            "abilityID": "Order01",
            "abilityName": "Human_Male_Pole_Order01",
            "abilityOverride": ""
        },
        {
            "abilityID": "Order02",
            "abilityName": "Human_Male_Pole_Order02",
            "abilityOverride": ""
        },
        {
            "abilityID": "Order03",
            "abilityName": "Human_Male_Pole_Order03",
            "abilityOverride": ""
        },
        {
            "abilityID": "PoseDecider",
            "abilityName": "Human_Male_Pole_PoseDecider",
            "abilityOverride": ""
        },
        {
            "abilityID": "EndureModifier",
            "abilityName": "Monster_Millelith_EndureModifier",
            "abilityOverride": ""
        },
        {
            "abilityID": "AuxWeaponTrans",
            "abilityName": "Monster_Millelith_Pole_Male_AuxWeaponTrans",
            "abilityOverride": ""
        }
    ],
    "stateLayers": {
        "defaultLayer": {
            "$type": "KFHJINNNDPN",
            "BOPIBFKFKCA": "",
            "stateIDs": {
                "NormalIdle": {
                    "$type": "MEECNDLIOBI",
                    "HKPCLGHBKFD": {
                        "Standby": [],
                        "Born": []
                    },
                    "KNOHBHKACHA": true,
                    "BAABNFCMKIO": true,
                    "ADPGACLPFHN": [
                        "DoSkill"
                    ]
                },
                "NormalMove": {
                    "$type": "MEECNDLIOBI",
                    "HKPCLGHBKFD": {
                        "WalkForward": [
                            "Audio_Monster_LiYue_Sergeant_Male_01_Walk"
                        ],
                        "WalkBack": [
                            "Audio_Monster_LiYue_Sergeant_Male_01_Walk"
                        ],
                        "WalkRight": [
                            "Audio_Monster_LiYue_Sergeant_Male_01_Walk"
                        ],
                        "WalkLeft": [
                            "Audio_Monster_LiYue_Sergeant_Male_01_Walk"
                        ],
                        "Run": [
                            "Audio_Monster_LiYue_Sergeant_Male_01_Run"
                        ]
                    },
                    "KNOHBHKACHA": true,
                    "BAABNFCMKIO": true,
                    "ADPGACLPFHN": [
                        "DoSkill"
                    ],
                    "NPMGEMAFACP": true
                },
                "Turn": {
                    "$type": "MEECNDLIOBI",
                    "HKPCLGHBKFD": {
                        "TurnLeft": [
                            "Audio_Monster_LiYue_Sergeant_Male_01_Walk"
                        ],
                        "TurnRight": [
                            "Audio_Monster_LiYue_Sergeant_Male_01_Walk"
                        ]
                    },
                    "KNOHBHKACHA": true,
                    "BAABNFCMKIO": true,
                    "ADPGACLPFHN": [
                        "DoSkill"
                    ],
                    "NPMGEMAFACP": true
                },
                "BeHit": {
                    "$type": "MEECNDLIOBI",
                    "HKPCLGHBKFD": {
                        "Hit_L": [
                            "Audio_Monster_LiYue_Sergeant_Male_02_Hit_L"
                        ],
                        "Hit_H": [
                            "Audio_Monster_LiYue_Sergeant_Male_02_Hit_H"
                        ],
                        "DHit": []
                    },
                    "PJFELLIJONH": [
                        "BeHit"
                    ],
                    "ADPGACLPFHN": [
                        "DoSkill"
                    ]
                },
                "BeHitThrow": {
                    "$type": "MEECNDLIOBI",
                    "HKPCLGHBKFD": {
                        "HitThrow": [
                            "Audio_Monster_LiYue_Sergeant_Male_02_HitThrow"
                        ],
                        "HitThrowDrop": [],
                        "HitThrowToGround": [
                            "Audio_Monster_LiYue_Sergeant_Male_02_HitThrowToGround"
                        ]
                    },
                    "PJFELLIJONH": [
                        "BeHit",
                        "HitAir2HitDrop"
                    ],
                    "ADPGACLPFHN": [
                        "DoSkill"
                    ]
                },
                "Struggle": {
                    "$type": "MEECNDLIOBI",
                    "HKPCLGHBKFD": {
                        "Struggle": []
                    },
                    "PJFELLIJONH": [
                        "BeHit",
                        "HitAir2HitDrop"
                    ],
                    "ADPGACLPFHN": [
                        "DoSkill"
                    ]
                },
                "Die": {
                    "$type": "MEECNDLIOBI",
                    "HKPCLGHBKFD": {
                        "Die1": [
                            "Audio_Monster_LiYue_Sergeant_Male_02_Die"
                        ],
                        "Die2": [
                            "Audio_Monster_LiYue_Sergeant_Male_02_Die"
                        ],
                        "SwimDie": [
                            "Audio_Monster_Thoarder_NoWeapon_SwimDie"
                        ],
                        "SwimDie_AS": [
                            "Audio_Monster_Thoarder_NoWeapon_SwimDie"
                        ]
                    }
                },
                "Die_RagDoll": {
                    "$type": "MEECNDLIOBI",
                    "HKPCLGHBKFD": {
                        "AirDie": []
                    },
                    "CKHCPGMBKGA": true
                },
                "Life_Alert": {
                    "$type": "MEECNDLIOBI",
                    "HKPCLGHBKFD": {
                        "Alert": [
                            "Audio_Monster_LiYue_Sergeant_Male_02_Alert"
                        ]
                    },
                    "ADPGACLPFHN": [
                        "BeHit",
                        "DoSkill"
                    ]
                },
                "Life_Warning": {
                    "$type": "MEECNDLIOBI",
                    "HKPCLGHBKFD": {
                        "Warning": [
                            "Monster_Undead01_Warning",
                            "Audio_Monster_LiYue_Sergeant_Male_02_Alert"
                        ]
                    },
                    "ADPGACLPFHN": [
                        "BeHit",
                        "DoSkill"
                    ]
                },
                "Attack01": {
                    "$type": "MEECNDLIOBI",
                    "HKPCLGHBKFD": {
                        "Attack01": [
                            "Monster_Human_Male_Pole_Attack01",
                            "Audio_Monster_LiYue_Sergeant_Male_02_Attack01"
                        ]
                    },
                    "ADPGACLPFHN": [
                        "BeHit",
                        "DoSkill"
                    ]
                },
                "Attack02": {
                    "$type": "MEECNDLIOBI",
                    "HKPCLGHBKFD": {
                        "Attack02": [
                            "Monster_Human_Male_Pole_Attack02",
                            "Audio_Monster_LiYue_Sergeant_Male_02_Attack02"
                        ]
                    },
                    "IMJBMEIKPJN": 20.0,
                    "ADPGACLPFHN": [
                        "BeHit",
                        "DoSkill"
                    ]
                },
                "WildSlam": {
                    "$type": "MEECNDLIOBI",
                    "HKPCLGHBKFD": {
                        "WildSlam": [
                            "Monster_Human_Male_Pole_WildSlam",
                            "Audio_Monster_LiYue_Sergeant_Male_02_WildSlam"
                        ]
                    },
                    "PAKNCLFMOAC": 0.6000000238418579,
                    "ADPGACLPFHN": [
                        "BeHit",
                        "DoSkill"
                    ]
                },
                "Taunt": {
                    "$type": "MEECNDLIOBI",
                    "HKPCLGHBKFD": {
                        "Taunt_1": [
                            "Audio_Monster_LiYue_Sergeant_Male_02_Taunt1"
                        ],
                        "Taunt_2": [
                            "Audio_Monster_LiYue_Sergeant_Male_02_Taunt2"
                        ]
                    },
                    "ADPGACLPFHN": [
                        "BeHit",
                        "DoSkill"
                    ]
                },
                "BackSprint": {
                    "$type": "MEECNDLIOBI",
                    "HKPCLGHBKFD": {
                        "BackSprint": [
                            "Monster_Human_Male_Pole_BackSprint",
                            "Audio_Monster_LiYue_Sergeant_Male_02_BackSprint"
                        ]
                    },
                    "ADPGACLPFHN": [
                        "BeHit",
                        "DoSkill"
                    ]
                },
                "BackSprintAttack_BS": {
                    "$type": "MEECNDLIOBI",
                    "HKPCLGHBKFD": {
                        "BackSprintAttack_BS": [
                            "Monster_Human_Male_Pole_BackSprint",
                            "Audio_Monster_LiYue_Sergeant_Male_02_BackSprint"
                        ]
                    },
                    "ADPGACLPFHN": [
                        "BeHit",
                        "DoSkill"
                    ]
                },
                "BackSprintAttack": {
                    "$type": "MEECNDLIOBI",
                    "HKPCLGHBKFD": {
                        "BackSprintAttack_Attack01": [
                            "Monster_Human_Male_Pole_Attack01",
                            "Audio_Monster_LiYue_Sergeant_Male_02_Attack01"
                        ],
                        "BackSprintAttack_Attack02": [
                            "Monster_Human_Male_Pole_Attack01",
                            "Audio_Monster_LiYue_Sergeant_Male_02_Attack01"
                        ],
                        "BackSprintAttack_Attack03": [
                            "Monster_Human_Male_Pole_Attack01",
                            "Audio_Monster_LiYue_Sergeant_Male_02_Attack01"
                        ]
                    },
                    "ADPGACLPFHN": [
                        "BeHit",
                        "DoSkill"
                    ]
                },
                "BackSprintOrder_BS": {
                    "$type": "MEECNDLIOBI",
                    "HKPCLGHBKFD": {
                        "BackSprintOrder_BS": [
                            "Monster_Human_Male_Pole_BackSprint",
                            "Audio_Monster_LiYue_Sergeant_Male_02_BackSprint"
                        ]
                    },
                    "ADPGACLPFHN": [
                        "BeHit",
                        "DoSkill"
                    ]
                },
                "Order": {
                    "$type": "MEECNDLIOBI",
                    "HKPCLGHBKFD": {
                        "Order01": [
                            "Monster_Human_Male_Pole_Order01",
                            "Audio_Monster_LiYue_Sergeant_Male_02_Order01"
                        ],
                        "Order02": [
                            "Monster_Human_Male_Pole_Order02",
                            "Audio_Monster_LiYue_Sergeant_Male_02_Order02"
                        ]
                    },
                    "ADPGACLPFHN": [
                        "BeHit",
                        "DoSkill"
                    ]
                },
                "BackSprintOrder": {
                    "$type": "MEECNDLIOBI",
                    "HKPCLGHBKFD": {
                        "BackSprintOrder": [
                            "Monster_Human_Male_Pole_Order01",
                            "Audio_Monster_LiYue_Sergeant_Male_02_Order02"
                        ]
                    },
                    "ADPGACLPFHN": [
                        "BeHit",
                        "DoSkill"
                    ]
                },
                "SurroundOrder": {
                    "$type": "MEECNDLIOBI",
                    "HKPCLGHBKFD": {
                        "SurroundOrder": [
                            "Monster_Human_Male_Pole_Order01"
                        ]
                    },
                    "ADPGACLPFHN": [
                        "BeHit",
                        "DoSkill"
                    ]
                }
            }
        }
    },
    "billboard": {
        "$type": "HFEGKLAIGGI",
        "IIKEHINGEME": "BillboardAttach",
        "offset": {
            "x": -0.05000000074505806
        },
        "GEKOGJAPMMH": "Character",
        "HECLHMINJII": 0.25,
        "DMHOOGGGDKG": true
    },
    "initialPoses": {
        "Default": {}
    },
    "aibeta": {
        "enable": true,
        "moveSetting": {
            "navMeshAgentName": "Undead01",
            "almostReachedDistanceRun": 1.5
        },
        "sensing": {
            "settings": {
                "DefaultSetting": {
                    "feelRange": 8.0
                },
                "HighAlert": {
                    "viewRange": 40.0,
                    "feelRange": 10.0
                }
            },
            "templates": {
                "DefaultTemplate": {
                    "DefaultPoses": "DefaultSetting"
                },
                "HighAlertTemplate": {
                    "DefaultPoses": "HighAlert"
                }
            }
        },
        "neurons": {
            "DefaultSetting": [
                "HIT"
            ]
        },
        "threat": {
            "clearThreatByLostPath": true,
            "clearThreatTimerByDistance": 3.0,
            "viewAttenuation": [
                {
                    "x": 10.0,
                    "y": 2.0
                },
                {
                    "x": 15.0,
                    "y": 0.800000011920929
                },
                {
                    "x": 20.0,
                    "y": 0.5
                },
                {
                    "x": 25.0,
                    "y": 0.30000001192092896
                },
                {
                    "x": 30.0,
                    "y": 0.20000000298023224
                }
            ]
        },
        "defendArea": {},
        "profiling": {},
        "skillGroupCDConfigs": [
            {
                "skillGroupCDID": 1,
                "skillGroupCDTime": 7.0
            },
            {
                "skillGroupCDID": 2,
                "skillGroupCDTime": 9.0
            },
            {
                "skillGroupCDID": 3,
                "skillGroupCDTime": 6.0
            },
            {
                "skillGroupCDID": 4,
                "skillGroupCDTime": 12.0
            }
        ],
        "skills": {
            "101": {
                "name": "OnAlert",
                "skillType": "OnAlert",
                "faceTarget": true,
                "publicCDGroup": "",
                "ignoreGCD": true,
                "triggerGCD": false,
                "CLEPNIDJOLN": "",
                "stateIDs": [
                    "Life_Warning"
                ],
                "skillQueryingTime": 3.0,
                "flagTargetReachable": "10",
                "flagSelfOnTemplateCollider": "01",
                "flagSelfInZone": "10",
                "flagTargetInZone": "11"
            },
            "210": {
                "name": "Attack01",
                "combatSkillType": "MeleeAttack",
                "enableSkillPrepare": true,
                "castCondition": {
                    "pose": [
                        1001
                    ],
                    "maxTargetAngleXZ": 60.0,
                    "pickRangeMin": 2.0,
                    "pickRangeMax": 15.0,
                    "castRangeMax": 3.5
                },
                "cd": 3.0,
                "cdUpperRange": 1.0,
                "initialCD": 3.0,
                "publicCDGroup": "",
                "skillGroupCDID": 3,
                "CLEPNIDJOLN": "",
                "stateIDs": [
                    "Attack01"
                ],
                "flagTargetReachable": "10",
                "flagSelfOnTemplateCollider": "01",
                "flagSelfInZone": "10",
                "flagTargetInZone": "11"
            },
            "211": {
                "name": "Attack01_WithSoldier",
                "combatSkillType": "MeleeAttack",
                "enableSkillPrepare": true,
                "castCondition": {
                    "pose": [
                        1002
                    ],
                    "maxTargetAngleXZ": 60.0,
                    "pickRangeMin": 2.0,
                    "pickRangeMax": 15.0,
                    "castRangeMax": 3.5
                },
                "cd": 9.0,
                "cdUpperRange": 1.0,
                "initialCD": 9.0,
                "initialCDUpperRange": 4.0,
                "publicCDGroup": "",
                "skillGroupCDID": 4,
                "CLEPNIDJOLN": "",
                "stateIDs": [
                    "Attack01"
                ],
                "flagTargetReachable": "10",
                "flagSelfOnTemplateCollider": "01",
                "flagSelfInZone": "10",
                "flagTargetInZone": "11"
            },
            "220": {
                "name": "Attack02",
                "priority": 3,
                "enableSkillPrepare": true,
                "castCondition": {
                    "pose": [
                        1001
                    ],
                    "maxTargetAngleXZ": 60.0,
                    "pickRangeMax": 4.0,
                    "castRangeMax": 3.5
                },
                "cd": 3.0,
                "cdUpperRange": 1.0,
                "initialCD": 3.0,
                "publicCDGroup": "meleeAttack_long",
                "skillGroupCDID": 3,
                "CLEPNIDJOLN": "",
                "stateIDs": [
                    "Attack02"
                ],
                "flagTargetReachable": "10",
                "flagSelfOnTemplateCollider": "01",
                "flagSelfInZone": "10",
                "flagTargetInZone": "11"
            },
            "221": {
                "name": "Attack02_WithSoldier",
                "priority": 3,
                "enableSkillPrepare": true,
                "castCondition": {
                    "pose": [
                        1002
                    ],
                    "maxTargetAngleXZ": 60.0,
                    "pickRangeMax": 4.0,
                    "castRangeMax": 3.5
                },
                "cd": 5.0,
                "cdUpperRange": 1.0,
                "initialCD": 9.0,
                "initialCDUpperRange": 4.0,
                "publicCDGroup": "meleeAttack_long",
                "skillGroupCDID": 4,
                "CLEPNIDJOLN": "",
                "stateIDs": [
                    "Attack02"
                ],
                "flagTargetReachable": "10",
                "flagSelfOnTemplateCollider": "01",
                "flagSelfInZone": "10",
                "flagTargetInZone": "11"
            },
            "230": {
                "name": "WildSlam",
                "priority": 2,
                "enableSkillPrepare": true,
                "castCondition": {
                    "pose": [
                        1001
                    ],
                    "maxTargetAngleXZ": 90.0,
                    "pickRangeMin": 3.0,
                    "pickRangeMax": 20.0,
                    "castRangeMin": 1.5,
                    "castRangeMax": 3.5
                },
                "cd": 10.0,
                "cdUpperRange": 5.0,
                "initialCD": 10.0,
                "publicCDGroup": "meleeAttack_long",
                "CLEPNIDJOLN": "",
                "stateIDs": [
                    "WildSlam"
                ],
                "flagTargetReachable": "10",
                "flagSelfOnTemplateCollider": "01",
                "flagSelfInZone": "10",
                "flagTargetInZone": "11"
            },
            "231": {
                "name": "WildSlam_WithSoldier",
                "priority": 2,
                "enableSkillPrepare": true,
                "castCondition": {
                    "pose": [
                        1002
                    ],
                    "maxTargetAngleXZ": 90.0,
                    "pickRangeMin": 3.0,
                    "pickRangeMax": 20.0,
                    "castRangeMin": 1.5,
                    "castRangeMax": 3.5
                },
                "cd": 15.0,
                "cdUpperRange": 5.0,
                "initialCD": 15.0,
                "publicCDGroup": "meleeAttack_long",
                "skillGroupCDID": 4,
                "CLEPNIDJOLN": "",
                "stateIDs": [
                    "WildSlam"
                ],
                "flagTargetReachable": "10",
                "flagSelfOnTemplateCollider": "01",
                "flagSelfInZone": "10",
                "flagTargetInZone": "11"
            },
            "401": {
                "name": "BackSprint",
                "priority": 2,
                "faceTarget": true,
                "castCondition": {
                    "pose": [
                        1001,
                        1002
                    ],
                    "maxTargetAngleY": 45.0,
                    "pickRangeMax": 2.0
                },
                "cd": 2.0,
                "cdUpperRange": 2.0,
                "publicCDGroup": "RandomAction",
                "ignoreGCD": true,
                "triggerGCD": false,
                "skillGroupCDID": 1,
                "CLEPNIDJOLN": "",
                "stateIDs": [
                    "BackSprint"
                ],
                "flagTargetReachable": "10",
                "flagSelfOnTemplateCollider": "01",
                "flagSelfInZone": "10",
                "flagTargetInZone": "11"
            },
            "402": {
                "name": "BackSprintAttack",
                "priority": 2,
                "faceTarget": true,
                "castCondition": {
                    "pose": [
                        1001,
                        1002
                    ],
                    "maxTargetAngleY": 45.0,
                    "pickRangeMax": 2.0
                },
                "cd": 2.0,
                "cdUpperRange": 2.0,
                "initialCD": 10.0,
                "publicCDGroup": "RandomAction",
                "ignoreGCD": true,
                "triggerGCD": false,
                "skillGroupCDID": 1,
                "CLEPNIDJOLN": "",
                "stateIDs": [
                    "BackSprintAttack_BS",
                    "BackSprintAttack"
                ],
                "flagTargetReachable": "10",
                "flagSelfOnTemplateCollider": "01",
                "flagSelfInZone": "10",
                "flagTargetInZone": "11"
            },
            "501": {
                "name": "Order01",
                "priority": 2,
                "faceTarget": true,
                "castCondition": {
                    "pose": [
                        1002
                    ],
                    "maxTargetAngleY": 45.0,
                    "pickRangeMin": 1.0,
                    "pickRangeMax": 30.0
                },
                "cd": 5.0,
                "cdUpperRange": 3.0,
                "publicCDGroup": "RandomAction",
                "skillGroupCDID": 2,
                "CLEPNIDJOLN": "",
                "stateIDs": [
                    "Order"
                ],
                "flagTargetReachable": "10",
                "flagSelfOnTemplateCollider": "01",
                "flagSelfInZone": "10",
                "flagTargetInZone": "11"
            },
            "901": {
                "name": "Taunt",
                "priority": 2,
                "faceTarget": true,
                "castCondition": {
                    "pose": [
                        1001
                    ],
                    "maxTargetAngleY": 45.0,
                    "pickRangeMin": 8.0,
                    "pickRangeMax": 30.0
                },
                "cd": 5.0,
                "cdUpperRange": 5.0,
                "initialCD": 6.0,
                "publicCDGroup": "RandomAction",
                "CLEPNIDJOLN": "",
                "stateIDs": [
                    "Taunt"
                ],
                "flagTargetReachable": "10",
                "flagSelfOnTemplateCollider": "01",
                "flagSelfInZone": "10",
                "flagTargetInZone": "11"
            }
        },
        "skillGCD": 3.0,
        "combatFixedMoveTactic": [
            {
                "$type": "KIMPOLMEFNK",
                "enable": true,
                "EGJMGEHLDOL": {
                    "pose": [
                        1001,
                        1002
                    ]
                },
                "NGIEOIGFFDH": {
                    "rangeMin": 3.0,
                    "rangeMax": 7.0,
                    "ODLFCBFIAEG": {
                        "ACLMEMJMCHO": 2.0,
                        "MKGIHLDDOPO": 0.0,
                        "AIMKHLAPJGH": 0.0
                    },
                    "EOBOHLNDGNC": "1111",
                    "JFAHEKLBENF": "1111",
                    "FCFLCFFJKLO": ""
                },
                "LKIMAMPDDDI": {
                    "1002": {
                        "rangeMin": 5.5,
                        "rangeMax": 8.5,
                        "ODLFCBFIAEG": {
                            "ACLMEMJMCHO": 2.0,
                            "MKGIHLDDOPO": 0.0,
                            "AIMKHLAPJGH": 0.0
                        },
                        "EOBOHLNDGNC": "1111",
                        "JFAHEKLBENF": "1111",
                        "FCFLCFFJKLO": ""
                    }
                }
            },
            {
                "$type": "HJAAEJGAIKI",
                "EGJMGEHLDOL": {
                    "pose": [
                        1001
                    ]
                },
                "NGIEOIGFFDH": {
                    "MONCHHKIDKL": 3.0,
                    "cd": 2.5,
                    "MHAAHHOKBPA": 2.5,
                    "MGPKJELEDFK": 4.5,
                    "MHGOOAOGENO": 4.0
                }
            },
            {
                "$type": "AIFAIEAELGP",
                "enable": true,
                "EGJMGEHLDOL": {
                    "pose": [
                        1
                    ]
                }
            },
            {
                "$type": "HLPBLIEBJLM",
                "enable": true,
                "EGJMGEHLDOL": {
                    "pose": [
                        1001,
                        1002
                    ]
                },
                "NGIEOIGFFDH": {
                    "GPKNKJPPCOM": 10.0,
                    "NDCHJGOOLCF": 50.0,
                    "FDNLEPNLLBP": 8.5,
                    "DANCMNIMNAM": 0.0,
                    "FCFLCFFJKLO": ""
                }
            },
            {
                "$type": "IPNDPOAANNE",
                "enable": true,
                "NGIEOIGFFDH": {}
            },
            {
                "$type": "GJGILIGEJMO",
                "enable": true,
                "NGIEOIGFFDH": {
                    "FCFLCFFJKLO": "",
                    "BKCOJDIDEGN": ""
                }
            },
            {
                "$type": "IKIHDEMELGB",
                "enable": true,
                "EGJMGEHLDOL": {
                    "pose": [
                        1
                    ]
                },
                "NGIEOIGFFDH": {
                    "HOKGJAONGHG": 3.0,
                    "GJOBDMEBGLM": 1.5,
                    "KDLAOJIPGHP": 15.0,
                    "OEFFOIEOJNC": 3.75,
                    "HAHMEDHEBKE": 7.5,
                    "FCFLCFFJKLO": ""
                }
            }
        ]
    },
    "inputKeys": [
        {
            "keyID": 210,
            "inputKeyCode": 257,
            "abilityName": ""
        },
        {
            "keyID": 220,
            "inputKeyCode": 258,
            "abilityName": ""
        },
        {
            "keyID": 230,
            "inputKeyCode": 259,
            "abilityName": ""
        },
        {
            "keyID": 401,
            "inputKeyCode": 260,
            "abilityName": ""
        },
        {
            "keyID": 501,
            "inputKeyCode": 261,
            "abilityName": ""
        },
        {
            "keyID": 502,
            "inputKeyCode": 262,
            "abilityName": ""
        },
        {
            "keyID": 902,
            "inputKeyCode": 263,
            "abilityName": ""
        }
    ],
    "move": {
        "$type": "JKDLANFKJIL",
        "ADKJOFPNHNO": "FourDirection",
        "LPAKBBIADNC": "RootNode"
    },
    "audio": {
        "LKJIHNLBIJL": "",
        "animAudio": {},
        "disableEvent": {
            "text": ""
        },
        "destroyEvent": {
            "text": ""
        },
        "randomVariantSwitchGroup": {
            "text": ""
        },
        "randomVariantSwitchValues": [
            {
                "text": ""
            }
        ]
    }
}