{
    "common": {
        "effectAttachShape": {
            "$type": "DPGKNHENGLM",
            "DDDEJPIFECG": "EffectMesh"
        },
        "mass": 20.0,
        "height": 0.800000011920929,
        "modelHeight": 0.4000000059604645,
        "affectedByWorld": true,
        "checkInSurface": true,
        "scale": 2.0,
        "useGrassDisplacement": true,
        "BKPPECPBMBF": true
    },
    "combat": {
        "property": {
            "endureType": "Monster_Slime",
            "weight": 60.0
        },
        "beHit": {
            "hitBloodEffect": ""
        },
        "combatLock": {
            "lockShape": "CircleLockEnemy",
            "lockType": "Avatar&Monster_Lv4"
        },
        "die": {
            "dieEndTime": 2.0,
            "dieForceDisappearTime": 8.0,
            "dieDisappearEffect": "",
            "muteHitBox": true,
            "dieDenyLockOn": true,
            "dieIsGhostToEnemy": true,
            "dieIgnoreTriggerBullet": true,
            "muteBillboard": true,
            "mutePushCollider": true
        },
        "animEvents": {
            "NormalAtk": {
                "attackPattern": {
                    "$type": "AGJFCPDIMCK",
                    "triggerType": "TriggerNoRepeat",
                    "born": {
                        "$type": "NKOODKOFELF",
                        "offset": {
                            "GNGDNIIPPNL": 0.0,
                            "GIIMFINHIED": 0.5,
                            "CLBCHJICOKH": 0.5
                        }
                    },
                    "IAMPMDAOKJL": 150.0,
                    "LOACHGCADCO": 0.75
                },
                "attackInfo": {
                    "attackTag": "",
                    "attenuationTag": "",
                    "attenuationGroup": "default",
                    "attackProperty": {
                        "HOGNHNAHNML": 1.0,
                        "BAPILBAGBOJ": 0.0,
                        "bonusCriticalHurt": 100.0,
                        "strikeType": "Blunt",
                        "enBreak": 60.0,
                        "attackType": "Melee",
                        "damagePercentage": 0.0
                    },
                    "hitPattern": {
                        "onHitEffectName": "default",
                        "hitImpulseType": "LV2"
                    }
                }
            }
        }
    },
    "equipController": {
        "sheathPoint": "",
        "attachPoints": {
            "equip01": "WeaponR",
            "equip02": "WeaponL"
        }
    },
    "abilities": [
        {
            "abilityID": "AIStateControl",
            "abilityName": "Slime_Grass_02_AIStateControl",
            "abilityOverride": ""
        },
        {
            "abilityID": "DrillOut",
            "abilityName": "Slime_Grass_02_DrillOut",
            "abilityOverride": ""
        },
        {
            "abilityID": "ElementState",
            "abilityName": "Slime_Grass_02_ElementState",
            "abilityOverride": ""
        },
        {
            "abilityID": "UnderGround",
            "abilityName": "Slime_Grass_02_UnderGround",
            "abilityOverride": ""
        },
        {
            "abilityID": "UnderAttack",
            "abilityName": "Slime_Grass_02_UnderAttack",
            "abilityOverride": ""
        },
        {
            "abilityID": "AnimationSteer",
            "abilityName": "Slime_Grass_02_AnimationSteer",
            "abilityOverride": ""
        },
        {
            "abilityID": "GrassMuteHurt",
            "abilityName": "Monster_Common_GrassMuteHurt",
            "abilityOverride": ""
        }
    ],
    "stateLayers": {
        "defaultLayer": {
            "$type": "EPAPJJAGHKG",
            "ACOCIAFGIAD": "",
            "stateIDs": {
                "Born": {
                    "$type": "IJOIMFMEGMM",
                    "DLOHGBDFFGB": {
                        "Born": []
                    },
                    "PGKCBIHGAOC": true,
                    "DLAOMOCMANL": [
                        "DoSkill"
                    ]
                },
                "NormalIdle": {
                    "$type": "IJOIMFMEGMM",
                    "DLOHGBDFFGB": {
                        "Standby": []
                    },
                    "POLKCLOHPOO": true,
                    "PGKCBIHGAOC": true,
                    "DLAOMOCMANL": [
                        "DoSkill"
                    ]
                },
                "NormalIdle_Under": {
                    "$type": "IJOIMFMEGMM",
                    "DLOHGBDFFGB": {
                        "Standby_Under": [],
                        "Stop": [
                            "Audio_Slime_Grass_02_Walk_Under_Stop"
                        ],
                        "Watch_Random": []
                    },
                    "POLKCLOHPOO": true,
                    "PGKCBIHGAOC": true,
                    "AJBLILDCLBO": [
                        "AttackStopTrigger"
                    ],
                    "DLAOMOCMANL": [
                        "DoSkill"
                    ]
                },
                "Turn": {
                    "$type": "IJOIMFMEGMM",
                    "DLOHGBDFFGB": {
                        "Turn": [
                            "Audio_Slime_02_Run"
                        ],
                        "Watch": [
                            "Monster_Slime_Grass_02_Watch"
                        ],
                        "UnderAttack_Watch": [
                            "Monster_Slime_Grass_02_Watch"
                        ]
                    },
                    "POLKCLOHPOO": true,
                    "PGKCBIHGAOC": true,
                    "DLAOMOCMANL": [
                        "DoSkill"
                    ],
                    "LIPMJPLGIKD": true,
                    "HMPOMAMKBEF": true
                },
                "Turn_Under": {
                    "$type": "IJOIMFMEGMM",
                    "DLOHGBDFFGB": {
                        "Turn_Under": [],
                        "Watch_BS": [
                            "Audio_Slime_Grass_02_Watch_BS",
                            "Monster_Slime_Grass_02_Watch"
                        ],
                        "Watch_AS": [
                            "Audio_Slime_Grass_02_Watch_AS",
                            "Monster_Slime_Grass_02_Watch"
                        ],
                        "UnderAttack_Watch_BS": [
                            "Audio_Slime_Grass_02_Watch_BS",
                            "Monster_Slime_Grass_02_Watch"
                        ]
                    },
                    "POLKCLOHPOO": true,
                    "PGKCBIHGAOC": true,
                    "AJBLILDCLBO": [
                        "AttackStopTrigger"
                    ],
                    "DLAOMOCMANL": [
                        "DoSkill"
                    ],
                    "LIPMJPLGIKD": true,
                    "HMPOMAMKBEF": true
                },
                "NormalMove": {
                    "$type": "IJOIMFMEGMM",
                    "DLOHGBDFFGB": {
                        "Walk": [
                            "Audio_Slime_02_Walk"
                        ],
                        "Run": [
                            "Audio_Slime_02_Run"
                        ],
                        "Run_OnFire": [
                            "Audio_Slime_Grass_02_Run_OnFire"
                        ]
                    },
                    "POLKCLOHPOO": true,
                    "PGKCBIHGAOC": true,
                    "DLAOMOCMANL": [
                        "DoSkill"
                    ],
                    "LIPMJPLGIKD": true
                },
                "NormalMove_Under": {
                    "$type": "IJOIMFMEGMM",
                    "DLOHGBDFFGB": {
                        "Walk_Under": [],
                        "Run_Under": []
                    },
                    "POLKCLOHPOO": true,
                    "PGKCBIHGAOC": true,
                    "AJBLILDCLBO": [
                        "WalkRandom"
                    ],
                    "DLAOMOCMANL": [
                        "DoSkill"
                    ],
                    "LIPMJPLGIKD": true
                },
                "Scared": {
                    "$type": "IJOIMFMEGMM",
                    "DLOHGBDFFGB": {
                        "Watch_Stop": [
                            "Monster_Slime_Grass_02_Stop",
                            "Audio_Slime_Grass_02_Watch_Stop"
                        ],
                        "UnderAttack_Stop": [
                            "Monster_Slime_Grass_02_Stop",
                            "Audio_Slime_Grass_02_UnderAttack_Stop"
                        ]
                    },
                    "DLAOMOCMANL": [
                        "BeHit",
                        "DoSkill"
                    ]
                },
                "BeHit": {
                    "$type": "IJOIMFMEGMM",
                    "DLOHGBDFFGB": {
                        "Hit_L": [
                            "Monster_Slime_BeHit",
                            "Audio_Slime_02_Hit_L"
                        ],
                        "Hit_H": [
                            "Monster_Slime_BeHit",
                            "Audio_Slime_02_Hit_H"
                        ]
                    },
                    "AJBLILDCLBO": [
                        "BeHit"
                    ],
                    "DLAOMOCMANL": [
                        "DoSkill"
                    ]
                },
                "BeHitThrow": {
                    "$type": "IJOIMFMEGMM",
                    "DLOHGBDFFGB": {
                        "HitThrow": [
                            "Monster_Slime_BeHit",
                            "Audio_Slime_02_HitThrow"
                        ],
                        "HitThrowDrop": [],
                        "HitThrowToGround": [
                            "Monster_Slime_ThrowToGround_02",
                            "Audio_Slime_02_HitThrowToGround"
                        ]
                    },
                    "AJBLILDCLBO": [
                        "BeHit",
                        "HitAir2HitDrop"
                    ],
                    "DLAOMOCMANL": [
                        "DoSkill"
                    ]
                },
                "Struggle": {
                    "$type": "IJOIMFMEGMM",
                    "DLOHGBDFFGB": {
                        "Struggle": []
                    },
                    "AJBLILDCLBO": [
                        "BeHit",
                        "HitAir2HitDrop"
                    ],
                    "DLAOMOCMANL": [
                        "DoSkill"
                    ]
                },
                "Die": {
                    "$type": "IJOIMFMEGMM",
                    "DLOHGBDFFGB": {
                        "Die": [
                            "Monster_Slime_Die",
                            "Monster_Slime_Grass_02_Die",
                            "Audio_Slime_Water_02_Die"
                        ],
                        "SwimDie": [
                            "Monster_Slime_Die",
                            "Monster_Slime_Grass_02_Die",
                            "Audio_Slime_Water_02_Die"
                        ]
                    }
                },
                "Borrow": {
                    "$type": "IJOIMFMEGMM",
                    "DLOHGBDFFGB": {
                        "Borrow": [
                            "Monster_Slime_Grass_02_Burrow",
                            "Audio_Slime_Grass_02_Borrow"
                        ]
                    },
                    "DLAOMOCMANL": [
                        "BeHit",
                        "DoSkill"
                    ]
                },
                "DrillOut": {
                    "$type": "IJOIMFMEGMM",
                    "DLOHGBDFFGB": {
                        "DrillOut": [
                            "Monster_Slime_Grass_02_DrillOut",
                            "Audio_Slime_Grass_02_DrillOut"
                        ]
                    },
                    "OGNDLAMHMPB": 0.0,
                    "DLAOMOCMANL": [
                        "BeHit",
                        "DoSkill"
                    ]
                },
                "NormalAttack": {
                    "$type": "IJOIMFMEGMM",
                    "DLOHGBDFFGB": {
                        "NormalAttack": [
                            "Monster_Slime_NormalAttack_02",
                            "Monster_Slime_Grass_02_NormalAttack",
                            "Audio_Slime_02_NormalAtk"
                        ]
                    },
                    "DLAOMOCMANL": [
                        "BeHit",
                        "DoSkill"
                    ],
                    "CFGFMHDOEBF": true
                },
                "UnderAttack": {
                    "$type": "IJOIMFMEGMM",
                    "DLOHGBDFFGB": {
                        "UnderAttack": [
                            "Monster_Slime_Grass_02_UnderAttack",
                            "Audio_Slime_Grass_02_UnderAttack"
                        ],
                        "UnderAttack_AS": [
                            "Monster_Slime_Grass_02_UnderAttack_AS"
                        ]
                    },
                    "AJBLILDCLBO": [
                        "AttackStopTrigger"
                    ],
                    "DLAOMOCMANL": [
                        "BeHit",
                        "DoSkill"
                    ]
                }
            }
        }
    },
    "face": {
        "characterName": "Slime_01",
        "baseFaceAnimation": "Default",
        "intervalFaceAnimation": "Blink",
        "minInterval": 1.5,
        "maxInterval": 5.5
    },
    "billboard": {
        "$type": "PAOBAEKGGBC",
        "attachPoint": "BillboardAttach",
        "EMFFJPOKEKF": "Character",
        "LOMMBJLKPHE": 0.5,
        "KGHAGECNJPO": true
    },
    "initialPoses": {
        "Default": {
            "initialPoseID": 201,
            "initialPoseParams": {
                "boolParams": {
                    "ElementState": "true",
                    "UnderGround": "true"
                }
            }
        },
        "OnGround": {
            "initialPoseID": 101,
            "initialPoseParams": {
                "boolParams": {
                    "ElementState": "true",
                    "UnderGround": "false"
                }
            }
        }
    },
    "aibeta": {
        "enable": true,
        "moveSetting": {
            "navMeshAgentName": "Undead01",
            "almostReachedDistanceRun": 2.0
        },
        "sensing": {
            "settings": {
                "DefaultSetting": {
                    "enableVision": false
                },
                "OnGround": {
                    "viewRange": 15.0
                }
            },
            "templates": {
                "DefaultTemplate": {
                    "DefaultPoses": "DefaultSetting",
                    "101": "OnGround"
                }
            }
        },
        "threat": {
            "clearThreatTargetDistance": 30.0,
            "clearThreatEdgeDistance": 4.5,
            "clearThreatTimerByDistance": 0.5,
            "JGFOPCOIJOI": ""
        },
        "profiling": {
            "lodStrategy": "Best"
        },
        "skills": {
            "100": {
                "name": "Borrow",
                "skillType": "OnAlert",
                "faceTarget": true,
                "castCondition": {
                    "pose": [
                        101
                    ]
                },
                "publicCDGroup": "",
                "triggerGCD": false,
                "HGAMDGAEIGO": "",
                "stateIDs": [
                    "Borrow"
                ],
                "skillQueryingTime": 3.0,
                "flagTargetReachable": "10",
                "flagSelfOnTemplateCollider": "01",
                "flagSelfInZone": "10",
                "flagTargetInZone": "11"
            },
            "101": {
                "name": "DrillOut",
                "skillType": "Free",
                "castCondition": {
                    "pose": [
                        201
                    ]
                },
                "cd": 0.25,
                "initialCD": 15.0,
                "initialCDUpperRange": 30.0,
                "publicCDGroup": "",
                "triggerGCD": false,
                "HGAMDGAEIGO": "",
                "stateIDs": [
                    "DrillOut"
                ],
                "flagTargetReachable": "10",
                "flagSelfOnTemplateCollider": "01",
                "flagSelfInZone": "10",
                "flagTargetInZone": "11"
            },
            "102": {
                "name": "Borrow",
                "skillType": "Free",
                "castCondition": {
                    "pose": [
                        101
                    ]
                },
                "cd": 0.25,
                "initialCD": 15.0,
                "initialCDUpperRange": 30.0,
                "publicCDGroup": "",
                "triggerGCD": false,
                "HGAMDGAEIGO": "",
                "stateIDs": [
                    "Borrow"
                ],
                "flagTargetReachable": "10",
                "flagSelfOnTemplateCollider": "01",
                "flagSelfInZone": "10",
                "flagTargetInZone": "11"
            },
            "301": {
                "name": "NormalAttack",
                "combatSkillType": "MeleeAttack",
                "enableSkillPrepare": true,
                "castCondition": {
                    "pose": [
                        401,
                        402
                    ],
                    "pickRangeMin": 1.5,
                    "pickRangeMax": 4.5,
                    "castRangeMin": 1.5,
                    "castRangeMax": 2.5
                },
                "cd": 2.5,
                "publicCDGroup": "",
                "HGAMDGAEIGO": "",
                "stateIDs": [
                    "NormalAttack"
                ],
                "flagTargetReachable": "10",
                "flagSelfOnTemplateCollider": "01",
                "flagSelfInZone": "10",
                "flagTargetInZone": "11"
            },
            "302": {
                "name": "NormalAttack",
                "combatSkillType": "MeleeAttack",
                "castCondition": {
                    "pose": [
                        401,
                        402
                    ],
                    "pickRangeMax": 2.5
                },
                "cd": 2.5,
                "publicCDGroup": "",
                "HGAMDGAEIGO": "",
                "stateIDs": [
                    "NormalAttack"
                ],
                "flagTargetReachable": "10",
                "flagSelfOnTemplateCollider": "01",
                "flagSelfInZone": "01",
                "flagTargetInZone": "11"
            },
            "401": {
                "name": "UnderAttack",
                "combatSkillType": "MeleeAttack",
                "faceTarget": true,
                "castCondition": {
                    "pose": [
                        301
                    ],
                    "pickRangeMin": 1.5,
                    "pickRangeMax": 3.0
                },
                "cd": 3.5,
                "cdUpperRange": 4.0,
                "publicCDGroup": "",
                "HGAMDGAEIGO": "",
                "stateIDs": [
                    "Turn",
                    "Turn_Under",
                    "UnderAttack"
                ],
                "flagTargetReachable": "10",
                "flagSelfOnTemplateCollider": "01",
                "flagSelfInZone": "10",
                "flagTargetInZone": "11"
            }
        },
        "skillGCD": 2.5,
        "combatFixedMoveTactic": [
            {
                "$type": "GIMIMAJNOPH",
                "enable": true,
                "FJANPNOAAFK": {
                    "pose": [
                        312,
                        401,
                        402,
                        501
                    ]
                },
                "LMMKNFEMOMG": {
                    "cd": 0.0,
                    "triggerDistance": 4.0,
                    "IFCLJHAJFHD": 15.0,
                    "NBBIJDCLJOF": 1.25,
                    "MHMMABHJIIA": 2.75,
                    "JHFLNKPOHHO": true,
                    "JOCOJHEICNA": ""
                },
                "BIDHHBJEKHM": {
                    "312": {
                        "GEAICNICJAJ": 1080.0,
                        "cd": 0.0,
                        "triggerDistance": 200.0,
                        "IFCLJHAJFHD": 15.0,
                        "NBBIJDCLJOF": 7.0,
                        "MHMMABHJIIA": 9.0,
                        "JHFLNKPOHHO": true,
                        "JOCOJHEICNA": ""
                    },
                    "501": {
                        "cd": 0.0,
                        "triggerDistance": 200.0,
                        "IFCLJHAJFHD": 120.0,
                        "NBBIJDCLJOF": 2.5,
                        "MHMMABHJIIA": 5.0,
                        "JOCOJHEICNA": ""
                    }
                }
            },
            {
                "$type": "BNAGECKMCIB",
                "enable": true,
                "FJANPNOAAFK": {
                    "pose": [
                        301,
                        401,
                        402
                    ]
                },
                "LMMKNFEMOMG": {
                    "MPEMBMLOEDG": 4.5,
                    "IJLGPEJGLEH": 99.0,
                    "JKOGPCLFHCP": 4.0,
                    "IHCAFCNDANA": 4.5,
                    "JOCOJHEICNA": ""
                },
                "BIDHHBJEKHM": {
                    "301": {
                        "KIHPEPHJMOG": 1,
                        "MPEMBMLOEDG": 5.0,
                        "IJLGPEJGLEH": 30.0,
                        "JKOGPCLFHCP": 3.5,
                        "JOCOJHEICNA": ""
                    }
                }
            },
            {
                "$type": "KMHBGMELMKD",
                "enable": true
            },
            {
                "$type": "GGKADEIBMLG",
                "enable": true,
                "FJANPNOAAFK": {
                    "pose": [
                        101,
                        102
                    ]
                },
                "LMMKNFEMOMG": {
                    "JIFJFPJANHO": 5.0,
                    "CBKHBGCPFBG": 2.0,
                    "EKDHNAGGGAE": 15.0,
                    "BFEJAKFKKFP": 2.5,
                    "KOAMKCEFJED": 7.5,
                    "JOCOJHEICNA": ""
                }
            }
        ]
    },
    "inputKeys": [
        {
            "keyID": 301,
            "inputKeyCode": 257,
            "abilityName": ""
        },
        {
            "keyID": 401,
            "inputKeyCode": 258,
            "abilityName": ""
        },
        {
            "keyID": 101,
            "inputKeyCode": 259,
            "abilityName": ""
        },
        {
            "keyID": 102,
            "inputKeyCode": 260,
            "abilityName": ""
        }
    ],
    "move": {
        "$type": "IIGPJJNGCLE",
        "BEPOPLDKJOP": "SlimeType",
        "FACNOEFNHIB": "RootNode"
    },
    "audio": {
        "KEEAIACIJBN": "",
        "animAudio": {
            "onTransitionIn": [
                {
                    "currentStateName": "Run_Under",
                    "audioEvent": {
                        "text": "Play_sfx_monster_slime_02_grass_runUnder_lp"
                    }
                },
                {
                    "currentStateName": "Walk_Under",
                    "audioEvent": {
                        "text": "Play_sfx_monster_slime_02_grass_walkUnder_lp"
                    }
                }
            ],
            "onTransitionOut": [
                {
                    "currentStateName": "Run_Under",
                    "audioEvent": {
                        "text": "Stop_sfx_monster_slime_02_grass_runUnder_lp"
                    }
                },
                {
                    "currentStateName": "Walk_Under",
                    "audioEvent": {
                        "text": "Stop_sfx_monster_slime_02_grass_walkUnder_lp"
                    }
                }
            ]
        }
    }
}