{
    "common": {
        "effectAttachShape": {
            "$type": "DPGKNHENGLM",
            "DDDEJPIFECG": "EffectMesh"
        },
        "mass": 10000.0,
        "height": 2.0,
        "modelHeight": 1.7999999523162842,
        "viewSize": 1.5,
        "affectedByWorld": true,
        "checkInSurface": true,
        "scale": 1.100000023841858,
        "useGrassDisplacement": true,
        "clearAnimatorOnSetLightDeactive": true,
        "clearAIOnSetLightDeactive": true,
        "BKPPECPBMBF": true,
        "LOGFKHMLOOL": true
    },
    "headControl": {
        "$type": "NJIKCGBDNDF",
        "useHeadControl": true,
        "IKIJCPNMBHI": 20.0,
        "FMKKBCJKMPH": 5.0,
        "FDPCOFKGCHG": [
            "NormalIdle/Standby",
            "NormalMove/WalkForward",
            "NormalMove/WalkBack",
            "NormalMove/WalkRight",
            "NormalMove/WalkLeft",
            "NormalMove/Run",
            "Turn/TurnLeft",
            "Turn/TurnRight"
        ]
    },
    "model": {
        "bornEffect": "Eff_Monster_Common_Born",
        "attachEffect": ""
    },
    "dither": {
        "showDitherDuration": 1.0
    },
    "combat": {
        "property": {
            "endureType": "Monster_Demiboss_Humanoid",
            "weight": 80.0
        },
        "beHit": {
            "hitBloodEffect": ""
        },
        "combatLock": {
            "lockShape": "CircleLockEnemy",
            "lockType": "Avatar&Monster_Lv4"
        },
        "die": {
            "hasAnimatorDie": true,
            "dieEndTime": 2.0,
            "dieForceDisappearTime": 8.0,
            "dieDisappearEffect": "",
            "dieShaderData": "EremiteSandDie",
            "dieShaderEnableDurationTime": 1.0,
            "muteHitBox": true,
            "dieDenyLockOn": true,
            "dieIsGhostToEnemy": true,
            "dieIgnoreTriggerBullet": true,
            "muteBillboard": true,
            "mutePushCollider": true
        },
        "summon": {
            "summonTags": [
                {
                    "summonTag": 25110301,
                    "name": "Scorpion_Eremite_Fire_01",
                    "copyOwnerThreatList": true,
                    "LGEKCILCMBA": true
                }
            ]
        }
    },
    "abilities": [
        {
            "abilityID": "SteerControl",
            "abilityName": "Monster_Eremite_Female_Standard_Oracle_StreeController",
            "abilityOverride": ""
        },
        {
            "abilityID": "FightController",
            "abilityName": "Monster_Eremite_Female_Standard_Oracle_FightController",
            "abilityOverride": ""
        },
        {
            "abilityID": "Improve",
            "abilityName": "Monster_Eremite_Female_Standard_Oracle_Improve",
            "abilityOverride": ""
        },
        {
            "abilityID": "Summon",
            "abilityName": "Monster_Eremite_Female_Standard_Oracle_Summon",
            "abilityOverride": ""
        },
        {
            "abilityID": "LoopEffect",
            "abilityName": "Monster_Eremite_Female_Standard_Oracle_Improve_LoopEffect",
            "abilityOverride": ""
        },
        {
            "abilityID": "Weak",
            "abilityName": "Monster_Eremite_Female_Standard_Oracle_Weak",
            "abilityOverride": ""
        },
        {
            "abilityID": "ReturnToBorn",
            "abilityName": "Monster_Eremite_Female_Standard_Oracle_ReturnToBorn",
            "abilityOverride": ""
        },
        {
            "abilityID": "RangeAttack01",
            "abilityName": "Monster_Eremite_Female_Standard_Oracle_RangeAttack01",
            "abilityOverride": ""
        },
        {
            "abilityID": "TriggerFunnel",
            "abilityName": "Monster_Eremite_Female_Standard_Oracle_TriggerFunnel",
            "abilityOverride": ""
        },
        {
            "abilityID": "_LaserAttack01_GetTargetPos",
            "abilityName": "Monster_Eremite_Female_Standard_Oracle_LaserAttack01_GetTargetPos",
            "abilityOverride": ""
        },
        {
            "abilityID": "LaserAttack01_Cross",
            "abilityName": "Monster_Eremite_Female_Standard_Oracle_LaserAttack01_Cross",
            "abilityOverride": ""
        },
        {
            "abilityID": "LaserAttack01_Killed",
            "abilityName": "Monster_Eremite_Female_Standard_Oracle_LaserAttack01_Killed",
            "abilityOverride": ""
        },
        {
            "abilityID": "LaserAttack01_LaserStart",
            "abilityName": "Monster_Eremite_Female_Standard_Oracle_LaserAttack01_LaserStart",
            "abilityOverride": ""
        },
        {
            "abilityID": "LaserAttack01_LaserEnd",
            "abilityName": "Monster_Eremite_Female_Standard_Oracle_LaserAttack01_LaserEnd",
            "abilityOverride": ""
        },
        {
            "abilityID": "PartControlBullet_Disable",
            "abilityName": "Monster_Eremite_Female_Standard_Oracle_LaserAttack01_PartControlBullet_Disable",
            "abilityOverride": ""
        },
        {
            "abilityID": "PartControlBullet_Enable",
            "abilityName": "Monster_Eremite_Female_Standard_Oracle_LaserAttack01_PartControlBullet_Enable",
            "abilityOverride": ""
        },
        {
            "abilityID": "Monster_Eremite_Female_Standard_Oracle_LaserAttack01_RayBullet",
            "abilityName": "Monster_Eremite_Female_Standard_Oracle_LaserAttack01_RayBullet",
            "abilityOverride": ""
        },
        {
            "abilityID": "FindBlinkPoint_Away",
            "abilityName": "Monster_Eremite_Female_Standard_Oracle_FindBlinkPoint_Away",
            "abilityOverride": ""
        },
        {
            "abilityID": "FindBlinkPoint_MeleeAttack",
            "abilityName": "Monster_Eremite_Female_Standard_Oracle_FindBlinkPoint_MeleeAttack",
            "abilityOverride": ""
        },
        {
            "abilityID": "Invisable",
            "abilityName": "Monster_Eremite_Female_Standard_Oracle_Invisable",
            "abilityOverride": ""
        },
        {
            "abilityID": "DoBlink",
            "abilityName": "Monster_Eremite_Female_Standard_Oracle_DoBlink",
            "abilityOverride": ""
        },
        {
            "abilityID": "Visable",
            "abilityName": "Monster_Eremite_Female_Standard_Oracle_Visable",
            "abilityOverride": ""
        },
        {
            "abilityID": "CombotAttack01_01",
            "abilityName": "Monster_Eremite_Female_Standard_Oracle_NormalAttack01",
            "abilityOverride": ""
        },
        {
            "abilityID": "CombotAttack01_02",
            "abilityName": "Monster_Eremite_Female_Standard_Oracle_ComboAttack01",
            "abilityOverride": ""
        },
        {
            "abilityID": "WQ",
            "abilityName": "Monster_Eremite_Female_Standard_Oracle_Blink_RunAway",
            "abilityOverride": ""
        }
    ],
    "stateLayers": {
        "defaultLayer": {
            "$type": "EPAPJJAGHKG",
            "ACOCIAFGIAD": "",
            "stateIDs": {
                "NormalIdle": {
                    "$type": "IJOIMFMEGMM",
                    "DLOHGBDFFGB": {
                        "Standby": [],
                        "Born": []
                    },
                    "POLKCLOHPOO": true,
                    "PGKCBIHGAOC": true,
                    "DLAOMOCMANL": [
                        "DoSkill"
                    ]
                },
                "Standby_Weak": {
                    "$type": "IJOIMFMEGMM",
                    "DLOHGBDFFGB": {
                        "Standby_Weak": []
                    },
                    "POLKCLOHPOO": true,
                    "PGKCBIHGAOC": true,
                    "AJBLILDCLBO": [
                        "Recover"
                    ],
                    "DLAOMOCMANL": [
                        "DoSkill"
                    ]
                },
                "NormalMove": {
                    "$type": "IJOIMFMEGMM",
                    "DLOHGBDFFGB": {
                        "WalkForward": [
                            "Audio_Monster_Eremite_Female_Standard_Oracle_01_Walk"
                        ],
                        "WalkBack": [
                            "Audio_Monster_Eremite_Female_Standard_Oracle_01_Walk"
                        ],
                        "WalkRight": [
                            "Audio_Monster_Eremite_Female_Standard_Oracle_01_Walk"
                        ],
                        "WalkLeft": [
                            "Audio_Monster_Eremite_Female_Standard_Oracle_01_Walk"
                        ],
                        "Run": []
                    },
                    "POLKCLOHPOO": true,
                    "PGKCBIHGAOC": true,
                    "DLAOMOCMANL": [
                        "DoSkill"
                    ],
                    "LIPMJPLGIKD": true
                },
                "Turn": {
                    "$type": "IJOIMFMEGMM",
                    "DLOHGBDFFGB": {
                        "TurnLeft": [
                            "Audio_Monster_Eremite_Female_Standard_Oracle_01_Walk"
                        ],
                        "TurnRight": [
                            "Audio_Monster_Eremite_Female_Standard_Oracle_01_Walk"
                        ]
                    },
                    "POLKCLOHPOO": true,
                    "PGKCBIHGAOC": true,
                    "DLAOMOCMANL": [
                        "DoSkill"
                    ],
                    "LIPMJPLGIKD": true
                },
                "BeHit": {
                    "$type": "IJOIMFMEGMM",
                    "DLOHGBDFFGB": {
                        "Hit_L": [],
                        "Hit_H": [
                            "Audio_Monster_Eremite_Female_Standard_Oracle_01_Hit_H"
                        ]
                    },
                    "AJBLILDCLBO": [
                        "BeHit"
                    ],
                    "DLAOMOCMANL": [
                        "DoSkill"
                    ]
                },
                "BeHitThrow": {
                    "$type": "IJOIMFMEGMM",
                    "DLOHGBDFFGB": {
                        "HitThrow": [],
                        "HitThrowDrop": []
                    },
                    "AJBLILDCLBO": [
                        "BeHit",
                        "HitAir2HitDrop"
                    ],
                    "DLAOMOCMANL": [
                        "DoSkill",
                        "BeHit"
                    ],
                    "PBAOEAEEBNB": [
                        {
                            "name": "AirDie"
                        }
                    ]
                },
                "BeHitThrowToStandby": {
                    "$type": "IJOIMFMEGMM",
                    "DLOHGBDFFGB": {
                        "HitThrowToGround": [
                            "Audio_Monster_Eremite_Female_Standard_Oracle_01_HitThrowToGround"
                        ]
                    },
                    "AJBLILDCLBO": [
                        "BeHit",
                        "HitAir2HitDrop"
                    ],
                    "DLAOMOCMANL": [
                        "DoSkill",
                        "BeHit"
                    ],
                    "PBAOEAEEBNB": [
                        {
                            "name": "AirDie",
                            "normalizeEnd": 0.6200000047683716
                        }
                    ]
                },
                "Struggle": {
                    "$type": "IJOIMFMEGMM",
                    "DLOHGBDFFGB": {
                        "Struggle": []
                    },
                    "AJBLILDCLBO": [
                        "BeHit",
                        "HitAir2HitDrop"
                    ],
                    "DLAOMOCMANL": [
                        "DoSkill"
                    ]
                },
                "Die": {
                    "$type": "IJOIMFMEGMM",
                    "DLOHGBDFFGB": {
                        "Die1": [
                            "Monster_Eremite_Female_Standard_Oracle_Die",
                            "Audio_Monster_Eremite_Female_Standard_Oracle_01_Die1_NoVo"
                        ],
                        "Die2": [
                            "Monster_Eremite_Female_Standard_Oracle_Die",
                            "Audio_Monster_Eremite_Female_Standard_Oracle_01_Die1_NoVo"
                        ],
                        "SwimDie_BS": [],
                        "SwimDie": [
                            "Monster_Eremite_SwimDie"
                        ],
                        "SwimDie_AS": []
                    },
                    "AJBLILDCLBO": [
                        "DoSkill"
                    ]
                },
                "Die_RagDoll": {
                    "$type": "IJOIMFMEGMM",
                    "DLOHGBDFFGB": {
                        "AirDie": [
                            "Monster_Eremite_AirDie"
                        ]
                    },
                    "AJBLILDCLBO": [
                        "DoSkill"
                    ]
                },
                "Alert": {
                    "$type": "IJOIMFMEGMM",
                    "DLOHGBDFFGB": {
                        "Alert": [
                            "Monster_Eremite_Female_Standard_Oracle_Alert",
                            "Audio_Monster_Eremite_Female_Standard_Oracle_01_Alert_NoVo"
                        ]
                    },
                    "OGNDLAMHMPB": 0.0,
                    "NKBIEPDEJAO": 20.0,
                    "DLAOMOCMANL": [
                        "BeHit",
                        "DoSkill"
                    ],
                    "HMPOMAMKBEF": true
                },
                "SheathWeapon": {
                    "$type": "IJOIMFMEGMM",
                    "DLOHGBDFFGB": {
                        "SheathWeapon": [
                            "Monster_Eremite_Female_Standard_Oracle_ReturnToBorn",
                            "Audio_Monster_Eremite_Female_Standard_Oracle_01_SheathWeapon"
                        ]
                    },
                    "OGNDLAMHMPB": 0.0,
                    "NKBIEPDEJAO": 20.0,
                    "AJBLILDCLBO": [
                        "SheathWeaponTrigger"
                    ],
                    "DLAOMOCMANL": [
                        "BeHit",
                        "DoSkill",
                        "SheathWeaponTrigger"
                    ]
                },
                "Improve": {
                    "$type": "IJOIMFMEGMM",
                    "DLOHGBDFFGB": {
                        "Improve": [
                            "Monster_Eremite_Female_Standard_Oracle_Improve",
                            "Audio_Monster_Eremite_Female_Standard_Oracle_01_Improve_NoVo"
                        ]
                    },
                    "OGNDLAMHMPB": 0.0,
                    "NKBIEPDEJAO": 20.0,
                    "AJBLILDCLBO": [
                        "ForceImprove"
                    ],
                    "DLAOMOCMANL": [
                        "BeHit",
                        "DoSkill",
                        "ForceImprove"
                    ]
                },
                "Weak": {
                    "$type": "IJOIMFMEGMM",
                    "DLOHGBDFFGB": {
                        "Weak_BS": [
                            "Audio_Monster_Eremite_Female_Standard_Oracle_01_Weak_BS_NoVo"
                        ],
                        "Weak_AS": [
                            "Audio_Monster_Eremite_Female_Standard_Oracle_01_Weak_AS"
                        ]
                    },
                    "OGNDLAMHMPB": 0.0,
                    "NKBIEPDEJAO": 20.0,
                    "AJBLILDCLBO": [
                        "Weak"
                    ],
                    "DLAOMOCMANL": [
                        "BeHit",
                        "DoSkill",
                        "Weak",
                        "Recover"
                    ]
                },
                "Personality01": {
                    "$type": "IJOIMFMEGMM",
                    "DLOHGBDFFGB": {
                        "Personality01": [
                            "Monster_Eremite_Female_Standard_Oracle_Personality01",
                            "Audio_Monster_Eremite_Female_Standard_Oracle_01_Personality01"
                        ]
                    },
                    "POLKCLOHPOO": true,
                    "OGNDLAMHMPB": 0.0,
                    "NKBIEPDEJAO": 20.0,
                    "DLAOMOCMANL": [
                        "BeHit",
                        "DoSkill"
                    ],
                    "LIPMJPLGIKD": true
                },
                "Personality02": {
                    "$type": "IJOIMFMEGMM",
                    "DLOHGBDFFGB": {
                        "Personality02": [
                            "Monster_Eremite_Female_Standard_Oracle_Personality02",
                            "Audio_Monster_Eremite_Female_Standard_Oracle_01_Personality02"
                        ]
                    },
                    "POLKCLOHPOO": true,
                    "OGNDLAMHMPB": 0.0,
                    "NKBIEPDEJAO": 20.0,
                    "DLAOMOCMANL": [
                        "BeHit",
                        "DoSkill"
                    ],
                    "LIPMJPLGIKD": true
                },
                "Flee": {
                    "$type": "IJOIMFMEGMM",
                    "DLOHGBDFFGB": {
                        "Flee": [
                            "Monster_Eremite_Female_Standard_Oracle_ReturnToBorn"
                        ]
                    },
                    "POLKCLOHPOO": true,
                    "OGNDLAMHMPB": 0.0,
                    "NKBIEPDEJAO": 20.0,
                    "DLAOMOCMANL": [
                        "BeHit",
                        "DoSkill"
                    ],
                    "LIPMJPLGIKD": true
                },
                "LaserAttack01_BS": {
                    "$type": "IJOIMFMEGMM",
                    "DLOHGBDFFGB": {
                        "LaserAttack01_BS": [
                            "Audio_Monster_Eremite_Female_Standard_Oracle_01_LaserAttack01_BS"
                        ]
                    },
                    "OGNDLAMHMPB": 0.10000000149011612,
                    "DLAOMOCMANL": [
                        "BeHit",
                        "DoSkill"
                    ],
                    "LIPMJPLGIKD": true
                },
                "LaserAttack01": {
                    "$type": "IJOIMFMEGMM",
                    "DLOHGBDFFGB": {
                        "LaserAttack01": [
                            "Monster_Eremite_Female_Standard_Oracle_LaserAttack01",
                            "Audio_Monster_Eremite_Female_Standard_Oracle_01_LaserAttack01_NoVo"
                        ]
                    },
                    "OGNDLAMHMPB": 0.10000000149011612,
                    "DLAOMOCMANL": [
                        "BeHit",
                        "DoSkill"
                    ],
                    "LIPMJPLGIKD": true
                },
                "LaserAttack01_AS": {
                    "$type": "IJOIMFMEGMM",
                    "DLOHGBDFFGB": {
                        "LaserAttack01_AS": []
                    },
                    "OGNDLAMHMPB": 0.10000000149011612,
                    "DLAOMOCMANL": [
                        "BeHit",
                        "DoSkill"
                    ],
                    "LIPMJPLGIKD": true
                },
                "LaserAttack02_BS": {
                    "$type": "IJOIMFMEGMM",
                    "DLOHGBDFFGB": {
                        "LaserAttack02_BS": [
                            "Audio_Monster_Eremite_Female_Standard_Oracle_01_LaserAttack01_BS"
                        ]
                    },
                    "OGNDLAMHMPB": 0.10000000149011612,
                    "DLAOMOCMANL": [
                        "BeHit",
                        "DoSkill"
                    ],
                    "LIPMJPLGIKD": true
                },
                "LaserAttack02": {
                    "$type": "IJOIMFMEGMM",
                    "DLOHGBDFFGB": {
                        "LaserAttack02": [
                            "Monster_Eremite_Female_Standard_Oracle_LaserAttack01",
                            "Audio_Monster_Eremite_Female_Standard_Oracle_01_LaserAttack01_NoVo"
                        ]
                    },
                    "OGNDLAMHMPB": 0.10000000149011612,
                    "DLAOMOCMANL": [
                        "BeHit",
                        "DoSkill"
                    ],
                    "LIPMJPLGIKD": true
                },
                "LaserAttack02_AS": {
                    "$type": "IJOIMFMEGMM",
                    "DLOHGBDFFGB": {
                        "LaserAttack02_AS": []
                    },
                    "OGNDLAMHMPB": 0.10000000149011612,
                    "DLAOMOCMANL": [
                        "BeHit",
                        "DoSkill"
                    ],
                    "LIPMJPLGIKD": true
                },
                "RangeAttack01": {
                    "$type": "IJOIMFMEGMM",
                    "DLOHGBDFFGB": {
                        "RangeAttack01": [
                            "Monster_Eremite_Female_Standard_Oracle_RangeAttack01",
                            "Audio_Monster_Eremite_Female_Standard_Oracle_01_RangeAttack01_NoVo"
                        ]
                    },
                    "OGNDLAMHMPB": 0.10000000149011612,
                    "DLAOMOCMANL": [
                        "BeHit",
                        "DoSkill",
                        "ComboTrigger"
                    ],
                    "LIPMJPLGIKD": true
                },
                "Blink_RangeAttack01": {
                    "$type": "IJOIMFMEGMM",
                    "DLOHGBDFFGB": {
                        "Blink_RangeAttack01": [
                            "Monster_Eremite_Female_Standard_Oracle_RangeAttack01",
                            "Audio_Monster_Eremite_Female_Standard_Oracle_01_RangeAttack01_NoVo"
                        ]
                    },
                    "OGNDLAMHMPB": 0.0,
                    "DLAOMOCMANL": [
                        "BeHit",
                        "DoSkill",
                        "ComboTrigger"
                    ],
                    "LIPMJPLGIKD": true
                },
                "RangeAttack02": {
                    "$type": "IJOIMFMEGMM",
                    "DLOHGBDFFGB": {
                        "RangeAttack02": [
                            "Monster_Eremite_Female_Standard_Oracle_RangeAttack02",
                            "Audio_Monster_Eremite_Female_Standard_Oracle_01_RangeAttack02_NoVo"
                        ]
                    },
                    "OGNDLAMHMPB": 0.0,
                    "DLAOMOCMANL": [
                        "BeHit",
                        "DoSkill"
                    ],
                    "LIPMJPLGIKD": true
                },
                "Blink": {
                    "$type": "IJOIMFMEGMM",
                    "DLOHGBDFFGB": {
                        "Blink": [
                            "Monster_Eremite_Female_Standard_Oracle_Blink",
                            "Audio_Monster_Eremite_Female_Standard_Oracle_01_Blink_NoVo"
                        ]
                    },
                    "OGNDLAMHMPB": 0.0,
                    "DLAOMOCMANL": [
                        "BeHit",
                        "DoSkill",
                        "ComboTrigger"
                    ],
                    "LIPMJPLGIKD": true
                },
                "MeleeAttack01": {
                    "$type": "IJOIMFMEGMM",
                    "DLOHGBDFFGB": {
                        "MeleeAttack01": [
                            "Monster_Eremite_Female_Standard_Oracle_MeleeAttack01",
                            "Audio_Monster_Eremite_Female_Standard_Oracle_01_MeleeAttack01_NoVo"
                        ]
                    },
                    "OGNDLAMHMPB": 0.0,
                    "DLAOMOCMANL": [
                        "BeHit",
                        "DoSkill",
                        "ComboTrigger"
                    ],
                    "LIPMJPLGIKD": true
                },
                "ComboAttack01": {
                    "$type": "IJOIMFMEGMM",
                    "DLOHGBDFFGB": {
                        "ComboAttack01": [
                            "Audio_Monster_Eremite_Female_Standard_Oracle_01_ComboAttack01"
                        ]
                    },
                    "OGNDLAMHMPB": 0.0,
                    "AJBLILDCLBO": [
                        "ComboTrigger"
                    ],
                    "DLAOMOCMANL": [
                        "BeHit",
                        "DoSkill"
                    ],
                    "LIPMJPLGIKD": true
                }
            }
        }
    },
    "partControl": {
        "parts": [
            {
                "$type": "CPNBDNFHDHF",
                "angularSpeed": 3600.0,
                "FKKOFBENLDH": "WaeponRotation",
                "PCDAJCPIMMC": "RotateToForward",
                "HJECIEPIAGL": "",
                "ILHJAKDAGEM": 360.0,
                "HIIKALDNNJI": 360.0,
                "targetType": "ActionSetTarget",
                "MFJJPPALHEJ": false
            }
        ]
    },
    "billboard": {
        "$type": "PAOBAEKGGBC",
        "attachPoint": "BillboardAttach",
        "offset": {
            "x": -0.3499999940395355
        },
        "EMFFJPOKEKF": "Character",
        "KGHAGECNJPO": true,
        "musicSubStates": "Big"
    },
    "initialPoses": {
        "Default": {
            "initialPoseID": 1
        }
    },
    "aibeta": {
        "enable": true,
        "moveSetting": {
            "navMeshAgentName": "Undead01",
            "almostReachedDistanceRun": 1.5
        },
        "aiCombat": {
            "combatRole": "FIGHTER"
        },
        "sensing": {
            "settings": {
                "DefaultSetting": {
                    "feelRange": 8.0
                },
                "HighAlert": {
                    "viewRange": 40.0,
                    "feelRange": 10.0
                },
                "LowAlert": {
                    "viewRange": 15.0,
                    "feelRange": 6.0
                },
                "NeverCombat": {
                    "enableVision": false,
                    "hearAttractionRange": 0.0,
                    "feelRange": 0.0
                }
            },
            "templates": {
                "DefaultTemplate": {
                    "DefaultPoses": "DefaultSetting"
                },
                "NeverCombatTemplate": {
                    "DefaultPoses": "NeverCombat"
                },
                "HighAlert": {
                    "DefaultPoses": "HighAlert"
                },
                "LowAlert": {
                    "DefaultPoses": "LowAlert"
                }
            }
        },
        "neurons": {
            "DefaultSetting": [
                "HIT"
            ]
        },
        "threat": {
            "clearThreatTargetDistance": 30.0,
            "clearThreatEdgeDistance": 3.5,
            "clearThreatTimerByDistance": 1.75,
            "viewThreatGrow": 35.0,
            "feelThreatGrow": 100.0,
            "threatDecreaseSpeed": 10.0,
            "viewAttenuation": [
                {
                    "x": 10.0,
                    "y": 2.0
                },
                {
                    "x": 15.0,
                    "y": 0.800000011920929
                },
                {
                    "x": 20.0,
                    "y": 0.5
                },
                {
                    "x": 25.0,
                    "y": 0.30000001192092896
                },
                {
                    "x": 30.0,
                    "y": 0.20000000298023224
                }
            ],
            "resistTauntLevel": "Monster_TauntLevel_3",
            "JGFOPCOIJOI": ""
        },
        "defendArea": {
            "defendRange": 50.0
        },
        "profiling": {},
        "network": {
            "syncSkill": true
        },
        "skillGroupCDConfigs": [
            {
                "skillGroupCDID": 1,
                "skillGroupCDTime": 1.0
            },
            {
                "skillGroupCDID": 2,
                "skillGroupCDTime": 2.0
            },
            {
                "skillGroupCDID": 3,
                "skillGroupCDTime": 3.0
            },
            {
                "skillGroupCDID": 4,
                "skillGroupCDTime": 15.0
            }
        ],
        "skillSetting": {
            "skillEliteSet": {
                "1": [
                    501
                ]
            }
        },
        "skills": {
            "101": {
                "name": "OnAlert",
                "skillType": "OnAlert",
                "publicCDGroup": "",
                "ignoreGCD": true,
                "triggerGCD": false,
                "HGAMDGAEIGO": "",
                "stateIDs": [
                    "Alert"
                ],
                "skillQueryingTime": 3.0,
                "flagTargetReachable": "10",
                "flagSelfOnTemplateCollider": "01",
                "flagSelfInZone": "10",
                "flagTargetInZone": "11"
            },
            "201": {
                "name": "RangeAttack01",
                "castCondition": {
                    "pose": [
                        101
                    ],
                    "pickRangeMax": 20.0
                },
                "cd": 5.0,
                "cdUpperRange": 2.0,
                "publicCDGroup": "",
                "skillGroupCDID": 3,
                "HGAMDGAEIGO": "",
                "stateIDs": [
                    "RangeAttack01"
                ],
                "flagTargetReachable": "11",
                "flagSelfOnTemplateCollider": "01",
                "flagSelfInZone": "11",
                "flagTargetInZone": "11"
            },
            "211": {
                "name": "LaserAttack01",
                "castCondition": {
                    "pose": [
                        101
                    ],
                    "pickRangeMin": 3.0,
                    "pickRangeMax": 20.0
                },
                "cd": 6.0,
                "cdUpperRange": 2.0,
                "publicCDGroup": "",
                "skillGroupCDID": 3,
                "HGAMDGAEIGO": "",
                "stateIDs": [
                    "LaserAttack01_BS",
                    "LaserAttack01",
                    "LaserAttack01_AS"
                ],
                "flagTargetReachable": "10",
                "flagSelfOnTemplateCollider": "01",
                "flagSelfInZone": "11",
                "flagTargetInZone": "11"
            },
            "212": {
                "name": "LaserAttack02",
                "castCondition": {
                    "pose": [
                        101
                    ],
                    "pickRangeMin": 5.0,
                    "pickRangeMax": 20.0
                },
                "cd": 20.0,
                "cdUpperRange": 2.0,
                "initialCD": 3.0,
                "initialCDUpperRange": 5.0,
                "publicCDGroup": "",
                "skillGroupCDID": 3,
                "HGAMDGAEIGO": "",
                "stateIDs": [
                    "LaserAttack01_BS",
                    "LaserAttack01",
                    "LaserAttack01_AS",
                    "LaserAttack02_BS",
                    "LaserAttack02",
                    "LaserAttack02_AS"
                ],
                "flagTargetReachable": "10",
                "flagSelfOnTemplateCollider": "01",
                "flagSelfInZone": "11",
                "flagTargetInZone": "11"
            },
            "221": {
                "name": "RangeAttack02",
                "priority": 2,
                "castCondition": {
                    "pose": [
                        101
                    ],
                    "pickRangeMax": 20.0
                },
                "cd": 20.0,
                "cdUpperRange": 2.0,
                "initialCD": 5.0,
                "publicCDGroup": "",
                "HGAMDGAEIGO": "",
                "stateIDs": [
                    "RangeAttack02"
                ],
                "flagTargetReachable": "11",
                "flagSelfOnTemplateCollider": "01",
                "flagSelfInZone": "11",
                "flagTargetInZone": "11"
            },
            "232": {
                "name": "Blink",
                "priority": 2,
                "castCondition": {
                    "pose": [
                        101,
                        201
                    ],
                    "pickRangeMin": 20.0,
                    "pickRangeMax": 40.0
                },
                "cd": 15.0,
                "cdUpperRange": 3.0,
                "initialCD": 10.0,
                "initialCDUpperRange": 3.0,
                "publicCDGroup": "",
                "skillGroupCDID": 4,
                "HGAMDGAEIGO": "",
                "stateIDs": [
                    "Blink",
                    "Blink_RangeAttack01"
                ],
                "flagTargetReachable": "11",
                "flagSelfOnTemplateCollider": "01",
                "flagSelfInZone": "10",
                "flagTargetInZone": "11"
            },
            "301": {
                "name": "Improve_Shoot_01",
                "castCondition": {
                    "pose": [
                        201,
                        102
                    ],
                    "pickRangeMax": 20.0
                },
                "cd": 7.0,
                "cdUpperRange": 2.0,
                "publicCDGroup": "",
                "skillGroupCDID": 3,
                "HGAMDGAEIGO": "",
                "stateIDs": [
                    "RangeAttack01"
                ],
                "flagTargetReachable": "10",
                "flagSelfOnTemplateCollider": "01",
                "flagSelfInZone": "11",
                "flagTargetInZone": "11"
            },
            "501": {
                "name": "Flee",
                "priority": 2,
                "castCondition": {
                    "pose": [
                        111
                    ]
                },
                "cd": 3.0,
                "publicCDGroup": "",
                "ignoreGCD": true,
                "triggerGCD": false,
                "triggerCDOnFail": false,
                "HGAMDGAEIGO": "",
                "stateIDs": [
                    "Flee"
                ],
                "skillQueryingTime": 3.0,
                "flagTargetReachable": "11",
                "flagSelfOnTemplateCollider": "11",
                "flagSelfInZone": "11",
                "flagTargetInZone": "11"
            },
            "9001": {
                "name": "Personality01",
                "skillType": "Free",
                "castCondition": {
                    "pose": [
                        2,
                        1
                    ]
                },
                "cd": 100.0,
                "cdUpperRange": 35.0,
                "initialCD": 25.0,
                "initialCDUpperRange": 10.0,
                "publicCDGroup": "",
                "ignoreGCD": true,
                "triggerGCD": false,
                "skillGroupCDID": 4,
                "HGAMDGAEIGO": "",
                "stateIDs": [
                    "Personality01"
                ],
                "skillQueryingTime": 10.0,
                "flagTargetReachable": "10",
                "flagSelfOnTemplateCollider": "01",
                "flagSelfInZone": "10",
                "flagTargetInZone": "11"
            },
            "9002": {
                "name": "Personality02",
                "skillType": "Free",
                "castCondition": {
                    "pose": [
                        2,
                        1
                    ]
                },
                "cd": 100.0,
                "cdUpperRange": 35.0,
                "initialCD": 25.0,
                "initialCDUpperRange": 10.0,
                "publicCDGroup": "",
                "ignoreGCD": true,
                "triggerGCD": false,
                "skillGroupCDID": 4,
                "HGAMDGAEIGO": "",
                "stateIDs": [
                    "Personality02"
                ],
                "skillQueryingTime": 10.0,
                "flagTargetReachable": "10",
                "flagSelfOnTemplateCollider": "01",
                "flagSelfInZone": "10",
                "flagTargetInZone": "11"
            }
        },
        "skillGCD": 3.0,
        "combatFixedMoveTactic": [
            {
                "$type": "DIIPKNMAPAC",
                "enable": true,
                "FJANPNOAAFK": {
                    "pose": [
                        101,
                        102,
                        201
                    ]
                },
                "LMMKNFEMOMG": {
                    "rangeMin": 5.0,
                    "rangeMax": 20.0,
                    "JNMPGLIADPP": 1.5,
                    "CCMODCEDODH": 1.5,
                    "HJILEGNBBIJ": 1.0,
                    "MMKHHBIBJEN": {
                        "GECJAGFGHKL": 2.0,
                        "GEECPOOOMFC": 0.0,
                        "NFMBIOFFKGK": 2.0,
                        "JNJFKLDABCB": 2.0,
                        "BEJLOBBENJJ": 2.0
                    },
                    "HEGPGPBKGFH": "1111",
                    "AFCLIFKCEKM": "1111",
                    "JOCOJHEICNA": ""
                },
                "BIDHHBJEKHM": {
                    "201": {
                        "rangeMin": 0.0,
                        "rangeMax": 14.0,
                        "JNMPGLIADPP": 1.5,
                        "CCMODCEDODH": 1.5,
                        "HJILEGNBBIJ": 1.0,
                        "MMKHHBIBJEN": {
                            "GECJAGFGHKL": 4.0,
                            "GEECPOOOMFC": 0.0,
                            "NFMBIOFFKGK": 4.0,
                            "JNJFKLDABCB": 2.0,
                            "BEJLOBBENJJ": 2.0
                        },
                        "HEGPGPBKGFH": "1111",
                        "AFCLIFKCEKM": "1111",
                        "JOCOJHEICNA": ""
                    },
                    "102": {
                        "rangeMin": 0.0,
                        "rangeMax": 14.0,
                        "JNMPGLIADPP": 1.5,
                        "CCMODCEDODH": 1.5,
                        "HJILEGNBBIJ": 1.0,
                        "MMKHHBIBJEN": {
                            "GECJAGFGHKL": 4.0,
                            "GEECPOOOMFC": 0.0,
                            "NFMBIOFFKGK": 4.0,
                            "JNJFKLDABCB": 2.0,
                            "BEJLOBBENJJ": 2.0
                        },
                        "HEGPGPBKGFH": "1111",
                        "AFCLIFKCEKM": "1111",
                        "JOCOJHEICNA": ""
                    }
                }
            },
            {
                "$type": "NCHKIPKMCLC",
                "enable": true,
                "FJANPNOAAFK": {
                    "pose": [
                        1
                    ]
                }
            },
            {
                "$type": "BNAGECKMCIB",
                "enable": true,
                "FJANPNOAAFK": {
                    "pose": [
                        101,
                        102,
                        201
                    ]
                },
                "LMMKNFEMOMG": {
                    "KIHPEPHJMOG": 1,
                    "MPEMBMLOEDG": 30.0,
                    "IJLGPEJGLEH": 99.0,
                    "JKOGPCLFHCP": 30.0,
                    "IHCAFCNDANA": 20.0,
                    "JOCOJHEICNA": ""
                }
            },
            {
                "$type": "KMHBGMELMKD",
                "enable": true,
                "LMMKNFEMOMG": {
                    "KIHPEPHJMOG": 0,
                    "FKIKEIAEEBO": 1.0,
                    "BMLLGHNDPNE": 1.2999999523162842,
                    "JOCOJHEICNA": "",
                    "DBIELIMGBMC": ""
                }
            },
            {
                "$type": "GGKADEIBMLG",
                "enable": true,
                "FJANPNOAAFK": {
                    "pose": [
                        1
                    ]
                },
                "LMMKNFEMOMG": {
                    "JIFJFPJANHO": 8.0,
                    "CBKHBGCPFBG": 5.0,
                    "EKDHNAGGGAE": 15.0,
                    "BFEJAKFKKFP": 3.5,
                    "KOAMKCEFJED": 9.5,
                    "JOCOJHEICNA": ""
                }
            }
        ]
    },
    "inputKeys": [
        {
            "keyID": 201,
            "inputKeyCode": 257,
            "abilityName": ""
        },
        {
            "keyID": 211,
            "inputKeyCode": 258,
            "abilityName": ""
        },
        {
            "keyID": 221,
            "inputKeyCode": 259,
            "abilityName": ""
        },
        {
            "keyID": 231,
            "inputKeyCode": 261,
            "abilityName": ""
        },
        {
            "keyID": 231,
            "inputKeyCode": 262,
            "abilityName": ""
        },
        {
            "keyID": 241,
            "inputKeyCode": 263,
            "abilityName": ""
        },
        {
            "keyID": 301,
            "inputKeyCode": 264,
            "abilityName": ""
        },
        {
            "keyID": 401,
            "inputKeyCode": 265,
            "abilityName": ""
        }
    ],
    "move": {
        "$type": "IIGPJJNGCLE",
        "MIPNOGBEANL": "FourDirection",
        "BEPOPLDKJOP": "StoopType",
        "OMMMNBNJHAI": true,
        "FACNOEFNHIB": "RootNode"
    }
}