{
    "common": {
        "effectAttachShape": {
            "$type": "DPGKNHENGLM",
            "DDDEJPIFECG": "EffectMesh"
        },
        "mass": 80.0,
        "height": 0.6000000238418579,
        "viewSize": 1.75,
        "affectedByWorld": true,
        "checkInSurface": true,
        "clearAnimatorOnSetLightDeactive": true,
        "clearAIOnSetLightDeactive": true
    },
    "headControl": {
        "$type": "NJIKCGBDNDF",
        "useHeadControl": true,
        "FMKKBCJKMPH": 45.0
    },
    "model": {
        "bornEffect": "",
        "attachEffect": "",
        "canBakeMesh": false
    },
    "dither": {
        "showDitherDuration": 2.0
    },
    "combat": {
        "property": {
            "endureType": "Monster_Grunt_Humanoid",
            "weight": 80.0
        },
        "beHit": {
            "hitBloodEffect": ""
        },
        "combatLock": {
            "lockShape": "CircleLockEnemy",
            "lockType": "Avatar&Monster_Lv4"
        },
        "die": {
            "dieEndTime": 0.20000000298023224,
            "dieForceDisappearTime": 1.0,
            "dieDisappearEffect": "",
            "dieShaderData": "MonsterDie",
            "muteHitBox": true,
            "dieDenyLockOn": true,
            "dieIsGhostToEnemy": true,
            "dieIgnoreTriggerBullet": true,
            "muteBillboard": true,
            "mutePushCollider": true
        }
    },
    "abilities": [
        {
            "abilityID": "",
            "abilityName": "Monster_Sylph_SpecialState",
            "abilityOverride": ""
        },
        {
            "abilityID": "",
            "abilityName": "Monster_Sylph_Activated_FaceChange",
            "abilityOverride": ""
        },
        {
            "abilityID": "",
            "abilityName": "Monster_Sylph_Fire_PoseHandler",
            "abilityOverride": ""
        },
        {
            "abilityID": "",
            "abilityName": "Monster_Sylph_Fire_PoseAction",
            "abilityOverride": ""
        },
        {
            "abilityID": "",
            "abilityName": "Monster_Sylph_Fire_Steer",
            "abilityOverride": ""
        },
        {
            "abilityID": "",
            "abilityName": "Monster_Sylph_Fire_ExitBattle",
            "abilityOverride": ""
        },
        {
            "abilityID": "",
            "abilityName": "Monster_Common_FireMuteHurt",
            "abilityOverride": ""
        },
        {
            "abilityID": "",
            "abilityName": "Monster_Sylph_Fire_Bullet",
            "abilityOverride": ""
        },
        {
            "abilityID": "",
            "abilityName": "Monster_Sylph_Fire_FlyHigh",
            "abilityOverride": ""
        },
        {
            "abilityID": "",
            "abilityName": "Monster_Sylph_Fire_FlyHigh_Hit",
            "abilityOverride": ""
        },
        {
            "abilityID": "",
            "abilityName": "Monster_Sylph_Fire_Deathrattle",
            "abilityOverride": ""
        },
        {
            "abilityID": "",
            "abilityName": "Monster_Sylph_Fire_Activated_Rotation",
            "abilityOverride": ""
        },
        {
            "abilityID": "",
            "abilityName": "Monster_Sylph_Fire_Activated_Deathrattle",
            "abilityOverride": ""
        },
        {
            "abilityID": "",
            "abilityName": "Monster_Sylph_Deathrattle_PlayOnce",
            "abilityOverride": ""
        },
        {
            "abilityID": "",
            "abilityName": "Monster_Sylph_FlyHit",
            "abilityOverride": ""
        },
        {
            "abilityID": "",
            "abilityName": "Monster_Sylph_AlertnessTag",
            "abilityOverride": ""
        }
    ],
    "stateLayers": {
        "defaultLayer": {
            "$type": "EPAPJJAGHKG",
            "ACOCIAFGIAD": "",
            "stateIDs": {
                "Born": {
                    "$type": "IJOIMFMEGMM",
                    "DLOHGBDFFGB": {
                        "Born": [
                            "Monster_Sylph_Born"
                        ]
                    },
                    "PGKCBIHGAOC": true,
                    "DLAOMOCMANL": [
                        "DoSkill"
                    ]
                },
                "NormalIdle": {
                    "$type": "IJOIMFMEGMM",
                    "DLOHGBDFFGB": {
                        "StandbyFree": [],
                        "Standby": []
                    },
                    "POLKCLOHPOO": true,
                    "PGKCBIHGAOC": true,
                    "DLAOMOCMANL": [
                        "DoSkill"
                    ],
                    "LIPMJPLGIKD": true
                },
                "Activated_Standby": {
                    "$type": "IJOIMFMEGMM",
                    "DLOHGBDFFGB": {
                        "Activated_Standby": []
                    },
                    "POLKCLOHPOO": true,
                    "PGKCBIHGAOC": true,
                    "DLAOMOCMANL": [
                        "DoSkill"
                    ],
                    "LIPMJPLGIKD": true
                },
                "NormalMove": {
                    "$type": "IJOIMFMEGMM",
                    "DLOHGBDFFGB": {
                        "Activated_Fly": [],
                        "Walk": [],
                        "Activated_Walk": []
                    },
                    "POLKCLOHPOO": true,
                    "PGKCBIHGAOC": true,
                    "DLAOMOCMANL": [
                        "DoSkill"
                    ],
                    "setAnimatorFloat": [
                        {
                            "name": "FlyMotionHor",
                            "normalizeEnd": 0.0
                        },
                        {
                            "name": "FlyMotionVer",
                            "normalizeEnd": 0.0
                        }
                    ],
                    "LIPMJPLGIKD": true
                },
                "NormalFly": {
                    "$type": "IJOIMFMEGMM",
                    "DLOHGBDFFGB": {
                        "Fly": []
                    },
                    "POLKCLOHPOO": true,
                    "PGKCBIHGAOC": true,
                    "DLAOMOCMANL": [
                        "DoSkill"
                    ],
                    "setAnimatorFloat": [
                        {
                            "name": "FlyMotionHor",
                            "normalizeEnd": 0.0
                        },
                        {
                            "name": "FlyMotionVer",
                            "normalizeEnd": 0.0
                        }
                    ],
                    "LIPMJPLGIKD": true,
                    "PPKOODEDOFN": "BlendMove"
                },
                "HitThrow": {
                    "$type": "IJOIMFMEGMM",
                    "DLOHGBDFFGB": {
                        "HitThrow": []
                    },
                    "PGKCBIHGAOC": true,
                    "AJBLILDCLBO": [
                        "BeHit"
                    ],
                    "JHAJFOOGLBA": true,
                    "OOPPLFOAOGN": true
                },
                "HitThrowDrop": {
                    "$type": "IJOIMFMEGMM",
                    "DLOHGBDFFGB": {
                        "HitThrowDrop": []
                    },
                    "PGKCBIHGAOC": true,
                    "JHAJFOOGLBA": true,
                    "OOPPLFOAOGN": true
                },
                "HitThrowToGround": {
                    "$type": "IJOIMFMEGMM",
                    "DLOHGBDFFGB": {
                        "HitThrowToGround": []
                    },
                    "PGKCBIHGAOC": true,
                    "DLAOMOCMANL": [
                        "DoSkill"
                    ],
                    "JHAJFOOGLBA": true,
                    "OOPPLFOAOGN": true
                },
                "Struggle": {
                    "$type": "IJOIMFMEGMM",
                    "DLOHGBDFFGB": {
                        "Struggle": []
                    },
                    "AJBLILDCLBO": [
                        "BeHit",
                        "HitAir2HitDrop"
                    ],
                    "DLAOMOCMANL": [
                        "DoSkill"
                    ]
                },
                "BeHit": {
                    "$type": "IJOIMFMEGMM",
                    "DLOHGBDFFGB": {
                        "Activated_Hit_H": []
                    },
                    "PGKCBIHGAOC": true,
                    "AJBLILDCLBO": [
                        "BeHit"
                    ],
                    "DLAOMOCMANL": [
                        "DoSkill"
                    ],
                    "OOPPLFOAOGN": true
                },
                "Die": {
                    "$type": "IJOIMFMEGMM",
                    "DLOHGBDFFGB": {
                        "Die": [],
                        "Activated_Die": []
                    }
                },
                "SpecialState": {
                    "$type": "IJOIMFMEGMM",
                    "DLOHGBDFFGB": {
                        "RandomAction01": [],
                        "RandomAction02": []
                    },
                    "PGKCBIHGAOC": true,
                    "DLAOMOCMANL": [
                        "BeHit",
                        "DoSkill"
                    ]
                },
                "Warning": {
                    "$type": "IJOIMFMEGMM",
                    "DLOHGBDFFGB": {
                        "Warning": [
                            "Monster_Sylph_Fire_Warning"
                        ]
                    },
                    "PGKCBIHGAOC": true,
                    "DLAOMOCMANL": [
                        "BeHit",
                        "DoSkill"
                    ],
                    "LIPMJPLGIKD": true
                },
                "FireBullet": {
                    "$type": "IJOIMFMEGMM",
                    "DLOHGBDFFGB": {
                        "FireBullet": [
                            "Monster_Sylph_Fire_FireBullet",
                            "Audio_Sylph_Fire_FireBullet"
                        ]
                    },
                    "PGKCBIHGAOC": true,
                    "OGNDLAMHMPB": 0.009999999776482582,
                    "DLAOMOCMANL": [
                        "BeHit",
                        "DoSkill"
                    ],
                    "LIPMJPLGIKD": true
                },
                "FlyHigh_BS": {
                    "$type": "IJOIMFMEGMM",
                    "DLOHGBDFFGB": {
                        "FlyHigh_BS": [
                            "Monster_Sylph_Fire_FlyHigh_BS",
                            "Audio_Sylph_Fire_FlyHigh_BS"
                        ]
                    },
                    "PGKCBIHGAOC": true,
                    "LAKHIBAPNAB": true,
                    "OGNDLAMHMPB": 0.009999999776482582,
                    "DLAOMOCMANL": [
                        "BeHit",
                        "DoSkill"
                    ]
                },
                "FlyHigh_Loop": {
                    "$type": "IJOIMFMEGMM",
                    "DLOHGBDFFGB": {
                        "FlyHigh_Loop": []
                    },
                    "PGKCBIHGAOC": true,
                    "LAKHIBAPNAB": true,
                    "OGNDLAMHMPB": 0.009999999776482582,
                    "DLAOMOCMANL": [
                        "BeHit",
                        "DoSkill"
                    ]
                },
                "FlyHigh_AS": {
                    "$type": "IJOIMFMEGMM",
                    "DLOHGBDFFGB": {
                        "FlyHigh_AS": [
                            "Monster_Sylph_Fire_FlyHigh_AS",
                            "Audio_Sylph_Fire_FlyHigh_AS"
                        ]
                    },
                    "PGKCBIHGAOC": true,
                    "LAKHIBAPNAB": true,
                    "OGNDLAMHMPB": 0.009999999776482582,
                    "DLAOMOCMANL": [
                        "BeHit",
                        "DoSkill"
                    ]
                },
                "Deathrattle": {
                    "$type": "IJOIMFMEGMM",
                    "DLOHGBDFFGB": {
                        "Deathrattle": [
                            "Monster_Sylph_Fire_Deathrattle_PlayOnce"
                        ]
                    },
                    "PGKCBIHGAOC": true,
                    "DLAOMOCMANL": [
                        "BeHit",
                        "DoSkill"
                    ]
                },
                "Activated": {
                    "$type": "IJOIMFMEGMM",
                    "DLOHGBDFFGB": {
                        "Activated_BS": [
                            "Monster_Sylph_Fire_Activated_Transform",
                            "Audio_Sylph_Common_Activated_BS"
                        ],
                        "Activated_AS": [
                            "Audio_Sylph_Common_Activated_AS"
                        ]
                    },
                    "PGKCBIHGAOC": true,
                    "DLAOMOCMANL": [
                        "BeHit",
                        "DoSkill"
                    ]
                },
                "Activated_Rotation_BS": {
                    "$type": "IJOIMFMEGMM",
                    "DLOHGBDFFGB": {
                        "Activated_Rotation_BS": [
                            "Monster_Sylph_Fire_Activated_Rotation_BS",
                            "Audio_Sylph_Fire_Activated_Rotation_BS"
                        ]
                    },
                    "PGKCBIHGAOC": true,
                    "OGNDLAMHMPB": 0.009999999776482582,
                    "DLAOMOCMANL": [
                        "BeHit",
                        "DoSkill"
                    ],
                    "LIPMJPLGIKD": true
                },
                "Activated_Rotation_Fly": {
                    "$type": "IJOIMFMEGMM",
                    "DLOHGBDFFGB": {
                        "Activated_Rotation_Fly": [
                            "Audio_Monster_Sylph_Fire_Activated_Rotation_Fly"
                        ]
                    },
                    "PGKCBIHGAOC": true,
                    "OGNDLAMHMPB": 0.009999999776482582,
                    "DLAOMOCMANL": [
                        "BeHit",
                        "DoSkill"
                    ],
                    "LIPMJPLGIKD": true
                },
                "Activated_Rotation_Standby": {
                    "$type": "IJOIMFMEGMM",
                    "DLOHGBDFFGB": {
                        "Activated_Rotation_Standby": []
                    },
                    "PGKCBIHGAOC": true,
                    "OGNDLAMHMPB": 0.009999999776482582,
                    "DLAOMOCMANL": [
                        "BeHit",
                        "DoSkill"
                    ],
                    "LIPMJPLGIKD": true
                },
                "Activated_Rotation_AS": {
                    "$type": "IJOIMFMEGMM",
                    "DLOHGBDFFGB": {
                        "Activated_Rotation_AS": [
                            "Audio_Sylph_Fire_Activated_Rotation_AS"
                        ]
                    },
                    "PGKCBIHGAOC": true,
                    "OGNDLAMHMPB": 0.009999999776482582,
                    "DLAOMOCMANL": [
                        "BeHit",
                        "DoSkill"
                    ],
                    "LIPMJPLGIKD": true
                },
                "Activated_Deathrattle": {
                    "$type": "IJOIMFMEGMM",
                    "DLOHGBDFFGB": {
                        "Activated_Deathrattle": [
                            "Monster_Sylph_Fire_Deathrattle_PlayOnce"
                        ]
                    },
                    "PGKCBIHGAOC": true,
                    "DLAOMOCMANL": [
                        "BeHit",
                        "DoSkill"
                    ]
                },
                "Unactivated": {
                    "$type": "IJOIMFMEGMM",
                    "DLOHGBDFFGB": {
                        "Unactivated": [
                            "Audio_Sylph_Rock_Unactivated"
                        ]
                    },
                    "PGKCBIHGAOC": true,
                    "DLAOMOCMANL": [
                        "BeHit",
                        "DoSkill"
                    ]
                }
            }
        }
    },
    "face": {
        "characterName": "Sylph_06",
        "baseFaceAnimation": "Default",
        "intervalFaceAnimation": "Blink",
        "minInterval": 1.5,
        "maxInterval": 5.5
    },
    "billboard": {
        "$type": "PAOBAEKGGBC",
        "attachPoint": "BillboardAttach",
        "offset": {
            "y": 0.5
        },
        "LOMMBJLKPHE": 1.0,
        "FMJAGHIMLEI": true,
        "KGHAGECNJPO": true
    },
    "initialPoses": {
        "Default": {
            "initialPoseID": 101
        }
    },
    "aibeta": {
        "enable": true,
        "moveSetting": {
            "useNavMesh": false,
            "navMeshAgentName": "Undead01"
        },
        "sensing": {
            "settings": {
                "DefaultSetting": {
                    "viewRange": 22.0,
                    "viewPanoramic": true,
                    "feelRange": 8.75
                }
            },
            "templates": {
                "DefaultTemplate": {
                    "DefaultPoses": "DefaultSetting"
                }
            }
        },
        "threat": {
            "clearThreatTargetDistance": 30.0,
            "clearThreatEdgeDistance": 5.0,
            "clearThreatTimerByDistance": 2.0,
            "viewAttenuation": [
                {
                    "x": 12.0,
                    "y": 1.0
                },
                {
                    "x": 20.0,
                    "y": 0.5
                }
            ],
            "JGFOPCOIJOI": ""
        },
        "defendArea": {
            "defendRange": 50.0
        },
        "fly": {
            "enable": true,
            "floatingPoses": [
                101,
                201,
                301,
                211,
                311,
                901
            ]
        },
        "skills": {
            "100": {
                "name": "OnAlert",
                "skillType": "OnAlert",
                "faceTarget": true,
                "publicCDGroup": "",
                "triggerGCD": false,
                "HGAMDGAEIGO": "",
                "stateIDs": [
                    "Warning"
                ],
                "skillQueryingTime": 3.0,
                "flagTargetReachable": "10",
                "flagSelfOnTemplateCollider": "01",
                "flagSelfInZone": "10",
                "flagTargetInZone": "11"
            },
            "201": {
                "name": "FireBullet",
                "priority": 2,
                "castCondition": {
                    "pose": [
                        201
                    ],
                    "pickRangeMin": 5.5,
                    "pickRangeMax": 22.0,
                    "pickRangeYMax": 2.5,
                    "castRangeMin": 5.5,
                    "castRangeMax": 22.0
                },
                "cd": 3.0,
                "cdUpperRange": 2.5,
                "publicCDGroup": "",
                "HGAMDGAEIGO": "",
                "stateIDs": [
                    "FireBullet"
                ],
                "flagTargetReachable": "11",
                "flagSelfOnTemplateCollider": "01",
                "flagSelfInZone": "11",
                "flagTargetInZone": "11"
            },
            "401": {
                "name": "FlyHigh",
                "priority": 2,
                "castCondition": {
                    "pose": [
                        201
                    ],
                    "pickRangeMax": 10.0,
                    "pickRangeYMax": 2.799999952316284,
                    "castRangeMax": 10.0
                },
                "cd": 6.0,
                "cdUpperRange": 2.0,
                "publicCDGroup": "",
                "HGAMDGAEIGO": "",
                "stateIDs": [
                    "FlyHigh_BS",
                    "FlyHigh_Loop",
                    "FlyHigh_AS"
                ],
                "flagTargetReachable": "11",
                "flagSelfOnTemplateCollider": "01",
                "flagSelfInZone": "11",
                "flagTargetInZone": "11"
            },
            "501": {
                "name": "Activated_Rotation_BS",
                "castCondition": {
                    "pose": [
                        301
                    ],
                    "pickRangeMax": 7.0,
                    "pickRangeYMax": 2.0,
                    "castRangeMax": 3.5
                },
                "cd": 12.0,
                "initialCD": 6.0,
                "publicCDGroup": "",
                "HGAMDGAEIGO": "",
                "stateIDs": [
                    "Activated_Rotation_BS"
                ],
                "flagTargetReachable": "11",
                "flagSelfOnTemplateCollider": "01",
                "flagSelfInZone": "11",
                "flagTargetInZone": "11"
            },
            "601": {
                "name": "Activated",
                "priority": 1,
                "castCondition": {
                    "pose": [
                        301
                    ]
                },
                "cd": 999999.0,
                "initialCD": 9999999.0,
                "publicCDGroup": "",
                "HGAMDGAEIGO": "",
                "stateIDs": [
                    "Activated"
                ],
                "flagTargetReachable": "11",
                "flagSelfOnTemplateCollider": "01",
                "flagSelfInZone": "11",
                "flagTargetInZone": "11"
            },
            "701": {
                "name": "Deathrattle",
                "priority": 1,
                "castCondition": {
                    "pose": [
                        211
                    ]
                },
                "publicCDGroup": "",
                "HGAMDGAEIGO": "",
                "stateIDs": [
                    "Deathrattle"
                ],
                "flagTargetReachable": "11",
                "flagSelfOnTemplateCollider": "01",
                "flagSelfInZone": "11",
                "flagTargetInZone": "11"
            },
            "801": {
                "name": "Activated_Deathrattle",
                "priority": 1,
                "castCondition": {
                    "pose": [
                        311
                    ]
                },
                "publicCDGroup": "",
                "HGAMDGAEIGO": "",
                "stateIDs": [
                    "Activated_Deathrattle"
                ],
                "flagTargetReachable": "11",
                "flagSelfOnTemplateCollider": "01",
                "flagSelfInZone": "11",
                "flagTargetInZone": "11"
            }
        },
        "skillGCD": 3.5,
        "combatFixedMoveTactic": [
            {
                "$type": "KMHBGMELMKD",
                "enable": true,
                "LMMKNFEMOMG": {
                    "JOCGOKPMCKI": "Spacial",
                    "JOCOJHEICNA": "",
                    "DBIELIMGBMC": ""
                }
            },
            {
                "$type": "LFIIIPLGFDJ",
                "enable": true,
                "FJANPNOAAFK": {
                    "pose": [
                        201,
                        301
                    ]
                },
                "LMMKNFEMOMG": {
                    "KIHPEPHJMOG": 2,
                    "BDKHNABMMEK": 0.0,
                    "NBAOLBHDNCP": 1.0,
                    "JOCOJHEICNA": ""
                },
                "BIDHHBJEKHM": {
                    "301": {
                        "BDKHNABMMEK": -1.0,
                        "NBAOLBHDNCP": 0.5,
                        "JOCOJHEICNA": ""
                    }
                }
            },
            {
                "$type": "APBKGIMHIEJ",
                "enable": true,
                "FJANPNOAAFK": {
                    "pose": [
                        201,
                        301,
                        302
                    ]
                },
                "LMMKNFEMOMG": {
                    "KIHPEPHJMOG": 2,
                    "EJJMPMENNGE": 13.5,
                    "GABOKKPIPGO": 3.5,
                    "NCOONJCNMJO": 0.0,
                    "EBNPDABAEEB": 1.0,
                    "JOCOJHEICNA": "",
                    "DBIELIMGBMC": ""
                },
                "BIDHHBJEKHM": {
                    "301": {
                        "KIHPEPHJMOG": 2,
                        "EJJMPMENNGE": 3.799999952316284,
                        "GABOKKPIPGO": 3.0,
                        "NCOONJCNMJO": 0.0,
                        "EBNPDABAEEB": 1.0,
                        "JOCOJHEICNA": "",
                        "DBIELIMGBMC": ""
                    },
                    "302": {
                        "KIHPEPHJMOG": 2,
                        "EJJMPMENNGE": 4.0,
                        "GABOKKPIPGO": 2.5,
                        "NCOONJCNMJO": 0.0,
                        "EBNPDABAEEB": 1.0,
                        "JOCOJHEICNA": "",
                        "DBIELIMGBMC": ""
                    }
                }
            },
            {
                "$type": "PJPGGLCGJNJ",
                "enable": true,
                "FJANPNOAAFK": {
                    "pose": [
                        201
                    ]
                },
                "LMMKNFEMOMG": {
                    "KIHPEPHJMOG": 2,
                    "PKCPKDEDONG": 3.0,
                    "AJCEMHKIMHA": 3.0,
                    "JNMPGLIADPP": 6.5,
                    "CCMODCEDODH": 1.0,
                    "HJILEGNBBIJ": 1.5,
                    "HKAMJKMPHDF": 3.0,
                    "FDGLPPNHMLB": {
                        "GECJAGFGHKL": 0.0,
                        "GEECPOOOMFC": 0.20000000298023224,
                        "KEFGIOIFNEO": 0.4000000059604645,
                        "ALHLDKBBFON": 2.0,
                        "JPDHFLJJOPA": 4.0,
                        "LHDCEKHMLPD": 2.0,
                        "BCLEGFPPNIG": 4.0,
                        "PMHKNMGNLFB": 2.0,
                        "CDGJBKJIKLO": 4.0,
                        "CBBOCDCFLON": 1.0,
                        "CAMIPILAAFF": 0.5,
                        "BEBCCGKJANN": 2.0
                    },
                    "JOCOJHEICNA": "",
                    "DBIELIMGBMC": ""
                }
            },
            {
                "$type": "PAHHOIMHFPA",
                "enable": true,
                "FJANPNOAAFK": {
                    "pose": [
                        101
                    ]
                },
                "LMMKNFEMOMG": {
                    "JIFJFPJANHO": 5.0,
                    "CBKHBGCPFBG": 3.0,
                    "LOJEKMFGAKH": 0.30000001192092896,
                    "LFGIDEOEKIB": 1.0,
                    "EKDHNAGGGAE": 12.0,
                    "BFEJAKFKKFP": 4.0,
                    "KOAMKCEFJED": 7.5,
                    "OJNLFIJFJIN": true,
                    "JOCOJHEICNA": "",
                    "DBIELIMGBMC": ""
                }
            }
        ]
    },
    "inputKeys": [
        {
            "keyID": 100,
            "inputKeyCode": 257,
            "abilityName": ""
        },
        {
            "keyID": 201,
            "inputKeyCode": 258,
            "abilityName": ""
        },
        {
            "keyID": 301,
            "inputKeyCode": 259,
            "abilityName": ""
        },
        {
            "keyID": 401,
            "inputKeyCode": 260,
            "abilityName": ""
        },
        {
            "keyID": 501,
            "inputKeyCode": 261,
            "abilityName": ""
        },
        {
            "keyID": 601,
            "inputKeyCode": 262,
            "abilityName": ""
        },
        {
            "keyID": 701,
            "inputKeyCode": 263,
            "abilityName": ""
        },
        {
            "keyID": 801,
            "inputKeyCode": 264,
            "abilityName": ""
        }
    ],
    "move": {
        "$type": "IIGPJJNGCLE",
        "EIEIGIPKLAO": {
            "excludeForces": [
                "RetreatAirType"
            ]
        },
        "EPDJOKGCLPD": true,
        "MLKCNHIIMCE": true,
        "MIPNOGBEANL": "AirBlend",
        "IJMIGIDACLP": "AirBlend",
        "BEPOPLDKJOP": "SlimeType",
        "EKMHGNLHCNM": 2.0,
        "FACNOEFNHIB": "RootNode"
    },
    "audio": {
        "KEEAIACIJBN": "",
        "animAudio": {
            "onTransitionIn": [
                {
                    "currentStateName": "",
                    "audioEvent": {
                        "text": ""
                    }
                }
            ],
            "onTransitionOut": [
                {
                    "currentStateName": "",
                    "audioEvent": {
                        "text": ""
                    }
                }
            ]
        }
    }
}