{
    "luaDataPath": "",
    "dontUseDefaultFinish": true,
    "startBlackKeepTime": 0.5,
    "entityBan": "",
    "disableNpcLod": true,
    "isAutoBanNpc": true,
    "isBanWidgetPet": true,
    "protectNpcMobileLod": true,
    "MNHFNFDCEFG": 7,
    "startFade": {
        "startFadeInDuration": 0.5,
        "startFadeOutDuration": 0.5
    },
    "endFade": {
        "startFadeOutDuration": 0.0
    },
    "actors": [
        {
            "alias": "Avatar",
            "visible": true,
            "bornPointName": "[3_5156:4030.710,486.000,3364.330]",
            "relativePosType": "AVATAR_NEW",
            "relativePosNpcAlias": "",
            "bindMovingTargetKey": "",
            "isInWater": true
        },
        {
            "configID": 1400,
            "alias": "1400",
            "visible": true,
            "bornPointName": "",
            "useRelativePos": true,
            "relativePos": {
                "x": 0.5,
                "z": -0.5
            },
            "removeActorType": "NEW_REMOVE_WITH_DISAPPEAR",
            "relativePosType": "AVATAR_NEW",
            "relativePosNpcAlias": "",
            "notDestroyInTalk": true,
            "bindMovingTargetKey": "",
            "isInWater": true
        },
        {
            "configID": 21122,
            "alias": "21122",
            "visible": true,
            "bornPointName": "",
            "relativePosType": "AVATAR_NEW",
            "relativePosNpcAlias": "",
            "bindMovingTargetKey": ""
        }
    ],
    "group": [
        [
            {
                "$type": "MoleMole.Config.ConfigTimeProtectAction",
                "type": "TIME_PROTECT",
                "duration": 1.0,
                "actionId": 104
            },
            {
                "$type": "MoleMole.Config.ConfigBlackScreenAction",
                "type": "BLACK_SCREEN",
                "duration": 1.0,
                "actionId": 121,
                "flag": 2048,
                "blackScreenType": "KEEP_BLACK",
                "durationToBlack": 0.5,
                "durationKeepBlack": 1.0,
                "durationFromBlack": 0.5,
                "inteePos": "",
                "textMapID": "",
                "useTextFade": true,
                "changeAudioState": true
            },
            {
                "$type": "MoleMole.Config.ConfigTeleportToAction",
                "type": "TELEPORT_TO",
                "aliasList": [
                    "Avatar"
                ],
                "actionId": 128,
                "position": {
                    "x": 4032.31005859375,
                    "y": 485.2080078125,
                    "z": 3366.760009765625
                },
                "forward": {
                    "x": -4.708000183105469,
                    "y": -1.0789999961853027,
                    "z": 0.10100000351667404
                },
                "openLongDisTeleport": true,
                "syncForward": true,
                "posBindMovingTargetKey": "",
                "forwardBindMovingTargetKey": ""
            },
            {
                "$type": "IBPNIIGAIPF",
                "type": "LOOK_AT",
                "aliasList": [
                    "Avatar"
                ],
                "actionId": 132,
                "flag": 64,
                "GGIENKFBOGL": true,
                "useTargetPos": true,
                "GCOONJBHNIM": true,
                "JHNJNNOPJKG": {
                    "x": 4029.550048828125,
                    "y": 486.135009765625,
                    "z": 3367.055908203125
                },
                "NDOMJCOFKDJ": 0.5,
                "KIPMIDIKECP": "21122",
                "AHLPNEGAKGG": "NONE",
                "FGPHOPBEJDE": true,
                "PEIIOFIBMAK": 10.0,
                "HJJAFGPMJNJ": "",
                "AOFBAGFCGPJ": ""
            },
            {
                "$type": "MoleMole.Config.ConfigVisibleInterAction",
                "type": "VISIBLE",
                "aliasList": [
                    "Avatar"
                ],
                "actionId": 158,
                "isVisible": true,
                "extraParam": ""
            },
            {
                "$type": "KCBOGFFHPBD",
                "type": "BODY_LANG",
                "aliasList": [
                    "Avatar"
                ],
                "actionId": 161,
                "FHLAMNNHMFA": true,
                "KCEHDJLKIAL": false,
                "KCOLHJBDILK": true,
                "AOFEDPBOOIE": ""
            },
            {
                "$type": "KCBOGFFHPBD",
                "type": "BODY_LANG",
                "aliasList": [
                    "1400"
                ],
                "actionId": 117,
                "AHGOBCDHCMC": true,
                "FHLAMNNHMFA": true,
                "KCEHDJLKIAL": false,
                "AOFEDPBOOIE": ""
            },
            {
                "$type": "MoleMole.Config.ConfigTeleportToAction",
                "type": "TELEPORT_TO",
                "aliasList": [
                    "1400"
                ],
                "actionId": 127,
                "position": {
                    "x": 4031.5859375,
                    "y": 484.98199462890625,
                    "z": 3366.968994140625
                },
                "forward": {
                    "x": -1.5800000429153442,
                    "y": 1.8580000400543213,
                    "z": -2.575000047683716
                },
                "openLongDisTeleport": true,
                "syncForward": true,
                "posBindMovingTargetKey": "",
                "forwardBindMovingTargetKey": ""
            },
            {
                "$type": "IBPNIIGAIPF",
                "type": "LOOK_AT",
                "aliasList": [
                    "1400"
                ],
                "actionId": 131,
                "flag": 64,
                "GGIENKFBOGL": true,
                "useTargetPos": true,
                "GCOONJBHNIM": true,
                "JHNJNNOPJKG": {
                    "x": 4029.737060546875,
                    "y": 486.2070007324219,
                    "z": 3366.60400390625
                },
                "NDOMJCOFKDJ": 0.5,
                "KIPMIDIKECP": "21122",
                "AHLPNEGAKGG": "NONE",
                "FGPHOPBEJDE": true,
                "PEIIOFIBMAK": 10.0,
                "HJJAFGPMJNJ": "",
                "AOFBAGFCGPJ": ""
            },
            {
                "$type": "MoleMole.Config.ConfigTeleportToAction",
                "type": "TELEPORT_TO",
                "aliasList": [
                    "21122"
                ],
                "actionId": 130,
                "position": {
                    "x": 1.0,
                    "y": 1.0,
                    "z": 1.0
                },
                "forward": {
                    "z": 1.0
                },
                "openLongDisTeleport": true,
                "syncForward": true,
                "posBindMovingTargetKey": "",
                "forwardBindMovingTargetKey": ""
            },
            {
                "$type": "BCJBNCJOPCE",
                "type": "CAMERA_MOVE",
                "delayTime": 0.550000011920929,
                "duration": 0.5,
                "actionId": 167,
                "AKFGKKEOEFA": {
                    "x": 4029.946044921875,
                    "y": 482.91900634765625,
                    "z": 3363.239013671875
                },
                "NGEBMAEFFGJ": {
                    "x": 4030.39111328125,
                    "y": 483.00201416015625,
                    "z": 3364.131103515625
                },
                "LIGHLBKBDEI": 52.915000915527344,
                "GFIOJGJJGCN": 6,
                "ABAEPHOGOFF": "EaseInOutCubic",
                "KFDBMBFFANN": {},
                "IEJBKHHEJEN": true,
                "CEDHIBLHMKP": false,
                "KIPMIDIKECP": "",
                "ANFHNPOCMNI": true,
                "BDLGHOJPJHD": "",
                "LCOJGFEOLCK": "",
                "BBBGAEDCJEL": ""
            }
        ],
        [
            {
                "$type": "BCJBNCJOPCE",
                "type": "CAMERA_MOVE",
                "duration": 0.5,
                "actionId": 174,
                "AKFGKKEOEFA": {
                    "x": 4035.389892578125,
                    "y": 489.2539978027344,
                    "z": 3367.6650390625
                },
                "NGEBMAEFFGJ": {
                    "x": 4034.751953125,
                    "y": 488.56298828125,
                    "z": 3367.323974609375
                },
                "GFIOJGJJGCN": 6,
                "ABAEPHOGOFF": "EaseInOutCubic",
                "KFDBMBFFANN": {},
                "IEJBKHHEJEN": true,
                "CEDHIBLHMKP": false,
                "KIPMIDIKECP": "",
                "ANFHNPOCMNI": true,
                "BDLGHOJPJHD": "",
                "LCOJGFEOLCK": "",
                "BBBGAEDCJEL": ""
            },
            {
                "$type": "MoleMole.Config.ConfigBlackScreenAction",
                "type": "BLACK_SCREEN",
                "duration": 0.5,
                "actionId": 175,
                "flag": 2048,
                "blackScreenType": "FROM_BLACK",
                "durationToBlack": 0.5,
                "durationKeepBlack": 0.5,
                "durationFromBlack": 0.5,
                "inteePos": "",
                "textMapID": "",
                "useTextFade": true,
                "changeAudioState": true
            },
            {
                "$type": "MoleMole.Config.ConfigCameraDOFAction",
                "type": "CAMERA_DOF",
                "actionId": 179,
                "focusDistance": 3.2730000019073486,
                "focusRange": 2.9709999561309814,
                "nearFocalDistance": 0.6620000004768372,
                "nearFocalTransDistance": 2.9749999046325684,
                "dofBlurAmount": 2.0,
                "quality": 3
            },
            {
                "$type": "IBPNIIGAIPF",
                "type": "LOOK_AT",
                "aliasList": [
                    "Avatar"
                ],
                "actionId": 177,
                "flag": 64,
                "GGIENKFBOGL": true,
                "NDOMJCOFKDJ": 0.5,
                "KIPMIDIKECP": "21122",
                "FGPHOPBEJDE": true,
                "PEIIOFIBMAK": 10.0,
                "HJJAFGPMJNJ": "",
                "AOFBAGFCGPJ": ""
            },
            {
                "$type": "CCEEIGNAILH",
                "type": "DIALOG",
                "aliasList": [
                    "1400"
                ],
                "actionId": 173,
                "KICBIOMGHIN": 740840605,
                "PNCCODDABKI": 0.5
            },
            {
                "$type": "IBPNIIGAIPF",
                "type": "LOOK_AT",
                "aliasList": [
                    "1400"
                ],
                "actionId": 178,
                "flag": 64,
                "GGIENKFBOGL": true,
                "NDOMJCOFKDJ": 0.5,
                "KIPMIDIKECP": "21122",
                "FGPHOPBEJDE": true,
                "PEIIOFIBMAK": 10.0,
                "HJJAFGPMJNJ": "",
                "AOFBAGFCGPJ": ""
            },
            {
                "$type": "BCJBNCJOPCE",
                "type": "CAMERA_MOVE",
                "delayTime": 0.10000000149011612,
                "duration": 5.0,
                "actionId": 176,
                "AKFGKKEOEFA": {
                    "x": 4035.488037109375,
                    "y": 489.2539978027344,
                    "z": 3367.468017578125
                },
                "NGEBMAEFFGJ": {
                    "x": 4034.8291015625,
                    "y": 488.56298828125,
                    "z": 3367.1689453125
                },
                "ABAEPHOGOFF": "EaseOutQuad",
                "KFDBMBFFANN": {},
                "IEJBKHHEJEN": true,
                "CEDHIBLHMKP": false,
                "KIPMIDIKECP": "",
                "ANFHNPOCMNI": true,
                "BDLGHOJPJHD": "",
                "LCOJGFEOLCK": "",
                "BBBGAEDCJEL": ""
            }
        ],
        [
            {
                "$type": "BCJBNCJOPCE",
                "type": "CAMERA_MOVE",
                "duration": 0.6000000238418579,
                "actionId": 162,
                "AKFGKKEOEFA": {
                    "x": 4029.946044921875,
                    "y": 482.91900634765625,
                    "z": 3363.239013671875
                },
                "NGEBMAEFFGJ": {
                    "x": 4030.39111328125,
                    "y": 483.00201416015625,
                    "z": 3364.131103515625
                },
                "LIGHLBKBDEI": 52.915000915527344,
                "GFIOJGJJGCN": 6,
                "ABAEPHOGOFF": "EaseInOutCubic",
                "KFDBMBFFANN": {},
                "IEJBKHHEJEN": true,
                "CEDHIBLHMKP": false,
                "KIPMIDIKECP": "",
                "ANFHNPOCMNI": true,
                "BDLGHOJPJHD": "",
                "LCOJGFEOLCK": "",
                "BBBGAEDCJEL": ""
            },
            {
                "$type": "MoleMole.Config.ConfigTeleportToAction",
                "type": "TELEPORT_TO",
                "aliasList": [
                    "Avatar"
                ],
                "actionId": 150,
                "position": {
                    "x": 4032.133056640625,
                    "y": 484.9540100097656,
                    "z": 3366.842041015625
                },
                "forward": {
                    "x": -2.0250000953674316,
                    "z": -0.09799999743700027
                },
                "openLongDisTeleport": true,
                "syncForward": true,
                "posBindMovingTargetKey": "",
                "forwardBindMovingTargetKey": ""
            },
            {
                "$type": "IBPNIIGAIPF",
                "type": "LOOK_AT",
                "aliasList": [
                    "Avatar"
                ],
                "actionId": 181,
                "flag": 64,
                "GGIENKFBOGL": true,
                "NDOMJCOFKDJ": 0.5,
                "KIPMIDIKECP": "",
                "FGPHOPBEJDE": true,
                "PEIIOFIBMAK": 10.0,
                "HJJAFGPMJNJ": "",
                "AOFBAGFCGPJ": ""
            },
            {
                "$type": "CCEEIGNAILH",
                "type": "DIALOG",
                "aliasList": [
                    "1400"
                ],
                "actionId": 107,
                "KICBIOMGHIN": 740840601,
                "PNCCODDABKI": 0.5
            },
            {
                "$type": "MoleMole.Config.ConfigTeleportToAction",
                "type": "TELEPORT_TO",
                "aliasList": [
                    "1400"
                ],
                "actionId": 149,
                "position": {
                    "x": 4031.722900390625,
                    "y": 484.9530029296875,
                    "z": 3367.2958984375
                },
                "forward": {
                    "x": -1.659000039100647,
                    "y": 0.02800000086426735,
                    "z": -0.4950000047683716
                },
                "openLongDisTeleport": true,
                "syncForward": true,
                "posBindMovingTargetKey": "",
                "forwardBindMovingTargetKey": ""
            },
            {
                "$type": "IBPNIIGAIPF",
                "type": "LOOK_AT",
                "aliasList": [
                    "1400"
                ],
                "actionId": 180,
                "flag": 64,
                "GGIENKFBOGL": true,
                "NDOMJCOFKDJ": 0.5,
                "KIPMIDIKECP": "",
                "FGPHOPBEJDE": true,
                "PEIIOFIBMAK": 10.0,
                "HJJAFGPMJNJ": "",
                "AOFBAGFCGPJ": ""
            },
            {
                "$type": "MoleMole.Config.ConfigSimpleUIShowInterAction",
                "type": "SIMPLE_UI_SHOW",
                "delayTime": 0.10000000149011612,
                "actionId": 164,
                "contextName": "BlinkDialog",
                "param": ""
            },
            {
                "$type": "MoleMole.Config.ConfigNewCameraShakeAction",
                "type": "NEW_CAMERA_SHAKE",
                "delayTime": 0.10000000149011612,
                "actionId": 165,
                "shakeType": "INFINITE_ROTATION",
                "seed": 0.257999986410141,
                "amplitudeBase": {
                    "x": 1.399999976158142,
                    "y": 1.2000000476837158,
                    "z": 1.7999999523162842
                },
                "frequencyBase": {
                    "x": 0.5,
                    "y": 0.5,
                    "z": 0.4000000059604645
                },
                "amplitudeCurve": {
                    "GPKADJIGCHE": [
                        {
                            "POCNCPKHFLD": 1.0,
                            "LAAHFFGNMBG": 1.0
                        },
                        {
                            "time": 1.0,
                            "value": 1.0,
                            "POCNCPKHFLD": 1.0,
                            "LAAHFFGNMBG": 1.0
                        }
                    ]
                },
                "frequencyCurve": {
                    "GPKADJIGCHE": [
                        {
                            "POCNCPKHFLD": 1.0,
                            "LAAHFFGNMBG": 1.0
                        },
                        {
                            "time": 1.0,
                            "value": 1.0,
                            "POCNCPKHFLD": 1.0,
                            "LAAHFFGNMBG": 1.0
                        }
                    ]
                }
            },
            {
                "$type": "MoleMole.Config.ConfigCameraDOFAction",
                "type": "CAMERA_DOF",
                "delayTime": 0.10000000149011612,
                "actionId": 166,
                "enabled": true,
                "focusDistance": 3.2730000019073486,
                "focusRange": 2.9709999561309814,
                "nearFocalDistance": 0.6620000004768372,
                "nearFocalTransDistance": 2.9749999046325684,
                "dofBlurAmount": 2.0,
                "quality": 3
            },
            {
                "$type": "BCJBNCJOPCE",
                "type": "CAMERA_MOVE",
                "delayTime": 0.14900000393390656,
                "duration": 2.986999988555908,
                "actionId": 163,
                "AKFGKKEOEFA": {
                    "x": 4029.7470703125,
                    "y": 483.968994140625,
                    "z": 3363.048095703125
                },
                "NGEBMAEFFGJ": {
                    "x": 4030.156005859375,
                    "y": 484.2149963378906,
                    "z": 3363.926025390625
                },
                "LIGHLBKBDEI": 52.915000915527344,
                "ABAEPHOGOFF": "EaseOutQuad",
                "KFDBMBFFANN": {},
                "IEJBKHHEJEN": true,
                "CEDHIBLHMKP": false,
                "KIPMIDIKECP": "",
                "ANFHNPOCMNI": true,
                "BDLGHOJPJHD": "",
                "LCOJGFEOLCK": "",
                "BBBGAEDCJEL": ""
            }
        ],
        [
            {
                "$type": "MoleMole.Config.ConfigCameraShakeAction",
                "type": "CAMERA_SHAKE",
                "actionId": 170,
                "shakeRange": 0.10000000149011612,
                "shakeTime": 10.0,
                "shakeDinstance": 0.10000000149011612,
                "shakeDir": {
                    "x": 0.10000000149011612,
                    "y": 1.0,
                    "z": 0.20000000298023224
                },
                "randomSetting": {
                    "energyCurve": {}
                }
            },
            {
                "$type": "CCEEIGNAILH",
                "type": "DIALOG",
                "delayTime": 0.10000000149011612,
                "aliasList": [
                    "21122"
                ],
                "actionId": 109,
                "KICBIOMGHIN": 740840602,
                "PNCCODDABKI": 0.5
            }
        ],
        [
            {
                "$type": "IBPNIIGAIPF",
                "type": "LOOK_AT",
                "aliasList": [
                    "Avatar"
                ],
                "actionId": 152,
                "flag": 64,
                "GGIENKFBOGL": true,
                "useTargetPos": true,
                "GCOONJBHNIM": true,
                "JHNJNNOPJKG": {
                    "x": 4028.946044921875,
                    "y": 483.7090148925781,
                    "z": 3362.43896484375
                },
                "NDOMJCOFKDJ": 0.5,
                "KIPMIDIKECP": "",
                "AHLPNEGAKGG": "NONE",
                "FGPHOPBEJDE": true,
                "PEIIOFIBMAK": 10.0,
                "HJJAFGPMJNJ": "",
                "AOFBAGFCGPJ": ""
            },
            {
                "$type": "CCEEIGNAILH",
                "type": "DIALOG",
                "aliasList": [
                    "1400"
                ],
                "actionId": 111,
                "KICBIOMGHIN": 740840603,
                "PNCCODDABKI": 0.5
            },
            {
                "$type": "KCBOGFFHPBD",
                "type": "BODY_LANG",
                "aliasList": [
                    "1400"
                ],
                "actionId": 147,
                "GPIEDGOMCGL": 1110,
                "FHLAMNNHMFA": true,
                "KCEHDJLKIAL": false,
                "KCOLHJBDILK": true,
                "AOFEDPBOOIE": ""
            },
            {
                "$type": "IBPNIIGAIPF",
                "type": "LOOK_AT",
                "aliasList": [
                    "1400"
                ],
                "actionId": 151,
                "flag": 64,
                "GGIENKFBOGL": true,
                "useTargetPos": true,
                "GCOONJBHNIM": true,
                "JHNJNNOPJKG": {
                    "x": 4030.9140625,
                    "y": 485.0830078125,
                    "z": 3362.595947265625
                },
                "NDOMJCOFKDJ": 0.5,
                "KIPMIDIKECP": "",
                "AHLPNEGAKGG": "NONE",
                "FGPHOPBEJDE": true,
                "PEIIOFIBMAK": 10.0,
                "HJJAFGPMJNJ": "",
                "AOFBAGFCGPJ": ""
            }
        ],
        [
            {
                "$type": "MoleMole.Config.ConfigBlackScreenAction",
                "type": "BLACK_SCREEN",
                "actionId": 113,
                "flag": 2048,
                "durationToBlack": 0.5,
                "durationKeepBlack": 3.0,
                "inteePos": "",
                "textMapID": "",
                "useTextFade": true,
                "dialogID": 740840604,
                "needWaitClick": true,
                "changeAudioState": true
            },
            {
                "$type": "CCEEIGNAILH",
                "type": "DIALOG_CLEAR",
                "actionId": 114
            },
            {
                "$type": "MoleMole.Config.ConfigTimeProtectAction",
                "type": "TIME_PROTECT",
                "duration": 3.0,
                "actionId": 157
            },
            {
                "$type": "KCBOGFFHPBD",
                "type": "BODY_LANG",
                "aliasList": [
                    "1400"
                ],
                "actionId": 148,
                "AHGOBCDHCMC": true,
                "FHLAMNNHMFA": true,
                "KCEHDJLKIAL": false,
                "KCOLHJBDILK": true,
                "AOFEDPBOOIE": ""
            },
            {
                "$type": "MoleMole.Config.ConfigTeleportToAction",
                "type": "TELEPORT_TO",
                "delayTime": 1.0,
                "aliasList": [
                    "Avatar"
                ],
                "actionId": 126,
                "position": {
                    "x": 3920.221923828125,
                    "y": 503.9909973144531,
                    "z": 3407.089111328125
                },
                "forward": {
                    "x": 9.097000122070312,
                    "y": 1.3899999856948853,
                    "z": -1.0800000429153442
                },
                "openLongDisTeleport": true,
                "syncForward": true,
                "posBindMovingTargetKey": "",
                "forwardBindMovingTargetKey": ""
            }
        ],
        [
            {
                "$type": "MoleMole.Config.ConfigSimpleBlackScreenAction",
                "type": "SIMPLE_BLACK_SCREEN",
                "actionId": 115,
                "durationKeepBlack": 1.0,
                "durationFromBlack": 0.5,
                "textMapID": ""
            },
            {
                "$type": "MoleMole.Config.ConfigTimeProtectAction",
                "type": "TIME_PROTECT",
                "duration": 1.0,
                "actionId": 116
            },
            {
                "$type": "BCJBNCJOPCE",
                "type": "CAMERA_MOVE",
                "delayTime": 0.5,
                "duration": 0.10000000149011612,
                "actionId": 123,
                "KNAICGCGOHN": "EXIT",
                "NGEBMAEFFGJ": {
                    "z": 1.0
                },
                "LIGHLBKBDEI": 30.0,
                "GFIOJGJJGCN": 5,
                "ABAEPHOGOFF": "EaseInOutCubic",
                "KFDBMBFFANN": {},
                "CEDHIBLHMKP": false,
                "KIPMIDIKECP": "",
                "ANFHNPOCMNI": true,
                "BDLGHOJPJHD": "",
                "LCOJGFEOLCK": "",
                "BBBGAEDCJEL": ""
            },
            {
                "$type": "KCBOGFFHPBD",
                "type": "BODY_LANG",
                "delayTime": 0.6000000238418579,
                "aliasList": [
                    "1400"
                ],
                "actionId": 118,
                "AHGOBCDHCMC": true,
                "FHLAMNNHMFA": true,
                "KCEHDJLKIAL": false,
                "AOFEDPBOOIE": ""
            }
        ]
    ],
    "groupId": [
        {
            "grpId": 667193018,
            "nextGrpId": 667193019
        },
        {
            "index": 1,
            "grpId": 667193019,
            "nextGrpId": 667193020
        },
        {
            "index": 2,
            "grpId": 667193020,
            "nextGrpId": 667193021
        },
        {
            "index": 3,
            "grpId": 667193021,
            "nextGrpId": 667193022
        },
        {
            "index": 4,
            "grpId": 667193022,
            "nextGrpId": 667193023
        },
        {
            "index": 5,
            "grpId": 667193023,
            "nextGrpId": 667193024
        },
        {
            "index": 6,
            "grpId": 667193024,
            "nextGrpId": 667193025
        }
    ]
}