{
    "GuideTestSaveCharacter": {
        "$type": "KFHABCCDNGH",
        "name": "",
        "BCILPHCFGMN": [
            {
                "$type": "PJKGLPINGJA",
                "GANHCJKPJDM": [
                    {
                        "IBHBDLEPPLL": "GrpCharacter/GrpTab/Menu/Content/BtnTalent",
                        "DIKEPIHPDEI": "CharacterPage",
                        "GEKNOAFLBFJ": "",
                        "EKIIIIDCCLP": "UI_ACTIVITY_BARTENDER_BLUE_NUM3",
                        "CLBAIJFNHPG": "",
                        "FNGILEBFHMD": "L",
                        "type": "Blink",
                        "FKNOJMCONPB": ""
                    },
                    {
                        "IBHBDLEPPLL": "GrpCharacter/GrpTab/Menu/Content/BtnWeapon",
                        "DIKEPIHPDEI": "CharacterPage",
                        "GEKNOAFLBFJ": "",
                        "EKIIIIDCCLP": "UI_ACTIVITY_BARTENDER_BLUE_NUM3",
                        "CLBAIJFNHPG": "",
                        "FNGILEBFHMD": "L",
                        "type": "Blink",
                        "FKNOJMCONPB": "",
                        "FIKMEBEPBAI": 1
                    },
                    {
                        "IBHBDLEPPLL": "GrpCharacter/GrpTab/Tab_Left",
                        "DIKEPIHPDEI": "CharacterPage",
                        "GEKNOAFLBFJ": "",
                        "EKIIIIDCCLP": "",
                        "CLBAIJFNHPG": "",
                        "MKPOIOKKBCC": "Black",
                        "type": "Blink",
                        "JMNPNLMKBHE": "TabItem",
                        "value": 1.0,
                        "FKNOJMCONPB": "",
                        "FIKMEBEPBAI": 2
                    },
                    {
                        "IBHBDLEPPLL": "GrpCharacter/GrpTab/Menu/Content/BtnRelic",
                        "DIKEPIHPDEI": "CharacterPage",
                        "GEKNOAFLBFJ": "",
                        "EKIIIIDCCLP": "UI_ACTIVITY_BARTENDER_BLUE_NUM3",
                        "CLBAIJFNHPG": "",
                        "FNGILEBFHMD": "L",
                        "type": "Blink",
                        "FKNOJMCONPB": "",
                        "FIKMEBEPBAI": 3
                    }
                ],
                "LFPJKIFELJC": "",
                "LCCHHJKAIMO": "",
                "JOECPIMCINK": "",
                "POCAJJAFFGA": "",
                "OIEBGDIONCC": true,
                "NJBJGIONPOK": "InLevelMainPage"
            }
        ],
        "BBDACCKJOAM": [
            [
                {
                    "$type": "ACFPKFKJLOP",
                    "ILFDBFJFGPJ": "GrpCharacter/GrpTab/Menu/Content/BtnTalent",
                    "NPPACGJAIHI": "",
                    "DIKEPIHPDEI": "CharacterPage",
                    "MANDDLNLCAC": true
                }
            ]
        ]
    },
    "GuideTestSaveMap": {
        "$type": "KFHABCCDNGH",
        "name": "",
        "BCILPHCFGMN": [
            {
                "$type": "PJKGLPINGJA",
                "GANHCJKPJDM": [
                    {
                        "IBHBDLEPPLL": "GrpMap/Top/TopPersistant/Dungeon_Tower/BtnTips/Content",
                        "DIKEPIHPDEI": "InLevelMapPage",
                        "GEKNOAFLBFJ": "",
                        "EKIIIIDCCLP": "UI_ACTIVITY_BARTENDER_BLUE_NUM3",
                        "CLBAIJFNHPG": "",
                        "FNGILEBFHMD": "L",
                        "type": "Blink",
                        "FKNOJMCONPB": ""
                    },
                    {
                        "IBHBDLEPPLL": "GrpMap/MapTipsContainer/MapSwitch/ScrollView",
                        "DIKEPIHPDEI": "InLevelMapPage",
                        "GEKNOAFLBFJ": "",
                        "EKIIIIDCCLP": "UI_ACTIVITY_BARTENDER_BLUE_NUM3",
                        "CLBAIJFNHPG": "",
                        "FNGILEBFHMD": "L",
                        "type": "Blink",
                        "JMNPNLMKBHE": "GridScroller",
                        "value": 1.0,
                        "FKNOJMCONPB": "",
                        "FIKMEBEPBAI": 1
                    },
                    {
                        "IBHBDLEPPLL": "GrpMap/ExploratoryDegree/GrpText",
                        "DIKEPIHPDEI": "InLevelMapPage",
                        "GEKNOAFLBFJ": "",
                        "EKIIIIDCCLP": "UI_ACTIVITY_BARTENDER_BLUE_NUM3",
                        "CLBAIJFNHPG": "",
                        "FNGILEBFHMD": "L",
                        "type": "Blink",
                        "FKNOJMCONPB": "",
                        "FIKMEBEPBAI": 2
                    },
                    {
                        "IBHBDLEPPLL": "GrpMap/Top/TopPersistant/Dungeon_Reward/BtnAdd/Content",
                        "DIKEPIHPDEI": "InLevelMapPage",
                        "GEKNOAFLBFJ": "",
                        "EKIIIIDCCLP": "UI_ACTIVITY_BARTENDER_BLUE_NUM3",
                        "CLBAIJFNHPG": "",
                        "FNGILEBFHMD": "L",
                        "type": "Blink",
                        "FKNOJMCONPB": "",
                        "FIKMEBEPBAI": 3
                    }
                ],
                "LFPJKIFELJC": "",
                "LCCHHJKAIMO": "",
                "JOECPIMCINK": "",
                "POCAJJAFFGA": "",
                "OIEBGDIONCC": true,
                "NJBJGIONPOK": "InLevelMainPage"
            }
        ],
        "BBDACCKJOAM": [
            [
                {
                    "$type": "ACFPKFKJLOP",
                    "ILFDBFJFGPJ": "GrpMap/Top/TopPersistant/Dungeon_Tower/BtnTips/Content",
                    "NPPACGJAIHI": "",
                    "DIKEPIHPDEI": "InLevelMapPage",
                    "MANDDLNLCAC": true
                }
            ]
        ]
    },
    "GuideTestGeneralResin": {
        "$type": "KFHABCCDNGH",
        "name": "",
        "BCILPHCFGMN": [
            {
                "$type": "PJKGLPINGJA",
                "GANHCJKPJDM": [
                    {
                        "IBHBDLEPPLL": "Dialog/Content/ActionButton/BtnRight/Content",
                        "DIKEPIHPDEI": "OpenRewardDialog",
                        "GEKNOAFLBFJ": "",
                        "EKIIIIDCCLP": "UI_ACTIVITY_BARTENDER_BLUE_NUM3",
                        "CLBAIJFNHPG": "",
                        "FNGILEBFHMD": "L",
                        "type": "Blink",
                        "FKNOJMCONPB": "",
                        "LKBHOGKHCIA": "RewardAddResin",
                        "IBOAFMJHJEN": true
                    }
                ],
                "LFPJKIFELJC": "",
                "LCCHHJKAIMO": "",
                "JOECPIMCINK": "",
                "POCAJJAFFGA": "",
                "NJBJGIONPOK": "InLevelMainPage"
            }
        ],
        "BBDACCKJOAM": [
            [
                {
                    "$type": "ACFPKFKJLOP",
                    "LKBHOGKHCIA": "RewardAddResin",
                    "IBOAFMJHJEN": true,
                    "ILFDBFJFGPJ": "Dialog/Content/ActionButton/BtnRight/Content",
                    "NPPACGJAIHI": "",
                    "DIKEPIHPDEI": "OpenRewardDialog"
                }
            ]
        ]
    },
    "GuideTestSaveDebug": {
        "$type": "KFHABCCDNGH",
        "name": "",
        "BCILPHCFGMN": [
            {
                "$type": "PJKGLPINGJA",
                "GANHCJKPJDM": [
                    {
                        "IBHBDLEPPLL": "Stamina",
                        "DIKEPIHPDEI": "InLevelDebugDevDialog",
                        "GEKNOAFLBFJ": "",
                        "EKIIIIDCCLP": "UI_ACTIVITY_BARTENDER_BLUE_NUM3",
                        "CLBAIJFNHPG": "",
                        "FNGILEBFHMD": "L",
                        "type": "Blink",
                        "FKNOJMCONPB": ""
                    },
                    {
                        "IBHBDLEPPLL": "SkillNoCD",
                        "DIKEPIHPDEI": "InLevelDebugDevDialog",
                        "GEKNOAFLBFJ": "",
                        "EKIIIIDCCLP": "UI_ACTIVITY_BARTENDER_BLUE_NUM3",
                        "CLBAIJFNHPG": "",
                        "FNGILEBFHMD": "L",
                        "type": "Blink",
                        "FKNOJMCONPB": "",
                        "FIKMEBEPBAI": 1
                    },
                    {
                        "IBHBDLEPPLL": "LogSwitch",
                        "DIKEPIHPDEI": "InLevelDebugDevDialog",
                        "GEKNOAFLBFJ": "",
                        "EKIIIIDCCLP": "UI_ACTIVITY_BARTENDER_BLUE_NUM3",
                        "CLBAIJFNHPG": "",
                        "FNGILEBFHMD": "L",
                        "type": "Blink",
                        "FKNOJMCONPB": "",
                        "FIKMEBEPBAI": 2
                    }
                ],
                "LFPJKIFELJC": "",
                "LCCHHJKAIMO": "",
                "JOECPIMCINK": "",
                "POCAJJAFFGA": "",
                "OIEBGDIONCC": true,
                "NJBJGIONPOK": "InLevelMainPage"
            }
        ],
        "BBDACCKJOAM": [
            [
                {
                    "$type": "ACFPKFKJLOP",
                    "ILFDBFJFGPJ": "Stamina",
                    "NPPACGJAIHI": "",
                    "DIKEPIHPDEI": "InLevelDebugDevDialog",
                    "MANDDLNLCAC": true
                }
            ]
        ]
    },
    "GuideTestActivity": {
        "$type": "LMNGENNIJNH",
        "name": "",
        "BCILPHCFGMN": [
            {
                "$type": "PJKGLPINGJA",
                "GANHCJKPJDM": [
                    {
                        "IBHBDLEPPLL": "Stamina",
                        "DIKEPIHPDEI": "InLevelDebugDevDialog",
                        "GEKNOAFLBFJ": "",
                        "EKIIIIDCCLP": "UI_ACTIVITY_BARTENDER_BLUE_NUM3",
                        "CLBAIJFNHPG": "",
                        "FNGILEBFHMD": "L",
                        "type": "Blink",
                        "FKNOJMCONPB": ""
                    },
                    {
                        "IBHBDLEPPLL": "SkillNoCD",
                        "DIKEPIHPDEI": "InLevelDebugDevDialog",
                        "GEKNOAFLBFJ": "",
                        "EKIIIIDCCLP": "UI_ACTIVITY_BARTENDER_BLUE_NUM3",
                        "CLBAIJFNHPG": "",
                        "FNGILEBFHMD": "L",
                        "type": "Blink",
                        "FKNOJMCONPB": "",
                        "FIKMEBEPBAI": 1
                    },
                    {
                        "IBHBDLEPPLL": "LogSwitch",
                        "DIKEPIHPDEI": "InLevelDebugDevDialog",
                        "GEKNOAFLBFJ": "",
                        "EKIIIIDCCLP": "UI_ACTIVITY_BARTENDER_BLUE_NUM3",
                        "CLBAIJFNHPG": "",
                        "FNGILEBFHMD": "L",
                        "type": "Blink",
                        "FKNOJMCONPB": "",
                        "FIKMEBEPBAI": 2
                    }
                ],
                "LFPJKIFELJC": "",
                "LCCHHJKAIMO": "",
                "JOECPIMCINK": "",
                "POCAJJAFFGA": "",
                "OIEBGDIONCC": true,
                "NJBJGIONPOK": "InLevelMainPage"
            }
        ],
        "BBDACCKJOAM": [
            [
                {
                    "$type": "ACFPKFKJLOP",
                    "ILFDBFJFGPJ": "Stamina",
                    "NPPACGJAIHI": "",
                    "DIKEPIHPDEI": "InLevelDebugDevDialog",
                    "MANDDLNLCAC": true
                }
            ]
        ],
        "DMNMJEOIJKK": 2020
    },
    "GuideTestWidgetNum": {
        "$type": "KFHABCCDNGH",
        "name": "",
        "predicates": [
            {
                "$type": "MNKGMIHHECB",
                "AEJPGEFOJPM": 3,
                "HIIFONCFJLL": true,
                "NNKMNPCOMMB": "Greater"
            }
        ],
        "BCILPHCFGMN": [
            {
                "$type": "PJKGLPINGJA",
                "GANHCJKPJDM": [
                    {
                        "IBHBDLEPPLL": "Stamina",
                        "DIKEPIHPDEI": "InLevelDebugDevDialog",
                        "GEKNOAFLBFJ": "",
                        "EKIIIIDCCLP": "UI_ACTIVITY_BARTENDER_BLUE_NUM3",
                        "CLBAIJFNHPG": "",
                        "FNGILEBFHMD": "L",
                        "type": "Blink",
                        "FKNOJMCONPB": ""
                    },
                    {
                        "IBHBDLEPPLL": "SkillNoCD",
                        "DIKEPIHPDEI": "InLevelDebugDevDialog",
                        "GEKNOAFLBFJ": "",
                        "EKIIIIDCCLP": "UI_ACTIVITY_BARTENDER_BLUE_NUM3",
                        "CLBAIJFNHPG": "",
                        "FNGILEBFHMD": "L",
                        "type": "Blink",
                        "FKNOJMCONPB": "",
                        "FIKMEBEPBAI": 1
                    },
                    {
                        "IBHBDLEPPLL": "LogSwitch",
                        "DIKEPIHPDEI": "InLevelDebugDevDialog",
                        "GEKNOAFLBFJ": "",
                        "EKIIIIDCCLP": "UI_ACTIVITY_BARTENDER_BLUE_NUM3",
                        "CLBAIJFNHPG": "",
                        "FNGILEBFHMD": "L",
                        "type": "Blink",
                        "FKNOJMCONPB": "",
                        "FIKMEBEPBAI": 2
                    }
                ],
                "LFPJKIFELJC": "",
                "LCCHHJKAIMO": "",
                "JOECPIMCINK": "",
                "POCAJJAFFGA": "",
                "OIEBGDIONCC": true,
                "NJBJGIONPOK": "InLevelMainPage"
            }
        ],
        "BBDACCKJOAM": [
            [
                {
                    "$type": "ACFPKFKJLOP",
                    "ILFDBFJFGPJ": "Stamina",
                    "NPPACGJAIHI": "",
                    "DIKEPIHPDEI": "InLevelDebugDevDialog",
                    "MANDDLNLCAC": true
                }
            ]
        ]
    },
    "GuideTestWeaponInvestigation": {
        "$type": "KFHABCCDNGH",
        "name": "",
        "DIKEOHAADJD": [
            {
                "$type": "BMFJFMCDGGK",
                "EANJAHGCJKO": [
                    11406
                ],
                "OFEPIFKBCNL": "LOGIC_AND",
                "NNKMNPCOMMB": "Less",
                "level": 20.0
            }
        ],
        "BCILPHCFGMN": [
            {
                "$type": "PJKGLPINGJA",
                "GANHCJKPJDM": [
                    {
                        "IBHBDLEPPLL": "GrpEquip/GrpEquipLevelUp/EquipLevelUpContainer/EquipLevelUp(Clone)/Selected/FastAdd/BtnFastAdd/Content",
                        "DIKEPIHPDEI": "EquipOverviewPage",
                        "GEKNOAFLBFJ": "",
                        "EKIIIIDCCLP": "UI_GUIDE_INFO_WEAPON_UPGRADE_MATERIAL",
                        "CLBAIJFNHPG": "",
                        "FNGILEBFHMD": "T",
                        "type": "Blink",
                        "FKNOJMCONPB": "",
                        "ANKOBGEDHLG": "EquipOverviewRancour"
                    },
                    {
                        "IBHBDLEPPLL": "GrpBag/GrpOp/BtnUse",
                        "DIKEPIHPDEI": "BagPage",
                        "GEKNOAFLBFJ": "",
                        "EKIIIIDCCLP": "UI_GUIDE_INFO_FISHRECIPE_USE_ITEM",
                        "CLBAIJFNHPG": "",
                        "type": "Blink",
                        "FKNOJMCONPB": "",
                        "ANKOBGEDHLG": "BagRancour"
                    },
                    {
                        "IBHBDLEPPLL": "GrpBag/GrpTab/BagTab/BagTabContent/ScrollView",
                        "DIKEPIHPDEI": "BagPage",
                        "GEKNOAFLBFJ": "",
                        "EKIIIIDCCLP": "UI_GUIDE_INFO_FISHRECIPE_SELECT_ITEM",
                        "CLBAIJFNHPG": "",
                        "FNGILEBFHMD": "BR",
                        "type": "Blink",
                        "JMNPNLMKBHE": "Slot",
                        "value": 11406.0,
                        "FKNOJMCONPB": ""
                    }
                ],
                "LFPJKIFELJC": "",
                "LCCHHJKAIMO": "",
                "JOECPIMCINK": "",
                "POCAJJAFFGA": "",
                "NJBJGIONPOK": "InLevelMainPage"
            }
        ],
        "GJJBEFFMMHG": [
            [
                {
                    "$type": "BMFJFMCDGGK",
                    "EANJAHGCJKO": [
                        11406
                    ],
                    "OFEPIFKBCNL": "LOGIC_OR",
                    "NNKMNPCOMMB": "GreaterEqual",
                    "revert": true
                }
            ]
        ],
        "BBDACCKJOAM": [
            [
                {
                    "$type": "ACFPKFKJLOP",
                    "ILFDBFJFGPJ": "GrpEquip/GrpEquipLevelUp/EquipLevelUpContainer/EquipLevelUp(Clone)/Selected/FastAdd/BtnFastAdd/Content",
                    "NPPACGJAIHI": "",
                    "DIKEPIHPDEI": "EquipOverviewPage",
                    "ANKOBGEDHLG": "EquipOverviewRancour"
                }
            ]
        ]
    }
}