{
    "luaDataPath": "",
    "entityBan": "",
    "disableNpcLod": true,
    "startFade": {
        "startFadeOutDuration": 0.0
    },
    "endFade": {
        "startFadeOutDuration": 0.0
    },
    "actors": [
        {
            "alias": "Avatar",
            "visible": true,
            "bornPointName": "",
            "relativePosNpcAlias": "",
            "bindMovingTargetKey": ""
        },
        {
            "configID": 9045,
            "alias": "9045",
            "visible": true,
            "bornPointName": "",
            "relativePosNpcAlias": "",
            "bindMovingTargetKey": ""
        }
    ],
    "group": [
        [
            {
                "$type": "CNBNGFNKLGP",
                "type": "STEER_TO",
                "duration": 1.0,
                "aliasList": [
                    "9045"
                ],
                "DEMFHGAIELL": "TO_LOCAL_AVATAR_ADVANCED",
                "BBNLLCHBKAI": true,
                "COJBPJMLIFM": true,
                "NLIKMFJCLBP": true,
                "KIPMIDIKECP": "",
                "AOFBAGFCGPJ": ""
            },
            {
                "$type": "IBPNIIGAIPF",
                "type": "LOOK_AT",
                "aliasList": [
                    "9045"
                ],
                "GGIENKFBOGL": true,
                "NDOMJCOFKDJ": 0.5,
                "KIPMIDIKECP": "Avatar",
                "HJJAFGPMJNJ": "",
                "AOFBAGFCGPJ": ""
            },
            {
                "$type": "OMPHNKNPPJO",
                "type": "LOOK_AT_EYECTRL",
                "aliasList": [
                    "9045"
                ],
                "useTargetPos": false,
                "MHBPPJNDKJC": 1.0,
                "KIPMIDIKECP": "",
                "JJEGGHOEIPD": "Face"
            },
            {
                "$type": "BCJBNCJOPCE",
                "type": "CAMERA_FOCUS",
                "duration": 0.5,
                "KIPMIDIKECP": "",
                "BDLGHOJPJHD": "",
                "LCOJGFEOLCK": "",
                "BBBGAEDCJEL": ""
            },
            {
                "$type": "MoleMole.Config.ConfigTimeProtectAction",
                "type": "TIME_PROTECT",
                "duration": 0.5
            },
            {
                "$type": "IBPNIIGAIPF",
                "type": "LOOK_AT",
                "aliasList": [
                    "Avatar"
                ],
                "GGIENKFBOGL": true,
                "NDOMJCOFKDJ": 0.5,
                "KIPMIDIKECP": "9045",
                "HJJAFGPMJNJ": "",
                "AOFBAGFCGPJ": ""
            }
        ],
        [
            {
                "$type": "DNAEECJNBFB",
                "type": "EMO_SYNC",
                "aliasList": [
                    "9045"
                ],
                "EOGJDJKPPGE": "Cs_Emo_Avatar_Simple_Common_Set/Cs_Emo_Avatar_Talk/Cs_Emo_HomeWorld/Cs_Emo_Avatar_Rosaria/Cs_Emo_690451301",
                "IHCBGPABDLE": "",
                "CIKPDMODFPL": "",
                "HDIAHFFHNGE": "",
                "BOAAGJEEFDD": "",
                "PFDPJKHPADE": "",
                "DALINBJAHOC": [
                    14605766570632113386,
                    5492199899583729120,
                    12034481713160821895,
                    7290596991849573654
                ]
            },
            {
                "$type": "KCBOGFFHPBD",
                "type": "BODY_LANG",
                "aliasList": [
                    "9045"
                ],
                "GPIEDGOMCGL": 1120,
                "FHLAMNNHMFA": true,
                "KCEHDJLKIAL": false,
                "AOFEDPBOOIE": ""
            },
            {
                "$type": "CCEEIGNAILH",
                "type": "DIALOG",
                "aliasList": [
                    "9045"
                ],
                "KICBIOMGHIN": 690451301,
                "PNCCODDABKI": 0.5
            },
            {
                "$type": "CNBNGFNKLGP",
                "type": "STEER_TO",
                "delayTime": 0.2329999953508377,
                "duration": 1.0,
                "aliasList": [
                    "Avatar"
                ],
                "DEMFHGAIELL": "TO_TARGET_ADVANCED",
                "BBNLLCHBKAI": true,
                "COJBPJMLIFM": true,
                "NLIKMFJCLBP": true,
                "KIPMIDIKECP": "9045",
                "AOFBAGFCGPJ": ""
            },
            {
                "$type": "OMPHNKNPPJO",
                "type": "LOOK_AT_EYECTRL",
                "delayTime": 0.5249999761581421,
                "aliasList": [
                    "9045"
                ],
                "useTargetPos": false,
                "OMHMNNDGHFL": {
                    "x": 2.0
                },
                "AMNIBCAICEP": {
                    "x": 2.0
                },
                "MHBPPJNDKJC": 0.05000000074505806,
                "KIPMIDIKECP": "",
                "JJEGGHOEIPD": "Face"
            },
            {
                "$type": "OMPHNKNPPJO",
                "type": "LOOK_AT_EYECTRL",
                "delayTime": 0.824999988079071,
                "aliasList": [
                    "9045"
                ],
                "useTargetPos": false,
                "OMHMNNDGHFL": {
                    "x": 1.0
                },
                "AMNIBCAICEP": {
                    "x": 1.0
                },
                "MHBPPJNDKJC": 0.10000000149011612,
                "KIPMIDIKECP": "",
                "JJEGGHOEIPD": "Face"
            },
            {
                "$type": "MoleMole.Config.ConfigEmojiBubbleAction",
                "type": "EMOJI_BUBBLE",
                "delayTime": 1.1920000314712524,
                "aliasList": [
                    "9045"
                ],
                "pattarnName": "EmojiBubble_Emoji_Awkward_Spice"
            },
            {
                "$type": "OMPHNKNPPJO",
                "type": "LOOK_AT_EYECTRL",
                "delayTime": 1.5750000476837158,
                "aliasList": [
                    "9045"
                ],
                "useTargetPos": false,
                "OMHMNNDGHFL": {
                    "x": -1.0
                },
                "AMNIBCAICEP": {
                    "x": -1.0
                },
                "MHBPPJNDKJC": 0.05000000074505806,
                "KIPMIDIKECP": "",
                "JJEGGHOEIPD": "Face"
            },
            {
                "$type": "OMPHNKNPPJO",
                "type": "LOOK_AT_EYECTRL",
                "delayTime": 1.875,
                "aliasList": [
                    "9045"
                ],
                "useTargetPos": false,
                "MHBPPJNDKJC": 0.125,
                "KIPMIDIKECP": "",
                "JJEGGHOEIPD": "Face"
            }
        ],
        [
            {
                "$type": "OMPHNKNPPJO",
                "type": "LOOK_AT_EYECTRL",
                "aliasList": [
                    "9045"
                ],
                "useTargetPos": false,
                "MHBPPJNDKJC": 0.20000000298023224,
                "KIPMIDIKECP": "",
                "JJEGGHOEIPD": "Face"
            },
            {
                "$type": "KCBOGFFHPBD",
                "type": "BODY_LANG",
                "aliasList": [
                    "9045"
                ],
                "AHGOBCDHCMC": true,
                "FHLAMNNHMFA": true,
                "KCEHDJLKIAL": false,
                "AOFEDPBOOIE": ""
            },
            {
                "$type": "MoleMole.Config.ConfigTimeProtectAction",
                "type": "TIME_PROTECT",
                "duration": 0.10000000149011612
            }
        ]
    ],
    "groupId": [
        {
            "grpId": 646600772,
            "nextGrpId": 646600773
        },
        {
            "index": 1,
            "grpId": 646600773,
            "nextGrpId": 646600774
        },
        {
            "index": 2,
            "grpId": 646600774,
            "nextGrpId": 646600775
        }
    ],
    "freeStyleDic": {
        "9045": [
            1120
        ]
    }
}