{
    "luaDataPath": "",
    "entityBan": "",
    "disableNpcLod": true,
    "startFade": {
        "startFadeOutDuration": 0.0
    },
    "endFade": {
        "startFadeOutDuration": 0.0
    },
    "actors": [
        {
            "alias": "Avatar",
            "visible": true,
            "bornPointName": "",
            "relativePosNpcAlias": "",
            "bindMovingTargetKey": ""
        },
        {
            "configID": 9045,
            "alias": "9045",
            "visible": true,
            "bornPointName": "",
            "relativePosNpcAlias": "",
            "bindMovingTargetKey": ""
        }
    ],
    "group": [
        [
            {
                "$type": "BCJBNCJOPCE",
                "type": "CAMERA_FOCUS",
                "duration": 0.5,
                "KIPMIDIKECP": "",
                "BDLGHOJPJHD": "",
                "LCOJGFEOLCK": "",
                "BBBGAEDCJEL": ""
            },
            {
                "$type": "MoleMole.Config.ConfigTimeProtectAction",
                "type": "TIME_PROTECT",
                "duration": 0.5
            },
            {
                "$type": "IBPNIIGAIPF",
                "type": "LOOK_AT",
                "aliasList": [
                    "Avatar"
                ],
                "GGIENKFBOGL": true,
                "NDOMJCOFKDJ": 0.5,
                "KIPMIDIKECP": "9045",
                "HJJAFGPMJNJ": "",
                "AOFBAGFCGPJ": ""
            },
            {
                "$type": "OMPHNKNPPJO",
                "type": "LOOK_AT_EYECTRL",
                "aliasList": [
                    "Avatar"
                ],
                "useTargetPos": false,
                "OMHMNNDGHFL": {
                    "z": -1.0
                },
                "AMNIBCAICEP": {
                    "z": -1.0
                },
                "MHBPPJNDKJC": 1.0,
                "KIPMIDIKECP": "",
                "JJEGGHOEIPD": "Face"
            },
            {
                "$type": "IBPNIIGAIPF",
                "type": "LOOK_AT",
                "aliasList": [
                    "9045"
                ],
                "GGIENKFBOGL": true,
                "NDOMJCOFKDJ": 0.5,
                "KIPMIDIKECP": "Avatar",
                "HJJAFGPMJNJ": "",
                "AOFBAGFCGPJ": ""
            },
            {
                "$type": "OMPHNKNPPJO",
                "type": "LOOK_AT_EYECTRL",
                "aliasList": [
                    "9045"
                ],
                "useTargetPos": false,
                "OMHMNNDGHFL": {
                    "z": 2.0
                },
                "AMNIBCAICEP": {
                    "z": 2.0
                },
                "MHBPPJNDKJC": 1.0,
                "KIPMIDIKECP": "",
                "JJEGGHOEIPD": "Face"
            },
            {
                "$type": "CNBNGFNKLGP",
                "type": "STEER_TO",
                "duration": 0.800000011920929,
                "aliasList": [
                    "9045"
                ],
                "DEMFHGAIELL": "TO_LOCAL_AVATAR_ADVANCED",
                "BBNLLCHBKAI": true,
                "COJBPJMLIFM": true,
                "NLIKMFJCLBP": true,
                "KIPMIDIKECP": "",
                "AOFBAGFCGPJ": ""
            },
            {
                "$type": "KCBOGFFHPBD",
                "type": "BODY_LANG",
                "aliasList": [
                    "9045"
                ],
                "AHGOBCDHCMC": true,
                "FHLAMNNHMFA": true,
                "KCEHDJLKIAL": false,
                "AOFEDPBOOIE": ""
            }
        ],
        [
            {
                "$type": "MEKNGCBGKEJ",
                "type": "DIALOG_SELECT",
                "delayTime": 0.4000000059604645,
                "aliasList": [
                    "Avatar"
                ],
                "MLAABINGLAA": [
                    690450303,
                    690450307
                ],
                "HPBPDBFGKID": [
                    646570983,
                    646570986
                ],
                "CFJOJADDHHG": true
            },
            {
                "$type": "CNBNGFNKLGP",
                "type": "STEER_TO",
                "delayTime": 0.4000000059604645,
                "duration": 0.800000011920929,
                "aliasList": [
                    "Avatar"
                ],
                "DEMFHGAIELL": "TO_TARGET_ADVANCED",
                "BBNLLCHBKAI": true,
                "COJBPJMLIFM": true,
                "NLIKMFJCLBP": true,
                "KIPMIDIKECP": "9045",
                "AOFBAGFCGPJ": ""
            },
            {
                "$type": "CCEEIGNAILH",
                "type": "DIALOG",
                "aliasList": [
                    "9045"
                ],
                "KICBIOMGHIN": 690450302,
                "PNCCODDABKI": 0.5
            },
            {
                "$type": "DNAEECJNBFB",
                "type": "EMO_SYNC",
                "aliasList": [
                    "9045"
                ],
                "EOGJDJKPPGE": "Cs_Emo_Avatar_Simple_Common_Set/Cs_Emo_Avatar_Talk/Cs_Emo_HomeWorld/Cs_Emo_Avatar_Rosaria/Cs_Emo_690450302",
                "IHCBGPABDLE": "",
                "CIKPDMODFPL": "",
                "HDIAHFFHNGE": "",
                "BOAAGJEEFDD": "",
                "PFDPJKHPADE": "",
                "DALINBJAHOC": [
                    6799157144943427130,
                    13523922089098875558,
                    7674312234511476894,
                    12285892268558301780
                ]
            },
            {
                "$type": "KCBOGFFHPBD",
                "type": "BODY_LANG",
                "aliasList": [
                    "9045"
                ],
                "GPIEDGOMCGL": 1120,
                "FHLAMNNHMFA": true,
                "KCEHDJLKIAL": false,
                "AOFEDPBOOIE": ""
            }
        ],
        [
            {
                "$type": "CCEEIGNAILH",
                "type": "DIALOG",
                "aliasList": [
                    "9045"
                ],
                "KICBIOMGHIN": 690450304,
                "PNCCODDABKI": 0.5
            },
            {
                "$type": "DNAEECJNBFB",
                "type": "EMO_SYNC",
                "aliasList": [
                    "9045"
                ],
                "EOGJDJKPPGE": "Cs_Emo_Avatar_Simple_Common_Set/Cs_Emo_Avatar_Talk/Cs_Emo_HomeWorld/Cs_Emo_Avatar_Rosaria/Cs_Emo_690450304",
                "IHCBGPABDLE": "",
                "CIKPDMODFPL": "",
                "HDIAHFFHNGE": "",
                "BOAAGJEEFDD": "",
                "PFDPJKHPADE": "",
                "MIDKJONOACI": false,
                "DALINBJAHOC": [
                    15750897757476014837,
                    858982782157209308,
                    154905556509513574,
                    8505203697771654954
                ]
            }
        ],
        [
            {
                "$type": "CCEEIGNAILH",
                "type": "DIALOG",
                "aliasList": [
                    "9045"
                ],
                "KICBIOMGHIN": 690450305,
                "PNCCODDABKI": 0.5
            },
            {
                "$type": "DNAEECJNBFB",
                "type": "EMO_SYNC",
                "delayTime": 0.011781096458435059,
                "aliasList": [
                    "9045"
                ],
                "EOGJDJKPPGE": "Cs_Emo_Avatar_Simple_Common_Set/Cs_Emo_Avatar_Talk/Cs_Emo_HomeWorld/Cs_Emo_Avatar_Rosaria/Cs_Emo_690450305",
                "IHCBGPABDLE": "",
                "CIKPDMODFPL": "",
                "HDIAHFFHNGE": "",
                "BOAAGJEEFDD": "",
                "PFDPJKHPADE": "",
                "DALINBJAHOC": [
                    14586186899077157993,
                    17981951423835533139,
                    15788830877240757634,
                    16037430231274639027
                ]
            },
            {
                "$type": "KCBOGFFHPBD",
                "type": "BODY_LANG",
                "delayTime": 1.5,
                "aliasList": [
                    "9045"
                ],
                "GPIEDGOMCGL": 1240,
                "FHLAMNNHMFA": true,
                "KCEHDJLKIAL": false,
                "AOFEDPBOOIE": ""
            },
            {
                "$type": "KCBOGFFHPBD",
                "type": "BODY_LANG",
                "delayTime": 5.0,
                "aliasList": [
                    "9045"
                ],
                "AHGOBCDHCMC": true,
                "FHLAMNNHMFA": true,
                "KCEHDJLKIAL": false,
                "AOFEDPBOOIE": ""
            },
            {
                "$type": "KCBOGFFHPBD",
                "type": "BODY_LANG",
                "aliasList": [
                    "9045"
                ],
                "AHGOBCDHCMC": true,
                "FHLAMNNHMFA": true,
                "KCEHDJLKIAL": false,
                "AOFEDPBOOIE": ""
            }
        ],
        [
            {
                "$type": "CCEEIGNAILH",
                "type": "DIALOG",
                "aliasList": [
                    "9045"
                ],
                "KICBIOMGHIN": 690450306,
                "PNCCODDABKI": 0.5
            },
            {
                "$type": "KCBOGFFHPBD",
                "type": "BODY_LANG",
                "aliasList": [
                    "9045"
                ],
                "GPIEDGOMCGL": 4040,
                "FHLAMNNHMFA": true,
                "KCEHDJLKIAL": false,
                "AOFEDPBOOIE": ""
            },
            {
                "$type": "DNAEECJNBFB",
                "type": "EMO_SYNC",
                "aliasList": [
                    "9045"
                ],
                "EOGJDJKPPGE": "Cs_Emo_Avatar_Simple_Common_Set/Cs_Emo_Avatar_Talk/Cs_Emo_HomeWorld/Cs_Emo_Avatar_Rosaria/Cs_Emo_690450306",
                "IHCBGPABDLE": "",
                "CIKPDMODFPL": "",
                "HDIAHFFHNGE": "",
                "BOAAGJEEFDD": "",
                "PFDPJKHPADE": "",
                "MIDKJONOACI": false,
                "DALINBJAHOC": [
                    9249594363606555689,
                    13278505059088725628,
                    2886853319234424389,
                    7548861078631225665
                ]
            },
            {
                "$type": "KCBOGFFHPBD",
                "type": "BODY_LANG",
                "aliasList": [
                    "9045"
                ],
                "GPIEDGOMCGL": 1220,
                "FHLAMNNHMFA": true,
                "KCEHDJLKIAL": false,
                "AOFEDPBOOIE": ""
            }
        ],
        [
            {
                "$type": "CCEEIGNAILH",
                "type": "DIALOG",
                "aliasList": [
                    "9045"
                ],
                "KICBIOMGHIN": 690450308,
                "PNCCODDABKI": 0.5
            },
            {
                "$type": "DNAEECJNBFB",
                "type": "EMO_SYNC",
                "aliasList": [
                    "9045"
                ],
                "EOGJDJKPPGE": "Cs_Emo_Avatar_Simple_Common_Set/Cs_Emo_Avatar_Talk/Cs_Emo_HomeWorld/Cs_Emo_Avatar_Rosaria/Cs_Emo_690450308",
                "IHCBGPABDLE": "",
                "CIKPDMODFPL": "",
                "HDIAHFFHNGE": "",
                "BOAAGJEEFDD": "",
                "PFDPJKHPADE": "",
                "DALINBJAHOC": [
                    4872622656939086699,
                    4076074159614818272,
                    3776128908285487710,
                    14366428154095227454
                ]
            },
            {
                "$type": "KCBOGFFHPBD",
                "type": "BODY_LANG",
                "aliasList": [
                    "9045"
                ],
                "GPIEDGOMCGL": 4031,
                "FHLAMNNHMFA": true,
                "KCEHDJLKIAL": false,
                "AOFEDPBOOIE": ""
            }
        ],
        [
            {
                "$type": "CCEEIGNAILH",
                "type": "DIALOG",
                "aliasList": [
                    "9045"
                ],
                "KICBIOMGHIN": 690450309,
                "PNCCODDABKI": 0.5
            },
            {
                "$type": "DNAEECJNBFB",
                "type": "EMO_SYNC",
                "aliasList": [
                    "9045"
                ],
                "EOGJDJKPPGE": "Cs_Emo_Avatar_Simple_Common_Set/Cs_Emo_Avatar_Talk/Cs_Emo_HomeWorld/Cs_Emo_Avatar_Rosaria/Cs_Emo_690450309",
                "IHCBGPABDLE": "",
                "CIKPDMODFPL": "",
                "HDIAHFFHNGE": "",
                "BOAAGJEEFDD": "",
                "PFDPJKHPADE": "",
                "DALINBJAHOC": [
                    9629485262865131674,
                    5287291126811474562,
                    8637946202564309265,
                    9419404557949401089
                ]
            }
        ],
        [
            {
                "$type": "CCEEIGNAILH",
                "type": "DIALOG",
                "aliasList": [
                    "9045"
                ],
                "KICBIOMGHIN": 690450310,
                "PNCCODDABKI": 0.5
            },
            {
                "$type": "DNAEECJNBFB",
                "type": "EMO_SYNC",
                "delayTime": 0.0419117733836174,
                "aliasList": [
                    "9045"
                ],
                "EOGJDJKPPGE": "Cs_Emo_Avatar_Simple_Common_Set/Cs_Emo_Avatar_Talk/Cs_Emo_HomeWorld/Cs_Emo_Avatar_Rosaria/Cs_Emo_690450310",
                "IHCBGPABDLE": "",
                "CIKPDMODFPL": "",
                "HDIAHFFHNGE": "",
                "BOAAGJEEFDD": "",
                "PFDPJKHPADE": "",
                "DALINBJAHOC": [
                    14355297539260734785,
                    16195905430507745170,
                    8149572092435898862,
                    9936430900179909860
                ]
            },
            {
                "$type": "KCBOGFFHPBD",
                "type": "BODY_LANG",
                "delayTime": 3.0,
                "aliasList": [
                    "9045"
                ],
                "GPIEDGOMCGL": 1172,
                "FHLAMNNHMFA": true,
                "KCEHDJLKIAL": false,
                "AOFEDPBOOIE": ""
            },
            {
                "$type": "KCBOGFFHPBD",
                "type": "BODY_LANG",
                "delayTime": 6.699999809265137,
                "aliasList": [
                    "9045"
                ],
                "AHGOBCDHCMC": true,
                "FHLAMNNHMFA": true,
                "KCEHDJLKIAL": false,
                "AOFEDPBOOIE": ""
            },
            {
                "$type": "KCBOGFFHPBD",
                "type": "BODY_LANG",
                "delayTime": 2.0,
                "aliasList": [
                    "9045"
                ],
                "AHGOBCDHCMC": true,
                "FHLAMNNHMFA": true,
                "KCEHDJLKIAL": false,
                "AOFEDPBOOIE": ""
            }
        ],
        [
            {
                "$type": "CCEEIGNAILH",
                "type": "DIALOG",
                "aliasList": [
                    "9045"
                ],
                "KICBIOMGHIN": 690450311,
                "PNCCODDABKI": 0.5
            },
            {
                "$type": "DNAEECJNBFB",
                "type": "EMO_SYNC",
                "delayTime": 0.01666666753590107,
                "aliasList": [
                    "9045"
                ],
                "EOGJDJKPPGE": "Cs_Emo_Avatar_Simple_Common_Set/Cs_Emo_Avatar_Talk/Cs_Emo_HomeWorld/Cs_Emo_Avatar_Rosaria/Cs_Emo_690450311",
                "IHCBGPABDLE": "",
                "CIKPDMODFPL": "",
                "HDIAHFFHNGE": "",
                "BOAAGJEEFDD": "",
                "PFDPJKHPADE": "",
                "DALINBJAHOC": [
                    6958169330419412929,
                    2809154813504197753,
                    10447187628091044936,
                    13860666924620685677
                ]
            },
            {
                "$type": "KCBOGFFHPBD",
                "type": "BODY_LANG",
                "delayTime": 2.5092763900756836,
                "aliasList": [
                    "9045"
                ],
                "GPIEDGOMCGL": 1230,
                "FHLAMNNHMFA": true,
                "KCEHDJLKIAL": false,
                "AOFEDPBOOIE": ""
            },
            {
                "$type": "KCBOGFFHPBD",
                "type": "BODY_LANG",
                "aliasList": [
                    "9045"
                ],
                "AHGOBCDHCMC": true,
                "FHLAMNNHMFA": true,
                "KCEHDJLKIAL": false,
                "AOFEDPBOOIE": ""
            }
        ],
        [
            {
                "$type": "MEKNGCBGKEJ",
                "type": "DIALOG_SELECT",
                "delayTime": 0.4000000059604645,
                "aliasList": [
                    "Avatar"
                ],
                "MLAABINGLAA": [
                    690450313
                ],
                "HPBPDBFGKID": [
                    2863831276
                ],
                "CFJOJADDHHG": true
            },
            {
                "$type": "CCEEIGNAILH",
                "type": "DIALOG",
                "aliasList": [
                    "9045"
                ],
                "KICBIOMGHIN": 690450312,
                "PNCCODDABKI": 0.5
            },
            {
                "$type": "DNAEECJNBFB",
                "type": "EMO_SYNC",
                "aliasList": [
                    "9045"
                ],
                "EOGJDJKPPGE": "Cs_Emo_Avatar_Simple_Common_Set/Cs_Emo_Avatar_Talk/Cs_Emo_HomeWorld/Cs_Emo_Avatar_Rosaria/Cs_Emo_690450312",
                "IHCBGPABDLE": "",
                "CIKPDMODFPL": "",
                "HDIAHFFHNGE": "",
                "BOAAGJEEFDD": "",
                "PFDPJKHPADE": "",
                "MIDKJONOACI": false,
                "DALINBJAHOC": [
                    4129809726654207488,
                    10674675118942246048,
                    7500634319465294143,
                    5254487373007636661
                ]
            }
        ],
        [
            {
                "$type": "CCEEIGNAILH",
                "type": "DIALOG",
                "aliasList": [
                    "9045"
                ],
                "KICBIOMGHIN": 690450314,
                "PNCCODDABKI": 0.5
            },
            {
                "$type": "KCBOGFFHPBD",
                "type": "BODY_LANG",
                "aliasList": [
                    "9045"
                ],
                "GPIEDGOMCGL": 1120,
                "FHLAMNNHMFA": true,
                "KCEHDJLKIAL": false,
                "AOFEDPBOOIE": ""
            },
            {
                "$type": "DNAEECJNBFB",
                "type": "EMO_SYNC",
                "aliasList": [
                    "9045"
                ],
                "EOGJDJKPPGE": "Cs_Emo_Avatar_Simple_Common_Set/Cs_Emo_Avatar_Talk/Cs_Emo_HomeWorld/Cs_Emo_Avatar_Rosaria/Cs_Emo_690450314",
                "IHCBGPABDLE": "",
                "CIKPDMODFPL": "",
                "HDIAHFFHNGE": "",
                "BOAAGJEEFDD": "",
                "PFDPJKHPADE": "",
                "DALINBJAHOC": [
                    8769931822055580098,
                    208012238956319519,
                    2789164348039640812,
                    5594920594376000420
                ]
            },
            {
                "$type": "KCBOGFFHPBD",
                "type": "BODY_LANG",
                "delayTime": 0.40308380126953125,
                "aliasList": [
                    "9045"
                ],
                "GPIEDGOMCGL": 4030,
                "FHLAMNNHMFA": true,
                "KCEHDJLKIAL": false,
                "AOFEDPBOOIE": ""
            }
        ],
        [
            {
                "$type": "CCEEIGNAILH",
                "type": "DIALOG",
                "aliasList": [
                    "9045"
                ],
                "KICBIOMGHIN": 690450315,
                "PNCCODDABKI": 0.5
            },
            {
                "$type": "DNAEECJNBFB",
                "type": "EMO_SYNC",
                "aliasList": [
                    "9045"
                ],
                "EOGJDJKPPGE": "Cs_Emo_Avatar_Simple_Common_Set/Cs_Emo_Avatar_Talk/Cs_Emo_HomeWorld/Cs_Emo_Avatar_Rosaria/Cs_Emo_690450315",
                "IHCBGPABDLE": "",
                "CIKPDMODFPL": "",
                "HDIAHFFHNGE": "",
                "BOAAGJEEFDD": "",
                "PFDPJKHPADE": "",
                "DALINBJAHOC": [
                    278934695816163949,
                    1064983757242306434,
                    13183410576981481022,
                    8893941558742481450
                ]
            },
            {
                "$type": "KCBOGFFHPBD",
                "type": "BODY_LANG",
                "delayTime": 2.2568483352661133,
                "aliasList": [
                    "9045"
                ],
                "GPIEDGOMCGL": 4030,
                "FHLAMNNHMFA": true,
                "KCEHDJLKIAL": false,
                "AOFEDPBOOIE": ""
            }
        ],
        [
            {
                "$type": "CCEEIGNAILH",
                "type": "DIALOG",
                "aliasList": [
                    "9045"
                ],
                "KICBIOMGHIN": 690450316,
                "PNCCODDABKI": 0.5
            },
            {
                "$type": "DNAEECJNBFB",
                "type": "EMO_SYNC",
                "aliasList": [
                    "9045"
                ],
                "EOGJDJKPPGE": "Cs_Emo_Avatar_Simple_Common_Set/Cs_Emo_Avatar_Talk/Cs_Emo_HomeWorld/Cs_Emo_Avatar_Rosaria/Cs_Emo_690450316",
                "IHCBGPABDLE": "",
                "CIKPDMODFPL": "",
                "HDIAHFFHNGE": "",
                "BOAAGJEEFDD": "",
                "PFDPJKHPADE": "",
                "DALINBJAHOC": [
                    8280174963062396633,
                    7080205734996901859,
                    11486441064746490365,
                    17648600166440569072
                ]
            },
            {
                "$type": "KCBOGFFHPBD",
                "type": "BODY_LANG",
                "delayTime": 3.201005697250366,
                "aliasList": [
                    "9045"
                ],
                "GPIEDGOMCGL": 4030,
                "FHLAMNNHMFA": true,
                "KCEHDJLKIAL": false,
                "AOFEDPBOOIE": ""
            }
        ],
        [
            {
                "$type": "MoleMole.Config.ConfigTimeProtectAction",
                "type": "TIME_PROTECT",
                "duration": 0.10000000149011612
            },
            {
                "$type": "KCBOGFFHPBD",
                "type": "BODY_LANG",
                "aliasList": [
                    "9045"
                ],
                "AHGOBCDHCMC": true,
                "FHLAMNNHMFA": true,
                "KCEHDJLKIAL": false,
                "AOFEDPBOOIE": ""
            }
        ]
    ],
    "groupId": [
        {
            "grpId": 646570981,
            "nextGrpId": 646570982
        },
        {
            "index": 1,
            "grpId": 646570982,
            "nextGrpId": 646570983
        },
        {
            "index": 2,
            "grpId": 646570983,
            "nextGrpId": 646570984
        },
        {
            "index": 3,
            "grpId": 646570984,
            "nextGrpId": 646570985
        },
        {
            "index": 4,
            "grpId": 646570985,
            "nextGrpId": 646570988
        },
        {
            "index": 5,
            "grpId": 646570986,
            "nextGrpId": 646570987
        },
        {
            "index": 6,
            "grpId": 646570987,
            "nextGrpId": 646570988
        },
        {
            "index": 7,
            "grpId": 646570988,
            "nextGrpId": 646570989
        },
        {
            "index": 8,
            "grpId": 646570989,
            "nextGrpId": 2863831275
        },
        {
            "index": 9,
            "grpId": 2863831275,
            "nextGrpId": 2863831276
        },
        {
            "index": 10,
            "grpId": 2863831276,
            "nextGrpId": 2863831277
        },
        {
            "index": 11,
            "grpId": 2863831277,
            "nextGrpId": 2863831278
        },
        {
            "index": 12,
            "grpId": 2863831278,
            "nextGrpId": 2863831279
        },
        {
            "index": 13,
            "grpId": 2863831279,
            "nextGrpId": 2863831280
        }
    ],
    "freeStyleDic": {
        "9045": [
            1120,
            1240,
            4040,
            1220,
            4031,
            1172,
            1230,
            4030
        ]
    }
}