{
    "luaDataPath": "",
    "dontUseDefaultFinish": true,
    "startBlackKeepTime": 0.20000000298023224,
    "entityBan": "",
    "startFade": {
        "startFadeInDuration": 0.30000001192092896,
        "startFadeOutDuration": 0.30000001192092896
    },
    "endFade": {
        "startFadeOutDuration": 0.0
    },
    "actors": [
        {
            "alias": "Avatar",
            "visible": true,
            "bornPointName": "Q37201Player",
            "relativePosNpcAlias": "",
            "bindMovingTargetKey": ""
        },
        {
            "configID": 1160,
            "alias": "1160",
            "visible": true,
            "bornPointName": "Q372WendyShow",
            "relativePosNpcAlias": "",
            "bindMovingTargetKey": ""
        },
        {
            "configID": 10038,
            "alias": "10038",
            "visible": true,
            "bornPointName": "Q372Audience01Vile",
            "relativePosNpcAlias": "",
            "bindMovingTargetKey": ""
        },
        {
            "configID": 10039,
            "alias": "10039",
            "visible": true,
            "bornPointName": "Q372Audience02Alfry",
            "relativePosNpcAlias": "",
            "bindMovingTargetKey": ""
        },
        {
            "configID": 10040,
            "alias": "10040",
            "visible": true,
            "bornPointName": "Q372Audience03Huf",
            "relativePosNpcAlias": "",
            "bindMovingTargetKey": ""
        },
        {
            "configID": 10041,
            "alias": "10041",
            "visible": true,
            "bornPointName": "Q372Audience04Pat",
            "relativePosNpcAlias": "",
            "bindMovingTargetKey": ""
        },
        {
            "configID": 10042,
            "alias": "10042",
            "visible": true,
            "bornPointName": "Q372Audience05Sol",
            "relativePosNpcAlias": "",
            "bindMovingTargetKey": ""
        }
    ],
    "group": [
        [
            {
                "$type": "FOMCPCOIMIK",
                "type": "CUTSCENE",
                "FGGLJJNOAFL": {
                    "$type": "FOAMGDNKJFE",
                    "type": "TIME_LINE_PREFAB",
                    "preTaskCfg": {
                        "duration": -1.0,
                        "BOCMBGGGDPG": ""
                    },
                    "luaDataPath": "",
                    "resPath": "ART/Cutscene/Cs_MDAQ040_VentiShow_Convert",
                    "castListPath": "Cs_CastList_Q372",
                    "entityBan": "",
                    "syncLoad": true,
                    "fadeInDuration": 0.5,
                    "fadeOutDuration": 0.5
                }
            }
        ],
        [
            {
                "$type": "MoleMole.Config.ConfigVideoPlayAction",
                "type": "VIDEO_PLAY",
                "checkNextImmediately": true,
                "videoName": "MDAQ041.usm",
                "subtitleId": 300001,
                "canSkip": true,
                "bgColor": {
                    "r": -492.84515380859375,
                    "g": -492.84515380859375,
                    "b": -492.84515380859375,
                    "a": -492.84515380859375
                }
            }
        ],
        [
            {
                "$type": "MoleMole.Config.ConfigSimpleBlackScreenAction",
                "type": "SIMPLE_BLACK_SCREEN",
                "durationKeepBlack": 1.0,
                "durationFromBlack": 0.5,
                "textMapID": ""
            }
        ],
        [
            {
                "$type": "IBPNIIGAIPF",
                "type": "LOOK_AT",
                "aliasList": [
                    "Avatar"
                ],
                "KIPMIDIKECP": "",
                "HJJAFGPMJNJ": "",
                "AOFBAGFCGPJ": ""
            },
            {
                "$type": "IBPNIIGAIPF",
                "type": "LOOK_AT",
                "aliasList": [
                    "1160"
                ],
                "KIPMIDIKECP": "",
                "HJJAFGPMJNJ": "",
                "AOFBAGFCGPJ": ""
            },
            {
                "$type": "IBPNIIGAIPF",
                "type": "LOOK_AT",
                "aliasList": [
                    "10038"
                ],
                "KIPMIDIKECP": "",
                "HJJAFGPMJNJ": "",
                "AOFBAGFCGPJ": ""
            },
            {
                "$type": "IBPNIIGAIPF",
                "type": "LOOK_AT",
                "aliasList": [
                    "10039"
                ],
                "KIPMIDIKECP": "",
                "HJJAFGPMJNJ": "",
                "AOFBAGFCGPJ": ""
            },
            {
                "$type": "IBPNIIGAIPF",
                "type": "LOOK_AT",
                "aliasList": [
                    "10040"
                ],
                "KIPMIDIKECP": "",
                "HJJAFGPMJNJ": "",
                "AOFBAGFCGPJ": ""
            },
            {
                "$type": "IBPNIIGAIPF",
                "type": "LOOK_AT",
                "aliasList": [
                    "10041"
                ],
                "KIPMIDIKECP": "",
                "HJJAFGPMJNJ": "",
                "AOFBAGFCGPJ": ""
            },
            {
                "$type": "IBPNIIGAIPF",
                "type": "LOOK_AT",
                "aliasList": [
                    "10042"
                ],
                "KIPMIDIKECP": "",
                "HJJAFGPMJNJ": "",
                "AOFBAGFCGPJ": ""
            }
        ]
    ],
    "groupId": [
        {
            "grpId": 2164707168,
            "nextGrpId": 2164707169
        },
        {
            "index": 1,
            "grpId": 2164707169,
            "nextGrpId": 2164707170
        },
        {
            "index": 2,
            "grpId": 2164707170,
            "nextGrpId": 2164707171
        },
        {
            "index": 3,
            "grpId": 2164707171,
            "nextGrpId": 2164707172
        }
    ]
}