{
    "npcId": 13019,
    "talks": [
        {
            "id": 7273009,
            "beginWay": "TALK_BEGIN_MANUAL",
            "beginCondComb": "LOGIC_AND",
            "beginCond": [
                {
                    "type": "QUEST_COND_ACTIVITY_CLIENT_COND",
                    "param": [
                        "5118",
                        "5118007",
                        "1"
                    ]
                },
                {
                    "type": "QUEST_COND_QUEST_GLOBAL_VAR_EQUAL",
                    "param": [
                        "7273101",
                        "0"
                    ]
                }
            ],
            "priority": 5,
            "initDialog": 727300901,
            "npcId": [
                13019
            ],
            "performCfg": "QuestDialogue/WQ/Daoqi_72730/Q7273009",
            "heroTalk": "TALK_HERO_MAIN",
            "assetIndex": 12283043058706555247,
            "prePerformCfg": "",
            "NCDNOCPDNIO": true
        },
        {
            "id": 7273010,
            "beginWay": "TALK_BEGIN_MANUAL",
            "beginCondComb": "LOGIC_AND",
            "beginCond": [
                {
                    "type": "QUEST_COND_ACTIVITY_CLIENT_COND",
                    "param": [
                        "5118",
                        "5118009",
                        "1"
                    ]
                },
                {
                    "type": "QUEST_COND_QUEST_GLOBAL_VAR_EQUAL",
                    "param": [
                        "7273101",
                        "1"
                    ]
                }
            ],
            "priority": 5,
            "initDialog": 727301001,
            "npcId": [
                13019
            ],
            "performCfg": "",
            "heroTalk": "TALK_HERO_MAIN",
            "assetIndex": 8696453512885904975,
            "prePerformCfg": "",
            "freeStyleList": [
                1230,
                1171,
                1172,
                1173,
                1060
            ],
            "NCDNOCPDNIO": true
        }
    ]
}