{
    "npcId": 1443,
    "talks": [
        {
            "id": 6144301,
            "beginWay": "TALK_BEGIN_MANUAL",
            "priority": 3,
            "nextTalks": [
                6144302,
                6144303,
                6144304
            ],
            "initDialog": 614430101,
            "npcId": [
                1443
            ],
            "performCfg": "",
            "assetIndex": 775549647013832106,
            "prePerformCfg": "",
            "freeStyleList": [
                9000
            ]
        },
        {
            "id": 6144302,
            "beginWay": "TALK_BEGIN_MANUAL",
            "priority": 1,
            "initDialog": 614430201,
            "npcId": [
                1443
            ],
            "performCfg": "",
            "assetIndex": 3612619491934115563,
            "prePerformCfg": ""
        },
        {
            "id": 6144303,
            "beginWay": "TALK_BEGIN_MANUAL",
            "priority": 1,
            "initDialog": 614430301,
            "npcId": [
                1443
            ],
            "performCfg": "",
            "assetIndex": 8510159472672035689,
            "prePerformCfg": ""
        },
        {
            "id": 6144304,
            "beginWay": "TALK_BEGIN_MANUAL",
            "priority": 1,
            "initDialog": 614430401,
            "npcId": [
                1443
            ],
            "performCfg": "",
            "assetIndex": 2376374510559092790,
            "prePerformCfg": ""
        },
        {
            "id": 6144305,
            "beginWay": "TALK_BEGIN_MANUAL",
            "beginCond": [
                {
                    "type": "QUEST_COND_STATE_EQUAL",
                    "param": [
                        "35901",
                        "2"
                    ]
                }
            ],
            "priority": 4,
            "initDialog": 614430501,
            "npcId": [
                1443
            ],
            "performCfg": "",
            "assetIndex": 9816554613316307197,
            "prePerformCfg": ""
        },
        {
            "id": 6144306,
            "beginWay": "TALK_BEGIN_MANUAL",
            "beginCond": [
                {
                    "type": "QUEST_COND_STATE_EQUAL",
                    "param": [
                        "35901",
                        "2"
                    ]
                }
            ],
            "priority": 4,
            "initDialog": 614430601,
            "npcId": [
                1443
            ],
            "performCfg": "",
            "assetIndex": 17055234195687716103,
            "prePerformCfg": ""
        },
        {
            "id": 6144307,
            "beginWay": "TALK_BEGIN_MANUAL",
            "beginCond": [
                {
                    "type": "QUEST_COND_STATE_EQUAL",
                    "param": [
                        "35901",
                        "2"
                    ]
                }
            ],
            "priority": 4,
            "initDialog": 614430701,
            "npcId": [
                1443
            ],
            "performCfg": "",
            "assetIndex": 8731984308090991794,
            "prePerformCfg": ""
        }
    ]
}