{
    "npcId": 1451,
    "talks": [
        {
            "id": 6145101,
            "beginWay": "TALK_BEGIN_MANUAL",
            "priority": 3,
            "nextTalks": [
                6145104,
                6145102,
                6145103
            ],
            "initDialog": 4015145101,
            "npcId": [
                1451
            ],
            "performCfg": "",
            "assetIndex": 13598379082346853391,
            "prePerformCfg": "",
            "freeStyleList": [
                9000
            ]
        },
        {
            "id": 6145102,
            "beginWay": "TALK_BEGIN_MANUAL",
            "priority": 1,
            "initDialog": 4015145102,
            "npcId": [
                1451
            ],
            "performCfg": "",
            "assetIndex": 15361974364962762482,
            "prePerformCfg": ""
        },
        {
            "id": 6145103,
            "beginWay": "TALK_BEGIN_MANUAL",
            "priority": 1,
            "initDialog": 4015145104,
            "npcId": [
                1451
            ],
            "performCfg": "",
            "assetIndex": 5365848890309691887,
            "prePerformCfg": ""
        },
        {
            "id": 6145104,
            "beginWay": "TALK_BEGIN_MANUAL",
            "beginCondComb": "LOGIC_AND",
            "beginCond": [
                {
                    "type": "QUEST_COND_STATE_EQUAL",
                    "param": [
                        "35901",
                        "3"
                    ]
                },
                {
                    "type": "QUEST_COND_QUEST_NOT_RECEIVE",
                    "param": [
                        "39403",
                        "1"
                    ]
                }
            ],
            "priority": 1,
            "initDialog": 614510401,
            "npcId": [
                1451
            ],
            "performCfg": "",
            "assetIndex": 8100388961477620438,
            "prePerformCfg": ""
        }
    ]
}