{
    "npcId": 1525,
    "talks": [
        {
            "id": 7051602,
            "beginWay": "TALK_BEGIN_MANUAL",
            "activeMode": "PLAY_MODE_HOST",
            "beginCond": [
                {
                    "type": "QUEST_COND_STATE_EQUAL",
                    "param": [
                        "7051606",
                        "2"
                    ]
                }
            ],
            "priority": 5,
            "initDialog": 705160201,
            "npcId": [
                1525
            ],
            "performCfg": "QuestDialogue/WQ/Mengde_70516/Q7051602",
            "heroTalk": "TALK_HERO_MAIN",
            "assetIndex": 10348877225725159064,
            "prePerformCfg": ""
        },
        {
            "id": 6152501,
            "beginWay": "TALK_BEGIN_MANUAL",
            "priority": 3,
            "nextTalks": [
                6152502,
                6152508,
                6152503
            ],
            "initDialog": 615250101,
            "npcId": [
                1525
            ],
            "performCfg": "",
            "assetIndex": 8614071309689180729,
            "prePerformCfg": "",
            "freeStyleList": [
                9000
            ]
        },
        {
            "id": 6152502,
            "beginWay": "TALK_BEGIN_MANUAL",
            "priority": 1,
            "initDialog": 615250201,
            "npcId": [
                1525
            ],
            "performCfg": "",
            "assetIndex": 1183644951431113822,
            "prePerformCfg": ""
        },
        {
            "id": 6152503,
            "beginWay": "TALK_BEGIN_MANUAL",
            "priority": 1,
            "initDialog": 615250301,
            "npcId": [
                1525
            ],
            "performCfg": "",
            "assetIndex": 13426633915969264816,
            "prePerformCfg": ""
        },
        {
            "id": 6152504,
            "beginWay": "TALK_BEGIN_MANUAL",
            "priority": 3,
            "nextTalks": [
                6152505,
                6152509,
                6152503
            ],
            "initDialog": 615250101,
            "npcId": [
                1525
            ],
            "performCfg": "",
            "assetIndex": 6676396461936954400,
            "prePerformCfg": "",
            "freeStyleList": [
                9000
            ]
        },
        {
            "id": 6152505,
            "beginWay": "TALK_BEGIN_MANUAL",
            "priority": 1,
            "initDialog": 615250501,
            "npcId": [
                1525
            ],
            "performCfg": "",
            "assetIndex": 3019081511713988851,
            "prePerformCfg": "",
            "freeStyleList": [
                9000
            ]
        },
        {
            "id": 6152506,
            "beginWay": "TALK_BEGIN_MANUAL",
            "priority": 3,
            "nextTalks": [
                6152507,
                6152510,
                6152503
            ],
            "initDialog": 615250101,
            "npcId": [
                1525
            ],
            "performCfg": "",
            "assetIndex": 17857303185897689413,
            "prePerformCfg": "",
            "freeStyleList": [
                9000
            ]
        },
        {
            "id": 6152507,
            "beginWay": "TALK_BEGIN_MANUAL",
            "priority": 1,
            "initDialog": 615250701,
            "npcId": [
                1525
            ],
            "performCfg": "",
            "assetIndex": 11090424323446819254,
            "prePerformCfg": "",
            "freeStyleList": [
                9000
            ]
        },
        {
            "id": 6152508,
            "beginWay": "TALK_BEGIN_MANUAL",
            "priority": 1,
            "initDialog": 615250901,
            "npcId": [
                1525
            ],
            "performCfg": "",
            "assetIndex": 15599048914351968550,
            "prePerformCfg": ""
        },
        {
            "id": 6152509,
            "beginWay": "TALK_BEGIN_MANUAL",
            "priority": 1,
            "initDialog": 615250901,
            "npcId": [
                1525
            ],
            "performCfg": "",
            "assetIndex": 2200673333318855565,
            "prePerformCfg": ""
        },
        {
            "id": 6152510,
            "beginWay": "TALK_BEGIN_MANUAL",
            "priority": 1,
            "initDialog": 615250901,
            "npcId": [
                1525
            ],
            "performCfg": "",
            "assetIndex": 7402294506049078136,
            "prePerformCfg": ""
        }
    ]
}