{
    "npcId": 1713,
    "talks": [
        {
            "id": 6171301,
            "beginWay": "TALK_BEGIN_MANUAL",
            "activeMode": "PLAY_MODE_HOST",
            "nextTalks": [
                7066601,
                7066701,
                7066801,
                7066901,
                6171307,
                6171302,
                6171312,
                6171311,
                6171313,
                6171314,
                6171315,
                6171316,
                6171309,
                6171303,
                6171308,
                6171304,
                6171310,
                6171305
            ],
            "initDialog": 617130101,
            "npcId": [
                1713
            ],
            "performCfg": "",
            "assetIndex": 8345434310853241636,
            "prePerformCfg": "",
            "freeStyleList": [
                2
            ]
        },
        {
            "id": 6171302,
            "activeMode": "PLAY_MODE_HOST",
            "beginCondComb": "LOGIC_AND",
            "beginCond": [
                {
                    "type": "QUEST_COND_GCG_LEVEL_REWARD_CAN_TAKE",
                    "param": [
                        "0"
                    ]
                },
                {
                    "type": "QUEST_COND_OPEN_STATE_EQUAL",
                    "param": [
                        "3309",
                        "1"
                    ]
                }
            ],
            "nextTalks": [
                6171306
            ],
            "initDialog": 617130201,
            "npcId": [
                1713
            ],
            "performCfg": "",
            "assetIndex": 4058205294798469937,
            "prePerformCfg": "",
            "freeStyleList": [
                4
            ]
        },
        {
            "id": 6171303,
            "activeMode": "PLAY_MODE_HOST",
            "beginCondComb": "LOGIC_AND",
            "beginCond": [
                {
                    "type": "QUEST_COND_OPEN_STATE_EQUAL",
                    "param": [
                        "3306",
                        "1"
                    ]
                },
                {
                    "type": "QUEST_COND_GCG_CHALLENGE_NEW_BOSS",
                    "param": [
                        "0"
                    ]
                }
            ],
            "nextTalks": [
                6171306
            ],
            "initDialog": 617130301,
            "npcId": [
                1713
            ],
            "performCfg": "",
            "assetIndex": 18107924314845686495,
            "prePerformCfg": "",
            "freeStyleList": [
                3
            ]
        },
        {
            "id": 6171304,
            "activeMode": "PLAY_MODE_HOST",
            "beginCondComb": "LOGIC_AND",
            "beginCond": [
                {
                    "type": "QUEST_COND_GCG_SHOP_NEW_GOODS",
                    "param": [
                        "0"
                    ]
                },
                {
                    "type": "QUEST_COND_OPEN_STATE_EQUAL",
                    "param": [
                        "3309",
                        "1"
                    ]
                }
            ],
            "nextTalks": [
                6171306
            ],
            "initDialog": 617130401,
            "npcId": [
                1713
            ],
            "performCfg": "",
            "assetIndex": 3987221487715313318,
            "prePerformCfg": ""
        },
        {
            "id": 6171305,
            "activeMode": "PLAY_MODE_HOST",
            "initDialog": 617130501,
            "npcId": [
                1713
            ],
            "performCfg": "",
            "assetIndex": 8864843984749927071,
            "prePerformCfg": ""
        },
        {
            "id": 6171306,
            "activeMode": "PLAY_MODE_HOST",
            "nextTalks": [
                7066601,
                7066701,
                7066801,
                7066901,
                6171307,
                6171302,
                6171312,
                6171311,
                6171313,
                6171314,
                6171315,
                6171316,
                6171309,
                6171303,
                6171308,
                6171304,
                6171310,
                6171305
            ],
            "initDialog": 617130601,
            "npcId": [
                1713
            ],
            "performCfg": "",
            "assetIndex": 1181438949661094928,
            "prePerformCfg": "",
            "freeStyleList": [
                2
            ]
        },
        {
            "id": 6171307,
            "activeMode": "PLAY_MODE_HOST",
            "beginCondComb": "LOGIC_AND",
            "beginCond": [
                {
                    "type": "QUEST_COND_GCG_LEVEL_REWARD_CAN_TAKE",
                    "param": [
                        "1"
                    ]
                },
                {
                    "type": "QUEST_COND_OPEN_STATE_EQUAL",
                    "param": [
                        "3309",
                        "1"
                    ]
                }
            ],
            "nextTalks": [
                6171306
            ],
            "initDialog": 617130201,
            "decoratorID": 3,
            "npcId": [
                1713
            ],
            "performCfg": "",
            "assetIndex": 7013788005786849498,
            "prePerformCfg": "",
            "freeStyleList": [
                4
            ]
        },
        {
            "id": 6171308,
            "activeMode": "PLAY_MODE_HOST",
            "beginCondComb": "LOGIC_AND",
            "beginCond": [
                {
                    "type": "QUEST_COND_GCG_SHOP_NEW_GOODS",
                    "param": [
                        "1"
                    ]
                },
                {
                    "type": "QUEST_COND_OPEN_STATE_EQUAL",
                    "param": [
                        "3309",
                        "1"
                    ]
                }
            ],
            "nextTalks": [
                6171306
            ],
            "initDialog": 617130401,
            "decoratorID": 3,
            "npcId": [
                1713
            ],
            "performCfg": "",
            "assetIndex": 14563367317089417217,
            "prePerformCfg": ""
        },
        {
            "id": 6171309,
            "activeMode": "PLAY_MODE_HOST",
            "beginCondComb": "LOGIC_AND",
            "beginCond": [
                {
                    "type": "QUEST_COND_OPEN_STATE_EQUAL",
                    "param": [
                        "3306",
                        "1"
                    ]
                },
                {
                    "type": "QUEST_COND_GCG_CHALLENGE_NEW_BOSS",
                    "param": [
                        "1"
                    ]
                }
            ],
            "nextTalks": [
                6171306
            ],
            "initDialog": 617130301,
            "decoratorID": 3,
            "npcId": [
                1713
            ],
            "performCfg": "",
            "assetIndex": 16464450804440070023,
            "prePerformCfg": "",
            "freeStyleList": [
                3
            ]
        },
        {
            "id": 6171310,
            "activeMode": "PLAY_MODE_HOST",
            "beginCond": [
                {
                    "type": "QUEST_COND_OPEN_STATE_EQUAL",
                    "param": [
                        "3309",
                        "1"
                    ]
                }
            ],
            "nextTalks": [
                6171306
            ],
            "initDialog": 617131001,
            "npcId": [
                1713
            ],
            "performCfg": "",
            "assetIndex": 3166692475017663212,
            "prePerformCfg": ""
        },
        {
            "id": 6171311,
            "activeMode": "PLAY_MODE_HOST",
            "beginCondComb": "LOGIC_AND",
            "beginCond": [
                {
                    "type": "QUEST_COND_ACTIVITY_CLIENT_COND",
                    "param": [
                        "5143",
                        "5143001",
                        "1"
                    ]
                },
                {
                    "type": "QUEST_COND_ACTIVITY_GCG_PVE_HARD_REFRESH",
                    "param": [
                        "0"
                    ]
                },
                {
                    "type": "QUEST_COND_ACTIVITY_GCG_PVE_HARD_REWARD_CAN_TAKE",
                    "param": [
                        "0"
                    ]
                }
            ],
            "nextTalks": [
                6171306
            ],
            "initDialog": 617131101,
            "npcId": [
                1713
            ],
            "performCfg": "",
            "assetIndex": 8606607519086496100,
            "prePerformCfg": ""
        },
        {
            "id": 6171312,
            "activeMode": "PLAY_MODE_HOST",
            "beginCondComb": "LOGIC_A_AND_ETCOR",
            "beginCond": [
                {
                    "type": "QUEST_COND_ACTIVITY_CLIENT_COND",
                    "param": [
                        "5143",
                        "5143001",
                        "1"
                    ]
                },
                {
                    "type": "QUEST_COND_ACTIVITY_GCG_PVE_HARD_REFRESH",
                    "param": [
                        "1"
                    ]
                },
                {
                    "type": "QUEST_COND_ACTIVITY_GCG_PVE_HARD_REWARD_CAN_TAKE",
                    "param": [
                        "1"
                    ]
                }
            ],
            "nextTalks": [
                6171306
            ],
            "initDialog": 617131101,
            "decoratorID": 3,
            "npcId": [
                1713
            ],
            "performCfg": "",
            "assetIndex": 7179515247110740252,
            "prePerformCfg": ""
        },
        {
            "id": 6171313,
            "activeMode": "PLAY_MODE_HOST",
            "beginCondComb": "LOGIC_AND",
            "beginCond": [
                {
                    "type": "QUEST_COND_ACTIVITY_CLIENT_COND",
                    "param": [
                        "5148",
                        "5148001",
                        "1"
                    ]
                },
                {
                    "type": "QUEST_COND_ACTIVITY_GCG_PVE_INFINITE_REFRESH",
                    "param": [
                        "0"
                    ]
                },
                {
                    "type": "QUEST_COND_ACTIVITY_GCG_PVE_INFINITE_REWARD_CAN_TAKE",
                    "param": [
                        "0"
                    ]
                }
            ],
            "nextTalks": [
                6171306
            ],
            "initDialog": 617131301,
            "npcId": [
                1713
            ],
            "performCfg": "",
            "assetIndex": 16489289576783965575,
            "prePerformCfg": ""
        },
        {
            "id": 6171314,
            "activeMode": "PLAY_MODE_HOST",
            "beginCondComb": "LOGIC_A_AND_ETCOR",
            "beginCond": [
                {
                    "type": "QUEST_COND_ACTIVITY_CLIENT_COND",
                    "param": [
                        "5148",
                        "5148001",
                        "1"
                    ]
                },
                {
                    "type": "QUEST_COND_ACTIVITY_GCG_PVE_INFINITE_REFRESH",
                    "param": [
                        "1"
                    ]
                },
                {
                    "type": "QUEST_COND_ACTIVITY_GCG_PVE_INFINITE_REWARD_CAN_TAKE",
                    "param": [
                        "1"
                    ]
                }
            ],
            "nextTalks": [
                6171306
            ],
            "initDialog": 617131301,
            "decoratorID": 3,
            "npcId": [
                1713
            ],
            "performCfg": "",
            "assetIndex": 29406669859620887,
            "prePerformCfg": ""
        },
        {
            "id": 6171315,
            "activeMode": "PLAY_MODE_HOST",
            "beginCondComb": "LOGIC_AND",
            "beginCond": [
                {
                    "type": "QUEST_COND_ACTIVITY_CLIENT_COND",
                    "param": [
                        "5152",
                        "5152001",
                        "1"
                    ]
                },
                {
                    "type": "QUEST_COND_ACTIVITY_GCG_PVE_PUZZLE_REFRESH",
                    "param": [
                        "0"
                    ]
                },
                {
                    "type": "QUEST_COND_ACTIVITY_GCG_PVE_PUZZLE_REWARD_CAN_TAKE",
                    "param": [
                        "0"
                    ]
                }
            ],
            "nextTalks": [
                6171306
            ],
            "initDialog": 617131501,
            "npcId": [
                1713
            ],
            "performCfg": "",
            "assetIndex": 2576799942577290614,
            "prePerformCfg": ""
        },
        {
            "id": 6171316,
            "activeMode": "PLAY_MODE_HOST",
            "beginCondComb": "LOGIC_A_AND_ETCOR",
            "beginCond": [
                {
                    "type": "QUEST_COND_ACTIVITY_CLIENT_COND",
                    "param": [
                        "5152",
                        "5152001",
                        "1"
                    ]
                },
                {
                    "type": "QUEST_COND_ACTIVITY_GCG_PVE_PUZZLE_REFRESH",
                    "param": [
                        "1"
                    ]
                },
                {
                    "type": "QUEST_COND_ACTIVITY_GCG_PVE_PUZZLE_REWARD_CAN_TAKE",
                    "param": [
                        "1"
                    ]
                }
            ],
            "nextTalks": [
                6171306
            ],
            "initDialog": 617131501,
            "decoratorID": 3,
            "npcId": [
                1713
            ],
            "performCfg": "",
            "assetIndex": 16628708636979547579,
            "prePerformCfg": ""
        }
    ]
}