{
    "npcId": 2039,
    "talks": [
        {
            "id": 7190401,
            "beginWay": "TALK_BEGIN_MANUAL",
            "beginCondComb": "LOGIC_OR",
            "beginCond": [
                {
                    "type": "QUEST_COND_QUEST_NOT_RECEIVE",
                    "param": [
                        "7190401",
                        "1"
                    ]
                }
            ],
            "priority": 1,
            "initDialog": 719040101,
            "npcId": [
                2039
            ],
            "performCfg": "",
            "assetIndex": 5851387416066156663,
            "dontBlockDaily": true,
            "prePerformCfg": ""
        },
        {
            "id": 6203901,
            "beginWay": "TALK_BEGIN_MANUAL",
            "priority": 3,
            "nextTalks": [
                4131533,
                4131534,
                4131535,
                6203902,
                6203903
            ],
            "initDialog": 620390101,
            "npcId": [
                2039
            ],
            "performCfg": "",
            "assetIndex": 5388678958968031028,
            "prePerformCfg": "",
            "freeStyleList": [
                9000
            ]
        },
        {
            "id": 6203902,
            "beginWay": "TALK_BEGIN_MANUAL",
            "priority": 1,
            "nextTalks": [
                6203904,
                6203905
            ],
            "initDialog": 620390201,
            "npcId": [
                2039
            ],
            "performCfg": "",
            "assetIndex": 4981090968920391845,
            "prePerformCfg": ""
        },
        {
            "id": 6203903,
            "beginWay": "TALK_BEGIN_MANUAL",
            "priority": 1,
            "initDialog": 620390301,
            "npcId": [
                2039
            ],
            "performCfg": "",
            "assetIndex": 11931142456535131492,
            "prePerformCfg": ""
        },
        {
            "id": 6203904,
            "beginWay": "TALK_BEGIN_MANUAL",
            "priority": 1,
            "nextTalks": [
                7190401,
                6203906
            ],
            "initDialog": 620390401,
            "npcId": [
                2039
            ],
            "performCfg": "",
            "assetIndex": 14442057097820504126,
            "prePerformCfg": ""
        },
        {
            "id": 6203905,
            "beginWay": "TALK_BEGIN_MANUAL",
            "priority": 1,
            "initDialog": 620390501,
            "npcId": [
                2039
            ],
            "performCfg": "",
            "assetIndex": 6616865324567201818,
            "prePerformCfg": ""
        },
        {
            "id": 6203906,
            "beginWay": "TALK_BEGIN_MANUAL",
            "priority": 1,
            "initDialog": 620390601,
            "npcId": [
                2039
            ],
            "performCfg": "",
            "assetIndex": 18156389077319083480,
            "prePerformCfg": ""
        }
    ]
}