{
    "npcId": 2047,
    "talks": [
        {
            "id": 6204705,
            "beginCond": [
                {
                    "type": "QUEST_COND_QUEST_GLOBAL_VAR_GREATER",
                    "param": [
                        "71037",
                        "3"
                    ]
                }
            ],
            "priority": 1,
            "nextTalks": [
                6204706
            ],
            "initDialog": 620470501,
            "npcId": [
                2047
            ],
            "performCfg": "",
            "assetIndex": 2845079818526926847,
            "prePerformCfg": ""
        },
        {
            "id": 6204706,
            "beginCond": [
                {
                    "type": "QUEST_COND_QUEST_GLOBAL_VAR_GREATER",
                    "param": [
                        "71037",
                        "3"
                    ]
                }
            ],
            "priority": 1,
            "nextTalks": [
                7191001
            ],
            "initDialog": 620470601,
            "npcId": [
                2047
            ],
            "performCfg": "",
            "assetIndex": 2350078571364468596,
            "prePerformCfg": ""
        },
        {
            "id": 7191001,
            "beginWay": "TALK_BEGIN_MANUAL",
            "beginCondComb": "LOGIC_OR",
            "beginCond": [
                {
                    "type": "QUEST_COND_QUEST_NOT_RECEIVE",
                    "param": [
                        "7191001",
                        "1"
                    ]
                }
            ],
            "priority": 1,
            "initDialog": 719100101,
            "npcId": [
                2047
            ],
            "performCfg": "",
            "assetIndex": 14979496139383295840,
            "dontBlockDaily": true,
            "prePerformCfg": ""
        },
        {
            "id": 6204701,
            "beginWay": "TALK_BEGIN_MANUAL",
            "priority": 3,
            "nextTalks": [
                6204702,
                6204705,
                6204704,
                6204703
            ],
            "initDialog": 620470101,
            "npcId": [
                2047
            ],
            "performCfg": "",
            "assetIndex": 16125589288686670153,
            "prePerformCfg": "",
            "freeStyleList": [
                9000
            ]
        },
        {
            "id": 6204702,
            "beginWay": "TALK_BEGIN_MANUAL",
            "beginCond": [
                {
                    "type": "QUEST_COND_QUEST_GLOBAL_VAR_LESS",
                    "param": [
                        "71037",
                        "4"
                    ]
                }
            ],
            "priority": 1,
            "nextTalks": [
                7191001
            ],
            "initDialog": 620470201,
            "npcId": [
                2047
            ],
            "performCfg": "",
            "assetIndex": 12278151239126089921,
            "prePerformCfg": ""
        },
        {
            "id": 6204703,
            "beginWay": "TALK_BEGIN_MANUAL",
            "priority": 1,
            "initDialog": 620470301,
            "npcId": [
                2047
            ],
            "performCfg": "",
            "assetIndex": 4967376787943697717,
            "prePerformCfg": ""
        },
        {
            "id": 6204704,
            "beginWay": "TALK_BEGIN_MANUAL",
            "priority": 1,
            "initDialog": 620470401,
            "npcId": [
                2047
            ],
            "performCfg": "",
            "assetIndex": 14147602907125853108,
            "prePerformCfg": ""
        }
    ]
}