{
    "npcId": 2055,
    "talks": [
        {
            "id": 6205501,
            "beginWay": "TALK_BEGIN_MANUAL",
            "beginCond": [
                {
                    "type": "QUEST_COND_IS_DAYTIME",
                    "param": [
                        "1"
                    ]
                }
            ],
            "priority": 3,
            "nextTalks": [
                6205508,
                6205503,
                6205502,
                6205504
            ],
            "initDialog": 620550101,
            "npcId": [
                2055
            ],
            "performCfg": "",
            "assetIndex": 18273747427655117986,
            "prePerformCfg": "",
            "freeStyleList": [
                9000
            ]
        },
        {
            "id": 6205502,
            "beginWay": "TALK_BEGIN_MANUAL",
            "beginCond": [
                {
                    "type": "QUEST_COND_IS_DAYTIME",
                    "param": [
                        "1"
                    ]
                }
            ],
            "priority": 1,
            "initDialog": 620550201,
            "npcId": [
                2055
            ],
            "performCfg": "",
            "assetIndex": 4316979395883443405,
            "prePerformCfg": ""
        },
        {
            "id": 6205503,
            "beginWay": "TALK_BEGIN_MANUAL",
            "beginCondComb": "LOGIC_AND",
            "beginCond": [
                {
                    "type": "QUEST_COND_IS_DAYTIME",
                    "param": [
                        "1"
                    ]
                },
                {
                    "type": "QUEST_COND_STATE_EQUAL",
                    "param": [
                        "100008",
                        "3"
                    ]
                },
                {
                    "type": "QUEST_COND_QUEST_GLOBAL_VAR_EQUAL",
                    "param": [
                        "10007",
                        "0"
                    ]
                }
            ],
            "priority": 1,
            "initDialog": 620550301,
            "npcId": [
                2055
            ],
            "performCfg": "",
            "assetIndex": 8916117486234795964,
            "prePerformCfg": ""
        },
        {
            "id": 6205504,
            "beginWay": "TALK_BEGIN_MANUAL",
            "beginCond": [
                {
                    "type": "QUEST_COND_IS_DAYTIME",
                    "param": [
                        "1"
                    ]
                }
            ],
            "priority": 1,
            "initDialog": 620550401,
            "npcId": [
                2055
            ],
            "performCfg": "",
            "assetIndex": 8092415542896432230,
            "prePerformCfg": ""
        },
        {
            "id": 6205505,
            "beginWay": "TALK_BEGIN_MANUAL",
            "beginCond": [
                {
                    "type": "QUEST_COND_IS_DAYTIME",
                    "param": [
                        "0"
                    ]
                }
            ],
            "priority": 3,
            "nextTalks": [
                6205506,
                6205507
            ],
            "initDialog": 620550501,
            "npcId": [
                2055
            ],
            "performCfg": "",
            "assetIndex": 14795864497407500159,
            "prePerformCfg": ""
        },
        {
            "id": 6205506,
            "beginWay": "TALK_BEGIN_MANUAL",
            "beginCond": [
                {
                    "type": "QUEST_COND_IS_DAYTIME",
                    "param": [
                        "0"
                    ]
                }
            ],
            "priority": 1,
            "initDialog": 620550601,
            "npcId": [
                2055
            ],
            "performCfg": "",
            "assetIndex": 11690633229731250982,
            "prePerformCfg": ""
        },
        {
            "id": 6205507,
            "beginWay": "TALK_BEGIN_MANUAL",
            "beginCond": [
                {
                    "type": "QUEST_COND_IS_DAYTIME",
                    "param": [
                        "0"
                    ]
                }
            ],
            "priority": 1,
            "initDialog": 620550701,
            "npcId": [
                2055
            ],
            "performCfg": "",
            "assetIndex": 3685967039794297932,
            "prePerformCfg": ""
        },
        {
            "id": 6205508,
            "beginWay": "TALK_BEGIN_MANUAL",
            "beginCond": [
                {
                    "type": "QUEST_COND_IS_DAYTIME",
                    "param": [
                        "1"
                    ]
                },
                {
                    "type": "QUEST_COND_QUEST_GLOBAL_VAR_EQUAL",
                    "param": [
                        "10007",
                        "1"
                    ]
                }
            ],
            "priority": 1,
            "initDialog": 620550801,
            "npcId": [
                2055
            ],
            "performCfg": "",
            "assetIndex": 11608092221009192099,
            "prePerformCfg": ""
        }
    ]
}