{
    "npcId": 2063,
    "talks": [
        {
            "id": 6206301,
            "beginWay": "TALK_BEGIN_MANUAL",
            "beginCond": [
                {
                    "type": "QUEST_COND_IS_DAYTIME",
                    "param": [
                        "1"
                    ]
                }
            ],
            "priority": 3,
            "nextTalks": [
                6206302,
                6206303,
                6206304
            ],
            "initDialog": 620630101,
            "npcId": [
                2063
            ],
            "performCfg": "",
            "assetIndex": 9811323638080982427,
            "prePerformCfg": "",
            "freeStyleList": [
                9000
            ]
        },
        {
            "id": 6206302,
            "beginWay": "TALK_BEGIN_MANUAL",
            "priority": 1,
            "initDialog": 620630201,
            "npcId": [
                2063
            ],
            "performCfg": "",
            "assetIndex": 3018275567287540337,
            "prePerformCfg": ""
        },
        {
            "id": 6206303,
            "beginWay": "TALK_BEGIN_MANUAL",
            "priority": 1,
            "initDialog": 620630301,
            "npcId": [
                2063
            ],
            "performCfg": "",
            "assetIndex": 6745220392042833002,
            "prePerformCfg": ""
        },
        {
            "id": 6206304,
            "beginWay": "TALK_BEGIN_MANUAL",
            "priority": 1,
            "initDialog": 620630401,
            "npcId": [
                2063
            ],
            "performCfg": "",
            "assetIndex": 14761970013708703699,
            "prePerformCfg": ""
        },
        {
            "id": 6206305,
            "beginWay": "TALK_BEGIN_MANUAL",
            "beginCond": [
                {
                    "type": "QUEST_COND_IS_DAYTIME",
                    "param": [
                        "0"
                    ]
                }
            ],
            "priority": 3,
            "nextTalks": [
                6206306,
                6206307,
                6206308
            ],
            "initDialog": 620630501,
            "npcId": [
                2063
            ],
            "performCfg": "",
            "assetIndex": 11922396035002309080,
            "prePerformCfg": "",
            "freeStyleList": [
                9000
            ]
        },
        {
            "id": 6206306,
            "beginWay": "TALK_BEGIN_MANUAL",
            "priority": 1,
            "initDialog": 620630601,
            "npcId": [
                2063
            ],
            "performCfg": "",
            "assetIndex": 12443927244634360401,
            "prePerformCfg": ""
        },
        {
            "id": 6206307,
            "beginWay": "TALK_BEGIN_MANUAL",
            "priority": 1,
            "initDialog": 620630701,
            "npcId": [
                2063
            ],
            "performCfg": "",
            "assetIndex": 11879208486884260971,
            "prePerformCfg": ""
        },
        {
            "id": 6206308,
            "beginWay": "TALK_BEGIN_MANUAL",
            "priority": 1,
            "initDialog": 620630801,
            "npcId": [
                2063
            ],
            "performCfg": "",
            "assetIndex": 13069445565939900551,
            "prePerformCfg": ""
        }
    ]
}