{
    "npcId": 21181,
    "talks": [
        {
            "id": 7411903,
            "beginWay": "TALK_BEGIN_MANUAL",
            "activeMode": "PLAY_MODE_HOST",
            "priority": 5,
            "initDialog": 741190301,
            "npcId": [
                21181
            ],
            "performCfg": "QuestDialogue/WQ/Fontaine_74119/Q7411903",
            "assetIndex": 5109596220325055119,
            "prePerformCfg": ""
        }
    ]
}