{
    "npcId": 2306,
    "talks": [
        {
            "id": 4003747,
            "beginWay": "TALK_BEGIN_MANUAL",
            "beginCond": [
                {
                    "type": "QUEST_COND_ACTIVITY_CLIENT_COND",
                    "param": [
                        "2010",
                        "2010208",
                        "1"
                    ]
                }
            ],
            "priority": 5,
            "nextTalks": [
                2102108,
                2102199,
                2102111,
                6230602,
                6230603,
                6230604
            ],
            "initDialog": 400374701,
            "npcId": [
                2306
            ],
            "performCfg": "",
            "assetIndex": 10115877563786038343,
            "prePerformCfg": ""
        },
        {
            "id": 4111543,
            "beginWay": "TALK_BEGIN_MANUAL",
            "activeMode": "PLAY_MODE_ALL",
            "beginCond": [
                {
                    "type": "QUEST_COND_ACTIVITY_CLIENT_COND",
                    "param": [
                        "2001",
                        "2001001",
                        "1"
                    ]
                }
            ],
            "priority": 4,
            "nextTalks": [
                2102108,
                2102199,
                2102111,
                2102114,
                2102124,
                6230602,
                6230603,
                6230604
            ],
            "initDialog": 411154301,
            "npcId": [
                2306
            ],
            "performCfg": "",
            "assetIndex": 5351096254416328395,
            "prePerformCfg": ""
        },
        {
            "id": 6230606,
            "beginWay": "TALK_BEGIN_MANUAL",
            "activeMode": "PLAY_MODE_HOST",
            "beginCond": [
                {
                    "type": "QUEST_COND_GCG_LEVEL_UNLOCKED",
                    "param": [
                        "6230606"
                    ]
                }
            ],
            "priority": 1,
            "initDialog": 623060601,
            "npcId": [
                2306
            ],
            "performCfg": "",
            "assetIndex": 9494766671358762383,
            "prePerformCfg": ""
        },
        {
            "id": 6230607,
            "beginWay": "TALK_BEGIN_AUTO",
            "activeMode": "PLAY_MODE_HOST",
            "beginCond": [
                {
                    "type": "QUEST_COND_GCG_WORLD_CHALLENGE_RESULT",
                    "param": [
                        "-1",
                        "2306",
                        "6230606"
                    ]
                }
            ],
            "priority": 10,
            "initDialog": 623060701,
            "npcId": [
                2306
            ],
            "performCfg": "",
            "assetIndex": 15545450760746792387,
            "prePerformCfg": ""
        },
        {
            "id": 6230608,
            "beginWay": "TALK_BEGIN_AUTO",
            "activeMode": "PLAY_MODE_HOST",
            "beginCond": [
                {
                    "type": "QUEST_COND_GCG_WORLD_CHALLENGE_RESULT",
                    "param": [
                        "1",
                        "2306",
                        "6230606"
                    ]
                }
            ],
            "priority": 10,
            "initDialog": 623060801,
            "npcId": [
                2306
            ],
            "performCfg": "",
            "assetIndex": 164769213644172471,
            "prePerformCfg": ""
        },
        {
            "id": 7192001,
            "beginWay": "TALK_BEGIN_MANUAL",
            "beginCondComb": "LOGIC_OR",
            "beginCond": [
                {
                    "type": "QUEST_COND_QUEST_NOT_RECEIVE",
                    "param": [
                        "7192001",
                        "1"
                    ]
                }
            ],
            "priority": 1,
            "initDialog": 719200101,
            "npcId": [
                2306
            ],
            "performCfg": "",
            "assetIndex": 10884944030164939647,
            "dontBlockDaily": true,
            "prePerformCfg": ""
        },
        {
            "id": 6230601,
            "beginWay": "TALK_BEGIN_MANUAL",
            "activeMode": "PLAY_MODE_HOST",
            "priority": 3,
            "nextTalks": [
                2102108,
                2102199,
                2102111,
                6230606,
                6230602,
                6230603,
                6230604
            ],
            "initDialog": 623060101,
            "npcId": [
                2306
            ],
            "performCfg": "",
            "assetIndex": 12301481932486166402,
            "prePerformCfg": "",
            "freeStyleList": [
                9000
            ]
        },
        {
            "id": 6230602,
            "beginWay": "TALK_BEGIN_MANUAL",
            "priority": 1,
            "initDialog": 623060201,
            "npcId": [
                2306
            ],
            "performCfg": "",
            "assetIndex": 6204719892751814804,
            "prePerformCfg": ""
        },
        {
            "id": 6230603,
            "beginWay": "TALK_BEGIN_MANUAL",
            "priority": 1,
            "nextTalks": [
                6230605
            ],
            "initDialog": 623060301,
            "npcId": [
                2306
            ],
            "performCfg": "",
            "assetIndex": 16407865092339990287,
            "prePerformCfg": ""
        },
        {
            "id": 6230604,
            "beginWay": "TALK_BEGIN_MANUAL",
            "activeMode": "PLAY_MODE_HOST",
            "priority": 1,
            "initDialog": 623060401,
            "npcId": [
                2306
            ],
            "performCfg": "",
            "assetIndex": 5432412674025229551,
            "prePerformCfg": ""
        },
        {
            "id": 6230605,
            "beginWay": "TALK_BEGIN_MANUAL",
            "priority": 1,
            "nextTalks": [
                7192001
            ],
            "initDialog": 623060306,
            "npcId": [
                2306
            ],
            "performCfg": "",
            "assetIndex": 236108243770132365,
            "prePerformCfg": ""
        }
    ]
}