{
    "npcId": 30255,
    "talks": [
        {
            "id": 4008122,
            "beginWay": "TALK_BEGIN_MANUAL",
            "beginCond": [
                {
                    "type": "QUEST_COND_STATE_EQUAL",
                    "param": [
                        "4008121",
                        "3"
                    ]
                }
            ],
            "priority": 1,
            "initDialog": 400812201,
            "npcId": [
                30255
            ],
            "performCfg": "",
            "heroTalk": "TALK_HERO_MAIN",
            "assetIndex": 12467200413615194785,
            "prePerformCfg": "",
            "freeStyleList": [
                9000
            ]
        },
        {
            "id": 4008152,
            "beginWay": "TALK_BEGIN_MANUAL",
            "beginCond": [
                {
                    "type": "QUEST_COND_STATE_EQUAL",
                    "param": [
                        "4008412",
                        "3"
                    ]
                }
            ],
            "priority": 6,
            "initDialog": 400815201,
            "npcId": [
                30255
            ],
            "performCfg": "",
            "heroTalk": "TALK_HERO_MAIN",
            "assetIndex": 11071861956648014236,
            "prePerformCfg": "",
            "freeStyleList": [
                9000
            ]
        }
    ]
}