{
    "npcId": 3082,
    "talks": [
        {
            "id": 4006307,
            "beginWay": "TALK_BEGIN_MANUAL",
            "beginCondComb": "LOGIC_AND",
            "beginCond": [
                {
                    "type": "QUEST_COND_ACTIVITY_CLIENT_COND",
                    "param": [
                        "2012",
                        "2012002",
                        "1"
                    ]
                },
                {
                    "type": "QUEST_COND_QUEST_GLOBAL_VAR_EQUAL",
                    "param": [
                        "4005513",
                        "1"
                    ]
                }
            ],
            "priority": 5,
            "nextTalks": [
                6308207,
                6308203
            ],
            "initDialog": 400630701,
            "npcId": [
                3082
            ],
            "performCfg": "",
            "assetIndex": 10866522246285958921,
            "prePerformCfg": ""
        },
        {
            "id": 4006363,
            "beginWay": "TALK_BEGIN_MANUAL",
            "beginCondComb": "LOGIC_AND",
            "beginCond": [
                {
                    "type": "QUEST_COND_ACTIVITY_CLIENT_COND",
                    "param": [
                        "2012",
                        "2012002",
                        "1"
                    ]
                },
                {
                    "type": "QUEST_COND_QUEST_GLOBAL_VAR_EQUAL",
                    "param": [
                        "4005513",
                        "0"
                    ]
                }
            ],
            "priority": 5,
            "nextTalks": [
                6308207,
                6308203
            ],
            "initDialog": 400636301,
            "npcId": [
                3082
            ],
            "performCfg": "",
            "assetIndex": 1545727727495654118,
            "prePerformCfg": ""
        },
        {
            "id": 6308201,
            "beginWay": "TALK_BEGIN_MANUAL",
            "activeMode": "PLAY_MODE_HOST",
            "beginCond": [
                {
                    "type": "QUEST_COND_QUEST_GLOBAL_VAR_EQUAL",
                    "param": [
                        "12042",
                        "0"
                    ]
                }
            ],
            "priority": 3,
            "nextTalks": [
                6308209,
                6308202,
                6308203
            ],
            "initDialog": 630820101,
            "npcId": [
                3082
            ],
            "performCfg": "",
            "assetIndex": 14556697526248373225,
            "prePerformCfg": "",
            "freeStyleList": [
                9000
            ]
        },
        {
            "id": 6308202,
            "beginCond": [
                {
                    "type": "QUEST_COND_QUEST_GLOBAL_VAR_EQUAL",
                    "param": [
                        "12042",
                        "0"
                    ]
                }
            ],
            "priority": 1,
            "nextTalks": [
                6308204,
                6308205
            ],
            "initDialog": 630820201,
            "npcId": [
                3082
            ],
            "performCfg": "",
            "assetIndex": 14032543708483854525,
            "prePerformCfg": ""
        },
        {
            "id": 6308203,
            "activeMode": "PLAY_MODE_HOST",
            "priority": 1,
            "initDialog": 630820301,
            "npcId": [
                3082
            ],
            "performCfg": "",
            "assetIndex": 14888323399741774093,
            "prePerformCfg": ""
        },
        {
            "id": 6308204,
            "priority": 1,
            "initDialog": 630820401,
            "npcId": [
                3082
            ],
            "performCfg": "",
            "assetIndex": 4255643595800066061,
            "prePerformCfg": ""
        },
        {
            "id": 6308205,
            "beginCond": [
                {
                    "type": "QUEST_COND_QUEST_GLOBAL_VAR_EQUAL",
                    "param": [
                        "12042",
                        "0"
                    ]
                }
            ],
            "priority": 1,
            "initDialog": 630820501,
            "npcId": [
                3082
            ],
            "performCfg": "",
            "assetIndex": 8975052495020868934,
            "prePerformCfg": ""
        },
        {
            "id": 6308206,
            "beginWay": "TALK_BEGIN_MANUAL",
            "activeMode": "PLAY_MODE_HOST",
            "beginCond": [
                {
                    "type": "QUEST_COND_QUEST_GLOBAL_VAR_EQUAL",
                    "param": [
                        "12042",
                        "1"
                    ]
                }
            ],
            "priority": 3,
            "nextTalks": [
                6308209,
                6308207,
                6308203
            ],
            "initDialog": 630820601,
            "npcId": [
                3082
            ],
            "performCfg": "",
            "assetIndex": 15846636508113117473,
            "prePerformCfg": ""
        },
        {
            "id": 6308207,
            "beginCond": [
                {
                    "type": "QUEST_COND_QUEST_GLOBAL_VAR_EQUAL",
                    "param": [
                        "12042",
                        "1"
                    ]
                }
            ],
            "priority": 1,
            "nextTalks": [
                6308204,
                6308208
            ],
            "initDialog": 630820701,
            "npcId": [
                3082
            ],
            "performCfg": "",
            "assetIndex": 15642476696139978610,
            "prePerformCfg": ""
        },
        {
            "id": 6308208,
            "beginCond": [
                {
                    "type": "QUEST_COND_QUEST_GLOBAL_VAR_EQUAL",
                    "param": [
                        "12042",
                        "1"
                    ]
                }
            ],
            "priority": 1,
            "initDialog": 630820801,
            "npcId": [
                3082
            ],
            "performCfg": "",
            "assetIndex": 10215997257045910166,
            "prePerformCfg": ""
        },
        {
            "id": 6308209,
            "beginWay": "TALK_BEGIN_MANUAL",
            "activeMode": "PLAY_MODE_HOST",
            "beginCond": [
                {
                    "type": "QUEST_COND_GCG_LEVEL_UNLOCKED",
                    "param": [
                        "6308209"
                    ]
                }
            ],
            "priority": 1,
            "initDialog": 630820901,
            "npcId": [
                3082
            ],
            "performCfg": "",
            "assetIndex": 1379519348610916622,
            "prePerformCfg": ""
        },
        {
            "id": 6308210,
            "beginWay": "TALK_BEGIN_AUTO",
            "activeMode": "PLAY_MODE_HOST",
            "beginCond": [
                {
                    "type": "QUEST_COND_GCG_WORLD_CHALLENGE_RESULT",
                    "param": [
                        "1",
                        "3082",
                        "6308209"
                    ]
                }
            ],
            "priority": 10,
            "initDialog": 630821001,
            "npcId": [
                3082
            ],
            "performCfg": "",
            "assetIndex": 308268000914697061,
            "prePerformCfg": ""
        },
        {
            "id": 6308211,
            "beginWay": "TALK_BEGIN_AUTO",
            "activeMode": "PLAY_MODE_HOST",
            "beginCond": [
                {
                    "type": "QUEST_COND_GCG_WORLD_CHALLENGE_RESULT",
                    "param": [
                        "-1",
                        "3082",
                        "6308209"
                    ]
                }
            ],
            "priority": 10,
            "initDialog": 630821101,
            "npcId": [
                3082
            ],
            "performCfg": "",
            "assetIndex": 10146761233488632651,
            "prePerformCfg": ""
        }
    ]
}