{
    "npcId": 3126,
    "talks": [
        {
            "id": 6312601,
            "beginWay": "TALK_BEGIN_MANUAL",
            "beginCond": [
                {
                    "type": "QUEST_COND_QUEST_GLOBAL_VAR_EQUAL",
                    "param": [
                        "1202401",
                        "0"
                    ]
                }
            ],
            "priority": 3,
            "nextTalks": [
                6312602,
                6312603
            ],
            "initDialog": 631260101,
            "npcId": [
                3126
            ],
            "performCfg": "",
            "assetIndex": 15268603954926881728,
            "prePerformCfg": "",
            "freeStyleList": [
                9000
            ]
        },
        {
            "id": 6312602,
            "beginCond": [
                {
                    "type": "QUEST_COND_QUEST_GLOBAL_VAR_EQUAL",
                    "param": [
                        "1202401",
                        "0"
                    ]
                }
            ],
            "priority": 1,
            "nextTalks": [
                6312604,
                6312605
            ],
            "initDialog": 631260201,
            "npcId": [
                3126
            ],
            "performCfg": "",
            "assetIndex": 10415223352932212607,
            "prePerformCfg": ""
        },
        {
            "id": 6312603,
            "beginCond": [
                {
                    "type": "QUEST_COND_QUEST_GLOBAL_VAR_EQUAL",
                    "param": [
                        "1202401",
                        "0"
                    ]
                }
            ],
            "priority": 1,
            "initDialog": 631260301,
            "npcId": [
                3126
            ],
            "performCfg": "",
            "assetIndex": 11300287111118747971,
            "prePerformCfg": ""
        },
        {
            "id": 6312604,
            "beginCond": [
                {
                    "type": "QUEST_COND_QUEST_GLOBAL_VAR_EQUAL",
                    "param": [
                        "1202401",
                        "0"
                    ]
                }
            ],
            "priority": 1,
            "initDialog": 631260401,
            "npcId": [
                3126
            ],
            "performCfg": "",
            "assetIndex": 7801648362951494727,
            "prePerformCfg": ""
        },
        {
            "id": 6312605,
            "beginCond": [
                {
                    "type": "QUEST_COND_QUEST_GLOBAL_VAR_EQUAL",
                    "param": [
                        "1202401",
                        "0"
                    ]
                }
            ],
            "priority": 1,
            "initDialog": 631260501,
            "npcId": [
                3126
            ],
            "performCfg": "",
            "assetIndex": 14102990219774912827,
            "prePerformCfg": ""
        },
        {
            "id": 6312606,
            "beginWay": "TALK_BEGIN_MANUAL",
            "beginCond": [
                {
                    "type": "QUEST_COND_QUEST_GLOBAL_VAR_EQUAL",
                    "param": [
                        "1202401",
                        "1"
                    ]
                }
            ],
            "priority": 4,
            "nextTalks": [
                6312607,
                6312609
            ],
            "initDialog": 631260601,
            "npcId": [
                3126
            ],
            "performCfg": "",
            "assetIndex": 13757387962261838817,
            "prePerformCfg": "",
            "freeStyleList": [
                9000
            ]
        },
        {
            "id": 6312607,
            "beginCond": [
                {
                    "type": "QUEST_COND_QUEST_GLOBAL_VAR_EQUAL",
                    "param": [
                        "1202401",
                        "1"
                    ]
                }
            ],
            "priority": 1,
            "nextTalks": [
                6312608
            ],
            "initDialog": 631260701,
            "npcId": [
                3126
            ],
            "performCfg": "",
            "assetIndex": 11200234486644955752,
            "prePerformCfg": ""
        },
        {
            "id": 6312608,
            "beginCond": [
                {
                    "type": "QUEST_COND_QUEST_GLOBAL_VAR_EQUAL",
                    "param": [
                        "1202401",
                        "1"
                    ]
                }
            ],
            "priority": 1,
            "initDialog": 631260801,
            "npcId": [
                3126
            ],
            "performCfg": "",
            "assetIndex": 13632009300646541529,
            "prePerformCfg": ""
        },
        {
            "id": 6312609,
            "beginCond": [
                {
                    "type": "QUEST_COND_QUEST_GLOBAL_VAR_EQUAL",
                    "param": [
                        "1202401",
                        "1"
                    ]
                }
            ],
            "priority": 1,
            "initDialog": 631260901,
            "npcId": [
                3126
            ],
            "performCfg": "",
            "assetIndex": 14668680766663478705,
            "prePerformCfg": ""
        }
    ]
}