{
    "npcId": 3142,
    "talks": [
        {
            "id": 6314201,
            "beginWay": "TALK_BEGIN_MANUAL",
            "priority": 3,
            "nextTalks": [
                6314202,
                6314203
            ],
            "initDialog": 631420101,
            "npcId": [
                3142
            ],
            "performCfg": "",
            "assetIndex": 13715610639567425804,
            "prePerformCfg": "",
            "freeStyleList": [
                9000
            ]
        },
        {
            "id": 6314202,
            "priority": 1,
            "initDialog": 631420201,
            "npcId": [
                3142
            ],
            "performCfg": "",
            "assetIndex": 17517632552316701581,
            "prePerformCfg": ""
        },
        {
            "id": 6314203,
            "priority": 1,
            "initDialog": 631420301,
            "npcId": [
                3142
            ],
            "performCfg": "",
            "assetIndex": 17420851140982893230,
            "prePerformCfg": ""
        }
    ]
}