{
    "npcId": 3195,
    "talks": [
        {
            "id": 6319501,
            "beginWay": "TALK_BEGIN_MANUAL",
            "beginCond": [
                {
                    "type": "QUEST_COND_QUEST_GLOBAL_VAR_EQUAL",
                    "param": [
                        "72151",
                        "1"
                    ]
                }
            ],
            "priority": 3,
            "nextTalks": [
                6319502,
                6319504
            ],
            "initDialog": 631950101,
            "npcId": [
                3195
            ],
            "performCfg": "",
            "assetIndex": 17240194766036601988,
            "prePerformCfg": "",
            "freeStyleList": [
                9000
            ]
        },
        {
            "id": 6319502,
            "beginCond": [
                {
                    "type": "QUEST_COND_QUEST_GLOBAL_VAR_EQUAL",
                    "param": [
                        "72151",
                        "1"
                    ]
                }
            ],
            "priority": 1,
            "nextTalks": [
                7294501,
                6319503
            ],
            "initDialog": 631950201,
            "npcId": [
                3195
            ],
            "performCfg": "",
            "assetIndex": 11342079128643054272,
            "prePerformCfg": ""
        },
        {
            "id": 6319503,
            "beginCond": [
                {
                    "type": "QUEST_COND_QUEST_GLOBAL_VAR_EQUAL",
                    "param": [
                        "72151",
                        "1"
                    ]
                }
            ],
            "priority": 1,
            "initDialog": 631950301,
            "npcId": [
                3195
            ],
            "performCfg": "",
            "assetIndex": 911078638550240654,
            "prePerformCfg": ""
        },
        {
            "id": 6319504,
            "beginCond": [
                {
                    "type": "QUEST_COND_QUEST_GLOBAL_VAR_EQUAL",
                    "param": [
                        "72151",
                        "1"
                    ]
                }
            ],
            "priority": 1,
            "initDialog": 631950401,
            "npcId": [
                3195
            ],
            "performCfg": "",
            "assetIndex": 1486289301139155210,
            "prePerformCfg": ""
        },
        {
            "id": 7294501,
            "beginWay": "TALK_BEGIN_MANUAL",
            "beginCondComb": "LOGIC_AND",
            "beginCond": [
                {
                    "type": "QUEST_COND_QUEST_NOT_RECEIVE",
                    "param": [
                        "7294501",
                        "1"
                    ]
                },
                {
                    "type": "QUEST_COND_QUEST_GLOBAL_VAR_EQUAL",
                    "param": [
                        "72151",
                        "1"
                    ]
                }
            ],
            "priority": 1,
            "initDialog": 729450101,
            "npcId": [
                3195
            ],
            "performCfg": "",
            "assetIndex": 14437866973179636582,
            "dontBlockDaily": true,
            "prePerformCfg": ""
        }
    ]
}