{
    "npcId": 4007,
    "talks": [
        {
            "id": 6400701,
            "beginWay": "TALK_BEGIN_MANUAL",
            "priority": 3,
            "nextTalks": [
                7365601,
                6400702,
                6400703
            ],
            "initDialog": 640070101,
            "npcId": [
                4007
            ],
            "performCfg": "",
            "assetIndex": 3248294413679376122,
            "prePerformCfg": "",
            "freeStyleList": [
                1171,
                1172,
                1173
            ]
        },
        {
            "id": 6400702,
            "priority": 1,
            "nextTalks": [
                7392401
            ],
            "initDialog": 640070201,
            "npcId": [
                4007
            ],
            "performCfg": "",
            "assetIndex": 18144667845034393735,
            "prePerformCfg": "",
            "freeStyleList": [
                4040,
                1171,
                1172,
                1173,
                1130
            ]
        },
        {
            "id": 6400703,
            "priority": 1,
            "initDialog": 640070301,
            "npcId": [
                4007
            ],
            "performCfg": "",
            "assetIndex": 2359854210191355338,
            "prePerformCfg": ""
        },
        {
            "id": 7392401,
            "beginWay": "TALK_BEGIN_MANUAL",
            "beginCondComb": "LOGIC_OR",
            "beginCond": [
                {
                    "type": "QUEST_COND_QUEST_NOT_RECEIVE",
                    "param": [
                        "7392401",
                        "1"
                    ]
                }
            ],
            "priority": 1,
            "initDialog": 739240101,
            "npcId": [
                4007
            ],
            "performCfg": "",
            "assetIndex": 16205778514119498142,
            "dontBlockDaily": true,
            "prePerformCfg": ""
        }
    ]
}