{
    "npcId": 4009,
    "talks": [
        {
            "id": 6400901,
            "beginWay": "TALK_BEGIN_MANUAL",
            "priority": 3,
            "nextTalks": [
                6400902,
                6400903
            ],
            "initDialog": 640090101,
            "npcId": [
                4009
            ],
            "performCfg": "",
            "assetIndex": 7491075363669041340,
            "prePerformCfg": "",
            "freeStyleList": [
                9000,
                1171,
                1172,
                1173
            ]
        },
        {
            "id": 6400902,
            "priority": 1,
            "nextTalks": [
                6400904
            ],
            "initDialog": 640090201,
            "npcId": [
                4009
            ],
            "performCfg": "",
            "assetIndex": 15290783741165314499,
            "prePerformCfg": "",
            "freeStyleList": [
                1130
            ]
        },
        {
            "id": 6400903,
            "priority": 1,
            "initDialog": 640090301,
            "npcId": [
                4009
            ],
            "performCfg": "",
            "assetIndex": 11572646066138831983,
            "prePerformCfg": "",
            "freeStyleList": [
                4040
            ]
        },
        {
            "id": 6400904,
            "priority": 1,
            "initDialog": 640090401,
            "npcId": [
                4009
            ],
            "performCfg": "",
            "assetIndex": 18154865771398573701,
            "prePerformCfg": "",
            "freeStyleList": [
                1171,
                1172,
                1173,
                1130
            ]
        }
    ]
}