{
    "npcId": 4035,
    "talks": [
        {
            "id": 6403501,
            "beginWay": "TALK_BEGIN_MANUAL",
            "priority": 3,
            "nextTalks": [
                6403502,
                6403503
            ],
            "initDialog": 640350101,
            "npcId": [
                4035
            ],
            "performCfg": "",
            "assetIndex": 5582514208687121230,
            "prePerformCfg": "",
            "freeStyleList": [
                9000
            ]
        },
        {
            "id": 6403502,
            "priority": 1,
            "initDialog": 640350201,
            "npcId": [
                4035
            ],
            "performCfg": "",
            "assetIndex": 16064032716547049210,
            "prePerformCfg": ""
        },
        {
            "id": 6403503,
            "priority": 1,
            "initDialog": 640350301,
            "npcId": [
                4035
            ],
            "performCfg": "",
            "assetIndex": 16132369000917506672,
            "prePerformCfg": ""
        }
    ]
}