{
    "npcId": 4100,
    "talks": [
        {
            "id": 6410001,
            "beginWay": "TALK_BEGIN_MANUAL",
            "priority": 3,
            "nextTalks": [
                6410002,
                6410003
            ],
            "initDialog": 641000101,
            "npcId": [
                4100
            ],
            "performCfg": "",
            "assetIndex": 16681612727714367548,
            "prePerformCfg": ""
        },
        {
            "id": 6410002,
            "priority": 1,
            "initDialog": 641000201,
            "npcId": [
                4100
            ],
            "performCfg": "",
            "assetIndex": 5016620335722710852,
            "prePerformCfg": "",
            "freeStyleList": [
                4040
            ]
        },
        {
            "id": 6410003,
            "priority": 1,
            "initDialog": 641000301,
            "npcId": [
                4100
            ],
            "performCfg": "",
            "assetIndex": 217836453372643713,
            "prePerformCfg": ""
        }
    ]
}