{
    "npcId": 4101,
    "talks": [
        {
            "id": 6410101,
            "beginWay": "TALK_BEGIN_MANUAL",
            "priority": 3,
            "nextTalks": [
                6410102,
                6410103
            ],
            "initDialog": 641010101,
            "npcId": [
                4101
            ],
            "performCfg": "",
            "assetIndex": 9683596253187498267,
            "prePerformCfg": ""
        },
        {
            "id": 6410102,
            "priority": 1,
            "nextTalks": [
                7394401
            ],
            "initDialog": 641010201,
            "npcId": [
                4101
            ],
            "performCfg": "",
            "assetIndex": 75756236852893957,
            "prePerformCfg": "",
            "freeStyleList": [
                1171,
                1172,
                1173
            ]
        },
        {
            "id": 6410103,
            "priority": 1,
            "initDialog": 641010301,
            "npcId": [
                4101
            ],
            "performCfg": "",
            "assetIndex": 18742923974308028,
            "prePerformCfg": ""
        },
        {
            "id": 7394401,
            "beginWay": "TALK_BEGIN_MANUAL",
            "beginCondComb": "LOGIC_OR",
            "beginCond": [
                {
                    "type": "QUEST_COND_QUEST_NOT_RECEIVE",
                    "param": [
                        "7394401",
                        "1"
                    ]
                }
            ],
            "priority": 1,
            "initDialog": 739440101,
            "npcId": [
                4101
            ],
            "performCfg": "",
            "assetIndex": 14311376806728041203,
            "dontBlockDaily": true,
            "prePerformCfg": ""
        }
    ]
}