{
    "npcId": 4111,
    "talks": [
        {
            "id": 6411101,
            "beginWay": "TALK_BEGIN_MANUAL",
            "priority": 3,
            "nextTalks": [
                6411102,
                6411103
            ],
            "initDialog": 641110101,
            "npcId": [
                4111
            ],
            "performCfg": "",
            "assetIndex": 10561214025085266053,
            "prePerformCfg": "",
            "freeStyleList": [
                9000
            ]
        },
        {
            "id": 6411102,
            "priority": 1,
            "nextTalks": [
                6411104,
                6411105,
                6411106
            ],
            "initDialog": 641110201,
            "npcId": [
                4111
            ],
            "performCfg": "",
            "assetIndex": 8105151213592182449,
            "prePerformCfg": ""
        },
        {
            "id": 6411103,
            "priority": 1,
            "initDialog": 641110301,
            "npcId": [
                4111
            ],
            "performCfg": "",
            "assetIndex": 4943221004441617766,
            "prePerformCfg": ""
        },
        {
            "id": 6411104,
            "priority": 1,
            "initDialog": 641110401,
            "npcId": [
                4111
            ],
            "performCfg": "",
            "assetIndex": 6846112354172683007,
            "prePerformCfg": ""
        },
        {
            "id": 6411105,
            "priority": 1,
            "initDialog": 641110501,
            "npcId": [
                4111
            ],
            "performCfg": "",
            "assetIndex": 2921529227988354858,
            "prePerformCfg": ""
        },
        {
            "id": 6411106,
            "priority": 1,
            "initDialog": 641110601,
            "npcId": [
                4111
            ],
            "performCfg": "",
            "assetIndex": 3524872434411923146,
            "prePerformCfg": ""
        }
    ]
}