{
    "npcId": 4115,
    "talks": [
        {
            "id": 6411501,
            "beginWay": "TALK_BEGIN_MANUAL",
            "priority": 3,
            "nextTalks": [
                6411502,
                6411503
            ],
            "initDialog": 641150101,
            "npcId": [
                4115
            ],
            "performCfg": "",
            "assetIndex": 3423093167928012265,
            "prePerformCfg": "",
            "freeStyleList": [
                9000
            ]
        },
        {
            "id": 6411502,
            "priority": 1,
            "nextTalks": [
                7390501
            ],
            "initDialog": 641150201,
            "npcId": [
                4115
            ],
            "performCfg": "",
            "assetIndex": 14192645662918890297,
            "prePerformCfg": ""
        },
        {
            "id": 6411503,
            "priority": 1,
            "initDialog": 641150301,
            "npcId": [
                4115
            ],
            "performCfg": "",
            "assetIndex": 14415384712043473584,
            "prePerformCfg": ""
        },
        {
            "id": 7390501,
            "beginWay": "TALK_BEGIN_MANUAL",
            "beginCondComb": "LOGIC_OR",
            "beginCond": [
                {
                    "type": "QUEST_COND_QUEST_NOT_RECEIVE",
                    "param": [
                        "7390501",
                        "1"
                    ]
                }
            ],
            "priority": 1,
            "initDialog": 739050101,
            "npcId": [
                4115
            ],
            "performCfg": "",
            "assetIndex": 17346931150993733469,
            "dontBlockDaily": true,
            "prePerformCfg": ""
        }
    ]
}