{
    "npcId": 4151,
    "talks": [
        {
            "id": 6415101,
            "beginWay": "TALK_BEGIN_MANUAL",
            "priority": 3,
            "nextTalks": [
                6415102,
                6415103
            ],
            "initDialog": 641510101,
            "npcId": [
                4151
            ],
            "performCfg": "",
            "assetIndex": 902048876845763955,
            "prePerformCfg": "",
            "freeStyleList": [
                9000
            ]
        },
        {
            "id": 6415102,
            "priority": 1,
            "initDialog": 641510201,
            "npcId": [
                4151
            ],
            "performCfg": "",
            "assetIndex": 8002580156115727489,
            "prePerformCfg": ""
        },
        {
            "id": 6415103,
            "priority": 1,
            "initDialog": 641510301,
            "npcId": [
                4151
            ],
            "performCfg": "",
            "assetIndex": 16455452314951383147,
            "prePerformCfg": ""
        }
    ]
}