{
    "npcId": 4321,
    "talks": [
        {
            "id": 6432101,
            "beginWay": "TALK_BEGIN_MANUAL",
            "priority": 3,
            "nextTalks": [
                6432102,
                6432103,
                6432104
            ],
            "initDialog": 643210101,
            "npcId": [
                4321
            ],
            "performCfg": "",
            "assetIndex": 2348479993878379935,
            "prePerformCfg": ""
        },
        {
            "id": 6432102,
            "priority": 1,
            "initDialog": 643210201,
            "npcId": [
                4321
            ],
            "performCfg": "",
            "assetIndex": 3374496407187645947,
            "prePerformCfg": "",
            "freeStyleList": [
                1171,
                1172,
                1173
            ]
        },
        {
            "id": 6432103,
            "priority": 1,
            "initDialog": 643210301,
            "npcId": [
                4321
            ],
            "performCfg": "",
            "assetIndex": 14515719885898952270,
            "prePerformCfg": ""
        },
        {
            "id": 6432104,
            "priority": 1,
            "initDialog": 643210401,
            "npcId": [
                4321
            ],
            "performCfg": "",
            "assetIndex": 15353369378694738749,
            "prePerformCfg": ""
        },
        {
            "id": 6432105,
            "beginWay": "TALK_BEGIN_MANUAL",
            "beginCondComb": "LOGIC_OR",
            "beginCond": [
                {
                    "type": "QUEST_COND_STATE_EQUAL",
                    "param": [
                        "7300122",
                        "3"
                    ]
                },
                {
                    "type": "QUEST_COND_STATE_EQUAL",
                    "param": [
                        "7300123",
                        "3"
                    ]
                }
            ],
            "priority": 4,
            "nextTalks": [
                6432106,
                6432107,
                6432108,
                6432109,
                6432110
            ],
            "initDialog": 643210501,
            "npcId": [
                4321
            ],
            "performCfg": "",
            "assetIndex": 9839919721594371391,
            "prePerformCfg": ""
        },
        {
            "id": 6432106,
            "beginCondComb": "LOGIC_OR",
            "beginCond": [
                {
                    "type": "QUEST_COND_STATE_EQUAL",
                    "param": [
                        "7300122",
                        "3"
                    ]
                },
                {
                    "type": "QUEST_COND_STATE_EQUAL",
                    "param": [
                        "7300123",
                        "3"
                    ]
                }
            ],
            "priority": 1,
            "initDialog": 643210601,
            "npcId": [
                4321
            ],
            "performCfg": "",
            "assetIndex": 3331119390949212517,
            "prePerformCfg": "",
            "freeStyleList": [
                1171,
                1172,
                1173
            ]
        },
        {
            "id": 6432107,
            "beginCondComb": "LOGIC_OR",
            "beginCond": [
                {
                    "type": "QUEST_COND_STATE_EQUAL",
                    "param": [
                        "7300122",
                        "3"
                    ]
                },
                {
                    "type": "QUEST_COND_STATE_EQUAL",
                    "param": [
                        "7300123",
                        "3"
                    ]
                }
            ],
            "priority": 1,
            "initDialog": 643210701,
            "npcId": [
                4321
            ],
            "performCfg": "",
            "assetIndex": 12267437841617570993,
            "prePerformCfg": "",
            "freeStyleList": [
                1171,
                1172,
                1173
            ]
        },
        {
            "id": 6432108,
            "beginCondComb": "LOGIC_OR",
            "beginCond": [
                {
                    "type": "QUEST_COND_STATE_EQUAL",
                    "param": [
                        "7300122",
                        "3"
                    ]
                },
                {
                    "type": "QUEST_COND_STATE_EQUAL",
                    "param": [
                        "7300123",
                        "3"
                    ]
                }
            ],
            "priority": 1,
            "initDialog": 643210801,
            "npcId": [
                4321
            ],
            "performCfg": "",
            "assetIndex": 12568422805441806663,
            "prePerformCfg": "",
            "freeStyleList": [
                4040
            ]
        },
        {
            "id": 6432109,
            "beginCond": [
                {
                    "type": "QUEST_COND_STATE_EQUAL",
                    "param": [
                        "7302714",
                        "3"
                    ]
                }
            ],
            "priority": 1,
            "initDialog": 643210901,
            "npcId": [
                4321
            ],
            "performCfg": "",
            "assetIndex": 13069520119029417422,
            "prePerformCfg": "",
            "freeStyleList": [
                1171,
                1172,
                1173
            ]
        },
        {
            "id": 6432110,
            "beginCondComb": "LOGIC_OR",
            "beginCond": [
                {
                    "type": "QUEST_COND_STATE_EQUAL",
                    "param": [
                        "7300122",
                        "3"
                    ]
                },
                {
                    "type": "QUEST_COND_STATE_EQUAL",
                    "param": [
                        "7300123",
                        "3"
                    ]
                }
            ],
            "priority": 1,
            "initDialog": 643211001,
            "npcId": [
                4321
            ],
            "performCfg": "",
            "assetIndex": 12038405380541302391,
            "prePerformCfg": "",
            "freeStyleList": [
                5010
            ]
        },
        {
            "id": 6432111,
            "beginWay": "TALK_BEGIN_MANUAL",
            "beginCond": [
                {
                    "type": "QUEST_COND_STATE_EQUAL",
                    "param": [
                        "7303803",
                        "3"
                    ]
                }
            ],
            "priority": 5,
            "nextTalks": [
                6432112,
                6432113,
                6432114,
                6432115,
                6432116
            ],
            "initDialog": 643211101,
            "npcId": [
                4321
            ],
            "performCfg": "",
            "assetIndex": 5230845267512894560,
            "prePerformCfg": "",
            "freeStyleList": [
                1171,
                1172,
                1173
            ]
        },
        {
            "id": 6432112,
            "beginCond": [
                {
                    "type": "QUEST_COND_STATE_EQUAL",
                    "param": [
                        "7303803",
                        "3"
                    ]
                }
            ],
            "priority": 1,
            "initDialog": 643211201,
            "npcId": [
                4321
            ],
            "performCfg": "",
            "assetIndex": 10013833452492742027,
            "prePerformCfg": ""
        },
        {
            "id": 6432113,
            "beginCond": [
                {
                    "type": "QUEST_COND_STATE_EQUAL",
                    "param": [
                        "7303803",
                        "3"
                    ]
                }
            ],
            "priority": 1,
            "initDialog": 643211301,
            "npcId": [
                4321
            ],
            "performCfg": "",
            "assetIndex": 5118580229162294006,
            "prePerformCfg": "",
            "freeStyleList": [
                1171,
                1172,
                1173
            ]
        },
        {
            "id": 6432114,
            "beginCond": [
                {
                    "type": "QUEST_COND_STATE_EQUAL",
                    "param": [
                        "7302714",
                        "3"
                    ]
                }
            ],
            "priority": 1,
            "initDialog": 643211401,
            "npcId": [
                4321
            ],
            "performCfg": "",
            "assetIndex": 4079995679294045994,
            "prePerformCfg": "",
            "freeStyleList": [
                1171,
                1172,
                1173
            ]
        },
        {
            "id": 6432115,
            "beginCondComb": "LOGIC_OR",
            "beginCond": [
                {
                    "type": "QUEST_COND_STATE_EQUAL",
                    "param": [
                        "7308004",
                        "3"
                    ]
                },
                {
                    "type": "QUEST_COND_STATE_EQUAL",
                    "param": [
                        "7308005",
                        "3"
                    ]
                }
            ],
            "priority": 1,
            "nextTalks": [
                6432117
            ],
            "initDialog": 643211501,
            "npcId": [
                4321
            ],
            "performCfg": "",
            "assetIndex": 2069166930162861133,
            "prePerformCfg": ""
        },
        {
            "id": 6432116,
            "beginCond": [
                {
                    "type": "QUEST_COND_STATE_EQUAL",
                    "param": [
                        "7303803",
                        "3"
                    ]
                }
            ],
            "priority": 1,
            "initDialog": 643211601,
            "npcId": [
                4321
            ],
            "performCfg": "",
            "assetIndex": 11865709079836800323,
            "prePerformCfg": ""
        },
        {
            "id": 6432117,
            "beginCondComb": "LOGIC_OR",
            "beginCond": [
                {
                    "type": "QUEST_COND_STATE_EQUAL",
                    "param": [
                        "7308004",
                        "3"
                    ]
                },
                {
                    "type": "QUEST_COND_STATE_EQUAL",
                    "param": [
                        "7308005",
                        "3"
                    ]
                }
            ],
            "priority": 1,
            "initDialog": 643211701,
            "npcId": [
                4321
            ],
            "performCfg": "",
            "assetIndex": 12148534049461214531,
            "prePerformCfg": "",
            "freeStyleList": [
                1171,
                1172,
                1173
            ]
        }
    ]
}