{
    "npcId": 4342,
    "talks": [
        {
            "id": 6434201,
            "beginWay": "TALK_BEGIN_MANUAL",
            "priority": 3,
            "nextTalks": [
                6434202,
                6434203
            ],
            "initDialog": 643420101,
            "npcId": [
                4342
            ],
            "performCfg": "",
            "assetIndex": 10134569127629323106,
            "prePerformCfg": "",
            "freeStyleList": [
                1171,
                1172,
                1173
            ]
        },
        {
            "id": 6434202,
            "priority": 1,
            "initDialog": 643420201,
            "npcId": [
                4342
            ],
            "performCfg": "",
            "assetIndex": 5337970990934528770,
            "prePerformCfg": "",
            "freeStyleList": [
                1190,
                1171,
                1172,
                1173
            ]
        },
        {
            "id": 6434203,
            "priority": 1,
            "initDialog": 643420301,
            "npcId": [
                4342
            ],
            "performCfg": "",
            "assetIndex": 16311349904015584914,
            "prePerformCfg": ""
        }
    ]
}