{
    "npcId": 4359,
    "talks": [
        {
            "id": 6435901,
            "beginWay": "TALK_BEGIN_MANUAL",
            "priority": 3,
            "nextTalks": [
                6435902,
                6435904,
                6435903
            ],
            "initDialog": 643590101,
            "npcId": [
                4359
            ],
            "performCfg": "",
            "assetIndex": 9346584665201047413,
            "prePerformCfg": "",
            "freeStyleList": [
                1200
            ]
        },
        {
            "id": 6435902,
            "priority": 1,
            "initDialog": 643590201,
            "npcId": [
                4359
            ],
            "performCfg": "",
            "assetIndex": 3392580985897612877,
            "prePerformCfg": "",
            "freeStyleList": [
                1230
            ]
        },
        {
            "id": 6435903,
            "priority": 1,
            "initDialog": 643590301,
            "npcId": [
                4359
            ],
            "performCfg": "",
            "assetIndex": 5676411633223653983,
            "prePerformCfg": ""
        },
        {
            "id": 6435904,
            "priority": 1,
            "initDialog": 643590401,
            "npcId": [
                4359
            ],
            "performCfg": "",
            "assetIndex": 1235371734343664690,
            "prePerformCfg": "",
            "freeStyleList": [
                1050,
                1110
            ]
        }
    ]
}