{
    "npcId": 4430,
    "talks": [
        {
            "id": 6443001,
            "beginWay": "TALK_BEGIN_MANUAL",
            "priority": 3,
            "nextTalks": [
                6443002,
                6443003
            ],
            "initDialog": 644300101,
            "npcId": [
                4430
            ],
            "performCfg": "",
            "assetIndex": 7067034171177069496,
            "prePerformCfg": "",
            "freeStyleList": [
                1120
            ]
        },
        {
            "id": 6443002,
            "priority": 1,
            "initDialog": 644300201,
            "npcId": [
                4430
            ],
            "performCfg": "",
            "assetIndex": 3303049123396181281,
            "prePerformCfg": ""
        },
        {
            "id": 6443003,
            "priority": 1,
            "initDialog": 644300301,
            "npcId": [
                4430
            ],
            "performCfg": "",
            "assetIndex": 2076449778446310796,
            "prePerformCfg": ""
        }
    ]
}