{
    "npcId": 4463,
    "talks": [
        {
            "id": 6446301,
            "beginWay": "TALK_BEGIN_MANUAL",
            "priority": 3,
            "nextTalks": [
                6446302
            ],
            "initDialog": 644630101,
            "npcId": [
                4463
            ],
            "performCfg": "",
            "assetIndex": 6083973304358831571,
            "prePerformCfg": "",
            "freeStyleList": [
                9000
            ]
        },
        {
            "id": 6446302,
            "priority": 1,
            "nextTalks": [
                6446303,
                6446304
            ],
            "initDialog": 644630201,
            "npcId": [
                4463
            ],
            "performCfg": "",
            "assetIndex": 3313040370151521015,
            "prePerformCfg": ""
        },
        {
            "id": 6446303,
            "priority": 1,
            "nextTalks": [
                6446305
            ],
            "initDialog": 644630301,
            "npcId": [
                4463
            ],
            "performCfg": "",
            "assetIndex": 14676139267593632856,
            "prePerformCfg": ""
        },
        {
            "id": 6446304,
            "priority": 1,
            "initDialog": 644630401,
            "npcId": [
                4463
            ],
            "performCfg": "",
            "assetIndex": 11859680750665921988,
            "prePerformCfg": ""
        },
        {
            "id": 6446305,
            "priority": 1,
            "initDialog": 644630501,
            "npcId": [
                4463
            ],
            "performCfg": "",
            "assetIndex": 8785709742372994732,
            "prePerformCfg": ""
        }
    ]
}