{
    "npcId": 5112,
    "talks": [
        {
            "id": 6511201,
            "beginWay": "TALK_BEGIN_MANUAL",
            "priority": 3,
            "nextTalks": [
                6511202,
                6511203
            ],
            "initDialog": 651120101,
            "npcId": [
                5112
            ],
            "performCfg": "",
            "assetIndex": 9699378712706239136,
            "prePerformCfg": "",
            "stayFreeStyle": true
        },
        {
            "id": 6511202,
            "priority": 1,
            "nextTalks": [
                6511204
            ],
            "initDialog": 651120201,
            "npcId": [
                5112
            ],
            "performCfg": "",
            "assetIndex": 15713692885759137420,
            "prePerformCfg": "",
            "freeStyleList": [
                1130,
                1171,
                1172,
                1173,
                1110
            ]
        },
        {
            "id": 6511203,
            "priority": 1,
            "initDialog": 651120301,
            "npcId": [
                5112
            ],
            "performCfg": "",
            "assetIndex": 10824708626474478171,
            "prePerformCfg": "",
            "freeStyleList": [
                1171,
                1172,
                1173
            ]
        },
        {
            "id": 6511204,
            "priority": 1,
            "nextTalks": [
                7490201
            ],
            "initDialog": 651120401,
            "npcId": [
                5112
            ],
            "performCfg": "",
            "assetIndex": 16238007910235863001,
            "prePerformCfg": "",
            "freeStyleList": [
                4030,
                1171,
                1172,
                1173,
                4040,
                1190
            ]
        },
        {
            "id": 7490201,
            "beginWay": "TALK_BEGIN_MANUAL",
            "beginCond": [
                {
                    "type": "QUEST_COND_QUEST_NOT_RECEIVE",
                    "param": [
                        "7490201",
                        "1"
                    ]
                }
            ],
            "initDialog": 749020101,
            "npcId": [
                5112
            ],
            "performCfg": "",
            "assetIndex": 17243519545289431865,
            "dontBlockDaily": true,
            "prePerformCfg": ""
        }
    ]
}