{
    "npcId": 5147,
    "talks": [
        {
            "id": 6514701,
            "beginWay": "TALK_BEGIN_MANUAL",
            "priority": 3,
            "nextTalks": [
                6514702,
                6514703
            ],
            "initDialog": 651470101,
            "npcId": [
                5147
            ],
            "performCfg": "",
            "assetIndex": 17208529579513451980,
            "prePerformCfg": "",
            "stayFreeStyle": true
        },
        {
            "id": 6514702,
            "priority": 1,
            "initDialog": 651470201,
            "npcId": [
                5147
            ],
            "performCfg": "",
            "assetIndex": 870173696949755744,
            "prePerformCfg": "",
            "freeStyleList": [
                1171,
                1172,
                1173,
                1110,
                1190
            ]
        },
        {
            "id": 6514703,
            "priority": 1,
            "initDialog": 651470301,
            "npcId": [
                5147
            ],
            "performCfg": "",
            "assetIndex": 16913790459758154067,
            "prePerformCfg": "",
            "freeStyleList": [
                4040
            ]
        }
    ]
}