{
    "npcId": 5236,
    "talks": [
        {
            "id": 6523601,
            "beginWay": "TALK_BEGIN_MANUAL",
            "priority": 3,
            "nextTalks": [
                6523602,
                6523603,
                6523604
            ],
            "initDialog": 652360101,
            "npcId": [
                5236
            ],
            "performCfg": "",
            "assetIndex": 2593318892820740140,
            "prePerformCfg": "",
            "freeStyleList": [
                9000
            ]
        },
        {
            "id": 6523602,
            "priority": 1,
            "initDialog": 652360201,
            "npcId": [
                5236
            ],
            "performCfg": "",
            "assetIndex": 6849688359430399553,
            "prePerformCfg": ""
        },
        {
            "id": 6523603,
            "priority": 1,
            "initDialog": 652360301,
            "npcId": [
                5236
            ],
            "performCfg": "",
            "assetIndex": 4296731552206055317,
            "prePerformCfg": ""
        },
        {
            "id": 6523604,
            "priority": 1,
            "initDialog": 652360401,
            "npcId": [
                5236
            ],
            "performCfg": "",
            "assetIndex": 16014565720789585378,
            "prePerformCfg": ""
        }
    ]
}