{
    "npcId": 5250,
    "talks": [
        {
            "id": 6525001,
            "beginWay": "TALK_BEGIN_MANUAL",
            "priority": 3,
            "nextTalks": [
                6525002,
                6525003,
                6525004
            ],
            "initDialog": 652500101,
            "npcId": [
                5250
            ],
            "performCfg": "",
            "assetIndex": 12704581828839234771,
            "prePerformCfg": "",
            "freeStyleList": [
                9000
            ]
        },
        {
            "id": 6525002,
            "priority": 1,
            "initDialog": 652500201,
            "npcId": [
                5250
            ],
            "performCfg": "",
            "assetIndex": 18297537324123787405,
            "prePerformCfg": ""
        },
        {
            "id": 6525003,
            "priority": 1,
            "initDialog": 652500301,
            "npcId": [
                5250
            ],
            "performCfg": "",
            "assetIndex": 5142591327672651192,
            "prePerformCfg": ""
        },
        {
            "id": 6525004,
            "priority": 1,
            "initDialog": 652500401,
            "npcId": [
                5250
            ],
            "performCfg": "",
            "assetIndex": 10939417091164464663,
            "prePerformCfg": ""
        }
    ]
}