{
    "npcId": 5276,
    "talks": [
        {
            "id": 6527601,
            "beginWay": "TALK_BEGIN_MANUAL",
            "priority": 3,
            "nextTalks": [
                6527602,
                6527609,
                6527603
            ],
            "initDialog": 652760101,
            "npcId": [
                5276
            ],
            "performCfg": "",
            "assetIndex": 8518221486745317589,
            "prePerformCfg": "",
            "stayFreeStyle": true
        },
        {
            "id": 6527602,
            "beginCond": [
                {
                    "type": "QUEST_COND_QUEST_GLOBAL_VAR_EQUAL",
                    "param": [
                        "402501",
                        "0"
                    ]
                }
            ],
            "priority": 1,
            "nextTalks": [
                6527604,
                6527605
            ],
            "initDialog": 652760201,
            "npcId": [
                5276
            ],
            "performCfg": "",
            "assetIndex": 13669485654803148083,
            "prePerformCfg": "",
            "freeStyleList": [
                1171,
                1172,
                1173,
                1120
            ]
        },
        {
            "id": 6527603,
            "priority": 1,
            "initDialog": 652760301,
            "npcId": [
                5276
            ],
            "performCfg": "",
            "assetIndex": 9592166396148148254,
            "prePerformCfg": "",
            "stayFreeStyle": true
        },
        {
            "id": 6527604,
            "priority": 1,
            "nextTalks": [
                6527606
            ],
            "initDialog": 652760401,
            "npcId": [
                5276
            ],
            "performCfg": "",
            "assetIndex": 16683341079289647394,
            "prePerformCfg": "",
            "freeStyleList": [
                1130,
                1060
            ]
        },
        {
            "id": 6527605,
            "priority": 1,
            "nextTalks": [
                6527607
            ],
            "initDialog": 652760501,
            "npcId": [
                5276
            ],
            "performCfg": "",
            "assetIndex": 13314411201330203464,
            "prePerformCfg": "",
            "freeStyleList": [
                4040,
                1171,
                1172,
                1173
            ]
        },
        {
            "id": 6527606,
            "priority": 1,
            "nextTalks": [
                6527608
            ],
            "initDialog": 652760601,
            "npcId": [
                5276
            ],
            "performCfg": "",
            "assetIndex": 1336370456086273057,
            "prePerformCfg": "",
            "freeStyleList": [
                1230,
                4030,
                1060,
                1240
            ]
        },
        {
            "id": 6527607,
            "priority": 1,
            "initDialog": 652760701,
            "npcId": [
                5276
            ],
            "performCfg": "",
            "assetIndex": 8159080661978418032,
            "prePerformCfg": "",
            "freeStyleList": [
                4030,
                1110,
                1171,
                1172,
                1173,
                1120
            ]
        },
        {
            "id": 6527608,
            "priority": 1,
            "initDialog": 652760801,
            "npcId": [
                5276
            ],
            "performCfg": "",
            "assetIndex": 1487031295749079129,
            "prePerformCfg": "",
            "freeStyleList": [
                1171,
                1172,
                1173,
                1120,
                4040
            ]
        },
        {
            "id": 6527609,
            "beginCond": [
                {
                    "type": "QUEST_COND_QUEST_GLOBAL_VAR_EQUAL",
                    "param": [
                        "402501",
                        "1"
                    ]
                }
            ],
            "priority": 1,
            "nextTalks": [
                6527604,
                6527605
            ],
            "initDialog": 652760901,
            "npcId": [
                5276
            ],
            "performCfg": "",
            "assetIndex": 9424796933789032998,
            "prePerformCfg": "",
            "freeStyleList": [
                1171,
                1172,
                1173,
                1120,
                1060
            ]
        }
    ]
}