{
    "npcId": 5324,
    "talks": [
        {
            "id": 6532401,
            "beginWay": "TALK_BEGIN_MANUAL",
            "priority": 3,
            "nextTalks": [
                6532402,
                6532403
            ],
            "initDialog": 653240101,
            "npcId": [
                5324
            ],
            "performCfg": "",
            "assetIndex": 16432730391334595187,
            "prePerformCfg": "",
            "stayFreeStyle": true
        },
        {
            "id": 6532402,
            "priority": 1,
            "nextTalks": [
                6532404,
                6532405,
                6532403
            ],
            "initDialog": 653240201,
            "npcId": [
                5324
            ],
            "performCfg": "",
            "assetIndex": 10738235003013695594,
            "prePerformCfg": ""
        },
        {
            "id": 6532403,
            "priority": 1,
            "initDialog": 653240301,
            "npcId": [
                5324
            ],
            "performCfg": "",
            "assetIndex": 9783040418642367687,
            "prePerformCfg": ""
        },
        {
            "id": 6532404,
            "priority": 1,
            "nextTalks": [
                6532406,
                6532407,
                6532403
            ],
            "initDialog": 653240401,
            "npcId": [
                5324
            ],
            "performCfg": "",
            "assetIndex": 16019954877775767700,
            "prePerformCfg": ""
        },
        {
            "id": 6532405,
            "priority": 1,
            "nextTalks": [
                6532408,
                6532403
            ],
            "initDialog": 653240501,
            "npcId": [
                5324
            ],
            "performCfg": "",
            "assetIndex": 9259300094818052275,
            "prePerformCfg": ""
        },
        {
            "id": 6532406,
            "priority": 1,
            "nextTalks": [
                6532409,
                6532403
            ],
            "initDialog": 653240601,
            "npcId": [
                5324
            ],
            "performCfg": "",
            "assetIndex": 2915393084636746399,
            "prePerformCfg": ""
        },
        {
            "id": 6532407,
            "priority": 1,
            "nextTalks": [
                6532410,
                6532403
            ],
            "initDialog": 653240701,
            "npcId": [
                5324
            ],
            "performCfg": "",
            "assetIndex": 5083802371728909534,
            "prePerformCfg": ""
        },
        {
            "id": 6532408,
            "priority": 1,
            "nextTalks": [
                6532411,
                6532403
            ],
            "initDialog": 653240801,
            "npcId": [
                5324
            ],
            "performCfg": "",
            "assetIndex": 11931768329057756015,
            "prePerformCfg": ""
        },
        {
            "id": 6532409,
            "priority": 1,
            "nextTalks": [
                6532412,
                6532403
            ],
            "initDialog": 653240901,
            "npcId": [
                5324
            ],
            "performCfg": "",
            "assetIndex": 846171448005298576,
            "prePerformCfg": ""
        },
        {
            "id": 6532410,
            "priority": 1,
            "nextTalks": [
                6532413,
                6532403
            ],
            "initDialog": 653241001,
            "npcId": [
                5324
            ],
            "performCfg": "",
            "assetIndex": 5490374280659544355,
            "prePerformCfg": ""
        },
        {
            "id": 6532411,
            "priority": 1,
            "nextTalks": [
                6532414,
                6532403
            ],
            "initDialog": 653241101,
            "npcId": [
                5324
            ],
            "performCfg": "",
            "assetIndex": 12852961171077527604,
            "prePerformCfg": ""
        },
        {
            "id": 6532412,
            "priority": 1,
            "nextTalks": [
                6532415,
                6532403
            ],
            "initDialog": 653241201,
            "npcId": [
                5324
            ],
            "performCfg": "",
            "assetIndex": 13126687769650653150,
            "prePerformCfg": ""
        },
        {
            "id": 6532413,
            "priority": 1,
            "nextTalks": [
                6532416,
                6532403
            ],
            "initDialog": 653241301,
            "npcId": [
                5324
            ],
            "performCfg": "",
            "assetIndex": 1449133364678464446,
            "prePerformCfg": ""
        },
        {
            "id": 6532414,
            "priority": 1,
            "nextTalks": [
                6532417,
                6532403
            ],
            "initDialog": 653241401,
            "npcId": [
                5324
            ],
            "performCfg": "",
            "assetIndex": 15639085726597894293,
            "prePerformCfg": ""
        },
        {
            "id": 6532415,
            "priority": 1,
            "initDialog": 653241501,
            "npcId": [
                5324
            ],
            "performCfg": "",
            "assetIndex": 16360377833712623674,
            "prePerformCfg": ""
        },
        {
            "id": 6532416,
            "priority": 1,
            "initDialog": 653241601,
            "npcId": [
                5324
            ],
            "performCfg": "",
            "assetIndex": 13286476227381258602,
            "prePerformCfg": ""
        },
        {
            "id": 6532417,
            "priority": 1,
            "initDialog": 653241701,
            "npcId": [
                5324
            ],
            "performCfg": "",
            "assetIndex": 7126644009640897745,
            "prePerformCfg": ""
        }
    ]
}