{
    "luaDataPath": "",
    "dontUseDefaultFinish": true,
    "entityBan": "",
    "disableNpcLod": true,
    "protectNpcMobileLod": true,
    "startFade": {
        "startFadeOutDuration": 0.0
    },
    "endFade": {
        "startFadeOutDuration": 0.0
    },
    "actors": [
        {
            "alias": "Avatar",
            "visible": true,
            "bornPointName": "",
            "relativePosType": "AVATAR_NEW",
            "relativePosNpcAlias": "",
            "bindMovingTargetKey": ""
        },
        {
            "configID": 9526,
            "alias": "9526",
            "visible": true,
            "bornPointName": "",
            "relativePosType": "AVATAR_NEW",
            "relativePosNpcAlias": "",
            "bindMovingTargetKey": ""
        }
    ],
    "group": [
        [
            {
                "$type": "MoleMole.Config.ConfigTimeProtectAction",
                "type": "TIME_PROTECT",
                "duration": 0.10000000149011612,
                "actionId": 104
            },
            {
                "$type": "MoleMole.Config.ConfigUITriggerInterAction",
                "type": "UI_TRIGGER",
                "actionId": 108,
                "contextName": "GcgCardGroupName",
                "param": "1"
            },
            {
                "$type": "IBPNIIGAIPF",
                "type": "LOOK_AT",
                "aliasList": [
                    "9526"
                ],
                "actionId": 120,
                "GGIENKFBOGL": true,
                "NDOMJCOFKDJ": 0.5,
                "KIPMIDIKECP": "Avatar",
                "FGPHOPBEJDE": true,
                "HJJAFGPMJNJ": "",
                "AOFBAGFCGPJ": ""
            }
        ],
        [
            {
                "$type": "CCEEIGNAILH",
                "type": "DIALOG",
                "aliasList": [
                    "9526"
                ],
                "actionId": 107,
                "KICBIOMGHIN": 695260601,
                "PNCCODDABKI": 0.5
            },
            {
                "$type": "KCBOGFFHPBD",
                "type": "BODY_LANG",
                "aliasList": [
                    "9526"
                ],
                "actionId": 110,
                "GPIEDGOMCGL": 4031,
                "FHLAMNNHMFA": true,
                "KCEHDJLKIAL": false,
                "KCOLHJBDILK": true,
                "AOFEDPBOOIE": ""
            },
            {
                "$type": "DNAEECJNBFB",
                "type": "EMO_SYNC",
                "aliasList": [
                    "9526"
                ],
                "actionId": 119,
                "EOGJDJKPPGE": "Cs_Emo_Avatar_Simple_Common_Set/Cs_Emo_Avatar_Talk/Cs_Emo_GCG/Cs_Emo_Avatar_Klee/Cs_Emo_695260601",
                "IHCBGPABDLE": "",
                "CIKPDMODFPL": "",
                "HDIAHFFHNGE": "",
                "BOAAGJEEFDD": "",
                "PFDPJKHPADE": "",
                "DALINBJAHOC": [
                    2408716022553613794,
                    10323656873181836035,
                    9611787611850953444,
                    17798263940286824130
                ]
            },
            {
                "$type": "IBPNIIGAIPF",
                "type": "LOOK_AT",
                "delayTime": 1.2170000076293945,
                "aliasList": [
                    "9526"
                ],
                "actionId": 111,
                "GGIENKFBOGL": true,
                "MHMKIICCEDG": {
                    "y": 15.930000305175781
                },
                "NDOMJCOFKDJ": 0.5,
                "KIPMIDIKECP": "",
                "AHLPNEGAKGG": "NONE",
                "FGPHOPBEJDE": true,
                "HJJAFGPMJNJ": "",
                "AOFBAGFCGPJ": ""
            },
            {
                "$type": "OMPHNKNPPJO",
                "type": "LOOK_AT_EYECTRL",
                "delayTime": 1.2170000076293945,
                "aliasList": [
                    "9526"
                ],
                "actionId": 113,
                "useTargetPos": false,
                "OMHMNNDGHFL": {
                    "z": 2.0
                },
                "AMNIBCAICEP": {
                    "z": 2.0
                },
                "MHBPPJNDKJC": 0.20000000298023224,
                "KIPMIDIKECP": "",
                "JJEGGHOEIPD": "Face"
            },
            {
                "$type": "OMPHNKNPPJO",
                "type": "LOOK_AT_EYECTRL",
                "delayTime": 1.9500000476837158,
                "aliasList": [
                    "9526"
                ],
                "actionId": 114,
                "useTargetPos": false,
                "OMHMNNDGHFL": {
                    "x": -1.0,
                    "z": 2.0
                },
                "AMNIBCAICEP": {
                    "x": -1.0,
                    "z": 2.0
                },
                "MHBPPJNDKJC": 0.20000000298023224,
                "KIPMIDIKECP": "",
                "JJEGGHOEIPD": "Face"
            },
            {
                "$type": "IBPNIIGAIPF",
                "type": "LOOK_AT",
                "delayTime": 1.9830000400543213,
                "aliasList": [
                    "9526"
                ],
                "actionId": 112,
                "GGIENKFBOGL": true,
                "MHMKIICCEDG": {
                    "x": 351.781005859375,
                    "y": 15.774999618530273
                },
                "NDOMJCOFKDJ": 0.5,
                "KIPMIDIKECP": "",
                "AHLPNEGAKGG": "NONE",
                "FGPHOPBEJDE": true,
                "HJJAFGPMJNJ": "",
                "AOFBAGFCGPJ": ""
            },
            {
                "$type": "IBPNIIGAIPF",
                "type": "LOOK_AT",
                "delayTime": 2.950000047683716,
                "aliasList": [
                    "9526"
                ],
                "actionId": 115,
                "GGIENKFBOGL": true,
                "NDOMJCOFKDJ": 0.30000001192092896,
                "KIPMIDIKECP": "Avatar",
                "FGPHOPBEJDE": true,
                "HJJAFGPMJNJ": "",
                "AOFBAGFCGPJ": ""
            },
            {
                "$type": "OMPHNKNPPJO",
                "type": "LOOK_AT_EYECTRL",
                "delayTime": 2.950000047683716,
                "aliasList": [
                    "9526"
                ],
                "actionId": 116,
                "useTargetPos": false,
                "MHBPPJNDKJC": 0.20000000298023224,
                "KIPMIDIKECP": "",
                "JJEGGHOEIPD": "Face"
            }
        ],
        [
            {
                "$type": "MoleMole.Config.ConfigTimeProtectAction",
                "type": "TIME_PROTECT",
                "duration": 0.10000000149011612,
                "actionId": 105
            },
            {
                "$type": "IBPNIIGAIPF",
                "type": "LOOK_AT",
                "aliasList": [
                    "9526"
                ],
                "actionId": 117,
                "NDOMJCOFKDJ": 0.5,
                "KIPMIDIKECP": "",
                "FGPHOPBEJDE": true,
                "HJJAFGPMJNJ": "",
                "AOFBAGFCGPJ": ""
            },
            {
                "$type": "OMPHNKNPPJO",
                "type": "LOOK_AT_EYECTRL",
                "aliasList": [
                    "9526"
                ],
                "actionId": 118,
                "useTargetPos": false,
                "MHBPPJNDKJC": 0.20000000298023224,
                "KIPMIDIKECP": "",
                "JJEGGHOEIPD": "Face"
            }
        ]
    ],
    "groupId": [
        {
            "grpId": 1207377275,
            "nextGrpId": 1207377276
        },
        {
            "index": 1,
            "grpId": 1207377276,
            "nextGrpId": 1207377277
        },
        {
            "index": 2,
            "grpId": 1207377277,
            "nextGrpId": 1207377278
        }
    ],
    "freeStyleDic": {
        "9526": [
            4031
        ]
    }
}