{
    "luaDataPath": "",
    "startBlackKeepTime": 0.20000000298023224,
    "entityBan": "",
    "startFade": {
        "startFadeInDuration": 0.4000000059604645,
        "startFadeOutDuration": 0.4000000059604645
    },
    "endFade": {
        "startFadeOutDuration": 0.0
    },
    "actors": [
        {
            "alias": "Avatar",
            "visible": true,
            "bornPointName": "Q1011102Player",
            "relativePosNpcAlias": "",
            "bindMovingTargetKey": ""
        },
        {
            "configID": 141101,
            "alias": "141101",
            "visible": true,
            "bornPointName": "Q1011102Stanly",
            "relativePosNpcAlias": "",
            "bindMovingTargetKey": ""
        },
        {
            "configID": 141301,
            "alias": "141301",
            "visible": true,
            "bornPointName": "Q1011102Jack",
            "relativePosNpcAlias": "",
            "bindMovingTargetKey": ""
        },
        {
            "configID": 1001,
            "alias": "1001",
            "visible": true,
            "bornPointName": "Q1011102Wendy",
            "relativePosNpcAlias": "",
            "bindMovingTargetKey": ""
        },
        {
            "configID": 1005,
            "alias": "1005",
            "visible": true,
            "bornPointName": "Q1011102Paimon",
            "relativePosNpcAlias": "",
            "bindMovingTargetKey": ""
        }
    ],
    "group": [
        [
            {
                "$type": "MoleMole.Config.ConfigTimeProtectAction",
                "type": "TIME_PROTECT",
                "duration": 1.0
            },
            {
                "$type": "BCJBNCJOPCE",
                "type": "CAMERA_MOVE",
                "duration": 1.0,
                "AKFGKKEOEFA": {
                    "x": 402.5633850097656,
                    "y": -21.32984161376953,
                    "z": 138.24267578125
                },
                "NGEBMAEFFGJ": {
                    "x": 402.26171875,
                    "y": -21.57046127319336,
                    "z": 139.16522216796875
                },
                "LIGHLBKBDEI": 20.0,
                "GFIOJGJJGCN": 6,
                "ABAEPHOGOFF": "EaseInOutCubic",
                "KFDBMBFFANN": {},
                "KIPMIDIKECP": "",
                "BDLGHOJPJHD": "",
                "LCOJGFEOLCK": "",
                "BBBGAEDCJEL": ""
            },
            {
                "$type": "BCJBNCJOPCE",
                "type": "CAMERA_MOVE",
                "delayTime": 0.10000000149011612,
                "duration": 4.0,
                "AKFGKKEOEFA": {
                    "x": 402.4385681152344,
                    "y": -21.619203567504883,
                    "z": 138.57498168945312
                },
                "NGEBMAEFFGJ": {
                    "x": 402.12982177734375,
                    "y": -21.795286178588867,
                    "z": 139.5096893310547
                },
                "LIGHLBKBDEI": 20.0,
                "KFDBMBFFANN": {},
                "KIPMIDIKECP": "",
                "BDLGHOJPJHD": "",
                "LCOJGFEOLCK": "",
                "BBBGAEDCJEL": ""
            },
            {
                "$type": "MoleMole.Config.ConfigCameraDOFAction",
                "type": "CAMERA_DOF",
                "enabled": true,
                "focusDistance": 10.0,
                "focusRange": 10.0,
                "quality": 3
            },
            {
                "$type": "IBPNIIGAIPF",
                "type": "LOOK_AT",
                "aliasList": [
                    "Avatar"
                ],
                "GGIENKFBOGL": true,
                "GCOONJBHNIM": true,
                "JHNJNNOPJKG": {
                    "x": 401.9902038574219,
                    "y": -22.93773651123047,
                    "z": 139.4927978515625
                },
                "NDOMJCOFKDJ": 0.4000000059604645,
                "KIPMIDIKECP": "141101",
                "HJJAFGPMJNJ": "",
                "AOFBAGFCGPJ": ""
            },
            {
                "$type": "CCEEIGNAILH",
                "type": "DIALOG",
                "delayTime": 1.0,
                "aliasList": [
                    "141101"
                ],
                "KICBIOMGHIN": 101110401,
                "PNCCODDABKI": 0.10000000149011612
            },
            {
                "$type": "KCBOGFFHPBD",
                "type": "BODY_LANG",
                "aliasList": [
                    "141101"
                ],
                "GPIEDGOMCGL": 1160,
                "AOFEDPBOOIE": ""
            },
            {
                "$type": "IBPNIIGAIPF",
                "type": "LOOK_AT",
                "aliasList": [
                    "141101"
                ],
                "GCOONJBHNIM": true,
                "JHNJNNOPJKG": {
                    "x": 401.9902038574219,
                    "y": -22.93773651123047,
                    "z": 139.4927978515625
                },
                "MHMKIICCEDG": {
                    "y": 30.0
                },
                "NDOMJCOFKDJ": 0.4000000059604645,
                "KIPMIDIKECP": "",
                "HJJAFGPMJNJ": "",
                "AOFBAGFCGPJ": ""
            },
            {
                "$type": "DNAEECJNBFB",
                "type": "EMO_SYNC",
                "delayTime": 1.0,
                "aliasList": [
                    "141101"
                ],
                "EOGJDJKPPGE": "Cs_Emo_Avatar_Simple_Common_Set/Cs_Emo_Avatar_Talk/Cs_Emo_Avatar_PersonalLine/Cs_Emo_Avatar_Wendy/Cs_Emo_101110401",
                "IHCBGPABDLE": "",
                "CIKPDMODFPL": "",
                "HDIAHFFHNGE": "",
                "BOAAGJEEFDD": "",
                "PFDPJKHPADE": "",
                "MIDKJONOACI": false,
                "DALINBJAHOC": [
                    14818806081274177091,
                    2425190586118172205,
                    5643540709857091737,
                    9481480778955408997
                ]
            },
            {
                "$type": "KCBOGFFHPBD",
                "type": "BODY_LANG",
                "aliasList": [
                    "141301"
                ],
                "GPIEDGOMCGL": 1130,
                "AOFEDPBOOIE": ""
            },
            {
                "$type": "IBPNIIGAIPF",
                "type": "LOOK_AT",
                "aliasList": [
                    "141301"
                ],
                "GGIENKFBOGL": true,
                "GCOONJBHNIM": true,
                "JHNJNNOPJKG": {
                    "x": 401.9902038574219,
                    "y": -22.93773651123047,
                    "z": 139.4927978515625
                },
                "MHMKIICCEDG": {
                    "y": 35.0
                },
                "NDOMJCOFKDJ": 0.4000000059604645,
                "KIPMIDIKECP": "",
                "HJJAFGPMJNJ": "",
                "AOFBAGFCGPJ": ""
            },
            {
                "$type": "DNAEECJNBFB",
                "type": "EMO_SYNC",
                "aliasList": [
                    "141301"
                ],
                "EOGJDJKPPGE": "",
                "IHCBGPABDLE": "Cs_Emo_NPC_Common/Cs_Emo_NPC_Normal01",
                "CIKPDMODFPL": "Cs_Emo_NPC_Common/Cs_Emo_NPC_WinkB03",
                "HDIAHFFHNGE": "",
                "BOAAGJEEFDD": "",
                "PFDPJKHPADE": "",
                "MIDKJONOACI": false,
                "MJAONEKDECJ": [
                    12803840960998583578,
                    3437050431160283015,
                    6548526936325855136,
                    1274732080047098512
                ],
                "DAALMFGCAOO": [
                    8175286409976286999,
                    5901287900718577316,
                    12406955515482248787,
                    12922152709637462239
                ]
            },
            {
                "$type": "IBPNIIGAIPF",
                "type": "LOOK_AT",
                "aliasList": [
                    "1001"
                ],
                "GGIENKFBOGL": true,
                "GCOONJBHNIM": true,
                "JHNJNNOPJKG": {
                    "x": 401.9902038574219,
                    "y": -22.93773651123047,
                    "z": 139.4927978515625
                },
                "NDOMJCOFKDJ": 0.4000000059604645,
                "KIPMIDIKECP": "141301",
                "HJJAFGPMJNJ": "",
                "AOFBAGFCGPJ": ""
            },
            {
                "$type": "IBPNIIGAIPF",
                "type": "LOOK_AT",
                "aliasList": [
                    "1005"
                ],
                "GGIENKFBOGL": true,
                "GCOONJBHNIM": true,
                "JHNJNNOPJKG": {
                    "x": 401.9902038574219,
                    "y": -22.93773651123047,
                    "z": 139.4927978515625
                },
                "NDOMJCOFKDJ": 0.4000000059604645,
                "KIPMIDIKECP": "141101",
                "HJJAFGPMJNJ": "",
                "AOFBAGFCGPJ": ""
            }
        ],
        [
            {
                "$type": "BCJBNCJOPCE",
                "type": "CAMERA_MOVE",
                "duration": 1.0,
                "AKFGKKEOEFA": {
                    "x": 403.92462158203125,
                    "y": -21.722980499267578,
                    "z": 136.27886962890625
                },
                "NGEBMAEFFGJ": {
                    "x": 403.4158630371094,
                    "y": -21.878353118896484,
                    "z": 137.12564086914062
                },
                "LIGHLBKBDEI": 20.0,
                "GFIOJGJJGCN": 6,
                "ABAEPHOGOFF": "EaseInOutCubic",
                "KFDBMBFFANN": {},
                "KIPMIDIKECP": "",
                "BDLGHOJPJHD": "",
                "LCOJGFEOLCK": "",
                "BBBGAEDCJEL": ""
            },
            {
                "$type": "BCJBNCJOPCE",
                "type": "CAMERA_MOVE",
                "delayTime": 0.10000000149011612,
                "duration": 5.0,
                "AKFGKKEOEFA": {
                    "x": 403.88568115234375,
                    "y": -21.72317886352539,
                    "z": 136.25543212890625
                },
                "NGEBMAEFFGJ": {
                    "x": 403.3769226074219,
                    "y": -21.878551483154297,
                    "z": 137.10220336914062
                },
                "LIGHLBKBDEI": 20.0,
                "ABAEPHOGOFF": "EaseInOutQuad",
                "KFDBMBFFANN": {},
                "KIPMIDIKECP": "",
                "BDLGHOJPJHD": "",
                "LCOJGFEOLCK": "",
                "BBBGAEDCJEL": ""
            },
            {
                "$type": "CCEEIGNAILH",
                "type": "DIALOG",
                "aliasList": [
                    "141301"
                ],
                "KICBIOMGHIN": 101110402,
                "PNCCODDABKI": 0.5
            },
            {
                "$type": "KCBOGFFHPBD",
                "type": "BODY_LANG",
                "delayTime": 0.4000000059604645,
                "aliasList": [
                    "141301"
                ],
                "AHGOBCDHCMC": true,
                "AOFEDPBOOIE": ""
            },
            {
                "$type": "IBPNIIGAIPF",
                "type": "LOOK_AT",
                "delayTime": 0.4000000059604645,
                "aliasList": [
                    "141301"
                ],
                "GGIENKFBOGL": true,
                "GCOONJBHNIM": true,
                "JHNJNNOPJKG": {
                    "x": 401.9902038574219,
                    "y": -22.93773651123047,
                    "z": 139.4927978515625
                },
                "NDOMJCOFKDJ": 0.4000000059604645,
                "KIPMIDIKECP": "Avatar",
                "HJJAFGPMJNJ": "",
                "AOFBAGFCGPJ": ""
            },
            {
                "$type": "DNAEECJNBFB",
                "type": "EMO_SYNC",
                "aliasList": [
                    "141301"
                ],
                "EOGJDJKPPGE": "Cs_Emo_Avatar_Simple_Common_Set/Cs_Emo_Avatar_Talk/Cs_Emo_Avatar_PersonalLine/Cs_Emo_Avatar_Wendy/Cs_Emo_101110402",
                "IHCBGPABDLE": "",
                "CIKPDMODFPL": "",
                "HDIAHFFHNGE": "",
                "BOAAGJEEFDD": "",
                "PFDPJKHPADE": "",
                "DALINBJAHOC": [
                    4851097973560966236,
                    2040205659739526677,
                    5431906089626337779,
                    7482499671470156222
                ]
            }
        ],
        [
            {
                "$type": "BCJBNCJOPCE",
                "type": "CAMERA_MOVE",
                "duration": 1.0,
                "AKFGKKEOEFA": {
                    "x": 402.6756286621094,
                    "y": -20.69150733947754,
                    "z": 145.21420288085938
                },
                "NGEBMAEFFGJ": {
                    "x": 402.4555358886719,
                    "y": -21.035348892211914,
                    "z": 144.30133056640625
                },
                "LIGHLBKBDEI": 20.0,
                "GFIOJGJJGCN": 6,
                "ABAEPHOGOFF": "EaseInOutCubic",
                "KFDBMBFFANN": {},
                "KIPMIDIKECP": "",
                "BDLGHOJPJHD": "",
                "LCOJGFEOLCK": "",
                "BBBGAEDCJEL": ""
            },
            {
                "$type": "BCJBNCJOPCE",
                "type": "CAMERA_MOVE",
                "delayTime": 0.10000000149011612,
                "duration": 5.0,
                "AKFGKKEOEFA": {
                    "x": 402.6305236816406,
                    "y": -20.745149612426758,
                    "z": 145.24526977539062
                },
                "NGEBMAEFFGJ": {
                    "x": 402.4104309082031,
                    "y": -21.088991165161133,
                    "z": 144.3323974609375
                },
                "LIGHLBKBDEI": 20.0,
                "ABAEPHOGOFF": "EaseInOutQuad",
                "KFDBMBFFANN": {},
                "KIPMIDIKECP": "",
                "BDLGHOJPJHD": "",
                "LCOJGFEOLCK": "",
                "BBBGAEDCJEL": ""
            },
            {
                "$type": "IBPNIIGAIPF",
                "type": "LOOK_AT",
                "delayTime": 0.4000000059604645,
                "aliasList": [
                    "141101"
                ],
                "GGIENKFBOGL": true,
                "GCOONJBHNIM": true,
                "JHNJNNOPJKG": {
                    "x": 401.9902038574219,
                    "y": -22.93773651123047,
                    "z": 139.4927978515625
                },
                "NDOMJCOFKDJ": 1.0,
                "KIPMIDIKECP": "1001",
                "HJJAFGPMJNJ": "",
                "AOFBAGFCGPJ": ""
            },
            {
                "$type": "KCBOGFFHPBD",
                "type": "BODY_LANG",
                "delayTime": 0.4000000059604645,
                "aliasList": [
                    "141101"
                ],
                "AHGOBCDHCMC": true,
                "AOFEDPBOOIE": ""
            },
            {
                "$type": "DNAEECJNBFB",
                "type": "EMO_SYNC",
                "delayTime": 0.4000000059604645,
                "aliasList": [
                    "141101"
                ],
                "EOGJDJKPPGE": "",
                "IHCBGPABDLE": "Cs_Emo_NPC_Common/Cs_Emo_NPC_Normal01",
                "CIKPDMODFPL": "Cs_Emo_NPC_Common/Cs_Emo_NPC_Normal01",
                "HDIAHFFHNGE": "",
                "BOAAGJEEFDD": "",
                "PFDPJKHPADE": "",
                "MJAONEKDECJ": [
                    12803840960998583578,
                    3437050431160283015,
                    6548526936325855136,
                    1274732080047098512
                ],
                "DAALMFGCAOO": [
                    10638823098752766568,
                    16550434959365186937,
                    16779490980036678760,
                    2038118027140397243
                ]
            },
            {
                "$type": "IBPNIIGAIPF",
                "type": "LOOK_AT",
                "delayTime": 0.20000000298023224,
                "aliasList": [
                    "141301"
                ],
                "GGIENKFBOGL": true,
                "GCOONJBHNIM": true,
                "JHNJNNOPJKG": {
                    "x": 401.9902038574219,
                    "y": -22.93773651123047,
                    "z": 139.4927978515625
                },
                "NDOMJCOFKDJ": 0.4000000059604645,
                "KIPMIDIKECP": "1001",
                "HJJAFGPMJNJ": "",
                "AOFBAGFCGPJ": ""
            },
            {
                "$type": "CCEEIGNAILH",
                "type": "DIALOG",
                "aliasList": [
                    "1001"
                ],
                "KICBIOMGHIN": 101110403,
                "PNCCODDABKI": 0.5
            },
            {
                "$type": "KCBOGFFHPBD",
                "type": "BODY_LANG",
                "aliasList": [
                    "1001"
                ],
                "GPIEDGOMCGL": 1110,
                "AOFEDPBOOIE": ""
            },
            {
                "$type": "KCBOGFFHPBD",
                "type": "BODY_LANG",
                "delayTime": 0.4000000059604645,
                "aliasList": [
                    "1001"
                ],
                "AHGOBCDHCMC": true,
                "AOFEDPBOOIE": ""
            },
            {
                "$type": "DNAEECJNBFB",
                "type": "EMO_SYNC",
                "aliasList": [
                    "1001"
                ],
                "EOGJDJKPPGE": "Cs_Emo_Avatar_Simple_Common_Set/Cs_Emo_Avatar_Talk/Cs_Emo_Avatar_PersonalLine/Cs_Emo_Avatar_Wendy/Cs_Emo_101110403",
                "IHCBGPABDLE": "",
                "CIKPDMODFPL": "",
                "HDIAHFFHNGE": "",
                "BOAAGJEEFDD": "",
                "PFDPJKHPADE": "",
                "DALINBJAHOC": [
                    17703716452016377771,
                    14002165927997397385,
                    18420703411588329195,
                    5195523636485090253
                ]
            }
        ],
        [
            {
                "$type": "BCJBNCJOPCE",
                "type": "CAMERA_MOVE",
                "duration": 1.0,
                "AKFGKKEOEFA": {
                    "x": 401.7052307128906,
                    "y": -21.52734375,
                    "z": 142.55953979492188
                },
                "NGEBMAEFFGJ": {
                    "x": 401.4490051269531,
                    "y": -21.79985809326172,
                    "z": 141.63214111328125
                },
                "LIGHLBKBDEI": 20.0,
                "GFIOJGJJGCN": 6,
                "ABAEPHOGOFF": "EaseInOutCubic",
                "KFDBMBFFANN": {},
                "KIPMIDIKECP": "",
                "BDLGHOJPJHD": "",
                "LCOJGFEOLCK": "",
                "BBBGAEDCJEL": ""
            },
            {
                "$type": "IBPNIIGAIPF",
                "type": "LOOK_AT",
                "delayTime": 0.30000001192092896,
                "aliasList": [
                    "Avatar"
                ],
                "GGIENKFBOGL": true,
                "GCOONJBHNIM": true,
                "JHNJNNOPJKG": {
                    "x": 401.9902038574219,
                    "y": -22.93773651123047,
                    "z": 139.4927978515625
                },
                "NDOMJCOFKDJ": 0.4000000059604645,
                "KIPMIDIKECP": "141301",
                "HJJAFGPMJNJ": "",
                "AOFBAGFCGPJ": ""
            },
            {
                "$type": "KCBOGFFHPBD",
                "type": "BODY_LANG",
                "delayTime": 0.4000000059604645,
                "aliasList": [
                    "141101"
                ],
                "GPIEDGOMCGL": 1230,
                "AOFEDPBOOIE": ""
            },
            {
                "$type": "CCEEIGNAILH",
                "type": "DIALOG",
                "aliasList": [
                    "1001"
                ],
                "KICBIOMGHIN": 101110404,
                "PNCCODDABKI": 0.5
            },
            {
                "$type": "KCBOGFFHPBD",
                "type": "BODY_LANG",
                "aliasList": [
                    "1001"
                ],
                "GPIEDGOMCGL": 1172,
                "AOFEDPBOOIE": ""
            },
            {
                "$type": "DNAEECJNBFB",
                "type": "EMO_SYNC",
                "aliasList": [
                    "1001"
                ],
                "EOGJDJKPPGE": "Cs_Emo_Avatar_Simple_Common_Set/Cs_Emo_Avatar_Talk/Cs_Emo_Avatar_PersonalLine/Cs_Emo_Avatar_Wendy/Cs_Emo_101110404",
                "IHCBGPABDLE": "",
                "CIKPDMODFPL": "",
                "HDIAHFFHNGE": "",
                "BOAAGJEEFDD": "",
                "PFDPJKHPADE": "",
                "DALINBJAHOC": [
                    187886722907592854,
                    10460966093503576489,
                    3952182661904615297,
                    1867781582204700079
                ]
            },
            {
                "$type": "IBPNIIGAIPF",
                "type": "LOOK_AT",
                "delayTime": 0.4000000059604645,
                "aliasList": [
                    "1005"
                ],
                "GGIENKFBOGL": true,
                "GCOONJBHNIM": true,
                "JHNJNNOPJKG": {
                    "x": 401.9902038574219,
                    "y": -22.93773651123047,
                    "z": 139.4927978515625
                },
                "NDOMJCOFKDJ": 0.4000000059604645,
                "KIPMIDIKECP": "141301",
                "HJJAFGPMJNJ": "",
                "AOFBAGFCGPJ": ""
            },
            {
                "$type": "CNBNGFNKLGP",
                "type": "STEER_TO",
                "delayTime": 0.4000000059604645,
                "duration": 2.0,
                "aliasList": [
                    "1005"
                ],
                "KDKLEJFHDJG": {
                    "x": -0.5959410071372986,
                    "z": 0.8030281662940979
                },
                "KIPMIDIKECP": "",
                "AOFBAGFCGPJ": ""
            }
        ],
        [
            {
                "$type": "BCJBNCJOPCE",
                "type": "CAMERA_MOVE",
                "duration": 1.0,
                "AKFGKKEOEFA": {
                    "x": 401.5208740234375,
                    "y": -22.150108337402344,
                    "z": 138.0319061279297
                },
                "NGEBMAEFFGJ": {
                    "x": 401.3114318847656,
                    "y": -22.162113189697266,
                    "z": 139.00965881347656
                },
                "LIGHLBKBDEI": 20.0,
                "GFIOJGJJGCN": 6,
                "ABAEPHOGOFF": "EaseInOutCubic",
                "KFDBMBFFANN": {},
                "KIPMIDIKECP": "",
                "BDLGHOJPJHD": "",
                "LCOJGFEOLCK": "",
                "BBBGAEDCJEL": ""
            },
            {
                "$type": "CCEEIGNAILH",
                "type": "DIALOG",
                "aliasList": [
                    "141301"
                ],
                "KICBIOMGHIN": 101110405,
                "PNCCODDABKI": 0.5
            },
            {
                "$type": "KCBOGFFHPBD",
                "type": "BODY_LANG",
                "aliasList": [
                    "141301"
                ],
                "GPIEDGOMCGL": 1130,
                "AOFEDPBOOIE": ""
            },
            {
                "$type": "DNAEECJNBFB",
                "type": "EMO_SYNC",
                "aliasList": [
                    "141301"
                ],
                "EOGJDJKPPGE": "Cs_Emo_Avatar_Simple_Common_Set/Cs_Emo_Avatar_Talk/Cs_Emo_Avatar_PersonalLine/Cs_Emo_Avatar_Wendy/Cs_Emo_101110405",
                "IHCBGPABDLE": "",
                "CIKPDMODFPL": "",
                "HDIAHFFHNGE": "",
                "BOAAGJEEFDD": "",
                "PFDPJKHPADE": "",
                "DALINBJAHOC": [
                    1588328892365838177,
                    17310479939800318728,
                    1981527826389427985,
                    18160065985017171504
                ]
            }
        ],
        [
            {
                "$type": "BCJBNCJOPCE",
                "type": "CAMERA_MOVE",
                "duration": 1.0,
                "AKFGKKEOEFA": {
                    "x": 398.51800537109375,
                    "y": -20.0565242767334,
                    "z": 143.4566192626953
                },
                "NGEBMAEFFGJ": {
                    "x": 399.10772705078125,
                    "y": -20.56808853149414,
                    "z": 142.83169555664062
                },
                "LIGHLBKBDEI": 25.0,
                "GFIOJGJJGCN": 6,
                "ABAEPHOGOFF": "EaseInOutCubic",
                "KFDBMBFFANN": {},
                "KIPMIDIKECP": "",
                "BDLGHOJPJHD": "",
                "LCOJGFEOLCK": "",
                "BBBGAEDCJEL": ""
            },
            {
                "$type": "BCJBNCJOPCE",
                "type": "CAMERA_MOVE",
                "delayTime": 0.10833333432674408,
                "duration": 5.0,
                "AKFGKKEOEFA": {
                    "x": 398.6275634765625,
                    "y": -20.084871292114258,
                    "z": 143.3950653076172
                },
                "NGEBMAEFFGJ": {
                    "x": 399.21728515625,
                    "y": -20.596435546875,
                    "z": 142.7701416015625
                },
                "LIGHLBKBDEI": 25.0,
                "ABAEPHOGOFF": "EaseInOutQuad",
                "KFDBMBFFANN": {},
                "KIPMIDIKECP": "",
                "BDLGHOJPJHD": "",
                "LCOJGFEOLCK": "",
                "BBBGAEDCJEL": ""
            },
            {
                "$type": "IBPNIIGAIPF",
                "type": "LOOK_AT",
                "delayTime": 0.4000000059604645,
                "aliasList": [
                    "141101"
                ],
                "GGIENKFBOGL": true,
                "GCOONJBHNIM": true,
                "JHNJNNOPJKG": {
                    "x": 401.9902038574219,
                    "y": -22.93773651123047,
                    "z": 139.4927978515625
                },
                "NDOMJCOFKDJ": 0.4000000059604645,
                "KIPMIDIKECP": "1005",
                "HJJAFGPMJNJ": "",
                "AOFBAGFCGPJ": ""
            },
            {
                "$type": "IBPNIIGAIPF",
                "type": "LOOK_AT",
                "delayTime": 0.20000000298023224,
                "aliasList": [
                    "141301"
                ],
                "GGIENKFBOGL": true,
                "GCOONJBHNIM": true,
                "JHNJNNOPJKG": {
                    "x": 401.9902038574219,
                    "y": -22.93773651123047,
                    "z": 139.4927978515625
                },
                "NDOMJCOFKDJ": 0.4000000059604645,
                "KIPMIDIKECP": "1005",
                "HJJAFGPMJNJ": "",
                "AOFBAGFCGPJ": ""
            },
            {
                "$type": "KCBOGFFHPBD",
                "type": "BODY_LANG",
                "delayTime": 0.4000000059604645,
                "aliasList": [
                    "1001"
                ],
                "GPIEDGOMCGL": 1220,
                "AOFEDPBOOIE": ""
            },
            {
                "$type": "CCEEIGNAILH",
                "type": "DIALOG",
                "aliasList": [
                    "1005"
                ],
                "KICBIOMGHIN": 101110406,
                "PNCCODDABKI": 0.5
            },
            {
                "$type": "KCBOGFFHPBD",
                "type": "BODY_LANG",
                "aliasList": [
                    "1005"
                ],
                "GPIEDGOMCGL": 1170,
                "AOFEDPBOOIE": ""
            },
            {
                "$type": "KCBOGFFHPBD",
                "type": "BODY_LANG",
                "delayTime": 0.4000000059604645,
                "aliasList": [
                    "1005"
                ],
                "AHGOBCDHCMC": true,
                "AOFEDPBOOIE": ""
            },
            {
                "$type": "DNAEECJNBFB",
                "type": "EMO_SYNC",
                "aliasList": [
                    "1005"
                ],
                "EOGJDJKPPGE": "Cs_Emo_Avatar_Simple_Common_Set/Cs_Emo_Avatar_Talk/Cs_Emo_Avatar_PersonalLine/Cs_Emo_Avatar_Wendy/Cs_Emo_101110406",
                "IHCBGPABDLE": "",
                "CIKPDMODFPL": "",
                "HDIAHFFHNGE": "",
                "BOAAGJEEFDD": "",
                "PFDPJKHPADE": "",
                "DALINBJAHOC": [
                    7169388705547105139,
                    14425632660685354796,
                    5377450553451630476,
                    2363920397878109477
                ]
            }
        ],
        [
            {
                "$type": "BCJBNCJOPCE",
                "type": "CAMERA_MOVE",
                "duration": 1.0,
                "AKFGKKEOEFA": {
                    "x": 399.6204833984375,
                    "y": -21.956035614013672,
                    "z": 141.57530212402344
                },
                "NGEBMAEFFGJ": {
                    "x": 400.1910400390625,
                    "y": -22.108444213867188,
                    "z": 140.768310546875
                },
                "LIGHLBKBDEI": 20.0,
                "GFIOJGJJGCN": 6,
                "ABAEPHOGOFF": "EaseInOutCubic",
                "KFDBMBFFANN": {},
                "KIPMIDIKECP": "",
                "BDLGHOJPJHD": "",
                "LCOJGFEOLCK": "",
                "BBBGAEDCJEL": ""
            },
            {
                "$type": "IBPNIIGAIPF",
                "type": "LOOK_AT",
                "delayTime": 0.4000000059604645,
                "aliasList": [
                    "141101"
                ],
                "GGIENKFBOGL": true,
                "GCOONJBHNIM": true,
                "JHNJNNOPJKG": {
                    "x": 401.9902038574219,
                    "y": -22.93773651123047,
                    "z": 139.4927978515625
                },
                "NDOMJCOFKDJ": 0.4000000059604645,
                "KIPMIDIKECP": "1001",
                "HJJAFGPMJNJ": "",
                "AOFBAGFCGPJ": ""
            },
            {
                "$type": "KCBOGFFHPBD",
                "type": "BODY_LANG",
                "delayTime": 0.4000000059604645,
                "aliasList": [
                    "141301"
                ],
                "AHGOBCDHCMC": true,
                "AOFEDPBOOIE": ""
            },
            {
                "$type": "IBPNIIGAIPF",
                "type": "LOOK_AT",
                "delayTime": 0.20000000298023224,
                "aliasList": [
                    "141301"
                ],
                "GGIENKFBOGL": true,
                "GCOONJBHNIM": true,
                "JHNJNNOPJKG": {
                    "x": 401.9902038574219,
                    "y": -22.93773651123047,
                    "z": 139.4927978515625
                },
                "NDOMJCOFKDJ": 0.4000000059604645,
                "KIPMIDIKECP": "1001",
                "HJJAFGPMJNJ": "",
                "AOFBAGFCGPJ": ""
            },
            {
                "$type": "CCEEIGNAILH",
                "type": "DIALOG",
                "aliasList": [
                    "1001"
                ],
                "KICBIOMGHIN": 101110407,
                "PNCCODDABKI": 0.5
            },
            {
                "$type": "KCBOGFFHPBD",
                "type": "BODY_LANG",
                "aliasList": [
                    "1001"
                ],
                "GPIEDGOMCGL": 1221,
                "AOFEDPBOOIE": ""
            },
            {
                "$type": "KCBOGFFHPBD",
                "type": "BODY_LANG",
                "delayTime": 0.4000000059604645,
                "aliasList": [
                    "1001"
                ],
                "AHGOBCDHCMC": true,
                "AOFEDPBOOIE": ""
            },
            {
                "$type": "DNAEECJNBFB",
                "type": "EMO_SYNC",
                "aliasList": [
                    "1001"
                ],
                "EOGJDJKPPGE": "Cs_Emo_Avatar_Simple_Common_Set/Cs_Emo_Avatar_Talk/Cs_Emo_Avatar_PersonalLine/Cs_Emo_Avatar_Wendy/Cs_Emo_101110407",
                "IHCBGPABDLE": "",
                "CIKPDMODFPL": "",
                "HDIAHFFHNGE": "",
                "BOAAGJEEFDD": "",
                "PFDPJKHPADE": "",
                "DALINBJAHOC": [
                    6117851850556797978,
                    12783148042989320811,
                    7711976358942648592,
                    7140978941818160637
                ]
            }
        ],
        [
            {
                "$type": "BCJBNCJOPCE",
                "type": "CAMERA_MOVE",
                "duration": 1.0,
                "AKFGKKEOEFA": {
                    "x": 397.5406188964844,
                    "y": -21.580533981323242,
                    "z": 135.749267578125
                },
                "NGEBMAEFFGJ": {
                    "x": 398.2037353515625,
                    "y": -21.75070571899414,
                    "z": 136.47817993164062
                },
                "LIGHLBKBDEI": 20.0,
                "GFIOJGJJGCN": 6,
                "ABAEPHOGOFF": "EaseInOutCubic",
                "KFDBMBFFANN": {},
                "KIPMIDIKECP": "",
                "BDLGHOJPJHD": "",
                "LCOJGFEOLCK": "",
                "BBBGAEDCJEL": ""
            },
            {
                "$type": "BCJBNCJOPCE",
                "type": "CAMERA_MOVE",
                "delayTime": 0.10000000149011612,
                "duration": 6.0,
                "AKFGKKEOEFA": {
                    "x": 397.4792785644531,
                    "y": -21.516613006591797,
                    "z": 135.81993103027344
                },
                "NGEBMAEFFGJ": {
                    "x": 398.14239501953125,
                    "y": -21.686784744262695,
                    "z": 136.54884338378906
                },
                "LIGHLBKBDEI": 20.0,
                "ABAEPHOGOFF": "EaseInOutQuad",
                "KFDBMBFFANN": {},
                "KIPMIDIKECP": "",
                "BDLGHOJPJHD": "",
                "LCOJGFEOLCK": "",
                "BBBGAEDCJEL": ""
            },
            {
                "$type": "CCEEIGNAILH",
                "type": "DIALOG",
                "aliasList": [
                    "141301"
                ],
                "KICBIOMGHIN": 101110408,
                "PNCCODDABKI": 0.5
            },
            {
                "$type": "KCBOGFFHPBD",
                "type": "BODY_LANG",
                "aliasList": [
                    "141301"
                ],
                "GPIEDGOMCGL": 1050,
                "AOFEDPBOOIE": ""
            },
            {
                "$type": "KCBOGFFHPBD",
                "type": "BODY_LANG",
                "delayTime": 0.4000000059604645,
                "aliasList": [
                    "141301"
                ],
                "AHGOBCDHCMC": true,
                "AOFEDPBOOIE": ""
            },
            {
                "$type": "KCBOGFFHPBD",
                "type": "BODY_LANG",
                "delayTime": 4.5,
                "aliasList": [
                    "141301"
                ],
                "GPIEDGOMCGL": 1130,
                "AOFEDPBOOIE": ""
            },
            {
                "$type": "DNAEECJNBFB",
                "type": "EMO_SYNC",
                "aliasList": [
                    "141301"
                ],
                "EOGJDJKPPGE": "Cs_Emo_Avatar_Simple_Common_Set/Cs_Emo_Avatar_Talk/Cs_Emo_Avatar_PersonalLine/Cs_Emo_Avatar_Wendy/Cs_Emo_101110408",
                "IHCBGPABDLE": "",
                "CIKPDMODFPL": "",
                "HDIAHFFHNGE": "",
                "BOAAGJEEFDD": "",
                "PFDPJKHPADE": "",
                "DALINBJAHOC": [
                    18354869388704960531,
                    4375343809151996905,
                    12741243098055059423,
                    8048216933319332478
                ]
            }
        ],
        [
            {
                "$type": "BCJBNCJOPCE",
                "type": "CAMERA_MOVE",
                "duration": 1.0,
                "AKFGKKEOEFA": {
                    "x": 398.44720458984375,
                    "y": -21.645254135131836,
                    "z": 137.17898559570312
                },
                "NGEBMAEFFGJ": {
                    "x": 399.1075744628906,
                    "y": -21.800626754760742,
                    "z": 137.91368103027344
                },
                "LIGHLBKBDEI": 20.0,
                "ABAEPHOGOFF": "EaseInOutCubic",
                "KFDBMBFFANN": {},
                "KIPMIDIKECP": "",
                "BDLGHOJPJHD": "",
                "LCOJGFEOLCK": "",
                "BBBGAEDCJEL": ""
            },
            {
                "$type": "IBPNIIGAIPF",
                "type": "LOOK_AT",
                "delayTime": 0.19999998807907104,
                "aliasList": [
                    "Avatar"
                ],
                "GGIENKFBOGL": true,
                "GCOONJBHNIM": true,
                "JHNJNNOPJKG": {
                    "x": 401.9902038574219,
                    "y": -22.93773651123047,
                    "z": 139.4927978515625
                },
                "NDOMJCOFKDJ": 0.4000000059604645,
                "KIPMIDIKECP": "141101",
                "HJJAFGPMJNJ": "",
                "AOFBAGFCGPJ": ""
            },
            {
                "$type": "CCEEIGNAILH",
                "type": "DIALOG",
                "aliasList": [
                    "141101"
                ],
                "KICBIOMGHIN": 101110409,
                "PNCCODDABKI": 0.5
            },
            {
                "$type": "KCBOGFFHPBD",
                "type": "BODY_LANG",
                "aliasList": [
                    "141101"
                ],
                "GPIEDGOMCGL": 1060,
                "AOFEDPBOOIE": ""
            },
            {
                "$type": "DNAEECJNBFB",
                "type": "EMO_SYNC",
                "aliasList": [
                    "141101"
                ],
                "EOGJDJKPPGE": "Cs_Emo_Avatar_Simple_Common_Set/Cs_Emo_Avatar_Talk/Cs_Emo_Avatar_PersonalLine/Cs_Emo_Avatar_Wendy/Cs_Emo_101110409",
                "IHCBGPABDLE": "",
                "CIKPDMODFPL": "",
                "HDIAHFFHNGE": "",
                "BOAAGJEEFDD": "",
                "PFDPJKHPADE": "",
                "DALINBJAHOC": [
                    3985492532997984279,
                    16250072668143610075,
                    7576548996829660830,
                    17971676951798724796
                ]
            },
            {
                "$type": "KCBOGFFHPBD",
                "type": "BODY_LANG",
                "delayTime": 0.20000000298023224,
                "aliasList": [
                    "141301"
                ],
                "AHGOBCDHCMC": true,
                "AOFEDPBOOIE": ""
            },
            {
                "$type": "IBPNIIGAIPF",
                "type": "LOOK_AT",
                "delayTime": 0.20000000298023224,
                "aliasList": [
                    "141301"
                ],
                "GGIENKFBOGL": true,
                "GCOONJBHNIM": true,
                "JHNJNNOPJKG": {
                    "x": 401.9902038574219,
                    "y": -22.93773651123047,
                    "z": 139.4927978515625
                },
                "NDOMJCOFKDJ": 0.4000000059604645,
                "KIPMIDIKECP": "141101",
                "HJJAFGPMJNJ": "",
                "AOFBAGFCGPJ": ""
            },
            {
                "$type": "IBPNIIGAIPF",
                "type": "LOOK_AT",
                "delayTime": 0.20000000298023224,
                "aliasList": [
                    "1001"
                ],
                "GGIENKFBOGL": true,
                "GCOONJBHNIM": true,
                "JHNJNNOPJKG": {
                    "x": 401.9902038574219,
                    "y": -22.93773651123047,
                    "z": 139.4927978515625
                },
                "NDOMJCOFKDJ": 0.4000000059604645,
                "KIPMIDIKECP": "141101",
                "HJJAFGPMJNJ": "",
                "AOFBAGFCGPJ": ""
            },
            {
                "$type": "KCBOGFFHPBD",
                "type": "BODY_LANG",
                "delayTime": 0.20000000298023224,
                "aliasList": [
                    "1001"
                ],
                "AHGOBCDHCMC": true,
                "AOFEDPBOOIE": ""
            },
            {
                "$type": "DNAEECJNBFB",
                "type": "EMO_SYNC",
                "delayTime": 0.20000000298023224,
                "aliasList": [
                    "1001"
                ],
                "EOGJDJKPPGE": "",
                "IHCBGPABDLE": "Cs_Emo_Avatar_Common/Cs_Emo_Avatar_Default01",
                "CIKPDMODFPL": "Cs_Emo_Avatar_Common/Cs_Emo_Avatar_Default01",
                "HDIAHFFHNGE": "",
                "BOAAGJEEFDD": "",
                "PFDPJKHPADE": "",
                "MJAONEKDECJ": [
                    1010565500959774114,
                    17914558573000180712,
                    14498871351621154070,
                    14348654671849899985
                ],
                "DAALMFGCAOO": [
                    17551147554270584215,
                    11567349927864383394,
                    11535483659151300012,
                    3124390413002392171
                ]
            },
            {
                "$type": "IBPNIIGAIPF",
                "type": "LOOK_AT",
                "delayTime": 0.4000000059604645,
                "aliasList": [
                    "1005"
                ],
                "GGIENKFBOGL": true,
                "GCOONJBHNIM": true,
                "JHNJNNOPJKG": {
                    "x": 401.9902038574219,
                    "y": -22.93773651123047,
                    "z": 139.4927978515625
                },
                "NDOMJCOFKDJ": 0.4000000059604645,
                "KIPMIDIKECP": "141101",
                "HJJAFGPMJNJ": "",
                "AOFBAGFCGPJ": ""
            }
        ],
        [
            {
                "$type": "BCJBNCJOPCE",
                "type": "CAMERA_MOVE",
                "duration": 1.0,
                "AKFGKKEOEFA": {
                    "x": 401.0677795410156,
                    "y": -21.48731803894043,
                    "z": 142.20443725585938
                },
                "NGEBMAEFFGJ": {
                    "x": 401.5516052246094,
                    "y": -21.799989700317383,
                    "z": 141.38702392578125
                },
                "LIGHLBKBDEI": 20.0,
                "GFIOJGJJGCN": 6,
                "ABAEPHOGOFF": "EaseInOutCubic",
                "KFDBMBFFANN": {},
                "KIPMIDIKECP": "",
                "BDLGHOJPJHD": "",
                "LCOJGFEOLCK": "",
                "BBBGAEDCJEL": ""
            },
            {
                "$type": "BCJBNCJOPCE",
                "type": "CAMERA_MOVE",
                "delayTime": 0.10000000149011612,
                "duration": 1.0,
                "AKFGKKEOEFA": {
                    "x": 401.14422607421875,
                    "y": -21.536712646484375,
                    "z": 142.0753173828125
                },
                "NGEBMAEFFGJ": {
                    "x": 401.6280517578125,
                    "y": -21.849384307861328,
                    "z": 141.25790405273438
                },
                "LIGHLBKBDEI": 20.0,
                "ABAEPHOGOFF": "EaseInOutCubic",
                "KFDBMBFFANN": {},
                "KIPMIDIKECP": "",
                "BDLGHOJPJHD": "",
                "LCOJGFEOLCK": "",
                "BBBGAEDCJEL": ""
            },
            {
                "$type": "KCBOGFFHPBD",
                "type": "BODY_LANG",
                "delayTime": 0.20000000298023224,
                "aliasList": [
                    "141101"
                ],
                "AHGOBCDHCMC": true,
                "AOFEDPBOOIE": ""
            },
            {
                "$type": "IBPNIIGAIPF",
                "type": "LOOK_AT",
                "delayTime": 0.20000000298023224,
                "aliasList": [
                    "141101"
                ],
                "GGIENKFBOGL": true,
                "GCOONJBHNIM": true,
                "JHNJNNOPJKG": {
                    "x": 401.9902038574219,
                    "y": -22.93773651123047,
                    "z": 139.4927978515625
                },
                "NDOMJCOFKDJ": 0.4000000059604645,
                "KIPMIDIKECP": "1005",
                "HJJAFGPMJNJ": "",
                "AOFBAGFCGPJ": ""
            },
            {
                "$type": "KCBOGFFHPBD",
                "type": "BODY_LANG",
                "delayTime": 0.4000000059604645,
                "aliasList": [
                    "141301"
                ],
                "AHGOBCDHCMC": true,
                "AOFEDPBOOIE": ""
            },
            {
                "$type": "IBPNIIGAIPF",
                "type": "LOOK_AT",
                "delayTime": 0.4000000059604645,
                "aliasList": [
                    "141301"
                ],
                "GGIENKFBOGL": true,
                "GCOONJBHNIM": true,
                "JHNJNNOPJKG": {
                    "x": 401.9902038574219,
                    "y": -22.93773651123047,
                    "z": 139.4927978515625
                },
                "NDOMJCOFKDJ": 0.4000000059604645,
                "KIPMIDIKECP": "1005",
                "HJJAFGPMJNJ": "",
                "AOFBAGFCGPJ": ""
            },
            {
                "$type": "CCEEIGNAILH",
                "type": "DIALOG",
                "aliasList": [
                    "1005"
                ],
                "KICBIOMGHIN": 101110410,
                "PNCCODDABKI": 0.5
            },
            {
                "$type": "KCBOGFFHPBD",
                "type": "BODY_LANG",
                "aliasList": [
                    "1005"
                ],
                "GPIEDGOMCGL": 1060,
                "AOFEDPBOOIE": ""
            },
            {
                "$type": "KCBOGFFHPBD",
                "type": "BODY_LANG",
                "delayTime": 3.799999952316284,
                "aliasList": [
                    "1005"
                ],
                "GPIEDGOMCGL": 1260,
                "AOFEDPBOOIE": ""
            },
            {
                "$type": "KCBOGFFHPBD",
                "type": "BODY_LANG",
                "delayTime": 2.91666579246521,
                "aliasList": [
                    "1005"
                ],
                "AHGOBCDHCMC": true,
                "AOFEDPBOOIE": ""
            },
            {
                "$type": "CNBNGFNKLGP",
                "type": "STEER_TO",
                "duration": 2.0,
                "aliasList": [
                    "1005"
                ],
                "KDKLEJFHDJG": {
                    "x": -0.3063691556453705,
                    "z": 0.9519127607345581
                },
                "KIPMIDIKECP": "",
                "AOFBAGFCGPJ": ""
            },
            {
                "$type": "DNAEECJNBFB",
                "type": "EMO_SYNC",
                "aliasList": [
                    "1005"
                ],
                "EOGJDJKPPGE": "Cs_Emo_Avatar_Simple_Common_Set/Cs_Emo_Avatar_Talk/Cs_Emo_Avatar_PersonalLine/Cs_Emo_Avatar_Wendy/Cs_Emo_101110410",
                "IHCBGPABDLE": "",
                "CIKPDMODFPL": "",
                "HDIAHFFHNGE": "",
                "BOAAGJEEFDD": "",
                "PFDPJKHPADE": "",
                "DALINBJAHOC": [
                    5360834080151447758,
                    11743723239899717536,
                    17141374847717010781,
                    10650669511869390687
                ]
            }
        ],
        [
            {
                "$type": "BCJBNCJOPCE",
                "type": "CAMERA_MOVE",
                "duration": 1.0,
                "AKFGKKEOEFA": {
                    "x": 401.36358642578125,
                    "y": -22.224552154541016,
                    "z": 138.87594604492188
                },
                "NGEBMAEFFGJ": {
                    "x": 401.6588439941406,
                    "y": -22.170583724975586,
                    "z": 139.829833984375
                },
                "LIGHLBKBDEI": 20.0,
                "GFIOJGJJGCN": 6,
                "ABAEPHOGOFF": "EaseInOutCubic",
                "KFDBMBFFANN": {},
                "KIPMIDIKECP": "",
                "BDLGHOJPJHD": "",
                "LCOJGFEOLCK": "",
                "BBBGAEDCJEL": ""
            },
            {
                "$type": "BCJBNCJOPCE",
                "type": "CAMERA_MOVE",
                "delayTime": 0.10000000149011612,
                "duration": 3.0,
                "AKFGKKEOEFA": {
                    "x": 401.3780517578125,
                    "y": -22.212318420410156,
                    "z": 138.95716857910156
                },
                "NGEBMAEFFGJ": {
                    "x": 401.6733093261719,
                    "y": -22.158349990844727,
                    "z": 139.9110565185547
                },
                "LIGHLBKBDEI": 20.0,
                "ABAEPHOGOFF": "EaseInOutQuad",
                "KFDBMBFFANN": {},
                "KIPMIDIKECP": "",
                "BDLGHOJPJHD": "",
                "LCOJGFEOLCK": "",
                "BBBGAEDCJEL": ""
            },
            {
                "$type": "CCEEIGNAILH",
                "type": "DIALOG",
                "aliasList": [
                    "141101"
                ],
                "KICBIOMGHIN": 101110411,
                "PNCCODDABKI": 0.20000000298023224
            },
            {
                "$type": "KCBOGFFHPBD",
                "type": "BODY_LANG",
                "aliasList": [
                    "141101"
                ],
                "GPIEDGOMCGL": 1120,
                "AOFEDPBOOIE": ""
            },
            {
                "$type": "IBPNIIGAIPF",
                "type": "LOOK_AT",
                "aliasList": [
                    "141101"
                ],
                "GGIENKFBOGL": true,
                "MHMKIICCEDG": {
                    "y": -5.0
                },
                "NDOMJCOFKDJ": 0.4000000059604645,
                "KIPMIDIKECP": "",
                "HJJAFGPMJNJ": "",
                "AOFBAGFCGPJ": ""
            },
            {
                "$type": "DNAEECJNBFB",
                "type": "EMO_SYNC",
                "aliasList": [
                    "141101"
                ],
                "EOGJDJKPPGE": "Cs_Emo_Avatar_Simple_Common_Set/Cs_Emo_Avatar_Talk/Cs_Emo_Avatar_PersonalLine/Cs_Emo_Avatar_Wendy/Cs_Emo_101110411",
                "IHCBGPABDLE": "",
                "CIKPDMODFPL": "",
                "HDIAHFFHNGE": "",
                "BOAAGJEEFDD": "",
                "PFDPJKHPADE": "",
                "DALINBJAHOC": [
                    17735704601903893946,
                    12062245396476117942,
                    12719353223349276504,
                    4090276463738978232
                ]
            },
            {
                "$type": "KCBOGFFHPBD",
                "type": "BODY_LANG",
                "aliasList": [
                    "1005"
                ],
                "AHGOBCDHCMC": true,
                "AOFEDPBOOIE": ""
            }
        ],
        [
            {
                "$type": "BCJBNCJOPCE",
                "type": "CAMERA_MOVE",
                "duration": 1.0,
                "AKFGKKEOEFA": {
                    "x": 402.7045593261719,
                    "y": -21.05769920349121,
                    "z": 144.6864013671875
                },
                "NGEBMAEFFGJ": {
                    "x": 402.46697998046875,
                    "y": -21.356088638305664,
                    "z": 143.76199340820312
                },
                "LIGHLBKBDEI": 20.0,
                "GFIOJGJJGCN": 6,
                "ABAEPHOGOFF": "EaseInOutCubic",
                "KFDBMBFFANN": {},
                "KIPMIDIKECP": "",
                "BDLGHOJPJHD": "",
                "LCOJGFEOLCK": "",
                "BBBGAEDCJEL": ""
            },
            {
                "$type": "BCJBNCJOPCE",
                "type": "CAMERA_MOVE",
                "delayTime": 0.10000000149011612,
                "duration": 5.0,
                "AKFGKKEOEFA": {
                    "x": 402.6006164550781,
                    "y": -21.101533889770508,
                    "z": 144.68502807617188
                },
                "NGEBMAEFFGJ": {
                    "x": 402.3822937011719,
                    "y": -21.397058486938477,
                    "z": 143.75497436523438
                },
                "LIGHLBKBDEI": 20.0,
                "ABAEPHOGOFF": "EaseInOutQuad",
                "KFDBMBFFANN": {},
                "KIPMIDIKECP": "",
                "BDLGHOJPJHD": "",
                "LCOJGFEOLCK": "",
                "BBBGAEDCJEL": ""
            },
            {
                "$type": "IBPNIIGAIPF",
                "type": "LOOK_AT",
                "delayTime": 0.20000000298023224,
                "aliasList": [
                    "141101"
                ],
                "GGIENKFBOGL": true,
                "GCOONJBHNIM": true,
                "JHNJNNOPJKG": {
                    "x": 401.9902038574219,
                    "y": -22.93773651123047,
                    "z": 139.4927978515625
                },
                "NDOMJCOFKDJ": 0.4000000059604645,
                "KIPMIDIKECP": "1001",
                "HJJAFGPMJNJ": "",
                "AOFBAGFCGPJ": ""
            },
            {
                "$type": "IBPNIIGAIPF",
                "type": "LOOK_AT",
                "delayTime": 0.4000000059604645,
                "aliasList": [
                    "141301"
                ],
                "GGIENKFBOGL": true,
                "GCOONJBHNIM": true,
                "JHNJNNOPJKG": {
                    "x": 401.9902038574219,
                    "y": -22.93773651123047,
                    "z": 139.4927978515625
                },
                "NDOMJCOFKDJ": 0.4000000059604645,
                "KIPMIDIKECP": "1001",
                "HJJAFGPMJNJ": "",
                "AOFBAGFCGPJ": ""
            },
            {
                "$type": "CCEEIGNAILH",
                "type": "DIALOG",
                "aliasList": [
                    "1001"
                ],
                "KICBIOMGHIN": 101110412,
                "PNCCODDABKI": 0.5
            },
            {
                "$type": "KCBOGFFHPBD",
                "type": "BODY_LANG",
                "aliasList": [
                    "1001"
                ],
                "GPIEDGOMCGL": 1130,
                "AOFEDPBOOIE": ""
            },
            {
                "$type": "DNAEECJNBFB",
                "type": "EMO_SYNC",
                "aliasList": [
                    "1001"
                ],
                "EOGJDJKPPGE": "Cs_Emo_Avatar_Simple_Common_Set/Cs_Emo_Avatar_Talk/Cs_Emo_Avatar_PersonalLine/Cs_Emo_Avatar_Wendy/Cs_Emo_101110412",
                "IHCBGPABDLE": "",
                "CIKPDMODFPL": "",
                "HDIAHFFHNGE": "",
                "BOAAGJEEFDD": "",
                "PFDPJKHPADE": "",
                "DALINBJAHOC": [
                    2060606666991102477,
                    15961588903701330577,
                    15625147073209631181,
                    5506879454647861356
                ]
            }
        ],
        [
            {
                "$type": "BCJBNCJOPCE",
                "type": "CAMERA_MOVE",
                "duration": 1.0,
                "AKFGKKEOEFA": {
                    "x": 403.70831298828125,
                    "y": -22.004003524780273,
                    "z": 141.51251220703125
                },
                "NGEBMAEFFGJ": {
                    "x": 403.0288391113281,
                    "y": -22.138599395751953,
                    "z": 140.791259765625
                },
                "LIGHLBKBDEI": 20.0,
                "GFIOJGJJGCN": 6,
                "ABAEPHOGOFF": "EaseInOutCubic",
                "KFDBMBFFANN": {},
                "KIPMIDIKECP": "",
                "BDLGHOJPJHD": "",
                "LCOJGFEOLCK": "",
                "BBBGAEDCJEL": ""
            },
            {
                "$type": "MEKNGCBGKEJ",
                "type": "DIALOG_SELECT",
                "delayTime": 0.8999999761581421,
                "aliasList": [
                    "Avatar"
                ],
                "MLAABINGLAA": [
                    101110414,
                    101110417
                ],
                "HPBPDBFGKID": [
                    3494267647,
                    3494267649
                ],
                "CFJOJADDHHG": true
            },
            {
                "$type": "IBPNIIGAIPF",
                "type": "LOOK_AT",
                "delayTime": 0.20000000298023224,
                "aliasList": [
                    "Avatar"
                ],
                "GGIENKFBOGL": true,
                "GCOONJBHNIM": true,
                "JHNJNNOPJKG": {
                    "x": 401.9902038574219,
                    "y": -22.93773651123047,
                    "z": 139.4927978515625
                },
                "NDOMJCOFKDJ": 0.4000000059604645,
                "KIPMIDIKECP": "1001",
                "HJJAFGPMJNJ": "",
                "AOFBAGFCGPJ": ""
            },
            {
                "$type": "IBPNIIGAIPF",
                "type": "LOOK_AT",
                "delayTime": 5.0,
                "aliasList": [
                    "Avatar"
                ],
                "GGIENKFBOGL": true,
                "GCOONJBHNIM": true,
                "JHNJNNOPJKG": {
                    "x": 401.9902038574219,
                    "y": -22.93773651123047,
                    "z": 139.4927978515625
                },
                "NDOMJCOFKDJ": 0.4000000059604645,
                "KIPMIDIKECP": "141101",
                "HJJAFGPMJNJ": "",
                "AOFBAGFCGPJ": ""
            },
            {
                "$type": "CCEEIGNAILH",
                "type": "DIALOG",
                "aliasList": [
                    "1001"
                ],
                "KICBIOMGHIN": 101110413,
                "PNCCODDABKI": 1.0
            },
            {
                "$type": "IBPNIIGAIPF",
                "type": "LOOK_AT",
                "aliasList": [
                    "1001"
                ],
                "GGIENKFBOGL": true,
                "GCOONJBHNIM": true,
                "JHNJNNOPJKG": {
                    "x": 401.9902038574219,
                    "y": -22.93773651123047,
                    "z": 139.4927978515625
                },
                "NDOMJCOFKDJ": 0.4000000059604645,
                "KIPMIDIKECP": "Avatar",
                "HJJAFGPMJNJ": "",
                "AOFBAGFCGPJ": ""
            },
            {
                "$type": "KCBOGFFHPBD",
                "type": "BODY_LANG",
                "aliasList": [
                    "1001"
                ],
                "AHGOBCDHCMC": true,
                "AOFEDPBOOIE": ""
            },
            {
                "$type": "KCBOGFFHPBD",
                "type": "BODY_LANG",
                "delayTime": 2.299999952316284,
                "aliasList": [
                    "1001"
                ],
                "GPIEDGOMCGL": 1172,
                "AOFEDPBOOIE": ""
            },
            {
                "$type": "DNAEECJNBFB",
                "type": "EMO_SYNC",
                "aliasList": [
                    "1001"
                ],
                "EOGJDJKPPGE": "Cs_Emo_Avatar_Simple_Common_Set/Cs_Emo_Avatar_Talk/Cs_Emo_Avatar_PersonalLine/Cs_Emo_Avatar_Wendy/Cs_Emo_101110413",
                "IHCBGPABDLE": "",
                "CIKPDMODFPL": "",
                "HDIAHFFHNGE": "",
                "BOAAGJEEFDD": "",
                "PFDPJKHPADE": "",
                "DALINBJAHOC": [
                    14998860171702384245,
                    4258548428053050360,
                    462440935386031580,
                    7325931470147518339
                ]
            },
            {
                "$type": "IBPNIIGAIPF",
                "type": "LOOK_AT",
                "delayTime": 0.4000000059604645,
                "aliasList": [
                    "1005"
                ],
                "GGIENKFBOGL": true,
                "GCOONJBHNIM": true,
                "JHNJNNOPJKG": {
                    "x": 401.9902038574219,
                    "y": -22.93773651123047,
                    "z": 139.4927978515625
                },
                "NDOMJCOFKDJ": 0.4000000059604645,
                "KIPMIDIKECP": "1001",
                "HJJAFGPMJNJ": "",
                "AOFBAGFCGPJ": ""
            },
            {
                "$type": "CNBNGFNKLGP",
                "type": "STEER_TO",
                "delayTime": 0.4000000059604645,
                "duration": 2.0,
                "aliasList": [
                    "1005"
                ],
                "KDKLEJFHDJG": {
                    "x": -0.9761546850204468,
                    "z": -0.2170761525630951
                },
                "KIPMIDIKECP": "",
                "AOFBAGFCGPJ": ""
            }
        ],
        [
            {
                "$type": "BCJBNCJOPCE",
                "type": "CAMERA_MOVE",
                "duration": 1.0,
                "AKFGKKEOEFA": {
                    "x": 404.6588134765625,
                    "y": -21.861234664916992,
                    "z": 136.01390075683594
                },
                "NGEBMAEFFGJ": {
                    "x": 404.0646667480469,
                    "y": -21.995830535888672,
                    "z": 136.80690002441406
                },
                "LIGHLBKBDEI": 20.0,
                "GFIOJGJJGCN": 6,
                "ABAEPHOGOFF": "EaseInOutCubic",
                "KFDBMBFFANN": {},
                "KIPMIDIKECP": "",
                "BDLGHOJPJHD": "",
                "LCOJGFEOLCK": "",
                "BBBGAEDCJEL": ""
            },
            {
                "$type": "BCJBNCJOPCE",
                "type": "CAMERA_MOVE",
                "delayTime": 0.10000000149011612,
                "duration": 7.0,
                "AKFGKKEOEFA": {
                    "x": 404.5311584472656,
                    "y": -21.90206527709961,
                    "z": 135.91946411132812
                },
                "NGEBMAEFFGJ": {
                    "x": 403.9820861816406,
                    "y": -22.02178192138672,
                    "z": 136.74661254882812
                },
                "LIGHLBKBDEI": 20.0,
                "ABAEPHOGOFF": "EaseInOutQuad",
                "KFDBMBFFANN": {},
                "KIPMIDIKECP": "",
                "BDLGHOJPJHD": "",
                "LCOJGFEOLCK": "",
                "BBBGAEDCJEL": ""
            },
            {
                "$type": "IBPNIIGAIPF",
                "type": "LOOK_AT",
                "aliasList": [
                    "Avatar"
                ],
                "GGIENKFBOGL": true,
                "GCOONJBHNIM": true,
                "JHNJNNOPJKG": {
                    "x": 401.9902038574219,
                    "y": -22.93773651123047,
                    "z": 139.4927978515625
                },
                "NDOMJCOFKDJ": 0.4000000059604645,
                "KIPMIDIKECP": "141101",
                "HJJAFGPMJNJ": "",
                "AOFBAGFCGPJ": ""
            },
            {
                "$type": "CCEEIGNAILH",
                "type": "DIALOG",
                "aliasList": [
                    "141101"
                ],
                "KICBIOMGHIN": 101110415,
                "PNCCODDABKI": 0.5
            },
            {
                "$type": "IBPNIIGAIPF",
                "type": "LOOK_AT",
                "aliasList": [
                    "141101"
                ],
                "GGIENKFBOGL": true,
                "GCOONJBHNIM": true,
                "JHNJNNOPJKG": {
                    "x": 401.9902038574219,
                    "y": -22.93773651123047,
                    "z": 139.4927978515625
                },
                "NDOMJCOFKDJ": 0.4000000059604645,
                "KIPMIDIKECP": "Avatar",
                "HJJAFGPMJNJ": "",
                "AOFBAGFCGPJ": ""
            },
            {
                "$type": "KCBOGFFHPBD",
                "type": "BODY_LANG",
                "aliasList": [
                    "141101"
                ],
                "GPIEDGOMCGL": 4030,
                "AOFEDPBOOIE": ""
            },
            {
                "$type": "DNAEECJNBFB",
                "type": "EMO_SYNC",
                "aliasList": [
                    "141101"
                ],
                "EOGJDJKPPGE": "Cs_Emo_Avatar_Simple_Common_Set/Cs_Emo_Avatar_Talk/Cs_Emo_Avatar_PersonalLine/Cs_Emo_Avatar_Wendy/Cs_Emo_101110415",
                "IHCBGPABDLE": "",
                "CIKPDMODFPL": "",
                "HDIAHFFHNGE": "",
                "BOAAGJEEFDD": "",
                "PFDPJKHPADE": "",
                "DALINBJAHOC": [
                    9337071713124602907,
                    11213315085798352793,
                    17104983372303539963,
                    16902532937690916812
                ]
            },
            {
                "$type": "IBPNIIGAIPF",
                "type": "LOOK_AT",
                "delayTime": 0.30000001192092896,
                "aliasList": [
                    "141301"
                ],
                "GGIENKFBOGL": true,
                "GCOONJBHNIM": true,
                "JHNJNNOPJKG": {
                    "x": 401.9902038574219,
                    "y": -22.93773651123047,
                    "z": 139.4927978515625
                },
                "NDOMJCOFKDJ": 0.4000000059604645,
                "KIPMIDIKECP": "Avatar",
                "HJJAFGPMJNJ": "",
                "AOFBAGFCGPJ": ""
            },
            {
                "$type": "IBPNIIGAIPF",
                "type": "LOOK_AT",
                "delayTime": 0.30000001192092896,
                "aliasList": [
                    "1001"
                ],
                "GGIENKFBOGL": true,
                "GCOONJBHNIM": true,
                "JHNJNNOPJKG": {
                    "x": 401.9902038574219,
                    "y": -22.93773651123047,
                    "z": 139.4927978515625
                },
                "NDOMJCOFKDJ": 0.4000000059604645,
                "KIPMIDIKECP": "141101",
                "HJJAFGPMJNJ": "",
                "AOFBAGFCGPJ": ""
            },
            {
                "$type": "IBPNIIGAIPF",
                "type": "LOOK_AT",
                "delayTime": 0.4000000059604645,
                "aliasList": [
                    "1005"
                ],
                "GGIENKFBOGL": true,
                "GCOONJBHNIM": true,
                "JHNJNNOPJKG": {
                    "x": 401.9902038574219,
                    "y": -22.93773651123047,
                    "z": 139.4927978515625
                },
                "NDOMJCOFKDJ": 0.4000000059604645,
                "KIPMIDIKECP": "141101",
                "HJJAFGPMJNJ": "",
                "AOFBAGFCGPJ": ""
            },
            {
                "$type": "CNBNGFNKLGP",
                "type": "STEER_TO",
                "delayTime": 0.4000000059604645,
                "duration": 2.0,
                "aliasList": [
                    "1005"
                ],
                "KDKLEJFHDJG": {
                    "x": -0.3201250731945038,
                    "z": 0.9473752379417419
                },
                "KIPMIDIKECP": "",
                "AOFBAGFCGPJ": ""
            }
        ],
        [
            {
                "$type": "BCJBNCJOPCE",
                "type": "CAMERA_MOVE",
                "duration": 1.0,
                "AKFGKKEOEFA": {
                    "x": 403.6005859375,
                    "y": -22.060625076293945,
                    "z": 139.26670837402344
                },
                "NGEBMAEFFGJ": {
                    "x": 402.89678955078125,
                    "y": -22.084627151489258,
                    "z": 139.97669982910156
                },
                "LIGHLBKBDEI": 20.0,
                "GFIOJGJJGCN": 6,
                "ABAEPHOGOFF": "EaseInOutCubic",
                "KFDBMBFFANN": {},
                "KIPMIDIKECP": "",
                "BDLGHOJPJHD": "",
                "LCOJGFEOLCK": "",
                "BBBGAEDCJEL": ""
            },
            {
                "$type": "CCEEIGNAILH",
                "type": "DIALOG",
                "aliasList": [
                    "141101"
                ],
                "KICBIOMGHIN": 101110416,
                "PNCCODDABKI": 0.5
            },
            {
                "$type": "KCBOGFFHPBD",
                "type": "BODY_LANG",
                "aliasList": [
                    "141101"
                ],
                "GPIEDGOMCGL": 1121,
                "AOFEDPBOOIE": ""
            },
            {
                "$type": "KCBOGFFHPBD",
                "type": "BODY_LANG",
                "delayTime": 0.4000000059604645,
                "aliasList": [
                    "141101"
                ],
                "AHGOBCDHCMC": true,
                "AOFEDPBOOIE": ""
            },
            {
                "$type": "DNAEECJNBFB",
                "type": "EMO_SYNC",
                "aliasList": [
                    "141101"
                ],
                "EOGJDJKPPGE": "Cs_Emo_Avatar_Simple_Common_Set/Cs_Emo_Avatar_Talk/Cs_Emo_Avatar_PersonalLine/Cs_Emo_Avatar_Wendy/Cs_Emo_101110416",
                "IHCBGPABDLE": "",
                "CIKPDMODFPL": "",
                "HDIAHFFHNGE": "",
                "BOAAGJEEFDD": "",
                "PFDPJKHPADE": "",
                "DALINBJAHOC": [
                    8167496348940404423,
                    4849422003954314168,
                    14453820824630607617,
                    4001583118610745573
                ]
            }
        ],
        [
            {
                "$type": "BCJBNCJOPCE",
                "type": "CAMERA_MOVE",
                "duration": 1.0,
                "AKFGKKEOEFA": {
                    "x": 403.32171630859375,
                    "y": -21.979450225830078,
                    "z": 137.3697967529297
                },
                "NGEBMAEFFGJ": {
                    "x": 402.83203125,
                    "y": -22.069334030151367,
                    "z": 138.23704528808594
                },
                "LIGHLBKBDEI": 20.0,
                "GFIOJGJJGCN": 6,
                "ABAEPHOGOFF": "EaseInOutCubic",
                "KFDBMBFFANN": {},
                "KIPMIDIKECP": "",
                "BDLGHOJPJHD": "",
                "LCOJGFEOLCK": "",
                "BBBGAEDCJEL": ""
            },
            {
                "$type": "BCJBNCJOPCE",
                "type": "CAMERA_MOVE",
                "delayTime": 0.10000000149011612,
                "duration": 5.0,
                "AKFGKKEOEFA": {
                    "x": 403.2996826171875,
                    "y": -21.970436096191406,
                    "z": 137.49856567382812
                },
                "NGEBMAEFFGJ": {
                    "x": 402.80999755859375,
                    "y": -22.060319900512695,
                    "z": 138.36581420898438
                },
                "LIGHLBKBDEI": 20.0,
                "ABAEPHOGOFF": "EaseInOutQuad",
                "KFDBMBFFANN": {},
                "KIPMIDIKECP": "",
                "BDLGHOJPJHD": "",
                "LCOJGFEOLCK": "",
                "BBBGAEDCJEL": ""
            },
            {
                "$type": "IBPNIIGAIPF",
                "type": "LOOK_AT",
                "aliasList": [
                    "Avatar"
                ],
                "GGIENKFBOGL": true,
                "GCOONJBHNIM": true,
                "JHNJNNOPJKG": {
                    "x": 401.9902038574219,
                    "y": -22.93773651123047,
                    "z": 139.4927978515625
                },
                "NDOMJCOFKDJ": 0.4000000059604645,
                "KIPMIDIKECP": "141301",
                "HJJAFGPMJNJ": "",
                "AOFBAGFCGPJ": ""
            },
            {
                "$type": "IBPNIIGAIPF",
                "type": "LOOK_AT",
                "delayTime": 0.4000000059604645,
                "aliasList": [
                    "141101"
                ],
                "GGIENKFBOGL": true,
                "GCOONJBHNIM": true,
                "JHNJNNOPJKG": {
                    "x": 401.9902038574219,
                    "y": -22.93773651123047,
                    "z": 139.4927978515625
                },
                "NDOMJCOFKDJ": 0.4000000059604645,
                "KIPMIDIKECP": "Avatar",
                "HJJAFGPMJNJ": "",
                "AOFBAGFCGPJ": ""
            },
            {
                "$type": "CCEEIGNAILH",
                "type": "DIALOG",
                "aliasList": [
                    "141301"
                ],
                "KICBIOMGHIN": 101110418,
                "PNCCODDABKI": 0.5
            },
            {
                "$type": "IBPNIIGAIPF",
                "type": "LOOK_AT",
                "aliasList": [
                    "141301"
                ],
                "GGIENKFBOGL": true,
                "GCOONJBHNIM": true,
                "JHNJNNOPJKG": {
                    "x": 401.9902038574219,
                    "y": -22.93773651123047,
                    "z": 139.4927978515625
                },
                "NDOMJCOFKDJ": 0.4000000059604645,
                "KIPMIDIKECP": "Avatar",
                "HJJAFGPMJNJ": "",
                "AOFBAGFCGPJ": ""
            },
            {
                "$type": "KCBOGFFHPBD",
                "type": "BODY_LANG",
                "aliasList": [
                    "141301"
                ],
                "GPIEDGOMCGL": 1172,
                "AOFEDPBOOIE": ""
            },
            {
                "$type": "KCBOGFFHPBD",
                "type": "BODY_LANG",
                "delayTime": 2.799999952316284,
                "aliasList": [
                    "141301"
                ],
                "GPIEDGOMCGL": 1130,
                "AOFEDPBOOIE": ""
            },
            {
                "$type": "DNAEECJNBFB",
                "type": "EMO_SYNC",
                "aliasList": [
                    "141301"
                ],
                "EOGJDJKPPGE": "Cs_Emo_Avatar_Simple_Common_Set/Cs_Emo_Avatar_Talk/Cs_Emo_Avatar_PersonalLine/Cs_Emo_Avatar_Wendy/Cs_Emo_101110418",
                "IHCBGPABDLE": "",
                "CIKPDMODFPL": "",
                "HDIAHFFHNGE": "",
                "BOAAGJEEFDD": "",
                "PFDPJKHPADE": "",
                "DALINBJAHOC": [
                    12218108881694508166,
                    18033852049956629824,
                    13768781279315495322,
                    15422508805747344462
                ]
            },
            {
                "$type": "IBPNIIGAIPF",
                "type": "LOOK_AT",
                "delayTime": 0.30000001192092896,
                "aliasList": [
                    "1001"
                ],
                "GGIENKFBOGL": true,
                "GCOONJBHNIM": true,
                "JHNJNNOPJKG": {
                    "x": 401.9902038574219,
                    "y": -22.93773651123047,
                    "z": 139.4927978515625
                },
                "NDOMJCOFKDJ": 0.4000000059604645,
                "KIPMIDIKECP": "141301",
                "HJJAFGPMJNJ": "",
                "AOFBAGFCGPJ": ""
            },
            {
                "$type": "IBPNIIGAIPF",
                "type": "LOOK_AT",
                "delayTime": 0.4000000059604645,
                "aliasList": [
                    "1005"
                ],
                "GGIENKFBOGL": true,
                "GCOONJBHNIM": true,
                "JHNJNNOPJKG": {
                    "x": 401.9902038574219,
                    "y": -22.93773651123047,
                    "z": 139.4927978515625
                },
                "NDOMJCOFKDJ": 0.4000000059604645,
                "KIPMIDIKECP": "141301",
                "HJJAFGPMJNJ": "",
                "AOFBAGFCGPJ": ""
            },
            {
                "$type": "CNBNGFNKLGP",
                "type": "STEER_TO",
                "delayTime": 0.4000000059604645,
                "duration": 2.0,
                "aliasList": [
                    "1005"
                ],
                "KDKLEJFHDJG": {
                    "x": -0.5901767015457153,
                    "z": 0.8072741031646729
                },
                "KIPMIDIKECP": "",
                "AOFBAGFCGPJ": ""
            }
        ],
        [
            {
                "$type": "MoleMole.Config.ConfigLuaAction",
                "type": "LUA_ACTION",
                "duration": 0.5,
                "invoke": true,
                "invokeAlias": "10111",
                "invokeParam": 1
            },
            {
                "$type": "BCJBNCJOPCE",
                "type": "CAMERA_MOVE",
                "duration": 1.0,
                "AKFGKKEOEFA": {
                    "x": 406.23333740234375,
                    "y": -21.543989181518555,
                    "z": 144.77857971191406
                },
                "NGEBMAEFFGJ": {
                    "x": 405.51739501953125,
                    "y": -21.725975036621094,
                    "z": 144.1045684814453
                },
                "LIGHLBKBDEI": 20.0,
                "GFIOJGJJGCN": 6,
                "ABAEPHOGOFF": "EaseInOutCubic",
                "KFDBMBFFANN": {},
                "KIPMIDIKECP": "",
                "BDLGHOJPJHD": "",
                "LCOJGFEOLCK": "",
                "BBBGAEDCJEL": ""
            },
            {
                "$type": "BCJBNCJOPCE",
                "type": "CAMERA_MOVE",
                "delayTime": 0.10000000149011612,
                "duration": 5.0,
                "AKFGKKEOEFA": {
                    "x": 406.1699523925781,
                    "y": -21.555204391479492,
                    "z": 144.6444091796875
                },
                "NGEBMAEFFGJ": {
                    "x": 405.4540100097656,
                    "y": -21.73719024658203,
                    "z": 143.97039794921875
                },
                "LIGHLBKBDEI": 20.0,
                "ABAEPHOGOFF": "EaseInOutQuad",
                "KFDBMBFFANN": {},
                "KIPMIDIKECP": "",
                "BDLGHOJPJHD": "",
                "LCOJGFEOLCK": "",
                "BBBGAEDCJEL": ""
            },
            {
                "$type": "IBPNIIGAIPF",
                "type": "LOOK_AT",
                "delayTime": 0.20000000298023224,
                "aliasList": [
                    "Avatar"
                ],
                "GGIENKFBOGL": true,
                "GCOONJBHNIM": true,
                "JHNJNNOPJKG": {
                    "x": 401.9902038574219,
                    "y": -22.93773651123047,
                    "z": 139.4927978515625
                },
                "NDOMJCOFKDJ": 0.4000000059604645,
                "KIPMIDIKECP": "1001",
                "HJJAFGPMJNJ": "",
                "AOFBAGFCGPJ": ""
            },
            {
                "$type": "IBPNIIGAIPF",
                "type": "LOOK_AT",
                "delayTime": 0.2499999850988388,
                "aliasList": [
                    "141101"
                ],
                "GGIENKFBOGL": true,
                "GCOONJBHNIM": true,
                "JHNJNNOPJKG": {
                    "x": 401.9902038574219,
                    "y": -22.93773651123047,
                    "z": 139.4927978515625
                },
                "NDOMJCOFKDJ": 0.4000000059604645,
                "KIPMIDIKECP": "1001",
                "HJJAFGPMJNJ": "",
                "AOFBAGFCGPJ": ""
            },
            {
                "$type": "KCBOGFFHPBD",
                "type": "BODY_LANG",
                "delayTime": 0.4000000059604645,
                "aliasList": [
                    "141301"
                ],
                "AHGOBCDHCMC": true,
                "AOFEDPBOOIE": ""
            },
            {
                "$type": "IBPNIIGAIPF",
                "type": "LOOK_AT",
                "delayTime": 0.4000000059604645,
                "aliasList": [
                    "141301"
                ],
                "GGIENKFBOGL": true,
                "GCOONJBHNIM": true,
                "JHNJNNOPJKG": {
                    "x": 401.9902038574219,
                    "y": -22.93773651123047,
                    "z": 139.4927978515625
                },
                "NDOMJCOFKDJ": 0.4000000059604645,
                "KIPMIDIKECP": "1001",
                "HJJAFGPMJNJ": "",
                "AOFBAGFCGPJ": ""
            },
            {
                "$type": "CCEEIGNAILH",
                "type": "DIALOG",
                "aliasList": [
                    "1001"
                ],
                "KICBIOMGHIN": 101110419,
                "PNCCODDABKI": 0.5
            },
            {
                "$type": "KCBOGFFHPBD",
                "type": "BODY_LANG",
                "aliasList": [
                    "1001"
                ],
                "GPIEDGOMCGL": 1110,
                "AOFEDPBOOIE": ""
            },
            {
                "$type": "KCBOGFFHPBD",
                "type": "BODY_LANG",
                "delayTime": 0.4000000059604645,
                "aliasList": [
                    "1001"
                ],
                "AHGOBCDHCMC": true,
                "AOFEDPBOOIE": ""
            },
            {
                "$type": "IBPNIIGAIPF",
                "type": "LOOK_AT",
                "aliasList": [
                    "1001"
                ],
                "GGIENKFBOGL": true,
                "NDOMJCOFKDJ": 0.4000000059604645,
                "KIPMIDIKECP": "Avatar",
                "HJJAFGPMJNJ": "",
                "AOFBAGFCGPJ": ""
            },
            {
                "$type": "DNAEECJNBFB",
                "type": "EMO_SYNC",
                "aliasList": [
                    "1001"
                ],
                "EOGJDJKPPGE": "Cs_Emo_Avatar_Simple_Common_Set/Cs_Emo_Avatar_Talk/Cs_Emo_Avatar_PersonalLine/Cs_Emo_Avatar_Wendy/Cs_Emo_101110419",
                "IHCBGPABDLE": "",
                "CIKPDMODFPL": "",
                "HDIAHFFHNGE": "",
                "BOAAGJEEFDD": "",
                "PFDPJKHPADE": "",
                "DALINBJAHOC": [
                    775711033227678392,
                    6558038503325324546,
                    5550374029390886801,
                    2755453606439052508
                ]
            },
            {
                "$type": "IBPNIIGAIPF",
                "type": "LOOK_AT",
                "delayTime": 0.4000000059604645,
                "aliasList": [
                    "1005"
                ],
                "GGIENKFBOGL": true,
                "GCOONJBHNIM": true,
                "JHNJNNOPJKG": {
                    "x": 401.9902038574219,
                    "y": -22.93773651123047,
                    "z": 139.4927978515625
                },
                "NDOMJCOFKDJ": 0.4000000059604645,
                "KIPMIDIKECP": "1001",
                "HJJAFGPMJNJ": "",
                "AOFBAGFCGPJ": ""
            },
            {
                "$type": "CNBNGFNKLGP",
                "type": "STEER_TO",
                "delayTime": 0.4000000059604645,
                "duration": 2.0,
                "aliasList": [
                    "1005"
                ],
                "KDKLEJFHDJG": {
                    "x": -0.998696506023407,
                    "z": -0.05104188993573189
                },
                "KIPMIDIKECP": "",
                "AOFBAGFCGPJ": ""
            }
        ],
        [
            {
                "$type": "BCJBNCJOPCE",
                "type": "CAMERA_MOVE",
                "delayTime": 0.5,
                "duration": 0.10000000149011612,
                "KNAICGCGOHN": "EXIT",
                "NGEBMAEFFGJ": {
                    "z": 1.0
                },
                "GFIOJGJJGCN": 6,
                "ABAEPHOGOFF": "EaseInOutCubic",
                "KFDBMBFFANN": {},
                "KIPMIDIKECP": "",
                "BDLGHOJPJHD": "",
                "LCOJGFEOLCK": "",
                "BBBGAEDCJEL": ""
            },
            {
                "$type": "MoleMole.Config.ConfigCameraDOFAction",
                "type": "CAMERA_DOF",
                "delayTime": 0.5
            },
            {
                "$type": "MoleMole.Config.ConfigTimeProtectAction",
                "type": "TIME_PROTECT",
                "duration": 0.6000000238418579
            },
            {
                "$type": "MoleMole.Config.ConfigSimpleBlackScreenAction",
                "type": "SIMPLE_BLACK_SCREEN",
                "durationToBlack": 0.5,
                "durationKeepBlack": 1.0,
                "durationFromBlack": 0.5,
                "textMapID": ""
            },
            {
                "$type": "CCEEIGNAILH",
                "type": "DIALOG_CLEAR",
                "delayTime": 0.30000001192092896
            },
            {
                "$type": "MoleMole.Config.ConfigVisibleInterAction",
                "type": "VISIBLE",
                "delayTime": 0.5,
                "aliasList": [
                    "141101"
                ],
                "extraParam": ""
            },
            {
                "$type": "MoleMole.Config.ConfigVisibleInterAction",
                "type": "VISIBLE",
                "delayTime": 0.5,
                "aliasList": [
                    "141301"
                ],
                "extraParam": ""
            },
            {
                "$type": "MoleMole.Config.ConfigVisibleInterAction",
                "type": "VISIBLE",
                "delayTime": 0.5,
                "aliasList": [
                    "1001"
                ],
                "extraParam": ""
            }
        ]
    ],
    "groupId": [
        {
            "grpId": 3853496277,
            "nextGrpId": 3853496278
        },
        {
            "index": 1,
            "grpId": 3853496278,
            "nextGrpId": 3853496279
        },
        {
            "index": 2,
            "grpId": 3853496279,
            "nextGrpId": 3853496280
        },
        {
            "index": 3,
            "grpId": 3853496280,
            "nextGrpId": 3853496281
        },
        {
            "index": 4,
            "grpId": 3853496281,
            "nextGrpId": 3853496282
        },
        {
            "index": 5,
            "grpId": 3853496282,
            "nextGrpId": 3853496283
        },
        {
            "index": 6,
            "grpId": 3853496283,
            "nextGrpId": 3853496284
        },
        {
            "index": 7,
            "grpId": 3853496284,
            "nextGrpId": 3853496285
        },
        {
            "index": 8,
            "grpId": 3853496285,
            "nextGrpId": 3494267643
        },
        {
            "index": 9,
            "grpId": 3494267643,
            "nextGrpId": 3494267644
        },
        {
            "index": 10,
            "grpId": 3494267644,
            "nextGrpId": 3494267645
        },
        {
            "index": 11,
            "grpId": 3494267645,
            "nextGrpId": 3494267646
        },
        {
            "index": 12,
            "grpId": 3494267646,
            "nextGrpId": 3494267647
        },
        {
            "index": 13,
            "grpId": 3494267647,
            "nextGrpId": 3494267648
        },
        {
            "index": 14,
            "grpId": 3494267648,
            "nextGrpId": 3494267650
        },
        {
            "index": 15,
            "grpId": 3494267649,
            "nextGrpId": 3494267650
        },
        {
            "index": 16,
            "grpId": 3494267650,
            "nextGrpId": 3494267651
        },
        {
            "index": 17,
            "grpId": 3494267651,
            "nextGrpId": 3494267652
        }
    ],
    "freeStyleDic": {
        "141101": [
            1160,
            1230,
            1060,
            1120,
            4030,
            1121
        ],
        "141301": [
            1130,
            1050,
            1172
        ],
        "1001": [
            1110,
            1172,
            1220,
            1221,
            1130
        ]
    }
}