{
    "id": 13005,
    "series": 13000,
    "type": "LQ",
    "descTextMapHash": 1943984606,
    "rewardIdList": [
        113005
    ],
    "showType": "QUEST_HIDDEN",
    "subQuests": [
        {
            "subId": 1300501,
            "mainId": 13005,
            "order": 1,
            "showType": "QUEST_HIDDEN",
            "finishCond": [
                {
                    "type": "QUEST_CONTENT_QUEST_STATE_EQUAL",
                    "param": [
                        1300301,
                        3
                    ]
                }
            ],
            "guide": {},
            "guideHint": {
                "KPOGPNLFAAE": ""
            },
            "finishParent": true,
            "isRewind": true,
            "versionBegin": "",
            "versionEnd": ""
        }
    ]
}