{
    "id": 20509,
    "type": "WQ",
    "titleTextMapHash": 277842289,
    "descTextMapHash": 4267684503,
    "showType": "QUEST_HIDDEN",
    "subQuests": [
        {
            "subId": 2050901,
            "mainId": 20509,
            "order": 1,
            "descTextMapHash": 1256736256,
            "showType": "QUEST_HIDDEN",
            "finishCond": [
                {
                    "type": "QUEST_CONTENT_FINISH_PLOT",
                    "param": [
                        2050901,
                        0
                    ]
                }
            ],
            "guide": {},
            "guideHint": {
                "KPOGPNLFAAE": ""
            },
            "isRewind": true,
            "versionBegin": "",
            "versionEnd": ""
        },
        {
            "subId": 2050902,
            "mainId": 20509,
            "order": 2,
            "descTextMapHash": 2060370160,
            "showType": "QUEST_HIDDEN",
            "finishCond": [
                {
                    "type": "QUEST_CONTENT_FINISH_PLOT",
                    "param": [
                        2050902,
                        0
                    ]
                }
            ],
            "guide": {},
            "guideHint": {
                "KPOGPNLFAAE": ""
            },
            "finishParent": true,
            "isRewind": true,
            "versionBegin": "",
            "versionEnd": ""
        }
    ]
}