{
    "id": 21023,
    "type": "WQ",
    "titleTextMapHash": 2031304369,
    "descTextMapHash": 1125471351,
    "rewardIdList": [
        121023
    ],
    "subQuests": [
        {
            "subId": 2102301,
            "mainId": 21023,
            "order": 1,
            "descTextMapHash": 3205294121,
            "showType": "QUEST_HIDDEN",
            "finishCond": [
                {
                    "type": "QUEST_CONTENT_COMPLETE_TALK",
                    "param": [
                        2102301,
                        0
                    ]
                }
            ],
            "guide": {},
            "guideHint": {
                "KPOGPNLFAAE": ""
            },
            "finishExec": [
                {
                    "type": "QUEST_EXEC_REFRESH_GROUP_SUITE",
                    "param": [
                        "3",
                        "133104583,2"
                    ]
                }
            ],
            "versionBegin": "",
            "versionEnd": ""
        },
        {
            "subId": 2102302,
            "mainId": 21023,
            "order": 2,
            "descTextMapHash": 2996599065,
            "finishCond": [
                {
                    "type": "QUEST_CONTENT_LUA_NOTIFY",
                    "param": [
                        0,
                        0
                    ],
                    "count": 1
                }
            ],
            "guide": {
                "type": "QUEST_GUIDE_LOCATION",
                "param": [
                    "Q2102302_Target"
                ],
                "guideScene": 3,
                "guideStyle": "QUEST_GUIDE_STYLE_TARGET",
                "guideLayer": "QUEST_GUIDE_LAYER_SCENE"
            },
            "guideHint": {
                "KPOGPNLFAAE": ""
            },
            "isRewind": true,
            "versionBegin": "",
            "versionEnd": ""
        },
        {
            "subId": 2102303,
            "mainId": 21023,
            "order": 3,
            "descTextMapHash": 3118074905,
            "finishCond": [
                {
                    "type": "QUEST_CONTENT_COMPLETE_TALK",
                    "param": [
                        2102302,
                        0
                    ]
                }
            ],
            "guide": {
                "type": "QUEST_GUIDE_NPC",
                "param": [
                    "2202"
                ],
                "guideScene": 3,
                "guideStyle": "QUEST_GUIDE_STYLE_FINISH",
                "guideLayer": "QUEST_GUIDE_LAYER_UI"
            },
            "guideHint": {
                "KPOGPNLFAAE": ""
            },
            "finishParent": true,
            "finishExec": [
                {
                    "type": "QUEST_EXEC_DEL_PACK_ITEM",
                    "param": [
                        "100476",
                        "1"
                    ]
                },
                {
                    "type": "QUEST_EXEC_SET_DAILY_TASK_VAR",
                    "param": [
                        "26600",
                        "1",
                        "100"
                    ]
                }
            ],
            "versionBegin": "",
            "versionEnd": ""
        }
    ]
}