{
    "id": 22007,
    "type": "IQ",
    "titleTextMapHash": 1762255433,
    "descTextMapHash": 1090835599,
    "taskID": 26802,
    "subQuests": [
        {
            "subId": 2200701,
            "mainId": 22007,
            "order": 1,
            "descTextMapHash": 2357350386,
            "finishCond": [
                {
                    "type": "QUEST_CONTENT_COMPLETE_TALK",
                    "param": [
                        2200701,
                        0
                    ]
                }
            ],
            "guide": {
                "type": "QUEST_GUIDE_NPC",
                "param": [
                    "2421"
                ],
                "guideScene": 3,
                "guideStyle": "QUEST_GUIDE_STYLE_START",
                "guideLayer": "QUEST_GUIDE_LAYER_SCENE"
            },
            "guideHint": {
                "KPOGPNLFAAE": ""
            },
            "isRewind": true,
            "finishExec": [
                {
                    "type": "QUEST_EXEC_REFRESH_GROUP_SUITE",
                    "param": [
                        "3",
                        "133104515,2"
                    ]
                }
            ],
            "versionBegin": "",
            "versionEnd": ""
        },
        {
            "subId": 2200702,
            "mainId": 22007,
            "order": 2,
            "subIdSet": 1,
            "descTextMapHash": 3504086114,
            "finishCond": [
                {
                    "type": "QUEST_CONTENT_LUA_NOTIFY",
                    "param": [
                        0,
                        0
                    ],
                    "count": 1
                }
            ],
            "guide": {
                "type": "QUEST_GUIDE_LOCATION",
                "param": [
                    "Q22007Find_Item",
                    "30"
                ],
                "guideScene": 3,
                "guideStyle": "QUEST_GUIDE_STYLE_TARGET",
                "guideLayer": "QUEST_GUIDE_LAYER_SCENE"
            },
            "guideHint": {
                "KPOGPNLFAAE": ""
            },
            "finishExec": [
                {
                    "type": "QUEST_EXEC_ADD_QUEST_PROGRESS",
                    "param": [
                        "2200707",
                        "1"
                    ]
                }
            ],
            "versionBegin": "",
            "versionEnd": ""
        },
        {
            "subId": 2200703,
            "mainId": 22007,
            "order": 3,
            "descTextMapHash": 2757781322,
            "finishCond": [
                {
                    "type": "QUEST_CONTENT_COMPLETE_TALK",
                    "param": [
                        2200703,
                        0
                    ]
                }
            ],
            "guide": {
                "type": "QUEST_GUIDE_LOCATION",
                "param": [
                    "Q22007Find_Item",
                    "30"
                ],
                "guideScene": 3,
                "guideStyle": "QUEST_GUIDE_STYLE_POINT",
                "guideLayer": "QUEST_GUIDE_LAYER_SCENE"
            },
            "guideHint": {
                "KPOGPNLFAAE": ""
            },
            "isRewind": true,
            "finishExec": [
                {
                    "type": "QUEST_EXEC_REFRESH_GROUP_SUITE",
                    "param": [
                        "3",
                        "133104515,3"
                    ]
                }
            ],
            "versionBegin": "",
            "versionEnd": ""
        },
        {
            "subId": 2200704,
            "mainId": 22007,
            "order": 4,
            "descTextMapHash": 2884105978,
            "finishCond": [
                {
                    "type": "QUEST_CONTENT_LUA_NOTIFY",
                    "param": [
                        0,
                        0
                    ],
                    "count": 1
                }
            ],
            "guide": {
                "type": "QUEST_GUIDE_LOCATION",
                "param": [
                    "Q22007Find_Item",
                    "30"
                ],
                "guideScene": 3,
                "guideStyle": "QUEST_GUIDE_STYLE_TARGET",
                "guideLayer": "QUEST_GUIDE_LAYER_SCENE"
            },
            "guideHint": {
                "KPOGPNLFAAE": ""
            },
            "isRewind": true,
            "finishExec": [
                {
                    "type": "QUEST_EXEC_DEL_ALL_SPECIFIC_PACK_ITEM",
                    "param": [
                        "100493"
                    ]
                }
            ],
            "versionBegin": "",
            "versionEnd": ""
        },
        {
            "subId": 2200705,
            "mainId": 22007,
            "order": 5,
            "descTextMapHash": 966451762,
            "finishCond": [
                {
                    "type": "QUEST_CONTENT_COMPLETE_TALK",
                    "param": [
                        2200704,
                        0
                    ]
                }
            ],
            "guide": {
                "type": "QUEST_GUIDE_NPC",
                "param": [
                    "2421"
                ],
                "guideScene": 3,
                "guideStyle": "QUEST_GUIDE_STYLE_FINISH",
                "guideLayer": "QUEST_GUIDE_LAYER_SCENE"
            },
            "guideHint": {
                "KPOGPNLFAAE": ""
            },
            "finishParent": true,
            "isRewind": true,
            "finishExec": [
                {
                    "type": "QUEST_EXEC_DEL_ALL_SPECIFIC_PACK_ITEM",
                    "param": [
                        "100494"
                    ]
                },
                {
                    "type": "QUEST_EXEC_NOTIFY_DAILY_TASK",
                    "param": [
                        "26802"
                    ]
                }
            ],
            "versionBegin": "",
            "versionEnd": ""
        },
        {
            "subId": 2200706,
            "mainId": 22007,
            "order": 2,
            "subIdSet": 1,
            "descTextMapHash": 4142565898,
            "finishCond": [
                {
                    "type": "QUEST_CONTENT_LUA_NOTIFY",
                    "param": [
                        0,
                        0
                    ],
                    "count": 1
                }
            ],
            "guide": {
                "type": "QUEST_GUIDE_LOCATION",
                "param": [
                    "Q22007Find_Item",
                    "30"
                ],
                "guideScene": 3,
                "guideStyle": "QUEST_GUIDE_STYLE_TARGET",
                "guideLayer": "QUEST_GUIDE_LAYER_SCENE"
            },
            "guideHint": {
                "KPOGPNLFAAE": ""
            },
            "finishExec": [
                {
                    "type": "QUEST_EXEC_ADD_QUEST_PROGRESS",
                    "param": [
                        "2200707",
                        "1"
                    ]
                }
            ],
            "versionBegin": "",
            "versionEnd": ""
        },
        {
            "subId": 2200707,
            "mainId": 22007,
            "order": 6,
            "descTextMapHash": 1053425786,
            "showType": "QUEST_HIDDEN",
            "finishCond": [
                {
                    "type": "QUEST_CONTENT_ADD_QUEST_PROGRESS",
                    "param": [
                        2200707,
                        0
                    ],
                    "count": 2
                }
            ],
            "guide": {},
            "guideHint": {
                "KPOGPNLFAAE": ""
            },
            "finishExec": [
                {
                    "type": "QUEST_EXEC_ADD_QUEST_PROGRESS",
                    "param": [
                        "2200708",
                        "1"
                    ]
                }
            ],
            "versionBegin": "",
            "versionEnd": ""
        },
        {
            "subId": 2200708,
            "mainId": 22007,
            "order": 7,
            "descTextMapHash": 2325825834,
            "showType": "QUEST_HIDDEN",
            "finishCond": [
                {
                    "type": "QUEST_CONTENT_ADD_QUEST_PROGRESS",
                    "param": [
                        2200708,
                        0
                    ],
                    "count": 1
                }
            ],
            "guide": {},
            "guideHint": {
                "KPOGPNLFAAE": ""
            },
            "isRewind": true,
            "versionBegin": "",
            "versionEnd": ""
        }
    ]
}