{
    "id": 40062,
    "type": "EQ",
    "titleTextMapHash": 4155992895,
    "descTextMapHash": 2943075086,
    "rewardIdList": [
        140062
    ],
    "showType": "QUEST_HIDDEN",
    "subQuests": [
        {
            "subId": 4006201,
            "mainId": 40062,
            "order": 1,
            "showType": "QUEST_HIDDEN",
            "finishCond": [
                {
                    "type": "QUEST_CONTENT_COMPLETE_TALK",
                    "param": [
                        4004713,
                        0
                    ]
                }
            ],
            "guide": {},
            "guideHint": {
                "KPOGPNLFAAE": ""
            },
            "finishParent": true,
            "failParentShow": "QUEST_HIDDEN",
            "isRewind": true,
            "versionBegin": "",
            "versionEnd": ""
        }
    ]
}