{
    "id": 40066,
    "series": 10089,
    "type": "EQ",
    "mainQuestTag": "MAINQUEST_TAG_ACTIVITY",
    "titleTextMapHash": 4040984615,
    "descTextMapHash": 1323331046,
    "suggestTrackMainQuestList": [
        40067
    ],
    "rewardIdList": [
        140066
    ],
    "chapterId": 10089,
    "subQuests": [
        {
            "subId": 4006601,
            "mainId": 40066,
            "order": 1,
            "descTextMapHash": 2148860092,
            "finishCond": [
                {
                    "type": "QUEST_CONTENT_OBTAIN_ITEM",
                    "param": [
                        101840,
                        0
                    ],
                    "count": 1
                },
                {
                    "type": "QUEST_CONTENT_OBTAIN_ITEM",
                    "param": [
                        101842,
                        0
                    ],
                    "count": 1
                }
            ],
            "guide": {
                "type": "QUEST_GUIDE_LOCATION",
                "param": [
                    "guide_Q4006601",
                    "50"
                ],
                "guideScene": 9,
                "guideStyle": "QUEST_GUIDE_STYLE_POINT",
                "guideLayer": "QUEST_GUIDE_LAYER_SCENE"
            },
            "guideHint": {
                "KPOGPNLFAAE": ""
            },
            "isRewind": true,
            "versionBegin": "",
            "versionEnd": ""
        },
        {
            "subId": 4006602,
            "mainId": 40066,
            "order": 2,
            "descTextMapHash": 2153038540,
            "finishCond": [
                {
                    "type": "QUEST_CONTENT_LUA_NOTIFY",
                    "param": [
                        0,
                        0
                    ],
                    "count": 1
                }
            ],
            "guide": {
                "type": "QUEST_GUIDE_LOCATION",
                "param": [
                    "guide_Q4006602",
                    "0"
                ],
                "guideScene": 9,
                "guideStyle": "QUEST_GUIDE_STYLE_TARGET",
                "guideLayer": "QUEST_GUIDE_LAYER_SCENE"
            },
            "guideHint": {
                "KPOGPNLFAAE": ""
            },
            "isRewind": true,
            "finishExec": [
                {
                    "type": "QUEST_EXEC_UNREGISTER_DYNAMIC_GROUP",
                    "param": [
                        "199004022"
                    ]
                },
                {
                    "type": "QUEST_EXEC_UNLOCK_POINT",
                    "param": [
                        "9",
                        "11"
                    ]
                },
                {
                    "type": "QUEST_EXEC_UNREGISTER_DYNAMIC_GROUP",
                    "param": [
                        "199004130"
                    ]
                }
            ],
            "versionBegin": "",
            "versionEnd": ""
        },
        {
            "subId": 4006603,
            "mainId": 40066,
            "order": 3,
            "descTextMapHash": 3108197268,
            "finishCond": [
                {
                    "type": "QUEST_CONTENT_COMPLETE_TALK",
                    "param": [
                        4006603,
                        0
                    ]
                }
            ],
            "guide": {
                "type": "QUEST_GUIDE_LOCATION",
                "param": [
                    "Q4006603_guide",
                    "0"
                ],
                "guideScene": 20135,
                "guideStyle": "QUEST_GUIDE_STYLE_POINT",
                "guideLayer": "QUEST_GUIDE_LAYER_SCENE"
            },
            "guideHint": {
                "KPOGPNLFAAE": ""
            },
            "isRewind": true,
            "versionBegin": "",
            "versionEnd": ""
        },
        {
            "subId": 4006604,
            "mainId": 40066,
            "order": 4,
            "descTextMapHash": 2722143348,
            "finishCond": [
                {
                    "type": "QUEST_CONTENT_LUA_NOTIFY",
                    "param": [
                        0,
                        0
                    ],
                    "count": 1
                },
                {
                    "type": "QUEST_CONTENT_FINISH_PLOT",
                    "param": [
                        4006604,
                        0
                    ]
                }
            ],
            "guide": {
                "type": "QUEST_GUIDE_LOCATION",
                "param": [
                    "guide_Q4006604",
                    "30"
                ],
                "guideScene": 20135,
                "guideStyle": "QUEST_GUIDE_STYLE_POINT",
                "guideLayer": "QUEST_GUIDE_LAYER_SCENE"
            },
            "guideHint": {
                "KPOGPNLFAAE": ""
            },
            "isRewind": true,
            "versionBegin": "",
            "versionEnd": ""
        },
        {
            "subId": 4006605,
            "mainId": 40066,
            "order": 5,
            "descTextMapHash": 2239152948,
            "finishCond": [
                {
                    "type": "QUEST_CONTENT_LUA_NOTIFY",
                    "param": [
                        0,
                        0
                    ],
                    "count": 1
                },
                {
                    "type": "QUEST_CONTENT_FINISH_PLOT",
                    "param": [
                        4006605,
                        0
                    ]
                }
            ],
            "guide": {
                "type": "QUEST_GUIDE_LOCATION",
                "param": [
                    "guide_Q4006605",
                    "30"
                ],
                "guideScene": 20135,
                "guideStyle": "QUEST_GUIDE_STYLE_POINT",
                "guideLayer": "QUEST_GUIDE_LAYER_SCENE"
            },
            "guideHint": {
                "KPOGPNLFAAE": ""
            },
            "isRewind": true,
            "versionBegin": "",
            "versionEnd": ""
        },
        {
            "subId": 4006606,
            "mainId": 40066,
            "order": 6,
            "descTextMapHash": 2028057172,
            "finishCond": [
                {
                    "type": "QUEST_CONTENT_COMPLETE_TALK",
                    "param": [
                        4006606,
                        0
                    ]
                }
            ],
            "guide": {
                "type": "QUEST_GUIDE_NPC",
                "param": [
                    "12613"
                ],
                "guideScene": 20135,
                "guideStyle": "QUEST_GUIDE_STYLE_TARGET",
                "guideLayer": "QUEST_GUIDE_LAYER_SCENE"
            },
            "guideHint": {
                "KPOGPNLFAAE": ""
            },
            "isRewind": true,
            "versionBegin": "",
            "versionEnd": ""
        },
        {
            "subId": 4006607,
            "mainId": 40066,
            "order": 7,
            "descTextMapHash": 1345885372,
            "finishCond": [
                {
                    "type": "QUEST_CONTENT_LUA_NOTIFY",
                    "param": [
                        0,
                        0
                    ],
                    "count": 1
                }
            ],
            "guide": {
                "type": "QUEST_GUIDE_LOCATION",
                "param": [
                    "guide_Q4006607",
                    "30"
                ],
                "guideScene": 20135,
                "guideStyle": "QUEST_GUIDE_STYLE_POINT",
                "guideLayer": "QUEST_GUIDE_LAYER_SCENE"
            },
            "guideHint": {
                "KPOGPNLFAAE": ""
            },
            "isRewind": true,
            "versionBegin": "",
            "versionEnd": ""
        },
        {
            "subId": 4006608,
            "mainId": 40066,
            "order": 8,
            "descTextMapHash": 1970782740,
            "finishCond": [
                {
                    "type": "QUEST_CONTENT_LUA_NOTIFY",
                    "param": [
                        0,
                        0
                    ],
                    "count": 1
                },
                {
                    "type": "QUEST_CONTENT_FINISH_PLOT",
                    "param": [
                        4006608,
                        0
                    ]
                }
            ],
            "guide": {
                "type": "QUEST_GUIDE_LOCATION",
                "param": [
                    "Q4006608_guide",
                    "0"
                ],
                "guideScene": 20135,
                "guideStyle": "QUEST_GUIDE_STYLE_TARGET",
                "guideLayer": "QUEST_GUIDE_LAYER_SCENE"
            },
            "guideHint": {
                "KPOGPNLFAAE": ""
            },
            "isRewind": true,
            "versionBegin": "",
            "versionEnd": ""
        },
        {
            "subId": 4006609,
            "mainId": 40066,
            "order": 9,
            "descTextMapHash": 233786860,
            "finishCond": [
                {
                    "type": "QUEST_CONTENT_LUA_NOTIFY",
                    "param": [
                        0,
                        0
                    ],
                    "count": 1
                },
                {
                    "type": "QUEST_CONTENT_FINISH_PLOT",
                    "param": [
                        4006609,
                        0
                    ]
                }
            ],
            "guide": {
                "type": "QUEST_GUIDE_LOCATION",
                "param": [
                    "guide_Q4006609",
                    "30"
                ],
                "guideScene": 20135,
                "guideStyle": "QUEST_GUIDE_STYLE_POINT",
                "guideLayer": "QUEST_GUIDE_LAYER_SCENE"
            },
            "guideHint": {
                "KPOGPNLFAAE": ""
            },
            "isRewind": true,
            "versionBegin": "",
            "versionEnd": ""
        },
        {
            "subId": 4006610,
            "mainId": 40066,
            "order": 10,
            "descTextMapHash": 1848943812,
            "finishCond": [
                {
                    "type": "QUEST_CONTENT_LUA_NOTIFY",
                    "param": [
                        0,
                        0
                    ],
                    "count": 1
                },
                {
                    "type": "QUEST_CONTENT_FINISH_PLOT",
                    "param": [
                        4006610,
                        0
                    ]
                }
            ],
            "guide": {
                "type": "QUEST_GUIDE_LOCATION",
                "param": [
                    "guide_Q4006610",
                    "30"
                ],
                "guideScene": 20135,
                "guideStyle": "QUEST_GUIDE_STYLE_POINT",
                "guideLayer": "QUEST_GUIDE_LAYER_SCENE"
            },
            "guideHint": {
                "KPOGPNLFAAE": ""
            },
            "isRewind": true,
            "versionBegin": "",
            "versionEnd": ""
        },
        {
            "subId": 4006611,
            "mainId": 40066,
            "order": 11,
            "descTextMapHash": 3702434708,
            "finishCond": [
                {
                    "type": "QUEST_CONTENT_COMPLETE_TALK",
                    "param": [
                        4006611,
                        0
                    ]
                }
            ],
            "guide": {
                "type": "QUEST_GUIDE_NPC",
                "param": [
                    "12613"
                ],
                "guideScene": 20135,
                "guideStyle": "QUEST_GUIDE_STYLE_POINT",
                "guideLayer": "QUEST_GUIDE_LAYER_SCENE"
            },
            "guideHint": {
                "KPOGPNLFAAE": ""
            },
            "isRewind": true,
            "versionBegin": "",
            "versionEnd": ""
        },
        {
            "subId": 4006612,
            "mainId": 40066,
            "order": 12,
            "descTextMapHash": 2948217300,
            "finishCond": [
                {
                    "type": "QUEST_CONTENT_LUA_NOTIFY",
                    "param": [
                        0,
                        0
                    ],
                    "count": 1
                }
            ],
            "guide": {
                "type": "QUEST_GUIDE_LOCATION",
                "param": [
                    "guide_Q4006612",
                    "30"
                ],
                "guideScene": 20135,
                "guideStyle": "QUEST_GUIDE_STYLE_POINT",
                "guideLayer": "QUEST_GUIDE_LAYER_SCENE"
            },
            "guideHint": {
                "KPOGPNLFAAE": ""
            },
            "isRewind": true,
            "versionBegin": "",
            "versionEnd": ""
        },
        {
            "subId": 4006613,
            "mainId": 40066,
            "order": 13,
            "descTextMapHash": 477827764,
            "finishCond": [
                {
                    "type": "QUEST_CONTENT_FINISH_PLOT",
                    "param": [
                        4006613,
                        0
                    ]
                }
            ],
            "guide": {
                "type": "QUEST_GUIDE_LOCATION",
                "param": [
                    "guide_Q4006613",
                    "0"
                ],
                "guideScene": 20135,
                "guideStyle": "QUEST_GUIDE_STYLE_POINT",
                "guideLayer": "QUEST_GUIDE_LAYER_SCENE"
            },
            "guideHint": {
                "KPOGPNLFAAE": ""
            },
            "isRewind": true,
            "versionBegin": "",
            "versionEnd": ""
        },
        {
            "subId": 4006614,
            "mainId": 40066,
            "order": 14,
            "descTextMapHash": 3576774708,
            "finishCond": [
                {
                    "type": "QUEST_CONTENT_COMPLETE_TALK",
                    "param": [
                        4006614,
                        0
                    ]
                }
            ],
            "guide": {
                "type": "QUEST_GUIDE_NPC",
                "param": [
                    "12614"
                ],
                "guideScene": 20135,
                "guideStyle": "QUEST_GUIDE_STYLE_TARGET",
                "guideLayer": "QUEST_GUIDE_LAYER_SCENE"
            },
            "guideHint": {
                "KPOGPNLFAAE": ""
            },
            "isRewind": true,
            "versionBegin": "",
            "versionEnd": ""
        },
        {
            "subId": 4006615,
            "mainId": 40066,
            "order": 15,
            "descTextMapHash": 1384819804,
            "finishCond": [
                {
                    "type": "QUEST_CONTENT_FINISH_PLOT",
                    "param": [
                        4006615,
                        0
                    ]
                }
            ],
            "guide": {
                "type": "QUEST_GUIDE_LOCATION",
                "param": [
                    "guide_Q4006615",
                    "0"
                ],
                "guideScene": 20135,
                "guideStyle": "QUEST_GUIDE_STYLE_TARGET",
                "guideLayer": "QUEST_GUIDE_LAYER_SCENE"
            },
            "guideHint": {
                "KPOGPNLFAAE": ""
            },
            "isRewind": true,
            "finishExec": [
                {
                    "type": "QUEST_EXEC_REFRESH_GROUP_SUITE",
                    "param": [
                        "20135",
                        "220135018,1"
                    ]
                }
            ],
            "versionBegin": "",
            "versionEnd": ""
        },
        {
            "subId": 4006616,
            "mainId": 40066,
            "order": 16,
            "descTextMapHash": 2790299460,
            "finishCond": [
                {
                    "type": "QUEST_CONTENT_LUA_NOTIFY",
                    "param": [
                        0,
                        0
                    ],
                    "count": 1
                }
            ],
            "failCond": [
                {
                    "type": "QUEST_CONTENT_LEAVE_SCENE",
                    "param": [
                        20135,
                        0
                    ]
                }
            ],
            "guide": {
                "guideScene": 20135,
                "guideStyle": "QUEST_GUIDE_STYLE_TARGET",
                "guideLayer": "QUEST_GUIDE_LAYER_SCENE"
            },
            "showGuide": "QUEST_GUIDE_ITEM_DISABLE",
            "guideHint": {
                "KPOGPNLFAAE": ""
            },
            "isRewind": true,
            "finishExec": [
                {
                    "type": "QUEST_EXEC_REFRESH_GROUP_SUITE",
                    "param": [
                        "20135",
                        "220135005,3;220135013,2;220135019,1"
                    ]
                },
                {
                    "type": "QUEST_EXEC_UNLOCK_AVATAR_TEAM"
                }
            ],
            "failExec": [
                {
                    "type": "QUEST_EXEC_REFRESH_GROUP_SUITE",
                    "param": [
                        "20135",
                        "220135005,2"
                    ]
                },
                {
                    "type": "QUEST_EXEC_ROLLBACK_QUEST",
                    "param": [
                        "4006615"
                    ]
                },
                {
                    "type": "QUEST_EXEC_UNLOCK_AVATAR_TEAM"
                }
            ],
            "versionBegin": "",
            "versionEnd": ""
        },
        {
            "subId": 4006617,
            "mainId": 40066,
            "order": 17,
            "descTextMapHash": 2024945940,
            "finishCond": [
                {
                    "type": "QUEST_CONTENT_COMPLETE_TALK",
                    "param": [
                        4006617,
                        0
                    ]
                }
            ],
            "guide": {
                "type": "QUEST_GUIDE_NPC",
                "param": [
                    "1032"
                ],
                "guideScene": 20135,
                "guideStyle": "QUEST_GUIDE_STYLE_TARGET",
                "guideLayer": "QUEST_GUIDE_LAYER_SCENE"
            },
            "guideHint": {
                "KPOGPNLFAAE": ""
            },
            "isRewind": true,
            "finishExec": [
                {
                    "type": "QUEST_EXEC_LOCK_POINT",
                    "param": [
                        "9",
                        "11"
                    ]
                }
            ],
            "versionBegin": "",
            "versionEnd": ""
        },
        {
            "subId": 4006618,
            "mainId": 40066,
            "order": 19,
            "descTextMapHash": 1121074732,
            "finishCond": [
                {
                    "type": "QUEST_CONTENT_COMPLETE_TALK",
                    "param": [
                        4006618,
                        0
                    ]
                }
            ],
            "guide": {
                "type": "QUEST_GUIDE_LOCATION",
                "param": [
                    "T4006618_player",
                    "0"
                ],
                "guideScene": 9,
                "guideStyle": "QUEST_GUIDE_STYLE_POINT",
                "guideLayer": "QUEST_GUIDE_LAYER_SCENE"
            },
            "guideHint": {
                "KPOGPNLFAAE": ""
            },
            "finishParent": true,
            "isRewind": true,
            "versionBegin": "",
            "versionEnd": ""
        },
        {
            "subId": 4006619,
            "mainId": 40066,
            "order": 18,
            "descTextMapHash": 2795892612,
            "showType": "QUEST_HIDDEN",
            "finishCond": [
                {
                    "type": "QUEST_CONTENT_ENTER_MY_WORLD",
                    "param": [
                        9,
                        0
                    ]
                }
            ],
            "guide": {},
            "guideHint": {
                "KPOGPNLFAAE": ""
            },
            "finishExec": [
                {
                    "type": "QUEST_EXEC_REFRESH_GROUP_SUITE",
                    "param": [
                        "9",
                        "199004232,3"
                    ]
                }
            ],
            "versionBegin": "",
            "versionEnd": ""
        }
    ]
}