{
    "id": 4022,
    "series": 4020,
    "titleTextMapHash": 2976612911,
    "descTextMapHash": 2728717278,
    "suggestTrackMainQuestList": [
        4024
    ],
    "rewardIdList": [
        104022
    ],
    "chapterId": 1405,
    "subQuests": [
        {
            "subId": 402201,
            "mainId": 4022,
            "order": 1,
            "descTextMapHash": 1701750748,
            "KFCPGKEOMNH": [
                340305
            ],
            "finishCond": [
                {
                    "type": "QUEST_CONTENT_COMPLETE_TALK",
                    "param": [
                        402201,
                        0
                    ]
                }
            ],
            "guide": {
                "type": "QUEST_GUIDE_LOCATION",
                "autoGuide": "QUEST_GUIDE_AUTO_ENABLE",
                "param": [
                    "[3_340300191:2764.815,361.389,4191.450]",
                    "20"
                ],
                "guideScene": 3,
                "guideStyle": "QUEST_GUIDE_STYLE_TARGET",
                "guideLayer": "QUEST_GUIDE_LAYER_SCENE"
            },
            "guideHint": {
                "KPOGPNLFAAE": ""
            },
            "OHFJAMDKKBI": "QUEST_HIDDEN",
            "isRewind": true,
            "finishExec": [
                {
                    "type": "QUEST_EXEC_UNREGISTER_DYNAMIC_GROUP",
                    "param": [
                        "133407028"
                    ]
                }
            ],
            "versionBegin": "",
            "versionEnd": ""
        },
        {
            "subId": 402202,
            "mainId": 4022,
            "order": 3,
            "isMpBlock": true,
            "descTextMapHash": 1690335796,
            "KFCPGKEOMNH": [
                108501
            ],
            "finishCond": [
                {
                    "type": "QUEST_CONTENT_COMPLETE_TALK",
                    "param": [
                        402202,
                        0
                    ]
                }
            ],
            "guide": {
                "type": "QUEST_GUIDE_LOCATION",
                "autoGuide": "QUEST_GUIDE_AUTO_ENABLE",
                "param": [
                    "[1085_270:27.773,15.378,36.749]",
                    "20"
                ],
                "guideScene": 1085,
                "guideStyle": "QUEST_GUIDE_STYLE_TARGET",
                "guideLayer": "QUEST_GUIDE_LAYER_SCENE"
            },
            "guideHint": {
                "KPOGPNLFAAE": ""
            },
            "OHFJAMDKKBI": "QUEST_HIDDEN",
            "isRewind": true,
            "versionBegin": "",
            "versionEnd": ""
        },
        {
            "subId": 402203,
            "mainId": 4022,
            "order": 4,
            "isMpBlock": true,
            "descTextMapHash": 568553748,
            "KFCPGKEOMNH": [
                108501
            ],
            "finishCond": [
                {
                    "type": "QUEST_CONTENT_COMPLETE_TALK",
                    "param": [
                        402215,
                        0
                    ]
                }
            ],
            "guide": {
                "type": "QUEST_GUIDE_LOCATION",
                "autoGuide": "QUEST_GUIDE_AUTO_ENABLE",
                "param": [
                    "[1085_270:27.773,15.378,36.749]",
                    "20"
                ],
                "guideScene": 1085,
                "guideStyle": "QUEST_GUIDE_STYLE_TARGET",
                "guideLayer": "QUEST_GUIDE_LAYER_SCENE"
            },
            "guideHint": {
                "KPOGPNLFAAE": ""
            },
            "OHFJAMDKKBI": "QUEST_HIDDEN",
            "isRewind": true,
            "versionBegin": "",
            "versionEnd": ""
        },
        {
            "subId": 402204,
            "mainId": 4022,
            "order": 5,
            "isMpBlock": true,
            "descTextMapHash": 1693660412,
            "KFCPGKEOMNH": [
                108501
            ],
            "finishCond": [
                {
                    "type": "QUEST_CONTENT_COMPLETE_TALK",
                    "param": [
                        402204,
                        0
                    ]
                }
            ],
            "guide": {
                "type": "QUEST_GUIDE_LOCATION",
                "autoGuide": "QUEST_GUIDE_AUTO_ENABLE",
                "param": [
                    "[1085_270:27.773,15.378,36.749]",
                    "20"
                ],
                "guideScene": 1085,
                "guideStyle": "QUEST_GUIDE_STYLE_TARGET",
                "guideLayer": "QUEST_GUIDE_LAYER_SCENE"
            },
            "guideHint": {
                "KPOGPNLFAAE": ""
            },
            "OHFJAMDKKBI": "QUEST_HIDDEN",
            "isRewind": true,
            "versionBegin": "",
            "versionEnd": ""
        },
        {
            "subId": 402205,
            "mainId": 4022,
            "order": 6,
            "isMpBlock": true,
            "descTextMapHash": 963828316,
            "KFCPGKEOMNH": [
                108501
            ],
            "finishCond": [
                {
                    "type": "QUEST_CONTENT_COMPLETE_TALK",
                    "param": [
                        402205,
                        0
                    ]
                }
            ],
            "guide": {
                "type": "QUEST_GUIDE_LOCATION",
                "autoGuide": "QUEST_GUIDE_AUTO_ENABLE",
                "param": [
                    "[1085_270:27.773,15.378,36.749]",
                    "20"
                ],
                "guideScene": 1085,
                "guideStyle": "QUEST_GUIDE_STYLE_TARGET",
                "guideLayer": "QUEST_GUIDE_LAYER_SCENE"
            },
            "guideHint": {
                "KPOGPNLFAAE": ""
            },
            "OHFJAMDKKBI": "QUEST_HIDDEN",
            "isRewind": true,
            "versionBegin": "",
            "versionEnd": ""
        },
        {
            "subId": 402206,
            "mainId": 4022,
            "order": 7,
            "isMpBlock": true,
            "descTextMapHash": 406728332,
            "KFCPGKEOMNH": [
                108501
            ],
            "finishCond": [
                {
                    "type": "QUEST_CONTENT_COMPLETE_TALK",
                    "param": [
                        402206,
                        0
                    ]
                }
            ],
            "guide": {
                "type": "QUEST_GUIDE_LOCATION",
                "autoGuide": "QUEST_GUIDE_AUTO_ENABLE",
                "param": [
                    "[1085_270:27.773,15.378,36.749]",
                    "20"
                ],
                "guideScene": 1085,
                "guideStyle": "QUEST_GUIDE_STYLE_TARGET",
                "guideLayer": "QUEST_GUIDE_LAYER_SCENE"
            },
            "guideHint": {
                "KPOGPNLFAAE": ""
            },
            "OHFJAMDKKBI": "QUEST_HIDDEN",
            "isRewind": true,
            "versionBegin": "",
            "versionEnd": ""
        },
        {
            "subId": 402207,
            "mainId": 4022,
            "order": 8,
            "isMpBlock": true,
            "descTextMapHash": 3397892812,
            "KFCPGKEOMNH": [
                108501
            ],
            "finishCond": [
                {
                    "type": "QUEST_CONTENT_COMPLETE_TALK",
                    "param": [
                        402207,
                        0
                    ]
                }
            ],
            "guide": {
                "type": "QUEST_GUIDE_LOCATION",
                "autoGuide": "QUEST_GUIDE_AUTO_ENABLE",
                "param": [
                    "[1085_270:27.773,15.378,36.749]",
                    "20"
                ],
                "guideScene": 1085,
                "guideStyle": "QUEST_GUIDE_STYLE_TARGET",
                "guideLayer": "QUEST_GUIDE_LAYER_SCENE"
            },
            "guideHint": {
                "KPOGPNLFAAE": ""
            },
            "OHFJAMDKKBI": "QUEST_HIDDEN",
            "isRewind": true,
            "versionBegin": "",
            "versionEnd": ""
        },
        {
            "subId": 402208,
            "mainId": 4022,
            "order": 10,
            "isMpBlock": true,
            "descTextMapHash": 3027559020,
            "KFCPGKEOMNH": [
                108501
            ],
            "finishCond": [
                {
                    "type": "QUEST_CONTENT_COMPLETE_TALK",
                    "param": [
                        402208,
                        0
                    ]
                }
            ],
            "guide": {
                "type": "QUEST_GUIDE_LOCATION",
                "autoGuide": "QUEST_GUIDE_AUTO_ENABLE",
                "param": [
                    "[1085_270:27.773,15.378,36.749]",
                    "20"
                ],
                "guideScene": 1085,
                "guideStyle": "QUEST_GUIDE_STYLE_TARGET",
                "guideLayer": "QUEST_GUIDE_LAYER_SCENE"
            },
            "guideHint": {
                "KPOGPNLFAAE": ""
            },
            "finishParent": true,
            "OHFJAMDKKBI": "QUEST_HIDDEN",
            "isRewind": true,
            "finishExec": [
                {
                    "type": "QUEST_EXEC_ADD_SCENE_TAG",
                    "param": [
                        "1085",
                        "1351"
                    ]
                },
                {
                    "type": "QUEST_EXEC_DEL_SCENE_TAG",
                    "param": [
                        "1085",
                        "1352"
                    ]
                },
                {
                    "type": "QUEST_EXEC_REFRESH_GROUP_SUITE",
                    "param": [
                        "1085",
                        "201085004,2"
                    ]
                }
            ],
            "versionBegin": "",
            "versionEnd": ""
        },
        {
            "subId": 402209,
            "mainId": 4022,
            "order": 2,
            "isMpBlock": true,
            "descTextMapHash": 2103579844,
            "KFCPGKEOMNH": [
                108501,
                340305
            ],
            "finishCond": [
                {
                    "type": "QUEST_CONTENT_COMPLETE_TALK",
                    "param": [
                        402209,
                        0
                    ]
                }
            ],
            "guide": {
                "type": "QUEST_GUIDE_LOCATION",
                "autoGuide": "QUEST_GUIDE_AUTO_ENABLE",
                "param": [
                    "[3_340300338:2804.846,364.113,4140.110]",
                    "0"
                ],
                "guideScene": 3,
                "guideStyle": "QUEST_GUIDE_STYLE_POINT",
                "guideLayer": "QUEST_GUIDE_LAYER_SCENE"
            },
            "guideHint": {
                "KPOGPNLFAAE": ""
            },
            "OHFJAMDKKBI": "QUEST_HIDDEN",
            "isRewind": true,
            "finishExec": [
                {
                    "type": "QUEST_EXEC_REFRESH_GROUP_SUITE",
                    "param": [
                        "3",
                        "133403709,2"
                    ]
                }
            ],
            "versionBegin": "",
            "versionEnd": ""
        },
        {
            "subId": 402210,
            "mainId": 4022,
            "order": 9,
            "isMpBlock": true,
            "descTextMapHash": 40724788,
            "KFCPGKEOMNH": [
                108501
            ],
            "finishCond": [
                {
                    "type": "QUEST_CONTENT_COMPLETE_TALK",
                    "param": [
                        402210,
                        0
                    ]
                }
            ],
            "guide": {
                "type": "QUEST_GUIDE_LOCATION",
                "autoGuide": "QUEST_GUIDE_AUTO_ENABLE",
                "param": [
                    "[1085_270:27.773,15.378,36.749]",
                    "20"
                ],
                "guideScene": 1085,
                "guideStyle": "QUEST_GUIDE_STYLE_TARGET",
                "guideLayer": "QUEST_GUIDE_LAYER_SCENE"
            },
            "guideHint": {
                "KPOGPNLFAAE": ""
            },
            "OHFJAMDKKBI": "QUEST_HIDDEN",
            "isRewind": true,
            "versionBegin": "",
            "versionEnd": ""
        }
    ]
}