{
    "id": 70036,
    "type": "WQ",
    "mainQuestTag": "MAINQUEST_TAG_GUIDE",
    "titleTextMapHash": 2288727151,
    "descTextMapHash": 3340506694,
    "showType": "QUEST_HIDDEN",
    "subQuests": [
        {
            "subId": 7003601,
            "mainId": 70036,
            "order": 1,
            "descTextMapHash": 119178260,
            "showType": "QUEST_HIDDEN",
            "finishCond": [
                {
                    "type": "QUEST_CONTENT_COMPLETE_TALK",
                    "param": [
                        7003601,
                        0
                    ]
                }
            ],
            "guide": {
                "type": "QUEST_GUIDE_NPC",
                "autoGuide": "QUEST_GUIDE_AUTO_ENABLE",
                "param": [
                    "30073"
                ],
                "guideScene": 3,
                "guideStyle": "QUEST_GUIDE_STYLE_TARGET",
                "guideLayer": "QUEST_GUIDE_LAYER_SCENE"
            },
            "guideHint": {
                "KPOGPNLFAAE": ""
            },
            "finishParent": true,
            "failParentShow": "QUEST_HIDDEN",
            "isRewind": true,
            "versionBegin": "",
            "versionEnd": ""
        }
    ]
}