{
    "id": 70523,
    "type": "WQ",
    "mainQuestTag": "MAINQUEST_TAG_ACTIVITY",
    "titleTextMapHash": 992165359,
    "descTextMapHash": 1595864646,
    "subQuests": [
        {
            "subId": 7052301,
            "mainId": 70523,
            "order": 1,
            "showType": "QUEST_HIDDEN",
            "finishCond": [
                {
                    "type": "QUEST_CONTENT_FINISH_PLOT",
                    "param": [
                        7052301,
                        0
                    ]
                }
            ],
            "guide": {},
            "guideHint": {
                "KPOGPNLFAAE": ""
            },
            "isRewind": true,
            "versionBegin": "",
            "versionEnd": ""
        },
        {
            "subId": 7052302,
            "mainId": 70523,
            "order": 4,
            "descTextMapHash": 2882205332,
            "finishCond": [
                {
                    "type": "QUEST_CONTENT_BARGAIN_SUCC",
                    "param": [
                        9,
                        0
                    ]
                }
            ],
            "failCond": [
                {
                    "type": "QUEST_CONTENT_BARGAIN_FAIL",
                    "param": [
                        9,
                        0
                    ]
                }
            ],
            "guide": {
                "type": "QUEST_GUIDE_NPC",
                "autoGuide": "QUEST_GUIDE_AUTO_ENABLE",
                "param": [
                    "30235"
                ],
                "guideScene": 3,
                "guideStyle": "QUEST_GUIDE_STYLE_TARGET",
                "guideLayer": "QUEST_GUIDE_LAYER_SCENE"
            },
            "guideHint": {
                "KPOGPNLFAAE": ""
            },
            "isRewind": true,
            "finishExec": [
                {
                    "type": "QUEST_EXEC_STOP_BARGAIN",
                    "param": [
                        "9"
                    ]
                }
            ],
            "failExec": [
                {
                    "type": "QUEST_EXEC_STOP_BARGAIN",
                    "param": [
                        "9"
                    ]
                },
                {
                    "type": "QUEST_EXEC_DEL_PACK_ITEM",
                    "param": [
                        "120051",
                        "24000"
                    ]
                }
            ],
            "versionBegin": "",
            "versionEnd": ""
        },
        {
            "subId": 7052303,
            "mainId": 70523,
            "order": 6,
            "descTextMapHash": 2998003228,
            "finishCond": [
                {
                    "type": "QUEST_CONTENT_COMPLETE_TALK",
                    "param": [
                        7052303,
                        0
                    ]
                }
            ],
            "guide": {
                "type": "QUEST_GUIDE_NPC",
                "autoGuide": "QUEST_GUIDE_AUTO_ENABLE",
                "param": [
                    "30239"
                ],
                "guideScene": 3,
                "guideStyle": "QUEST_GUIDE_STYLE_TARGET",
                "guideLayer": "QUEST_GUIDE_LAYER_SCENE"
            },
            "guideHint": {
                "KPOGPNLFAAE": ""
            },
            "finishParent": true,
            "isRewind": true,
            "finishExec": [
                {
                    "type": "QUEST_EXEC_DEL_ALL_SPECIFIC_PACK_ITEM",
                    "param": [
                        "120051,120084"
                    ]
                }
            ],
            "versionBegin": "",
            "versionEnd": ""
        },
        {
            "subId": 7052304,
            "mainId": 70523,
            "order": 3,
            "descTextMapHash": 3006090684,
            "finishCond": [
                {
                    "type": "QUEST_CONTENT_COMPLETE_TALK",
                    "param": [
                        7052301,
                        0
                    ]
                }
            ],
            "guide": {
                "type": "QUEST_GUIDE_NPC",
                "autoGuide": "QUEST_GUIDE_AUTO_ENABLE",
                "param": [
                    "30239"
                ],
                "guideScene": 3,
                "guideStyle": "QUEST_GUIDE_STYLE_TARGET",
                "guideLayer": "QUEST_GUIDE_LAYER_SCENE"
            },
            "guideHint": {
                "KPOGPNLFAAE": ""
            },
            "versionBegin": "",
            "versionEnd": ""
        },
        {
            "subId": 7052305,
            "mainId": 70523,
            "order": 2,
            "descTextMapHash": 3700277876,
            "finishCond": [
                {
                    "type": "QUEST_CONTENT_FINISH_PLOT",
                    "param": [
                        7052305,
                        0
                    ]
                }
            ],
            "guide": {
                "type": "QUEST_GUIDE_LOCATION",
                "autoGuide": "QUEST_GUIDE_AUTO_ENABLE",
                "param": [
                    "Q7052305_N30239",
                    "30"
                ],
                "guideScene": 3,
                "guideStyle": "QUEST_GUIDE_STYLE_POINT",
                "guideLayer": "QUEST_GUIDE_LAYER_SCENE"
            },
            "guideHint": {
                "KPOGPNLFAAE": ""
            },
            "isRewind": true,
            "versionBegin": "",
            "versionEnd": ""
        },
        {
            "subId": 7052306,
            "mainId": 70523,
            "order": 5,
            "descTextMapHash": 1508391868,
            "finishCond": [
                {
                    "type": "QUEST_CONTENT_COMPLETE_TALK",
                    "param": [
                        7052326,
                        0
                    ]
                }
            ],
            "guide": {
                "type": "QUEST_GUIDE_NPC",
                "autoGuide": "QUEST_GUIDE_AUTO_ENABLE",
                "param": [
                    "30235"
                ],
                "guideScene": 3,
                "guideStyle": "QUEST_GUIDE_STYLE_TARGET",
                "guideLayer": "QUEST_GUIDE_LAYER_SCENE"
            },
            "guideHint": {
                "KPOGPNLFAAE": ""
            },
            "isRewind": true,
            "versionBegin": "",
            "versionEnd": ""
        }
    ]
}