{
    "id": 70905,
    "type": "WQ",
    "titleTextMapHash": 2407092383,
    "descTextMapHash": 3567721982,
    "rewardIdList": [
        551001
    ],
    "showType": "QUEST_HIDDEN",
    "subQuests": [
        {
            "subId": 7090501,
            "mainId": 70905,
            "order": 1,
            "showType": "QUEST_HIDDEN",
            "finishCond": [
                {
                    "type": "QUEST_CONTENT_COMPLETE_TALK",
                    "param": [
                        7090501,
                        0
                    ]
                }
            ],
            "guide": {},
            "guideHint": {
                "KPOGPNLFAAE": ""
            },
            "finishParent": true,
            "versionBegin": "",
            "versionEnd": ""
        }
    ]
}