{
    "id": 70922,
    "type": "WQ",
    "titleTextMapHash": 1570427823,
    "descTextMapHash": 3616301070,
    "rewardIdList": [
        551020
    ],
    "showType": "QUEST_HIDDEN",
    "subQuests": [
        {
            "subId": 7092201,
            "mainId": 70922,
            "order": 1,
            "showType": "QUEST_HIDDEN",
            "finishCond": [
                {
                    "type": "QUEST_CONTENT_COMPLETE_TALK",
                    "param": [
                        7092201,
                        0
                    ]
                }
            ],
            "guide": {},
            "guideHint": {
                "KPOGPNLFAAE": ""
            },
            "finishParent": true,
            "versionBegin": "",
            "versionEnd": ""
        }
    ]
}