{
    "id": 71028,
    "type": "WQ",
    "titleTextMapHash": 2583587175,
    "chapterId": 10016,
    "subQuests": [
        {
            "subId": 7102801,
            "mainId": 71028,
            "order": 1,
            "descTextMapHash": 1687795868,
            "finishCond": [
                {
                    "type": "QUEST_CONTENT_COMPLETE_TALK",
                    "param": [
                        7102801,
                        0
                    ]
                }
            ],
            "guide": {
                "type": "QUEST_GUIDE_NPC",
                "param": [
                    "2039"
                ],
                "guideScene": 3,
                "guideStyle": "QUEST_GUIDE_STYLE_TARGET",
                "guideLayer": "QUEST_GUIDE_LAYER_UI"
            },
            "guideHint": {
                "KPOGPNLFAAE": ""
            },
            "finishParent": true,
            "versionBegin": "",
            "versionEnd": ""
        }
    ]
}