{
    "id": 71650,
    "type": "WQ",
    "titleTextMapHash": 683863135,
    "descTextMapHash": 1933777158,
    "rewardIdList": [
        171650
    ],
    "subQuests": [
        {
            "subId": 7165001,
            "mainId": 71650,
            "order": 1,
            "descTextMapHash": 923341948,
            "finishCond": [
                {
                    "type": "QUEST_CONTENT_COMPLETE_TALK",
                    "param": [
                        7165001,
                        0
                    ]
                }
            ],
            "guide": {
                "type": "QUEST_GUIDE_NPC",
                "param": [
                    "2457"
                ],
                "guideScene": 3,
                "guideStyle": "QUEST_GUIDE_STYLE_START"
            },
            "guideHint": {
                "KPOGPNLFAAE": ""
            },
            "isRewind": true,
            "versionBegin": "",
            "versionEnd": ""
        },
        {
            "subId": 7165002,
            "mainId": 71650,
            "order": 2,
            "descTextMapHash": 1402674180,
            "showType": "QUEST_HIDDEN",
            "finishCond": [
                {
                    "type": "QUEST_CONTENT_COMPLETE_TALK",
                    "param": [
                        7165002,
                        0
                    ]
                }
            ],
            "guide": {},
            "guideHint": {
                "KPOGPNLFAAE": ""
            },
            "finishParent": true,
            "versionBegin": "",
            "versionEnd": ""
        }
    ]
}