{
    "id": 71919,
    "type": "WQ",
    "titleTextMapHash": 1316411263,
    "descTextMapHash": 248145150,
    "rewardIdList": [
        552023
    ],
    "showType": "QUEST_HIDDEN",
    "subQuests": [
        {
            "subId": 7191901,
            "mainId": 71919,
            "order": 1,
            "showType": "QUEST_HIDDEN",
            "finishCond": [
                {
                    "type": "QUEST_CONTENT_COMPLETE_TALK",
                    "param": [
                        7191901,
                        0
                    ]
                }
            ],
            "guide": {},
            "guideHint": {
                "KPOGPNLFAAE": ""
            },
            "finishParent": true,
            "versionBegin": "",
            "versionEnd": ""
        }
    ]
}