{
    "id": 71922,
    "type": "WQ",
    "titleTextMapHash": 4260511087,
    "descTextMapHash": 3322596150,
    "rewardIdList": [
        552024
    ],
    "showType": "QUEST_HIDDEN",
    "subQuests": [
        {
            "subId": 7192201,
            "mainId": 71922,
            "order": 1,
            "showType": "QUEST_HIDDEN",
            "finishCond": [
                {
                    "type": "QUEST_CONTENT_COMPLETE_TALK",
                    "param": [
                        7192201,
                        0
                    ]
                }
            ],
            "guide": {},
            "guideHint": {
                "KPOGPNLFAAE": ""
            },
            "finishParent": true,
            "versionBegin": "",
            "versionEnd": ""
        }
    ]
}