{
    "id": 71948,
    "type": "WQ",
    "titleTextMapHash": 182146871,
    "descTextMapHash": 2602514558,
    "rewardIdList": [
        552057
    ],
    "showType": "QUEST_HIDDEN",
    "subQuests": [
        {
            "subId": 7194801,
            "mainId": 71948,
            "order": 1,
            "showType": "QUEST_HIDDEN",
            "finishCond": [
                {
                    "type": "QUEST_CONTENT_COMPLETE_TALK",
                    "param": [
                        7194801,
                        0
                    ]
                }
            ],
            "guide": {},
            "guideHint": {
                "KPOGPNLFAAE": ""
            },
            "finishParent": true,
            "versionBegin": "",
            "versionEnd": ""
        }
    ]
}