{
    "id": 72917,
    "type": "WQ",
    "titleTextMapHash": 2042389919,
    "descTextMapHash": 2535794414,
    "rewardIdList": [
        553019
    ],
    "showType": "QUEST_HIDDEN",
    "subQuests": [
        {
            "subId": 7291701,
            "mainId": 72917,
            "order": 1,
            "showType": "QUEST_HIDDEN",
            "finishCond": [
                {
                    "type": "QUEST_CONTENT_COMPLETE_TALK",
                    "param": [
                        7291701,
                        0
                    ]
                }
            ],
            "guide": {},
            "guideHint": {
                "KPOGPNLFAAE": ""
            },
            "finishParent": true,
            "versionBegin": "",
            "versionEnd": ""
        }
    ]
}