{
    "id": 72928,
    "type": "WQ",
    "titleTextMapHash": 2954690639,
    "descTextMapHash": 4108715614,
    "rewardIdList": [
        553036
    ],
    "showType": "QUEST_HIDDEN",
    "subQuests": [
        {
            "subId": 7292801,
            "mainId": 72928,
            "order": 1,
            "showType": "QUEST_HIDDEN",
            "finishCond": [
                {
                    "type": "QUEST_CONTENT_COMPLETE_TALK",
                    "param": [
                        7292801,
                        0
                    ]
                }
            ],
            "guide": {},
            "guideHint": {
                "KPOGPNLFAAE": ""
            },
            "finishParent": true,
            "versionBegin": "",
            "versionEnd": ""
        }
    ]
}