{
    "id": 73010,
    "type": "WQ",
    "titleTextMapHash": 709293199,
    "showType": "QUEST_HIDDEN",
    "subQuests": [
        {
            "subId": 7301001,
            "mainId": 73010,
            "order": 1,
            "showType": "QUEST_HIDDEN",
            "finishCond": [
                {
                    "type": "QUEST_CONTENT_GAME_TIME_TICK",
                    "param": [
                        0,
                        0
                    ]
                }
            ],
            "guide": {},
            "guideHint": {
                "KPOGPNLFAAE": ""
            },
            "isRewind": true,
            "versionBegin": "",
            "versionEnd": ""
        },
        {
            "subId": 7301002,
            "mainId": 73010,
            "order": 2,
            "showType": "QUEST_HIDDEN",
            "finishCond": [
                {
                    "type": "QUEST_CONTENT_UNLOCK_TRANS_POINT",
                    "param": [
                        3,
                        462
                    ]
                }
            ],
            "guide": {},
            "guideHint": {
                "KPOGPNLFAAE": ""
            },
            "isRewind": true,
            "versionBegin": "",
            "versionEnd": ""
        },
        {
            "subId": 7301003,
            "mainId": 73010,
            "order": 3,
            "showType": "QUEST_HIDDEN",
            "finishCond": [
                {
                    "type": "QUEST_CONTENT_COMPLETE_TALK",
                    "param": [
                        7301001,
                        0
                    ]
                },
                {
                    "type": "QUEST_CONTENT_QUEST_STATE_EQUAL",
                    "param": [
                        7300403,
                        3
                    ]
                },
                {
                    "type": "QUEST_CONTENT_QUEST_STATE_EQUAL",
                    "param": [
                        7301103,
                        3
                    ]
                },
                {
                    "type": "QUEST_CONTENT_QUEST_STATE_EQUAL",
                    "param": [
                        7301203,
                        3
                    ]
                }
            ],
            "guide": {},
            "guideHint": {
                "KPOGPNLFAAE": ""
            },
            "finishParent": true,
            "finishExec": [
                {
                    "type": "QUEST_EXEC_REFRESH_GROUP_SUITE",
                    "param": [
                        "3",
                        "133301024,2"
                    ]
                },
                {
                    "type": "QUEST_EXEC_SET_QUEST_GLOBAL_VAR",
                    "param": [
                        "73101",
                        "1"
                    ]
                },
                {
                    "type": "QUEST_EXEC_SET_QUEST_GLOBAL_VAR",
                    "param": [
                        "300107",
                        "1"
                    ]
                }
            ],
            "versionBegin": "",
            "versionEnd": ""
        }
    ]
}