{
    "id": 73097,
    "type": "WQ",
    "titleTextMapHash": 2395438479,
    "showType": "QUEST_HIDDEN",
    "subQuests": [
        {
            "subId": 7309701,
            "mainId": 73097,
            "order": 1,
            "showType": "QUEST_HIDDEN",
            "guide": {},
            "showGuide": "QUEST_GUIDE_ITEM_DISABLE",
            "guideHint": {
                "KPOGPNLFAAE": ""
            },
            "isRewind": true,
            "finishExec": [
                {
                    "type": "QUEST_EXEC_MODIFY_ARANARA_COLLECTION_STATE",
                    "param": [
                        "1",
                        "8",
                        "1"
                    ]
                }
            ],
            "versionBegin": "",
            "versionEnd": ""
        },
        {
            "subId": 7309702,
            "mainId": 73097,
            "order": 2,
            "showType": "QUEST_HIDDEN",
            "finishCond": [
                {
                    "type": "QUEST_CONTENT_GADGET_STATE_CHANGE",
                    "param": [
                        133301172,
                        172002
                    ]
                },
                {
                    "type": "QUEST_CONTENT_GADGET_STATE_CHANGE",
                    "param": [
                        133301172,
                        172001
                    ]
                }
            ],
            "guide": {},
            "showGuide": "QUEST_GUIDE_ITEM_DISABLE",
            "guideHint": {
                "KPOGPNLFAAE": ""
            },
            "finishParent": true,
            "isRewind": true,
            "finishExec": [
                {
                    "type": "QUEST_EXEC_MODIFY_ARANARA_COLLECTION_STATE",
                    "param": [
                        "1",
                        "8",
                        "3"
                    ]
                },
                {
                    "type": "QUEST_EXEC_UNREGISTER_DYNAMIC_GROUP",
                    "param": [
                        "133301172",
                        "1"
                    ]
                }
            ],
            "versionBegin": "",
            "versionEnd": ""
        }
    ]
}