{
    "id": 73678,
    "type": "WQ",
    "mainQuestTag": "MAINQUEST_TAG_GUIDE",
    "titleTextMapHash": 2202833311,
    "descTextMapHash": 3823068038,
    "rewardIdList": [
        173678
    ],
    "subQuests": [
        {
            "subId": 7367801,
            "mainId": 73678,
            "order": 1,
            "descTextMapHash": 3246938156,
            "finishCond": [
                {
                    "type": "QUEST_CONTENT_COMPLETE_TALK",
                    "param": [
                        7367801,
                        0
                    ]
                }
            ],
            "guide": {
                "type": "QUEST_GUIDE_NPC",
                "param": [
                    "30246"
                ],
                "guideScene": 3,
                "guideStyle": "QUEST_GUIDE_STYLE_TARGET",
                "guideLayer": "QUEST_GUIDE_LAYER_SCENE"
            },
            "guideHint": {
                "KPOGPNLFAAE": ""
            },
            "isRewind": true,
            "versionBegin": "",
            "versionEnd": ""
        },
        {
            "subId": 7367802,
            "mainId": 73678,
            "order": 2,
            "descTextMapHash": 2514775268,
            "stepDescTextMapHash": 801076973,
            "finishCond": [
                {
                    "type": "QUEST_CONTENT_ACTIVITY_TRIGGER_UPDATE",
                    "param": [
                        2016,
                        102
                    ],
                    "count": 1
                }
            ],
            "guide": {
                "type": "QUEST_GUIDE_NPC",
                "param": [
                    "30246"
                ],
                "guideScene": 3,
                "guideStyle": "QUEST_GUIDE_STYLE_TARGET",
                "guideLayer": "QUEST_GUIDE_LAYER_SCENE"
            },
            "guideHint": {
                "KPOGPNLFAAE": ""
            },
            "finishParent": true,
            "isRewind": true,
            "versionBegin": "",
            "versionEnd": ""
        }
    ]
}