{
    "id": 73934,
    "type": "WQ",
    "titleTextMapHash": 2533755183,
    "descTextMapHash": 3837277790,
    "rewardIdList": [
        554016
    ],
    "showType": "QUEST_HIDDEN",
    "subQuests": [
        {
            "subId": 7393401,
            "mainId": 73934,
            "order": 1,
            "showType": "QUEST_HIDDEN",
            "finishCond": [
                {
                    "type": "QUEST_CONTENT_COMPLETE_TALK",
                    "param": [
                        7393401,
                        0
                    ]
                }
            ],
            "guide": {},
            "guideHint": {
                "KPOGPNLFAAE": ""
            },
            "finishParent": true,
            "versionBegin": "",
            "versionEnd": ""
        }
    ]
}