{
    "id": 74934,
    "type": "WQ",
    "titleTextMapHash": 1276996607,
    "descTextMapHash": 248516166,
    "rewardIdList": [
        555035
    ],
    "showType": "QUEST_HIDDEN",
    "subQuests": [
        {
            "subId": 7493401,
            "mainId": 74934,
            "order": 1,
            "showType": "QUEST_HIDDEN",
            "finishCond": [
                {
                    "type": "QUEST_CONTENT_COMPLETE_TALK",
                    "param": [
                        7493401,
                        0
                    ]
                }
            ],
            "guide": {},
            "guideHint": {
                "KPOGPNLFAAE": ""
            },
            "finishParent": true,
            "versionBegin": "",
            "versionEnd": ""
        }
    ]
}