{
    "id": 79055,
    "type": "WQ",
    "titleTextMapHash": 3671854959,
    "showType": "QUEST_HIDDEN",
    "subQuests": [
        {
            "subId": 7905501,
            "mainId": 79055,
            "order": 1,
            "descTextMapHash": 1629243884,
            "showType": "QUEST_HIDDEN",
            "finishCond": [
                {
                    "type": "QUEST_CONTENT_COMPLETE_TALK",
                    "param": [
                        7905501,
                        0
                    ]
                }
            ],
            "guide": {},
            "showGuide": "QUEST_GUIDE_ITEM_DISABLE",
            "guideHint": {
                "KPOGPNLFAAE": ""
            },
            "isRewind": true,
            "versionBegin": "",
            "versionEnd": ""
        },
        {
            "subId": 7905502,
            "mainId": 79055,
            "order": 2,
            "descTextMapHash": 940870748,
            "showType": "QUEST_HIDDEN",
            "finishCond": [
                {
                    "type": "QUEST_CONTENT_FINISH_PLOT",
                    "param": [
                        7905502,
                        0
                    ]
                }
            ],
            "guide": {},
            "showGuide": "QUEST_GUIDE_ITEM_DISABLE",
            "guideHint": {
                "KPOGPNLFAAE": ""
            },
            "isRewind": true,
            "versionBegin": "",
            "versionEnd": ""
        },
        {
            "subId": 7905503,
            "mainId": 79055,
            "order": 3,
            "descTextMapHash": 1821542164,
            "showType": "QUEST_HIDDEN",
            "finishCond": [
                {
                    "type": "QUEST_CONTENT_LUA_NOTIFY",
                    "param": [
                        0,
                        0
                    ],
                    "count": 1
                }
            ],
            "guide": {},
            "showGuide": "QUEST_GUIDE_ITEM_DISABLE",
            "guideHint": {
                "KPOGPNLFAAE": ""
            },
            "finishParent": true,
            "isRewind": true,
            "finishExec": [
                {
                    "type": "QUEST_EXEC_REFRESH_WORLD_QUEST_FLOW_GROUP_SUITE",
                    "param": [
                        "510020145,3"
                    ]
                }
            ],
            "versionBegin": "",
            "versionEnd": ""
        }
    ]
}