{
    "sceneId": 51028,
    "monsters": [
        {
            "groupId": 251028001,
            "mapInstId": 1001,
            "aiGroupID": 251028001,
            "MIJKAHHLOKD": true,
            "defendAreaRange": 15.0,
            "FKMENPJNOEM": true,
            "clearThreatTargetDistance": 15.0,
            "aiNeuronSetting": "DefaultSetting",
            "aiSensingTemplate": "DefaultTemplate",
            "OPOFAEBHLLK": "",
            "OGJHDDPDNKM": ""
        },
        {
            "groupId": 251028003,
            "mapInstId": 3020,
            "aiGroupID": 251028003,
            "aiNeuronSetting": "DefaultSetting",
            "aiSensingTemplate": "DefaultTemplate",
            "OPOFAEBHLLK": "",
            "OGJHDDPDNKM": ""
        },
        {
            "groupId": 251028003,
            "mapInstId": 3021,
            "aiGroupID": 251028003,
            "aiNeuronSetting": "DefaultSetting",
            "aiSensingTemplate": "DefaultTemplate",
            "OPOFAEBHLLK": "",
            "OGJHDDPDNKM": ""
        },
        {
            "groupId": 251028003,
            "mapInstId": 3059,
            "aiGroupID": 251028003,
            "aiNeuronSetting": "DefaultSetting",
            "aiSensingTemplate": "DefaultTemplate",
            "OPOFAEBHLLK": "",
            "OGJHDDPDNKM": ""
        },
        {
            "groupId": 251028003,
            "mapInstId": 3060,
            "aiGroupID": 251028003,
            "aiNeuronSetting": "DefaultSetting",
            "aiSensingTemplate": "DefaultTemplate",
            "OPOFAEBHLLK": "",
            "OGJHDDPDNKM": ""
        },
        {
            "groupId": 251028003,
            "mapInstId": 3095,
            "aiGroupID": 251028003,
            "aiNeuronSetting": "DefaultSetting",
            "aiSensingTemplate": "DefaultTemplate",
            "OPOFAEBHLLK": "",
            "OGJHDDPDNKM": ""
        },
        {
            "groupId": 251028004,
            "mapInstId": 4137,
            "aiGroupID": 251028004,
            "aiNeuronSetting": "DefaultSetting",
            "aiSensingTemplate": "DefaultTemplate",
            "OPOFAEBHLLK": "",
            "OGJHDDPDNKM": ""
        }
    ]
}