{
    "luaDataPath": "",
    "startBlackKeepTime": 0.800000011920929,
    "entityBan": "",
    "disableNpcLod": true,
    "startFade": {
        "startFadeInDuration": 0.5,
        "startFadeOutDuration": 0.5
    },
    "endFade": {
        "startFadeOutDuration": 0.0
    },
    "actors": [
        {
            "alias": "Avatar",
            "visible": true,
            "bornPointName": "Q4111213Player",
            "relativePosNpcAlias": "",
            "bindMovingTargetKey": ""
        },
        {
            "configID": 1005,
            "alias": "1005",
            "visible": true,
            "bornPointName": "Q4111213Paimon",
            "relativePosNpcAlias": "",
            "bindMovingTargetKey": ""
        },
        {
            "configID": 10095,
            "alias": "10095",
            "visible": true,
            "bornPointName": "Q4111409Mona",
            "relativePosNpcAlias": "",
            "bindMovingTargetKey": ""
        }
    ],
    "group": [
        [
            {
                "$type": "BCJBNCJOPCE",
                "type": "CAMERA_MOVE",
                "delayTime": 0.08441616594791412,
                "duration": 4.299676418304443,
                "AKFGKKEOEFA": {
                    "x": 1948.8441162109375,
                    "y": 222.2901153564453,
                    "z": -1507.151123046875
                },
                "NGEBMAEFFGJ": {
                    "x": 1948.802978515625,
                    "y": 222.41514587402344,
                    "z": -1506.1597900390625
                },
                "LIGHLBKBDEI": 50.0,
                "ABAEPHOGOFF": "Linear",
                "KFDBMBFFANN": {},
                "KIPMIDIKECP": "",
                "BDLGHOJPJHD": "",
                "LCOJGFEOLCK": "",
                "BBBGAEDCJEL": ""
            },
            {
                "$type": "BCJBNCJOPCE",
                "type": "CAMERA_MOVE",
                "delayTime": 4.431899547576904,
                "duration": 3.4921603202819824,
                "AKFGKKEOEFA": {
                    "x": 1953.17822265625,
                    "y": 224.826904296875,
                    "z": -1501.60595703125
                },
                "NGEBMAEFFGJ": {
                    "x": 1952.363525390625,
                    "y": 224.3592529296875,
                    "z": -1501.2630615234375
                },
                "LIGHLBKBDEI": 50.0,
                "ABAEPHOGOFF": "Linear",
                "KFDBMBFFANN": {},
                "KIPMIDIKECP": "",
                "BDLGHOJPJHD": "",
                "LCOJGFEOLCK": "",
                "BBBGAEDCJEL": ""
            },
            {
                "$type": "BCJBNCJOPCE",
                "type": "CAMERA_MOVE",
                "duration": 0.254323810338974,
                "AKFGKKEOEFA": {
                    "x": 1948.3299560546875,
                    "y": 221.25291442871094,
                    "z": -1506.9696044921875
                },
                "NGEBMAEFFGJ": {
                    "x": 1948.3421630859375,
                    "y": 221.46368408203125,
                    "z": -1505.9921875
                },
                "LIGHLBKBDEI": 50.0,
                "GFIOJGJJGCN": 6,
                "ABAEPHOGOFF": "EaseInOutCubic",
                "KFDBMBFFANN": {},
                "KIPMIDIKECP": "",
                "BDLGHOJPJHD": "",
                "LCOJGFEOLCK": "",
                "BBBGAEDCJEL": ""
            },
            {
                "$type": "BCJBNCJOPCE",
                "type": "CAMERA_MOVE",
                "delayTime": 7.979759693145752,
                "duration": 7.376350402832031,
                "AKFGKKEOEFA": {
                    "x": 1951.833984375,
                    "y": 223.30044555664062,
                    "z": -1500.2412109375
                },
                "NGEBMAEFFGJ": {
                    "x": 1950.9154052734375,
                    "y": 223.3238067626953,
                    "z": -1500.6357421875
                },
                "LIGHLBKBDEI": 20.0,
                "ABAEPHOGOFF": "EaseOutQuad",
                "KFDBMBFFANN": {},
                "KIPMIDIKECP": "",
                "BDLGHOJPJHD": "",
                "LCOJGFEOLCK": "",
                "BBBGAEDCJEL": ""
            },
            {
                "$type": "BCJBNCJOPCE",
                "type": "CAMERA_MOVE",
                "delayTime": 4.360294818878174,
                "duration": 0.10000000149011612,
                "AKFGKKEOEFA": {
                    "x": 1953.0662841796875,
                    "y": 224.83668518066406,
                    "z": -1501.8236083984375
                },
                "NGEBMAEFFGJ": {
                    "x": 1952.276123046875,
                    "y": 224.36373901367188,
                    "z": -1501.4337158203125
                },
                "LIGHLBKBDEI": 50.0,
                "GFIOJGJJGCN": 6,
                "ABAEPHOGOFF": "EaseInOutCubic",
                "KFDBMBFFANN": {},
                "KIPMIDIKECP": "",
                "BDLGHOJPJHD": "",
                "LCOJGFEOLCK": "",
                "BBBGAEDCJEL": ""
            },
            {
                "$type": "BCJBNCJOPCE",
                "type": "CAMERA_MOVE",
                "delayTime": 7.90854024887085,
                "duration": 0.10000000149011612,
                "AKFGKKEOEFA": {
                    "x": 1951.8634033203125,
                    "y": 223.3583984375,
                    "z": -1500.3199462890625
                },
                "NGEBMAEFFGJ": {
                    "x": 1950.9144287109375,
                    "y": 223.32176208496094,
                    "z": -1500.633056640625
                },
                "LIGHLBKBDEI": 20.0,
                "GFIOJGJJGCN": 6,
                "ABAEPHOGOFF": "EaseInOutCubic",
                "KFDBMBFFANN": {},
                "KIPMIDIKECP": "",
                "BDLGHOJPJHD": "",
                "LCOJGFEOLCK": "",
                "BBBGAEDCJEL": ""
            },
            {
                "$type": "MoleMole.Config.ConfigTimeProtectAction",
                "type": "TIME_PROTECT",
                "duration": 6.901044845581055
            },
            {
                "$type": "MoleMole.Config.ConfigMoveToAction",
                "type": "MOVE_TO",
                "aliasList": [
                    "Avatar"
                ],
                "routeList": [
                    {
                        "x": 1957.3543701171875,
                        "y": 222.05540466308594,
                        "z": -1502.86083984375
                    }
                ],
                "bindMovingTargetKey": ""
            },
            {
                "$type": "IBPNIIGAIPF",
                "type": "LOOK_AT",
                "aliasList": [
                    "Avatar"
                ],
                "GGIENKFBOGL": true,
                "useTargetPos": true,
                "GCOONJBHNIM": true,
                "JHNJNNOPJKG": {
                    "x": 1956.8955078125,
                    "y": 223.41879272460938,
                    "z": -1501.5701904296875
                },
                "NDOMJCOFKDJ": 0.30000001192092896,
                "KIPMIDIKECP": "",
                "HJJAFGPMJNJ": "",
                "AOFBAGFCGPJ": ""
            },
            {
                "$type": "CNBNGFNKLGP",
                "type": "STEER_TO",
                "aliasList": [
                    "Avatar"
                ],
                "KDKLEJFHDJG": {
                    "x": -0.8360355496406555,
                    "z": 0.5486752390861511
                },
                "KIPMIDIKECP": "",
                "AOFBAGFCGPJ": ""
            },
            {
                "$type": "KCBOGFFHPBD",
                "type": "BODY_LANG",
                "aliasList": [
                    "Avatar"
                ],
                "AHGOBCDHCMC": true,
                "FHLAMNNHMFA": true,
                "AOFEDPBOOIE": ""
            },
            {
                "$type": "CCEEIGNAILH",
                "type": "DIALOG",
                "delayTime": 6.474631309509277,
                "aliasList": [
                    "1005"
                ],
                "KICBIOMGHIN": 411140901,
                "PNCCODDABKI": 3.390000104904175
            },
            {
                "$type": "MoleMole.Config.ConfigMoveToAction",
                "type": "MOVE_TO",
                "aliasList": [
                    "1005"
                ],
                "routeList": [
                    {
                        "x": 1956.7498779296875,
                        "y": 222.0428924560547,
                        "z": -1503.13671875
                    }
                ],
                "bindMovingTargetKey": ""
            },
            {
                "$type": "IBPNIIGAIPF",
                "type": "LOOK_AT",
                "aliasList": [
                    "1005"
                ],
                "GGIENKFBOGL": true,
                "useTargetPos": true,
                "GCOONJBHNIM": true,
                "JHNJNNOPJKG": {
                    "x": 1956.3468017578125,
                    "y": 223.42391967773438,
                    "z": -1501.960205078125
                },
                "NDOMJCOFKDJ": 0.30000001192092896,
                "KIPMIDIKECP": "",
                "HJJAFGPMJNJ": "",
                "AOFBAGFCGPJ": ""
            },
            {
                "$type": "CNBNGFNKLGP",
                "type": "STEER_TO",
                "aliasList": [
                    "1005"
                ],
                "KIPMIDIKECP": "",
                "AOFBAGFCGPJ": ""
            },
            {
                "$type": "DNAEECJNBFB",
                "type": "EMO_SYNC",
                "delayTime": 6.474631309509277,
                "aliasList": [
                    "1005"
                ],
                "EOGJDJKPPGE": "Cs_Emo_Avatar_Simple_Common_Set/Cs_Emo_Avatar_Talk/Cs_Emo_Avatar_Event/Cs_Emo_Aster/Cs_Emo_411140901",
                "IHCBGPABDLE": "",
                "CIKPDMODFPL": "",
                "HDIAHFFHNGE": "",
                "BOAAGJEEFDD": "",
                "PFDPJKHPADE": "",
                "DALINBJAHOC": [
                    8878473318820303193,
                    10199034276198340474,
                    13316396779429899066,
                    1524658630465302506
                ]
            },
            {
                "$type": "MoleMole.Config.ConfigMoveToAction",
                "type": "MOVE_TO",
                "aliasList": [
                    "10095"
                ],
                "routeList": [
                    {
                        "x": 1950.879150390625,
                        "y": 221.93878173828125,
                        "z": -1500.559814453125
                    }
                ],
                "bindMovingTargetKey": ""
            },
            {
                "$type": "IBPNIIGAIPF",
                "type": "LOOK_AT",
                "delayTime": 8.439382553100586,
                "aliasList": [
                    "10095"
                ],
                "GGIENKFBOGL": true,
                "useTargetPos": true,
                "GCOONJBHNIM": true,
                "JHNJNNOPJKG": {
                    "x": 1953.145751953125,
                    "y": 223.3808135986328,
                    "z": -1501.4871826171875
                },
                "NDOMJCOFKDJ": 0.30000001192092896,
                "KIPMIDIKECP": "",
                "HJJAFGPMJNJ": "",
                "AOFBAGFCGPJ": ""
            },
            {
                "$type": "CNBNGFNKLGP",
                "type": "STEER_TO",
                "aliasList": [
                    "10095"
                ],
                "KDKLEJFHDJG": {
                    "x": -0.9245665669441223,
                    "z": 0.3810204267501831
                },
                "KIPMIDIKECP": "",
                "AOFBAGFCGPJ": ""
            },
            {
                "$type": "CNBNGFNKLGP",
                "type": "STEER_TO",
                "delayTime": 7.451423645019531,
                "duration": 1.0,
                "aliasList": [
                    "10095"
                ],
                "KDKLEJFHDJG": {
                    "x": 0.9001224637031555,
                    "z": -0.4356369078159332
                },
                "BBNLLCHBKAI": true,
                "KIPMIDIKECP": "",
                "AOFBAGFCGPJ": ""
            },
            {
                "$type": "IBPNIIGAIPF",
                "type": "LOOK_AT",
                "aliasList": [
                    "10095"
                ],
                "GGIENKFBOGL": true,
                "useTargetPos": true,
                "GCOONJBHNIM": true,
                "JHNJNNOPJKG": {
                    "x": 1945.51416015625,
                    "y": 223.3808135986328,
                    "z": -1498.027099609375
                },
                "NDOMJCOFKDJ": 0.30000001192092896,
                "KIPMIDIKECP": "",
                "HJJAFGPMJNJ": "",
                "AOFBAGFCGPJ": ""
            },
            {
                "$type": "IBPNIIGAIPF",
                "type": "LOOK_AT",
                "delayTime": 7.160168647766113,
                "aliasList": [
                    "10095"
                ],
                "GGIENKFBOGL": true,
                "useTargetPos": true,
                "GCOONJBHNIM": true,
                "JHNJNNOPJKG": {
                    "x": 1951.3341064453125,
                    "y": 223.3808135986328,
                    "z": -1502.119140625
                },
                "NDOMJCOFKDJ": 0.30000001192092896,
                "KIPMIDIKECP": "",
                "HJJAFGPMJNJ": "",
                "AOFBAGFCGPJ": ""
            }
        ],
        [
            {
                "$type": "BCJBNCJOPCE",
                "type": "CAMERA_MOVE",
                "delayTime": 1.8054022789001465,
                "duration": 2.6480584144592285,
                "AKFGKKEOEFA": {
                    "x": 1957.2637939453125,
                    "y": 227.41513061523438,
                    "z": -1501.1976318359375
                },
                "NGEBMAEFFGJ": {
                    "x": 1957.146240234375,
                    "y": 226.4754638671875,
                    "z": -1501.5189208984375
                },
                "LIGHLBKBDEI": 20.0,
                "ABAEPHOGOFF": "EaseOutQuad",
                "KFDBMBFFANN": {},
                "KIPMIDIKECP": "",
                "BDLGHOJPJHD": "",
                "LCOJGFEOLCK": "",
                "BBBGAEDCJEL": ""
            },
            {
                "$type": "BCJBNCJOPCE",
                "type": "CAMERA_MOVE",
                "delayTime": 1.75,
                "duration": 0.10000000149011612,
                "AKFGKKEOEFA": {
                    "x": 1957.2684326171875,
                    "y": 227.45175170898438,
                    "z": -1501.1851806640625
                },
                "NGEBMAEFFGJ": {
                    "x": 1957.15087890625,
                    "y": 226.5120849609375,
                    "z": -1501.5064697265625
                },
                "LIGHLBKBDEI": 20.0,
                "GFIOJGJJGCN": 6,
                "ABAEPHOGOFF": "EaseInOutCubic",
                "KFDBMBFFANN": {},
                "KIPMIDIKECP": "",
                "BDLGHOJPJHD": "",
                "LCOJGFEOLCK": "",
                "BBBGAEDCJEL": ""
            },
            {
                "$type": "MEKNGCBGKEJ",
                "type": "DIALOG_SELECT",
                "delayTime": 5.182753086090088,
                "aliasList": [
                    "Avatar"
                ],
                "MLAABINGLAA": [
                    411140903
                ],
                "HPBPDBFGKID": [
                    2715362653
                ],
                "CFJOJADDHHG": true
            },
            {
                "$type": "KCBOGFFHPBD",
                "type": "BODY_LANG",
                "delayTime": 4.207948684692383,
                "aliasList": [
                    "Avatar"
                ],
                "GPIEDGOMCGL": 1030,
                "FHLAMNNHMFA": true,
                "AOFEDPBOOIE": ""
            },
            {
                "$type": "CNBNGFNKLGP",
                "type": "STEER_TO",
                "aliasList": [
                    "Avatar"
                ],
                "KDKLEJFHDJG": {
                    "x": -0.9192036390304565,
                    "z": 0.3937825858592987
                },
                "KIPMIDIKECP": "",
                "AOFBAGFCGPJ": ""
            },
            {
                "$type": "CCEEIGNAILH",
                "type": "DIALOG",
                "aliasList": [
                    "10095"
                ],
                "KICBIOMGHIN": 411140902,
                "PNCCODDABKI": 5.309999942779541
            },
            {
                "$type": "MoleMole.Config.ConfigMoveToAction",
                "type": "MOVE_TO",
                "delayTime": 1.895965576171875,
                "aliasList": [
                    "10095"
                ],
                "moveType": "WALK",
                "routeList": [
                    {
                        "x": 1956.2696533203125,
                        "y": 222.05099487304688,
                        "z": -1501.91064453125
                    }
                ],
                "bindMovingTargetKey": ""
            },
            {
                "$type": "MoleMole.Config.ConfigMoveToAction",
                "type": "MOVE_TO",
                "delayTime": 0.5404325723648071,
                "aliasList": [
                    "10095"
                ],
                "moveType": "WALK",
                "routeList": [
                    {
                        "x": 1951.74560546875,
                        "y": 222.05099487304688,
                        "z": -1500.8839111328125
                    }
                ],
                "bindMovingTargetKey": ""
            },
            {
                "$type": "IBPNIIGAIPF",
                "type": "LOOK_AT",
                "aliasList": [
                    "10095"
                ],
                "GGIENKFBOGL": true,
                "useTargetPos": true,
                "GCOONJBHNIM": true,
                "JHNJNNOPJKG": {
                    "x": 1957.302490234375,
                    "y": 223.04904174804688,
                    "z": -1502.8251953125
                },
                "NDOMJCOFKDJ": 0.30000001192092896,
                "KIPMIDIKECP": "",
                "HJJAFGPMJNJ": "",
                "AOFBAGFCGPJ": ""
            },
            {
                "$type": "DNAEECJNBFB",
                "type": "EMO_SYNC",
                "aliasList": [
                    "10095"
                ],
                "EOGJDJKPPGE": "Cs_Emo_Avatar_Simple_Common_Set/Cs_Emo_Avatar_Talk/Cs_Emo_Avatar_Event/Cs_Emo_Aster/Cs_Emo_411140902",
                "IHCBGPABDLE": "",
                "CIKPDMODFPL": "",
                "HDIAHFFHNGE": "",
                "BOAAGJEEFDD": "",
                "PFDPJKHPADE": "",
                "DALINBJAHOC": [
                    267059518300160032,
                    5854345378253099990,
                    10270714378170196971,
                    7639062570340515005
                ]
            },
            {
                "$type": "MoleMole.Config.ConfigMoveToAction",
                "type": "MOVE_TO",
                "delayTime": 1.7999999523162842,
                "aliasList": [
                    "10095"
                ],
                "routeList": [
                    {
                        "x": 1955.492919921875,
                        "y": 222.01377868652344,
                        "z": -1500.9610595703125
                    }
                ],
                "bindMovingTargetKey": ""
            }
        ],
        [
            {
                "$type": "BCJBNCJOPCE",
                "type": "CAMERA_MOVE",
                "delayTime": 0.07537586987018585,
                "duration": 9.834049224853516,
                "AKFGKKEOEFA": {
                    "x": 1958.506591796875,
                    "y": 223.32688903808594,
                    "z": -1503.30615234375
                },
                "NGEBMAEFFGJ": {
                    "x": 1957.6390380859375,
                    "y": 223.35025024414062,
                    "z": -1502.809326171875
                },
                "LIGHLBKBDEI": 20.0,
                "ABAEPHOGOFF": "EaseOutQuad",
                "KFDBMBFFANN": {},
                "KIPMIDIKECP": "",
                "BDLGHOJPJHD": "",
                "LCOJGFEOLCK": "",
                "BBBGAEDCJEL": ""
            },
            {
                "$type": "BCJBNCJOPCE",
                "type": "CAMERA_MOVE",
                "duration": 0.3065420091152191,
                "AKFGKKEOEFA": {
                    "x": 1958.3751220703125,
                    "y": 223.35897827148438,
                    "z": -1503.3314208984375
                },
                "NGEBMAEFFGJ": {
                    "x": 1957.547119140625,
                    "y": 223.35833740234375,
                    "z": -1502.770751953125
                },
                "LIGHLBKBDEI": 20.0,
                "GFIOJGJJGCN": 6,
                "ABAEPHOGOFF": "EaseInOutCubic",
                "KFDBMBFFANN": {},
                "KIPMIDIKECP": "",
                "BDLGHOJPJHD": "",
                "LCOJGFEOLCK": "",
                "BBBGAEDCJEL": ""
            },
            {
                "$type": "KCBOGFFHPBD",
                "type": "BODY_LANG",
                "aliasList": [
                    "Avatar"
                ],
                "AHGOBCDHCMC": true,
                "FHLAMNNHMFA": true,
                "AOFEDPBOOIE": ""
            },
            {
                "$type": "CCEEIGNAILH",
                "type": "DIALOG",
                "aliasList": [
                    "10095"
                ],
                "KICBIOMGHIN": 411140904,
                "PNCCODDABKI": 1.1699999570846558
            },
            {
                "$type": "MoleMole.Config.ConfigMoveToAction",
                "type": "MOVE_TO",
                "aliasList": [
                    "10095"
                ],
                "routeList": [
                    {
                        "x": 1956.62890625,
                        "y": 222.05099487304688,
                        "z": -1501.904541015625
                    }
                ],
                "bindMovingTargetKey": ""
            },
            {
                "$type": "CNBNGFNKLGP",
                "type": "STEER_TO",
                "aliasList": [
                    "10095"
                ],
                "KDKLEJFHDJG": {
                    "x": 0.4101271629333496,
                    "z": -0.9120283126831055
                },
                "KIPMIDIKECP": "",
                "AOFBAGFCGPJ": ""
            },
            {
                "$type": "IBPNIIGAIPF",
                "type": "LOOK_AT",
                "aliasList": [
                    "10095"
                ],
                "GGIENKFBOGL": true,
                "useTargetPos": true,
                "GCOONJBHNIM": true,
                "JHNJNNOPJKG": {
                    "x": 1957.302490234375,
                    "y": 223.44378662109375,
                    "z": -1502.8251953125
                },
                "NDOMJCOFKDJ": 0.30000001192092896,
                "KIPMIDIKECP": "",
                "HJJAFGPMJNJ": "",
                "AOFBAGFCGPJ": ""
            },
            {
                "$type": "DNAEECJNBFB",
                "type": "EMO_SYNC",
                "aliasList": [
                    "10095"
                ],
                "EOGJDJKPPGE": "Cs_Emo_Avatar_Simple_Common_Set/Cs_Emo_Avatar_Talk/Cs_Emo_Avatar_Event/Cs_Emo_Aster/Cs_Emo_411140904",
                "IHCBGPABDLE": "",
                "CIKPDMODFPL": "",
                "HDIAHFFHNGE": "",
                "BOAAGJEEFDD": "",
                "PFDPJKHPADE": "",
                "DALINBJAHOC": [
                    14028688359248500150,
                    17064893018101840577,
                    4520128145862924863,
                    10783709428719710524
                ]
            }
        ],
        [
            {
                "$type": "CCEEIGNAILH",
                "type": "DIALOG",
                "aliasList": [
                    "10095"
                ],
                "KICBIOMGHIN": 411140905,
                "PNCCODDABKI": 0.7900000214576721
            },
            {
                "$type": "KCBOGFFHPBD",
                "type": "BODY_LANG",
                "aliasList": [
                    "10095"
                ],
                "GPIEDGOMCGL": 1220,
                "FHLAMNNHMFA": true,
                "AOFEDPBOOIE": ""
            },
            {
                "$type": "DNAEECJNBFB",
                "type": "EMO_SYNC",
                "aliasList": [
                    "10095"
                ],
                "EOGJDJKPPGE": "Cs_Emo_Avatar_Simple_Common_Set/Cs_Emo_Avatar_Talk/Cs_Emo_Avatar_Event/Cs_Emo_Aster/Cs_Emo_411140905",
                "IHCBGPABDLE": "",
                "CIKPDMODFPL": "",
                "HDIAHFFHNGE": "",
                "BOAAGJEEFDD": "",
                "PFDPJKHPADE": "",
                "DALINBJAHOC": [
                    3395179299539813355,
                    8675333064307113453,
                    5283311215420135009,
                    11127770194715408236
                ]
            }
        ],
        [
            {
                "$type": "BCJBNCJOPCE",
                "type": "CAMERA_MOVE",
                "delayTime": 2.9661788940429688,
                "duration": 3.7180919647216797,
                "AKFGKKEOEFA": {
                    "x": 1958.0958251953125,
                    "y": 223.2540283203125,
                    "z": -1502.3184814453125
                },
                "NGEBMAEFFGJ": {
                    "x": 1957.124267578125,
                    "y": 223.355224609375,
                    "z": -1502.1041259765625
                },
                "LIGHLBKBDEI": 10.0,
                "ABAEPHOGOFF": "EaseOutQuad",
                "KFDBMBFFANN": {},
                "KIPMIDIKECP": "",
                "BDLGHOJPJHD": "",
                "LCOJGFEOLCK": "",
                "BBBGAEDCJEL": ""
            },
            {
                "$type": "BCJBNCJOPCE",
                "type": "CAMERA_MOVE",
                "duration": 0.13108277320861816,
                "AKFGKKEOEFA": {
                    "x": 1958.7547607421875,
                    "y": 223.2194366455078,
                    "z": -1502.3980712890625
                },
                "NGEBMAEFFGJ": {
                    "x": 1957.77734375,
                    "y": 223.30270385742188,
                    "z": -1502.203857421875
                },
                "LIGHLBKBDEI": 10.0,
                "GFIOJGJJGCN": 6,
                "ABAEPHOGOFF": "EaseInOutCubic",
                "KFDBMBFFANN": {},
                "KIPMIDIKECP": "",
                "BDLGHOJPJHD": "",
                "LCOJGFEOLCK": "",
                "BBBGAEDCJEL": ""
            },
            {
                "$type": "BCJBNCJOPCE",
                "type": "CAMERA_MOVE",
                "delayTime": 0.07230009138584137,
                "duration": 2.631194829940796,
                "AKFGKKEOEFA": {
                    "x": 1958.73828125,
                    "y": 223.18710327148438,
                    "z": -1502.460205078125
                },
                "NGEBMAEFFGJ": {
                    "x": 1957.7667236328125,
                    "y": 223.28829956054688,
                    "z": -1502.245849609375
                },
                "LIGHLBKBDEI": 10.0,
                "ABAEPHOGOFF": "Linear",
                "KFDBMBFFANN": {},
                "KIPMIDIKECP": "",
                "BDLGHOJPJHD": "",
                "LCOJGFEOLCK": "",
                "BBBGAEDCJEL": ""
            },
            {
                "$type": "BCJBNCJOPCE",
                "type": "CAMERA_MOVE",
                "delayTime": 2.689735174179077,
                "duration": 0.2926691472530365,
                "AKFGKKEOEFA": {
                    "x": 1958.177490234375,
                    "y": 223.24551391601562,
                    "z": -1502.3365478515625
                },
                "NGEBMAEFFGJ": {
                    "x": 1957.2059326171875,
                    "y": 223.34671020507812,
                    "z": -1502.1221923828125
                },
                "LIGHLBKBDEI": 10.0,
                "ABAEPHOGOFF": "EaseOutQuad",
                "KFDBMBFFANN": {},
                "KIPMIDIKECP": "",
                "BDLGHOJPJHD": "",
                "LCOJGFEOLCK": "",
                "BBBGAEDCJEL": ""
            },
            {
                "$type": "CCEEIGNAILH",
                "type": "DIALOG",
                "aliasList": [
                    "10095"
                ],
                "KICBIOMGHIN": 411140906,
                "PNCCODDABKI": 1.5499999523162842
            },
            {
                "$type": "KCBOGFFHPBD",
                "type": "BODY_LANG",
                "aliasList": [
                    "10095"
                ],
                "AHGOBCDHCMC": true,
                "FHLAMNNHMFA": true,
                "AOFEDPBOOIE": ""
            },
            {
                "$type": "IBPNIIGAIPF",
                "type": "LOOK_AT",
                "delayTime": 2.620004653930664,
                "aliasList": [
                    "10095"
                ],
                "GGIENKFBOGL": true,
                "useTargetPos": true,
                "GCOONJBHNIM": true,
                "JHNJNNOPJKG": {
                    "x": 1957.302490234375,
                    "y": 223.1697235107422,
                    "z": -1502.8251953125
                },
                "NDOMJCOFKDJ": 0.20000000298023224,
                "KIPMIDIKECP": "",
                "HJJAFGPMJNJ": "",
                "AOFBAGFCGPJ": ""
            },
            {
                "$type": "DNAEECJNBFB",
                "type": "EMO_SYNC",
                "aliasList": [
                    "10095"
                ],
                "EOGJDJKPPGE": "Cs_Emo_Avatar_Simple_Common_Set/Cs_Emo_Avatar_Talk/Cs_Emo_Avatar_Event/Cs_Emo_Aster/Cs_Emo_411140906",
                "IHCBGPABDLE": "",
                "CIKPDMODFPL": "",
                "HDIAHFFHNGE": "",
                "BOAAGJEEFDD": "",
                "PFDPJKHPADE": "",
                "DALINBJAHOC": [
                    16600858803832560714,
                    12486609836073235978,
                    8265516860580808465,
                    1410018131291212200
                ]
            }
        ],
        [
            {
                "$type": "BCJBNCJOPCE",
                "type": "CAMERA_MOVE",
                "delayTime": 0.09680512547492981,
                "duration": 9.036389350891113,
                "AKFGKKEOEFA": {
                    "x": 1956.34521484375,
                    "y": 224.31895446777344,
                    "z": -1501.2100830078125
                },
                "NGEBMAEFFGJ": {
                    "x": 1956.6927490234375,
                    "y": 223.786376953125,
                    "z": -1501.9818115234375
                },
                "LIGHLBKBDEI": 30.0,
                "ABAEPHOGOFF": "EaseOutQuad",
                "KFDBMBFFANN": {},
                "KIPMIDIKECP": "",
                "BDLGHOJPJHD": "",
                "LCOJGFEOLCK": "",
                "BBBGAEDCJEL": ""
            },
            {
                "$type": "BCJBNCJOPCE",
                "type": "CAMERA_MOVE",
                "duration": 0.28234073519706726,
                "AKFGKKEOEFA": {
                    "x": 1956.655517578125,
                    "y": 224.3312225341797,
                    "z": -1501.11962890625
                },
                "NGEBMAEFFGJ": {
                    "x": 1956.83447265625,
                    "y": 223.79864501953125,
                    "z": -1501.9468994140625
                },
                "LIGHLBKBDEI": 30.0,
                "GFIOJGJJGCN": 6,
                "ABAEPHOGOFF": "EaseInOutCubic",
                "KFDBMBFFANN": {},
                "KIPMIDIKECP": "",
                "BDLGHOJPJHD": "",
                "LCOJGFEOLCK": "",
                "BBBGAEDCJEL": ""
            },
            {
                "$type": "IBPNIIGAIPF",
                "type": "LOOK_AT",
                "aliasList": [
                    "Avatar"
                ],
                "GGIENKFBOGL": true,
                "useTargetPos": true,
                "GCOONJBHNIM": true,
                "JHNJNNOPJKG": {
                    "x": 1956.6141357421875,
                    "y": 223.1765899658203,
                    "z": -1502.1494140625
                },
                "NDOMJCOFKDJ": 0.30000001192092896,
                "KIPMIDIKECP": "",
                "HJJAFGPMJNJ": "",
                "AOFBAGFCGPJ": ""
            },
            {
                "$type": "KCBOGFFHPBD",
                "type": "BODY_LANG",
                "delayTime": 0.7814359664916992,
                "aliasList": [
                    "Avatar"
                ],
                "GPIEDGOMCGL": 1230,
                "FHLAMNNHMFA": true,
                "AOFEDPBOOIE": ""
            },
            {
                "$type": "IBPNIIGAIPF",
                "type": "LOOK_AT",
                "aliasList": [
                    "1005"
                ],
                "GGIENKFBOGL": true,
                "useTargetPos": true,
                "GCOONJBHNIM": true,
                "JHNJNNOPJKG": {
                    "x": 1956.64453125,
                    "y": 223.20289611816406,
                    "z": -1502.2113037109375
                },
                "NDOMJCOFKDJ": 0.30000001192092896,
                "KIPMIDIKECP": "",
                "HJJAFGPMJNJ": "",
                "AOFBAGFCGPJ": ""
            },
            {
                "$type": "CNBNGFNKLGP",
                "type": "STEER_TO",
                "aliasList": [
                    "1005"
                ],
                "KDKLEJFHDJG": {
                    "x": 0.06828512996435165,
                    "z": 0.9976658225059509
                },
                "KIPMIDIKECP": "",
                "AOFBAGFCGPJ": ""
            },
            {
                "$type": "KCBOGFFHPBD",
                "type": "BODY_LANG",
                "delayTime": 3.9003748893737793,
                "aliasList": [
                    "1005"
                ],
                "GPIEDGOMCGL": 1260,
                "FHLAMNNHMFA": true,
                "AOFEDPBOOIE": ""
            },
            {
                "$type": "KCBOGFFHPBD",
                "type": "BODY_LANG",
                "delayTime": 1.8916685581207275,
                "aliasList": [
                    "1005"
                ],
                "GPIEDGOMCGL": 1060,
                "FHLAMNNHMFA": true,
                "AOFEDPBOOIE": ""
            },
            {
                "$type": "CCEEIGNAILH",
                "type": "DIALOG",
                "aliasList": [
                    "10095"
                ],
                "KICBIOMGHIN": 411140907,
                "PNCCODDABKI": 2.2200000286102295
            },
            {
                "$type": "KCBOGFFHPBD",
                "type": "BODY_LANG",
                "aliasList": [
                    "10095"
                ],
                "GPIEDGOMCGL": 1180,
                "FHLAMNNHMFA": true,
                "AOFEDPBOOIE": ""
            },
            {
                "$type": "CNBNGFNKLGP",
                "type": "STEER_TO",
                "aliasList": [
                    "10095"
                ],
                "KDKLEJFHDJG": {
                    "x": 0.29184049367904663,
                    "z": -0.9564669728279114
                },
                "KIPMIDIKECP": "",
                "AOFBAGFCGPJ": ""
            },
            {
                "$type": "IBPNIIGAIPF",
                "type": "LOOK_AT",
                "aliasList": [
                    "10095"
                ],
                "GGIENKFBOGL": true,
                "useTargetPos": true,
                "GCOONJBHNIM": true,
                "JHNJNNOPJKG": {
                    "x": 1957.1400146484375,
                    "y": 223.07203674316406,
                    "z": -1502.9276123046875
                },
                "NDOMJCOFKDJ": 0.4000000059604645,
                "KIPMIDIKECP": "",
                "HJJAFGPMJNJ": "",
                "AOFBAGFCGPJ": ""
            },
            {
                "$type": "DNAEECJNBFB",
                "type": "EMO_SYNC",
                "aliasList": [
                    "10095"
                ],
                "EOGJDJKPPGE": "Cs_Emo_Avatar_Simple_Common_Set/Cs_Emo_Avatar_Talk/Cs_Emo_Avatar_Event/Cs_Emo_Aster/Cs_Emo_411140907",
                "IHCBGPABDLE": "",
                "CIKPDMODFPL": "",
                "HDIAHFFHNGE": "",
                "BOAAGJEEFDD": "",
                "PFDPJKHPADE": "",
                "DALINBJAHOC": [
                    9968392650704893545,
                    17764490052132011495,
                    10006240479065627144,
                    8015066261032694625
                ]
            }
        ],
        [
            {
                "$type": "MoleMole.Config.ConfigBlackScreenAction",
                "type": "BLACK_SCREEN",
                "delayTime": 0.5,
                "duration": 2.0,
                "blackScreenType": "KEEP_BLACK",
                "durationKeepBlack": 2.0,
                "inteePos": "",
                "textMapID": "QUEST_Message_Q4111401"
            },
            {
                "$type": "CCEEIGNAILH",
                "type": "DIALOG_CLEAR",
                "KICBIOMGHIN": 411140907
            },
            {
                "$type": "MoleMole.Config.ConfigTimeProtectAction",
                "type": "TIME_PROTECT",
                "duration": 2.5
            },
            {
                "$type": "MoleMole.Config.ConfigBlackScreenAction",
                "type": "BLACK_SCREEN",
                "duration": 0.5,
                "blackScreenType": "TO_BLACK",
                "durationToBlack": 0.5,
                "inteePos": "",
                "textMapID": "QUEST_Message_Q4111401"
            }
        ],
        [
            {
                "$type": "BCJBNCJOPCE",
                "type": "CAMERA_MOVE",
                "duration": 0.28234073519706726,
                "AKFGKKEOEFA": {
                    "x": 1957.859375,
                    "y": 223.31512451171875,
                    "z": -1502.396240234375
                },
                "NGEBMAEFFGJ": {
                    "x": 1956.9068603515625,
                    "y": 223.3983917236328,
                    "z": -1502.103515625
                },
                "LIGHLBKBDEI": 20.0,
                "GFIOJGJJGCN": 6,
                "ABAEPHOGOFF": "EaseInOutCubic",
                "KFDBMBFFANN": {},
                "KIPMIDIKECP": "",
                "BDLGHOJPJHD": "",
                "LCOJGFEOLCK": "",
                "BBBGAEDCJEL": ""
            },
            {
                "$type": "MoleMole.Config.ConfigBlackScreenAction",
                "type": "BLACK_SCREEN",
                "duration": 0.5,
                "blackScreenType": "FROM_BLACK",
                "durationFromBlack": 0.5,
                "inteePos": "",
                "textMapID": "QUEST_Message_Q4111401"
            },
            {
                "$type": "CCEEIGNAILH",
                "type": "DIALOG",
                "aliasList": [
                    "10095"
                ],
                "KICBIOMGHIN": 411140908,
                "PNCCODDABKI": 0.949999988079071
            },
            {
                "$type": "KCBOGFFHPBD",
                "type": "BODY_LANG",
                "aliasList": [
                    "10095"
                ],
                "AHGOBCDHCMC": true,
                "FHLAMNNHMFA": true,
                "AOFEDPBOOIE": ""
            },
            {
                "$type": "IBPNIIGAIPF",
                "type": "LOOK_AT",
                "aliasList": [
                    "10095"
                ],
                "GGIENKFBOGL": true,
                "useTargetPos": true,
                "GCOONJBHNIM": true,
                "JHNJNNOPJKG": {
                    "x": 1957.1400146484375,
                    "y": 223.4742431640625,
                    "z": -1502.9276123046875
                },
                "NDOMJCOFKDJ": 0.5,
                "KIPMIDIKECP": "",
                "HJJAFGPMJNJ": "",
                "AOFBAGFCGPJ": ""
            },
            {
                "$type": "DNAEECJNBFB",
                "type": "EMO_SYNC",
                "aliasList": [
                    "10095"
                ],
                "EOGJDJKPPGE": "Cs_Emo_Avatar_Simple_Common_Set/Cs_Emo_Avatar_Talk/Cs_Emo_Avatar_Event/Cs_Emo_Aster/Cs_Emo_411140908",
                "IHCBGPABDLE": "",
                "CIKPDMODFPL": "",
                "HDIAHFFHNGE": "",
                "BOAAGJEEFDD": "",
                "PFDPJKHPADE": "",
                "DALINBJAHOC": [
                    10103923922560373185,
                    7546534618169361766,
                    12702341669554852493,
                    11730409155970010487
                ]
            }
        ],
        [
            {
                "$type": "BCJBNCJOPCE",
                "type": "CAMERA_MOVE",
                "duration": 0.28234073519706726,
                "AKFGKKEOEFA": {
                    "x": 1957.0550537109375,
                    "y": 223.34677124023438,
                    "z": -1500.995849609375
                },
                "NGEBMAEFFGJ": {
                    "x": 1956.794189453125,
                    "y": 223.3641357421875,
                    "z": -1501.9610595703125
                },
                "LIGHLBKBDEI": 20.0,
                "GFIOJGJJGCN": 6,
                "ABAEPHOGOFF": "EaseInOutCubic",
                "KFDBMBFFANN": {},
                "KIPMIDIKECP": "",
                "BDLGHOJPJHD": "",
                "LCOJGFEOLCK": "",
                "BBBGAEDCJEL": ""
            },
            {
                "$type": "CCEEIGNAILH",
                "type": "DIALOG",
                "aliasList": [
                    "1005"
                ],
                "KICBIOMGHIN": 411140909,
                "PNCCODDABKI": 0.6800000071525574
            },
            {
                "$type": "IBPNIIGAIPF",
                "type": "LOOK_AT",
                "aliasList": [
                    "1005"
                ],
                "GGIENKFBOGL": true,
                "useTargetPos": true,
                "GCOONJBHNIM": true,
                "JHNJNNOPJKG": {
                    "x": 1956.7093505859375,
                    "y": 223.42391967773438,
                    "z": -1502.3741455078125
                },
                "NDOMJCOFKDJ": 0.4000000059604645,
                "KIPMIDIKECP": "",
                "HJJAFGPMJNJ": "",
                "AOFBAGFCGPJ": ""
            },
            {
                "$type": "KCBOGFFHPBD",
                "type": "BODY_LANG",
                "aliasList": [
                    "1005"
                ],
                "GPIEDGOMCGL": 1090,
                "FHLAMNNHMFA": true,
                "AOFEDPBOOIE": ""
            },
            {
                "$type": "DNAEECJNBFB",
                "type": "EMO_SYNC",
                "aliasList": [
                    "1005"
                ],
                "EOGJDJKPPGE": "Cs_Emo_Avatar_Simple_Common_Set/Cs_Emo_Avatar_Talk/Cs_Emo_Avatar_Event/Cs_Emo_Aster/Cs_Emo_411140909",
                "IHCBGPABDLE": "",
                "CIKPDMODFPL": "",
                "HDIAHFFHNGE": "",
                "BOAAGJEEFDD": "",
                "PFDPJKHPADE": "",
                "DALINBJAHOC": [
                    7637503455074290886,
                    10842744841104105959,
                    6446951186231259894,
                    1037820319334314568
                ]
            }
        ],
        [
            {
                "$type": "BCJBNCJOPCE",
                "type": "CAMERA_MOVE",
                "delayTime": 0.07227716594934464,
                "duration": 13.392669677734375,
                "AKFGKKEOEFA": {
                    "x": 1957.881103515625,
                    "y": 223.3519287109375,
                    "z": -1504.66796875
                },
                "NGEBMAEFFGJ": {
                    "x": 1957.44287109375,
                    "y": 223.34829711914062,
                    "z": -1503.7691650390625
                },
                "LIGHLBKBDEI": 20.0,
                "ABAEPHOGOFF": "EaseOutQuad",
                "KFDBMBFFANN": {},
                "KIPMIDIKECP": "",
                "BDLGHOJPJHD": "",
                "LCOJGFEOLCK": "",
                "BBBGAEDCJEL": ""
            },
            {
                "$type": "BCJBNCJOPCE",
                "type": "CAMERA_MOVE",
                "duration": 0.28234073519706726,
                "AKFGKKEOEFA": {
                    "x": 1957.775146484375,
                    "y": 223.34947204589844,
                    "z": -1504.424072265625
                },
                "NGEBMAEFFGJ": {
                    "x": 1957.3369140625,
                    "y": 223.34584045410156,
                    "z": -1503.5252685546875
                },
                "LIGHLBKBDEI": 20.0,
                "GFIOJGJJGCN": 6,
                "ABAEPHOGOFF": "EaseInOutCubic",
                "KFDBMBFFANN": {},
                "KIPMIDIKECP": "",
                "BDLGHOJPJHD": "",
                "LCOJGFEOLCK": "",
                "BBBGAEDCJEL": ""
            },
            {
                "$type": "KCBOGFFHPBD",
                "type": "BODY_LANG",
                "aliasList": [
                    "Avatar"
                ],
                "AHGOBCDHCMC": true,
                "FHLAMNNHMFA": true,
                "AOFEDPBOOIE": ""
            },
            {
                "$type": "MoleMole.Config.ConfigMoveToAction",
                "type": "MOVE_TO",
                "aliasList": [
                    "Avatar"
                ],
                "routeList": [
                    {
                        "x": 1957.443603515625,
                        "y": 222.03604125976562,
                        "z": -1502.76220703125
                    }
                ],
                "bindMovingTargetKey": ""
            },
            {
                "$type": "IBPNIIGAIPF",
                "type": "LOOK_AT",
                "aliasList": [
                    "Avatar"
                ],
                "GGIENKFBOGL": true,
                "useTargetPos": true,
                "GCOONJBHNIM": true,
                "JHNJNNOPJKG": {
                    "x": 1956.8673095703125,
                    "y": 223.42391967773438,
                    "z": -1502.171142578125
                },
                "NDOMJCOFKDJ": 0.4000000059604645,
                "KIPMIDIKECP": "",
                "HJJAFGPMJNJ": "",
                "AOFBAGFCGPJ": ""
            },
            {
                "$type": "CCEEIGNAILH",
                "type": "DIALOG",
                "aliasList": [
                    "10095"
                ],
                "KICBIOMGHIN": 411140910,
                "PNCCODDABKI": 1.559999942779541
            },
            {
                "$type": "KCBOGFFHPBD",
                "type": "BODY_LANG",
                "aliasList": [
                    "10095"
                ],
                "GPIEDGOMCGL": 1130,
                "FHLAMNNHMFA": true,
                "AOFEDPBOOIE": ""
            },
            {
                "$type": "IBPNIIGAIPF",
                "type": "LOOK_AT",
                "aliasList": [
                    "10095"
                ],
                "GGIENKFBOGL": true,
                "useTargetPos": true,
                "GCOONJBHNIM": true,
                "JHNJNNOPJKG": {
                    "x": 1956.8592529296875,
                    "y": 223.34652709960938,
                    "z": -1503.1654052734375
                },
                "NDOMJCOFKDJ": 0.4000000059604645,
                "KIPMIDIKECP": "",
                "HJJAFGPMJNJ": "",
                "AOFBAGFCGPJ": ""
            },
            {
                "$type": "DNAEECJNBFB",
                "type": "EMO_SYNC",
                "aliasList": [
                    "10095"
                ],
                "EOGJDJKPPGE": "Cs_Emo_Avatar_Simple_Common_Set/Cs_Emo_Avatar_Talk/Cs_Emo_Avatar_Event/Cs_Emo_Aster/Cs_Emo_411140910",
                "IHCBGPABDLE": "",
                "CIKPDMODFPL": "",
                "HDIAHFFHNGE": "",
                "BOAAGJEEFDD": "",
                "PFDPJKHPADE": "",
                "DALINBJAHOC": [
                    204534036463025053,
                    13181857728483219400,
                    1015807491421537888,
                    2347816054471878987
                ]
            }
        ],
        [
            {
                "$type": "CCEEIGNAILH",
                "type": "DIALOG",
                "aliasList": [
                    "10095"
                ],
                "KICBIOMGHIN": 411140911,
                "PNCCODDABKI": 1.3799999952316284
            },
            {
                "$type": "IBPNIIGAIPF",
                "type": "LOOK_AT",
                "aliasList": [
                    "10095"
                ],
                "GGIENKFBOGL": true,
                "useTargetPos": true,
                "GCOONJBHNIM": true,
                "JHNJNNOPJKG": {
                    "x": 1957.348876953125,
                    "y": 223.31112670898438,
                    "z": -1502.782958984375
                },
                "IDICBCPKDPM": true,
                "NDOMJCOFKDJ": 0.5,
                "KIPMIDIKECP": "",
                "HJJAFGPMJNJ": "",
                "AOFBAGFCGPJ": ""
            },
            {
                "$type": "KCBOGFFHPBD",
                "type": "BODY_LANG",
                "aliasList": [
                    "10095"
                ],
                "AHGOBCDHCMC": true,
                "FHLAMNNHMFA": true,
                "AOFEDPBOOIE": ""
            },
            {
                "$type": "DNAEECJNBFB",
                "type": "EMO_SYNC",
                "aliasList": [
                    "10095"
                ],
                "EOGJDJKPPGE": "Cs_Emo_Avatar_Simple_Common_Set/Cs_Emo_Avatar_Talk/Cs_Emo_Avatar_Event/Cs_Emo_Aster/Cs_Emo_411140911",
                "IHCBGPABDLE": "",
                "CIKPDMODFPL": "",
                "HDIAHFFHNGE": "",
                "BOAAGJEEFDD": "",
                "PFDPJKHPADE": "",
                "DALINBJAHOC": [
                    10913974360467325905,
                    17178917869051096464,
                    13472244200216370284,
                    6187809557485158587
                ]
            }
        ],
        [
            {
                "$type": "BCJBNCJOPCE",
                "type": "CAMERA_MOVE",
                "delayTime": 0.051000840961933136,
                "duration": 10.380504608154297,
                "AKFGKKEOEFA": {
                    "x": 1957.76513671875,
                    "y": 223.41781616210938,
                    "z": -1501.57177734375
                },
                "NGEBMAEFFGJ": {
                    "x": 1957.3167724609375,
                    "y": 223.4141845703125,
                    "z": -1502.465576171875
                },
                "LIGHLBKBDEI": 20.0,
                "ABAEPHOGOFF": "EaseOutQuad",
                "KFDBMBFFANN": {},
                "KIPMIDIKECP": "",
                "BDLGHOJPJHD": "",
                "LCOJGFEOLCK": "",
                "BBBGAEDCJEL": ""
            },
            {
                "$type": "BCJBNCJOPCE",
                "type": "CAMERA_MOVE",
                "duration": 0.28234073519706726,
                "AKFGKKEOEFA": {
                    "x": 1957.834716796875,
                    "y": 223.4144287109375,
                    "z": -1501.6927490234375
                },
                "NGEBMAEFFGJ": {
                    "x": 1957.3104248046875,
                    "y": 223.41378784179688,
                    "z": -1502.5443115234375
                },
                "LIGHLBKBDEI": 20.0,
                "GFIOJGJJGCN": 6,
                "ABAEPHOGOFF": "EaseInOutCubic",
                "KFDBMBFFANN": {},
                "KIPMIDIKECP": "",
                "BDLGHOJPJHD": "",
                "LCOJGFEOLCK": "",
                "BBBGAEDCJEL": ""
            },
            {
                "$type": "CCEEIGNAILH",
                "type": "DIALOG",
                "aliasList": [
                    "1005"
                ],
                "KICBIOMGHIN": 411140912,
                "PNCCODDABKI": 1.5
            },
            {
                "$type": "KCBOGFFHPBD",
                "type": "BODY_LANG",
                "aliasList": [
                    "1005"
                ],
                "AHGOBCDHCMC": true,
                "FHLAMNNHMFA": true,
                "AOFEDPBOOIE": ""
            },
            {
                "$type": "KCBOGFFHPBD",
                "type": "BODY_LANG",
                "delayTime": 1.694844126701355,
                "aliasList": [
                    "1005"
                ],
                "GPIEDGOMCGL": 1110,
                "FHLAMNNHMFA": true,
                "AOFEDPBOOIE": ""
            },
            {
                "$type": "KCBOGFFHPBD",
                "type": "BODY_LANG",
                "delayTime": 3.709383010864258,
                "aliasList": [
                    "1005"
                ],
                "AHGOBCDHCMC": true,
                "FHLAMNNHMFA": true,
                "AOFEDPBOOIE": ""
            },
            {
                "$type": "DNAEECJNBFB",
                "type": "EMO_SYNC",
                "aliasList": [
                    "1005"
                ],
                "EOGJDJKPPGE": "Cs_Emo_Avatar_Simple_Common_Set/Cs_Emo_Avatar_Talk/Cs_Emo_Avatar_Event/Cs_Emo_Aster/Cs_Emo_411140912",
                "IHCBGPABDLE": "",
                "CIKPDMODFPL": "",
                "HDIAHFFHNGE": "",
                "BOAAGJEEFDD": "",
                "PFDPJKHPADE": "",
                "DALINBJAHOC": [
                    9678531047664970767,
                    9530700536223989679,
                    5355982625676344302,
                    6149061386881013195
                ]
            }
        ],
        [
            {
                "$type": "BCJBNCJOPCE",
                "type": "CAMERA_MOVE",
                "delayTime": 0.10200168192386627,
                "duration": 33.2543830871582,
                "AKFGKKEOEFA": {
                    "x": 1982.08154296875,
                    "y": 223.64317321777344,
                    "z": -1530.5091552734375
                },
                "NGEBMAEFFGJ": {
                    "x": 1981.3673095703125,
                    "y": 223.62753295898438,
                    "z": -1529.8094482421875
                },
                "LIGHLBKBDEI": 10.0,
                "ABAEPHOGOFF": "EaseOutQuad",
                "KFDBMBFFANN": {},
                "KIPMIDIKECP": "",
                "BDLGHOJPJHD": "",
                "LCOJGFEOLCK": "",
                "BBBGAEDCJEL": ""
            },
            {
                "$type": "BCJBNCJOPCE",
                "type": "CAMERA_MOVE",
                "duration": 0.28234073519706726,
                "AKFGKKEOEFA": {
                    "x": 1981.6416015625,
                    "y": 223.66558837890625,
                    "z": -1530.93896484375
                },
                "NGEBMAEFFGJ": {
                    "x": 1980.9508056640625,
                    "y": 223.6499481201172,
                    "z": -1530.216064453125
                },
                "LIGHLBKBDEI": 10.0,
                "GFIOJGJJGCN": 6,
                "ABAEPHOGOFF": "EaseInOutCubic",
                "KFDBMBFFANN": {},
                "KIPMIDIKECP": "",
                "BDLGHOJPJHD": "",
                "LCOJGFEOLCK": "",
                "BBBGAEDCJEL": ""
            },
            {
                "$type": "CCEEIGNAILH",
                "type": "DIALOG",
                "aliasList": [
                    "10095"
                ],
                "KICBIOMGHIN": 411140913,
                "PNCCODDABKI": 2.049999952316284
            },
            {
                "$type": "MoleMole.Config.ConfigMoveToAction",
                "type": "MOVE_TO",
                "aliasList": [
                    "10095"
                ],
                "routeList": [
                    {
                        "x": 1956.40625,
                        "y": 222.05099487304688,
                        "z": -1501.9090576171875
                    }
                ],
                "bindMovingTargetKey": ""
            },
            {
                "$type": "KCBOGFFHPBD",
                "type": "BODY_LANG",
                "aliasList": [
                    "10095"
                ],
                "GPIEDGOMCGL": 1171,
                "FHLAMNNHMFA": true,
                "AOFEDPBOOIE": ""
            },
            {
                "$type": "KCBOGFFHPBD",
                "type": "BODY_LANG",
                "delayTime": 4.1355671882629395,
                "aliasList": [
                    "10095"
                ],
                "GPIEDGOMCGL": 1172,
                "FHLAMNNHMFA": true,
                "AOFEDPBOOIE": ""
            },
            {
                "$type": "DNAEECJNBFB",
                "type": "EMO_SYNC",
                "aliasList": [
                    "10095"
                ],
                "EOGJDJKPPGE": "Cs_Emo_Avatar_Simple_Common_Set/Cs_Emo_Avatar_Talk/Cs_Emo_Avatar_Event/Cs_Emo_Aster/Cs_Emo_411140913",
                "IHCBGPABDLE": "",
                "CIKPDMODFPL": "",
                "HDIAHFFHNGE": "",
                "BOAAGJEEFDD": "",
                "PFDPJKHPADE": "",
                "DALINBJAHOC": [
                    13042366750492145395,
                    5137223687618292345,
                    2371970997124930608,
                    10526874549379859110
                ]
            }
        ],
        [
            {
                "$type": "CCEEIGNAILH",
                "type": "DIALOG",
                "aliasList": [
                    "1005"
                ],
                "KICBIOMGHIN": 411140914,
                "PNCCODDABKI": 0.6299999952316284
            },
            {
                "$type": "KCBOGFFHPBD",
                "type": "BODY_LANG",
                "aliasList": [
                    "1005"
                ],
                "GPIEDGOMCGL": 1270,
                "FHLAMNNHMFA": true,
                "AOFEDPBOOIE": ""
            },
            {
                "$type": "KCBOGFFHPBD",
                "type": "BODY_LANG",
                "delayTime": 1.9607070684432983,
                "aliasList": [
                    "1005"
                ],
                "GPIEDGOMCGL": 1170,
                "FHLAMNNHMFA": true,
                "AOFEDPBOOIE": ""
            },
            {
                "$type": "DNAEECJNBFB",
                "type": "EMO_SYNC",
                "aliasList": [
                    "1005"
                ],
                "EOGJDJKPPGE": "Cs_Emo_Avatar_Simple_Common_Set/Cs_Emo_Avatar_Talk/Cs_Emo_Avatar_Event/Cs_Emo_Aster/Cs_Emo_411140914",
                "IHCBGPABDLE": "",
                "CIKPDMODFPL": "",
                "HDIAHFFHNGE": "",
                "BOAAGJEEFDD": "",
                "PFDPJKHPADE": "",
                "DALINBJAHOC": [
                    12335811270326855783,
                    8290586115057138987,
                    16909629453082358618,
                    17879855803638601772
                ]
            }
        ],
        [
            {
                "$type": "BCJBNCJOPCE",
                "type": "CAMERA_MOVE",
                "delayTime": 0.06597397476434708,
                "duration": 27.366024017333984,
                "AKFGKKEOEFA": {
                    "x": 1958.707763671875,
                    "y": 223.07611083984375,
                    "z": -1500.9146728515625
                },
                "NGEBMAEFFGJ": {
                    "x": 1957.948486328125,
                    "y": 223.12945556640625,
                    "z": -1501.563232421875
                },
                "LIGHLBKBDEI": 30.0,
                "ABAEPHOGOFF": "EaseOutQuad",
                "KFDBMBFFANN": {},
                "KIPMIDIKECP": "",
                "BDLGHOJPJHD": "",
                "LCOJGFEOLCK": "",
                "BBBGAEDCJEL": ""
            },
            {
                "$type": "BCJBNCJOPCE",
                "type": "CAMERA_MOVE",
                "duration": 0.28234073519706726,
                "AKFGKKEOEFA": {
                    "x": 1958.8812255859375,
                    "y": 223.08291625976562,
                    "z": -1501.1435546875
                },
                "NGEBMAEFFGJ": {
                    "x": 1958.0479736328125,
                    "y": 223.1332550048828,
                    "z": -1501.694091796875
                },
                "LIGHLBKBDEI": 30.0,
                "GFIOJGJJGCN": 6,
                "ABAEPHOGOFF": "EaseInOutCubic",
                "KFDBMBFFANN": {},
                "KIPMIDIKECP": "",
                "BDLGHOJPJHD": "",
                "LCOJGFEOLCK": "",
                "BBBGAEDCJEL": ""
            },
            {
                "$type": "KCBOGFFHPBD",
                "type": "BODY_LANG",
                "aliasList": [
                    "1005"
                ],
                "AHGOBCDHCMC": true,
                "FHLAMNNHMFA": true,
                "AOFEDPBOOIE": ""
            },
            {
                "$type": "CCEEIGNAILH",
                "type": "DIALOG",
                "aliasList": [
                    "10095"
                ],
                "KICBIOMGHIN": 411140915,
                "PNCCODDABKI": 1.899999976158142
            },
            {
                "$type": "MoleMole.Config.ConfigMoveToAction",
                "type": "MOVE_TO",
                "aliasList": [
                    "10095"
                ],
                "routeList": [
                    {
                        "x": 1956.62890625,
                        "y": 222.05099487304688,
                        "z": -1501.904541015625
                    }
                ],
                "bindMovingTargetKey": ""
            },
            {
                "$type": "KCBOGFFHPBD",
                "type": "BODY_LANG",
                "aliasList": [
                    "10095"
                ],
                "GPIEDGOMCGL": 1171,
                "FHLAMNNHMFA": true,
                "AOFEDPBOOIE": ""
            },
            {
                "$type": "KCBOGFFHPBD",
                "type": "BODY_LANG",
                "delayTime": 3.836545705795288,
                "aliasList": [
                    "10095"
                ],
                "GPIEDGOMCGL": 1120,
                "FHLAMNNHMFA": true,
                "AOFEDPBOOIE": ""
            },
            {
                "$type": "IBPNIIGAIPF",
                "type": "LOOK_AT",
                "aliasList": [
                    "10095"
                ],
                "GGIENKFBOGL": true,
                "useTargetPos": true,
                "GCOONJBHNIM": true,
                "JHNJNNOPJKG": {
                    "x": 1956.7652587890625,
                    "y": 223.31112670898438,
                    "z": -1503.2010498046875
                },
                "IDICBCPKDPM": true,
                "NDOMJCOFKDJ": 0.3499999940395355,
                "KIPMIDIKECP": "",
                "HJJAFGPMJNJ": "",
                "AOFBAGFCGPJ": ""
            },
            {
                "$type": "DNAEECJNBFB",
                "type": "EMO_SYNC",
                "aliasList": [
                    "10095"
                ],
                "EOGJDJKPPGE": "Cs_Emo_Avatar_Simple_Common_Set/Cs_Emo_Avatar_Talk/Cs_Emo_Avatar_Event/Cs_Emo_Aster/Cs_Emo_411140915",
                "IHCBGPABDLE": "",
                "CIKPDMODFPL": "",
                "HDIAHFFHNGE": "",
                "BOAAGJEEFDD": "",
                "PFDPJKHPADE": "",
                "DALINBJAHOC": [
                    4107885645776351530,
                    5428671324132533753,
                    16490104519564682641,
                    8234549795865966039
                ]
            }
        ],
        [
            {
                "$type": "BCJBNCJOPCE",
                "type": "CAMERA_MOVE",
                "delayTime": 0.07013913989067078,
                "duration": 17.220943450927734,
                "AKFGKKEOEFA": {
                    "x": 1958.5277099609375,
                    "y": 223.4112548828125,
                    "z": -1503.053955078125
                },
                "NGEBMAEFFGJ": {
                    "x": 1957.616455078125,
                    "y": 223.3926239013672,
                    "z": -1502.6424560546875
                },
                "LIGHLBKBDEI": 20.0,
                "ABAEPHOGOFF": "EaseOutQuad",
                "KFDBMBFFANN": {},
                "KIPMIDIKECP": "",
                "BDLGHOJPJHD": "",
                "LCOJGFEOLCK": "",
                "BBBGAEDCJEL": ""
            },
            {
                "$type": "BCJBNCJOPCE",
                "type": "CAMERA_MOVE",
                "duration": 0.8083842992782593,
                "AKFGKKEOEFA": {
                    "x": 1958.4251708984375,
                    "y": 223.40916442871094,
                    "z": -1503.007568359375
                },
                "NGEBMAEFFGJ": {
                    "x": 1957.513916015625,
                    "y": 223.39053344726562,
                    "z": -1502.5960693359375
                },
                "LIGHLBKBDEI": 20.0,
                "GFIOJGJJGCN": 6,
                "ABAEPHOGOFF": "EaseInOutCubic",
                "KFDBMBFFANN": {},
                "KIPMIDIKECP": "",
                "BDLGHOJPJHD": "",
                "LCOJGFEOLCK": "",
                "BBBGAEDCJEL": ""
            },
            {
                "$type": "MEKNGCBGKEJ",
                "type": "DIALOG_SELECT",
                "delayTime": 3.6934218406677246,
                "aliasList": [
                    "Avatar"
                ],
                "MLAABINGLAA": [
                    411140917
                ],
                "HPBPDBFGKID": [
                    2571863612
                ],
                "CFJOJADDHHG": true
            },
            {
                "$type": "CCEEIGNAILH",
                "type": "DIALOG",
                "aliasList": [
                    "10095"
                ],
                "KICBIOMGHIN": 411140916,
                "PNCCODDABKI": 3.8499999046325684
            },
            {
                "$type": "IBPNIIGAIPF",
                "type": "LOOK_AT",
                "aliasList": [
                    "10095"
                ],
                "GGIENKFBOGL": true,
                "useTargetPos": true,
                "GCOONJBHNIM": true,
                "JHNJNNOPJKG": {
                    "x": 1957.4102783203125,
                    "y": 223.31112670898438,
                    "z": -1502.763916015625
                },
                "IDICBCPKDPM": true,
                "NDOMJCOFKDJ": 0.3499999940395355,
                "KIPMIDIKECP": "",
                "HJJAFGPMJNJ": "",
                "AOFBAGFCGPJ": ""
            },
            {
                "$type": "KCBOGFFHPBD",
                "type": "BODY_LANG",
                "delayTime": 2.343663215637207,
                "aliasList": [
                    "10095"
                ],
                "AHGOBCDHCMC": true,
                "FHLAMNNHMFA": true,
                "AOFEDPBOOIE": ""
            },
            {
                "$type": "DNAEECJNBFB",
                "type": "EMO_SYNC",
                "aliasList": [
                    "10095"
                ],
                "EOGJDJKPPGE": "Cs_Emo_Avatar_Simple_Common_Set/Cs_Emo_Avatar_Talk/Cs_Emo_Avatar_Event/Cs_Emo_Aster/Cs_Emo_411140916",
                "IHCBGPABDLE": "",
                "CIKPDMODFPL": "",
                "HDIAHFFHNGE": "",
                "BOAAGJEEFDD": "",
                "PFDPJKHPADE": "",
                "DALINBJAHOC": [
                    8003169434852098667,
                    11621893096522614808,
                    6926737021944096914,
                    16559466303792005542
                ]
            }
        ],
        [
            {
                "$type": "BCJBNCJOPCE",
                "type": "CAMERA_MOVE",
                "delayTime": 0.07013913989067078,
                "duration": 33.73870849609375,
                "AKFGKKEOEFA": {
                    "x": 1958.61181640625,
                    "y": 223.72369384765625,
                    "z": -1502.16455078125
                },
                "NGEBMAEFFGJ": {
                    "x": 1957.631103515625,
                    "y": 223.5529022216797,
                    "z": -1502.0689697265625
                },
                "LIGHLBKBDEI": 10.0,
                "ABAEPHOGOFF": "EaseOutQuad",
                "KFDBMBFFANN": {},
                "KIPMIDIKECP": "",
                "BDLGHOJPJHD": "",
                "LCOJGFEOLCK": "",
                "BBBGAEDCJEL": ""
            },
            {
                "$type": "BCJBNCJOPCE",
                "type": "CAMERA_MOVE",
                "duration": 0.8083842992782593,
                "AKFGKKEOEFA": {
                    "x": 1957.611328125,
                    "y": 224.46084594726562,
                    "z": -1500.4993896484375
                },
                "NGEBMAEFFGJ": {
                    "x": 1957.139404296875,
                    "y": 223.92320251464844,
                    "z": -1501.1981201171875
                },
                "LIGHLBKBDEI": 10.0,
                "GFIOJGJJGCN": 6,
                "ABAEPHOGOFF": "EaseInOutCubic",
                "KFDBMBFFANN": {},
                "KIPMIDIKECP": "",
                "BDLGHOJPJHD": "",
                "LCOJGFEOLCK": "",
                "BBBGAEDCJEL": ""
            },
            {
                "$type": "CCEEIGNAILH",
                "type": "DIALOG",
                "aliasList": [
                    "10095"
                ],
                "KICBIOMGHIN": 411140918,
                "PNCCODDABKI": 5.130000114440918
            },
            {
                "$type": "KCBOGFFHPBD",
                "type": "BODY_LANG",
                "aliasList": [
                    "10095"
                ],
                "GPIEDGOMCGL": 1190,
                "FHLAMNNHMFA": true,
                "AOFEDPBOOIE": ""
            },
            {
                "$type": "OMPHNKNPPJO",
                "type": "LOOK_AT_EYECTRL",
                "aliasList": [
                    "10095"
                ],
                "useTargetPos": false,
                "OMHMNNDGHFL": {
                    "y": 20.0
                },
                "AMNIBCAICEP": {
                    "y": -20.0
                },
                "MHBPPJNDKJC": 1.0,
                "KIPMIDIKECP": "",
                "JJEGGHOEIPD": "Face"
            },
            {
                "$type": "OMPHNKNPPJO",
                "type": "LOOK_AT_EYECTRL",
                "delayTime": 5.014948844909668,
                "aliasList": [
                    "10095"
                ],
                "useTargetPos": false,
                "OMHMNNDGHFL": {
                    "x": -5.0,
                    "y": 20.0
                },
                "AMNIBCAICEP": {
                    "x": -5.0,
                    "y": -20.0
                },
                "MHBPPJNDKJC": 1.0,
                "KIPMIDIKECP": "",
                "JJEGGHOEIPD": "Face"
            },
            {
                "$type": "DNAEECJNBFB",
                "type": "EMO_SYNC",
                "aliasList": [
                    "10095"
                ],
                "EOGJDJKPPGE": "Cs_Emo_Avatar_Simple_Common_Set/Cs_Emo_Avatar_Talk/Cs_Emo_Avatar_Event/Cs_Emo_Aster/Cs_Emo_411140918",
                "IHCBGPABDLE": "",
                "CIKPDMODFPL": "",
                "HDIAHFFHNGE": "",
                "BOAAGJEEFDD": "",
                "PFDPJKHPADE": "",
                "DALINBJAHOC": [
                    5601546813511418110,
                    1409526998091980113,
                    4977799437459462611,
                    4727410093726028470
                ]
            }
        ],
        [
            {
                "$type": "CCEEIGNAILH",
                "type": "DIALOG",
                "aliasList": [
                    "1005"
                ],
                "KICBIOMGHIN": 411140919,
                "PNCCODDABKI": 2.25
            },
            {
                "$type": "DNAEECJNBFB",
                "type": "EMO_SYNC",
                "aliasList": [
                    "1005"
                ],
                "EOGJDJKPPGE": "Cs_Emo_Avatar_Simple_Common_Set/Cs_Emo_Avatar_Talk/Cs_Emo_Avatar_Event/Cs_Emo_Aster/Cs_Emo_411140919",
                "IHCBGPABDLE": "",
                "CIKPDMODFPL": "",
                "HDIAHFFHNGE": "",
                "BOAAGJEEFDD": "",
                "PFDPJKHPADE": "",
                "DALINBJAHOC": [
                    12619985445241612330,
                    11942385931703025188,
                    7936903880189959232,
                    7314750040345368315
                ]
            },
            {
                "$type": "OMPHNKNPPJO",
                "type": "LOOK_AT_EYECTRL",
                "delayTime": 4.111447334289551,
                "aliasList": [
                    "10095"
                ],
                "useTargetPos": false,
                "OMHMNNDGHFL": {
                    "x": -5.0,
                    "y": 20.0
                },
                "AMNIBCAICEP": {
                    "x": -5.0,
                    "y": -20.0
                },
                "MHBPPJNDKJC": 1.0,
                "KIPMIDIKECP": "",
                "JJEGGHOEIPD": "Face"
            },
            {
                "$type": "OMPHNKNPPJO",
                "type": "LOOK_AT_EYECTRL",
                "delayTime": 1.8761297464370728,
                "aliasList": [
                    "10095"
                ],
                "useTargetPos": false,
                "OMHMNNDGHFL": {
                    "x": 5.0,
                    "y": 30.0
                },
                "AMNIBCAICEP": {
                    "x": 5.0,
                    "y": -30.0
                },
                "MHBPPJNDKJC": 0.5,
                "KIPMIDIKECP": "",
                "JJEGGHOEIPD": "Face"
            },
            {
                "$type": "OMPHNKNPPJO",
                "type": "LOOK_AT_EYECTRL",
                "aliasList": [
                    "10095"
                ],
                "useTargetPos": false,
                "OMHMNNDGHFL": {
                    "x": -5.0,
                    "y": 20.0
                },
                "AMNIBCAICEP": {
                    "x": -5.0,
                    "y": -20.0
                },
                "MHBPPJNDKJC": 1.0,
                "KIPMIDIKECP": "",
                "JJEGGHOEIPD": "Face"
            }
        ],
        [
            {
                "$type": "BCJBNCJOPCE",
                "type": "CAMERA_MOVE",
                "delayTime": 0.10356564819812775,
                "duration": 22.350032806396484,
                "AKFGKKEOEFA": {
                    "x": 1946.24072265625,
                    "y": 222.0150146484375,
                    "z": -1499.685302734375
                },
                "NGEBMAEFFGJ": {
                    "x": 1947.2025146484375,
                    "y": 222.0952911376953,
                    "z": -1499.9471435546875
                },
                "LIGHLBKBDEI": 20.0,
                "ABAEPHOGOFF": "EaseOutQuad",
                "KFDBMBFFANN": {},
                "KIPMIDIKECP": "",
                "BDLGHOJPJHD": "",
                "LCOJGFEOLCK": "",
                "BBBGAEDCJEL": ""
            },
            {
                "$type": "BCJBNCJOPCE",
                "type": "CAMERA_MOVE",
                "duration": 0.8083842992782593,
                "AKFGKKEOEFA": {
                    "x": 1945.998291015625,
                    "y": 221.95330810546875,
                    "z": -1500.8634033203125
                },
                "NGEBMAEFFGJ": {
                    "x": 1946.9835205078125,
                    "y": 222.03956604003906,
                    "z": -1501.0111083984375
                },
                "LIGHLBKBDEI": 20.0,
                "GFIOJGJJGCN": 6,
                "ABAEPHOGOFF": "EaseInOutCubic",
                "KFDBMBFFANN": {},
                "KIPMIDIKECP": "",
                "BDLGHOJPJHD": "",
                "LCOJGFEOLCK": "",
                "BBBGAEDCJEL": ""
            },
            {
                "$type": "CCEEIGNAILH",
                "type": "DIALOG",
                "aliasList": [
                    "10095"
                ],
                "KICBIOMGHIN": 411140920,
                "PNCCODDABKI": 3.059999942779541
            },
            {
                "$type": "OMPHNKNPPJO",
                "type": "LOOK_AT_EYECTRL",
                "aliasList": [
                    "10095"
                ],
                "useTargetPos": false,
                "MHBPPJNDKJC": 1.0,
                "KIPMIDIKECP": "",
                "JJEGGHOEIPD": "Face"
            },
            {
                "$type": "KCBOGFFHPBD",
                "type": "BODY_LANG",
                "aliasList": [
                    "10095"
                ],
                "AHGOBCDHCMC": true,
                "FHLAMNNHMFA": true,
                "AOFEDPBOOIE": ""
            },
            {
                "$type": "IBPNIIGAIPF",
                "type": "LOOK_AT",
                "aliasList": [
                    "10095"
                ],
                "GGIENKFBOGL": true,
                "useTargetPos": true,
                "GCOONJBHNIM": true,
                "JHNJNNOPJKG": {
                    "x": 1956.7198486328125,
                    "y": 223.2880859375,
                    "z": -1503.2105712890625
                },
                "IDICBCPKDPM": true,
                "NDOMJCOFKDJ": 0.3499999940395355,
                "KIPMIDIKECP": "",
                "HJJAFGPMJNJ": "",
                "AOFBAGFCGPJ": ""
            },
            {
                "$type": "KCBOGFFHPBD",
                "type": "BODY_LANG",
                "delayTime": 1.354629635810852,
                "aliasList": [
                    "10095"
                ],
                "GPIEDGOMCGL": 1171,
                "FHLAMNNHMFA": true,
                "AOFEDPBOOIE": ""
            },
            {
                "$type": "DNAEECJNBFB",
                "type": "EMO_SYNC",
                "aliasList": [
                    "10095"
                ],
                "EOGJDJKPPGE": "Cs_Emo_Avatar_Simple_Common_Set/Cs_Emo_Avatar_Talk/Cs_Emo_Avatar_Event/Cs_Emo_Aster/Cs_Emo_411140920",
                "IHCBGPABDLE": "",
                "CIKPDMODFPL": "",
                "HDIAHFFHNGE": "",
                "BOAAGJEEFDD": "",
                "PFDPJKHPADE": "",
                "DALINBJAHOC": [
                    5793218176105008784,
                    9979155698435007826,
                    6472196401272503147,
                    5289449656664088156
                ]
            }
        ],
        [
            {
                "$type": "CCEEIGNAILH",
                "type": "DIALOG",
                "aliasList": [
                    "1005"
                ],
                "KICBIOMGHIN": 411140921,
                "PNCCODDABKI": 1.0800000429153442
            },
            {
                "$type": "KCBOGFFHPBD",
                "type": "BODY_LANG",
                "aliasList": [
                    "1005"
                ],
                "GPIEDGOMCGL": 1060,
                "FHLAMNNHMFA": true,
                "AOFEDPBOOIE": ""
            },
            {
                "$type": "DNAEECJNBFB",
                "type": "EMO_SYNC",
                "aliasList": [
                    "1005"
                ],
                "EOGJDJKPPGE": "Cs_Emo_Avatar_Simple_Common_Set/Cs_Emo_Avatar_Talk/Cs_Emo_Avatar_Event/Cs_Emo_Aster/Cs_Emo_411140921",
                "IHCBGPABDLE": "",
                "CIKPDMODFPL": "",
                "HDIAHFFHNGE": "",
                "BOAAGJEEFDD": "",
                "PFDPJKHPADE": "",
                "DALINBJAHOC": [
                    4284826980018336332,
                    13760983730509663121,
                    7523927783490721549,
                    8218478279210521383
                ]
            }
        ],
        [
            {
                "$type": "BCJBNCJOPCE",
                "type": "CAMERA_MOVE",
                "delayTime": 0.069044329226017,
                "duration": 35.470001220703125,
                "AKFGKKEOEFA": {
                    "x": 1958.484130859375,
                    "y": 223.29833984375,
                    "z": -1499.613525390625
                },
                "NGEBMAEFFGJ": {
                    "x": 1957.9881591796875,
                    "y": 223.2917022705078,
                    "z": -1500.4818115234375
                },
                "LIGHLBKBDEI": 20.0,
                "ABAEPHOGOFF": "EaseOutQuad",
                "KFDBMBFFANN": {},
                "KIPMIDIKECP": "",
                "BDLGHOJPJHD": "",
                "LCOJGFEOLCK": "",
                "BBBGAEDCJEL": ""
            },
            {
                "$type": "BCJBNCJOPCE",
                "type": "CAMERA_MOVE",
                "duration": 0.8083842992782593,
                "AKFGKKEOEFA": {
                    "x": 1957.49658203125,
                    "y": 223.3088836669922,
                    "z": -1499.092041015625
                },
                "NGEBMAEFFGJ": {
                    "x": 1957.3382568359375,
                    "y": 223.2992401123047,
                    "z": -1500.079345703125
                },
                "LIGHLBKBDEI": 20.0,
                "GFIOJGJJGCN": 6,
                "ABAEPHOGOFF": "EaseInOutCubic",
                "KFDBMBFFANN": {},
                "KIPMIDIKECP": "",
                "BDLGHOJPJHD": "",
                "LCOJGFEOLCK": "",
                "BBBGAEDCJEL": ""
            },
            {
                "$type": "KCBOGFFHPBD",
                "type": "BODY_LANG",
                "aliasList": [
                    "1005"
                ],
                "AHGOBCDHCMC": true,
                "FHLAMNNHMFA": true,
                "AOFEDPBOOIE": ""
            },
            {
                "$type": "CCEEIGNAILH",
                "type": "DIALOG",
                "aliasList": [
                    "10095"
                ],
                "KICBIOMGHIN": 411140922,
                "PNCCODDABKI": 2.700000047683716
            },
            {
                "$type": "KCBOGFFHPBD",
                "type": "BODY_LANG",
                "aliasList": [
                    "10095"
                ],
                "GPIEDGOMCGL": 1130,
                "FHLAMNNHMFA": true,
                "AOFEDPBOOIE": ""
            },
            {
                "$type": "KCBOGFFHPBD",
                "type": "BODY_LANG",
                "delayTime": 4.302890300750732,
                "aliasList": [
                    "10095"
                ],
                "GPIEDGOMCGL": 1171,
                "FHLAMNNHMFA": true,
                "AOFEDPBOOIE": ""
            },
            {
                "$type": "KCBOGFFHPBD",
                "type": "BODY_LANG",
                "delayTime": 1.8370381593704224,
                "aliasList": [
                    "10095"
                ],
                "AHGOBCDHCMC": true,
                "FHLAMNNHMFA": true,
                "AOFEDPBOOIE": ""
            },
            {
                "$type": "DNAEECJNBFB",
                "type": "EMO_SYNC",
                "aliasList": [
                    "10095"
                ],
                "EOGJDJKPPGE": "Cs_Emo_Avatar_Simple_Common_Set/Cs_Emo_Avatar_Talk/Cs_Emo_Avatar_Event/Cs_Emo_Aster/Cs_Emo_411140922",
                "IHCBGPABDLE": "",
                "CIKPDMODFPL": "",
                "HDIAHFFHNGE": "",
                "BOAAGJEEFDD": "",
                "PFDPJKHPADE": "",
                "DALINBJAHOC": [
                    12013350528987393,
                    733564493418456268,
                    3176923201932645529,
                    16419187468414406235
                ]
            }
        ],
        [
            {
                "$type": "KCBOGFFHPBD",
                "type": "BODY_LANG",
                "aliasList": [
                    "1005"
                ],
                "GPIEDGOMCGL": 1190,
                "FHLAMNNHMFA": true,
                "AOFEDPBOOIE": ""
            },
            {
                "$type": "CCEEIGNAILH",
                "type": "DIALOG",
                "aliasList": [
                    "10095"
                ],
                "KICBIOMGHIN": 411140923,
                "PNCCODDABKI": 1.5
            },
            {
                "$type": "KCBOGFFHPBD",
                "type": "BODY_LANG",
                "aliasList": [
                    "10095"
                ],
                "GPIEDGOMCGL": 1172,
                "FHLAMNNHMFA": true,
                "AOFEDPBOOIE": ""
            },
            {
                "$type": "KCBOGFFHPBD",
                "type": "BODY_LANG",
                "delayTime": 5.409128189086914,
                "aliasList": [
                    "10095"
                ],
                "GPIEDGOMCGL": 1230,
                "FHLAMNNHMFA": true,
                "AOFEDPBOOIE": ""
            },
            {
                "$type": "IBPNIIGAIPF",
                "type": "LOOK_AT",
                "aliasList": [
                    "10095"
                ],
                "GGIENKFBOGL": true,
                "useTargetPos": true,
                "GCOONJBHNIM": true,
                "JHNJNNOPJKG": {
                    "x": 1957.448974609375,
                    "y": 223.2880859375,
                    "z": -1502.9805908203125
                },
                "IDICBCPKDPM": true,
                "NDOMJCOFKDJ": 0.3499999940395355,
                "KIPMIDIKECP": "",
                "HJJAFGPMJNJ": "",
                "AOFBAGFCGPJ": ""
            },
            {
                "$type": "DNAEECJNBFB",
                "type": "EMO_SYNC",
                "aliasList": [
                    "10095"
                ],
                "EOGJDJKPPGE": "Cs_Emo_Avatar_Simple_Common_Set/Cs_Emo_Avatar_Talk/Cs_Emo_Avatar_Event/Cs_Emo_Aster/Cs_Emo_411140923",
                "IHCBGPABDLE": "",
                "CIKPDMODFPL": "",
                "HDIAHFFHNGE": "",
                "BOAAGJEEFDD": "",
                "PFDPJKHPADE": "",
                "DALINBJAHOC": [
                    12359059400656455102,
                    11978253079210817571,
                    12458009951597092107,
                    10680609541723397697
                ]
            }
        ],
        [
            {
                "$type": "BCJBNCJOPCE",
                "type": "CAMERA_MOVE",
                "delayTime": 0.028698086738586426,
                "duration": 12.685783386230469,
                "AKFGKKEOEFA": {
                    "x": 1958.084228515625,
                    "y": 223.4339141845703,
                    "z": -1502.7081298828125
                },
                "NGEBMAEFFGJ": {
                    "x": 1957.2020263671875,
                    "y": 223.41827392578125,
                    "z": -1502.2374267578125
                },
                "LIGHLBKBDEI": 10.0,
                "ABAEPHOGOFF": "EaseOutQuad",
                "KFDBMBFFANN": {},
                "KIPMIDIKECP": "",
                "BDLGHOJPJHD": "",
                "LCOJGFEOLCK": "",
                "BBBGAEDCJEL": ""
            },
            {
                "$type": "BCJBNCJOPCE",
                "type": "CAMERA_MOVE",
                "duration": 0.349215567111969,
                "AKFGKKEOEFA": {
                    "x": 1958.4844970703125,
                    "y": 223.38665771484375,
                    "z": -1502.726806640625
                },
                "NGEBMAEFFGJ": {
                    "x": 1957.567138671875,
                    "y": 223.3740234375,
                    "z": -1502.3289794921875
                },
                "LIGHLBKBDEI": 10.0,
                "GFIOJGJJGCN": 6,
                "ABAEPHOGOFF": "EaseInOutCubic",
                "KFDBMBFFANN": {},
                "KIPMIDIKECP": "",
                "BDLGHOJPJHD": "",
                "LCOJGFEOLCK": "",
                "BBBGAEDCJEL": ""
            },
            {
                "$type": "CCEEIGNAILH",
                "type": "DIALOG",
                "aliasList": [
                    "10095"
                ],
                "KICBIOMGHIN": 411140924,
                "PNCCODDABKI": 1.190000057220459
            },
            {
                "$type": "IBPNIIGAIPF",
                "type": "LOOK_AT",
                "delayTime": 2.0662589073181152,
                "aliasList": [
                    "10095"
                ],
                "GGIENKFBOGL": true,
                "useTargetPos": true,
                "GCOONJBHNIM": true,
                "JHNJNNOPJKG": {
                    "x": 1956.9454345703125,
                    "y": 223.14382934570312,
                    "z": -1502.5521240234375
                },
                "IDICBCPKDPM": true,
                "NDOMJCOFKDJ": 0.5,
                "KIPMIDIKECP": "",
                "HJJAFGPMJNJ": "",
                "AOFBAGFCGPJ": ""
            },
            {
                "$type": "IBPNIIGAIPF",
                "type": "LOOK_AT",
                "aliasList": [
                    "10095"
                ],
                "GGIENKFBOGL": true,
                "useTargetPos": true,
                "GCOONJBHNIM": true,
                "JHNJNNOPJKG": {
                    "x": 1957.448974609375,
                    "y": 223.05238342285156,
                    "z": -1502.5521240234375
                },
                "IDICBCPKDPM": true,
                "NDOMJCOFKDJ": 0.5,
                "KIPMIDIKECP": "",
                "HJJAFGPMJNJ": "",
                "AOFBAGFCGPJ": ""
            },
            {
                "$type": "DNAEECJNBFB",
                "type": "EMO_SYNC",
                "aliasList": [
                    "10095"
                ],
                "EOGJDJKPPGE": "Cs_Emo_Avatar_Simple_Common_Set/Cs_Emo_Avatar_Talk/Cs_Emo_Avatar_Event/Cs_Emo_Aster/Cs_Emo_411140924",
                "IHCBGPABDLE": "",
                "CIKPDMODFPL": "",
                "HDIAHFFHNGE": "",
                "BOAAGJEEFDD": "",
                "PFDPJKHPADE": "",
                "MIDKJONOACI": false,
                "DALINBJAHOC": [
                    9699860700216385346,
                    5744316720251699400,
                    16726013133262324653,
                    11572176791188760574
                ]
            }
        ],
        [
            {
                "$type": "CCEEIGNAILH",
                "type": "DIALOG",
                "aliasList": [
                    "10095"
                ],
                "KICBIOMGHIN": 411140925,
                "PNCCODDABKI": 0.6600000262260437
            },
            {
                "$type": "KCBOGFFHPBD",
                "type": "BODY_LANG",
                "aliasList": [
                    "10095"
                ],
                "AHGOBCDHCMC": true,
                "FHLAMNNHMFA": true,
                "AOFEDPBOOIE": ""
            },
            {
                "$type": "IBPNIIGAIPF",
                "type": "LOOK_AT",
                "aliasList": [
                    "10095"
                ],
                "GGIENKFBOGL": true,
                "useTargetPos": true,
                "GCOONJBHNIM": true,
                "JHNJNNOPJKG": {
                    "x": 1957.448974609375,
                    "y": 223.2880859375,
                    "z": -1502.9805908203125
                },
                "IDICBCPKDPM": true,
                "NDOMJCOFKDJ": 0.3499999940395355,
                "KIPMIDIKECP": "",
                "HJJAFGPMJNJ": "",
                "AOFBAGFCGPJ": ""
            },
            {
                "$type": "DNAEECJNBFB",
                "type": "EMO_SYNC",
                "aliasList": [
                    "10095"
                ],
                "EOGJDJKPPGE": "Cs_Emo_Avatar_Simple_Common_Set/Cs_Emo_Avatar_Talk/Cs_Emo_Avatar_Event/Cs_Emo_Aster/Cs_Emo_411140925",
                "IHCBGPABDLE": "",
                "CIKPDMODFPL": "",
                "HDIAHFFHNGE": "",
                "BOAAGJEEFDD": "",
                "PFDPJKHPADE": "",
                "DALINBJAHOC": [
                    15663503120159558517,
                    637181326794934807,
                    10039352337966812544,
                    5646257556162856983
                ]
            }
        ],
        [
            {
                "$type": "MoleMole.Config.ConfigSimpleBlackScreenAction",
                "type": "SIMPLE_BLACK_SCREEN",
                "durationToBlack": 0.5,
                "durationKeepBlack": 1.0,
                "durationFromBlack": 0.5,
                "textMapID": ""
            },
            {
                "$type": "BCJBNCJOPCE",
                "type": "CAMERA_MOVE",
                "delayTime": 0.5,
                "duration": 0.10000000149011612,
                "KNAICGCGOHN": "EXIT",
                "AKFGKKEOEFA": {
                    "x": 1960.0848388671875,
                    "y": 223.41282653808594,
                    "z": -1505.04833984375
                },
                "NGEBMAEFFGJ": {
                    "x": 1959.3284912109375,
                    "y": 223.33128356933594,
                    "z": -1504.3992919921875
                },
                "GFIOJGJJGCN": 6,
                "ABAEPHOGOFF": "EaseInOutCubic",
                "KFDBMBFFANN": {},
                "KIPMIDIKECP": "",
                "BDLGHOJPJHD": "",
                "LCOJGFEOLCK": "",
                "BBBGAEDCJEL": ""
            },
            {
                "$type": "MoleMole.Config.ConfigTimeProtectAction",
                "type": "TIME_PROTECT",
                "duration": 0.6000000238418579
            },
            {
                "$type": "MoleMole.Config.ConfigVisibleInterAction",
                "type": "VISIBLE",
                "delayTime": 0.6000000238418579,
                "aliasList": [
                    "10095"
                ],
                "extraParam": ""
            },
            {
                "$type": "CCEEIGNAILH",
                "type": "DIALOG_CLEAR",
                "aliasList": [
                    "10095"
                ],
                "KICBIOMGHIN": 411140925
            }
        ]
    ],
    "groupId": [
        {
            "grpId": 2715362651,
            "nextGrpId": 2715362652
        },
        {
            "index": 1,
            "grpId": 2715362652,
            "nextGrpId": 2715362653
        },
        {
            "index": 2,
            "grpId": 2715362653,
            "nextGrpId": 2715362654
        },
        {
            "index": 3,
            "grpId": 2715362654,
            "nextGrpId": 2715362655
        },
        {
            "index": 4,
            "grpId": 2715362655,
            "nextGrpId": 2715362656
        },
        {
            "index": 5,
            "grpId": 2715362656,
            "nextGrpId": 2715362657
        },
        {
            "index": 6,
            "grpId": 2715362657,
            "nextGrpId": 2715362658
        },
        {
            "index": 7,
            "grpId": 2715362658,
            "nextGrpId": 2715362659
        },
        {
            "index": 8,
            "grpId": 2715362659,
            "nextGrpId": 2571863605
        },
        {
            "index": 9,
            "grpId": 2571863605,
            "nextGrpId": 2571863606
        },
        {
            "index": 10,
            "grpId": 2571863606,
            "nextGrpId": 2571863607
        },
        {
            "index": 11,
            "grpId": 2571863607,
            "nextGrpId": 2571863608
        },
        {
            "index": 12,
            "grpId": 2571863608,
            "nextGrpId": 2571863609
        },
        {
            "index": 13,
            "grpId": 2571863609,
            "nextGrpId": 2571863610
        },
        {
            "index": 14,
            "grpId": 2571863610,
            "nextGrpId": 2571863611
        },
        {
            "index": 15,
            "grpId": 2571863611,
            "nextGrpId": 2571863612
        },
        {
            "index": 16,
            "grpId": 2571863612,
            "nextGrpId": 2571863613
        },
        {
            "index": 17,
            "grpId": 2571863613,
            "nextGrpId": 2571863614
        },
        {
            "index": 18,
            "grpId": 2571863614,
            "nextGrpId": 2571863636
        },
        {
            "index": 19,
            "grpId": 2571863636,
            "nextGrpId": 2571863637
        },
        {
            "index": 20,
            "grpId": 2571863637,
            "nextGrpId": 2571863638
        },
        {
            "index": 21,
            "grpId": 2571863638,
            "nextGrpId": 2571863639
        },
        {
            "index": 22,
            "grpId": 2571863639,
            "nextGrpId": 2571863640
        },
        {
            "index": 23,
            "grpId": 2571863640,
            "nextGrpId": 2571863641
        },
        {
            "index": 24,
            "grpId": 2571863641,
            "nextGrpId": 2571863642
        }
    ],
    "freeStyleDic": {
        "10095": [
            1220,
            1180,
            1130,
            1171,
            1172,
            1120,
            1190,
            1230
        ]
    }
}