{
    "luaDataPath": "",
    "entityBan": "",
    "disableNpcLod": true,
    "protectNpcMobileLod": true,
    "startFade": {
        "startFadeOutDuration": 0.0
    },
    "endFade": {
        "startFadeOutDuration": 0.0
    },
    "actors": [
        {
            "alias": "Avatar",
            "visible": true,
            "bornPointName": "",
            "relativePosType": "AVATAR_NEW",
            "relativePosNpcAlias": "",
            "bindMovingTargetKey": ""
        },
        {
            "configID": 1052,
            "alias": "1052",
            "visible": true,
            "bornPointName": "",
            "relativePosType": "AVATAR_NEW",
            "relativePosNpcAlias": "",
            "bindMovingTargetKey": ""
        },
        {
            "configID": 13013,
            "alias": "13013",
            "visible": true,
            "bornPointName": "",
            "relativePosType": "AVATAR_NEW",
            "relativePosNpcAlias": "",
            "bindMovingTargetKey": ""
        }
    ],
    "group": [
        [
            {
                "$type": "BCJBNCJOPCE",
                "type": "CAMERA_FOCUS",
                "duration": 0.10000000149011612,
                "actionId": 103,
                "KIPMIDIKECP": "",
                "BDLGHOJPJHD": "",
                "LCOJGFEOLCK": "",
                "BBBGAEDCJEL": ""
            },
            {
                "$type": "MoleMole.Config.ConfigTimeProtectAction",
                "type": "TIME_PROTECT",
                "duration": 0.10000000149011612,
                "actionId": 104
            },
            {
                "$type": "CNBNGFNKLGP",
                "type": "STEER_TO",
                "duration": 0.800000011920929,
                "aliasList": [
                    "Avatar"
                ],
                "actionId": 119,
                "DEMFHGAIELL": "TO_TARGET",
                "BBNLLCHBKAI": true,
                "COJBPJMLIFM": true,
                "NLIKMFJCLBP": true,
                "KIPMIDIKECP": "1052",
                "FDLMFGAMGJK": true,
                "AOFBAGFCGPJ": ""
            },
            {
                "$type": "IBPNIIGAIPF",
                "type": "LOOK_AT",
                "aliasList": [
                    "Avatar"
                ],
                "actionId": 130,
                "GGIENKFBOGL": true,
                "NDOMJCOFKDJ": 0.5,
                "KIPMIDIKECP": "1052",
                "FGPHOPBEJDE": true,
                "HJJAFGPMJNJ": "",
                "AOFBAGFCGPJ": ""
            },
            {
                "$type": "CNBNGFNKLGP",
                "type": "STEER_TO",
                "duration": 0.800000011920929,
                "aliasList": [
                    "1052"
                ],
                "actionId": 120,
                "DEMFHGAIELL": "TO_TARGET",
                "BBNLLCHBKAI": true,
                "COJBPJMLIFM": true,
                "NLIKMFJCLBP": true,
                "KIPMIDIKECP": "13013",
                "FDLMFGAMGJK": true,
                "AOFBAGFCGPJ": ""
            },
            {
                "$type": "IBPNIIGAIPF",
                "type": "LOOK_AT",
                "aliasList": [
                    "1052"
                ],
                "actionId": 129,
                "GGIENKFBOGL": true,
                "NDOMJCOFKDJ": 0.5,
                "KIPMIDIKECP": "13013",
                "FGPHOPBEJDE": true,
                "HJJAFGPMJNJ": "",
                "AOFBAGFCGPJ": ""
            },
            {
                "$type": "CNBNGFNKLGP",
                "type": "STEER_TO",
                "duration": 0.800000011920929,
                "aliasList": [
                    "13013"
                ],
                "actionId": 121,
                "DEMFHGAIELL": "TO_TARGET",
                "BBNLLCHBKAI": true,
                "COJBPJMLIFM": true,
                "NLIKMFJCLBP": true,
                "KIPMIDIKECP": "1052",
                "FDLMFGAMGJK": true,
                "AOFBAGFCGPJ": ""
            },
            {
                "$type": "IBPNIIGAIPF",
                "type": "LOOK_AT",
                "aliasList": [
                    "13013"
                ],
                "actionId": 128,
                "GGIENKFBOGL": true,
                "NDOMJCOFKDJ": 0.5,
                "KIPMIDIKECP": "1052",
                "FGPHOPBEJDE": true,
                "HJJAFGPMJNJ": "",
                "AOFBAGFCGPJ": ""
            }
        ],
        [
            {
                "$type": "CCEEIGNAILH",
                "type": "DIALOG",
                "aliasList": [
                    "1052"
                ],
                "actionId": 107,
                "KICBIOMGHIN": 30261101,
                "PNCCODDABKI": 0.5
            },
            {
                "$type": "DNAEECJNBFB",
                "type": "EMO_SYNC",
                "aliasList": [
                    "1052"
                ],
                "actionId": 122,
                "EOGJDJKPPGE": "Cs_Emo_Avatar_Simple_Common_Set/Cs_Emo_Avatar_Talk/Cs_Emo_Avatar_MainLine/Cs_Emo_Avatar_Sumeru3/Cs_Emo_30261101",
                "IHCBGPABDLE": "",
                "CIKPDMODFPL": "",
                "HDIAHFFHNGE": "",
                "BOAAGJEEFDD": "",
                "PFDPJKHPADE": "",
                "DALINBJAHOC": [
                    4543599485300403182,
                    2703510220164470383,
                    10329882842898432341,
                    13478800928082034395
                ]
            },
            {
                "$type": "KCBOGFFHPBD",
                "type": "BODY_LANG",
                "delayTime": 0.8180000185966492,
                "aliasList": [
                    "1052"
                ],
                "actionId": 131,
                "GPIEDGOMCGL": 1171,
                "FHLAMNNHMFA": true,
                "KCEHDJLKIAL": false,
                "KCOLHJBDILK": true,
                "AOFEDPBOOIE": ""
            }
        ],
        [
            {
                "$type": "IBPNIIGAIPF",
                "type": "LOOK_AT",
                "aliasList": [
                    "Avatar"
                ],
                "actionId": 141,
                "GGIENKFBOGL": true,
                "NDOMJCOFKDJ": 0.5,
                "KIPMIDIKECP": "13013",
                "FGPHOPBEJDE": true,
                "HJJAFGPMJNJ": "",
                "AOFBAGFCGPJ": ""
            },
            {
                "$type": "CCEEIGNAILH",
                "type": "DIALOG",
                "aliasList": [
                    "13013"
                ],
                "actionId": 109,
                "KICBIOMGHIN": 30261102,
                "PNCCODDABKI": 0.5
            },
            {
                "$type": "DNAEECJNBFB",
                "type": "EMO_SYNC",
                "aliasList": [
                    "13013"
                ],
                "actionId": 125,
                "EOGJDJKPPGE": "Cs_Emo_Avatar_Simple_Common_Set/Cs_Emo_Avatar_Talk/Cs_Emo_Avatar_MainLine/Cs_Emo_Avatar_Sumeru3/Cs_Emo_30261102",
                "IHCBGPABDLE": "",
                "CIKPDMODFPL": "",
                "HDIAHFFHNGE": "",
                "BOAAGJEEFDD": "",
                "PFDPJKHPADE": "",
                "DALINBJAHOC": [
                    9523858531378789043,
                    13867197688187226598,
                    18406059819971408027,
                    17934455928689116242
                ]
            },
            {
                "$type": "KCBOGFFHPBD",
                "type": "BODY_LANG",
                "aliasList": [
                    "13013"
                ],
                "actionId": 132,
                "GPIEDGOMCGL": 4030,
                "FHLAMNNHMFA": true,
                "KCEHDJLKIAL": false,
                "KCOLHJBDILK": true,
                "AOFEDPBOOIE": ""
            },
            {
                "$type": "KCBOGFFHPBD",
                "type": "BODY_LANG",
                "delayTime": 0.5740000009536743,
                "aliasList": [
                    "13013"
                ],
                "actionId": 133,
                "GPIEDGOMCGL": 1130,
                "FHLAMNNHMFA": true,
                "KCEHDJLKIAL": false,
                "KCOLHJBDILK": true,
                "AOFEDPBOOIE": ""
            }
        ],
        [
            {
                "$type": "CCEEIGNAILH",
                "type": "DIALOG",
                "aliasList": [
                    "13013"
                ],
                "actionId": 111,
                "KICBIOMGHIN": 30261103,
                "PNCCODDABKI": 0.5
            },
            {
                "$type": "DNAEECJNBFB",
                "type": "EMO_SYNC",
                "aliasList": [
                    "13013"
                ],
                "actionId": 126,
                "EOGJDJKPPGE": "Cs_Emo_Avatar_Simple_Common_Set/Cs_Emo_Avatar_Talk/Cs_Emo_Avatar_MainLine/Cs_Emo_Avatar_Sumeru3/Cs_Emo_30261103",
                "IHCBGPABDLE": "",
                "CIKPDMODFPL": "",
                "HDIAHFFHNGE": "",
                "BOAAGJEEFDD": "",
                "PFDPJKHPADE": "",
                "DALINBJAHOC": [
                    15575633203623899593,
                    13306483052130882153,
                    333278075859268689,
                    9854574276411180923
                ]
            },
            {
                "$type": "KCBOGFFHPBD",
                "type": "BODY_LANG",
                "aliasList": [
                    "13013"
                ],
                "actionId": 134,
                "GPIEDGOMCGL": 1130,
                "FHLAMNNHMFA": true,
                "KCEHDJLKIAL": false,
                "KCOLHJBDILK": true,
                "AOFEDPBOOIE": ""
            },
            {
                "$type": "KCBOGFFHPBD",
                "type": "BODY_LANG",
                "delayTime": 4.0329999923706055,
                "aliasList": [
                    "13013"
                ],
                "actionId": 135,
                "AHGOBCDHCMC": true,
                "FHLAMNNHMFA": true,
                "KCEHDJLKIAL": false,
                "KCOLHJBDILK": true,
                "AOFEDPBOOIE": ""
            }
        ],
        [
            {
                "$type": "IBPNIIGAIPF",
                "type": "LOOK_AT",
                "aliasList": [
                    "Avatar"
                ],
                "actionId": 144,
                "GGIENKFBOGL": true,
                "NDOMJCOFKDJ": 0.5,
                "KIPMIDIKECP": "1052",
                "FGPHOPBEJDE": true,
                "HJJAFGPMJNJ": "",
                "AOFBAGFCGPJ": ""
            },
            {
                "$type": "CCEEIGNAILH",
                "type": "DIALOG",
                "aliasList": [
                    "1052"
                ],
                "actionId": 113,
                "KICBIOMGHIN": 30261104,
                "PNCCODDABKI": 2.6600000858306885
            },
            {
                "$type": "DNAEECJNBFB",
                "type": "EMO_SYNC",
                "aliasList": [
                    "1052"
                ],
                "actionId": 123,
                "EOGJDJKPPGE": "Cs_Emo_Avatar_Simple_Common_Set/Cs_Emo_Avatar_Talk/Cs_Emo_Avatar_MainLine/Cs_Emo_Avatar_Sumeru3/Cs_Emo_30261104",
                "IHCBGPABDLE": "",
                "CIKPDMODFPL": "",
                "HDIAHFFHNGE": "",
                "BOAAGJEEFDD": "",
                "PFDPJKHPADE": "",
                "DALINBJAHOC": [
                    8019345036442714197,
                    16482351952186813235,
                    15467283036131472811,
                    7609551652738282060
                ]
            },
            {
                "$type": "KCBOGFFHPBD",
                "type": "BODY_LANG",
                "aliasList": [
                    "1052"
                ],
                "actionId": 136,
                "GPIEDGOMCGL": 4030,
                "FHLAMNNHMFA": true,
                "KCEHDJLKIAL": false,
                "KCOLHJBDILK": true,
                "AOFEDPBOOIE": ""
            },
            {
                "$type": "IBPNIIGAIPF",
                "type": "LOOK_AT",
                "delayTime": 1.3020000457763672,
                "aliasList": [
                    "1052"
                ],
                "actionId": 139,
                "GGIENKFBOGL": true,
                "NDOMJCOFKDJ": 0.5,
                "KIPMIDIKECP": "Avatar",
                "FGPHOPBEJDE": true,
                "HJJAFGPMJNJ": "",
                "AOFBAGFCGPJ": ""
            },
            {
                "$type": "CNBNGFNKLGP",
                "type": "STEER_TO",
                "delayTime": 1.4049999713897705,
                "duration": 1.0,
                "aliasList": [
                    "1052"
                ],
                "actionId": 137,
                "DEMFHGAIELL": "TO_TARGET",
                "KDKLEJFHDJG": {
                    "x": -401.2349853515625,
                    "y": 239.83099365234375,
                    "z": 2815.111083984375
                },
                "BBNLLCHBKAI": true,
                "COJBPJMLIFM": true,
                "NLIKMFJCLBP": true,
                "KIPMIDIKECP": "Avatar",
                "IDIIDHLNENJ": true,
                "FDLMFGAMGJK": true,
                "AOFBAGFCGPJ": ""
            },
            {
                "$type": "IBPNIIGAIPF",
                "type": "LOOK_AT",
                "delayTime": 1.5420000553131104,
                "aliasList": [
                    "13013"
                ],
                "actionId": 140,
                "GGIENKFBOGL": true,
                "NDOMJCOFKDJ": 0.5,
                "KIPMIDIKECP": "Avatar",
                "FGPHOPBEJDE": true,
                "HJJAFGPMJNJ": "",
                "AOFBAGFCGPJ": ""
            },
            {
                "$type": "CNBNGFNKLGP",
                "type": "STEER_TO",
                "delayTime": 1.656000018119812,
                "duration": 1.0,
                "aliasList": [
                    "13013"
                ],
                "actionId": 138,
                "DEMFHGAIELL": "TO_TARGET",
                "KDKLEJFHDJG": {
                    "x": -401.2349853515625,
                    "y": 239.83099365234375,
                    "z": 2815.111083984375
                },
                "BBNLLCHBKAI": true,
                "COJBPJMLIFM": true,
                "NLIKMFJCLBP": true,
                "KIPMIDIKECP": "Avatar",
                "IDIIDHLNENJ": true,
                "FDLMFGAMGJK": true,
                "AOFBAGFCGPJ": ""
            }
        ],
        [
            {
                "$type": "IBPNIIGAIPF",
                "type": "LOOK_AT",
                "aliasList": [
                    "Avatar"
                ],
                "actionId": 145,
                "GGIENKFBOGL": true,
                "NDOMJCOFKDJ": 0.5,
                "KIPMIDIKECP": "13013",
                "FGPHOPBEJDE": true,
                "HJJAFGPMJNJ": "",
                "AOFBAGFCGPJ": ""
            },
            {
                "$type": "CCEEIGNAILH",
                "type": "DIALOG",
                "aliasList": [
                    "13013"
                ],
                "actionId": 115,
                "KICBIOMGHIN": 30261105,
                "PNCCODDABKI": 0.5
            },
            {
                "$type": "DNAEECJNBFB",
                "type": "EMO_SYNC",
                "aliasList": [
                    "13013"
                ],
                "actionId": 127,
                "EOGJDJKPPGE": "Cs_Emo_Avatar_Simple_Common_Set/Cs_Emo_Avatar_Talk/Cs_Emo_Avatar_MainLine/Cs_Emo_Avatar_Sumeru3/Cs_Emo_30261105",
                "IHCBGPABDLE": "",
                "CIKPDMODFPL": "",
                "HDIAHFFHNGE": "",
                "BOAAGJEEFDD": "",
                "PFDPJKHPADE": "",
                "DALINBJAHOC": [
                    17243618525906197504,
                    8126789713136598139,
                    15415195804588818797,
                    14415796970441957869
                ]
            },
            {
                "$type": "KCBOGFFHPBD",
                "type": "BODY_LANG",
                "aliasList": [
                    "13013"
                ],
                "actionId": 149,
                "GPIEDGOMCGL": 1173,
                "FHLAMNNHMFA": true,
                "KCEHDJLKIAL": false,
                "KCOLHJBDILK": true,
                "AOFEDPBOOIE": ""
            },
            {
                "$type": "MEKNGCBGKEJ",
                "type": "DIALOG_SELECT",
                "delayTime": 0.4000000059604645,
                "aliasList": [
                    "Avatar"
                ],
                "actionId": 116,
                "MLAABINGLAA": [
                    30261106
                ],
                "HPBPDBFGKID": [
                    1500602044
                ],
                "CFJOJADDHHG": true,
                "APEOOMIGHNL": 1500602037
            }
        ],
        [
            {
                "$type": "IBPNIIGAIPF",
                "type": "LOOK_AT",
                "aliasList": [
                    "Avatar"
                ],
                "actionId": 148,
                "GGIENKFBOGL": true,
                "NDOMJCOFKDJ": 0.5,
                "KIPMIDIKECP": "1052",
                "FGPHOPBEJDE": true,
                "HJJAFGPMJNJ": "",
                "AOFBAGFCGPJ": ""
            },
            {
                "$type": "CCEEIGNAILH",
                "type": "DIALOG",
                "aliasList": [
                    "1052"
                ],
                "actionId": 118,
                "KICBIOMGHIN": 30261107,
                "PNCCODDABKI": 0.5
            },
            {
                "$type": "DNAEECJNBFB",
                "type": "EMO_SYNC",
                "aliasList": [
                    "1052"
                ],
                "actionId": 124,
                "EOGJDJKPPGE": "Cs_Emo_Avatar_Simple_Common_Set/Cs_Emo_Avatar_Talk/Cs_Emo_Avatar_MainLine/Cs_Emo_Avatar_Sumeru3/Cs_Emo_30261107",
                "IHCBGPABDLE": "",
                "CIKPDMODFPL": "",
                "HDIAHFFHNGE": "",
                "BOAAGJEEFDD": "",
                "PFDPJKHPADE": "",
                "DALINBJAHOC": [
                    7960409080318271580,
                    13006548084993438729,
                    4615494869185787718,
                    7285416528892628671
                ]
            },
            {
                "$type": "KCBOGFFHPBD",
                "type": "BODY_LANG",
                "aliasList": [
                    "1052"
                ],
                "actionId": 150,
                "GPIEDGOMCGL": 1120,
                "FHLAMNNHMFA": true,
                "KCEHDJLKIAL": false,
                "KCOLHJBDILK": true,
                "AOFEDPBOOIE": ""
            },
            {
                "$type": "IBPNIIGAIPF",
                "type": "LOOK_AT",
                "aliasList": [
                    "13013"
                ],
                "actionId": 157,
                "GGIENKFBOGL": true,
                "NDOMJCOFKDJ": 0.5,
                "KIPMIDIKECP": "Avatar",
                "FGPHOPBEJDE": true,
                "HJJAFGPMJNJ": "",
                "AOFBAGFCGPJ": ""
            }
        ],
        [
            {
                "$type": "MoleMole.Config.ConfigTimeProtectAction",
                "type": "TIME_PROTECT",
                "duration": 0.10000000149011612,
                "actionId": 105
            },
            {
                "$type": "CNBNGFNKLGP",
                "type": "STEER_TO",
                "duration": 1.0,
                "aliasList": [
                    "1052"
                ],
                "actionId": 151,
                "DEMFHGAIELL": "RETURN",
                "KDKLEJFHDJG": {
                    "x": -401.2349853515625,
                    "y": 239.83099365234375,
                    "z": 2815.111083984375
                },
                "BBNLLCHBKAI": true,
                "COJBPJMLIFM": true,
                "NLIKMFJCLBP": true,
                "KIPMIDIKECP": "Avatar",
                "IDIIDHLNENJ": true,
                "FDLMFGAMGJK": true,
                "AOFBAGFCGPJ": ""
            },
            {
                "$type": "IBPNIIGAIPF",
                "type": "LOOK_AT",
                "aliasList": [
                    "1052"
                ],
                "actionId": 154,
                "NDOMJCOFKDJ": 0.5,
                "KIPMIDIKECP": "",
                "FGPHOPBEJDE": true,
                "HJJAFGPMJNJ": "",
                "AOFBAGFCGPJ": ""
            },
            {
                "$type": "CNBNGFNKLGP",
                "type": "STEER_TO",
                "duration": 1.0,
                "aliasList": [
                    "13013"
                ],
                "actionId": 152,
                "DEMFHGAIELL": "RETURN",
                "KDKLEJFHDJG": {
                    "x": -401.2349853515625,
                    "y": 239.83099365234375,
                    "z": 2815.111083984375
                },
                "BBNLLCHBKAI": true,
                "COJBPJMLIFM": true,
                "NLIKMFJCLBP": true,
                "KIPMIDIKECP": "Avatar",
                "IDIIDHLNENJ": true,
                "FDLMFGAMGJK": true,
                "AOFBAGFCGPJ": ""
            },
            {
                "$type": "IBPNIIGAIPF",
                "type": "LOOK_AT",
                "aliasList": [
                    "13013"
                ],
                "actionId": 155,
                "NDOMJCOFKDJ": 0.5,
                "KIPMIDIKECP": "",
                "FGPHOPBEJDE": true,
                "HJJAFGPMJNJ": "",
                "AOFBAGFCGPJ": ""
            }
        ]
    ],
    "groupId": [
        {
            "grpId": 1500602038,
            "nextGrpId": 1500602039
        },
        {
            "index": 1,
            "grpId": 1500602039,
            "nextGrpId": 1500602040
        },
        {
            "index": 2,
            "grpId": 1500602040,
            "nextGrpId": 1500602041
        },
        {
            "index": 3,
            "grpId": 1500602041,
            "nextGrpId": 1500602042
        },
        {
            "index": 4,
            "grpId": 1500602042,
            "nextGrpId": 1500602043
        },
        {
            "index": 5,
            "grpId": 1500602043,
            "nextGrpId": 1500602044
        },
        {
            "index": 6,
            "grpId": 1500602044,
            "nextGrpId": 1500602045
        },
        {
            "index": 7,
            "grpId": 1500602045,
            "nextGrpId": 1500602046
        }
    ],
    "freeStyleDic": {
        "1052": [
            1171,
            4030,
            1120
        ],
        "13013": [
            4030,
            1130,
            1173
        ]
    }
}