{
    "luaDataPath": "",
    "dontUseDefaultFinish": true,
    "startBlackKeepTime": 0.5,
    "entityBan": "",
    "disableNpcLod": true,
    "isAutoBanNpc": true,
    "isBanWidgetPet": true,
    "protectNpcMobileLod": true,
    "MNHFNFDCEFG": 5,
    "startFade": {
        "startFadeInDuration": 0.5,
        "startFadeOutDuration": 0.5
    },
    "endFade": {
        "startFadeOutDuration": 0.0
    },
    "actors": [
        {
            "alias": "Avatar",
            "visible": true,
            "bornPointName": "[10_100160:401.736,411.971,-187.762,0.000,305.118,0.000]",
            "relativePosType": "AVATAR_NEW",
            "relativePosNpcAlias": "",
            "bindMovingTargetKey": ""
        },
        {
            "alias": "AvatarNpc",
            "visible": true,
            "bornPointName": "[10_100160:401.736,411.971,-187.762,0.000,305.118,0.000]",
            "removeActorType": "NEW_REMOVE",
            "relativePosType": "AVATAR_NEW",
            "relativePosNpcAlias": "",
            "bindMovingTargetKey": ""
        },
        {
            "configID": 13246,
            "alias": "13246",
            "visible": true,
            "bornPointName": "[10_100037:397.110,411.971,-191.940,0.860,259.647,359.950]",
            "relativePosType": "AVATAR_NEW",
            "relativePosNpcAlias": "",
            "bindMovingTargetKey": ""
        },
        {
            "configID": 1005,
            "alias": "1005",
            "visible": true,
            "bornPointName": "",
            "useRelativePos": true,
            "relativePos": {
                "x": -0.5,
                "z": 0.5
            },
            "removeActorType": "NEW_REMOVE_WITH_DISAPPEAR",
            "relativePosType": "AVATAR_NEW",
            "relativePosNpcAlias": "",
            "bindMovingTargetKey": ""
        }
    ],
    "group": [
        [
            {
                "$type": "MoleMole.Config.ConfigTimeProtectAction",
                "type": "TIME_PROTECT",
                "duration": 1.0,
                "actionId": 104
            },
            {
                "$type": "MoleMole.Config.ConfigBlackScreenAction",
                "type": "BLACK_SCREEN",
                "duration": 1.0,
                "actionId": 127,
                "blackScreenType": "KEEP_BLACK",
                "durationToBlack": 0.5,
                "durationKeepBlack": 1.0,
                "durationFromBlack": 0.5,
                "inteePos": "",
                "textMapID": "",
                "useTextFade": true
            },
            {
                "$type": "MoleMole.Config.ConfigSitOrStandAction",
                "type": "SIT_OR_STAND",
                "aliasList": [
                    "Avatar"
                ],
                "actionId": 131,
                "banResetFreestyle": true
            },
            {
                "$type": "MoleMole.Config.ConfigVisibleInterAction",
                "type": "VISIBLE",
                "aliasList": [
                    "Avatar"
                ],
                "actionId": 136,
                "extraParam": ""
            },
            {
                "$type": "MoleMole.Config.ConfigTeleportToAction",
                "type": "TELEPORT_TO",
                "aliasList": [
                    "Avatar"
                ],
                "actionId": 263,
                "position": {
                    "x": 399.0379943847656,
                    "y": 411.97100830078125,
                    "z": -192.3780059814453
                },
                "forward": {
                    "x": -0.9890000224113464,
                    "y": -0.009999999776482582,
                    "z": 0.1469999998807907
                },
                "openLongDisTeleport": true,
                "posBindMovingTargetKey": "",
                "forwardBindMovingTargetKey": ""
            },
            {
                "$type": "MoleMole.Config.ConfigPlayerNPCEnergyTypeAction",
                "type": "SET_PLAYER_NPC_ENERGY_TYPE",
                "aliasList": [
                    "AvatarNpc"
                ],
                "actionId": 132,
                "setHeroEngergyType": true
            },
            {
                "$type": "KCBOGFFHPBD",
                "type": "BODY_LANG",
                "aliasList": [
                    "AvatarNpc"
                ],
                "actionId": 133,
                "AHGOBCDHCMC": true,
                "FHLAMNNHMFA": true,
                "KCEHDJLKIAL": false,
                "AOFEDPBOOIE": ""
            },
            {
                "$type": "MoleMole.Config.ConfigTeleportToAction",
                "type": "TELEPORT_TO",
                "aliasList": [
                    "AvatarNpc"
                ],
                "actionId": 144,
                "position": {
                    "x": 399.0379943847656,
                    "y": 411.97100830078125,
                    "z": -192.3780059814453
                },
                "forward": {
                    "x": -0.9890000224113464,
                    "y": -0.009999999776482582,
                    "z": 0.1469999998807907
                },
                "openLongDisTeleport": true,
                "posBindMovingTargetKey": "",
                "forwardBindMovingTargetKey": ""
            },
            {
                "$type": "IBPNIIGAIPF",
                "type": "LOOK_AT",
                "aliasList": [
                    "AvatarNpc"
                ],
                "actionId": 145,
                "flag": 64,
                "GGIENKFBOGL": true,
                "NDOMJCOFKDJ": 0.5,
                "KIPMIDIKECP": "13246",
                "CFEHJBAJLKL": {
                    "x": 359.9809875488281,
                    "y": 338.8999938964844
                },
                "FGPHOPBEJDE": true,
                "PEIIOFIBMAK": 60.0,
                "HJJAFGPMJNJ": "",
                "AOFBAGFCGPJ": ""
            },
            {
                "$type": "KCBOGFFHPBD",
                "type": "BODY_LANG",
                "aliasList": [
                    "13246"
                ],
                "actionId": 123,
                "AHGOBCDHCMC": true,
                "FHLAMNNHMFA": true,
                "KCEHDJLKIAL": false,
                "AOFEDPBOOIE": ""
            },
            {
                "$type": "MoleMole.Config.ConfigTeleportToAction",
                "type": "TELEPORT_TO",
                "aliasList": [
                    "13246"
                ],
                "actionId": 143,
                "position": {
                    "x": 397.1099853515625,
                    "y": 411.97100830078125,
                    "z": -191.94000244140625
                },
                "forward": {
                    "x": 0.8650000095367432,
                    "z": -0.5019999742507935
                },
                "openLongDisTeleport": true,
                "posBindMovingTargetKey": "",
                "forwardBindMovingTargetKey": ""
            },
            {
                "$type": "KCBOGFFHPBD",
                "type": "BODY_LANG",
                "aliasList": [
                    "1005"
                ],
                "actionId": 125,
                "AHGOBCDHCMC": true,
                "FHLAMNNHMFA": true,
                "KCEHDJLKIAL": false,
                "AOFEDPBOOIE": ""
            },
            {
                "$type": "MoleMole.Config.ConfigTeleportToAction",
                "type": "TELEPORT_TO",
                "aliasList": [
                    "1005"
                ],
                "actionId": 146,
                "position": {
                    "x": 398.6400146484375,
                    "y": 411.97100830078125,
                    "z": -193.10000610351562
                },
                "forward": {
                    "x": -0.7570000290870667,
                    "z": 0.6539999842643738
                },
                "openLongDisTeleport": true,
                "posBindMovingTargetKey": "",
                "forwardBindMovingTargetKey": ""
            },
            {
                "$type": "IBPNIIGAIPF",
                "type": "LOOK_AT",
                "aliasList": [
                    "1005"
                ],
                "actionId": 147,
                "flag": 64,
                "GGIENKFBOGL": true,
                "NDOMJCOFKDJ": 0.5,
                "KIPMIDIKECP": "13246",
                "CFEHJBAJLKL": {
                    "x": 356.5570068359375,
                    "y": 339.87701416015625
                },
                "FGPHOPBEJDE": true,
                "PEIIOFIBMAK": 60.0,
                "HJJAFGPMJNJ": "",
                "AOFBAGFCGPJ": ""
            }
        ],
        [
            {
                "$type": "MoleMole.Config.ConfigBlackScreenAction",
                "type": "BLACK_SCREEN",
                "duration": 0.5,
                "actionId": 128,
                "blackScreenType": "FROM_BLACK",
                "durationToBlack": 0.5,
                "durationKeepBlack": 0.5,
                "durationFromBlack": 0.5,
                "inteePos": "",
                "textMapID": "",
                "useTextFade": true
            },
            {
                "$type": "BCJBNCJOPCE",
                "type": "CAMERA_MOVE",
                "duration": 1.0,
                "actionId": 137,
                "AKFGKKEOEFA": {
                    "x": 400.40399169921875,
                    "y": 413.3819885253906,
                    "z": -193.3699951171875
                },
                "NGEBMAEFFGJ": {
                    "x": 399.47601318359375,
                    "y": 413.364990234375,
                    "z": -192.9980010986328
                },
                "LIGHLBKBDEI": 32.0,
                "GFIOJGJJGCN": 6,
                "ABAEPHOGOFF": "EaseInOutCubic",
                "KFDBMBFFANN": {},
                "IEJBKHHEJEN": true,
                "CEDHIBLHMKP": false,
                "KIPMIDIKECP": "",
                "ANFHNPOCMNI": true,
                "BDLGHOJPJHD": "",
                "LCOJGFEOLCK": "",
                "BBBGAEDCJEL": ""
            },
            {
                "$type": "CCEEIGNAILH",
                "type": "DIALOG",
                "aliasList": [
                    "13246"
                ],
                "actionId": 107,
                "KICBIOMGHIN": 401160901,
                "PNCCODDABKI": 1.965000033378601
            },
            {
                "$type": "MoleMole.Config.ConfigSpawnAttachInterAction",
                "type": "SPAWN_ATTACH",
                "aliasList": [
                    "13246"
                ],
                "actionId": 238,
                "attachName": "Talk_4011609_238",
                "attachSetting": {
                    "slotName": "Fx_HeadNode",
                    "attachPath": "ART/Effect/Skill/Monster/Monster_Necalevia/Eff_Monster_Necalevia_Small_Emote_Bingo",
                    "effectPath": "",
                    "attachPos": {
                        "y": -1.409999966621399
                    },
                    "attachScale": {
                        "x": 1.0,
                        "y": 1.0,
                        "z": 1.0
                    }
                }
            },
            {
                "$type": "MoleMole.Config.ConfigAudioPlayAction",
                "type": "AUDIO_PLAY",
                "aliasList": [
                    "13246"
                ],
                "actionId": 262,
                "audioEventStr": "Play_sfx_npc_quest_necalevia_small_01_bingo"
            },
            {
                "$type": "BCJBNCJOPCE",
                "type": "CAMERA_MOVE",
                "delayTime": 0.10000000149011612,
                "duration": 7.085999965667725,
                "actionId": 149,
                "AKFGKKEOEFA": {
                    "x": 400.3689880371094,
                    "y": 413.3919982910156,
                    "z": -193.29299926757812
                },
                "NGEBMAEFFGJ": {
                    "x": 399.4150085449219,
                    "y": 413.3840026855469,
                    "z": -192.9949951171875
                },
                "LIGHLBKBDEI": 32.0,
                "ABAEPHOGOFF": "EaseOutQuad",
                "KFDBMBFFANN": {},
                "IEJBKHHEJEN": true,
                "CEDHIBLHMKP": false,
                "KIPMIDIKECP": "",
                "ANFHNPOCMNI": true,
                "BDLGHOJPJHD": "",
                "LCOJGFEOLCK": "",
                "BBBGAEDCJEL": ""
            },
            {
                "$type": "CNBNGFNKLGP",
                "type": "STEER_TO",
                "delayTime": 0.9269999861717224,
                "duration": 1.0,
                "aliasList": [
                    "13246"
                ],
                "actionId": 150,
                "flag": 32,
                "DEMFHGAIELL": "ABSOLUTE",
                "KDKLEJFHDJG": {
                    "x": 396.74200439453125,
                    "y": 411.97100830078125,
                    "z": -192.62399291992188
                },
                "BBNLLCHBKAI": true,
                "COJBPJMLIFM": true,
                "NLIKMFJCLBP": true,
                "KIPMIDIKECP": "",
                "IDIIDHLNENJ": true,
                "FDLMFGAMGJK": true,
                "AOFBAGFCGPJ": ""
            },
            {
                "$type": "IBPNIIGAIPF",
                "type": "LOOK_AT",
                "delayTime": 1.9459999799728394,
                "aliasList": [
                    "1005"
                ],
                "actionId": 152,
                "flag": 64,
                "GGIENKFBOGL": true,
                "MHMKIICCEDG": {
                    "x": 327.3659973144531
                },
                "NDOMJCOFKDJ": 0.5,
                "KIPMIDIKECP": "",
                "AHLPNEGAKGG": "NONE",
                "FGPHOPBEJDE": true,
                "PEIIOFIBMAK": 60.0,
                "HJJAFGPMJNJ": "",
                "AOFBAGFCGPJ": ""
            },
            {
                "$type": "IBPNIIGAIPF",
                "type": "LOOK_AT",
                "delayTime": 2.2829999923706055,
                "aliasList": [
                    "AvatarNpc"
                ],
                "actionId": 151,
                "flag": 64,
                "GGIENKFBOGL": true,
                "MHMKIICCEDG": {
                    "x": 327.3659973144531
                },
                "NDOMJCOFKDJ": 0.5,
                "KIPMIDIKECP": "",
                "AHLPNEGAKGG": "NONE",
                "FGPHOPBEJDE": true,
                "PEIIOFIBMAK": 60.0,
                "HJJAFGPMJNJ": "",
                "AOFBAGFCGPJ": ""
            },
            {
                "$type": "MoleMole.Config.ConfigSpawnAttachInterAction",
                "type": "SPAWN_ATTACH",
                "delayTime": 2.615999937057495,
                "aliasList": [
                    "13246"
                ],
                "actionId": 240,
                "isRemove": true,
                "attachName": "Talk_4011609_238",
                "attachSetting": {
                    "slotName": "",
                    "attachPath": "",
                    "effectPath": ""
                }
            }
        ],
        [
            {
                "$type": "BCJBNCJOPCE",
                "type": "CAMERA_MOVE",
                "duration": 1.0,
                "actionId": 138,
                "AKFGKKEOEFA": {
                    "x": 402.6929931640625,
                    "y": 415.7489929199219,
                    "z": -190.87399291992188
                },
                "NGEBMAEFFGJ": {
                    "x": 401.85101318359375,
                    "y": 415.302001953125,
                    "z": -191.17599487304688
                },
                "LIGHLBKBDEI": 20.0,
                "GFIOJGJJGCN": 6,
                "ABAEPHOGOFF": "EaseInOutCubic",
                "KFDBMBFFANN": {},
                "IEJBKHHEJEN": true,
                "CEDHIBLHMKP": false,
                "KIPMIDIKECP": "",
                "ANFHNPOCMNI": true,
                "BDLGHOJPJHD": "",
                "LCOJGFEOLCK": "",
                "BBBGAEDCJEL": ""
            },
            {
                "$type": "MoleMole.Config.ConfigTeleportToAction",
                "type": "TELEPORT_TO",
                "aliasList": [
                    "Avatar"
                ],
                "actionId": 264,
                "position": {
                    "x": 398.7099914550781,
                    "y": 411.97100830078125,
                    "z": -192.40199279785156
                },
                "forward": {
                    "x": -0.6759999990463257,
                    "z": 0.13500000536441803
                },
                "openLongDisTeleport": true,
                "posBindMovingTargetKey": "",
                "forwardBindMovingTargetKey": ""
            },
            {
                "$type": "MoleMole.Config.ConfigTeleportToAction",
                "type": "TELEPORT_TO",
                "aliasList": [
                    "AvatarNpc"
                ],
                "actionId": 156,
                "position": {
                    "x": 398.7099914550781,
                    "y": 411.97100830078125,
                    "z": -192.40199279785156
                },
                "forward": {
                    "x": -0.6759999990463257,
                    "z": 0.13500000536441803
                },
                "openLongDisTeleport": true,
                "posBindMovingTargetKey": "",
                "forwardBindMovingTargetKey": ""
            },
            {
                "$type": "MoleMole.Config.ConfigSpawnAttachInterAction",
                "type": "SPAWN_ATTACH",
                "aliasList": [
                    "13246"
                ],
                "actionId": 239,
                "isRemove": true,
                "attachName": "Talk_4011609_238",
                "attachSetting": {
                    "slotName": "",
                    "attachPath": "",
                    "effectPath": ""
                }
            },
            {
                "$type": "CNBNGFNKLGP",
                "type": "STEER_TO",
                "duration": 1.0,
                "aliasList": [
                    "1005"
                ],
                "actionId": 157,
                "flag": 32,
                "DEMFHGAIELL": "ABSOLUTE",
                "KDKLEJFHDJG": {
                    "x": 397.6400146484375,
                    "y": 411.97100830078125,
                    "z": -193.5189971923828
                },
                "BBNLLCHBKAI": true,
                "COJBPJMLIFM": true,
                "NLIKMFJCLBP": true,
                "KIPMIDIKECP": "",
                "IDIIDHLNENJ": true,
                "FDLMFGAMGJK": true,
                "AOFBAGFCGPJ": ""
            },
            {
                "$type": "IBPNIIGAIPF",
                "type": "LOOK_AT",
                "aliasList": [
                    "1005"
                ],
                "actionId": 159,
                "flag": 64,
                "GGIENKFBOGL": true,
                "useTargetPos": true,
                "GCOONJBHNIM": true,
                "JHNJNNOPJKG": {
                    "x": 396.260009765625,
                    "y": 412.52099609375,
                    "z": -193.56900024414062
                },
                "MHMKIICCEDG": {
                    "x": 9.876999855041504,
                    "y": 8.70199966430664
                },
                "NDOMJCOFKDJ": 0.5,
                "KIPMIDIKECP": "",
                "AHLPNEGAKGG": "NONE",
                "FGPHOPBEJDE": true,
                "PEIIOFIBMAK": 60.0,
                "HJJAFGPMJNJ": "",
                "AOFBAGFCGPJ": ""
            },
            {
                "$type": "BCJBNCJOPCE",
                "type": "CAMERA_MOVE",
                "delayTime": 0.10000000149011612,
                "duration": 6.1620001792907715,
                "actionId": 155,
                "AKFGKKEOEFA": {
                    "x": 402.75,
                    "y": 415.61700439453125,
                    "z": -190.83599853515625
                },
                "NGEBMAEFFGJ": {
                    "x": 401.9079895019531,
                    "y": 415.16900634765625,
                    "z": -191.13900756835938
                },
                "LIGHLBKBDEI": 20.0,
                "ABAEPHOGOFF": "EaseOutQuad",
                "KFDBMBFFANN": {},
                "IEJBKHHEJEN": true,
                "CEDHIBLHMKP": false,
                "KIPMIDIKECP": "",
                "ANFHNPOCMNI": true,
                "BDLGHOJPJHD": "",
                "LCOJGFEOLCK": "",
                "BBBGAEDCJEL": ""
            },
            {
                "$type": "IBPNIIGAIPF",
                "type": "LOOK_AT",
                "delayTime": 0.8169999718666077,
                "aliasList": [
                    "AvatarNpc"
                ],
                "actionId": 160,
                "flag": 64,
                "GGIENKFBOGL": true,
                "useTargetPos": true,
                "GCOONJBHNIM": true,
                "JHNJNNOPJKG": {
                    "x": 396.4440002441406,
                    "y": 412.3940124511719,
                    "z": -193.6840057373047
                },
                "MHMKIICCEDG": {
                    "x": 3.9700000286102295,
                    "y": 20.070999145507812
                },
                "NDOMJCOFKDJ": 0.5,
                "KIPMIDIKECP": "",
                "AHLPNEGAKGG": "NONE",
                "FGPHOPBEJDE": true,
                "PEIIOFIBMAK": 60.0,
                "HJJAFGPMJNJ": "",
                "AOFBAGFCGPJ": ""
            },
            {
                "$type": "CCEEIGNAILH",
                "type": "DIALOG",
                "delayTime": 1.0,
                "aliasList": [
                    "1005"
                ],
                "actionId": 109,
                "KICBIOMGHIN": 401160902,
                "PNCCODDABKI": 1.246999979019165
            },
            {
                "$type": "DNAEECJNBFB",
                "type": "EMO_SYNC",
                "delayTime": 1.0,
                "aliasList": [
                    "1005"
                ],
                "actionId": 227,
                "EOGJDJKPPGE": "Cs_Emo_Avatar_Simple_Common_Set/Cs_Emo_Avatar_Talk/Cs_Emo_Avatar_Event/Cs_Emo_Penumbra/Cs_Emo_401160902",
                "IHCBGPABDLE": "",
                "CIKPDMODFPL": "",
                "HDIAHFFHNGE": "",
                "BOAAGJEEFDD": "",
                "PFDPJKHPADE": "",
                "DALINBJAHOC": [
                    9961529324359228528,
                    14354420678098670712,
                    2471688443244648954,
                    9263724934686770321
                ]
            },
            {
                "$type": "CNBNGFNKLGP",
                "type": "STEER_TO",
                "delayTime": 1.0540000200271606,
                "duration": 1.0,
                "aliasList": [
                    "AvatarNpc"
                ],
                "actionId": 158,
                "flag": 32,
                "DEMFHGAIELL": "ABSOLUTE",
                "KDKLEJFHDJG": {
                    "x": 397.4519958496094,
                    "y": 411.97100830078125,
                    "z": -193.0590057373047
                },
                "BBNLLCHBKAI": true,
                "COJBPJMLIFM": true,
                "NLIKMFJCLBP": true,
                "KIPMIDIKECP": "",
                "IDIIDHLNENJ": true,
                "FDLMFGAMGJK": true,
                "AOFBAGFCGPJ": ""
            },
            {
                "$type": "KCBOGFFHPBD",
                "type": "BODY_LANG",
                "delayTime": 1.149999976158142,
                "aliasList": [
                    "1005"
                ],
                "actionId": 161,
                "GPIEDGOMCGL": 1060,
                "FHLAMNNHMFA": true,
                "KCEHDJLKIAL": false,
                "KCOLHJBDILK": true,
                "AOFEDPBOOIE": ""
            },
            {
                "$type": "KCBOGFFHPBD",
                "type": "BODY_LANG",
                "delayTime": 3.1510000228881836,
                "aliasList": [
                    "1005"
                ],
                "actionId": 162,
                "AHGOBCDHCMC": true,
                "FHLAMNNHMFA": true,
                "KCEHDJLKIAL": false,
                "KCOLHJBDILK": true,
                "AOFEDPBOOIE": ""
            }
        ],
        [
            {
                "$type": "BCJBNCJOPCE",
                "type": "CAMERA_MOVE",
                "duration": 1.0,
                "actionId": 139,
                "AKFGKKEOEFA": {
                    "x": 394.8160095214844,
                    "y": 413.6210021972656,
                    "z": -193.2169952392578
                },
                "NGEBMAEFFGJ": {
                    "x": 395.75799560546875,
                    "y": 413.4519958496094,
                    "z": -192.9290008544922
                },
                "LIGHLBKBDEI": 30.0,
                "GFIOJGJJGCN": 6,
                "ABAEPHOGOFF": "EaseInOutCubic",
                "KFDBMBFFANN": {},
                "IEJBKHHEJEN": true,
                "CEDHIBLHMKP": false,
                "KIPMIDIKECP": "",
                "ANFHNPOCMNI": true,
                "BDLGHOJPJHD": "",
                "LCOJGFEOLCK": "",
                "BBBGAEDCJEL": ""
            },
            {
                "$type": "CCEEIGNAILH",
                "type": "DIALOG",
                "aliasList": [
                    "1005"
                ],
                "actionId": 111,
                "KICBIOMGHIN": 401160903,
                "PNCCODDABKI": 2.4809999465942383
            },
            {
                "$type": "IBPNIIGAIPF",
                "type": "LOOK_AT",
                "aliasList": [
                    "1005"
                ],
                "actionId": 164,
                "flag": 64,
                "GGIENKFBOGL": true,
                "NDOMJCOFKDJ": 0.5,
                "KIPMIDIKECP": "13246",
                "CFEHJBAJLKL": {
                    "x": 333.09100341796875,
                    "y": 336.3139953613281
                },
                "FGPHOPBEJDE": true,
                "PEIIOFIBMAK": 60.0,
                "HJJAFGPMJNJ": "",
                "AOFBAGFCGPJ": ""
            },
            {
                "$type": "MoleMole.Config.ConfigTeleportToAction",
                "type": "TELEPORT_TO",
                "aliasList": [
                    "1005"
                ],
                "actionId": 168,
                "position": {
                    "x": 398.6400146484375,
                    "y": 411.97100830078125,
                    "z": -193.10000610351562
                },
                "forward": {
                    "x": -1.0010000467300415,
                    "z": -0.21199999749660492
                },
                "openLongDisTeleport": true,
                "posBindMovingTargetKey": "",
                "forwardBindMovingTargetKey": ""
            },
            {
                "$type": "KCBOGFFHPBD",
                "type": "BODY_LANG",
                "aliasList": [
                    "1005"
                ],
                "actionId": 216,
                "AHGOBCDHCMC": true,
                "FHLAMNNHMFA": true,
                "KCEHDJLKIAL": false,
                "KCOLHJBDILK": true,
                "AOFEDPBOOIE": ""
            },
            {
                "$type": "DNAEECJNBFB",
                "type": "EMO_SYNC",
                "aliasList": [
                    "1005"
                ],
                "actionId": 228,
                "EOGJDJKPPGE": "Cs_Emo_Avatar_Simple_Common_Set/Cs_Emo_Avatar_Talk/Cs_Emo_Avatar_Event/Cs_Emo_Penumbra/Cs_Emo_401160903",
                "IHCBGPABDLE": "",
                "CIKPDMODFPL": "",
                "HDIAHFFHNGE": "",
                "BOAAGJEEFDD": "",
                "PFDPJKHPADE": "",
                "DALINBJAHOC": [
                    9368308398641319065,
                    16480218473615068611,
                    4581086182536149279,
                    13542957028198334191
                ]
            },
            {
                "$type": "BCJBNCJOPCE",
                "type": "CAMERA_MOVE",
                "delayTime": 0.10000000149011612,
                "duration": 8.248000144958496,
                "actionId": 163,
                "AKFGKKEOEFA": {
                    "x": 394.9150085449219,
                    "y": 413.6400146484375,
                    "z": -193.5030059814453
                },
                "NGEBMAEFFGJ": {
                    "x": 395.8389892578125,
                    "y": 413.4679870605469,
                    "z": -193.16200256347656
                },
                "LIGHLBKBDEI": 30.0,
                "ABAEPHOGOFF": "EaseOutQuad",
                "KFDBMBFFANN": {},
                "IEJBKHHEJEN": true,
                "CEDHIBLHMKP": false,
                "KIPMIDIKECP": "",
                "ANFHNPOCMNI": true,
                "BDLGHOJPJHD": "",
                "LCOJGFEOLCK": "",
                "BBBGAEDCJEL": ""
            },
            {
                "$type": "IBPNIIGAIPF",
                "type": "LOOK_AT",
                "delayTime": 0.492000013589859,
                "aliasList": [
                    "AvatarNpc"
                ],
                "actionId": 167,
                "flag": 64,
                "GGIENKFBOGL": true,
                "NDOMJCOFKDJ": 0.5,
                "KIPMIDIKECP": "13246",
                "CFEHJBAJLKL": {
                    "x": 338.6409912109375,
                    "y": 331.65399169921875
                },
                "FGPHOPBEJDE": true,
                "PEIIOFIBMAK": 60.0,
                "HJJAFGPMJNJ": "",
                "AOFBAGFCGPJ": ""
            },
            {
                "$type": "CNBNGFNKLGP",
                "type": "STEER_TO",
                "delayTime": 1.8040000200271606,
                "duration": 1.0,
                "aliasList": [
                    "1005"
                ],
                "actionId": 170,
                "flag": 32,
                "DEMFHGAIELL": "ABSOLUTE",
                "KDKLEJFHDJG": {
                    "x": 398.4649963378906,
                    "y": 411.97100830078125,
                    "z": -192.40199279785156
                },
                "BBNLLCHBKAI": true,
                "COJBPJMLIFM": true,
                "NLIKMFJCLBP": true,
                "KIPMIDIKECP": "",
                "IDIIDHLNENJ": true,
                "FDLMFGAMGJK": true,
                "AOFBAGFCGPJ": ""
            },
            {
                "$type": "IBPNIIGAIPF",
                "type": "LOOK_AT",
                "delayTime": 1.8040000200271606,
                "aliasList": [
                    "1005"
                ],
                "actionId": 171,
                "flag": 64,
                "GGIENKFBOGL": true,
                "NDOMJCOFKDJ": 0.5,
                "KIPMIDIKECP": "AvatarNpc",
                "CFEHJBAJLKL": {
                    "x": 1.49399995803833,
                    "y": 346.4809875488281
                },
                "FGPHOPBEJDE": true,
                "PEIIOFIBMAK": 60.0,
                "HJJAFGPMJNJ": "",
                "AOFBAGFCGPJ": ""
            },
            {
                "$type": "IBPNIIGAIPF",
                "type": "LOOK_AT",
                "delayTime": 2.5999999046325684,
                "aliasList": [
                    "AvatarNpc"
                ],
                "actionId": 169,
                "flag": 64,
                "GGIENKFBOGL": true,
                "useTargetPos": true,
                "GCOONJBHNIM": true,
                "JHNJNNOPJKG": {
                    "x": 398.1619873046875,
                    "y": 413.3219909667969,
                    "z": -193.13099670410156
                },
                "NDOMJCOFKDJ": 0.5,
                "KIPMIDIKECP": "1005",
                "AHLPNEGAKGG": "NONE",
                "CFEHJBAJLKL": {
                    "x": 31.618000030517578,
                    "y": 342.24798583984375
                },
                "FGPHOPBEJDE": true,
                "PEIIOFIBMAK": 60.0,
                "HJJAFGPMJNJ": "",
                "AOFBAGFCGPJ": ""
            },
            {
                "$type": "KCBOGFFHPBD",
                "type": "BODY_LANG",
                "delayTime": 3.4170000553131104,
                "aliasList": [
                    "AvatarNpc"
                ],
                "actionId": 172,
                "GPIEDGOMCGL": 4030,
                "FHLAMNNHMFA": true,
                "KCEHDJLKIAL": false,
                "KCOLHJBDILK": true,
                "AOFEDPBOOIE": ""
            }
        ],
        [
            {
                "$type": "BCJBNCJOPCE",
                "type": "CAMERA_MOVE",
                "duration": 0.5,
                "actionId": 173,
                "AKFGKKEOEFA": {
                    "x": 399.60699462890625,
                    "y": 413.739013671875,
                    "z": -192.08200073242188
                },
                "NGEBMAEFFGJ": {
                    "x": 398.8240051269531,
                    "y": 413.4070129394531,
                    "z": -192.60800170898438
                },
                "LIGHLBKBDEI": 30.0,
                "GFIOJGJJGCN": 6,
                "ABAEPHOGOFF": "EaseInOutCubic",
                "KFDBMBFFANN": {},
                "IEJBKHHEJEN": true,
                "CEDHIBLHMKP": false,
                "KIPMIDIKECP": "",
                "ANFHNPOCMNI": true,
                "BDLGHOJPJHD": "",
                "LCOJGFEOLCK": "",
                "BBBGAEDCJEL": ""
            },
            {
                "$type": "IBPNIIGAIPF",
                "type": "LOOK_AT",
                "aliasList": [
                    "AvatarNpc"
                ],
                "actionId": 195,
                "flag": 64,
                "NDOMJCOFKDJ": 0.5,
                "KIPMIDIKECP": "",
                "FGPHOPBEJDE": true,
                "PEIIOFIBMAK": 60.0,
                "HJJAFGPMJNJ": "",
                "AOFBAGFCGPJ": ""
            },
            {
                "$type": "IBPNIIGAIPF",
                "type": "LOOK_AT",
                "aliasList": [
                    "1005"
                ],
                "actionId": 176,
                "flag": 64,
                "GGIENKFBOGL": true,
                "useTargetPos": true,
                "GCOONJBHNIM": true,
                "JHNJNNOPJKG": {
                    "x": 396.260009765625,
                    "y": 412.52099609375,
                    "z": -193.56900024414062
                },
                "MHMKIICCEDG": {
                    "x": 9.876999855041504,
                    "y": 8.70199966430664
                },
                "NDOMJCOFKDJ": 0.5,
                "KIPMIDIKECP": "",
                "AHLPNEGAKGG": "NONE",
                "FGPHOPBEJDE": true,
                "PEIIOFIBMAK": 60.0,
                "HJJAFGPMJNJ": "",
                "AOFBAGFCGPJ": ""
            },
            {
                "$type": "CNBNGFNKLGP",
                "type": "STEER_TO",
                "duration": 1.0,
                "aliasList": [
                    "1005"
                ],
                "actionId": 177,
                "flag": 32,
                "DEMFHGAIELL": "ABSOLUTE",
                "KDKLEJFHDJG": {
                    "x": 397.6400146484375,
                    "y": 411.97100830078125,
                    "z": -193.5189971923828
                },
                "BBNLLCHBKAI": true,
                "COJBPJMLIFM": true,
                "NLIKMFJCLBP": true,
                "KIPMIDIKECP": "",
                "IDIIDHLNENJ": true,
                "FDLMFGAMGJK": true,
                "AOFBAGFCGPJ": ""
            },
            {
                "$type": "BCJBNCJOPCE",
                "type": "CAMERA_MOVE",
                "delayTime": 0.10000000149011612,
                "duration": 7.517000198364258,
                "actionId": 174,
                "AKFGKKEOEFA": {
                    "x": 399.50299072265625,
                    "y": 413.7139892578125,
                    "z": -192.18800354003906
                },
                "NGEBMAEFFGJ": {
                    "x": 398.71099853515625,
                    "y": 413.35400390625,
                    "z": -192.6820068359375
                },
                "LIGHLBKBDEI": 30.0,
                "ABAEPHOGOFF": "EaseOutQuad",
                "KFDBMBFFANN": {},
                "IEJBKHHEJEN": true,
                "CEDHIBLHMKP": false,
                "KIPMIDIKECP": "",
                "ANFHNPOCMNI": true,
                "BDLGHOJPJHD": "",
                "LCOJGFEOLCK": "",
                "BBBGAEDCJEL": ""
            },
            {
                "$type": "IBPNIIGAIPF",
                "type": "LOOK_AT",
                "delayTime": 0.753000020980835,
                "aliasList": [
                    "AvatarNpc"
                ],
                "actionId": 178,
                "flag": 64,
                "GGIENKFBOGL": true,
                "useTargetPos": true,
                "GCOONJBHNIM": true,
                "JHNJNNOPJKG": {
                    "x": 396.4440002441406,
                    "y": 412.3940124511719,
                    "z": -193.6840057373047
                },
                "MHMKIICCEDG": {
                    "x": 3.9700000286102295,
                    "y": 20.070999145507812
                },
                "NDOMJCOFKDJ": 0.5,
                "KIPMIDIKECP": "",
                "AHLPNEGAKGG": "NONE",
                "FGPHOPBEJDE": true,
                "PEIIOFIBMAK": 60.0,
                "HJJAFGPMJNJ": "",
                "AOFBAGFCGPJ": ""
            },
            {
                "$type": "CCEEIGNAILH",
                "type": "DIALOG",
                "delayTime": 1.0,
                "aliasList": [
                    "1005"
                ],
                "actionId": 113,
                "KICBIOMGHIN": 401160904,
                "PNCCODDABKI": 1.399999976158142
            },
            {
                "$type": "DNAEECJNBFB",
                "type": "EMO_SYNC",
                "delayTime": 1.0,
                "aliasList": [
                    "1005"
                ],
                "actionId": 229,
                "EOGJDJKPPGE": "Cs_Emo_Avatar_Simple_Common_Set/Cs_Emo_Avatar_Talk/Cs_Emo_Avatar_Event/Cs_Emo_Penumbra/Cs_Emo_401160904",
                "IHCBGPABDLE": "",
                "CIKPDMODFPL": "",
                "HDIAHFFHNGE": "",
                "BOAAGJEEFDD": "",
                "PFDPJKHPADE": "",
                "DALINBJAHOC": [
                    7813448393949770782,
                    6917197610740449004,
                    3692358523584340554,
                    8692063838168669826
                ]
            },
            {
                "$type": "MEKNGCBGKEJ",
                "type": "DIALOG_SELECT",
                "delayTime": 1.399999976158142,
                "aliasList": [
                    "AvatarNpc"
                ],
                "actionId": 130,
                "MLAABINGLAA": [
                    401160905
                ],
                "HPBPDBFGKID": [
                    2748515042
                ],
                "CFJOJADDHHG": true,
                "APEOOMIGHNL": 2748515036
            },
            {
                "$type": "KCBOGFFHPBD",
                "type": "BODY_LANG",
                "delayTime": 2.2860000133514404,
                "aliasList": [
                    "1005"
                ],
                "actionId": 179,
                "GPIEDGOMCGL": 1110,
                "FHLAMNNHMFA": true,
                "KCEHDJLKIAL": false,
                "KCOLHJBDILK": true,
                "AOFEDPBOOIE": ""
            },
            {
                "$type": "KCBOGFFHPBD",
                "type": "BODY_LANG",
                "delayTime": 3.7909998893737793,
                "aliasList": [
                    "AvatarNpc"
                ],
                "actionId": 210,
                "GPIEDGOMCGL": 1030,
                "FHLAMNNHMFA": true,
                "KCEHDJLKIAL": false,
                "KCOLHJBDILK": true,
                "AOFEDPBOOIE": ""
            },
            {
                "$type": "KCBOGFFHPBD",
                "type": "BODY_LANG",
                "delayTime": 4.308000087738037,
                "aliasList": [
                    "1005"
                ],
                "actionId": 180,
                "AHGOBCDHCMC": true,
                "FHLAMNNHMFA": true,
                "KCEHDJLKIAL": false,
                "KCOLHJBDILK": true,
                "AOFEDPBOOIE": ""
            },
            {
                "$type": "KCBOGFFHPBD",
                "type": "BODY_LANG",
                "delayTime": 5.625999927520752,
                "aliasList": [
                    "AvatarNpc"
                ],
                "actionId": 211,
                "AHGOBCDHCMC": true,
                "FHLAMNNHMFA": true,
                "KCEHDJLKIAL": false,
                "KCOLHJBDILK": true,
                "AOFEDPBOOIE": ""
            }
        ],
        [
            {
                "$type": "BCJBNCJOPCE",
                "type": "CAMERA_MOVE",
                "duration": 1.0,
                "actionId": 140,
                "AKFGKKEOEFA": {
                    "x": 397.614013671875,
                    "y": 413.1419982910156,
                    "z": -192.85699462890625
                },
                "NGEBMAEFFGJ": {
                    "x": 398.5539855957031,
                    "y": 413.2829895019531,
                    "z": -193.16900634765625
                },
                "LIGHLBKBDEI": 20.0,
                "GFIOJGJJGCN": 6,
                "ABAEPHOGOFF": "EaseInOutCubic",
                "KFDBMBFFANN": {},
                "IEJBKHHEJEN": true,
                "CEDHIBLHMKP": false,
                "KIPMIDIKECP": "",
                "ANFHNPOCMNI": true,
                "BDLGHOJPJHD": "",
                "LCOJGFEOLCK": "",
                "BBBGAEDCJEL": ""
            },
            {
                "$type": "KCBOGFFHPBD",
                "type": "BODY_LANG",
                "aliasList": [
                    "AvatarNpc"
                ],
                "actionId": 212,
                "AHGOBCDHCMC": true,
                "FHLAMNNHMFA": true,
                "KCEHDJLKIAL": false,
                "KCOLHJBDILK": true,
                "AOFEDPBOOIE": ""
            },
            {
                "$type": "CCEEIGNAILH",
                "type": "DIALOG",
                "aliasList": [
                    "1005"
                ],
                "actionId": 116,
                "KICBIOMGHIN": 401160906,
                "PNCCODDABKI": 0.5
            },
            {
                "$type": "KCBOGFFHPBD",
                "type": "BODY_LANG",
                "aliasList": [
                    "1005"
                ],
                "actionId": 183,
                "GPIEDGOMCGL": 1170,
                "FHLAMNNHMFA": true,
                "KCEHDJLKIAL": false,
                "KCOLHJBDILK": true,
                "AOFEDPBOOIE": ""
            },
            {
                "$type": "DNAEECJNBFB",
                "type": "EMO_SYNC",
                "aliasList": [
                    "1005"
                ],
                "actionId": 230,
                "EOGJDJKPPGE": "Cs_Emo_Avatar_Simple_Common_Set/Cs_Emo_Avatar_Talk/Cs_Emo_Avatar_Event/Cs_Emo_Penumbra/Cs_Emo_401160906",
                "IHCBGPABDLE": "",
                "CIKPDMODFPL": "",
                "HDIAHFFHNGE": "",
                "BOAAGJEEFDD": "",
                "PFDPJKHPADE": "",
                "DALINBJAHOC": [
                    7100004693116548212,
                    16387143109398389200,
                    17072900693444155757,
                    9862475754349210337
                ]
            },
            {
                "$type": "BCJBNCJOPCE",
                "type": "CAMERA_MOVE",
                "delayTime": 0.10000000149011612,
                "duration": 7.709000110626221,
                "actionId": 182,
                "AKFGKKEOEFA": {
                    "x": 397.68499755859375,
                    "y": 413.0830078125,
                    "z": -192.9080047607422
                },
                "NGEBMAEFFGJ": {
                    "x": 398.6180114746094,
                    "y": 413.24798583984375,
                    "z": -193.2270050048828
                },
                "LIGHLBKBDEI": 20.0,
                "ABAEPHOGOFF": "EaseInOutQuad",
                "KFDBMBFFANN": {},
                "IEJBKHHEJEN": true,
                "CEDHIBLHMKP": false,
                "KIPMIDIKECP": "",
                "ANFHNPOCMNI": true,
                "BDLGHOJPJHD": "",
                "LCOJGFEOLCK": "",
                "BBBGAEDCJEL": ""
            },
            {
                "$type": "KCBOGFFHPBD",
                "type": "BODY_LANG",
                "delayTime": 1.6579999923706055,
                "aliasList": [
                    "1005"
                ],
                "actionId": 184,
                "AHGOBCDHCMC": true,
                "FHLAMNNHMFA": true,
                "KCEHDJLKIAL": false,
                "KCOLHJBDILK": true,
                "AOFEDPBOOIE": ""
            },
            {
                "$type": "KCBOGFFHPBD",
                "type": "BODY_LANG",
                "delayTime": 2.1740000247955322,
                "aliasList": [
                    "1005"
                ],
                "actionId": 185,
                "GPIEDGOMCGL": 1060,
                "FHLAMNNHMFA": true,
                "KCEHDJLKIAL": false,
                "KCOLHJBDILK": true,
                "AOFEDPBOOIE": ""
            },
            {
                "$type": "IBPNIIGAIPF",
                "type": "LOOK_AT",
                "delayTime": 2.559999942779541,
                "aliasList": [
                    "1005"
                ],
                "actionId": 186,
                "flag": 64,
                "GGIENKFBOGL": true,
                "useTargetPos": true,
                "GCOONJBHNIM": true,
                "JHNJNNOPJKG": {
                    "x": 396.34100341796875,
                    "y": 412.26300048828125,
                    "z": -194.67100524902344
                },
                "MHMKIICCEDG": {
                    "x": 9.876999855041504,
                    "y": 8.70199966430664
                },
                "NDOMJCOFKDJ": 0.5,
                "KIPMIDIKECP": "",
                "AHLPNEGAKGG": "NONE",
                "FGPHOPBEJDE": true,
                "PEIIOFIBMAK": 60.0,
                "HJJAFGPMJNJ": "",
                "AOFBAGFCGPJ": ""
            },
            {
                "$type": "OMPHNKNPPJO",
                "type": "LOOK_AT_EYECTRL",
                "delayTime": 2.6689999103546143,
                "aliasList": [
                    "1005"
                ],
                "actionId": 188,
                "flag": 64,
                "useTargetPos": false,
                "OMHMNNDGHFL": {
                    "x": -3.0
                },
                "AMNIBCAICEP": {
                    "x": -3.0
                },
                "MHBPPJNDKJC": 0.20000000298023224,
                "KIPMIDIKECP": "",
                "JJEGGHOEIPD": "Face"
            },
            {
                "$type": "IBPNIIGAIPF",
                "type": "LOOK_AT",
                "delayTime": 4.559999942779541,
                "aliasList": [
                    "1005"
                ],
                "actionId": 187,
                "flag": 64,
                "GGIENKFBOGL": true,
                "useTargetPos": true,
                "GCOONJBHNIM": true,
                "JHNJNNOPJKG": {
                    "x": 396.20001220703125,
                    "y": 412.26300048828125,
                    "z": -193.69700622558594
                },
                "MHMKIICCEDG": {
                    "x": 9.876999855041504,
                    "y": 8.70199966430664
                },
                "NDOMJCOFKDJ": 0.5,
                "KIPMIDIKECP": "",
                "AHLPNEGAKGG": "NONE",
                "FGPHOPBEJDE": true,
                "PEIIOFIBMAK": 60.0,
                "HJJAFGPMJNJ": "",
                "AOFBAGFCGPJ": ""
            },
            {
                "$type": "OMPHNKNPPJO",
                "type": "LOOK_AT_EYECTRL",
                "delayTime": 4.690999984741211,
                "aliasList": [
                    "1005"
                ],
                "actionId": 189,
                "flag": 64,
                "useTargetPos": false,
                "OMHMNNDGHFL": {
                    "x": 3.0
                },
                "AMNIBCAICEP": {
                    "x": 3.0
                },
                "MHBPPJNDKJC": 0.20000000298023224,
                "KIPMIDIKECP": "",
                "JJEGGHOEIPD": "Face"
            }
        ],
        [
            {
                "$type": "BCJBNCJOPCE",
                "type": "CAMERA_MOVE",
                "duration": 1.0,
                "actionId": 141,
                "AKFGKKEOEFA": {
                    "x": 398.52099609375,
                    "y": 413.7359924316406,
                    "z": -192.78199768066406
                },
                "NGEBMAEFFGJ": {
                    "x": 397.7300109863281,
                    "y": 413.3240051269531,
                    "z": -193.23500061035156
                },
                "LIGHLBKBDEI": 17.500999450683594,
                "GFIOJGJJGCN": 6,
                "ABAEPHOGOFF": "EaseInOutCubic",
                "KFDBMBFFANN": {},
                "IEJBKHHEJEN": true,
                "CEDHIBLHMKP": false,
                "KIPMIDIKECP": "",
                "ANFHNPOCMNI": true,
                "BDLGHOJPJHD": "",
                "LCOJGFEOLCK": "",
                "BBBGAEDCJEL": ""
            },
            {
                "$type": "CCEEIGNAILH",
                "type": "DIALOG",
                "aliasList": [
                    "1005"
                ],
                "actionId": 118,
                "KICBIOMGHIN": 401160907,
                "PNCCODDABKI": 0.5
            },
            {
                "$type": "KCBOGFFHPBD",
                "type": "BODY_LANG",
                "aliasList": [
                    "1005"
                ],
                "actionId": 192,
                "AHGOBCDHCMC": true,
                "FHLAMNNHMFA": true,
                "KCEHDJLKIAL": false,
                "KCOLHJBDILK": true,
                "AOFEDPBOOIE": ""
            },
            {
                "$type": "IBPNIIGAIPF",
                "type": "LOOK_AT",
                "aliasList": [
                    "1005"
                ],
                "actionId": 197,
                "flag": 64,
                "GGIENKFBOGL": true,
                "useTargetPos": true,
                "GCOONJBHNIM": true,
                "JHNJNNOPJKG": {
                    "x": 396.260009765625,
                    "y": 412.52099609375,
                    "z": -193.56900024414062
                },
                "MHMKIICCEDG": {
                    "x": 9.876999855041504,
                    "y": 8.70199966430664
                },
                "NDOMJCOFKDJ": 0.5,
                "KIPMIDIKECP": "",
                "AHLPNEGAKGG": "NONE",
                "FGPHOPBEJDE": true,
                "PEIIOFIBMAK": 60.0,
                "HJJAFGPMJNJ": "",
                "AOFBAGFCGPJ": ""
            },
            {
                "$type": "DNAEECJNBFB",
                "type": "EMO_SYNC",
                "aliasList": [
                    "1005"
                ],
                "actionId": 231,
                "EOGJDJKPPGE": "Cs_Emo_Avatar_Simple_Common_Set/Cs_Emo_Avatar_Talk/Cs_Emo_Avatar_Event/Cs_Emo_Penumbra/Cs_Emo_401160907",
                "IHCBGPABDLE": "",
                "CIKPDMODFPL": "",
                "HDIAHFFHNGE": "",
                "BOAAGJEEFDD": "",
                "PFDPJKHPADE": "",
                "DALINBJAHOC": [
                    5230571141863673494,
                    15508286033568354305,
                    14829200610907868941,
                    17907969934406235472
                ]
            },
            {
                "$type": "BCJBNCJOPCE",
                "type": "CAMERA_MOVE",
                "delayTime": 0.10000000149011612,
                "duration": 7.0329999923706055,
                "actionId": 190,
                "AKFGKKEOEFA": {
                    "x": 398.37799072265625,
                    "y": 413.6619873046875,
                    "z": -192.86399841308594
                },
                "NGEBMAEFFGJ": {
                    "x": 397.5870056152344,
                    "y": 413.2489929199219,
                    "z": -193.31700134277344
                },
                "LIGHLBKBDEI": 17.500999450683594,
                "ABAEPHOGOFF": "EaseOutQuad",
                "KFDBMBFFANN": {},
                "IEJBKHHEJEN": true,
                "CEDHIBLHMKP": false,
                "KIPMIDIKECP": "",
                "ANFHNPOCMNI": true,
                "BDLGHOJPJHD": "",
                "LCOJGFEOLCK": "",
                "BBBGAEDCJEL": ""
            },
            {
                "$type": "BCJBNCJOPCE",
                "type": "CAMERA_MOVE",
                "delayTime": 4.300000190734863,
                "duration": 0.5,
                "actionId": 191,
                "AKFGKKEOEFA": {
                    "x": 396.0450134277344,
                    "y": 413.0509948730469,
                    "z": -193.95799255371094
                },
                "NGEBMAEFFGJ": {
                    "x": 396.9490051269531,
                    "y": 413.11199951171875,
                    "z": -193.53599548339844
                },
                "LIGHLBKBDEI": 17.500999450683594,
                "GFIOJGJJGCN": 6,
                "ABAEPHOGOFF": "EaseInOutCubic",
                "KFDBMBFFANN": {},
                "IEJBKHHEJEN": true,
                "CEDHIBLHMKP": false,
                "KIPMIDIKECP": "",
                "ANFHNPOCMNI": true,
                "BDLGHOJPJHD": "",
                "LCOJGFEOLCK": "",
                "BBBGAEDCJEL": ""
            },
            {
                "$type": "BCJBNCJOPCE",
                "type": "CAMERA_MOVE",
                "delayTime": 4.400000095367432,
                "duration": 10.409000396728516,
                "actionId": 196,
                "AKFGKKEOEFA": {
                    "x": 396.2439880371094,
                    "y": 413.06500244140625,
                    "z": -193.86500549316406
                },
                "NGEBMAEFFGJ": {
                    "x": 397.14801025390625,
                    "y": 413.1260070800781,
                    "z": -193.4429931640625
                },
                "LIGHLBKBDEI": 17.500999450683594,
                "ABAEPHOGOFF": "EaseOutQuad",
                "KFDBMBFFANN": {},
                "IEJBKHHEJEN": true,
                "CEDHIBLHMKP": false,
                "KIPMIDIKECP": "",
                "ANFHNPOCMNI": true,
                "BDLGHOJPJHD": "",
                "LCOJGFEOLCK": "",
                "BBBGAEDCJEL": ""
            },
            {
                "$type": "KCBOGFFHPBD",
                "type": "BODY_LANG",
                "delayTime": 4.6020002365112305,
                "aliasList": [
                    "1005"
                ],
                "actionId": 193,
                "GPIEDGOMCGL": 1230,
                "FHLAMNNHMFA": true,
                "KCEHDJLKIAL": false,
                "KCOLHJBDILK": true,
                "AOFEDPBOOIE": ""
            },
            {
                "$type": "KCBOGFFHPBD",
                "type": "BODY_LANG",
                "delayTime": 6.60099983215332,
                "aliasList": [
                    "1005"
                ],
                "actionId": 194,
                "GPIEDGOMCGL": 4030,
                "FHLAMNNHMFA": true,
                "KCEHDJLKIAL": false,
                "KCOLHJBDILK": true,
                "AOFEDPBOOIE": ""
            }
        ],
        [
            {
                "$type": "BCJBNCJOPCE",
                "type": "CAMERA_MOVE",
                "duration": 1.0,
                "actionId": 142,
                "AKFGKKEOEFA": {
                    "x": 397.7569885253906,
                    "y": 413.5559997558594,
                    "z": -191.30599975585938
                },
                "NGEBMAEFFGJ": {
                    "x": 398.2980041503906,
                    "y": 413.42498779296875,
                    "z": -192.13699340820312
                },
                "LIGHLBKBDEI": 21.777000427246094,
                "GFIOJGJJGCN": 6,
                "ABAEPHOGOFF": "EaseInOutCubic",
                "KFDBMBFFANN": {},
                "IEJBKHHEJEN": true,
                "CEDHIBLHMKP": false,
                "KIPMIDIKECP": "",
                "ANFHNPOCMNI": true,
                "BDLGHOJPJHD": "",
                "LCOJGFEOLCK": "",
                "BBBGAEDCJEL": ""
            },
            {
                "$type": "MoleMole.Config.ConfigTeleportToAction",
                "type": "TELEPORT_TO",
                "aliasList": [
                    "Avatar"
                ],
                "actionId": 265,
                "position": {
                    "x": 398.7099914550781,
                    "y": 411.97100830078125,
                    "z": -192.40199279785156
                },
                "forward": {
                    "x": -0.7409999966621399,
                    "z": -0.6769999861717224
                },
                "openLongDisTeleport": true,
                "posBindMovingTargetKey": "",
                "forwardBindMovingTargetKey": ""
            },
            {
                "$type": "MoleMole.Config.ConfigTeleportToAction",
                "type": "TELEPORT_TO",
                "aliasList": [
                    "AvatarNpc"
                ],
                "actionId": 205,
                "position": {
                    "x": 398.7099914550781,
                    "y": 411.97100830078125,
                    "z": -192.40199279785156
                },
                "forward": {
                    "x": -0.7409999966621399,
                    "z": -0.6769999861717224
                },
                "openLongDisTeleport": true,
                "posBindMovingTargetKey": "",
                "forwardBindMovingTargetKey": ""
            },
            {
                "$type": "KCBOGFFHPBD",
                "type": "BODY_LANG",
                "aliasList": [
                    "1005"
                ],
                "actionId": 200,
                "AHGOBCDHCMC": true,
                "FHLAMNNHMFA": true,
                "KCEHDJLKIAL": false,
                "KCOLHJBDILK": true,
                "AOFEDPBOOIE": ""
            },
            {
                "$type": "DNAEECJNBFB",
                "type": "EMO_SYNC",
                "aliasList": [
                    "1005"
                ],
                "actionId": 249,
                "EOGJDJKPPGE": "",
                "IHCBGPABDLE": "Cs_Emo_Pet_Common/Cs_Emo_Paimon_None",
                "CIKPDMODFPL": "Cs_Emo_Pet_Common/Cs_Emo_Paimon_Normal01_B",
                "HDIAHFFHNGE": "",
                "BOAAGJEEFDD": "",
                "PFDPJKHPADE": "",
                "MJAONEKDECJ": [
                    1796869206626684908,
                    2049648015653630001,
                    14015965774222061559,
                    873259039409222856
                ],
                "DAALMFGCAOO": [
                    14892026956990897578,
                    7647528750435710781,
                    2171559387429051042,
                    15358483104891988261
                ]
            },
            {
                "$type": "BCJBNCJOPCE",
                "type": "CAMERA_MOVE",
                "delayTime": 0.10000000149011612,
                "duration": 5.656000137329102,
                "actionId": 199,
                "AKFGKKEOEFA": {
                    "x": 397.6940002441406,
                    "y": 413.5539855957031,
                    "z": -191.3470001220703
                },
                "NGEBMAEFFGJ": {
                    "x": 398.2349853515625,
                    "y": 413.4230041503906,
                    "z": -192.17799377441406
                },
                "LIGHLBKBDEI": 21.777000427246094,
                "ABAEPHOGOFF": "EaseOutQuad",
                "KFDBMBFFANN": {},
                "IEJBKHHEJEN": true,
                "CEDHIBLHMKP": false,
                "KIPMIDIKECP": "",
                "ANFHNPOCMNI": true,
                "BDLGHOJPJHD": "",
                "LCOJGFEOLCK": "",
                "BBBGAEDCJEL": ""
            },
            {
                "$type": "IBPNIIGAIPF",
                "type": "LOOK_AT",
                "delayTime": 0.4099999964237213,
                "aliasList": [
                    "AvatarNpc"
                ],
                "actionId": 204,
                "flag": 64,
                "GGIENKFBOGL": true,
                "useTargetPos": true,
                "GCOONJBHNIM": true,
                "JHNJNNOPJKG": {
                    "x": 398.6090087890625,
                    "y": 413.3280029296875,
                    "z": -193.08399963378906
                },
                "NDOMJCOFKDJ": 0.5,
                "KIPMIDIKECP": "1005",
                "AHLPNEGAKGG": "NONE",
                "CFEHJBAJLKL": {
                    "x": 359.0799865722656,
                    "y": 344.18798828125
                },
                "FGPHOPBEJDE": true,
                "PEIIOFIBMAK": 60.0,
                "HJJAFGPMJNJ": "",
                "AOFBAGFCGPJ": ""
            },
            {
                "$type": "IBPNIIGAIPF",
                "type": "LOOK_AT",
                "delayTime": 0.47200000286102295,
                "aliasList": [
                    "1005"
                ],
                "actionId": 203,
                "flag": 64,
                "GGIENKFBOGL": true,
                "NDOMJCOFKDJ": 0.5,
                "KIPMIDIKECP": "AvatarNpc",
                "CFEHJBAJLKL": {
                    "x": 351.1050109863281,
                    "y": 350.27801513671875
                },
                "FGPHOPBEJDE": true,
                "PEIIOFIBMAK": 60.0,
                "HJJAFGPMJNJ": "",
                "AOFBAGFCGPJ": ""
            },
            {
                "$type": "CNBNGFNKLGP",
                "type": "STEER_TO",
                "delayTime": 0.7459999918937683,
                "duration": 1.0,
                "aliasList": [
                    "1005"
                ],
                "actionId": 201,
                "flag": 32,
                "DEMFHGAIELL": "ABSOLUTE",
                "KDKLEJFHDJG": {
                    "x": 398.56298828125,
                    "y": 411.97100830078125,
                    "z": -192.59800720214844
                },
                "BBNLLCHBKAI": true,
                "COJBPJMLIFM": true,
                "NLIKMFJCLBP": true,
                "KIPMIDIKECP": "",
                "IDIIDHLNENJ": true,
                "FDLMFGAMGJK": true,
                "AOFBAGFCGPJ": ""
            },
            {
                "$type": "CCEEIGNAILH",
                "type": "DIALOG",
                "delayTime": 1.5,
                "aliasList": [
                    "1005"
                ],
                "actionId": 120,
                "KICBIOMGHIN": 401160908,
                "PNCCODDABKI": 1.8029999732971191
            },
            {
                "$type": "DNAEECJNBFB",
                "type": "EMO_SYNC",
                "delayTime": 1.5,
                "aliasList": [
                    "1005"
                ],
                "actionId": 232,
                "EOGJDJKPPGE": "Cs_Emo_Avatar_Simple_Common_Set/Cs_Emo_Avatar_Talk/Cs_Emo_Avatar_Event/Cs_Emo_Penumbra/Cs_Emo_401160908",
                "IHCBGPABDLE": "",
                "CIKPDMODFPL": "",
                "HDIAHFFHNGE": "",
                "BOAAGJEEFDD": "",
                "PFDPJKHPADE": "",
                "DALINBJAHOC": [
                    2947409001992807381,
                    8761305079391127448,
                    2812903665102804144,
                    11782053408085708611
                ]
            },
            {
                "$type": "KCBOGFFHPBD",
                "type": "BODY_LANG",
                "delayTime": 1.8830000162124634,
                "aliasList": [
                    "1005"
                ],
                "actionId": 206,
                "GPIEDGOMCGL": 1170,
                "FHLAMNNHMFA": true,
                "KCEHDJLKIAL": false,
                "KCOLHJBDILK": true,
                "AOFEDPBOOIE": ""
            },
            {
                "$type": "KCBOGFFHPBD",
                "type": "BODY_LANG",
                "delayTime": 3.0980000495910645,
                "aliasList": [
                    "AvatarNpc"
                ],
                "actionId": 208,
                "GPIEDGOMCGL": 4030,
                "FHLAMNNHMFA": true,
                "KCEHDJLKIAL": false,
                "KCOLHJBDILK": true,
                "AOFEDPBOOIE": ""
            },
            {
                "$type": "KCBOGFFHPBD",
                "type": "BODY_LANG",
                "delayTime": 3.5320000648498535,
                "aliasList": [
                    "1005"
                ],
                "actionId": 207,
                "AHGOBCDHCMC": true,
                "FHLAMNNHMFA": true,
                "KCEHDJLKIAL": false,
                "KCOLHJBDILK": true,
                "AOFEDPBOOIE": ""
            }
        ],
        [
            {
                "$type": "MoleMole.Config.ConfigSimpleBlackScreenAction",
                "type": "SIMPLE_BLACK_SCREEN",
                "actionId": 121,
                "durationToBlack": 0.5,
                "durationKeepBlack": 1.5,
                "durationFromBlack": 0.5,
                "textMapID": ""
            },
            {
                "$type": "MoleMole.Config.ConfigTimeProtectAction",
                "type": "TIME_PROTECT",
                "duration": 0.699999988079071,
                "actionId": 122
            },
            {
                "$type": "CCEEIGNAILH",
                "type": "DIALOG_CLEAR",
                "actionId": 215
            },
            {
                "$type": "KCBOGFFHPBD",
                "type": "BODY_LANG",
                "aliasList": [
                    "AvatarNpc"
                ],
                "actionId": 134,
                "AHGOBCDHCMC": true,
                "FHLAMNNHMFA": true,
                "KCEHDJLKIAL": false,
                "AOFEDPBOOIE": ""
            },
            {
                "$type": "KCBOGFFHPBD",
                "type": "BODY_LANG",
                "aliasList": [
                    "13246"
                ],
                "actionId": 124,
                "AHGOBCDHCMC": true,
                "FHLAMNNHMFA": true,
                "KCEHDJLKIAL": false,
                "AOFEDPBOOIE": ""
            },
            {
                "$type": "KCBOGFFHPBD",
                "type": "BODY_LANG",
                "aliasList": [
                    "1005"
                ],
                "actionId": 126,
                "AHGOBCDHCMC": true,
                "FHLAMNNHMFA": true,
                "KCEHDJLKIAL": false,
                "AOFEDPBOOIE": ""
            },
            {
                "$type": "BCJBNCJOPCE",
                "type": "CAMERA_MOVE",
                "delayTime": 0.6000000238418579,
                "duration": 0.5,
                "actionId": 237,
                "KNAICGCGOHN": "EXIT",
                "NGEBMAEFFGJ": {
                    "z": 1.0
                },
                "GFIOJGJJGCN": 5,
                "ABAEPHOGOFF": "EaseInOutCubic",
                "KFDBMBFFANN": {},
                "CEDHIBLHMKP": false,
                "KIPMIDIKECP": "",
                "ANFHNPOCMNI": true,
                "BDLGHOJPJHD": "",
                "LCOJGFEOLCK": "",
                "BBBGAEDCJEL": ""
            },
            {
                "$type": "MoleMole.Config.ConfigVisibleInterAction",
                "type": "VISIBLE",
                "delayTime": 0.6000000238418579,
                "aliasList": [
                    "Avatar"
                ],
                "actionId": 135,
                "isVisible": true,
                "extraParam": ""
            },
            {
                "$type": "MoleMole.Config.ConfigTeleportToAction",
                "type": "TELEPORT_TO",
                "delayTime": 0.6000000238418579,
                "aliasList": [
                    "Avatar"
                ],
                "actionId": 266,
                "position": {
                    "x": 399.0379943847656,
                    "y": 411.97100830078125,
                    "z": -192.3780059814453
                },
                "forward": {
                    "x": -1.1360000371932983,
                    "z": -0.609000027179718
                },
                "openLongDisTeleport": true,
                "posBindMovingTargetKey": "",
                "forwardBindMovingTargetKey": ""
            },
            {
                "$type": "MoleMole.Config.ConfigTeleportToAction",
                "type": "TELEPORT_TO",
                "delayTime": 0.6000000238418579,
                "aliasList": [
                    "AvatarNpc"
                ],
                "actionId": 218,
                "position": {
                    "x": 399.0379943847656,
                    "y": 411.97100830078125,
                    "z": -192.3780059814453
                },
                "forward": {
                    "x": -1.1360000371932983,
                    "z": -0.609000027179718
                },
                "openLongDisTeleport": true,
                "posBindMovingTargetKey": "",
                "forwardBindMovingTargetKey": ""
            }
        ]
    ],
    "groupId": [
        {
            "grpId": 2748515037,
            "nextGrpId": 2748515038
        },
        {
            "index": 1,
            "grpId": 2748515038,
            "nextGrpId": 2748515039
        },
        {
            "index": 2,
            "grpId": 2748515039,
            "nextGrpId": 2748515040
        },
        {
            "index": 3,
            "grpId": 2748515040,
            "nextGrpId": 2748515041
        },
        {
            "index": 4,
            "grpId": 2748515041,
            "nextGrpId": 2748515042
        },
        {
            "index": 5,
            "grpId": 2748515042,
            "nextGrpId": 2748515043
        },
        {
            "index": 6,
            "grpId": 2748515043,
            "nextGrpId": 2748515044
        },
        {
            "index": 7,
            "grpId": 2748515044,
            "nextGrpId": 2748515045
        },
        {
            "index": 8,
            "grpId": 2748515045,
            "nextGrpId": 3599587571
        }
    ],
    "freeStyleDic": {
        "1025": [
            4030,
            1030
        ],
        "1026": [
            4030,
            1030
        ]
    },
    "CKNKEEMIAPG": {
        "AvatarNpc": [
            "SitChat01AS",
            "SitHoldArm01AS",
            "SitShrug01AS",
            "SitThink01AS"
        ]
    }
}