[
    {
        "Default": {
            "$type": "ConfigAbility",
            "abilityName": "Avatar_Weapon_Metal"
        }
    },
    {
        "Default": {
            "$type": "ConfigAbility",
            "abilityName": "Avatar_Weapon_Wood_Normal",
            "modifiers": {
                "GrassMaterial": {
                    "modifierName": "",
                    "elementType": "Grass",
                    "bonusCriticalHurt": 150.0,
                    "onRemoved": [
                        {
                            "$type": "ApplyModifier",
                            "repeatTimes": true,
                            "modifierName": "Burned"
                        }
                    ]
                },
                "Burned": {
                    "modifierName": "",
                    "duration": 5.0,
                    "bonusCriticalHurt": 100.0,
                    "onRemoved": [
                        {
                            "$type": "ApplyModifier",
                            "repeatTimes": true,
                            "modifierName": "GrassMaterial"
                        }
                    ]
                }
            },
            "onAdded": [
                {
                    "$type": "ApplyModifier",
                    "modifierName": "GrassMaterial"
                }
            ]
        }
    },
    {
        "Default": {
            "$type": "ConfigAbility",
            "abilityName": "Avatar_Weapon_Wood_Hard",
            "modifiers": {
                "GrassMaterial": {
                    "modifierName": "",
                    "elementType": "Grass",
                    "bonusCriticalHurt": 150.0,
                    "onRemoved": [
                        {
                            "$type": "ApplyModifier",
                            "modifierName": "Burned"
                        }
                    ]
                },
                "AntiFireMaterial": {
                    "modifierName": "",
                    "elementType": "AntiFire",
                    "bonusCriticalHurt": 100.0
                },
                "Burned": {
                    "modifierName": "",
                    "duration": 5.0,
                    "bonusCriticalHurt": 100.0,
                    "onRemoved": [
                        {
                            "$type": "ApplyModifier",
                            "modifierName": "GrassMaterial"
                        },
                        {
                            "$type": "ApplyModifier",
                            "modifierName": "AntiFireMaterial"
                        }
                    ]
                }
            },
            "onAdded": [
                {
                    "$type": "ApplyModifier",
                    "modifierName": "GrassMaterial"
                },
                {
                    "$type": "ApplyModifier",
                    "modifierName": "AntiFireMaterial"
                }
            ]
        }
    }
]