{
    "luaDataPath": "",
    "isSimpleTalk": true,
    "entityBan": "",
    "disableNpcLod": true,
    "startFade": {
        "startFadeOutDuration": 0.0
    },
    "endFade": {
        "startFadeOutDuration": 0.0
    },
    "actors": [
        {
            "alias": "Avatar",
            "visible": true,
            "bornPointName": "",
            "relativePosNpcAlias": "",
            "bindMovingTargetKey": ""
        },
        {
            "configID": 1005,
            "alias": "1005",
            "visible": true,
            "bornPointName": "",
            "relativePos": {
                "x": -0.5600000023841858,
                "z": 0.5
            },
            "removeActorType": "REMOVE_WITH_DISAPPEAR",
            "relativePosNpcAlias": "",
            "bindMovingTargetKey": ""
        },
        {
            "configID": 20523,
            "alias": "20523",
            "visible": true,
            "bornPointName": "",
            "relativePos": {
                "x": 1.0,
                "z": 1.0
            },
            "relativePosNpcAlias": "",
            "bindMovingTargetKey": ""
        }
    ],
    "group": [
        [
            {
                "$type": "MoleMole.Config.ConfigTeleportToAction",
                "type": "TELEPORT_TO",
                "aliasList": [
                    "1005"
                ],
                "position": {
                    "x": 863.3090209960938,
                    "y": 992.822998046875,
                    "z": 722.531005859375
                },
                "forward": {
                    "x": 0.5040000081062317,
                    "y": 0.5899999737739563,
                    "z": 0.014000000432133675
                },
                "openLongDisTeleport": true,
                "posBindMovingTargetKey": "",
                "forwardBindMovingTargetKey": ""
            },
            {
                "$type": "MoleMole.Config.ConfigTimeProtectAction",
                "type": "TIME_PROTECT",
                "duration": 0.10000000149011612
            },
            {
                "$type": "BCJBNCJOPCE",
                "type": "CAMERA_FOCUS",
                "duration": 0.10000000149011612,
                "KIPMIDIKECP": "",
                "BDLGHOJPJHD": "",
                "LCOJGFEOLCK": "",
                "BBBGAEDCJEL": ""
            },
            {
                "$type": "CNBNGFNKLGP",
                "type": "STEER_TO",
                "delayTime": 0.2669999897480011,
                "duration": 1.0,
                "aliasList": [
                    "1005"
                ],
                "DEMFHGAIELL": "TO_TARGET",
                "BBNLLCHBKAI": true,
                "COJBPJMLIFM": true,
                "NLIKMFJCLBP": true,
                "KIPMIDIKECP": "20523",
                "AOFBAGFCGPJ": ""
            },
            {
                "$type": "CNBNGFNKLGP",
                "type": "STEER_TO",
                "delayTime": 0.30000001192092896,
                "duration": 0.800000011920929,
                "aliasList": [
                    "20523"
                ],
                "DEMFHGAIELL": "TO_LOCAL_AVATAR_ADVANCED",
                "BBNLLCHBKAI": true,
                "COJBPJMLIFM": true,
                "NLIKMFJCLBP": true,
                "KIPMIDIKECP": "",
                "AOFBAGFCGPJ": ""
            },
            {
                "$type": "CNBNGFNKLGP",
                "type": "STEER_TO",
                "delayTime": 0.30000001192092896,
                "duration": 0.800000011920929,
                "aliasList": [
                    "Avatar"
                ],
                "DEMFHGAIELL": "TO_TARGET_ADVANCED",
                "BBNLLCHBKAI": true,
                "COJBPJMLIFM": true,
                "NLIKMFJCLBP": true,
                "KIPMIDIKECP": "20523",
                "AOFBAGFCGPJ": ""
            }
        ],
        [
            {
                "$type": "CCEEIGNAILH",
                "type": "DIALOG",
                "aliasList": [
                    "1005"
                ],
                "KICBIOMGHIN": 710400401,
                "PNCCODDABKI": 0.5
            }
        ],
        [
            {
                "$type": "CCEEIGNAILH",
                "type": "DIALOG",
                "aliasList": [
                    "20523"
                ],
                "KICBIOMGHIN": 710400402,
                "PNCCODDABKI": 0.5
            }
        ],
        [
            {
                "$type": "CCEEIGNAILH",
                "type": "DIALOG",
                "aliasList": [
                    "1005"
                ],
                "KICBIOMGHIN": 710400403,
                "PNCCODDABKI": 0.5
            }
        ],
        [
            {
                "$type": "MoleMole.Config.ConfigTimeProtectAction",
                "type": "TIME_PROTECT",
                "duration": 0.10000000149011612
            }
        ]
    ],
    "groupId": [
        {
            "grpId": 650643860,
            "nextGrpId": 650643861
        },
        {
            "index": 1,
            "grpId": 650643861,
            "nextGrpId": 650643862
        },
        {
            "index": 2,
            "grpId": 650643862,
            "nextGrpId": 650643863
        },
        {
            "index": 3,
            "grpId": 650643863,
            "nextGrpId": 650643864
        },
        {
            "index": 4,
            "grpId": 650643864,
            "nextGrpId": 650643865
        }
    ],
    "freeStyleDic": {
        "20523": []
    }
}