{
    "luaDataPath": "",
    "isSimpleTalk": true,
    "dontUseDefaultFinish": true,
    "entityBan": "",
    "disableNpcLod": true,
    "isBanWidgetPet": true,
    "protectNpcMobileLod": true,
    "MNHFNFDCEFG": 5,
    "startFade": {
        "startFadeOutDuration": 0.0
    },
    "endFade": {
        "startFadeOutDuration": 0.0
    },
    "actors": [
        {
            "alias": "Avatar",
            "visible": true,
            "bornPointName": "",
            "relativePosType": "AVATAR_NEW",
            "relativePosNpcAlias": "",
            "bindMovingTargetKey": ""
        },
        {
            "configID": 30341,
            "alias": "30341",
            "visible": true,
            "bornPointName": "",
            "forceCreateDaily": true,
            "relativePosType": "AVATAR_NEW",
            "relativePosNpcAlias": "",
            "bindMovingTargetKey": ""
        }
    ],
    "group": [
        [
            {
                "$type": "MoleMole.Config.ConfigTimeProtectAction",
                "type": "TIME_PROTECT",
                "duration": 0.10000000149011612,
                "actionId": 104
            },
            {
                "$type": "BCJBNCJOPCE",
                "type": "CAMERA_MOVE",
                "duration": 0.5,
                "actionId": 110,
                "KNAICGCGOHN": "RELATIVE_TO_TARGET_ENTITY",
                "AKFGKKEOEFA": {
                    "x": -307.32501220703125,
                    "y": 256.47900390625,
                    "z": 2922.2060546875
                },
                "KOPGEAIDOOE": "RELATIVE_TO_TARGET_ENTITY",
                "NGEBMAEFFGJ": {
                    "x": 32.87200164794922,
                    "y": 142.18600463867188
                },
                "GFIOJGJJGCN": 6,
                "ABAEPHOGOFF": "EaseInOutCubic",
                "KFDBMBFFANN": {},
                "IEJBKHHEJEN": true,
                "CEDHIBLHMKP": false,
                "KIPMIDIKECP": "30341",
                "ANFHNPOCMNI": true,
                "BDLGHOJPJHD": "",
                "LCOJGFEOLCK": "",
                "BBBGAEDCJEL": ""
            }
        ],
        [
            {
                "$type": "CCEEIGNAILH",
                "type": "DIALOG",
                "aliasList": [
                    "30341"
                ],
                "actionId": 107,
                "KICBIOMGHIN": 736960501,
                "PNCCODDABKI": 0.5
            },
            {
                "$type": "KCBOGFFHPBD",
                "type": "BODY_LANG",
                "aliasList": [
                    "30341"
                ],
                "actionId": 114,
                "GPIEDGOMCGL": 4030,
                "FHLAMNNHMFA": true,
                "KCEHDJLKIAL": false,
                "KCOLHJBDILK": true,
                "AOFEDPBOOIE": ""
            }
        ],
        [
            {
                "$type": "MoleMole.Config.ConfigTimeProtectAction",
                "type": "TIME_PROTECT",
                "duration": 0.10000000149011612,
                "actionId": 105
            },
            {
                "$type": "MoleMole.Config.ConfigUITriggerInterAction",
                "type": "UI_TRIGGER",
                "actionId": 111,
                "contextName": "AkaFesReasoningQuestion",
                "param": "1011"
            },
            {
                "$type": "BCJBNCJOPCE",
                "type": "CAMERA_MOVE",
                "duration": 0.5,
                "actionId": 116,
                "flag": 2,
                "AKFGKKEOEFA": {
                    "x": -331.23199462890625,
                    "y": 315.45001220703125,
                    "z": 2875.62109375
                },
                "NGEBMAEFFGJ": {
                    "x": -330.88299560546875,
                    "y": 315.4280090332031,
                    "z": 2876.55810546875
                },
                "GFIOJGJJGCN": 6,
                "ABAEPHOGOFF": "EaseInOutCubic",
                "KFDBMBFFANN": {},
                "IEJBKHHEJEN": true,
                "CEDHIBLHMKP": false,
                "KIPMIDIKECP": "Avatar",
                "ANFHNPOCMNI": true,
                "BDLGHOJPJHD": "",
                "LCOJGFEOLCK": "",
                "BBBGAEDCJEL": ""
            },
            {
                "$type": "BCJBNCJOPCE",
                "type": "CAMERA_MOVE",
                "duration": 0.5,
                "actionId": 117,
                "flag": 1,
                "AKFGKKEOEFA": {
                    "x": -331.281005859375,
                    "y": 315.510009765625,
                    "z": 2875.468017578125
                },
                "NGEBMAEFFGJ": {
                    "x": -330.864990234375,
                    "y": 315.4880065917969,
                    "z": 2876.376953125
                },
                "GFIOJGJJGCN": 6,
                "ABAEPHOGOFF": "EaseInOutCubic",
                "KFDBMBFFANN": {},
                "IEJBKHHEJEN": true,
                "CEDHIBLHMKP": false,
                "KIPMIDIKECP": "Avatar",
                "ANFHNPOCMNI": true,
                "BDLGHOJPJHD": "",
                "LCOJGFEOLCK": "",
                "BBBGAEDCJEL": ""
            }
        ]
    ],
    "groupId": [
        {
            "grpId": 3460899850,
            "nextGrpId": 3460899851
        },
        {
            "index": 1,
            "grpId": 3460899851,
            "nextGrpId": 3460899852
        },
        {
            "index": 2,
            "grpId": 3460899852,
            "nextGrpId": 3460899853
        }
    ],
    "freeStyleDic": {
        "30341": [
            4030
        ]
    }
}