{
    "luaDataPath": "",
    "dontUseDefaultFinish": true,
    "entityBan": "",
    "disableNpcLod": true,
    "isAutoBanNpc": true,
    "isBanWidgetPet": true,
    "protectNpcMobileLod": true,
    "MNHFNFDCEFG": 5,
    "startFade": {
        "startFadeOutDuration": 0.0
    },
    "endFade": {
        "startFadeOutDuration": 0.0
    },
    "actors": [
        {
            "alias": "Avatar",
            "visible": true,
            "bornPointName": "",
            "relativePosType": "AVATAR_NEW",
            "relativePosNpcAlias": "",
            "bindMovingTargetKey": ""
        },
        {
            "configID": 30341,
            "alias": "30341",
            "visible": true,
            "bornPointName": "",
            "forceCreateDaily": true,
            "relativePosType": "AVATAR_NEW",
            "relativePosNpcAlias": "",
            "bindMovingTargetKey": ""
        }
    ],
    "group": [
        [
            {
                "$type": "MoleMole.Config.ConfigTimeProtectAction",
                "type": "TIME_PROTECT",
                "duration": 0.10000000149011612,
                "actionId": 104
            },
            {
                "$type": "BCJBNCJOPCE",
                "type": "CAMERA_MOVE",
                "duration": 0.5,
                "actionId": 116,
                "KNAICGCGOHN": "RELATIVE_TO_TARGET_ENTITY",
                "AKFGKKEOEFA": {
                    "x": -332.6499938964844,
                    "y": 315.37298583984375,
                    "z": 2889.93310546875
                },
                "KOPGEAIDOOE": "RELATIVE_TO_TARGET_ENTITY",
                "NGEBMAEFFGJ": {
                    "x": 4.168000221252441,
                    "y": 208.15899658203125
                },
                "GFIOJGJJGCN": 6,
                "ABAEPHOGOFF": "EaseInOutCubic",
                "KFDBMBFFANN": {},
                "IEJBKHHEJEN": true,
                "CEDHIBLHMKP": false,
                "KIPMIDIKECP": "30341",
                "ANFHNPOCMNI": true,
                "BDLGHOJPJHD": "",
                "LCOJGFEOLCK": "",
                "BBBGAEDCJEL": ""
            }
        ],
        [
            {
                "$type": "CCEEIGNAILH",
                "type": "DIALOG",
                "aliasList": [
                    "30341"
                ],
                "actionId": 107,
                "KICBIOMGHIN": 736965601,
                "PNCCODDABKI": 0.5
            },
            {
                "$type": "KCBOGFFHPBD",
                "type": "BODY_LANG",
                "aliasList": [
                    "30341"
                ],
                "actionId": 118,
                "GPIEDGOMCGL": 4040,
                "FHLAMNNHMFA": true,
                "KCEHDJLKIAL": false,
                "KCOLHJBDILK": true,
                "AOFEDPBOOIE": ""
            }
        ],
        [
            {
                "$type": "MoleMole.Config.ConfigTimeProtectAction",
                "type": "TIME_PROTECT",
                "duration": 0.10000000149011612,
                "actionId": 105
            },
            {
                "$type": "MoleMole.Config.ConfigUITriggerInterAction",
                "type": "UI_TRIGGER",
                "actionId": 115,
                "contextName": "AkaFesReasoningQuestion",
                "param": "3031"
            },
            {
                "$type": "BCJBNCJOPCE",
                "type": "CAMERA_MOVE",
                "duration": 0.5,
                "actionId": 120,
                "flag": 2,
                "AKFGKKEOEFA": {
                    "x": -331.23199462890625,
                    "y": 315.45001220703125,
                    "z": 2875.62109375
                },
                "NGEBMAEFFGJ": {
                    "x": -330.88299560546875,
                    "y": 315.4280090332031,
                    "z": 2876.55810546875
                },
                "GFIOJGJJGCN": 6,
                "ABAEPHOGOFF": "EaseInOutCubic",
                "KFDBMBFFANN": {},
                "IEJBKHHEJEN": true,
                "CEDHIBLHMKP": false,
                "KIPMIDIKECP": "Avatar",
                "ANFHNPOCMNI": true,
                "BDLGHOJPJHD": "",
                "LCOJGFEOLCK": "",
                "BBBGAEDCJEL": ""
            },
            {
                "$type": "BCJBNCJOPCE",
                "type": "CAMERA_MOVE",
                "duration": 0.5,
                "actionId": 121,
                "flag": 1,
                "AKFGKKEOEFA": {
                    "x": -331.281005859375,
                    "y": 315.510009765625,
                    "z": 2875.468017578125
                },
                "NGEBMAEFFGJ": {
                    "x": -330.864990234375,
                    "y": 315.4880065917969,
                    "z": 2876.376953125
                },
                "GFIOJGJJGCN": 6,
                "ABAEPHOGOFF": "EaseInOutCubic",
                "KFDBMBFFANN": {},
                "IEJBKHHEJEN": true,
                "CEDHIBLHMKP": false,
                "KIPMIDIKECP": "Avatar",
                "ANFHNPOCMNI": true,
                "BDLGHOJPJHD": "",
                "LCOJGFEOLCK": "",
                "BBBGAEDCJEL": ""
            }
        ]
    ],
    "groupId": [
        {
            "grpId": 3461049766,
            "nextGrpId": 3461049767
        },
        {
            "index": 1,
            "grpId": 3461049767,
            "nextGrpId": 3461049768
        },
        {
            "index": 2,
            "grpId": 3461049768,
            "nextGrpId": 3461049769
        }
    ],
    "freeStyleDic": {
        "30341": [
            4040
        ]
    }
}