{
    "luaDataPath": "",
    "dontUseDefaultFinish": true,
    "entityBan": "",
    "disableNpcLod": true,
    "isAutoBanNpc": true,
    "isBanWidgetPet": true,
    "protectNpcMobileLod": true,
    "MNHFNFDCEFG": 5,
    "startFade": {
        "startFadeOutDuration": 0.0
    },
    "endFade": {
        "startFadeOutDuration": 0.0
    },
    "actors": [
        {
            "alias": "Avatar",
            "visible": true,
            "bornPointName": "",
            "relativePosType": "AVATAR_NEW",
            "relativePosNpcAlias": "",
            "bindMovingTargetKey": ""
        },
        {
            "configID": 30341,
            "alias": "30341",
            "visible": true,
            "bornPointName": "",
            "forceCreateDaily": true,
            "relativePosType": "AVATAR_NEW",
            "relativePosNpcAlias": "",
            "bindMovingTargetKey": ""
        }
    ],
    "group": [
        [
            {
                "$type": "MoleMole.Config.ConfigTimeProtectAction",
                "type": "TIME_PROTECT",
                "duration": 0.10000000149011612,
                "actionId": 104
            },
            {
                "$type": "BCJBNCJOPCE",
                "type": "CAMERA_MOVE",
                "duration": 0.5,
                "actionId": 115,
                "KNAICGCGOHN": "RELATIVE_TO_TARGET_ENTITY",
                "AKFGKKEOEFA": {
                    "x": -505.84100341796875,
                    "y": 243.4409942626953,
                    "z": 2669.612060546875
                },
                "KOPGEAIDOOE": "RELATIVE_TO_TARGET_ENTITY",
                "NGEBMAEFFGJ": {
                    "x": 31.155000686645508,
                    "y": 145.6280059814453
                },
                "GFIOJGJJGCN": 6,
                "ABAEPHOGOFF": "EaseInOutCubic",
                "KFDBMBFFANN": {},
                "IEJBKHHEJEN": true,
                "CEDHIBLHMKP": false,
                "KIPMIDIKECP": "30341",
                "ANFHNPOCMNI": true,
                "BDLGHOJPJHD": "",
                "LCOJGFEOLCK": "",
                "BBBGAEDCJEL": ""
            },
            {
                "$type": "MoleMole.Config.ConfigUITriggerInterAction",
                "type": "UI_TRIGGER",
                "actionId": 120,
                "contextName": "AkaFesReasoningLevelFail",
                "param": "3"
            }
        ],
        [
            {
                "$type": "CCEEIGNAILH",
                "type": "DIALOG",
                "aliasList": [
                    "30341"
                ],
                "actionId": 107,
                "KICBIOMGHIN": 736963001,
                "PNCCODDABKI": 0.5
            },
            {
                "$type": "KCBOGFFHPBD",
                "type": "BODY_LANG",
                "aliasList": [
                    "30341"
                ],
                "actionId": 116,
                "GPIEDGOMCGL": 1260,
                "FHLAMNNHMFA": true,
                "KCEHDJLKIAL": false,
                "KCOLHJBDILK": true,
                "AOFEDPBOOIE": ""
            },
            {
                "$type": "MEKNGCBGKEJ",
                "type": "DIALOG_SELECT",
                "delayTime": 0.4000000059604645,
                "aliasList": [
                    "Avatar"
                ],
                "actionId": 108,
                "MLAABINGLAA": [
                    736963002,
                    736963003
                ],
                "HPBPDBFGKID": [
                    3460984420,
                    3460984421
                ],
                "CFJOJADDHHG": true,
                "APEOOMIGHNL": 3460984417
            },
            {
                "$type": "KCBOGFFHPBD",
                "type": "BODY_LANG",
                "delayTime": 2.950000047683716,
                "aliasList": [
                    "30341"
                ],
                "actionId": 117,
                "GPIEDGOMCGL": 1172,
                "FHLAMNNHMFA": true,
                "KCEHDJLKIAL": false,
                "KCOLHJBDILK": true,
                "AOFEDPBOOIE": ""
            }
        ],
        [
            {
                "$type": "MoleMole.Config.ConfigTimeProtectAction",
                "type": "TIME_PROTECT",
                "duration": 0.10000000149011612,
                "actionId": 110
            },
            {
                "$type": "MoleMole.Config.ConfigUITriggerInterAction",
                "type": "UI_TRIGGER",
                "actionId": 119,
                "contextName": "AkaFesReasoningKeyword",
                "param": "3"
            },
            {
                "$type": "BCJBNCJOPCE",
                "type": "CAMERA_MOVE",
                "duration": 0.5,
                "actionId": 123,
                "flag": 2,
                "AKFGKKEOEFA": {
                    "x": -331.23199462890625,
                    "y": 315.45001220703125,
                    "z": 2875.62109375
                },
                "NGEBMAEFFGJ": {
                    "x": -330.88299560546875,
                    "y": 315.4280090332031,
                    "z": 2876.55810546875
                },
                "GFIOJGJJGCN": 6,
                "ABAEPHOGOFF": "EaseInOutCubic",
                "KFDBMBFFANN": {},
                "IEJBKHHEJEN": true,
                "CEDHIBLHMKP": false,
                "KIPMIDIKECP": "Avatar",
                "ANFHNPOCMNI": true,
                "BDLGHOJPJHD": "",
                "LCOJGFEOLCK": "",
                "BBBGAEDCJEL": ""
            },
            {
                "$type": "BCJBNCJOPCE",
                "type": "CAMERA_MOVE",
                "duration": 0.5,
                "actionId": 124,
                "flag": 1,
                "AKFGKKEOEFA": {
                    "x": -331.281005859375,
                    "y": 315.510009765625,
                    "z": 2875.468017578125
                },
                "NGEBMAEFFGJ": {
                    "x": -330.864990234375,
                    "y": 315.4880065917969,
                    "z": 2876.376953125
                },
                "GFIOJGJJGCN": 6,
                "ABAEPHOGOFF": "EaseInOutCubic",
                "KFDBMBFFANN": {},
                "IEJBKHHEJEN": true,
                "CEDHIBLHMKP": false,
                "KIPMIDIKECP": "Avatar",
                "ANFHNPOCMNI": true,
                "BDLGHOJPJHD": "",
                "LCOJGFEOLCK": "",
                "BBBGAEDCJEL": ""
            },
            {
                "$type": "KCBOGFFHPBD",
                "type": "BODY_LANG",
                "aliasList": [
                    "30341"
                ],
                "actionId": 118,
                "FHLAMNNHMFA": true,
                "KCEHDJLKIAL": false,
                "KCOLHJBDILK": true,
                "AOFEDPBOOIE": ""
            }
        ],
        [
            {
                "$type": "MoleMole.Config.ConfigTimeProtectAction",
                "type": "TIME_PROTECT",
                "duration": 0.10000000149011612,
                "actionId": 105
            },
            {
                "$type": "BCJBNCJOPCE",
                "type": "CAMERA_MOVE",
                "duration": 1.0,
                "actionId": 111,
                "KNAICGCGOHN": "EXIT",
                "NGEBMAEFFGJ": {
                    "z": 1.0
                },
                "LIGHLBKBDEI": 30.0,
                "GFIOJGJJGCN": 5,
                "ABAEPHOGOFF": "EaseInOutCubic",
                "KFDBMBFFANN": {},
                "CEDHIBLHMKP": false,
                "KIPMIDIKECP": "",
                "GLEMDGLLNAN": true,
                "ANFHNPOCMNI": true,
                "BDLGHOJPJHD": "",
                "LCOJGFEOLCK": "",
                "BBBGAEDCJEL": ""
            }
        ],
        [
            {
                "$type": "MoleMole.Config.ConfigLuaAction",
                "type": "LUA_ACTION",
                "duration": 0.10000000149011612,
                "actionId": 121,
                "invokeAlias": ""
            }
        ]
    ],
    "groupId": [
        {
            "grpId": 3460984418,
            "nextGrpId": 3460984419
        },
        {
            "index": 1,
            "grpId": 3460984419,
            "nextGrpId": 3460984420
        },
        {
            "index": 2,
            "grpId": 3460984420,
            "nextGrpId": 3460984422
        },
        {
            "index": 3,
            "grpId": 3460984421,
            "nextGrpId": 3460984422
        },
        {
            "index": 4,
            "grpId": 3460984422,
            "nextGrpId": 3460984423
        }
    ],
    "freeStyleDic": {
        "30341": [
            1260,
            1172
        ]
    }
}