{
    "luaDataPath": "",
    "dontUseDefaultFinish": true,
    "entityBan": "",
    "disableNpcLod": true,
    "isAutoBanNpc": true,
    "isBanWidgetPet": true,
    "protectNpcMobileLod": true,
    "MNHFNFDCEFG": 7,
    "startFade": {
        "startFadeOutDuration": 0.0
    },
    "endFade": {
        "startFadeOutDuration": 0.0
    },
    "actors": [
        {
            "alias": "Avatar",
            "visible": true,
            "bornPointName": "N10000005_T7400310",
            "relativePosType": "AVATAR_NEW",
            "relativePosNpcAlias": "",
            "bindMovingTargetKey": ""
        },
        {
            "alias": "AvatarNpc",
            "visible": true,
            "bornPointName": "",
            "removeActorType": "NEW_REMOVE",
            "relativePosType": "AVATAR_NEW",
            "relativePosNpcAlias": "",
            "bindMovingTargetKey": ""
        },
        {
            "configID": 1005,
            "alias": "1005",
            "visible": true,
            "bornPointName": "",
            "removeActorType": "NEW_REMOVE_WITH_DISAPPEAR",
            "relativePosType": "AVATAR_NEW",
            "relativePosNpcAlias": "",
            "bindMovingTargetKey": ""
        },
        {
            "configID": 20995,
            "alias": "20995",
            "visible": true,
            "bornPointName": "",
            "removeActorType": "NEW_REMOVE",
            "relativePosType": "AVATAR_NEW",
            "relativePosNpcAlias": "",
            "bindMovingTargetKey": ""
        }
    ],
    "group": [
        [
            {
                "$type": "MoleMole.Config.ConfigTimeProtectAction",
                "type": "TIME_PROTECT",
                "duration": 0.10000000149011612,
                "actionId": 104
            },
            {
                "$type": "MoleMole.Config.ConfigSitOrStandAction",
                "type": "SIT_OR_STAND",
                "aliasList": [
                    "Avatar"
                ],
                "actionId": 112,
                "banResetFreestyle": true
            },
            {
                "$type": "MoleMole.Config.ConfigPlayerNPCEnergyTypeAction",
                "type": "SET_PLAYER_NPC_ENERGY_TYPE",
                "aliasList": [
                    "AvatarNpc"
                ],
                "actionId": 113,
                "setHeroEngergyType": true
            },
            {
                "$type": "KCBOGFFHPBD",
                "type": "BODY_LANG",
                "aliasList": [
                    "AvatarNpc"
                ],
                "actionId": 114,
                "AHGOBCDHCMC": true,
                "FHLAMNNHMFA": true,
                "KCEHDJLKIAL": false,
                "AOFEDPBOOIE": ""
            },
            {
                "$type": "KCBOGFFHPBD",
                "type": "BODY_LANG",
                "aliasList": [
                    "1005"
                ],
                "actionId": 108,
                "AHGOBCDHCMC": true,
                "FHLAMNNHMFA": true,
                "KCEHDJLKIAL": false,
                "AOFEDPBOOIE": ""
            },
            {
                "$type": "KCBOGFFHPBD",
                "type": "BODY_LANG",
                "aliasList": [
                    "20995"
                ],
                "actionId": 110,
                "AHGOBCDHCMC": true,
                "FHLAMNNHMFA": true,
                "KCEHDJLKIAL": false,
                "AOFEDPBOOIE": ""
            }
        ],
        [
            {
                "$type": "BCJBNCJOPCE",
                "type": "CAMERA_MOVE",
                "duration": 0.5,
                "actionId": 121,
                "AKFGKKEOEFA": {
                    "x": 3903.287109375,
                    "y": -137.54200744628906,
                    "z": 4925.958984375
                },
                "NGEBMAEFFGJ": {
                    "x": 3904.070068359375,
                    "y": -137.63400268554688,
                    "z": 4926.5751953125
                },
                "LIGHLBKBDEI": 25.0,
                "GFIOJGJJGCN": 6,
                "ABAEPHOGOFF": "EaseInOutCubic",
                "KFDBMBFFANN": {},
                "IEJBKHHEJEN": true,
                "GDHBGCNKHDE": 0.22200000286102295,
                "CEDHIBLHMKP": false,
                "KIPMIDIKECP": "",
                "ANFHNPOCMNI": true,
                "BDLGHOJPJHD": "",
                "LCOJGFEOLCK": "",
                "BBBGAEDCJEL": ""
            },
            {
                "$type": "IBPNIIGAIPF",
                "type": "LOOK_AT",
                "aliasList": [
                    "Avatar"
                ],
                "actionId": 116,
                "flag": 64,
                "GGIENKFBOGL": true,
                "NDOMJCOFKDJ": 0.5,
                "KIPMIDIKECP": "1005",
                "FGPHOPBEJDE": true,
                "PEIIOFIBMAK": 10.0,
                "HJJAFGPMJNJ": "",
                "AOFBAGFCGPJ": ""
            },
            {
                "$type": "IBPNIIGAIPF",
                "type": "LOOK_AT",
                "aliasList": [
                    "AvatarNpc"
                ],
                "actionId": 117,
                "flag": 64,
                "GGIENKFBOGL": true,
                "NDOMJCOFKDJ": 0.5,
                "KIPMIDIKECP": "1005",
                "FGPHOPBEJDE": true,
                "PEIIOFIBMAK": 10.0,
                "HJJAFGPMJNJ": "",
                "AOFBAGFCGPJ": ""
            },
            {
                "$type": "CNBNGFNKLGP",
                "type": "STEER_TO",
                "duration": 1.0,
                "aliasList": [
                    "AvatarNpc"
                ],
                "actionId": 123,
                "flag": 32,
                "DEMFHGAIELL": "ABSOLUTE",
                "KDKLEJFHDJG": {
                    "x": 3904.929931640625,
                    "y": -138.93099975585938,
                    "z": 4926.82080078125
                },
                "BBNLLCHBKAI": true,
                "COJBPJMLIFM": true,
                "NLIKMFJCLBP": true,
                "KIPMIDIKECP": "",
                "IDIIDHLNENJ": true,
                "FDLMFGAMGJK": true,
                "AOFBAGFCGPJ": ""
            },
            {
                "$type": "CCEEIGNAILH",
                "type": "DIALOG",
                "aliasList": [
                    "1005"
                ],
                "actionId": 107,
                "KICBIOMGHIN": 740032402,
                "PNCCODDABKI": 1.0
            },
            {
                "$type": "CNBNGFNKLGP",
                "type": "STEER_TO",
                "duration": 1.0,
                "aliasList": [
                    "1005"
                ],
                "actionId": 122,
                "flag": 32,
                "DEMFHGAIELL": "ABSOLUTE",
                "KDKLEJFHDJG": {
                    "x": 3904.47802734375,
                    "y": -138.93099975585938,
                    "z": 4926.94580078125
                },
                "BBNLLCHBKAI": true,
                "COJBPJMLIFM": true,
                "NLIKMFJCLBP": true,
                "KIPMIDIKECP": "",
                "IDIIDHLNENJ": true,
                "FDLMFGAMGJK": true,
                "AOFBAGFCGPJ": ""
            },
            {
                "$type": "DNAEECJNBFB",
                "type": "EMO_SYNC",
                "aliasList": [
                    "1005"
                ],
                "actionId": 125,
                "flag": 320,
                "EOGJDJKPPGE": "",
                "IHCBGPABDLE": "Cs_Emo_Pet_Common/Cs_Emo_Paimon_Angry01",
                "CIKPDMODFPL": "Cs_Emo_Pet_Common/Cs_Emo_Paimon_Normal05_B",
                "HDIAHFFHNGE": "",
                "BOAAGJEEFDD": "",
                "PFDPJKHPADE": "",
                "MJAONEKDECJ": [
                    8887624181441475292,
                    18209086005751125871,
                    3291038487434063407,
                    2002509548947436691
                ],
                "DAALMFGCAOO": [
                    3398359844091004644,
                    10207785776780633417,
                    7756689444277981089,
                    824015369548980751
                ]
            },
            {
                "$type": "KCBOGFFHPBD",
                "type": "BODY_LANG",
                "delayTime": 1.0679999589920044,
                "aliasList": [
                    "1005"
                ],
                "actionId": 124,
                "GPIEDGOMCGL": 1110,
                "FHLAMNNHMFA": true,
                "KCEHDJLKIAL": false,
                "KCOLHJBDILK": true,
                "AOFEDPBOOIE": ""
            }
        ],
        [
            {
                "$type": "MoleMole.Config.ConfigTimeProtectAction",
                "type": "TIME_PROTECT",
                "duration": 0.10000000149011612,
                "actionId": 105
            },
            {
                "$type": "KCBOGFFHPBD",
                "type": "BODY_LANG",
                "delayTime": 0.6000000238418579,
                "aliasList": [
                    "AvatarNpc"
                ],
                "actionId": 115,
                "AHGOBCDHCMC": true,
                "FHLAMNNHMFA": true,
                "KCEHDJLKIAL": false,
                "AOFEDPBOOIE": ""
            },
            {
                "$type": "KCBOGFFHPBD",
                "type": "BODY_LANG",
                "delayTime": 0.6000000238418579,
                "aliasList": [
                    "1005"
                ],
                "actionId": 109,
                "AHGOBCDHCMC": true,
                "FHLAMNNHMFA": true,
                "KCEHDJLKIAL": false,
                "AOFEDPBOOIE": ""
            },
            {
                "$type": "KCBOGFFHPBD",
                "type": "BODY_LANG",
                "delayTime": 0.6000000238418579,
                "aliasList": [
                    "20995"
                ],
                "actionId": 111,
                "AHGOBCDHCMC": true,
                "FHLAMNNHMFA": true,
                "KCEHDJLKIAL": false,
                "AOFEDPBOOIE": ""
            }
        ]
    ],
    "groupId": [
        {
            "grpId": 2655435286,
            "nextGrpId": 2655435287
        },
        {
            "index": 1,
            "grpId": 2655435287,
            "nextGrpId": 2655435288
        },
        {
            "index": 2,
            "grpId": 2655435288,
            "nextGrpId": 2655435289
        }
    ],
    "freeStyleDic": {
        "1025": [],
        "1026": []
    }
}