{
    "DisableAll": {
        "uiDisableList": [
            "EASY_TOUCH",
            "ACTION_PANEL",
            "TEAM_BTN",
            "MESSAGE_TIPS",
            "INTEE_PANEL",
            "AIM_CONTAINER",
            "SELF_RTT",
            "MAIN_BTN",
            "MAP_INFO",
            "CHAT_INFO",
            "MOVE"
        ]
    },
    "DisableAllIncludeSPBar": {
        "uiDisableList": [
            "EASY_TOUCH",
            "ACTION_PANEL",
            "TEAM_BTN",
            "MESSAGE_TIPS",
            "INTEE_PANEL",
            "AIM_CONTAINER",
            "SELF_RTT",
            "MAIN_BTN",
            "MAP_INFO",
            "CHAT_INFO",
            "MOVE",
            "SP_BAR"
        ]
    },
    "RealDisableAll": {
        "uiDisableList": [
            "EASY_TOUCH",
            "ACTION_PANEL",
            "TEAM_BTN",
            "MESSAGE_TIPS",
            "INTEE_PANEL",
            "AIM_CONTAINER",
            "SELF_RTT",
            "MAIN_BTN",
            "MAP_INFO",
            "GAME_INFO",
            "CHAT_INFO",
            "MOVE",
            "SP_BAR",
            "QUEST_HINT_DIALOG",
            "INDICATOR_CONTAINER",
            "TOP_VERTICAL_LAYOUT"
        ]
    },
    "DisableXiaoDungeon": {
        "uiDisableList": [
            "EASY_TOUCH",
            "ACTION_PANEL",
            "TEAM_BTN",
            "AIM_CONTAINER",
            "MOVE"
        ]
    },
    "DisableMainPageControlForDialog": {
        "uiDisableList": [
            "MAP_INFO"
        ]
    },
    "DisableAllExcludeEasyTouch": {
        "uiDisableList": [
            "ACTION_PANEL",
            "TEAM_BTN",
            "MESSAGE_TIPS",
            "INTEE_PANEL",
            "AIM_CONTAINER",
            "SELF_RTT",
            "MAIN_BTN",
            "MAP_INFO",
            "CHAT_INFO",
            "MOVE",
            "GAME_INFO"
        ],
        "enabledInputEventList": [
            "ChangeViewEvent"
        ]
    },
    "DisableMainPageTeamPanel": {
        "uiDisableList": [
            "TEAM_BTN"
        ]
    },
    "DisableCustomLevelTryRoom": {
        "uiDisableList": [
            "TOP_BTNS",
            "SELF_RTT",
            "MAP_INFO"
        ],
        "enabledInputEventList": [
            "OpenChatEvent",
            "OpenChatJoystickEvent",
            "TriggerSkill1Event",
            "TriggerSkill2Event",
            "TriggerSkill3Event",
            "TriggerSkill4Event",
            "TriggerSkill5Event",
            "ReleaseSkill1Event",
            "ReleaseSkill2Event",
            "ReleaseSkill3Event",
            "ReleaseSkill4Event",
            "ReleaseSkill5Event",
            "MoveEvent",
            "ChangeViewEvent",
            "ZoomCameraEvent",
            "ResetCameraEvent",
            "ToggleSlowMoveEvent",
            "ToggleSlowMoveTempEvent",
            "ResetTempSlowMoveEvent",
            "SlipEvent",
            "TriggerQuickUseEvent",
            "ReleaseQuickUseEvent",
            "TriggerActivitySkillEvent",
            "ReleaseActivitySkillEvent",
            "TriggerChangeWithSkillEvent",
            "CancelChangeWithSkillEvent",
            "DPadUpEvent",
            "ToAvatar1Event",
            "DPadRightEvent",
            "ToAvatar2Event",
            "DPadLeftEvent",
            "ToAvatar3Event",
            "DPadDownEvent",
            "ToAvatar4Event",
            "ToAvatar5Event",
            "ToggleAttackModeEvent",
            "EnterFocusModeEvent",
            "ExitFocusModeEvent",
            "QuestTransportEvent",
            "MultiplayerEvent",
            "TriggerWheelMenuEvent"
        ]
    },
    "DisableCustomLevelTryAll": {
        "uiDisableList": [
            "TOP_BTNS",
            "SELF_RTT"
        ],
        "enabledInputEventList": [
            "OpenChatEvent",
            "OpenChatJoystickEvent",
            "TriggerSkill1Event",
            "TriggerSkill2Event",
            "TriggerSkill3Event",
            "TriggerSkill4Event",
            "TriggerSkill5Event",
            "ReleaseSkill1Event",
            "ReleaseSkill2Event",
            "ReleaseSkill3Event",
            "ReleaseSkill4Event",
            "ReleaseSkill5Event",
            "MoveEvent",
            "ChangeViewEvent",
            "ZoomCameraEvent",
            "ResetCameraEvent",
            "ToggleSlowMoveEvent",
            "ToggleSlowMoveTempEvent",
            "ResetTempSlowMoveEvent",
            "SlipEvent",
            "TriggerQuickUseEvent",
            "ReleaseQuickUseEvent",
            "TriggerActivitySkillEvent",
            "ReleaseActivitySkillEvent",
            "TriggerChangeWithSkillEvent",
            "CancelChangeWithSkillEvent",
            "DPadUpEvent",
            "ToAvatar1Event",
            "DPadRightEvent",
            "ToAvatar2Event",
            "DPadLeftEvent",
            "ToAvatar3Event",
            "DPadDownEvent",
            "ToAvatar4Event",
            "ToAvatar5Event",
            "ToggleAttackModeEvent",
            "EnterFocusModeEvent",
            "ExitFocusModeEvent",
            "QuestTransportEvent",
            "MultiplayerEvent",
            "OpenMapEvent",
            "OpenDungeonFactorEvent",
            "TriggerWheelMenuEvent"
        ]
    },
    "DisableTestHZM": {
        "uiDisableList": [
            "ACTION_PANEL",
            "TEAM_BTN",
            "MESSAGE_TIPS",
            "AIM_CONTAINER",
            "SELF_RTT",
            "MAIN_BTN",
            "MAP_INFO",
            "CHAT_INFO",
            "GAME_INFO"
        ],
        "enabledInputEventList": [
            "ChangeViewEvent",
            "MoveEvent",
            "OpenPaimonEvent",
            "ZoomCameraEvent"
        ]
    },
    "DisableTestDIMona": {
        "uiDisableList": [
            "ACTION_PANEL",
            "TEAM_BTN",
            "MESSAGE_TIPS",
            "AIM_CONTAINER",
            "SELF_RTT",
            "MAIN_BTN",
            "CHAT_INFO",
            "GAME_INFO"
        ],
        "enabledInputEventList": [
            "ChangeViewEvent",
            "MoveEvent",
            "MenuBackEvent",
            "OpenPaimonEvent",
            "ZoomCameraEvent",
            "ResetCameraEvent"
        ]
    },
    "DisableBaizhuLegend": {
        "uiDisableList": [
            "ACTION_PANEL",
            "TEAM_BTN",
            "MESSAGE_TIPS",
            "AIM_CONTAINER",
            "SELF_RTT",
            "MAIN_BTN",
            "CHAT_INFO",
            "GAME_INFO",
            "TOP_BTNS",
            "MAP_INFO"
        ],
        "enabledInputEventList": [
            "ChangeViewEvent",
            "MoveEvent",
            "OpenMapEvent",
            "ZoomCameraEvent",
            "ResetCameraEvent",
            "OpenCharacterEvent",
            "ToggleQuestBookEvent",
            "ToggleSlowMoveEvent",
            "ToggleSlowMoveTempEvent",
            "ResetTempSlowMoveEvent",
            "SlipEvent"
        ]
    },
    "DisableTestSumeruMainQuest": {
        "uiDisableList": [
            "ACTION_PANEL",
            "TEAM_BTN",
            "MESSAGE_TIPS",
            "AIM_CONTAINER",
            "SELF_RTT",
            "MAIN_BTN",
            "MAP_INFO",
            "CHAT_INFO",
            "GAME_INFO"
        ],
        "enabledInputEventList": [
            "ChangeViewEvent",
            "MoveEvent",
            "OpenPaimonEvent",
            "ZoomCameraEvent"
        ]
    },
    "DisableTestSumeruMainQuestNoMoveEvent": {
        "uiDisableList": [
            "ACTION_PANEL",
            "TEAM_BTN",
            "MESSAGE_TIPS",
            "AIM_CONTAINER",
            "SELF_RTT",
            "MAIN_BTN",
            "MAP_INFO",
            "CHAT_INFO",
            "MOVE",
            "GAME_INFO"
        ],
        "enabledInputEventList": [
            "ChangeViewEvent",
            "OpenPaimonEvent",
            "ZoomCameraEvent"
        ]
    },
    "DisableTorrentMainQuest": {
        "uiDisableList": [
            "ACTION_PANEL",
            "TEAM_BTN",
            "MESSAGE_TIPS",
            "AIM_CONTAINER",
            "SELF_RTT",
            "MAIN_BTN",
            "CHAT_INFO",
            "GAME_INFO"
        ],
        "enabledInputEventList": [
            "ChangeViewEvent",
            "MoveEvent",
            "MenuBackEvent",
            "OpenPaimonEvent",
            "ZoomCameraEvent"
        ]
    },
    "DisableTorrentMainQuestNoMoveEvent": {
        "uiDisableList": [
            "ACTION_PANEL",
            "TEAM_BTN",
            "MESSAGE_TIPS",
            "AIM_CONTAINER",
            "SELF_RTT",
            "MAIN_BTN",
            "CHAT_INFO",
            "MOVE",
            "GAME_INFO"
        ],
        "enabledInputEventList": [
            "ChangeViewEvent",
            "MenuBackEvent",
            "OpenPaimonEvent",
            "ZoomCameraEvent"
        ]
    },
    "DisableNahidaDungeonMask": {
        "uiDisableList": [
            "ACTION_PANEL",
            "TEAM_BTN",
            "MESSAGE_TIPS",
            "INTEE_PANEL",
            "AIM_CONTAINER",
            "SELF_RTT",
            "TOP_BTNS",
            "MAIN_BTN",
            "MAP_INFO",
            "CHAT_INFO",
            "MOVE",
            "GAME_INFO",
            "DIALOG"
        ],
        "enabledInputEventList": [
            "ChangeViewEvent",
            "ZoomCameraEvent",
            "ResetCameraEvent"
        ]
    },
    "DisableCommonDungeonMask": {
        "uiDisableList": [
            "ACTION_PANEL",
            "TEAM_BTN",
            "MESSAGE_TIPS",
            "INTEE_PANEL",
            "AIM_CONTAINER",
            "SELF_RTT",
            "TOP_BTNS",
            "MAIN_BTN",
            "MAP_INFO",
            "CHAT_INFO",
            "MOVE",
            "GAME_INFO",
            "DIALOG"
        ],
        "enabledInputEventList": [
            "ChangeViewEvent",
            "ZoomCameraEvent",
            "ResetCameraEvent"
        ]
    },
    "DisableFungusFighterDungeon": {
        "uiDisableList": [
            "TEAM_BTN",
            "HP_BAR"
        ],
        "enabledInputEventList": [
            "TriggerSkill3Event",
            "ReleaseSkill3Event",
            "TriggerSkill4Event",
            "ReleaseSkill4Event",
            "MoveEvent",
            "ChangeViewEvent",
            "ZoomCameraEvent",
            "ResetCameraEvent",
            "EnterElementViewEvent",
            "ExitElementViewEvent",
            "ToggleSlowMoveEvent",
            "ToggleSlowMoveTempEvent",
            "ResetTempSlowMoveEvent",
            "SlipEvent",
            "TriggerChangeWithSkillEvent",
            "CancelChangeWithSkillEvent",
            "QuestTransportEvent",
            "OpenBagEvent",
            "OpenGachaEvent",
            "MenuBackEvent",
            "OpenChatEvent",
            "OpenCharacterEvent",
            "OpenMapEvent",
            "ToggleQuestBookEvent",
            "HelpEvent",
            "MultiplayerEvent",
            "OpenDungeonFactorEvent",
            "OpenPushTipsEvent",
            "OpenBattlePassEvent",
            "OpenActivityNormalEvent",
            "OpenTeamPageEvent",
            "OpenFriendPageEvent",
            "TriggerWheelMenuEvent",
            "OpenPaimonEvent",
            "OpenChatJoystickEvent"
        ]
    },
    "DisableHideAndSeekMove": {
        "uiDisableList": [
            "MOVE"
        ]
    },
    "DisableActionPanel": {
        "uiDisableList": [
            "ACTION_PANEL"
        ],
        "enabledInputEventList": [
            "OpenChatEvent",
            "OpenChatJoystickEvent",
            "ChangeViewEvent",
            "MoveEvent",
            "OpenPaimonEvent",
            "ZoomCameraEvent",
            "TriggerSkill3Event",
            "ReleaseSkill3Event",
            "ResetCameraEvent",
            "ToggleSlowMoveEvent",
            "ToggleSlowMoveTempEvent",
            "OpenMapEvent",
            "OpenBagEvent",
            "MenuBackEvent"
        ]
    },
    "DisableLanV3BoatGame": {
        "enabledInputEventList": [
            "OpenBagEvent",
            "OpenCharacterEvent",
            "OpenPaimonEvent",
            "MenuBackEvent",
            "ToggleQuestBookEvent",
            "OpenFriendPageEvent",
            "OpenTeamPageEvent",
            "OpenPushTipsEvent",
            "OpenChatEvent",
            "OpenBattlePassEvent",
            "OpenChatJoystickEvent",
            "TriggerSkill1Event",
            "TriggerSkill2Event",
            "TriggerSkill3Event",
            "TriggerSkill4Event",
            "TriggerSkill5Event",
            "ReleaseSkill1Event",
            "ReleaseSkill2Event",
            "ReleaseSkill3Event",
            "ReleaseSkill4Event",
            "ReleaseSkill5Event",
            "MoveEvent",
            "ChangeViewEvent",
            "ZoomCameraEvent",
            "ResetCameraEvent",
            "ToggleSlowMoveEvent",
            "ToggleSlowMoveTempEvent",
            "ResetTempSlowMoveEvent",
            "SlipEvent",
            "TriggerQuickUseEvent",
            "ReleaseQuickUseEvent",
            "TriggerActivitySkillEvent",
            "ReleaseActivitySkillEvent",
            "TriggerChangeWithSkillEvent",
            "CancelChangeWithSkillEvent",
            "DPadUpEvent",
            "ToAvatar1Event",
            "DPadRightEvent",
            "ToAvatar2Event",
            "DPadLeftEvent",
            "ToAvatar3Event",
            "DPadDownEvent",
            "ToAvatar4Event",
            "ToAvatar5Event",
            "ToggleAttackModeEvent",
            "EnterFocusModeEvent",
            "ExitFocusModeEvent",
            "QuestTransportEvent",
            "MultiplayerEvent",
            "OpenMapEvent",
            "OpenDungeonFactorEvent",
            "TriggerWheelMenuEvent"
        ],
        "PHJDAJBHPMK": [
            "ACTIVITY_NORMAL_BTN",
            "GACHA_BTN",
            "HANDBOOK_BTN",
            "HOMEWORLD_HANDBOOK_BTN",
            "HOMEWORLD_EDITOR_BTN",
            "GCG_HANDBOOK_BTN",
            "REUNION_BTN"
        ]
    },
    "DisablePacman": {
        "uiDisableList": [
            "MESSAGE_TIPS",
            "TOP_BTNS",
            "SELF_RTT",
            "MAP_INFO"
        ],
        "enabledInputEventList": [
            "OpenChatEvent",
            "OpenChatJoystickEvent",
            "TriggerSkill1Event",
            "TriggerSkill2Event",
            "TriggerSkill3Event",
            "TriggerSkill4Event",
            "ReleaseSkill1Event",
            "ReleaseSkill2Event",
            "ReleaseSkill3Event",
            "ReleaseSkill4Event",
            "MoveEvent",
            "ChangeViewEvent",
            "ZoomCameraEvent",
            "ResetCameraEvent",
            "ToggleSlowMoveEvent",
            "ToggleSlowMoveTempEvent",
            "ResetTempSlowMoveEvent",
            "SlipEvent",
            "TriggerQuickUseEvent",
            "ReleaseQuickUseEvent",
            "TriggerActivitySkillEvent",
            "ReleaseActivitySkillEvent",
            "TriggerChangeWithSkillEvent",
            "CancelChangeWithSkillEvent",
            "DPadUpEvent",
            "ToAvatar1Event",
            "DPadRightEvent",
            "ToAvatar2Event",
            "DPadLeftEvent",
            "ToAvatar3Event",
            "DPadDownEvent",
            "ToAvatar4Event",
            "ToAvatar5Event",
            "ToggleAttackModeEvent",
            "EnterFocusModeEvent",
            "ExitFocusModeEvent",
            "ActivityMapScaleEvent",
            "ActivityMapSettingEvent",
            "OpenPaimonEvent",
            "MenuBackEvent"
        ]
    },
    "DisableUGCV2": {
        "enabledInputEventList": [
            "OpenChatEvent",
            "OpenChatJoystickEvent",
            "TriggerSkill1Event",
            "TriggerSkill2Event",
            "TriggerSkill3Event",
            "TriggerSkill4Event",
            "TriggerSkill5Event",
            "ReleaseSkill1Event",
            "ReleaseSkill2Event",
            "ReleaseSkill3Event",
            "ReleaseSkill4Event",
            "ReleaseSkill5Event",
            "MoveEvent",
            "ChangeViewEvent",
            "ZoomCameraEvent",
            "ResetCameraEvent",
            "ToggleSlowMoveEvent",
            "ToggleSlowMoveTempEvent",
            "ResetTempSlowMoveEvent",
            "SlipEvent",
            "TriggerQuickUseEvent",
            "ReleaseQuickUseEvent",
            "TriggerActivitySkillEvent",
            "ReleaseActivitySkillEvent",
            "TriggerChangeWithSkillEvent",
            "CancelChangeWithSkillEvent",
            "DPadUpEvent",
            "ToAvatar1Event",
            "DPadRightEvent",
            "ToAvatar2Event",
            "DPadLeftEvent",
            "ToAvatar3Event",
            "DPadDownEvent",
            "ToAvatar4Event",
            "ToAvatar5Event",
            "ToggleAttackModeEvent",
            "EnterFocusModeEvent",
            "ExitFocusModeEvent",
            "QuestTransportEvent",
            "MultiplayerEvent",
            "OpenMapEvent",
            "OpenDungeonFactorEvent",
            "OpenPushTipsEvent",
            "TriggerWheelMenuEvent",
            "ActivityMapScaleEvent",
            "ActivityMapSettingEvent",
            "MenuBackEvent",
            "OpenCharacterEvent",
            "OpenPaimonEvent",
            "TalkOrPickEvent",
            "EnterElementViewEvent",
            "ExitElementViewEvent",
            "SlowMovePresseEvent",
            "SlowMoveReleaseEvent",
            "OpenTeamPageEvent",
            "SlipReleaseEvent",
            "OpenFriendPageEvent",
            "ToPrevInteeEvent",
            "ToNextInteeEvent",
            "JoypadToggleInteeEvent",
            "OpenChatCancelJoystickEvent"
        ],
        "PHJDAJBHPMK": [
            "ACTIVITY_NORMAL_BTN",
            "GACHA_BTN",
            "HANDBOOK_BTN",
            "HOMEWORLD_HANDBOOK_BTN",
            "HOMEWORLD_EDITOR_BTN",
            "GCG_HANDBOOK_BTN",
            "BAG_BTN",
            "BATTLE_PASS_BTN",
            "PAIMON_MENU_BTN",
            "QUEST_BTN",
            "REUNION_BTN"
        ]
    },
    "DisableSandWormCannon": {
        "enabledInputEventList": [
            "OpenHandbookEvent",
            "OpenBagEvent",
            "OpenCharacterEvent",
            "OpenPaimonEvent",
            "MenuBackEvent",
            "ToggleQuestBookEvent",
            "OpenFriendPageEvent",
            "OpenPushTipsEvent",
            "OpenChatEvent",
            "OpenBattlePassEvent",
            "OpenChatJoystickEvent",
            "TriggerSkill1Event",
            "TriggerSkill2Event",
            "TriggerSkill3Event",
            "TriggerSkill4Event",
            "TriggerSkill5Event",
            "ReleaseSkill1Event",
            "ReleaseSkill2Event",
            "ReleaseSkill3Event",
            "ReleaseSkill4Event",
            "ReleaseSkill5Event",
            "MoveEvent",
            "ChangeViewEvent",
            "ZoomCameraEvent",
            "ResetCameraEvent",
            "ToggleSlowMoveEvent",
            "ToggleSlowMoveTempEvent",
            "ResetTempSlowMoveEvent",
            "SlipEvent",
            "TriggerQuickUseEvent",
            "ReleaseQuickUseEvent",
            "TriggerActivitySkillEvent",
            "ReleaseActivitySkillEvent",
            "TriggerChangeWithSkillEvent",
            "CancelChangeWithSkillEvent",
            "DPadUpEvent",
            "ToAvatar1Event",
            "DPadRightEvent",
            "ToAvatar2Event",
            "DPadLeftEvent",
            "ToAvatar3Event",
            "DPadDownEvent",
            "ToAvatar4Event",
            "ToAvatar5Event",
            "ToggleAttackModeEvent",
            "EnterFocusModeEvent",
            "ExitFocusModeEvent",
            "QuestTransportEvent",
            "MultiplayerEvent",
            "OpenMapEvent",
            "OpenTeamPageEvent",
            "OpenDungeonFactorEvent",
            "TriggerWheelMenuEvent",
            "TalkOrPickEvent",
            "HelpEvent",
            "EnterElementViewEvent",
            "ExitElementViewEvent",
            "SlowMovePresseEvent",
            "SlowMoveReleaseEvent"
        ],
        "PHJDAJBHPMK": [
            "ACTIVITY_NORMAL_BTN",
            "GACHA_BTN",
            "HOMEWORLD_HANDBOOK_BTN",
            "HOMEWORLD_EDITOR_BTN",
            "GCG_HANDBOOK_BTN",
            "REUNION_BTN"
        ]
    },
    "DisableRollerCoaster": {
        "uiDisableList": [
            "ACTION_PANEL",
            "AIM_CONTAINER",
            "MOVE"
        ],
        "enabledInputEventList": [
            "OpenBagEvent",
            "OpenActivityNormalEvent",
            "OpenChatEvent",
            "OpenChatJoystickEvent",
            "OpenGachaEvent",
            "OpenCharacterEvent",
            "OpenMapEvent",
            "OpenPaimonEvent",
            "MenuBackEvent",
            "ToggleQuestBookEvent",
            "ChangeViewEvent",
            "ZoomCameraEvent",
            "ResetCameraEvent",
            "TriggerChangeWithSkillEvent",
            "CancelChangeWithSkillEvent",
            "TriggerWheelMenuEvent",
            "DPadUpEvent",
            "ToAvatar1Event",
            "DPadRightEvent",
            "ToAvatar2Event",
            "DPadLeftEvent",
            "ToAvatar3Event",
            "DPadDownEvent",
            "ToAvatar4Event",
            "ToAvatar5Event",
            "EnterElementViewEvent",
            "ExitElementViewEvent",
            "QuestTransportEvent",
            "MultiplayerEvent",
            "OpenDungeonFactorEvent",
            "HelpEvent",
            "OpenPushTipsEvent",
            "OpenBattlePassEvent",
            "OpenHomeworldHandbookEvent",
            "OpenTeamPageEvent",
            "OpenFriendPageEvent",
            "OpenHomeworldEditorEvent"
        ]
    },
    "DisableInteePanel": {
        "uiDisableList": [
            "INTEE_PANEL"
        ],
        "enabledInputEventList": [
            "OpenBagEvent",
            "OpenActivityNormalEvent",
            "OpenChatEvent",
            "OpenChatJoystickEvent",
            "OpenGachaEvent",
            "OpenCharacterEvent",
            "OpenMapEvent",
            "OpenPaimonEvent",
            "MenuBackEvent",
            "ToggleQuestBookEvent",
            "TriggerSkill1Event",
            "TriggerSkill2Event",
            "TriggerSkill3Event",
            "TriggerSkill4Event",
            "TriggerSkill5Event",
            "ReleaseSkill1Event",
            "ReleaseSkill2Event",
            "ReleaseSkill3Event",
            "ReleaseSkill4Event",
            "ReleaseSkill5Event",
            "MoveEvent",
            "ChangeViewEvent",
            "ZoomCameraEvent",
            "ResetCameraEvent",
            "ToggleSlowMoveEvent",
            "ToggleSlowMoveTempEvent",
            "ResetTempSlowMoveEvent",
            "SlipEvent",
            "TriggerQuickUseEvent",
            "ReleaseQuickUseEvent",
            "TriggerActivitySkillEvent",
            "ReleaseActivitySkillEvent",
            "TriggerChangeWithSkillEvent",
            "CancelChangeWithSkillEvent",
            "TriggerWheelMenuEvent",
            "DPadUpEvent",
            "ToAvatar1Event",
            "DPadRightEvent",
            "ToAvatar2Event",
            "DPadLeftEvent",
            "ToAvatar3Event",
            "DPadDownEvent",
            "ToAvatar4Event",
            "ToAvatar5Event",
            "ToggleAttackModeEvent",
            "EnterFocusModeEvent",
            "ExitFocusModeEvent",
            "EnterElementViewEvent",
            "ExitElementViewEvent",
            "QuestTransportEvent",
            "MultiplayerEvent",
            "OpenDungeonFactorEvent",
            "HelpEvent",
            "OpenPushTipsEvent",
            "OpenBattlePassEvent",
            "OpenHomeworldHandbookEvent",
            "OpenTeamPageEvent",
            "OpenFriendPageEvent",
            "OpenHomeworldEditorEvent"
        ]
    },
    "DisableAkaFesArchitect": {
        "uiDisableList": [
            "TOP_BTNS",
            "SELF_RTT"
        ],
        "enabledInputEventList": [
            "OpenChatEvent",
            "OpenChatJoystickEvent",
            "TriggerSkill1Event",
            "TriggerSkill2Event",
            "TriggerSkill3Event",
            "TriggerSkill4Event",
            "TriggerSkill5Event",
            "ReleaseSkill1Event",
            "ReleaseSkill2Event",
            "ReleaseSkill3Event",
            "ReleaseSkill4Event",
            "ReleaseSkill5Event",
            "MoveEvent",
            "ChangeViewEvent",
            "ZoomCameraEvent",
            "ResetCameraEvent",
            "ToggleSlowMoveEvent",
            "ToggleSlowMoveTempEvent",
            "ResetTempSlowMoveEvent",
            "SlipEvent",
            "TriggerQuickUseEvent",
            "ReleaseQuickUseEvent",
            "TriggerActivitySkillEvent",
            "ReleaseActivitySkillEvent",
            "TriggerChangeWithSkillEvent",
            "CancelChangeWithSkillEvent",
            "DPadUpEvent",
            "ToAvatar1Event",
            "DPadRightEvent",
            "ToAvatar2Event",
            "DPadLeftEvent",
            "ToAvatar3Event",
            "DPadDownEvent",
            "ToAvatar4Event",
            "ToAvatar5Event",
            "ToggleAttackModeEvent",
            "EnterFocusModeEvent",
            "ExitFocusModeEvent",
            "QuestTransportEvent",
            "MultiplayerEvent",
            "OpenMapEvent",
            "OpenDungeonFactorEvent",
            "OpenPushTipsEvent",
            "TriggerWheelMenuEvent"
        ],
        "PHJDAJBHPMK": [
            "ACTIVITY_NORMAL_BTN",
            "GACHA_BTN",
            "HANDBOOK_BTN",
            "HOMEWORLD_HANDBOOK_BTN",
            "HOMEWORLD_EDITOR_BTN",
            "GCG_HANDBOOK_BTN",
            "BAG_BTN",
            "BATTLE_PASS_BTN",
            "PAIMON_MENU_BTN",
            "QUEST_BTN",
            "CHARACTER_BTN",
            "REUNION_BTN"
        ]
    },
    "DisableDiceDungeon": {
        "enabledInputEventList": [
            "OpenCharacterEvent",
            "OpenPaimonEvent",
            "MenuBackEvent",
            "OpenFriendPageEvent",
            "OpenTeamPageEvent",
            "OpenPushTipsEvent",
            "OpenChatEvent",
            "OpenChatJoystickEvent",
            "TriggerSkill1Event",
            "TriggerSkill2Event",
            "TriggerSkill3Event",
            "TriggerSkill4Event",
            "TriggerSkill5Event",
            "ReleaseSkill1Event",
            "ReleaseSkill2Event",
            "ReleaseSkill3Event",
            "ReleaseSkill4Event",
            "ReleaseSkill5Event",
            "MoveEvent",
            "ChangeViewEvent",
            "ZoomCameraEvent",
            "ResetCameraEvent",
            "ToggleSlowMoveEvent",
            "ToggleSlowMoveTempEvent",
            "ResetTempSlowMoveEvent",
            "SlipEvent",
            "TriggerQuickUseEvent",
            "ReleaseQuickUseEvent",
            "TriggerActivitySkillEvent",
            "ReleaseActivitySkillEvent",
            "TriggerChangeWithSkillEvent",
            "CancelChangeWithSkillEvent",
            "DPadUpEvent",
            "ToAvatar1Event",
            "DPadRightEvent",
            "ToAvatar2Event",
            "DPadLeftEvent",
            "ToAvatar3Event",
            "DPadDownEvent",
            "ToAvatar4Event",
            "ToAvatar5Event",
            "ToggleAttackModeEvent",
            "EnterFocusModeEvent",
            "ExitFocusModeEvent",
            "EnterElementViewEvent",
            "ExitElementViewEvent",
            "QuestTransportEvent",
            "OpenMapEvent",
            "OpenDungeonFactorEvent",
            "TriggerWheelMenuEvent"
        ],
        "PHJDAJBHPMK": [
            "ACTIVITY_NORMAL_BTN",
            "GACHA_BTN",
            "HANDBOOK_BTN",
            "BATTLE_PASS_BTN",
            "MULTIPLAYER_BTN",
            "BAG_BTN",
            "QUEST_BTN",
            "REUNION_BTN"
        ]
    },
    "DisablePenAdvTargetShooting": {
        "uiDisableList": [
            "EASY_TOUCH",
            "ACTION_PANEL",
            "MESSAGE_TIPS",
            "INTEE_PANEL",
            "AIM_CONTAINER",
            "SELF_RTT",
            "TOP_BTNS",
            "MAP_INFO",
            "GAME_INFO",
            "MOVE",
            "MOVE_JOYSTICK",
            "SP_BAR",
            "QUEST_HINT_DIALOG",
            "INDICATOR_CONTAINER"
        ],
        "enabledInputEventList": [
            "OpenChatEvent",
            "OpenChatJoystickEvent"
        ]
    },
    "DisablePenAdvTargetShootingSingle": {
        "uiDisableList": [
            "EASY_TOUCH",
            "ACTION_PANEL",
            "MESSAGE_TIPS",
            "INTEE_PANEL",
            "AIM_CONTAINER",
            "SELF_RTT",
            "TOP_BTNS",
            "MAP_INFO",
            "GAME_INFO",
            "MOVE",
            "MOVE_JOYSTICK",
            "SP_BAR",
            "QUEST_HINT_DIALOG",
            "TEAM_BTN",
            "INDICATOR_CONTAINER"
        ],
        "enabledInputEventList": [
            "OpenChatEvent",
            "OpenChatJoystickEvent"
        ]
    },
    "DisableInspirationSpurtDungeon": {
        "enabledInputEventList": [
            "OpenCharacterEvent",
            "OpenPaimonEvent",
            "MenuBackEvent",
            "OpenFriendPageEvent",
            "OpenTeamPageEvent",
            "OpenPushTipsEvent",
            "OpenChatEvent",
            "OpenChatJoystickEvent",
            "TriggerSkill1Event",
            "TriggerSkill2Event",
            "TriggerSkill3Event",
            "TriggerSkill4Event",
            "TriggerSkill5Event",
            "ReleaseSkill1Event",
            "ReleaseSkill2Event",
            "ReleaseSkill3Event",
            "ReleaseSkill4Event",
            "ReleaseSkill5Event",
            "MoveEvent",
            "ChangeViewEvent",
            "ZoomCameraEvent",
            "ResetCameraEvent",
            "ToggleSlowMoveEvent",
            "ToggleSlowMoveTempEvent",
            "ResetTempSlowMoveEvent",
            "SlipEvent",
            "TriggerQuickUseEvent",
            "ReleaseQuickUseEvent",
            "TriggerActivitySkillEvent",
            "ReleaseActivitySkillEvent",
            "TriggerChangeWithSkillEvent",
            "CancelChangeWithSkillEvent",
            "DPadUpEvent",
            "ToAvatar1Event",
            "DPadRightEvent",
            "ToAvatar2Event",
            "DPadLeftEvent",
            "ToAvatar3Event",
            "DPadDownEvent",
            "ToAvatar4Event",
            "ToAvatar5Event",
            "ToggleAttackModeEvent",
            "EnterFocusModeEvent",
            "ExitFocusModeEvent",
            "EnterElementViewEvent",
            "ExitElementViewEvent",
            "QuestTransportEvent",
            "OpenMapEvent",
            "OpenDungeonFactorEvent",
            "TriggerWheelMenuEvent",
            "LeftTriggerEvent",
            "LeftTriggerReleaseEvent"
        ],
        "PHJDAJBHPMK": [
            "ACTIVITY_NORMAL_BTN",
            "GACHA_BTN",
            "HANDBOOK_BTN",
            "BATTLE_PASS_BTN",
            "MULTIPLAYER_BTN",
            "BAG_BTN",
            "QUEST_BTN",
            "REUNION_BTN"
        ]
    }
}