{
    "luaDataPath": "",
    "dontUseDefaultFinish": true,
    "entityBan": "",
    "startFade": {
        "startFadeOutDuration": 0.0
    },
    "endFade": {
        "startFadeOutDuration": 0.0
    },
    "actors": [
        {
            "alias": "Avatar",
            "visible": true,
            "bornPointName": "",
            "relativePosNpcAlias": "",
            "bindMovingTargetKey": ""
        },
        {
            "configID": 502,
            "alias": "502",
            "visible": true,
            "bornPointName": "COOP103901Diona07_02",
            "relativePosNpcAlias": "",
            "bindMovingTargetKey": ""
        },
        {
            "configID": 10805,
            "alias": "10805",
            "visible": true,
            "bornPointName": "COOP103901Diona07_01",
            "relativePosNpcAlias": "",
            "bindMovingTargetKey": ""
        }
    ],
    "group": [
        [
            {
                "$type": "MoleMole.Config.ConfigEmotionTemplateAction",
                "type": "EMOTION_TEMPLATE",
                "delayTime": 0.30000001192092896,
                "aliasList": [
                    "502"
                ],
                "emoTemplateID": 10100
            },
            {
                "$type": "KCBOGFFHPBD",
                "type": "BODY_LANG",
                "delayTime": 0.30000001192092896,
                "aliasList": [
                    "10805"
                ],
                "AHGOBCDHCMC": true,
                "FHLAMNNHMFA": true,
                "AOFEDPBOOIE": ""
            },
            {
                "$type": "IBPNIIGAIPF",
                "type": "LOOK_AT",
                "delayTime": 0.30000001192092896,
                "aliasList": [
                    "502"
                ],
                "GCOONJBHNIM": true,
                "DGJOFEHFJIK": {
                    "x": 2347.527099609375,
                    "y": 261.25201416015625,
                    "z": -699.9879760742188
                },
                "JHNJNNOPJKG": {
                    "x": 2020.490966796875,
                    "y": 261.9219970703125,
                    "z": -359.2409973144531
                },
                "NDOMJCOFKDJ": 0.30000001192092896,
                "KIPMIDIKECP": "",
                "AHLPNEGAKGG": "NONE",
                "HJJAFGPMJNJ": "",
                "AOFBAGFCGPJ": ""
            },
            {
                "$type": "MoleMole.Config.ConfigCameraDOFAction",
                "type": "CAMERA_DOF",
                "delayTime": 0.30000001192092896,
                "focusDistance": 6.0,
                "focusRange": 6.0,
                "quality": 3
            },
            {
                "$type": "MoleMole.Config.ConfigVisibleInterAction",
                "type": "VISIBLE",
                "delayTime": 0.30000001192092896,
                "aliasList": [
                    "Avatar"
                ],
                "extraParam": ""
            }
        ],
        [
            {
                "$type": "MoleMole.Config.ConfigEmotionTemplateAction",
                "type": "EMOTION_TEMPLATE",
                "aliasList": [
                    "502"
                ],
                "emoTemplateID": 10801
            },
            {
                "$type": "DNAEECJNBFB",
                "type": "EMO_SYNC",
                "aliasList": [
                    "502"
                ],
                "EOGJDJKPPGE": "Cs_Emo_Avatar_Simple_Common_Set/Cs_Emo_Avatar_Talk/Cs_Emo_Coop_Common/Cs_Emo_Coop_Diona_01/Cs_Emo_1910206301",
                "IHCBGPABDLE": "",
                "CIKPDMODFPL": "",
                "HDIAHFFHNGE": "",
                "BOAAGJEEFDD": "",
                "PFDPJKHPADE": "",
                "DALINBJAHOC": [
                    9310099502411602665,
                    4765702008175760980,
                    2940925813509795393,
                    12101032401391653617
                ]
            },
            {
                "$type": "BCJBNCJOPCE",
                "type": "CAMERA_MOVE",
                "duration": 1.0,
                "KNAICGCGOHN": "RELATIVE_TO_TARGET_ENTITY",
                "KOPGEAIDOOE": "RELATIVE_TO_TARGET_ENTITY",
                "LIGHLBKBDEI": 30.0,
                "GFIOJGJJGCN": 6,
                "ABAEPHOGOFF": "EaseInOutCubic",
                "KFDBMBFFANN": {},
                "CEDHIBLHMKP": false,
                "KIPMIDIKECP": "502",
                "BDLGHOJPJHD": "",
                "LCOJGFEOLCK": "",
                "BBBGAEDCJEL": ""
            },
            {
                "$type": "CCEEIGNAILH",
                "type": "DIALOG",
                "aliasList": [
                    "502"
                ],
                "KICBIOMGHIN": 1910206301,
                "PNCCODDABKI": 0.5
            }
        ]
    ],
    "groupId": [
        {
            "grpId": 956548323,
            "nextGrpId": 956548324
        },
        {
            "index": 1,
            "grpId": 956548324,
            "nextGrpId": 956548325
        }
    ],
    "freeStyleDic": {
        "502": [
            10100,
            10801
        ]
    }
}