{
    "luaDataPath": "",
    "dontUseDefaultFinish": true,
    "startBlackKeepTime": 0.4000000059604645,
    "entityBan": "",
    "disableNpcLod": true,
    "startFade": {
        "startFadeInDuration": 0.30000001192092896,
        "startFadeOutDuration": 0.30000001192092896
    },
    "endFade": {
        "startFadeOutDuration": 0.0
    },
    "actors": [
        {
            "alias": "Avatar",
            "visible": true,
            "bornPointName": "Q7103303Player",
            "relativePosNpcAlias": "",
            "bindMovingTargetKey": ""
        },
        {
            "configID": 240901,
            "alias": "240901",
            "visible": true,
            "bornPointName": "Q7103303Fanmier",
            "removeActorType": "REMOVE",
            "relativePosNpcAlias": "",
            "bindMovingTargetKey": ""
        }
    ],
    "group": [
        [
            {
                "$type": "BCJBNCJOPCE",
                "type": "CAMERA_FOCUS",
                "duration": 0.10000000149011612,
                "KIPMIDIKECP": "",
                "BDLGHOJPJHD": "",
                "LCOJGFEOLCK": "",
                "BBBGAEDCJEL": ""
            },
            {
                "$type": "KCBOGFFHPBD",
                "type": "BODY_LANG",
                "aliasList": [
                    "240901"
                ],
                "GPIEDGOMCGL": 1120,
                "FHLAMNNHMFA": true,
                "AOFEDPBOOIE": ""
            }
        ],
        [
            {
                "$type": "MEKNGCBGKEJ",
                "type": "DIALOG_SELECT",
                "delayTime": 0.4000000059604645,
                "aliasList": [
                    "Avatar"
                ],
                "MLAABINGLAA": [
                    710330302
                ],
                "HPBPDBFGKID": [
                    1305435477
                ],
                "CFJOJADDHHG": true
            },
            {
                "$type": "CCEEIGNAILH",
                "type": "DIALOG",
                "aliasList": [
                    "240901"
                ],
                "KICBIOMGHIN": 710330301
            }
        ],
        [
            {
                "$type": "CCEEIGNAILH",
                "type": "DIALOG",
                "aliasList": [
                    "240901"
                ],
                "KICBIOMGHIN": 710330303
            },
            {
                "$type": "KCBOGFFHPBD",
                "type": "BODY_LANG",
                "aliasList": [
                    "240901"
                ],
                "GPIEDGOMCGL": 1060,
                "FHLAMNNHMFA": true,
                "AOFEDPBOOIE": ""
            }
        ],
        [
            {
                "$type": "CCEEIGNAILH",
                "type": "DIALOG",
                "aliasList": [
                    "240901"
                ],
                "KICBIOMGHIN": 710330304
            }
        ],
        [
            {
                "$type": "CCEEIGNAILH",
                "type": "DIALOG",
                "aliasList": [
                    "240901"
                ],
                "KICBIOMGHIN": 710330305
            },
            {
                "$type": "KCBOGFFHPBD",
                "type": "BODY_LANG",
                "aliasList": [
                    "240901"
                ],
                "GPIEDGOMCGL": 1173,
                "FHLAMNNHMFA": true,
                "AOFEDPBOOIE": ""
            }
        ],
        [
            {
                "$type": "CCEEIGNAILH",
                "type": "DIALOG",
                "aliasList": [
                    "240901"
                ],
                "KICBIOMGHIN": 710330306
            }
        ],
        [
            {
                "$type": "MoleMole.Config.ConfigSimpleBlackScreenAction",
                "type": "SIMPLE_BLACK_SCREEN",
                "durationToBlack": 0.5,
                "durationKeepBlack": 1.0,
                "durationFromBlack": 0.5,
                "textMapID": ""
            },
            {
                "$type": "MoleMole.Config.ConfigTimeProtectAction",
                "type": "TIME_PROTECT",
                "duration": 0.5
            },
            {
                "$type": "BCJBNCJOPCE",
                "type": "CAMERA_MOVE",
                "delayTime": 0.5,
                "duration": 0.10000000149011612,
                "KNAICGCGOHN": "EXIT",
                "KOPGEAIDOOE": "Other",
                "GFIOJGJJGCN": 6,
                "ABAEPHOGOFF": "EaseInOutCubic",
                "KFDBMBFFANN": {},
                "KIPMIDIKECP": "",
                "BDLGHOJPJHD": "",
                "LCOJGFEOLCK": "",
                "BBBGAEDCJEL": ""
            },
            {
                "$type": "MoleMole.Config.ConfigVisibleInterAction",
                "type": "VISIBLE",
                "delayTime": 0.5,
                "aliasList": [
                    "240901"
                ],
                "extraParam": ""
            }
        ]
    ],
    "groupId": [
        {
            "grpId": 1305435475,
            "nextGrpId": 1305435476
        },
        {
            "index": 1,
            "grpId": 1305435476,
            "nextGrpId": 1305435477
        },
        {
            "index": 2,
            "grpId": 1305435477,
            "nextGrpId": 1305435478
        },
        {
            "index": 3,
            "grpId": 1305435478,
            "nextGrpId": 1305435479
        },
        {
            "index": 4,
            "grpId": 1305435479,
            "nextGrpId": 1305435480
        },
        {
            "index": 5,
            "grpId": 1305435480,
            "nextGrpId": 1305435481
        },
        {
            "index": 6,
            "grpId": 1305435481,
            "nextGrpId": 1305435482
        }
    ],
    "freeStyleDic": {
        "240901": [
            1120,
            1060,
            1173
        ]
    }
}