{
    "EOAJKLGOCCC": {
        "Eff_Gcg_Monster_Maidenwater_Spine_Loop": {
            "IEICFELNNNI": true,
            "NEPMAAEOKBN": "Gcg_CardFace_Char_Monster_Maidenwater_Spine",
            "OCNBEBFMONO": "EffectRoot_Char",
            "NOFDMJMDJGB": true,
            "DIPIAHGLMOL": 0.5
        }
    }
}