{
    "volatileSettings": {
        "Default": {
            "frameRateGrade": 1,
            "renderResolutionGrade": 3,
            "shadowQualityGrade": 2,
            "postprocessEffectGrade": 2,
            "particleEffectGrade": 2,
            "comprehensiveQualityGrade": 3,
            "AntiAliasing": 2,
            "MotionBlur": 3,
            "Bloom": 2,
            "CrowdDensity": 2,
            "OnlineEffect": 1
        },
        "Topmost": {
            "frameRateGrade": 1,
            "renderResolutionGrade": 4,
            "shadowQualityGrade": 3,
            "postprocessEffectGrade": 3,
            "particleEffectGrade": 4,
            "comprehensiveQualityGrade": 5,
            "AntiAliasing": 2,
            "MotionBlur": 3,
            "Bloom": 2,
            "CrowdDensity": 2,
            "OnlineEffect": 1
        },
        "High": {
            "frameRateGrade": 1,
            "renderResolutionGrade": 3,
            "shadowQualityGrade": 2,
            "postprocessEffectGrade": 3,
            "particleEffectGrade": 3,
            "comprehensiveQualityGrade": 4,
            "AntiAliasing": 2,
            "MotionBlur": 3,
            "Bloom": 2,
            "CrowdDensity": 2,
            "OnlineEffect": 1
        },
        "Middle": {
            "frameRateGrade": 1,
            "renderResolutionGrade": 3,
            "shadowQualityGrade": 2,
            "postprocessEffectGrade": 2,
            "particleEffectGrade": 2,
            "comprehensiveQualityGrade": 3,
            "AntiAliasing": 2,
            "MotionBlur": 2,
            "Bloom": 2,
            "CrowdDensity": 2,
            "OnlineEffect": 1
        },
        "Low": {
            "frameRateGrade": 1,
            "renderResolutionGrade": 2,
            "shadowQualityGrade": 2,
            "postprocessEffectGrade": 1,
            "particleEffectGrade": 2,
            "comprehensiveQualityGrade": 2,
            "AntiAliasing": 2,
            "MotionBlur": 1,
            "Bloom": 2,
            "CrowdDensity": 2,
            "OnlineEffect": 1
        },
        "VeryLow": {
            "frameRateGrade": 1,
            "renderResolutionGrade": 1,
            "shadowQualityGrade": 1,
            "postprocessEffectGrade": 1,
            "particleEffectGrade": 1,
            "comprehensiveQualityGrade": 1,
            "AntiAliasing": 2,
            "MotionBlur": 1,
            "Bloom": 2,
            "CrowdDensity": 2,
            "OnlineEffect": 1
        },
        "Off": {
            "frameRateGrade": 1,
            "renderResolutionGrade": 3,
            "shadowQualityGrade": 2,
            "postprocessEffectGrade": 2,
            "particleEffectGrade": 2,
            "comprehensiveQualityGrade": 3,
            "AntiAliasing": 2,
            "MotionBlur": 3,
            "Bloom": 2,
            "CrowdDensity": 2,
            "OnlineEffect": 1
        }
    },
    "deviceSettings": {
        "Default": {
            "performanceQuality": "High",
            "virtualJoystickRadius": 0.5,
            "levelStreamingConfig": "",
            "uiCacheConfig": "AndroidDefault",
            "lightOnLevel": "Middle",
            "textureStreamingBudget": 140.0,
            "enableCutsceneTextureStreaming": 1,
            "textureStreamingEnabled": 1,
            "enableUICameraFullResolution": 0,
            "preloadUIScene": 1,
            "disableDoF": 0,
            "usePerObjectLightInForward": 1,
            "renderResolutions": [
                {
                    "width": 972,
                    "height": 540,
                    "secondWidth": 972,
                    "secondHeight": 540,
                    "perfCostRatio": 0.75
                },
                {
                    "width": 1080,
                    "height": 540,
                    "secondWidth": 1080,
                    "secondHeight": 540,
                    "perfCostRatio": 0.800000011920929
                },
                {
                    "width": 1280,
                    "height": 640,
                    "secondWidth": 1280,
                    "secondHeight": 640,
                    "perfCostRatio": 1.0
                },
                {
                    "width": 1440,
                    "height": 720,
                    "secondWidth": 1440,
                    "secondHeight": 720,
                    "perfCostRatio": 1.5
                }
            ],
            "qualityLevel": "Beautiful",
            "defaultVolatileGrade": 2,
            "avatarOutlineThresh": 15.0,
            "avatarShadowThresh": 25.0,
            "avatarMotionVectorThresh": 30.0,
            "viewDistanceRatio": 90.0,
            "grassQuality": "VeryLow",
            "crowdSpawnDistance": 40,
            "crowdDespawnDistance": 50,
            "entityLODConfig": ""
        },
        "EcoMode": {
            "performanceQuality": "High",
            "virtualJoystickRadius": 0.5,
            "levelStreamingConfig": "",
            "uiCacheConfig": "AndroidDefault",
            "lightOnLevel": "Middle",
            "textureStreamingBudget": 140.0,
            "enableCutsceneTextureStreaming": 1,
            "textureStreamingEnabled": 1,
            "enableUICameraFullResolution": 0,
            "preloadUIScene": 1,
            "disableDoF": 0,
            "usePerObjectLightInForward": 1,
            "renderResolutions": [
                {
                    "width": 972,
                    "height": 540,
                    "secondWidth": 972,
                    "secondHeight": 540,
                    "perfCostRatio": 0.75
                },
                {
                    "width": 1080,
                    "height": 540,
                    "secondWidth": 1080,
                    "secondHeight": 540,
                    "perfCostRatio": 0.800000011920929
                },
                {
                    "width": 1280,
                    "height": 640,
                    "secondWidth": 1280,
                    "secondHeight": 640,
                    "perfCostRatio": 1.0
                },
                {
                    "width": 1440,
                    "height": 720,
                    "secondWidth": 1440,
                    "secondHeight": 720,
                    "perfCostRatio": 1.5
                }
            ],
            "qualityLevel": "Beautiful",
            "defaultVolatileGrade": 2,
            "avatarOutlineThresh": 15.0,
            "avatarShadowThresh": 25.0,
            "avatarMotionVectorThresh": 30.0,
            "viewDistanceRatio": 90.0,
            "grassQuality": "VeryLow",
            "crowdSpawnDistance": 40,
            "crowdDespawnDistance": 50,
            "entityLODConfig": ""
        },
        "Adreno High": {
            "performanceQuality": "High",
            "virtualJoystickRadius": 0.5,
            "levelStreamingConfig": "",
            "uiCacheConfig": "AndroidDefault",
            "lightOnLevel": "Middle",
            "requirements": [
                {
                    "Info": "GraphicsDeviceName",
                    "Values": [
                        "Adreno.*730",
                        "Adreno.*660",
                        "Adreno.*650"
                    ]
                }
            ],
            "textureStreamingBudget": 140.0,
            "enableCutsceneTextureStreaming": 1,
            "textureStreamingEnabled": 1,
            "enableUICameraFullResolution": 1,
            "preloadUIScene": 1,
            "disableDoF": 0,
            "usePerObjectLightInForward": 1,
            "renderResolutions": [
                {
                    "width": 972,
                    "height": 540,
                    "secondWidth": 972,
                    "secondHeight": 540,
                    "perfCostRatio": 0.75
                },
                {
                    "width": 1080,
                    "height": 540,
                    "secondWidth": 1080,
                    "secondHeight": 540,
                    "perfCostRatio": 0.800000011920929
                },
                {
                    "width": 1280,
                    "height": 640,
                    "secondWidth": 1280,
                    "secondHeight": 640,
                    "perfCostRatio": 1.0
                },
                {
                    "width": 1620,
                    "height": 840,
                    "secondWidth": 1620,
                    "secondHeight": 840,
                    "perfCostRatio": 1.5
                }
            ],
            "qualityLevel": "Beautiful",
            "defaultVolatileGrade": 3,
            "avatarOutlineThresh": 15.0,
            "avatarShadowThresh": 25.0,
            "avatarMotionVectorThresh": 30.0,
            "viewDistanceRatio": 90.0,
            "grassQuality": "VeryLow",
            "crowdSpawnDistance": 40,
            "crowdDespawnDistance": 50,
            "entityLODConfig": "Android_Middle"
        },
        "Adreno Middle": {
            "performanceQuality": "Middle",
            "virtualJoystickRadius": 0.5,
            "levelStreamingConfig": "",
            "uiCacheConfig": "AndroidDefault",
            "lightOnLevel": "Middle",
            "requirements": [
                {
                    "Info": "GraphicsDeviceName",
                    "Values": [
                        "Adreno.*640",
                        "Adreno.*630"
                    ]
                }
            ],
            "textureStreamingBudget": 140.0,
            "enableCutsceneTextureStreaming": 1,
            "textureStreamingEnabled": 1,
            "enableUICameraFullResolution": 0,
            "preloadUIScene": 1,
            "disableDoF": 0,
            "usePerObjectLightInForward": 1,
            "renderResolutions": [
                {
                    "width": 972,
                    "height": 540,
                    "secondWidth": 972,
                    "secondHeight": 540,
                    "perfCostRatio": 0.75
                },
                {
                    "width": 1080,
                    "height": 540,
                    "secondWidth": 1080,
                    "secondHeight": 540,
                    "perfCostRatio": 0.800000011920929
                },
                {
                    "width": 1280,
                    "height": 640,
                    "secondWidth": 1280,
                    "secondHeight": 640,
                    "perfCostRatio": 1.0
                },
                {
                    "width": 1440,
                    "height": 720,
                    "secondWidth": 1440,
                    "secondHeight": 720,
                    "perfCostRatio": 1.5
                }
            ],
            "qualityLevel": "Beautiful",
            "defaultVolatileGrade": 3,
            "avatarOutlineThresh": 15.0,
            "avatarShadowThresh": 25.0,
            "avatarMotionVectorThresh": 30.0,
            "viewDistanceRatio": 90.0,
            "grassQuality": "VeryLow",
            "crowdSpawnDistance": 40,
            "crowdDespawnDistance": 50,
            "entityLODConfig": ""
        },
        "Adreno Low": {
            "performanceQuality": "Low",
            "virtualJoystickRadius": 0.5,
            "levelStreamingConfig": "",
            "uiCacheConfig": "AndroidDefault",
            "lightOnLevel": "Middle",
            "requirements": [
                {
                    "Info": "GraphicsDeviceName",
                    "Values": [
                        "Adreno.*540",
                        "Adreno.*530",
                        "Adreno.*510",
                        "Adreno.*430",
                        "Adreno.*506",
                        "Adreno.*505",
                        "Adreno.*420",
                        "Adreno.*418",
                        "Adreno.*330",
                        "Adreno.*405",
                        "Adreno.*320",
                        "Adreno.*308"
                    ]
                }
            ],
            "textureStreamingBudget": 140.0,
            "enableCutsceneTextureStreaming": 1,
            "textureStreamingEnabled": 1,
            "enableUICameraFullResolution": 0,
            "preloadUIScene": 1,
            "disableDoF": 0,
            "usePerObjectLightInForward": 1,
            "renderResolutions": [
                {
                    "width": 972,
                    "height": 540,
                    "secondWidth": 972,
                    "secondHeight": 540,
                    "perfCostRatio": 0.75
                },
                {
                    "width": 1080,
                    "height": 540,
                    "secondWidth": 1080,
                    "secondHeight": 540,
                    "perfCostRatio": 0.800000011920929
                },
                {
                    "width": 1280,
                    "height": 640,
                    "secondWidth": 1280,
                    "secondHeight": 640,
                    "perfCostRatio": 1.0
                },
                {
                    "width": 1440,
                    "height": 720,
                    "secondWidth": 1440,
                    "secondHeight": 720,
                    "perfCostRatio": 1.5
                }
            ],
            "qualityLevel": "Beautiful",
            "defaultVolatileGrade": 2,
            "avatarOutlineThresh": 15.0,
            "avatarShadowThresh": 25.0,
            "avatarMotionVectorThresh": 30.0,
            "viewDistanceRatio": 90.0,
            "grassQuality": "VeryLow",
            "crowdSpawnDistance": 40,
            "crowdDespawnDistance": 50,
            "entityLODConfig": "Android_VeryLow"
        },
        "Adreno Off": {
            "performanceQuality": "Low",
            "virtualJoystickRadius": 0.5,
            "levelStreamingConfig": "",
            "uiCacheConfig": "AndroidDefault",
            "lightOnLevel": "Middle",
            "requirements": [
                {
                    "Info": "GraphicsDeviceName",
                    "Values": [
                        "Adreno.*306",
                        "Adreno.*305",
                        "Adreno.*304",
                        "Adreno.*302",
                        "Adreno.*225",
                        "Adreno.*220",
                        "Adreno.*205",
                        "Adreno.*203",
                        "Adreno.*200"
                    ]
                }
            ],
            "textureStreamingBudget": 70.0,
            "enableCutsceneTextureStreaming": 1,
            "textureStreamingEnabled": 1,
            "enableUICameraFullResolution": 0,
            "preloadUIScene": 1,
            "disableDoF": 0,
            "usePerObjectLightInForward": 1,
            "renderResolutions": [
                {
                    "width": 972,
                    "height": 540,
                    "secondWidth": 972,
                    "secondHeight": 540,
                    "perfCostRatio": 0.75
                },
                {
                    "width": 1080,
                    "height": 540,
                    "secondWidth": 1080,
                    "secondHeight": 540,
                    "perfCostRatio": 0.800000011920929
                },
                {
                    "width": 1280,
                    "height": 640,
                    "secondWidth": 1280,
                    "secondHeight": 640,
                    "perfCostRatio": 1.0
                },
                {
                    "width": 1440,
                    "height": 720,
                    "secondWidth": 1440,
                    "secondHeight": 720,
                    "perfCostRatio": 1.5
                }
            ],
            "qualityLevel": "Beautiful",
            "defaultVolatileGrade": 1,
            "avatarOutlineThresh": 15.0,
            "avatarShadowThresh": 25.0,
            "avatarMotionVectorThresh": 30.0,
            "viewDistanceRatio": 90.0,
            "grassQuality": "VeryLow",
            "crowdSpawnDistance": 40,
            "crowdDespawnDistance": 50,
            "entityLODConfig": ""
        },
        "PowerVR High": {
            "performanceQuality": "High",
            "virtualJoystickRadius": 0.5,
            "levelStreamingConfig": "",
            "uiCacheConfig": "AndroidDefault",
            "lightOnLevel": "Middle",
            "requirements": [
                {
                    "Info": "GraphicsDeviceName"
                }
            ],
            "textureStreamingBudget": 140.0,
            "enableCutsceneTextureStreaming": 1,
            "textureStreamingEnabled": 1,
            "enableUICameraFullResolution": 0,
            "preloadUIScene": 1,
            "disableDoF": 0,
            "usePerObjectLightInForward": 1,
            "renderResolutions": [
                {
                    "width": 972,
                    "height": 540,
                    "secondWidth": 972,
                    "secondHeight": 540,
                    "perfCostRatio": 0.75
                },
                {
                    "width": 1080,
                    "height": 540,
                    "secondWidth": 1080,
                    "secondHeight": 540,
                    "perfCostRatio": 0.800000011920929
                },
                {
                    "width": 1280,
                    "height": 640,
                    "secondWidth": 1280,
                    "secondHeight": 640,
                    "perfCostRatio": 1.0
                },
                {
                    "width": 1440,
                    "height": 720,
                    "secondWidth": 1440,
                    "secondHeight": 720,
                    "perfCostRatio": 1.5
                }
            ],
            "qualityLevel": "Beautiful",
            "defaultVolatileGrade": 2,
            "avatarOutlineThresh": 15.0,
            "avatarShadowThresh": 25.0,
            "avatarMotionVectorThresh": 30.0,
            "viewDistanceRatio": 90.0,
            "grassQuality": "VeryLow",
            "crowdSpawnDistance": 40,
            "crowdDespawnDistance": 50,
            "entityLODConfig": ""
        },
        "PowerVR Middle": {
            "performanceQuality": "Middle",
            "virtualJoystickRadius": 0.5,
            "levelStreamingConfig": "",
            "uiCacheConfig": "AndroidDefault",
            "lightOnLevel": "Middle",
            "requirements": [
                {
                    "Info": "GraphicsDeviceName"
                }
            ],
            "textureStreamingBudget": 140.0,
            "enableCutsceneTextureStreaming": 1,
            "textureStreamingEnabled": 1,
            "enableUICameraFullResolution": 0,
            "preloadUIScene": 1,
            "disableDoF": 0,
            "usePerObjectLightInForward": 1,
            "renderResolutions": [
                {
                    "width": 972,
                    "height": 540,
                    "secondWidth": 972,
                    "secondHeight": 540,
                    "perfCostRatio": 0.75
                },
                {
                    "width": 1080,
                    "height": 540,
                    "secondWidth": 1080,
                    "secondHeight": 540,
                    "perfCostRatio": 0.800000011920929
                },
                {
                    "width": 1280,
                    "height": 640,
                    "secondWidth": 1280,
                    "secondHeight": 640,
                    "perfCostRatio": 1.0
                },
                {
                    "width": 1440,
                    "height": 720,
                    "secondWidth": 1440,
                    "secondHeight": 720,
                    "perfCostRatio": 1.5
                }
            ],
            "qualityLevel": "Beautiful",
            "defaultVolatileGrade": 2,
            "avatarOutlineThresh": 15.0,
            "avatarShadowThresh": 25.0,
            "avatarMotionVectorThresh": 30.0,
            "viewDistanceRatio": 90.0,
            "grassQuality": "VeryLow",
            "crowdSpawnDistance": 40,
            "crowdDespawnDistance": 50,
            "entityLODConfig": ""
        },
        "PowerVR Low": {
            "performanceQuality": "Low",
            "virtualJoystickRadius": 0.5,
            "levelStreamingConfig": "",
            "uiCacheConfig": "AndroidDefault",
            "lightOnLevel": "Middle",
            "requirements": [
                {
                    "Info": "GraphicsDeviceName",
                    "Values": [
                        "PowerVR.*G6430",
                        "PowerVR.*G6200",
                        "PowerVR.*6200"
                    ]
                }
            ],
            "textureStreamingBudget": 140.0,
            "enableCutsceneTextureStreaming": 1,
            "textureStreamingEnabled": 1,
            "enableUICameraFullResolution": 0,
            "preloadUIScene": 1,
            "disableDoF": 0,
            "usePerObjectLightInForward": 1,
            "renderResolutions": [
                {
                    "width": 972,
                    "height": 540,
                    "secondWidth": 972,
                    "secondHeight": 540,
                    "perfCostRatio": 0.75
                },
                {
                    "width": 1080,
                    "height": 540,
                    "secondWidth": 1080,
                    "secondHeight": 540,
                    "perfCostRatio": 0.800000011920929
                },
                {
                    "width": 1280,
                    "height": 640,
                    "secondWidth": 1280,
                    "secondHeight": 640,
                    "perfCostRatio": 1.0
                },
                {
                    "width": 1440,
                    "height": 720,
                    "secondWidth": 1440,
                    "secondHeight": 720,
                    "perfCostRatio": 1.5
                }
            ],
            "qualityLevel": "Beautiful",
            "defaultVolatileGrade": 2,
            "avatarOutlineThresh": 15.0,
            "avatarShadowThresh": 25.0,
            "avatarMotionVectorThresh": 30.0,
            "viewDistanceRatio": 90.0,
            "grassQuality": "VeryLow",
            "crowdSpawnDistance": 40,
            "crowdDespawnDistance": 50,
            "entityLODConfig": ""
        },
        "PowerVR Off": {
            "performanceQuality": "Low",
            "virtualJoystickRadius": 0.5,
            "levelStreamingConfig": "",
            "uiCacheConfig": "AndroidDefault",
            "lightOnLevel": "Middle",
            "requirements": [
                {
                    "Info": "GraphicsDeviceName",
                    "Values": [
                        "PowerVR.*G6400",
                        "PowerVR.*SGX545",
                        "PowerVR.*SGX544",
                        "PowerVR.*SGX540",
                        "PowerVR.*SGX535",
                        "PowerVR.*SGX531",
                        "PowerVR.*SGX530",
                        "PowerVR.*MBX"
                    ]
                }
            ],
            "textureStreamingBudget": 70.0,
            "enableCutsceneTextureStreaming": 1,
            "textureStreamingEnabled": 1,
            "enableUICameraFullResolution": 0,
            "preloadUIScene": 1,
            "disableDoF": 0,
            "usePerObjectLightInForward": 1,
            "renderResolutions": [
                {
                    "width": 972,
                    "height": 540,
                    "secondWidth": 972,
                    "secondHeight": 540,
                    "perfCostRatio": 0.75
                },
                {
                    "width": 1080,
                    "height": 540,
                    "secondWidth": 1080,
                    "secondHeight": 540,
                    "perfCostRatio": 0.800000011920929
                },
                {
                    "width": 1280,
                    "height": 640,
                    "secondWidth": 1280,
                    "secondHeight": 640,
                    "perfCostRatio": 1.0
                },
                {
                    "width": 1440,
                    "height": 720,
                    "secondWidth": 1440,
                    "secondHeight": 720,
                    "perfCostRatio": 1.5
                }
            ],
            "qualityLevel": "Beautiful",
            "defaultVolatileGrade": 2,
            "avatarOutlineThresh": 15.0,
            "avatarShadowThresh": 25.0,
            "avatarMotionVectorThresh": 30.0,
            "viewDistanceRatio": 90.0,
            "grassQuality": "VeryLow",
            "crowdSpawnDistance": 40,
            "crowdDespawnDistance": 50,
            "entityLODConfig": ""
        },
        "Mali VeryHigh": {
            "performanceQuality": "High",
            "virtualJoystickRadius": 0.5,
            "levelStreamingConfig": "",
            "uiCacheConfig": "AndroidDefault",
            "lightOnLevel": "Middle",
            "requirements": [
                {
                    "Info": "GraphicsDeviceName",
                    "Values": [
                        "Mali.*G710.*MC10",
                        "Mali.*G610.*MC6"
                    ]
                }
            ],
            "textureStreamingBudget": 140.0,
            "enableCutsceneTextureStreaming": 1,
            "textureStreamingEnabled": 1,
            "enableUICameraFullResolution": 1,
            "preloadUIScene": 1,
            "disableDoF": 0,
            "usePerObjectLightInForward": 1,
            "renderResolutions": [
                {
                    "width": 972,
                    "height": 540,
                    "secondWidth": 972,
                    "secondHeight": 540,
                    "perfCostRatio": 0.75
                },
                {
                    "width": 1080,
                    "height": 540,
                    "secondWidth": 1080,
                    "secondHeight": 540,
                    "perfCostRatio": 0.800000011920929
                },
                {
                    "width": 1280,
                    "height": 640,
                    "secondWidth": 1280,
                    "secondHeight": 640,
                    "perfCostRatio": 1.0
                },
                {
                    "width": 1620,
                    "height": 840,
                    "secondWidth": 1620,
                    "secondHeight": 840,
                    "perfCostRatio": 1.5
                }
            ],
            "qualityLevel": "Beautiful",
            "defaultVolatileGrade": 3,
            "avatarOutlineThresh": 15.0,
            "avatarShadowThresh": 25.0,
            "avatarMotionVectorThresh": 30.0,
            "viewDistanceRatio": 90.0,
            "grassQuality": "VeryLow",
            "crowdSpawnDistance": 40,
            "crowdDespawnDistance": 50,
            "entityLODConfig": ""
        },
        "Mali High": {
            "performanceQuality": "High",
            "virtualJoystickRadius": 0.5,
            "levelStreamingConfig": "",
            "uiCacheConfig": "AndroidDefault",
            "lightOnLevel": "Middle",
            "requirements": [
                {
                    "Info": "GraphicsDeviceName",
                    "Values": [
                        "Mali.*G78",
                        "Mali.*G77",
                        "Mali.*G76"
                    ]
                }
            ],
            "textureStreamingBudget": 140.0,
            "enableCutsceneTextureStreaming": 1,
            "textureStreamingEnabled": 1,
            "enableUICameraFullResolution": 1,
            "preloadUIScene": 1,
            "disableDoF": 0,
            "usePerObjectLightInForward": 1,
            "renderResolutions": [
                {
                    "width": 972,
                    "height": 540,
                    "secondWidth": 972,
                    "secondHeight": 540,
                    "perfCostRatio": 0.75
                },
                {
                    "width": 1080,
                    "height": 540,
                    "secondWidth": 1080,
                    "secondHeight": 540,
                    "perfCostRatio": 0.800000011920929
                },
                {
                    "width": 1280,
                    "height": 640,
                    "secondWidth": 1280,
                    "secondHeight": 640,
                    "perfCostRatio": 1.0
                },
                {
                    "width": 1520,
                    "height": 840,
                    "secondWidth": 1520,
                    "secondHeight": 840,
                    "perfCostRatio": 1.5
                }
            ],
            "qualityLevel": "Beautiful",
            "defaultVolatileGrade": 3,
            "avatarOutlineThresh": 15.0,
            "avatarShadowThresh": 25.0,
            "avatarMotionVectorThresh": 30.0,
            "viewDistanceRatio": 90.0,
            "grassQuality": "VeryLow",
            "crowdSpawnDistance": 40,
            "crowdDespawnDistance": 50,
            "entityLODConfig": ""
        },
        "Mali Middle": {
            "performanceQuality": "Low",
            "virtualJoystickRadius": 0.5,
            "levelStreamingConfig": "",
            "uiCacheConfig": "AndroidDefault",
            "lightOnLevel": "Middle",
            "requirements": [
                {
                    "Info": "GraphicsDeviceName",
                    "Values": [
                        "Mali.*G72",
                        "Mali.*G71"
                    ]
                }
            ],
            "textureStreamingBudget": 140.0,
            "enableCutsceneTextureStreaming": 1,
            "textureStreamingEnabled": 1,
            "enableUICameraFullResolution": 0,
            "preloadUIScene": 1,
            "disableDoF": 0,
            "usePerObjectLightInForward": 1,
            "renderResolutions": [
                {
                    "width": 972,
                    "height": 540,
                    "secondWidth": 972,
                    "secondHeight": 540,
                    "perfCostRatio": 0.75
                },
                {
                    "width": 1080,
                    "height": 540,
                    "secondWidth": 1080,
                    "secondHeight": 540,
                    "perfCostRatio": 0.800000011920929
                },
                {
                    "width": 1280,
                    "height": 640,
                    "secondWidth": 1280,
                    "secondHeight": 640,
                    "perfCostRatio": 1.0
                },
                {
                    "width": 1440,
                    "height": 720,
                    "secondWidth": 1440,
                    "secondHeight": 720,
                    "perfCostRatio": 1.5
                }
            ],
            "qualityLevel": "Beautiful",
            "defaultVolatileGrade": 2,
            "avatarOutlineThresh": 15.0,
            "avatarShadowThresh": 25.0,
            "avatarMotionVectorThresh": 30.0,
            "viewDistanceRatio": 90.0,
            "grassQuality": "VeryLow",
            "crowdSpawnDistance": 40,
            "crowdDespawnDistance": 50,
            "entityLODConfig": "Android_VeryLow"
        },
        "Mali Low": {
            "performanceQuality": "Low",
            "virtualJoystickRadius": 0.5,
            "levelStreamingConfig": "",
            "uiCacheConfig": "AndroidDefault",
            "lightOnLevel": "Middle",
            "requirements": [
                {
                    "Info": "GraphicsDeviceName",
                    "Values": [
                        "Mali.*G57",
                        "Mali.*G52",
                        "Mali.*G51",
                        "Mali.*G31",
                        "Mali.*T880",
                        "Mali.*T760",
                        "Mali.*T830",
                        "Mali.*T720",
                        "Mali.*T628",
                        "Mali.*450",
                        "Mali.*T624",
                        "Mali.*T860"
                    ]
                }
            ],
            "textureStreamingBudget": 140.0,
            "enableCutsceneTextureStreaming": 1,
            "textureStreamingEnabled": 1,
            "enableUICameraFullResolution": 0,
            "preloadUIScene": 1,
            "disableDoF": 0,
            "usePerObjectLightInForward": 1,
            "renderResolutions": [
                {
                    "width": 972,
                    "height": 540,
                    "secondWidth": 972,
                    "secondHeight": 540,
                    "perfCostRatio": 0.75
                },
                {
                    "width": 1080,
                    "height": 540,
                    "secondWidth": 1080,
                    "secondHeight": 540,
                    "perfCostRatio": 0.800000011920929
                },
                {
                    "width": 1280,
                    "height": 640,
                    "secondWidth": 1280,
                    "secondHeight": 640,
                    "perfCostRatio": 1.0
                },
                {
                    "width": 1440,
                    "height": 720,
                    "secondWidth": 1440,
                    "secondHeight": 720,
                    "perfCostRatio": 1.5
                }
            ],
            "qualityLevel": "Beautiful",
            "defaultVolatileGrade": 1,
            "avatarOutlineThresh": 15.0,
            "avatarShadowThresh": 25.0,
            "avatarMotionVectorThresh": 30.0,
            "viewDistanceRatio": 90.0,
            "grassQuality": "VeryLow",
            "crowdSpawnDistance": 40,
            "crowdDespawnDistance": 50,
            "entityLODConfig": "Android_VeryLow"
        },
        "Mali Off": {
            "performanceQuality": "Low",
            "virtualJoystickRadius": 0.5,
            "levelStreamingConfig": "",
            "uiCacheConfig": "AndroidDefault",
            "lightOnLevel": "Middle",
            "requirements": [
                {
                    "Info": "GraphicsDeviceName",
                    "Values": [
                        "Mali.*T604",
                        "Mali.*400"
                    ]
                }
            ],
            "textureStreamingBudget": 70.0,
            "enableCutsceneTextureStreaming": 1,
            "textureStreamingEnabled": 1,
            "enableUICameraFullResolution": 0,
            "preloadUIScene": 1,
            "disableDoF": 0,
            "usePerObjectLightInForward": 1,
            "renderResolutions": [
                {
                    "width": 972,
                    "height": 540,
                    "secondWidth": 972,
                    "secondHeight": 540,
                    "perfCostRatio": 0.75
                },
                {
                    "width": 1080,
                    "height": 540,
                    "secondWidth": 1080,
                    "secondHeight": 540,
                    "perfCostRatio": 0.800000011920929
                },
                {
                    "width": 1280,
                    "height": 640,
                    "secondWidth": 1280,
                    "secondHeight": 640,
                    "perfCostRatio": 1.0
                },
                {
                    "width": 1440,
                    "height": 720,
                    "secondWidth": 1440,
                    "secondHeight": 720,
                    "perfCostRatio": 1.5
                }
            ],
            "qualityLevel": "Beautiful",
            "defaultVolatileGrade": 1,
            "avatarOutlineThresh": 15.0,
            "avatarShadowThresh": 25.0,
            "avatarMotionVectorThresh": 30.0,
            "viewDistanceRatio": 90.0,
            "grassQuality": "VeryLow",
            "crowdSpawnDistance": 40,
            "crowdDespawnDistance": 50,
            "entityLODConfig": ""
        },
        "Intel High": {
            "performanceQuality": "High",
            "virtualJoystickRadius": 0.5,
            "levelStreamingConfig": "",
            "uiCacheConfig": "AndroidDefault",
            "lightOnLevel": "Middle",
            "requirements": [
                {
                    "Info": "GraphicsDeviceName",
                    "Values": [
                        "Atom.*x5",
                        "Atom.*x7"
                    ]
                }
            ],
            "textureStreamingBudget": 140.0,
            "enableCutsceneTextureStreaming": 1,
            "textureStreamingEnabled": 1,
            "enableUICameraFullResolution": 0,
            "preloadUIScene": 1,
            "disableDoF": 0,
            "usePerObjectLightInForward": 1,
            "renderResolutions": [
                {
                    "width": 972,
                    "height": 540,
                    "secondWidth": 972,
                    "secondHeight": 540,
                    "perfCostRatio": 0.75
                },
                {
                    "width": 1080,
                    "height": 540,
                    "secondWidth": 1080,
                    "secondHeight": 540,
                    "perfCostRatio": 0.800000011920929
                },
                {
                    "width": 1280,
                    "height": 640,
                    "secondWidth": 1280,
                    "secondHeight": 640,
                    "perfCostRatio": 1.0
                },
                {
                    "width": 1440,
                    "height": 720,
                    "secondWidth": 1440,
                    "secondHeight": 720,
                    "perfCostRatio": 1.5
                }
            ],
            "qualityLevel": "Beautiful",
            "defaultVolatileGrade": 2,
            "avatarOutlineThresh": 15.0,
            "avatarShadowThresh": 25.0,
            "avatarMotionVectorThresh": 30.0,
            "viewDistanceRatio": 90.0,
            "grassQuality": "VeryLow",
            "crowdSpawnDistance": 40,
            "crowdDespawnDistance": 50,
            "entityLODConfig": ""
        },
        "High": {
            "performanceQuality": "High",
            "virtualJoystickRadius": 0.5,
            "levelStreamingConfig": "",
            "uiCacheConfig": "AndroidDefault",
            "lightOnLevel": "Middle",
            "requirements": [
                {
                    "Info": "ProcessorFrequency",
                    "Values": [
                        "2000"
                    ]
                },
                {
                    "Info": "SystemMemorySize",
                    "Values": [
                        "1024"
                    ]
                },
                {
                    "Info": "GraphicsMemorySize",
                    "Values": [
                        "512"
                    ]
                }
            ],
            "textureStreamingBudget": 140.0,
            "enableCutsceneTextureStreaming": 1,
            "textureStreamingEnabled": 1,
            "enableUICameraFullResolution": 0,
            "preloadUIScene": 1,
            "disableDoF": 0,
            "usePerObjectLightInForward": 1,
            "renderResolutions": [
                {
                    "width": 972,
                    "height": 540,
                    "secondWidth": 972,
                    "secondHeight": 540,
                    "perfCostRatio": 0.75
                },
                {
                    "width": 1080,
                    "height": 540,
                    "secondWidth": 1080,
                    "secondHeight": 540,
                    "perfCostRatio": 0.800000011920929
                },
                {
                    "width": 1280,
                    "height": 640,
                    "secondWidth": 1280,
                    "secondHeight": 640,
                    "perfCostRatio": 1.0
                },
                {
                    "width": 1440,
                    "height": 720,
                    "secondWidth": 1440,
                    "secondHeight": 720,
                    "perfCostRatio": 1.5
                }
            ],
            "qualityLevel": "Beautiful",
            "defaultVolatileGrade": 2,
            "avatarOutlineThresh": 15.0,
            "avatarShadowThresh": 25.0,
            "avatarMotionVectorThresh": 30.0,
            "viewDistanceRatio": 90.0,
            "grassQuality": "VeryLow",
            "crowdSpawnDistance": 40,
            "crowdDespawnDistance": 50,
            "entityLODConfig": ""
        },
        "Middle": {
            "performanceQuality": "Middle",
            "virtualJoystickRadius": 0.5,
            "levelStreamingConfig": "",
            "uiCacheConfig": "AndroidDefault",
            "lightOnLevel": "Middle",
            "requirements": [
                {
                    "Info": "ProcessorFrequency",
                    "Values": [
                        "1000"
                    ]
                },
                {
                    "Info": "SystemMemorySize",
                    "Values": [
                        "1024"
                    ]
                },
                {
                    "Info": "GraphicsMemorySize",
                    "Values": [
                        "256"
                    ]
                }
            ],
            "textureStreamingBudget": 140.0,
            "enableCutsceneTextureStreaming": 1,
            "textureStreamingEnabled": 1,
            "enableUICameraFullResolution": 0,
            "preloadUIScene": 1,
            "disableDoF": 0,
            "usePerObjectLightInForward": 1,
            "renderResolutions": [
                {
                    "width": 972,
                    "height": 540,
                    "secondWidth": 972,
                    "secondHeight": 540,
                    "perfCostRatio": 0.75
                },
                {
                    "width": 1080,
                    "height": 540,
                    "secondWidth": 1080,
                    "secondHeight": 540,
                    "perfCostRatio": 0.800000011920929
                },
                {
                    "width": 1280,
                    "height": 640,
                    "secondWidth": 1280,
                    "secondHeight": 640,
                    "perfCostRatio": 1.0
                },
                {
                    "width": 1440,
                    "height": 720,
                    "secondWidth": 1440,
                    "secondHeight": 720,
                    "perfCostRatio": 1.5
                }
            ],
            "qualityLevel": "Beautiful",
            "defaultVolatileGrade": 2,
            "avatarOutlineThresh": 15.0,
            "avatarShadowThresh": 25.0,
            "avatarMotionVectorThresh": 30.0,
            "viewDistanceRatio": 90.0,
            "grassQuality": "VeryLow",
            "crowdSpawnDistance": 40,
            "crowdDespawnDistance": 50,
            "entityLODConfig": ""
        },
        "Low": {
            "performanceQuality": "High",
            "virtualJoystickRadius": 0.5,
            "levelStreamingConfig": "",
            "uiCacheConfig": "AndroidDefault",
            "lightOnLevel": "Middle",
            "requirements": [
                {
                    "Info": "ProcessorFrequency",
                    "Values": [
                        "500"
                    ]
                },
                {
                    "Info": "SystemMemorySize",
                    "Values": [
                        "512"
                    ]
                },
                {
                    "Info": "GraphicsMemorySize",
                    "Values": [
                        "256"
                    ]
                }
            ],
            "textureStreamingBudget": 140.0,
            "enableCutsceneTextureStreaming": 1,
            "textureStreamingEnabled": 1,
            "enableUICameraFullResolution": 0,
            "preloadUIScene": 1,
            "disableDoF": 0,
            "usePerObjectLightInForward": 1,
            "renderResolutions": [
                {
                    "width": 972,
                    "height": 540,
                    "secondWidth": 972,
                    "secondHeight": 540,
                    "perfCostRatio": 0.75
                },
                {
                    "width": 1080,
                    "height": 540,
                    "secondWidth": 1080,
                    "secondHeight": 540,
                    "perfCostRatio": 0.800000011920929
                },
                {
                    "width": 1280,
                    "height": 640,
                    "secondWidth": 1280,
                    "secondHeight": 640,
                    "perfCostRatio": 1.0
                },
                {
                    "width": 1440,
                    "height": 720,
                    "secondWidth": 1440,
                    "secondHeight": 720,
                    "perfCostRatio": 1.5
                }
            ],
            "qualityLevel": "Beautiful",
            "defaultVolatileGrade": 2,
            "avatarOutlineThresh": 15.0,
            "avatarShadowThresh": 25.0,
            "avatarMotionVectorThresh": 30.0,
            "viewDistanceRatio": 90.0,
            "grassQuality": "VeryLow",
            "crowdSpawnDistance": 40,
            "crowdDespawnDistance": 50,
            "entityLODConfig": ""
        },
        "Off": {
            "performanceQuality": "High",
            "virtualJoystickRadius": 0.5,
            "levelStreamingConfig": "",
            "uiCacheConfig": "AndroidDefault",
            "lightOnLevel": "Middle",
            "requirements": [
                {
                    "Info": "ProcessorFrequency",
                    "Values": [
                        "0"
                    ]
                },
                {
                    "Info": "SystemMemorySize",
                    "Values": [
                        "0"
                    ]
                },
                {
                    "Info": "GraphicsMemorySize",
                    "Values": [
                        "0"
                    ]
                }
            ],
            "textureStreamingBudget": 70.0,
            "enableCutsceneTextureStreaming": 1,
            "textureStreamingEnabled": 1,
            "enableUICameraFullResolution": 0,
            "preloadUIScene": 1,
            "disableDoF": 0,
            "usePerObjectLightInForward": 1,
            "renderResolutions": [
                {
                    "width": 972,
                    "height": 540,
                    "secondWidth": 972,
                    "secondHeight": 540,
                    "perfCostRatio": 0.75
                },
                {
                    "width": 1080,
                    "height": 540,
                    "secondWidth": 1080,
                    "secondHeight": 540,
                    "perfCostRatio": 0.800000011920929
                },
                {
                    "width": 1280,
                    "height": 640,
                    "secondWidth": 1280,
                    "secondHeight": 640,
                    "perfCostRatio": 1.0
                },
                {
                    "width": 1440,
                    "height": 720,
                    "secondWidth": 1440,
                    "secondHeight": 720,
                    "perfCostRatio": 1.5
                }
            ],
            "qualityLevel": "Beautiful",
            "defaultVolatileGrade": 2,
            "avatarOutlineThresh": 15.0,
            "avatarShadowThresh": 25.0,
            "avatarMotionVectorThresh": 30.0,
            "viewDistanceRatio": 90.0,
            "grassQuality": "VeryLow",
            "crowdSpawnDistance": 40,
            "crowdDespawnDistance": 50,
            "entityLODConfig": ""
        },
        "ForceStreamingBudget": {
            "performanceQuality": "High",
            "virtualJoystickRadius": 0.5,
            "levelStreamingConfig": "",
            "uiCacheConfig": "AndroidDefault",
            "lightOnLevel": "Middle",
            "requirements": [
                {
                    "Info": "SystemMemorySize",
                    "Values": [
                        "0",
                        "5012"
                    ]
                }
            ],
            "textureStreamingBudget": 70.0,
            "enableCutsceneTextureStreaming": 1,
            "textureStreamingEnabled": 1,
            "enableUICameraFullResolution": 0,
            "preloadUIScene": 1,
            "disableDoF": 0,
            "usePerObjectLightInForward": 1,
            "renderResolutions": [
                {
                    "width": 972,
                    "height": 540,
                    "secondWidth": 972,
                    "secondHeight": 540,
                    "perfCostRatio": 0.75
                },
                {
                    "width": 1080,
                    "height": 540,
                    "secondWidth": 1080,
                    "secondHeight": 540,
                    "perfCostRatio": 0.800000011920929
                },
                {
                    "width": 1280,
                    "height": 640,
                    "secondWidth": 1280,
                    "secondHeight": 640,
                    "perfCostRatio": 1.0
                },
                {
                    "width": 1440,
                    "height": 720,
                    "secondWidth": 1440,
                    "secondHeight": 720,
                    "perfCostRatio": 1.5
                }
            ],
            "qualityLevel": "Beautiful",
            "defaultVolatileGrade": 2,
            "avatarOutlineThresh": 15.0,
            "avatarShadowThresh": 25.0,
            "avatarMotionVectorThresh": 30.0,
            "viewDistanceRatio": 90.0,
            "grassQuality": "VeryLow",
            "crowdSpawnDistance": 40,
            "crowdDespawnDistance": 50,
            "entityLODConfig": ""
        }
    },
    "candidateVolatile": [
        "VeryLow",
        "Low",
        "Middle",
        "High",
        "Topmost"
    ],
    "postprocessEffectOptions": {
        "Default": {
            "useShadowCache": true,
            "aoMode": "Disable"
        },
        "VeryLow": {
            "useShadowCache": true,
            "aoMode": "Disable",
            "fsrScale": 0.800000011920929,
            "avatarMotionVectorStrategy": 0
        },
        "Low": {
            "useShadowCache": true,
            "aoMode": "Disable",
            "fsrScale": 0.800000011920929,
            "avatarMotionVectorStrategy": 1
        },
        "Medium": {
            "useShadowCache": true,
            "aoMode": "Disable",
            "avatarMotionVectorStrategy": 1
        },
        "High": {
            "useShadowCache": true
        }
    },
    "particleEffectOptions": {
        "Default": {
            "halfResolutionParticle": true,
            "particleEmitLevel": "Middle",
            "particleDecreaseThresh": 85.0
        },
        "VeryLow": {
            "halfResolutionParticle": true,
            "particleEmitLevel": "ExtremeLow",
            "particleDecreaseThresh": 70.0
        },
        "Low": {
            "halfResolutionParticle": true,
            "particleDecreaseThresh": 70.0
        },
        "Medium": {
            "halfResolutionParticle": true,
            "particleEmitLevel": "Middle",
            "particleDecreaseThresh": 85.0
        },
        "High": {
            "halfResolutionParticle": true,
            "particleEmitLevel": "Middle"
        }
    },
    "comprehensiveQualityOptions": {
        "VeryLow": {
            "localLightingShadow": false,
            "terrainBlendDistance": 0,
            "shaderLODDistance": 0,
            "shaderQualityKeyword": "MHY_SHADER_LOW",
            "levelStreamingConfig": "AndroidDefault_VeryLow",
            "enviroConfig": "AndroidDefault_VeryLow",
            "uiCacheConfig": "iOSDefault",
            "lightViewDistanceRatio": 0.5,
            "grassQuality": "VeryLow",
            "lightOnLevel": "Low",
            "entityLODConfig": "Android_VeryLow",
            "enableDynamicLight": false,
            "textureStreamingBudget": 70.0,
            "terrainDistance": 400.0,
            "crowdMaxScreenNum": 10
        },
        "Low": {
            "localLightingShadow": false,
            "terrainBlendDistance": 20,
            "shaderLODDistance": 30,
            "shaderQualityKeyword": "MHY_SHADER_LOW",
            "levelStreamingConfig": "AndroidDefault_Low",
            "enviroConfig": "AndroidDefault_Middle",
            "uiCacheConfig": "iOSDefault",
            "lightViewDistanceRatio": 0.6000000238418579,
            "grassQuality": "VeryLow",
            "lightOnLevel": "Low",
            "entityLODConfig": "Android_Low",
            "textureStreamingBudget": 70.0,
            "terrainDistance": 500.0,
            "crowdMaxScreenNum": 15
        },
        "Medium": {
            "localLightingShadow": false,
            "terrainBlendDistance": 50,
            "shaderLODDistance": 50,
            "shaderQualityKeyword": "MHY_SHADER_MIDDLE",
            "levelStreamingConfig": "AndroidDefault_Middle",
            "enviroConfig": "AndroidDefault_Middle",
            "uiCacheConfig": "iOSDefault",
            "lightViewDistanceRatio": 0.699999988079071,
            "grassQuality": "Low",
            "lightOnLevel": "Low",
            "entityLODConfig": "Android_Middle",
            "textureStreamingBudget": 110.0,
            "terrainDistance": 600.0,
            "crowdMaxScreenNum": 20
        },
        "High": {
            "localLightingShadow": false,
            "terrainBlendDistance": 70,
            "shaderLODDistance": 50,
            "shaderQualityKeyword": "MHY_SHADER_HIGH",
            "levelStreamingConfig": "AndroidDefault_High",
            "enviroConfig": "AndroidDefault_Middle",
            "uiCacheConfig": "iOSDefault",
            "lightViewDistanceRatio": 0.800000011920929,
            "grassQuality": "Middle",
            "lightOnLevel": "Middle",
            "entityLODConfig": "Android_High",
            "textureStreamingBudget": 140.0,
            "terrainDistance": 700.0,
            "crowdMaxScreenNum": 30
        },
        "VeryHigh": {
            "terrainBlendDistance": 100,
            "shaderLODDistance": 80,
            "shaderQualityKeyword": "MHY_SHADER_HIGH",
            "levelStreamingConfig": "AndroidDefault_High",
            "enviroConfig": "AndroidDefault_Middle",
            "uiCacheConfig": "iOSDefault",
            "lightViewDistanceRatio": 0.8999999761581421,
            "grassQuality": "Middle",
            "lightOnLevel": "High",
            "entityLODConfig": "Android_High",
            "textureStreamingBudget": 140.0,
            "terrainDistance": 800.0,
            "shellCount": 15,
            "shellMaxObjectsCount": 10,
            "crowdMaxScreenNum": 50
        }
    },
    "settingEntry": [
        {
            "entryType": "RenderResolution"
        },
        {
            "entryType": "ShadowQuality",
            "availableOptions": [
                "Low",
                "Medium",
                "High"
            ],
            "perfCostRatios": [
                0.8999999761581421,
                1.0,
                1.2000000476837158
            ]
        },
        {
            "entryType": "PostprocessEffect",
            "availableOptions": [
                "Low",
                "Medium",
                "High"
            ],
            "perfCostRatios": [
                0.8999999761581421,
                1.0,
                1.2000000476837158
            ]
        },
        {
            "entryType": "ParticleEffect",
            "availableOptions": [
                "VeryLow",
                "Low",
                "Medium",
                "High"
            ],
            "perfCostRatios": [
                0.800000011920929,
                0.8999999761581421,
                1.0,
                1.2000000476837158
            ]
        },
        {
            "entryType": "ComprehensiveQuality",
            "availableOptions": [
                "VeryLow",
                "Low",
                "Medium",
                "High",
                "VeryHigh"
            ],
            "perfCostRatios": [
                0.800000011920929,
                0.8999999761581421,
                1.0,
                1.2000000476837158,
                1.5
            ]
        },
        {
            "entryType": "TargetFrameRate",
            "availableOptions": [
                "30",
                "60",
                "24"
            ],
            "perfCostRatios": [
                1.0,
                4.0,
                0.800000011920929
            ],
            "displayType": "Literally",
            "sortOption": "Num_Ascend"
        },
        {
            "entryType": "MotionBlur",
            "availableOptions": [
                "UI_SETTING_CLOSE",
                "UI_SETTING_LOW",
                "UI_SETTING_HIGH",
                "UI_SETTING_VERY_HIGH"
            ],
            "perfCostRatios": [
                0.949999988079071,
                1.0,
                1.0499999523162842,
                1.100000023841858
            ],
            "displayType": "TextMap"
        },
        {
            "entryType": "Bloom",
            "availableOptions": [
                "UI_SETTING_CLOSE",
                "UI_SETTING_OPEN"
            ],
            "perfCostRatios": [
                0.949999988079071,
                1.0,
                1.0499999523162842,
                1.100000023841858
            ],
            "displayType": "TextMap"
        },
        {
            "entryType": "AntiAliasing",
            "availableOptions": [
                "UI_SETTING_CLOSE",
                "UI_SETTING_TAA"
            ],
            "perfCostRatios": [
                1.0,
                1.0499999523162842
            ],
            "displayType": "TextMap"
        },
        {
            "entryType": "CrowdDensity",
            "availableOptions": [
                "UI_SETTING_LOW",
                "UI_SETTING_HIGH"
            ],
            "displayType": "TextMap"
        },
        {
            "entryType": "OnlineEffect",
            "availableOptions": [
                "UI_SETTING_MULTIEFF_HIGH",
                "UI_SETTING_MULTIEFF_MIDDLE",
                "UI_SETTING_MULTIEFF_LOW"
            ],
            "displayType": "TextMap"
        }
    ],
    "performanceSettings": {
        "High": {},
        "Middle": {
            "useMoveIK": false
        },
        "Low": {
            "useMoveIK": false,
            "ragdollLimitCount": 2,
            "ragdollPoolSize": 15,
            "ragdollPoolSameIdSize": 2
        }
    },
    "globalTokenSettings": {
        "actionTokenGroup": "Android"
    },
    "shadowQualitySettings": {
        "Low": {
            "shadowDistance": 110,
            "shadowCascadeSplitCount": 4
        },
        "Medium": {
            "shadowDistance": 110,
            "shadowResolution": "Medium",
            "shadowCascadeSplitCount": 4,
            "enableDynamicShadow": true
        },
        "High": {
            "shadowDistance": 300,
            "shadowResolution": "Medium",
            "shadowCascadeSplitCount": 4,
            "perObjShadowQuality": 2,
            "shadowBlend": true,
            "PerObjectPCF": true,
            "enableDynamicShadow": true
        }
    },
    "costRatioGrade": {
        "Min": 0.4000000059604645,
        "Middle": 1.100000023841858,
        "High": 1.600000023841858,
        "Max": 1.7999999523162842
    },
    "levelStreamingCostMap": {
        "AndroidDefault_High": 4,
        "AndroidDefault_Middle": 3,
        "AndroidDefault_Low": 2,
        "AndroidDefault_VeryLow": 1
    },
    "fadeDistanceQualitySettings": {
        "Low": {
            "tintDistance": 29.0,
            "tintSize": 36
        },
        "Middle": {
            "tintDistance": 40.0,
            "tintSize": 48
        },
        "High": {
            "tintDistance": 51.0,
            "tintSize": 60
        }
    },
    "deviceModelUseWidthMatchMode": [
        "SM-W2021",
        "SM-W9023",
        "SM-F916",
        "SM-F926",
        "SM-F9360",
        "SM-F936N",
        "SM-F936U",
        "SM-F936U1",
        "SM-F936W",
        "SM-F936B",
        "SC-55C",
        "SCG16",
        "SM-F700",
        "SM-F707",
        "SM-7110",
        "SM-7210",
        "SM-F946J",
        "SM-F946D",
        "SM-F946W",
        "SM-F946U1",
        "SM-F946BE",
        "SM-F946N",
        "SM-F946B",
        "SM-F946U",
        "SM-F946U1",
        "SM-F9460",
        "SM-W9024",
        "TET-AL00",
        "TET-AN00",
        "TAH-N29m",
        "PAL-AL00",
        "FRI-AN00",
        "FRI-AN10",
        "FRI-NX9",
        "ALT-AL00",
        "ALT-L29",
        "PTK-AN00",
        "VER-N49",
        "VER-N49DP",
        "VCA-AN00",
        "M2011J18C",
        "22061218C",
        "2308CPXD0C",
        "PEUM00",
        "PGU110",
        "V2229A",
        "V2178A",
        "V2266A",
        "CPH2499",
        "CPH2551",
        "PHN110",
        "G9FPL",
        "Pixel FLOD",
        "TECNO TECNO AD10",
        "Razr",
        "VER-AN00",
        "VER-AN10"
    ]
}