{
    "talkId": 5049,
    "type": "FREE",
    "dialogList": [
        {
            "id": 1016504900,
            "talkRole": {
                "type": "TALK_ROLE_NPC",
                "id": "5049"
            },
            "talkContentTextMapHash": 4264130178,
            "talkAssetPath": "",
            "talkAssetPathAlter": "",
            "talkAudioName": "",
            "actionBefore": "",
            "actionWhile": "",
            "actionAfter": "",
            "optionIcon": ""
        }
    ]
}