{
    "talkId": 5050,
    "type": "FREE",
    "dialogList": [
        {
            "id": 1016505000,
            "talkRole": {
                "type": "TALK_ROLE_NPC",
                "id": "5050"
            },
            "talkContentTextMapHash": 1295563618,
            "talkAssetPath": "",
            "talkAssetPathAlter": "",
            "talkAudioName": "",
            "actionBefore": "",
            "actionWhile": "",
            "actionAfter": "",
            "optionIcon": ""
        }
    ]
}