{
    "talkId": 5152,
    "type": "FREE",
    "dialogList": [
        {
            "id": 1016515200,
            "talkRole": {
                "type": "TALK_ROLE_NPC",
                "id": "5152"
            },
            "talkContentTextMapHash": 4104273970,
            "talkAssetPath": "",
            "talkAssetPathAlter": "",
            "talkAudioName": "",
            "actionBefore": "",
            "actionWhile": "",
            "actionAfter": "",
            "optionIcon": ""
        }
    ]
}