{
    "talkId": 5184,
    "type": "FREE",
    "dialogList": [
        {
            "id": 1016518400,
            "talkRole": {
                "type": "TALK_ROLE_NPC",
                "id": "5184"
            },
            "talkContentTextMapHash": 4218074018,
            "talkAssetPath": "",
            "talkAssetPathAlter": "",
            "talkAudioName": "",
            "actionBefore": "",
            "actionWhile": "",
            "actionAfter": "",
            "optionIcon": ""
        }
    ]
}