{
    "talkId": 5222,
    "type": "FREE",
    "dialogList": [
        {
            "id": 1016522200,
            "talkRole": {
                "type": "TALK_ROLE_NPC",
                "id": "5222"
            },
            "talkContentTextMapHash": 1626545154,
            "talkAssetPath": "",
            "talkAssetPathAlter": "",
            "talkAudioName": "",
            "actionBefore": "",
            "actionWhile": "",
            "actionAfter": "",
            "optionIcon": ""
        }
    ]
}