{
    "talkId": 5286,
    "type": "FREE",
    "dialogList": [
        {
            "id": 1016528600,
            "talkRole": {
                "type": "TALK_ROLE_NPC",
                "id": "5286"
            },
            "talkContentTextMapHash": 520341354,
            "talkAssetPath": "",
            "talkAssetPathAlter": "",
            "talkAudioName": "",
            "actionBefore": "",
            "actionWhile": "",
            "actionAfter": "",
            "optionIcon": ""
        }
    ]
}