{
    "talkId": 5306,
    "type": "FREE",
    "dialogList": [
        {
            "id": 1016530600,
            "talkRole": {
                "type": "TALK_ROLE_NPC",
                "id": "5306"
            },
            "talkContentTextMapHash": 750958954,
            "talkAssetPath": "",
            "talkAssetPathAlter": "",
            "talkAudioName": "",
            "actionBefore": "",
            "actionWhile": "",
            "actionAfter": "",
            "optionIcon": ""
        },
        {
            "id": 1016530601,
            "talkRole": {
                "type": "TALK_ROLE_NPC",
                "id": "5306"
            },
            "talkContentTextMapHash": 3876168282,
            "talkAssetPath": "",
            "talkAssetPathAlter": "",
            "talkAudioName": "",
            "actionBefore": "",
            "actionWhile": "",
            "actionAfter": "",
            "optionIcon": ""
        }
    ]
}