{
    "talkId": 5313,
    "type": "FREE",
    "dialogList": [
        {
            "id": 1016531300,
            "talkRole": {
                "type": "TALK_ROLE_NPC",
                "id": "5313"
            },
            "talkContentTextMapHash": 1761256546,
            "talkAssetPath": "",
            "talkAssetPathAlter": "",
            "talkAudioName": "",
            "actionBefore": "",
            "actionWhile": "",
            "actionAfter": "",
            "optionIcon": ""
        },
        {
            "id": 1016531301,
            "talkRole": {
                "type": "TALK_ROLE_NPC",
                "id": "5313"
            },
            "talkContentTextMapHash": 1086005298,
            "talkAssetPath": "",
            "talkAssetPathAlter": "",
            "talkAudioName": "",
            "actionBefore": "",
            "actionWhile": "",
            "actionAfter": "",
            "optionIcon": ""
        }
    ]
}