{
    "luaDataPath": "",
    "dontUseDefaultFinish": true,
    "startBlackKeepTime": 0.5,
    "entityBan": "",
    "disableNpcLod": true,
    "isAutoBanNpc": true,
    "isBanWidgetPet": true,
    "protectNpcMobileLod": true,
    "MNHFNFDCEFG": 5,
    "startFade": {
        "startFadeOutDuration": 0.0
    },
    "endFade": {
        "startFadeOutDuration": 0.0
    },
    "actors": [
        {
            "alias": "Avatar",
            "visible": true,
            "bornPointName": "[3_330201344:-388.762,243.562,2652.083,0.000,31.676,0.000]",
            "relativePosType": "AVATAR_NEW",
            "relativePosNpcAlias": "",
            "bindMovingTargetKey": ""
        },
        {
            "alias": "AvatarNpc",
            "visible": true,
            "bornPointName": "[3_330201344:-388.762,243.562,2652.083,0.000,31.676,0.000]",
            "removeActorType": "NEW_REMOVE",
            "relativePosType": "AVATAR_NEW",
            "relativePosNpcAlias": "",
            "bindMovingTargetKey": ""
        },
        {
            "configID": 1005,
            "alias": "1005",
            "visible": true,
            "bornPointName": "[3_330201345:-387.657,243.542,2651.446,0.000,20.902,0.000]",
            "removeActorType": "NEW_REMOVE_WITH_DISAPPEAR",
            "relativePosType": "AVATAR_NEW",
            "relativePosNpcAlias": "",
            "bindMovingTargetKey": ""
        },
        {
            "configID": 1063,
            "alias": "1063",
            "visible": true,
            "bornPointName": "[3_330201364:-384.331,244.779,2654.931,0.000,4.836,0.000]",
            "removeActorType": "REMOVE",
            "relativePosType": "AVATAR_NEW",
            "relativePosNpcAlias": "",
            "bindMovingTargetKey": ""
        },
        {
            "configID": 1050,
            "alias": "1050",
            "visible": true,
            "bornPointName": "[3_330201363:-385.483,244.779,2655.336,0.000,25.090,0.000]",
            "removeActorType": "REMOVE",
            "relativePosType": "AVATAR_NEW",
            "relativePosNpcAlias": "",
            "bindMovingTargetKey": ""
        },
        {
            "configID": 1058,
            "alias": "1058",
            "visible": true,
            "bornPointName": "[3_330201362:-386.517,244.779,2656.020,0.000,30.868,0.000]",
            "removeActorType": "REMOVE",
            "relativePosType": "AVATAR_NEW",
            "relativePosNpcAlias": "",
            "bindMovingTargetKey": ""
        },
        {
            "configID": 1064,
            "alias": "1064",
            "visible": true,
            "bornPointName": "[3_330201360:-388.107,244.779,2657.575,0.000,70.428,0.000]",
            "relativePosType": "AVATAR_NEW",
            "relativePosNpcAlias": "",
            "bindMovingTargetKey": ""
        },
        {
            "configID": 1067,
            "alias": "1067",
            "visible": true,
            "bornPointName": "[3_330201361:-387.580,244.779,2656.532,0.000,52.897,0.000]",
            "relativePosType": "AVATAR_NEW",
            "relativePosNpcAlias": "",
            "bindMovingTargetKey": ""
        }
    ],
    "group": [
        [
            {
                "$type": "BCJBNCJOPCE",
                "type": "CAMERA_MOVE",
                "duration": 0.5,
                "actionId": 290,
                "AKFGKKEOEFA": {
                    "x": -386.8819885253906,
                    "y": 245.7100067138672,
                    "z": 2658.944091796875
                },
                "NGEBMAEFFGJ": {
                    "x": -387.82000732421875,
                    "y": 245.79400634765625,
                    "z": 2659.281982421875
                },
                "LIGHLBKBDEI": 20.0,
                "GFIOJGJJGCN": 6,
                "ABAEPHOGOFF": "EaseInOutCubic",
                "KFDBMBFFANN": {},
                "IEJBKHHEJEN": true,
                "CEDHIBLHMKP": false,
                "KIPMIDIKECP": "",
                "ANFHNPOCMNI": true,
                "BDLGHOJPJHD": "",
                "LCOJGFEOLCK": "",
                "BBBGAEDCJEL": ""
            },
            {
                "$type": "IBPNIIGAIPF",
                "type": "LOOK_AT",
                "aliasList": [
                    "1005"
                ],
                "actionId": 295,
                "GGIENKFBOGL": true,
                "useTargetPos": true,
                "GCOONJBHNIM": true,
                "JHNJNNOPJKG": {
                    "x": -389.97198486328125,
                    "y": 246.16000366210938,
                    "z": 2660.52392578125
                },
                "NDOMJCOFKDJ": 0.5,
                "KIPMIDIKECP": "",
                "AHLPNEGAKGG": "NONE",
                "FGPHOPBEJDE": true,
                "HJJAFGPMJNJ": "",
                "AOFBAGFCGPJ": ""
            },
            {
                "$type": "CNBNGFNKLGP",
                "type": "STEER_TO",
                "duration": 1.0,
                "aliasList": [
                    "1005"
                ],
                "actionId": 294,
                "DEMFHGAIELL": "ABSOLUTE",
                "KDKLEJFHDJG": {
                    "x": -387.47698974609375,
                    "y": 250.36900329589844,
                    "z": 2673.0859375
                },
                "BBNLLCHBKAI": true,
                "COJBPJMLIFM": true,
                "NLIKMFJCLBP": true,
                "KIPMIDIKECP": "",
                "IDIIDHLNENJ": true,
                "FDLMFGAMGJK": true,
                "AOFBAGFCGPJ": ""
            },
            {
                "$type": "DNAEECJNBFB",
                "type": "EMO_SYNC",
                "aliasList": [
                    "1005"
                ],
                "actionId": 192,
                "EOGJDJKPPGE": "Cs_Emo_Avatar_Simple_Common_Set/Cs_Emo_Avatar_Talk/Cs_Emo_Avatar_Event/Cs_Emo_AkaFes/Cs_Emo_401001306",
                "IHCBGPABDLE": "",
                "CIKPDMODFPL": "",
                "HDIAHFFHNGE": "",
                "BOAAGJEEFDD": "",
                "PFDPJKHPADE": "",
                "DALINBJAHOC": [
                    6397722242002485781,
                    9604766144315785215,
                    3417568317965659576,
                    712722220303582491
                ]
            },
            {
                "$type": "CCEEIGNAILH",
                "type": "DIALOG",
                "aliasList": [
                    "1005"
                ],
                "actionId": 117,
                "KICBIOMGHIN": 401001306,
                "PNCCODDABKI": 1.0
            },
            {
                "$type": "OMPHNKNPPJO",
                "type": "LOOK_AT_EYECTRL",
                "aliasList": [
                    "AvatarNpc"
                ],
                "actionId": 639,
                "useTargetPos": false,
                "OMHMNNDGHFL": {
                    "x": 5.0,
                    "z": 2.0
                },
                "AMNIBCAICEP": {
                    "x": 5.0,
                    "z": 2.0
                },
                "MHBPPJNDKJC": 0.20000000298023224,
                "KIPMIDIKECP": "",
                "JJEGGHOEIPD": "Face"
            },
            {
                "$type": "MoleMole.Config.ConfigPlayerNPCEnergyTypeAction",
                "type": "SET_PLAYER_NPC_ENERGY_TYPE",
                "aliasList": [
                    "AvatarNpc"
                ],
                "actionId": 582,
                "setHeroEngergyType": true
            },
            {
                "$type": "MoleMole.Config.ConfigVisibleInterAction",
                "type": "VISIBLE",
                "aliasList": [
                    "AvatarNpc"
                ],
                "actionId": 612,
                "isVisible": true,
                "extraParam": ""
            },
            {
                "$type": "IBPNIIGAIPF",
                "type": "LOOK_AT",
                "aliasList": [
                    "AvatarNpc"
                ],
                "actionId": 301,
                "GGIENKFBOGL": true,
                "useTargetPos": true,
                "GCOONJBHNIM": true,
                "JHNJNNOPJKG": {
                    "x": -390.3269958496094,
                    "y": 246.01100158691406,
                    "z": 2659.712890625
                },
                "NDOMJCOFKDJ": 0.5,
                "KIPMIDIKECP": "",
                "AHLPNEGAKGG": "NONE",
                "FGPHOPBEJDE": true,
                "HJJAFGPMJNJ": "",
                "AOFBAGFCGPJ": ""
            },
            {
                "$type": "MoleMole.Config.ConfigTeleportToAction",
                "type": "TELEPORT_TO",
                "aliasList": [
                    "Avatar"
                ],
                "actionId": 650,
                "position": {
                    "x": -390.04998779296875,
                    "y": 244.77999877929688,
                    "z": 2660.550048828125
                },
                "forward": {
                    "x": 0.8939999938011169,
                    "z": -0.4480000138282776
                },
                "openLongDisTeleport": true,
                "posBindMovingTargetKey": "",
                "forwardBindMovingTargetKey": ""
            },
            {
                "$type": "MoleMole.Config.ConfigVisibleInterAction",
                "type": "VISIBLE",
                "aliasList": [
                    "Avatar"
                ],
                "actionId": 579,
                "extraParam": ""
            },
            {
                "$type": "MoleMole.Config.ConfigSitOrStandAction",
                "type": "SIT_OR_STAND",
                "aliasList": [
                    "Avatar"
                ],
                "actionId": 578,
                "banResetFreestyle": true
            },
            {
                "$type": "MoleMole.Config.ConfigLocalGadgetOP",
                "type": "LOCAL_GADGET_OP",
                "actionId": 644,
                "gadgetId": 70710787,
                "subKey": 1,
                "oprCode": 1,
                "questMainId": 40100,
                "slotName": "",
                "sceneId": 3,
                "position": {
                    "x": -389.7869873046875,
                    "y": 244.781005859375,
                    "z": 2661.180908203125
                },
                "euler": {
                    "y": 122.96600341796875
                },
                "gvKey": ""
            },
            {
                "$type": "MoleMole.Config.ConfigTeleportToAction",
                "type": "TELEPORT_TO",
                "aliasList": [
                    "AvatarNpc"
                ],
                "actionId": 581,
                "position": {
                    "x": -390.04998779296875,
                    "y": 244.77999877929688,
                    "z": 2660.550048828125
                },
                "forward": {
                    "x": 0.8939999938011169,
                    "z": -0.4480000138282776
                },
                "openLongDisTeleport": true,
                "posBindMovingTargetKey": "",
                "forwardBindMovingTargetKey": ""
            },
            {
                "$type": "MoleMole.Config.ConfigTeleportToAction",
                "type": "TELEPORT_TO",
                "aliasList": [
                    "1005"
                ],
                "actionId": 583,
                "position": {
                    "x": -390.2149963378906,
                    "y": 244.77999877929688,
                    "z": 2659.779052734375
                },
                "forward": {
                    "x": 0.9660000205039978,
                    "z": -0.25999999046325684
                },
                "openLongDisTeleport": true,
                "posBindMovingTargetKey": "",
                "forwardBindMovingTargetKey": ""
            },
            {
                "$type": "BCJBNCJOPCE",
                "type": "CAMERA_MOVE",
                "delayTime": 0.10000000149011612,
                "duration": 9.571000099182129,
                "actionId": 638,
                "AKFGKKEOEFA": {
                    "x": -387.0539855957031,
                    "y": 245.72500610351562,
                    "z": 2659.006103515625
                },
                "NGEBMAEFFGJ": {
                    "x": -387.99200439453125,
                    "y": 245.8090057373047,
                    "z": 2659.343994140625
                },
                "LIGHLBKBDEI": 20.0,
                "ABAEPHOGOFF": "EaseOutQuad",
                "KFDBMBFFANN": {},
                "IEJBKHHEJEN": true,
                "CEDHIBLHMKP": false,
                "KIPMIDIKECP": "",
                "ANFHNPOCMNI": true,
                "BDLGHOJPJHD": "",
                "LCOJGFEOLCK": "",
                "BBBGAEDCJEL": ""
            },
            {
                "$type": "IBPNIIGAIPF",
                "type": "LOOK_AT",
                "delayTime": 0.9620000123977661,
                "aliasList": [
                    "1005"
                ],
                "actionId": 297,
                "GGIENKFBOGL": true,
                "useTargetPos": true,
                "GCOONJBHNIM": true,
                "JHNJNNOPJKG": {
                    "x": -389.97198486328125,
                    "y": 246.2270050048828,
                    "z": 2660.52392578125
                },
                "NDOMJCOFKDJ": 0.5,
                "KIPMIDIKECP": "",
                "AHLPNEGAKGG": "NONE",
                "FGPHOPBEJDE": true,
                "HJJAFGPMJNJ": "",
                "AOFBAGFCGPJ": ""
            },
            {
                "$type": "KCBOGFFHPBD",
                "type": "BODY_LANG",
                "delayTime": 1.8839999437332153,
                "aliasList": [
                    "1005"
                ],
                "actionId": 298,
                "GPIEDGOMCGL": 1110,
                "KCEHDJLKIAL": false,
                "KCOLHJBDILK": true,
                "AOFEDPBOOIE": ""
            },
            {
                "$type": "KCBOGFFHPBD",
                "type": "BODY_LANG",
                "delayTime": 3.502000093460083,
                "aliasList": [
                    "1005"
                ],
                "actionId": 299,
                "AHGOBCDHCMC": true,
                "KCEHDJLKIAL": false,
                "KCOLHJBDILK": true,
                "AOFEDPBOOIE": ""
            }
        ],
        [
            {
                "$type": "MoleMole.Config.ConfigCameraDOFAction",
                "type": "CAMERA_DOF",
                "actionId": 293,
                "focusDistance": 5.0,
                "focusRange": 10.0,
                "nearFocalDistance": 1.0,
                "nearFocalTransDistance": 1.0,
                "dofBlurAmount": 1.0,
                "quality": 3
            },
            {
                "$type": "IBPNIIGAIPF",
                "type": "LOOK_AT",
                "aliasList": [
                    "1064"
                ],
                "actionId": 626,
                "NDOMJCOFKDJ": 0.5,
                "KIPMIDIKECP": "AvatarNpc",
                "FGPHOPBEJDE": true,
                "HJJAFGPMJNJ": "",
                "AOFBAGFCGPJ": ""
            },
            {
                "$type": "MoleMole.Config.ConfigTeleportToAction",
                "type": "TELEPORT_TO",
                "aliasList": [
                    "1064"
                ],
                "actionId": 625,
                "position": {
                    "x": -388.10699462890625,
                    "y": 244.77999877929688,
                    "z": 2657.574951171875
                },
                "forward": {
                    "x": 0.9419999718666077,
                    "z": 0.33500000834465027
                },
                "openLongDisTeleport": true,
                "posBindMovingTargetKey": "",
                "forwardBindMovingTargetKey": ""
            },
            {
                "$type": "IBPNIIGAIPF",
                "type": "LOOK_AT",
                "aliasList": [
                    "1058"
                ],
                "actionId": 624,
                "GGIENKFBOGL": true,
                "NDOMJCOFKDJ": 0.5,
                "KIPMIDIKECP": "1050",
                "FGPHOPBEJDE": true,
                "HJJAFGPMJNJ": "",
                "AOFBAGFCGPJ": ""
            },
            {
                "$type": "KCBOGFFHPBD",
                "type": "BODY_LANG",
                "aliasList": [
                    "1058"
                ],
                "actionId": 623,
                "GPIEDGOMCGL": 1120,
                "KCEHDJLKIAL": false,
                "KCOLHJBDILK": true,
                "AOFEDPBOOIE": ""
            },
            {
                "$type": "MoleMole.Config.ConfigTeleportToAction",
                "type": "TELEPORT_TO",
                "aliasList": [
                    "1058"
                ],
                "actionId": 622,
                "position": {
                    "x": -386.5169982910156,
                    "y": 244.7790069580078,
                    "z": 2656.02001953125
                },
                "forward": {
                    "x": 0.5130000114440918,
                    "z": 0.8579999804496765
                },
                "openLongDisTeleport": true,
                "posBindMovingTargetKey": "",
                "forwardBindMovingTargetKey": ""
            },
            {
                "$type": "IBPNIIGAIPF",
                "type": "LOOK_AT",
                "aliasList": [
                    "1050"
                ],
                "actionId": 621,
                "useTargetPos": true,
                "GCOONJBHNIM": true,
                "NDOMJCOFKDJ": 0.5,
                "KIPMIDIKECP": "1058",
                "AHLPNEGAKGG": "NONE",
                "FGPHOPBEJDE": true,
                "HJJAFGPMJNJ": "",
                "AOFBAGFCGPJ": ""
            },
            {
                "$type": "KCBOGFFHPBD",
                "type": "BODY_LANG",
                "aliasList": [
                    "1050"
                ],
                "actionId": 620,
                "GPIEDGOMCGL": 1220,
                "KCEHDJLKIAL": false,
                "KCOLHJBDILK": true,
                "AOFEDPBOOIE": ""
            },
            {
                "$type": "MoleMole.Config.ConfigTeleportToAction",
                "type": "TELEPORT_TO",
                "aliasList": [
                    "1050"
                ],
                "actionId": 619,
                "position": {
                    "x": -385.4830017089844,
                    "y": 244.7790069580078,
                    "z": 2655.3359375
                },
                "forward": {
                    "x": 0.42399999499320984,
                    "z": 0.906000018119812
                },
                "openLongDisTeleport": true,
                "posBindMovingTargetKey": "",
                "forwardBindMovingTargetKey": ""
            },
            {
                "$type": "IBPNIIGAIPF",
                "type": "LOOK_AT",
                "aliasList": [
                    "1063"
                ],
                "actionId": 618,
                "NDOMJCOFKDJ": 0.5,
                "KIPMIDIKECP": "AvatarNpc",
                "FGPHOPBEJDE": true,
                "HJJAFGPMJNJ": "",
                "AOFBAGFCGPJ": ""
            },
            {
                "$type": "MoleMole.Config.ConfigTeleportToAction",
                "type": "TELEPORT_TO",
                "aliasList": [
                    "1067"
                ],
                "actionId": 627,
                "position": {
                    "x": -387.5719909667969,
                    "y": 244.7790069580078,
                    "z": 2656.597900390625
                },
                "forward": {
                    "x": 0.7979999780654907,
                    "z": 0.6029999852180481
                },
                "openLongDisTeleport": true,
                "posBindMovingTargetKey": "",
                "forwardBindMovingTargetKey": ""
            },
            {
                "$type": "MoleMole.Config.ConfigTeleportToAction",
                "type": "TELEPORT_TO",
                "aliasList": [
                    "1063"
                ],
                "actionId": 617,
                "position": {
                    "x": -384.33099365234375,
                    "y": 244.7790069580078,
                    "z": 2654.930908203125
                },
                "forward": {
                    "x": 0.08399999886751175,
                    "z": 0.9959999918937683
                },
                "openLongDisTeleport": true,
                "posBindMovingTargetKey": "",
                "forwardBindMovingTargetKey": ""
            },
            {
                "$type": "MoleMole.Config.ConfigTeleportToAction",
                "type": "TELEPORT_TO",
                "aliasList": [
                    "1005"
                ],
                "actionId": 306,
                "position": {
                    "x": -390.2149963378906,
                    "y": 244.77999877929688,
                    "z": 2659.779052734375
                },
                "forward": {
                    "x": 0.20200000703334808,
                    "z": 0.9789999723434448
                },
                "openLongDisTeleport": true,
                "posBindMovingTargetKey": "",
                "forwardBindMovingTargetKey": ""
            },
            {
                "$type": "KCBOGFFHPBD",
                "type": "BODY_LANG",
                "aliasList": [
                    "1005"
                ],
                "actionId": 300,
                "AHGOBCDHCMC": true,
                "KCEHDJLKIAL": false,
                "KCOLHJBDILK": true,
                "AOFEDPBOOIE": ""
            },
            {
                "$type": "DNAEECJNBFB",
                "type": "EMO_SYNC",
                "aliasList": [
                    "1005"
                ],
                "actionId": 193,
                "EOGJDJKPPGE": "Cs_Emo_Avatar_Simple_Common_Set/Cs_Emo_Avatar_Talk/Cs_Emo_Avatar_Event/Cs_Emo_AkaFes/Cs_Emo_401001307",
                "IHCBGPABDLE": "",
                "CIKPDMODFPL": "",
                "HDIAHFFHNGE": "",
                "BOAAGJEEFDD": "",
                "PFDPJKHPADE": "",
                "DALINBJAHOC": [
                    17361004079921253427,
                    10378036768176375779,
                    10195648257058020086,
                    11384585398020711585
                ]
            },
            {
                "$type": "CCEEIGNAILH",
                "type": "DIALOG",
                "aliasList": [
                    "1005"
                ],
                "actionId": 119,
                "KICBIOMGHIN": 401001307,
                "PNCCODDABKI": 1.2719999551773071
            },
            {
                "$type": "BCJBNCJOPCE",
                "type": "CAMERA_MOVE",
                "duration": 0.5,
                "actionId": 303,
                "AKFGKKEOEFA": {
                    "x": -388.9010009765625,
                    "y": 246.28500366210938,
                    "z": 2661.472900390625
                },
                "NGEBMAEFFGJ": {
                    "x": -389.5840148925781,
                    "y": 246.16799926757812,
                    "z": 2660.751953125
                },
                "LIGHLBKBDEI": 20.0,
                "GFIOJGJJGCN": 6,
                "ABAEPHOGOFF": "EaseInOutCubic",
                "KFDBMBFFANN": {},
                "IEJBKHHEJEN": true,
                "CEDHIBLHMKP": false,
                "KIPMIDIKECP": "",
                "ANFHNPOCMNI": true,
                "BDLGHOJPJHD": "",
                "LCOJGFEOLCK": "",
                "BBBGAEDCJEL": ""
            },
            {
                "$type": "IBPNIIGAIPF",
                "type": "LOOK_AT",
                "aliasList": [
                    "1005"
                ],
                "actionId": 527,
                "GGIENKFBOGL": true,
                "useTargetPos": true,
                "GCOONJBHNIM": true,
                "JHNJNNOPJKG": {
                    "x": -389.97198486328125,
                    "y": 246.16000366210938,
                    "z": 2660.52392578125
                },
                "NDOMJCOFKDJ": -1.0,
                "KIPMIDIKECP": "",
                "AHLPNEGAKGG": "NONE",
                "FGPHOPBEJDE": true,
                "HJJAFGPMJNJ": "",
                "AOFBAGFCGPJ": ""
            },
            {
                "$type": "IBPNIIGAIPF",
                "type": "LOOK_AT",
                "aliasList": [
                    "1067"
                ],
                "actionId": 628,
                "NDOMJCOFKDJ": 0.5,
                "KIPMIDIKECP": "AvatarNpc",
                "FGPHOPBEJDE": true,
                "HJJAFGPMJNJ": "",
                "AOFBAGFCGPJ": ""
            },
            {
                "$type": "BCJBNCJOPCE",
                "type": "CAMERA_MOVE",
                "delayTime": 0.10000000149011612,
                "duration": 11.427000045776367,
                "actionId": 304,
                "AKFGKKEOEFA": {
                    "x": -388.8710021972656,
                    "y": 246.28500366210938,
                    "z": 2661.444091796875
                },
                "NGEBMAEFFGJ": {
                    "x": -389.5539855957031,
                    "y": 246.16799926757812,
                    "z": 2660.722900390625
                },
                "LIGHLBKBDEI": 20.0,
                "ABAEPHOGOFF": "EaseOutQuad",
                "KFDBMBFFANN": {},
                "IEJBKHHEJEN": true,
                "CEDHIBLHMKP": false,
                "KIPMIDIKECP": "",
                "ANFHNPOCMNI": true,
                "BDLGHOJPJHD": "",
                "LCOJGFEOLCK": "",
                "BBBGAEDCJEL": ""
            },
            {
                "$type": "KCBOGFFHPBD",
                "type": "BODY_LANG",
                "delayTime": 1.0549999475479126,
                "aliasList": [
                    "1005"
                ],
                "actionId": 307,
                "GPIEDGOMCGL": 1140,
                "KCEHDJLKIAL": false,
                "KCOLHJBDILK": true,
                "AOFEDPBOOIE": ""
            },
            {
                "$type": "KCBOGFFHPBD",
                "type": "BODY_LANG",
                "delayTime": 3.377000093460083,
                "aliasList": [
                    "1005"
                ],
                "actionId": 309,
                "AHGOBCDHCMC": true,
                "KCEHDJLKIAL": false,
                "KCOLHJBDILK": true,
                "AOFEDPBOOIE": ""
            },
            {
                "$type": "KCBOGFFHPBD",
                "type": "BODY_LANG",
                "delayTime": 3.7009999752044678,
                "aliasList": [
                    "1005"
                ],
                "actionId": 308,
                "GPIEDGOMCGL": 1190,
                "KCEHDJLKIAL": false,
                "KCOLHJBDILK": true,
                "AOFEDPBOOIE": ""
            }
        ],
        [
            {
                "$type": "BCJBNCJOPCE",
                "type": "CAMERA_MOVE",
                "duration": 0.5,
                "actionId": 312,
                "AKFGKKEOEFA": {
                    "x": -384.1679992675781,
                    "y": 246.33999633789062,
                    "z": 2656.498046875
                },
                "NGEBMAEFFGJ": {
                    "x": -384.2590026855469,
                    "y": 246.19400024414062,
                    "z": 2655.512939453125
                },
                "LIGHLBKBDEI": 20.0,
                "GFIOJGJJGCN": 6,
                "ABAEPHOGOFF": "EaseInOutCubic",
                "KFDBMBFFANN": {},
                "IEJBKHHEJEN": true,
                "CEDHIBLHMKP": false,
                "KIPMIDIKECP": "",
                "ANFHNPOCMNI": true,
                "BDLGHOJPJHD": "",
                "LCOJGFEOLCK": "",
                "BBBGAEDCJEL": ""
            },
            {
                "$type": "KCBOGFFHPBD",
                "type": "BODY_LANG",
                "aliasList": [
                    "1005"
                ],
                "actionId": 310,
                "AHGOBCDHCMC": true,
                "KCEHDJLKIAL": false,
                "KCOLHJBDILK": true,
                "AOFEDPBOOIE": ""
            },
            {
                "$type": "CCEEIGNAILH",
                "type": "DIALOG",
                "aliasList": [
                    "1063"
                ],
                "actionId": 121,
                "KICBIOMGHIN": 401001308,
                "PNCCODDABKI": 0.5
            },
            {
                "$type": "DNAEECJNBFB",
                "type": "EMO_SYNC",
                "aliasList": [
                    "1063"
                ],
                "actionId": 198,
                "EOGJDJKPPGE": "Cs_Emo_Avatar_Simple_Common_Set/Cs_Emo_Avatar_Talk/Cs_Emo_Avatar_Event/Cs_Emo_AkaFes/Cs_Emo_401001308",
                "IHCBGPABDLE": "",
                "CIKPDMODFPL": "",
                "HDIAHFFHNGE": "",
                "BOAAGJEEFDD": "",
                "PFDPJKHPADE": "",
                "DALINBJAHOC": [
                    9633247122844295288,
                    4505982439655292913,
                    2487506814794384589,
                    5711690266627114816
                ]
            },
            {
                "$type": "IBPNIIGAIPF",
                "type": "LOOK_AT",
                "aliasList": [
                    "1063"
                ],
                "actionId": 314,
                "useTargetPos": true,
                "GCOONJBHNIM": true,
                "JHNJNNOPJKG": {
                    "x": -383.98199462890625,
                    "y": 246.11900329589844,
                    "z": 2655.7119140625
                },
                "NDOMJCOFKDJ": 0.5,
                "KIPMIDIKECP": "",
                "AHLPNEGAKGG": "NONE",
                "FGPHOPBEJDE": true,
                "HJJAFGPMJNJ": "",
                "AOFBAGFCGPJ": ""
            },
            {
                "$type": "KCBOGFFHPBD",
                "type": "BODY_LANG",
                "aliasList": [
                    "1063"
                ],
                "actionId": 315,
                "GPIEDGOMCGL": 1190,
                "KCEHDJLKIAL": false,
                "KCOLHJBDILK": true,
                "AOFEDPBOOIE": ""
            },
            {
                "$type": "KCBOGFFHPBD",
                "type": "BODY_LANG",
                "aliasList": [
                    "1050"
                ],
                "actionId": 319,
                "AHGOBCDHCMC": true,
                "KCEHDJLKIAL": false,
                "KCOLHJBDILK": true,
                "AOFEDPBOOIE": ""
            },
            {
                "$type": "BCJBNCJOPCE",
                "type": "CAMERA_MOVE",
                "delayTime": 0.10000000149011612,
                "duration": 8.232999801635742,
                "actionId": 332,
                "AKFGKKEOEFA": {
                    "x": -384.18798828125,
                    "y": 246.30799865722656,
                    "z": 2656.278076171875
                },
                "NGEBMAEFFGJ": {
                    "x": -384.27899169921875,
                    "y": 246.16200256347656,
                    "z": 2655.29296875
                },
                "LIGHLBKBDEI": 20.0,
                "ABAEPHOGOFF": "EaseOutQuad",
                "KFDBMBFFANN": {},
                "IEJBKHHEJEN": true,
                "CEDHIBLHMKP": false,
                "KIPMIDIKECP": "",
                "ANFHNPOCMNI": true,
                "BDLGHOJPJHD": "",
                "LCOJGFEOLCK": "",
                "BBBGAEDCJEL": ""
            },
            {
                "$type": "KCBOGFFHPBD",
                "type": "BODY_LANG",
                "delayTime": 4.581999778747559,
                "aliasList": [
                    "1063"
                ],
                "actionId": 316,
                "GPIEDGOMCGL": 4040,
                "KCEHDJLKIAL": false,
                "KCOLHJBDILK": true,
                "AOFEDPBOOIE": ""
            }
        ],
        [
            {
                "$type": "BCJBNCJOPCE",
                "type": "CAMERA_MOVE",
                "duration": 0.5,
                "actionId": 317,
                "AKFGKKEOEFA": {
                    "x": -385.9159851074219,
                    "y": 246.16600036621094,
                    "z": 2656.22509765625
                },
                "NGEBMAEFFGJ": {
                    "x": -385.5,
                    "y": 246.16299438476562,
                    "z": 2655.31591796875
                },
                "LIGHLBKBDEI": 20.0,
                "GFIOJGJJGCN": 6,
                "ABAEPHOGOFF": "EaseInOutCubic",
                "KFDBMBFFANN": {},
                "IEJBKHHEJEN": true,
                "CEDHIBLHMKP": false,
                "KIPMIDIKECP": "",
                "ANFHNPOCMNI": true,
                "BDLGHOJPJHD": "",
                "LCOJGFEOLCK": "",
                "BBBGAEDCJEL": ""
            },
            {
                "$type": "KCBOGFFHPBD",
                "type": "BODY_LANG",
                "aliasList": [
                    "1063"
                ],
                "actionId": 331,
                "AHGOBCDHCMC": true,
                "KCEHDJLKIAL": false,
                "KCOLHJBDILK": true,
                "AOFEDPBOOIE": ""
            },
            {
                "$type": "DNAEECJNBFB",
                "type": "EMO_SYNC",
                "aliasList": [
                    "1063"
                ],
                "actionId": 484,
                "EOGJDJKPPGE": "",
                "IHCBGPABDLE": "Cs_Emo_Avatar_Common/Cs_Emo_Avatar_Normal01",
                "CIKPDMODFPL": "Cs_Emo_Avatar_Common/Cs_Emo_Avatar_Normal01_B",
                "HDIAHFFHNGE": "",
                "BOAAGJEEFDD": "",
                "PFDPJKHPADE": "",
                "MJAONEKDECJ": [
                    9445916536337636767,
                    14128686126614747219,
                    10779105391569104182,
                    11659242061757756269
                ],
                "DAALMFGCAOO": [
                    12958401574658666588,
                    15474241282904027449,
                    9323653209111416134,
                    8508374650737503979
                ]
            },
            {
                "$type": "IBPNIIGAIPF",
                "type": "LOOK_AT",
                "aliasList": [
                    "1063"
                ],
                "actionId": 640,
                "GGIENKFBOGL": true,
                "NDOMJCOFKDJ": 0.5,
                "KIPMIDIKECP": "1050",
                "FGPHOPBEJDE": true,
                "HJJAFGPMJNJ": "",
                "AOFBAGFCGPJ": ""
            },
            {
                "$type": "CCEEIGNAILH",
                "type": "DIALOG",
                "aliasList": [
                    "1050"
                ],
                "actionId": 123,
                "KICBIOMGHIN": 401001309,
                "PNCCODDABKI": 0.5
            },
            {
                "$type": "DNAEECJNBFB",
                "type": "EMO_SYNC",
                "aliasList": [
                    "1050"
                ],
                "actionId": 199,
                "EOGJDJKPPGE": "Cs_Emo_Avatar_Simple_Common_Set/Cs_Emo_Avatar_Talk/Cs_Emo_Avatar_Event/Cs_Emo_AkaFes/Cs_Emo_401001309",
                "IHCBGPABDLE": "",
                "CIKPDMODFPL": "",
                "HDIAHFFHNGE": "",
                "BOAAGJEEFDD": "",
                "PFDPJKHPADE": "",
                "DALINBJAHOC": [
                    5961038816494200823,
                    14531258867834098977,
                    6214115713365671929,
                    16999548906423801194
                ]
            },
            {
                "$type": "KCBOGFFHPBD",
                "type": "BODY_LANG",
                "aliasList": [
                    "1050"
                ],
                "actionId": 320,
                "GPIEDGOMCGL": 1190,
                "KCEHDJLKIAL": false,
                "KCOLHJBDILK": true,
                "AOFEDPBOOIE": ""
            },
            {
                "$type": "OMPHNKNPPJO",
                "type": "LOOK_AT_EYECTRL",
                "delayTime": 1.1829999685287476,
                "aliasList": [
                    "1050"
                ],
                "actionId": 321,
                "useTargetPos": false,
                "OMHMNNDGHFL": {
                    "x": 2.0,
                    "z": 1.0
                },
                "AMNIBCAICEP": {
                    "x": 2.0,
                    "z": 1.0
                },
                "MHBPPJNDKJC": 0.019999999552965164,
                "KIPMIDIKECP": "",
                "JJEGGHOEIPD": "Face"
            },
            {
                "$type": "OMPHNKNPPJO",
                "type": "LOOK_AT_EYECTRL",
                "delayTime": 2.8570001125335693,
                "aliasList": [
                    "1050"
                ],
                "actionId": 322,
                "useTargetPos": false,
                "OMHMNNDGHFL": {
                    "x": -1.0,
                    "z": 1.5
                },
                "AMNIBCAICEP": {
                    "x": -1.0,
                    "z": 1.5
                },
                "MHBPPJNDKJC": 0.019999999552965164,
                "KIPMIDIKECP": "",
                "JJEGGHOEIPD": "Face"
            }
        ],
        [
            {
                "$type": "BCJBNCJOPCE",
                "type": "CAMERA_MOVE",
                "duration": 0.5,
                "actionId": 325,
                "AKFGKKEOEFA": {
                    "x": -385.9159851074219,
                    "y": 246.16600036621094,
                    "z": 2656.22509765625
                },
                "NGEBMAEFFGJ": {
                    "x": -385.5,
                    "y": 246.16299438476562,
                    "z": 2655.31591796875
                },
                "LIGHLBKBDEI": 20.0,
                "GFIOJGJJGCN": 6,
                "ABAEPHOGOFF": "EaseInOutCubic",
                "KFDBMBFFANN": {},
                "IEJBKHHEJEN": true,
                "CEDHIBLHMKP": false,
                "KIPMIDIKECP": "",
                "ANFHNPOCMNI": true,
                "BDLGHOJPJHD": "",
                "LCOJGFEOLCK": "",
                "BBBGAEDCJEL": ""
            },
            {
                "$type": "OMPHNKNPPJO",
                "type": "LOOK_AT_EYECTRL",
                "aliasList": [
                    "1050"
                ],
                "actionId": 323,
                "useTargetPos": false,
                "OMHMNNDGHFL": {
                    "x": -4.0
                },
                "AMNIBCAICEP": {
                    "x": -4.0
                },
                "MHBPPJNDKJC": 0.20000000298023224,
                "KIPMIDIKECP": "",
                "JJEGGHOEIPD": "Face"
            },
            {
                "$type": "KCBOGFFHPBD",
                "type": "BODY_LANG",
                "aliasList": [
                    "1050"
                ],
                "actionId": 324,
                "AHGOBCDHCMC": true,
                "KCEHDJLKIAL": false,
                "KCOLHJBDILK": true,
                "AOFEDPBOOIE": ""
            },
            {
                "$type": "IBPNIIGAIPF",
                "type": "LOOK_AT",
                "aliasList": [
                    "1050"
                ],
                "actionId": 330,
                "GGIENKFBOGL": true,
                "useTargetPos": true,
                "GCOONJBHNIM": true,
                "JHNJNNOPJKG": {
                    "x": -386.4100036621094,
                    "y": 246.2259979248047,
                    "z": 2656.2119140625
                },
                "NDOMJCOFKDJ": 0.5,
                "KIPMIDIKECP": "",
                "AHLPNEGAKGG": "NONE",
                "FGPHOPBEJDE": true,
                "HJJAFGPMJNJ": "",
                "AOFBAGFCGPJ": ""
            },
            {
                "$type": "DNAEECJNBFB",
                "type": "EMO_SYNC",
                "aliasList": [
                    "1050"
                ],
                "actionId": 485,
                "EOGJDJKPPGE": "",
                "IHCBGPABDLE": "Cs_Emo_Avatar_Common/Cs_Emo_Avatar_Normal01",
                "CIKPDMODFPL": "Cs_Emo_Avatar_Common/Cs_Emo_Avatar_Normal01_B",
                "HDIAHFFHNGE": "",
                "BOAAGJEEFDD": "",
                "PFDPJKHPADE": "",
                "MJAONEKDECJ": [
                    9445916536337636767,
                    14128686126614747219,
                    10779105391569104182,
                    11659242061757756269
                ],
                "DAALMFGCAOO": [
                    12958401574658666588,
                    15474241282904027449,
                    9323653209111416134,
                    8508374650737503979
                ]
            },
            {
                "$type": "CCEEIGNAILH",
                "type": "DIALOG",
                "aliasList": [
                    "1058"
                ],
                "actionId": 125,
                "KICBIOMGHIN": 401001310,
                "PNCCODDABKI": 3.0
            },
            {
                "$type": "DNAEECJNBFB",
                "type": "EMO_SYNC",
                "aliasList": [
                    "1058"
                ],
                "actionId": 200,
                "EOGJDJKPPGE": "Cs_Emo_Avatar_Simple_Common_Set/Cs_Emo_Avatar_Talk/Cs_Emo_Avatar_Event/Cs_Emo_AkaFes/Cs_Emo_401001310",
                "IHCBGPABDLE": "",
                "CIKPDMODFPL": "",
                "HDIAHFFHNGE": "",
                "BOAAGJEEFDD": "",
                "PFDPJKHPADE": "",
                "DALINBJAHOC": [
                    13433363566838580357,
                    8272385097942150406,
                    3004112041822282443,
                    5075125980782100626
                ]
            },
            {
                "$type": "IBPNIIGAIPF",
                "type": "LOOK_AT",
                "aliasList": [
                    "1058"
                ],
                "actionId": 327,
                "GGIENKFBOGL": true,
                "useTargetPos": true,
                "GCOONJBHNIM": true,
                "JHNJNNOPJKG": {
                    "x": -385.6990051269531,
                    "y": 246.0500030517578,
                    "z": 2656.23388671875
                },
                "NDOMJCOFKDJ": 0.5,
                "KIPMIDIKECP": "",
                "AHLPNEGAKGG": "NONE",
                "FGPHOPBEJDE": true,
                "HJJAFGPMJNJ": "",
                "AOFBAGFCGPJ": ""
            },
            {
                "$type": "KCBOGFFHPBD",
                "type": "BODY_LANG",
                "aliasList": [
                    "1058"
                ],
                "actionId": 328,
                "AHGOBCDHCMC": true,
                "KCEHDJLKIAL": false,
                "KCOLHJBDILK": true,
                "AOFEDPBOOIE": ""
            },
            {
                "$type": "OMPHNKNPPJO",
                "type": "LOOK_AT_EYECTRL",
                "aliasList": [
                    "1058"
                ],
                "actionId": 333,
                "useTargetPos": false,
                "OMHMNNDGHFL": {
                    "x": 3.0
                },
                "AMNIBCAICEP": {
                    "x": 3.0
                },
                "MHBPPJNDKJC": 0.20000000298023224,
                "KIPMIDIKECP": "",
                "JJEGGHOEIPD": "Face"
            },
            {
                "$type": "KCBOGFFHPBD",
                "type": "BODY_LANG",
                "aliasList": [
                    "1064"
                ],
                "actionId": 341,
                "AHGOBCDHCMC": true,
                "KCEHDJLKIAL": false,
                "KCOLHJBDILK": true,
                "AOFEDPBOOIE": ""
            },
            {
                "$type": "MoleMole.Config.ConfigTeleportToAction",
                "type": "TELEPORT_TO",
                "aliasList": [
                    "1067"
                ],
                "actionId": 346,
                "position": {
                    "x": -387.8349914550781,
                    "y": 244.7790069580078,
                    "z": 2656.325927734375
                },
                "forward": {
                    "x": 1.0609999895095825,
                    "z": 0.875
                },
                "openLongDisTeleport": true,
                "posBindMovingTargetKey": "",
                "forwardBindMovingTargetKey": ""
            },
            {
                "$type": "BCJBNCJOPCE",
                "type": "CAMERA_MOVE",
                "delayTime": 0.10000000149011612,
                "duration": 1.1649999618530273,
                "actionId": 326,
                "AKFGKKEOEFA": {
                    "x": -386.9129943847656,
                    "y": 246.14500427246094,
                    "z": 2657.00390625
                },
                "NGEBMAEFFGJ": {
                    "x": -386.38299560546875,
                    "y": 246.14199829101562,
                    "z": 2656.156005859375
                },
                "LIGHLBKBDEI": 20.0,
                "ABAEPHOGOFF": "EaseOutQuint",
                "KFDBMBFFANN": {},
                "IEJBKHHEJEN": true,
                "CEDHIBLHMKP": false,
                "KIPMIDIKECP": "",
                "ANFHNPOCMNI": true,
                "BDLGHOJPJHD": "",
                "LCOJGFEOLCK": "",
                "BBBGAEDCJEL": ""
            },
            {
                "$type": "MoleMole.Config.ConfigCameraDOFAction",
                "type": "CAMERA_DOF",
                "delayTime": 0.1809999942779541,
                "actionId": 329,
                "enabled": true,
                "focusDistance": 2.815000057220459,
                "focusRange": 0.20000000298023224,
                "nearFocalDistance": 0.6539999842643738,
                "nearFocalTransDistance": 1.0,
                "dofBlurAmount": 1.0,
                "quality": 3
            },
            {
                "$type": "KCBOGFFHPBD",
                "type": "BODY_LANG",
                "delayTime": 0.3190000057220459,
                "aliasList": [
                    "1058"
                ],
                "actionId": 334,
                "GPIEDGOMCGL": 1171,
                "KCEHDJLKIAL": false,
                "KCOLHJBDILK": true,
                "AOFEDPBOOIE": ""
            },
            {
                "$type": "KCBOGFFHPBD",
                "type": "BODY_LANG",
                "delayTime": 3.50600004196167,
                "aliasList": [
                    "1058"
                ],
                "actionId": 335,
                "AHGOBCDHCMC": true,
                "KCEHDJLKIAL": false,
                "KCOLHJBDILK": true,
                "AOFEDPBOOIE": ""
            }
        ],
        [
            {
                "$type": "BCJBNCJOPCE",
                "type": "CAMERA_MOVE",
                "duration": 0.5,
                "actionId": 337,
                "AKFGKKEOEFA": {
                    "x": -388.42498779296875,
                    "y": 246.20899963378906,
                    "z": 2655.548095703125
                },
                "NGEBMAEFFGJ": {
                    "x": -388.2149963378906,
                    "y": 246.28700256347656,
                    "z": 2656.52294921875
                },
                "LIGHLBKBDEI": 20.0,
                "GFIOJGJJGCN": 6,
                "ABAEPHOGOFF": "EaseInOutCubic",
                "KFDBMBFFANN": {},
                "IEJBKHHEJEN": true,
                "CEDHIBLHMKP": false,
                "KIPMIDIKECP": "",
                "ANFHNPOCMNI": true,
                "BDLGHOJPJHD": "",
                "LCOJGFEOLCK": "",
                "BBBGAEDCJEL": ""
            },
            {
                "$type": "CNBNGFNKLGP",
                "type": "STEER_TO",
                "duration": 1.0,
                "aliasList": [
                    "1064"
                ],
                "actionId": 352,
                "DEMFHGAIELL": "ABSOLUTE",
                "KDKLEJFHDJG": {
                    "x": -388.02398681640625,
                    "y": 246.33900451660156,
                    "z": 2648.175048828125
                },
                "BBNLLCHBKAI": true,
                "COJBPJMLIFM": true,
                "NLIKMFJCLBP": true,
                "KIPMIDIKECP": "",
                "IDIIDHLNENJ": true,
                "FDLMFGAMGJK": true,
                "AOFBAGFCGPJ": ""
            },
            {
                "$type": "IBPNIIGAIPF",
                "type": "LOOK_AT",
                "aliasList": [
                    "1064"
                ],
                "actionId": 343,
                "GGIENKFBOGL": true,
                "useTargetPos": true,
                "GCOONJBHNIM": true,
                "JHNJNNOPJKG": {
                    "x": -387.6990051269531,
                    "y": 246.38499450683594,
                    "z": 2655.971923828125
                },
                "NDOMJCOFKDJ": 0.5,
                "KIPMIDIKECP": "1058",
                "AHLPNEGAKGG": "NONE",
                "FGPHOPBEJDE": true,
                "HJJAFGPMJNJ": "",
                "AOFBAGFCGPJ": ""
            },
            {
                "$type": "KCBOGFFHPBD",
                "type": "BODY_LANG",
                "aliasList": [
                    "1064"
                ],
                "actionId": 342,
                "KCEHDJLKIAL": false,
                "KCOLHJBDILK": true,
                "AOFEDPBOOIE": ""
            },
            {
                "$type": "MoleMole.Config.ConfigTeleportToAction",
                "type": "TELEPORT_TO",
                "aliasList": [
                    "1064"
                ],
                "actionId": 340,
                "position": {
                    "x": -388.1579895019531,
                    "y": 244.7790069580078,
                    "z": 2657.302001953125
                },
                "forward": {
                    "x": 0.035999998450279236,
                    "z": -1.0670000314712524
                },
                "openLongDisTeleport": true,
                "posBindMovingTargetKey": "",
                "forwardBindMovingTargetKey": ""
            },
            {
                "$type": "DNAEECJNBFB",
                "type": "EMO_SYNC",
                "aliasList": [
                    "1064"
                ],
                "actionId": 202,
                "EOGJDJKPPGE": "Cs_Emo_Avatar_Simple_Common_Set/Cs_Emo_Avatar_Talk/Cs_Emo_Avatar_Event/Cs_Emo_AkaFes/Cs_Emo_401001311",
                "IHCBGPABDLE": "",
                "CIKPDMODFPL": "",
                "HDIAHFFHNGE": "",
                "BOAAGJEEFDD": "",
                "PFDPJKHPADE": "",
                "DALINBJAHOC": [
                    14045977578615661716,
                    15574986362099124534,
                    17722331903188648709,
                    10310236461515822806
                ]
            },
            {
                "$type": "CCEEIGNAILH",
                "type": "DIALOG",
                "aliasList": [
                    "1064"
                ],
                "actionId": 127,
                "KICBIOMGHIN": 401001311,
                "PNCCODDABKI": 2.5
            },
            {
                "$type": "KCBOGFFHPBD",
                "type": "BODY_LANG",
                "aliasList": [
                    "1067"
                ],
                "actionId": 339,
                "AHGOBCDHCMC": true,
                "KCEHDJLKIAL": false,
                "KCOLHJBDILK": true,
                "AOFEDPBOOIE": ""
            },
            {
                "$type": "IBPNIIGAIPF",
                "type": "LOOK_AT",
                "aliasList": [
                    "1058"
                ],
                "actionId": 349,
                "NDOMJCOFKDJ": 0.5,
                "KIPMIDIKECP": "",
                "FGPHOPBEJDE": true,
                "HJJAFGPMJNJ": "",
                "AOFBAGFCGPJ": ""
            },
            {
                "$type": "MoleMole.Config.ConfigTeleportToAction",
                "type": "TELEPORT_TO",
                "aliasList": [
                    "1058"
                ],
                "actionId": 347,
                "position": {
                    "x": -386.5660095214844,
                    "y": 244.7790069580078,
                    "z": 2656.06494140625
                },
                "forward": {
                    "x": -0.6460000276565552,
                    "z": -0.7009999752044678
                },
                "openLongDisTeleport": true,
                "posBindMovingTargetKey": "",
                "forwardBindMovingTargetKey": ""
            },
            {
                "$type": "KCBOGFFHPBD",
                "type": "BODY_LANG",
                "aliasList": [
                    "1058"
                ],
                "actionId": 336,
                "AHGOBCDHCMC": true,
                "KCEHDJLKIAL": false,
                "KCOLHJBDILK": true,
                "AOFEDPBOOIE": ""
            },
            {
                "$type": "MoleMole.Config.ConfigCameraDOFAction",
                "type": "CAMERA_DOF",
                "actionId": 338,
                "focusDistance": 5.0,
                "focusRange": 10.0,
                "nearFocalDistance": 1.0,
                "nearFocalTransDistance": 1.0,
                "dofBlurAmount": 1.0,
                "quality": 3
            },
            {
                "$type": "MoleMole.Config.ConfigMoveToAction",
                "type": "MOVE_TO",
                "delayTime": 0.16099999845027924,
                "aliasList": [
                    "1058"
                ],
                "actionId": 348,
                "moveType": "WALK",
                "routeList": [
                    {
                        "x": -387.9670104980469,
                        "y": 244.7779998779297,
                        "z": 2655.22998046875
                    }
                ],
                "exactlyMove": true,
                "closeNavMesh": true,
                "directMoveSpeed": 8.0,
                "openSetPos": true,
                "bindMovingTargetKey": ""
            },
            {
                "$type": "BCJBNCJOPCE",
                "type": "CAMERA_MOVE",
                "delayTime": 0.7829999923706055,
                "duration": 0.7200000286102295,
                "actionId": 351,
                "AKFGKKEOEFA": {
                    "x": -388.5010070800781,
                    "y": 245.8820037841797,
                    "z": 2654.18701171875
                },
                "NGEBMAEFFGJ": {
                    "x": -388.239013671875,
                    "y": 245.968994140625,
                    "z": 2655.14794921875
                },
                "LIGHLBKBDEI": 20.0,
                "ABAEPHOGOFF": "EaseInOutQuart",
                "KFDBMBFFANN": {},
                "IEJBKHHEJEN": true,
                "CEDHIBLHMKP": false,
                "KIPMIDIKECP": "",
                "ANFHNPOCMNI": true,
                "BDLGHOJPJHD": "",
                "LCOJGFEOLCK": "",
                "BBBGAEDCJEL": ""
            },
            {
                "$type": "IBPNIIGAIPF",
                "type": "LOOK_AT",
                "delayTime": 0.9800000190734863,
                "aliasList": [
                    "1064"
                ],
                "actionId": 365,
                "GGIENKFBOGL": true,
                "NDOMJCOFKDJ": 0.5,
                "KIPMIDIKECP": "1058",
                "FGPHOPBEJDE": true,
                "HJJAFGPMJNJ": "",
                "AOFBAGFCGPJ": ""
            },
            {
                "$type": "KCBOGFFHPBD",
                "type": "BODY_LANG",
                "delayTime": 1.0110000371932983,
                "aliasList": [
                    "1064"
                ],
                "actionId": 344,
                "GPIEDGOMCGL": 1060,
                "KCEHDJLKIAL": false,
                "KCOLHJBDILK": true,
                "AOFEDPBOOIE": ""
            },
            {
                "$type": "IBPNIIGAIPF",
                "type": "LOOK_AT",
                "delayTime": 2.240000009536743,
                "aliasList": [
                    "1058"
                ],
                "actionId": 356,
                "GGIENKFBOGL": true,
                "useTargetPos": true,
                "GCOONJBHNIM": true,
                "JHNJNNOPJKG": {
                    "x": -388.47100830078125,
                    "y": 245.95599365234375,
                    "z": 2655.544921875
                },
                "NDOMJCOFKDJ": 0.5,
                "KIPMIDIKECP": "",
                "AHLPNEGAKGG": "NONE",
                "FGPHOPBEJDE": true,
                "HJJAFGPMJNJ": "",
                "AOFBAGFCGPJ": ""
            },
            {
                "$type": "OMPHNKNPPJO",
                "type": "LOOK_AT_EYECTRL",
                "delayTime": 2.255000114440918,
                "aliasList": [
                    "1058"
                ],
                "actionId": 357,
                "useTargetPos": false,
                "OMHMNNDGHFL": {
                    "x": 6.0
                },
                "AMNIBCAICEP": {
                    "x": 6.0
                },
                "MHBPPJNDKJC": 0.20000000298023224,
                "KIPMIDIKECP": "",
                "JJEGGHOEIPD": "Face"
            }
        ],
        [
            {
                "$type": "BCJBNCJOPCE",
                "type": "CAMERA_MOVE",
                "duration": 0.5,
                "actionId": 362,
                "AKFGKKEOEFA": {
                    "x": -387.70001220703125,
                    "y": 245.8780059814453,
                    "z": 2656.488037109375
                },
                "NGEBMAEFFGJ": {
                    "x": -387.95599365234375,
                    "y": 246.08900451660156,
                    "z": 2655.544921875
                },
                "LIGHLBKBDEI": 20.0,
                "GFIOJGJJGCN": 6,
                "ABAEPHOGOFF": "EaseInOutCubic",
                "KFDBMBFFANN": {},
                "IEJBKHHEJEN": true,
                "CEDHIBLHMKP": false,
                "KIPMIDIKECP": "",
                "ANFHNPOCMNI": true,
                "BDLGHOJPJHD": "",
                "LCOJGFEOLCK": "",
                "BBBGAEDCJEL": ""
            },
            {
                "$type": "CCEEIGNAILH",
                "type": "DIALOG",
                "aliasList": [
                    "1058"
                ],
                "actionId": 129,
                "KICBIOMGHIN": 401001312,
                "PNCCODDABKI": 0.5
            },
            {
                "$type": "DNAEECJNBFB",
                "type": "EMO_SYNC",
                "aliasList": [
                    "1058"
                ],
                "actionId": 201,
                "EOGJDJKPPGE": "Cs_Emo_Avatar_Simple_Common_Set/Cs_Emo_Avatar_Talk/Cs_Emo_Avatar_Event/Cs_Emo_AkaFes/Cs_Emo_401001312",
                "IHCBGPABDLE": "",
                "CIKPDMODFPL": "",
                "HDIAHFFHNGE": "",
                "BOAAGJEEFDD": "",
                "PFDPJKHPADE": "",
                "DALINBJAHOC": [
                    3278997118787727658,
                    16242257397441470019,
                    3671043207062574569,
                    399828739211884384
                ]
            },
            {
                "$type": "MoleMole.Config.ConfigTeleportToAction",
                "type": "TELEPORT_TO",
                "aliasList": [
                    "1058"
                ],
                "actionId": 358,
                "position": {
                    "x": -387.9670104980469,
                    "y": 244.7779998779297,
                    "z": 2655.22998046875
                },
                "forward": {
                    "x": -0.8600000143051147,
                    "z": -0.5099999904632568
                },
                "openLongDisTeleport": true,
                "posBindMovingTargetKey": "",
                "forwardBindMovingTargetKey": ""
            },
            {
                "$type": "OMPHNKNPPJO",
                "type": "LOOK_AT_EYECTRL",
                "aliasList": [
                    "1058"
                ],
                "actionId": 359,
                "useTargetPos": false,
                "OMHMNNDGHFL": {
                    "x": 6.0
                },
                "AMNIBCAICEP": {
                    "x": 6.0
                },
                "MHBPPJNDKJC": 0.20000000298023224,
                "KIPMIDIKECP": "",
                "JJEGGHOEIPD": "Face"
            },
            {
                "$type": "IBPNIIGAIPF",
                "type": "LOOK_AT",
                "aliasList": [
                    "1058"
                ],
                "actionId": 361,
                "GGIENKFBOGL": true,
                "useTargetPos": true,
                "GCOONJBHNIM": true,
                "JHNJNNOPJKG": {
                    "x": -388.47100830078125,
                    "y": 245.95599365234375,
                    "z": 2655.544921875
                },
                "NDOMJCOFKDJ": -1.0,
                "KIPMIDIKECP": "",
                "AHLPNEGAKGG": "NONE",
                "FGPHOPBEJDE": true,
                "HJJAFGPMJNJ": "",
                "AOFBAGFCGPJ": ""
            },
            {
                "$type": "MoleMole.Config.ConfigTeleportToAction",
                "type": "TELEPORT_TO",
                "aliasList": [
                    "1064"
                ],
                "actionId": 360,
                "position": {
                    "x": -388.1579895019531,
                    "y": 244.7790069580078,
                    "z": 2657.302001953125
                },
                "forward": {
                    "x": 0.42899999022483826,
                    "z": -0.902999997138977
                },
                "openLongDisTeleport": true,
                "posBindMovingTargetKey": "",
                "forwardBindMovingTargetKey": ""
            },
            {
                "$type": "KCBOGFFHPBD",
                "type": "BODY_LANG",
                "aliasList": [
                    "1064"
                ],
                "actionId": 379,
                "AHGOBCDHCMC": true,
                "KCEHDJLKIAL": false,
                "KCOLHJBDILK": true,
                "AOFEDPBOOIE": ""
            },
            {
                "$type": "MoleMole.Config.ConfigVisibleInterAction",
                "type": "VISIBLE",
                "aliasList": [
                    "1067"
                ],
                "actionId": 363,
                "extraParam": ""
            },
            {
                "$type": "MoleMole.Config.ConfigTeleportToAction",
                "type": "TELEPORT_TO",
                "aliasList": [
                    "1067"
                ],
                "actionId": 371,
                "position": {
                    "x": -387.8349914550781,
                    "y": 244.7790069580078,
                    "z": 2656.325927734375
                },
                "forward": {
                    "x": 0.9169999957084656,
                    "z": 0.4000000059604645
                },
                "openLongDisTeleport": true,
                "posBindMovingTargetKey": "",
                "forwardBindMovingTargetKey": ""
            },
            {
                "$type": "IBPNIIGAIPF",
                "type": "LOOK_AT",
                "delayTime": 2.1630001068115234,
                "aliasList": [
                    "1058"
                ],
                "actionId": 367,
                "GGIENKFBOGL": true,
                "useTargetPos": true,
                "GCOONJBHNIM": true,
                "JHNJNNOPJKG": {
                    "x": -392.0950012207031,
                    "y": 245.18800354003906,
                    "z": 2651.39208984375
                },
                "NDOMJCOFKDJ": 0.25,
                "KIPMIDIKECP": "",
                "AHLPNEGAKGG": "NONE",
                "FGPHOPBEJDE": true,
                "HJJAFGPMJNJ": "",
                "AOFBAGFCGPJ": ""
            },
            {
                "$type": "BCJBNCJOPCE",
                "type": "CAMERA_MOVE",
                "delayTime": 2.696000099182129,
                "duration": 5.0,
                "actionId": 366,
                "AKFGKKEOEFA": {
                    "x": -387.70001220703125,
                    "y": 245.8780059814453,
                    "z": 2656.488037109375
                },
                "NGEBMAEFFGJ": {
                    "x": -388.02301025390625,
                    "y": 246.0279998779297,
                    "z": 2655.552978515625
                },
                "LIGHLBKBDEI": 20.0,
                "ABAEPHOGOFF": "EaseOutQuad",
                "KFDBMBFFANN": {},
                "IEJBKHHEJEN": true,
                "GDHBGCNKHDE": 359.1780090332031,
                "CEDHIBLHMKP": false,
                "KIPMIDIKECP": "",
                "ANFHNPOCMNI": true,
                "BDLGHOJPJHD": "",
                "LCOJGFEOLCK": "",
                "BBBGAEDCJEL": ""
            },
            {
                "$type": "MoleMole.Config.ConfigMoveToAction",
                "type": "MOVE_TO",
                "delayTime": 2.7739999294281006,
                "aliasList": [
                    "1058"
                ],
                "actionId": 368,
                "moveType": "WALK",
                "routeList": [
                    {
                        "x": -391.1440124511719,
                        "y": 243.5709991455078,
                        "z": 2652.81201171875
                    }
                ],
                "exactlyMove": true,
                "closeNavMesh": true,
                "openSetPos": true,
                "bindMovingTargetKey": ""
            },
            {
                "$type": "MoleMole.Config.ConfigSetAnimatorSpeedAction",
                "type": "SET_ANIMATOR_SPEED",
                "delayTime": 2.7739999294281006,
                "aliasList": [
                    "1058"
                ],
                "actionId": 645,
                "speedRatio": 0.699999988079071,
                "blendType": "EaseInOutQuad"
            }
        ],
        [
            {
                "$type": "BCJBNCJOPCE",
                "type": "CAMERA_MOVE",
                "duration": 0.5,
                "actionId": 370,
                "AKFGKKEOEFA": {
                    "x": -386.66400146484375,
                    "y": 245.8520050048828,
                    "z": 2655.465087890625
                },
                "NGEBMAEFFGJ": {
                    "x": -387.36700439453125,
                    "y": 246.0189971923828,
                    "z": 2656.156982421875
                },
                "LIGHLBKBDEI": 20.0,
                "GFIOJGJJGCN": 6,
                "ABAEPHOGOFF": "EaseInOutCubic",
                "KFDBMBFFANN": {},
                "IEJBKHHEJEN": true,
                "CEDHIBLHMKP": false,
                "KIPMIDIKECP": "",
                "ANFHNPOCMNI": true,
                "BDLGHOJPJHD": "",
                "LCOJGFEOLCK": "",
                "BBBGAEDCJEL": ""
            },
            {
                "$type": "IBPNIIGAIPF",
                "type": "LOOK_AT",
                "aliasList": [
                    "1067"
                ],
                "actionId": 375,
                "GGIENKFBOGL": true,
                "useTargetPos": true,
                "GCOONJBHNIM": true,
                "JHNJNNOPJKG": {
                    "x": -387.54901123046875,
                    "y": 246.12600708007812,
                    "z": 2656.0419921875
                },
                "NDOMJCOFKDJ": 0.5,
                "KIPMIDIKECP": "",
                "AHLPNEGAKGG": "NONE",
                "FGPHOPBEJDE": true,
                "HJJAFGPMJNJ": "",
                "AOFBAGFCGPJ": ""
            },
            {
                "$type": "CNBNGFNKLGP",
                "type": "STEER_TO",
                "duration": 1.0,
                "aliasList": [
                    "1067"
                ],
                "actionId": 374,
                "DEMFHGAIELL": "ABSOLUTE",
                "KDKLEJFHDJG": {
                    "x": -386.18701171875,
                    "y": 246.39300537109375,
                    "z": 2654.14208984375
                },
                "BBNLLCHBKAI": true,
                "COJBPJMLIFM": true,
                "NLIKMFJCLBP": true,
                "KIPMIDIKECP": "",
                "IDIIDHLNENJ": true,
                "FDLMFGAMGJK": true,
                "AOFBAGFCGPJ": ""
            },
            {
                "$type": "MoleMole.Config.ConfigVisibleInterAction",
                "type": "VISIBLE",
                "aliasList": [
                    "1067"
                ],
                "actionId": 364,
                "isVisible": true,
                "extraParam": ""
            },
            {
                "$type": "DNAEECJNBFB",
                "type": "EMO_SYNC",
                "aliasList": [
                    "1067"
                ],
                "actionId": 204,
                "EOGJDJKPPGE": "Cs_Emo_Avatar_Simple_Common_Set/Cs_Emo_Avatar_Talk/Cs_Emo_Avatar_Event/Cs_Emo_AkaFes/Cs_Emo_401001313",
                "IHCBGPABDLE": "",
                "CIKPDMODFPL": "",
                "HDIAHFFHNGE": "",
                "BOAAGJEEFDD": "",
                "PFDPJKHPADE": "",
                "DALINBJAHOC": [
                    9363622465783137742,
                    8553512773653673291,
                    13928371933044263778,
                    6066021460499029915
                ]
            },
            {
                "$type": "CCEEIGNAILH",
                "type": "DIALOG",
                "aliasList": [
                    "1067"
                ],
                "actionId": 131,
                "KICBIOMGHIN": 401001313,
                "PNCCODDABKI": 1.3459999561309814
            },
            {
                "$type": "IBPNIIGAIPF",
                "type": "LOOK_AT",
                "aliasList": [
                    "1064"
                ],
                "actionId": 381,
                "GGIENKFBOGL": true,
                "useTargetPos": true,
                "GCOONJBHNIM": true,
                "JHNJNNOPJKG": {
                    "x": -387.55499267578125,
                    "y": 245.85299682617188,
                    "z": 2656.06201171875
                },
                "NDOMJCOFKDJ": 0.5,
                "KIPMIDIKECP": "1067",
                "AHLPNEGAKGG": "NONE",
                "FGPHOPBEJDE": true,
                "HJJAFGPMJNJ": "",
                "AOFBAGFCGPJ": ""
            },
            {
                "$type": "OMPHNKNPPJO",
                "type": "LOOK_AT_EYECTRL",
                "aliasList": [
                    "1064"
                ],
                "actionId": 388,
                "useTargetPos": false,
                "OMHMNNDGHFL": {
                    "z": 2.0
                },
                "AMNIBCAICEP": {
                    "z": 2.0
                },
                "MHBPPJNDKJC": 0.20000000298023224,
                "KIPMIDIKECP": "",
                "JJEGGHOEIPD": "Face"
            },
            {
                "$type": "IBPNIIGAIPF",
                "type": "LOOK_AT",
                "aliasList": [
                    "1058"
                ],
                "actionId": 646,
                "NDOMJCOFKDJ": 0.5,
                "KIPMIDIKECP": "",
                "FGPHOPBEJDE": true,
                "HJJAFGPMJNJ": "",
                "AOFBAGFCGPJ": ""
            },
            {
                "$type": "MoleMole.Config.ConfigVisibleInterAction",
                "type": "VISIBLE",
                "aliasList": [
                    "1058"
                ],
                "actionId": 369,
                "extraParam": ""
            },
            {
                "$type": "IBPNIIGAIPF",
                "type": "LOOK_AT",
                "aliasList": [
                    "1005"
                ],
                "actionId": 391,
                "GGIENKFBOGL": true,
                "useTargetPos": true,
                "GCOONJBHNIM": true,
                "JHNJNNOPJKG": {
                    "x": -388.4280090332031,
                    "y": 246.0780029296875,
                    "z": 2657.301025390625
                },
                "NDOMJCOFKDJ": 0.5,
                "KIPMIDIKECP": "1064",
                "AHLPNEGAKGG": "NONE",
                "FGPHOPBEJDE": true,
                "HJJAFGPMJNJ": "",
                "AOFBAGFCGPJ": ""
            },
            {
                "$type": "MoleMole.Config.ConfigTeleportToAction",
                "type": "TELEPORT_TO",
                "aliasList": [
                    "1005"
                ],
                "actionId": 390,
                "position": {
                    "x": -390.2149963378906,
                    "y": 244.77999877929688,
                    "z": 2659.779052734375
                },
                "forward": {
                    "x": 0.47099998593330383,
                    "z": -0.8820000290870667
                },
                "openLongDisTeleport": true,
                "posBindMovingTargetKey": "",
                "forwardBindMovingTargetKey": ""
            },
            {
                "$type": "MoleMole.Config.ConfigTeleportToAction",
                "type": "TELEPORT_TO",
                "aliasList": [
                    "AvatarNpc"
                ],
                "actionId": 392,
                "position": {
                    "x": -390.04998779296875,
                    "y": 244.77999877929688,
                    "z": 2660.550048828125
                },
                "forward": {
                    "x": 0.578000009059906,
                    "z": -0.8159999847412109
                },
                "openLongDisTeleport": true,
                "posBindMovingTargetKey": "",
                "forwardBindMovingTargetKey": ""
            },
            {
                "$type": "MoleMole.Config.ConfigTeleportToAction",
                "type": "TELEPORT_TO",
                "aliasList": [
                    "Avatar"
                ],
                "actionId": 651,
                "position": {
                    "x": -390.04998779296875,
                    "y": 244.77999877929688,
                    "z": 2660.550048828125
                },
                "forward": {
                    "x": 0.578000009059906,
                    "z": -0.8159999847412109
                },
                "openLongDisTeleport": true,
                "posBindMovingTargetKey": "",
                "forwardBindMovingTargetKey": ""
            },
            {
                "$type": "MoleMole.Config.ConfigSetAnimatorSpeedAction",
                "type": "SET_ANIMATOR_SPEED",
                "aliasList": [
                    "1058"
                ],
                "actionId": 647,
                "speedRatio": 1.0,
                "blendType": "EaseInOutQuad"
            },
            {
                "$type": "IBPNIIGAIPF",
                "type": "LOOK_AT",
                "delayTime": 1.0119999647140503,
                "aliasList": [
                    "1067"
                ],
                "actionId": 376,
                "GGIENKFBOGL": true,
                "useTargetPos": true,
                "GCOONJBHNIM": true,
                "JHNJNNOPJKG": {
                    "x": -387.54901123046875,
                    "y": 246.12600708007812,
                    "z": 2656.0419921875
                },
                "NDOMJCOFKDJ": 0.5,
                "KIPMIDIKECP": "",
                "AHLPNEGAKGG": "NONE",
                "FGPHOPBEJDE": true,
                "HJJAFGPMJNJ": "",
                "AOFBAGFCGPJ": ""
            },
            {
                "$type": "KCBOGFFHPBD",
                "type": "BODY_LANG",
                "delayTime": 1.7920000553131104,
                "aliasList": [
                    "1067"
                ],
                "actionId": 373,
                "GPIEDGOMCGL": 1120,
                "KCEHDJLKIAL": false,
                "KCOLHJBDILK": true,
                "AOFEDPBOOIE": ""
            },
            {
                "$type": "IBPNIIGAIPF",
                "type": "LOOK_AT",
                "delayTime": 3.803999900817871,
                "aliasList": [
                    "1067"
                ],
                "actionId": 377,
                "GGIENKFBOGL": true,
                "useTargetPos": true,
                "GCOONJBHNIM": true,
                "JHNJNNOPJKG": {
                    "x": -387.40399169921875,
                    "y": 245.96099853515625,
                    "z": 2656.27197265625
                },
                "NDOMJCOFKDJ": 0.5,
                "KIPMIDIKECP": "",
                "AHLPNEGAKGG": "NONE",
                "FGPHOPBEJDE": true,
                "HJJAFGPMJNJ": "",
                "AOFBAGFCGPJ": ""
            },
            {
                "$type": "OMPHNKNPPJO",
                "type": "LOOK_AT_EYECTRL",
                "delayTime": 4.059000015258789,
                "aliasList": [
                    "1067"
                ],
                "actionId": 385,
                "useTargetPos": false,
                "OMHMNNDGHFL": {
                    "x": -5.0
                },
                "AMNIBCAICEP": {
                    "x": -5.0
                },
                "MHBPPJNDKJC": 0.20000000298023224,
                "KIPMIDIKECP": "",
                "JJEGGHOEIPD": "Face"
            }
        ],
        [
            {
                "$type": "BCJBNCJOPCE",
                "type": "CAMERA_MOVE",
                "duration": 0.5,
                "actionId": 382,
                "AKFGKKEOEFA": {
                    "x": -386.66400146484375,
                    "y": 245.8520050048828,
                    "z": 2655.465087890625
                },
                "NGEBMAEFFGJ": {
                    "x": -387.36700439453125,
                    "y": 246.0189971923828,
                    "z": 2656.156982421875
                },
                "LIGHLBKBDEI": 20.0,
                "GFIOJGJJGCN": 6,
                "ABAEPHOGOFF": "EaseInOutCubic",
                "KFDBMBFFANN": {},
                "IEJBKHHEJEN": true,
                "CEDHIBLHMKP": false,
                "KIPMIDIKECP": "",
                "ANFHNPOCMNI": true,
                "BDLGHOJPJHD": "",
                "LCOJGFEOLCK": "",
                "BBBGAEDCJEL": ""
            },
            {
                "$type": "MoleMole.Config.ConfigVisibleInterAction",
                "type": "VISIBLE",
                "aliasList": [
                    "1063"
                ],
                "actionId": 602,
                "extraParam": ""
            },
            {
                "$type": "MoleMole.Config.ConfigVisibleInterAction",
                "type": "VISIBLE",
                "aliasList": [
                    "1050"
                ],
                "actionId": 601,
                "extraParam": ""
            },
            {
                "$type": "MoleMole.Config.ConfigVisibleInterAction",
                "type": "VISIBLE",
                "aliasList": [
                    "1058"
                ],
                "actionId": 600,
                "extraParam": ""
            },
            {
                "$type": "CCEEIGNAILH",
                "type": "DIALOG",
                "aliasList": [
                    "1064"
                ],
                "actionId": 133,
                "KICBIOMGHIN": 401001314,
                "PNCCODDABKI": 0.5
            },
            {
                "$type": "DNAEECJNBFB",
                "type": "EMO_SYNC",
                "aliasList": [
                    "1064"
                ],
                "actionId": 203,
                "EOGJDJKPPGE": "Cs_Emo_Avatar_Simple_Common_Set/Cs_Emo_Avatar_Talk/Cs_Emo_Avatar_Event/Cs_Emo_AkaFes/Cs_Emo_401001314",
                "IHCBGPABDLE": "",
                "CIKPDMODFPL": "",
                "HDIAHFFHNGE": "",
                "BOAAGJEEFDD": "",
                "PFDPJKHPADE": "",
                "DALINBJAHOC": [
                    14543986864830532902,
                    740959030198135920,
                    17175444668727120708,
                    13376287648089810170
                ]
            },
            {
                "$type": "KCBOGFFHPBD",
                "type": "BODY_LANG",
                "aliasList": [
                    "1064"
                ],
                "actionId": 383,
                "GPIEDGOMCGL": 1110,
                "KCEHDJLKIAL": false,
                "KCOLHJBDILK": true,
                "AOFEDPBOOIE": ""
            },
            {
                "$type": "MoleMole.Config.ConfigTeleportToAction",
                "type": "TELEPORT_TO",
                "aliasList": [
                    "1064"
                ],
                "actionId": 629,
                "position": {
                    "x": -388.1579895019531,
                    "y": 244.7790069580078,
                    "z": 2657.302001953125
                },
                "forward": {
                    "x": 0.42899999022483826,
                    "z": -0.902999997138977
                },
                "openLongDisTeleport": true,
                "posBindMovingTargetKey": "",
                "forwardBindMovingTargetKey": ""
            },
            {
                "$type": "OMPHNKNPPJO",
                "type": "LOOK_AT_EYECTRL",
                "aliasList": [
                    "1067"
                ],
                "actionId": 386,
                "useTargetPos": false,
                "OMHMNNDGHFL": {
                    "x": -5.0
                },
                "AMNIBCAICEP": {
                    "x": -5.0
                },
                "MHBPPJNDKJC": 0.20000000298023224,
                "KIPMIDIKECP": "",
                "JJEGGHOEIPD": "Face"
            },
            {
                "$type": "MoleMole.Config.ConfigTeleportToAction",
                "type": "TELEPORT_TO",
                "aliasList": [
                    "1067"
                ],
                "actionId": 387,
                "position": {
                    "x": -387.8349914550781,
                    "y": 244.7790069580078,
                    "z": 2656.325927734375
                },
                "forward": {
                    "x": 0.6019999980926514,
                    "z": -0.7979999780654907
                },
                "openLongDisTeleport": true,
                "posBindMovingTargetKey": "",
                "forwardBindMovingTargetKey": ""
            },
            {
                "$type": "MoleMole.Config.ConfigVisibleInterAction",
                "type": "VISIBLE",
                "delayTime": 0.6000000238418579,
                "aliasList": [
                    "Avatar"
                ],
                "actionId": 605,
                "isVisible": true,
                "extraParam": ""
            },
            {
                "$type": "MoleMole.Config.ConfigVisibleInterAction",
                "type": "VISIBLE",
                "delayTime": 0.6000000238418579,
                "aliasList": [
                    "AvatarNpc"
                ],
                "actionId": 637,
                "extraParam": ""
            },
            {
                "$type": "KCBOGFFHPBD",
                "type": "BODY_LANG",
                "delayTime": 0.7409999966621399,
                "aliasList": [
                    "1064"
                ],
                "actionId": 384,
                "AHGOBCDHCMC": true,
                "KCEHDJLKIAL": false,
                "KCOLHJBDILK": true,
                "AOFEDPBOOIE": ""
            }
        ]
    ],
    "groupId": [
        {
            "grpId": 3703383507,
            "nextGrpId": 3703383508
        },
        {
            "index": 1,
            "grpId": 3703383508,
            "nextGrpId": 3703383509
        },
        {
            "index": 2,
            "grpId": 3703383509,
            "nextGrpId": 3703383510
        },
        {
            "index": 3,
            "grpId": 3703383510,
            "nextGrpId": 3703383511
        },
        {
            "index": 4,
            "grpId": 3703383511,
            "nextGrpId": 3703383512
        },
        {
            "index": 5,
            "grpId": 3703383512,
            "nextGrpId": 3703383513
        },
        {
            "index": 6,
            "grpId": 3703383513,
            "nextGrpId": 3703383514
        },
        {
            "index": 7,
            "grpId": 3703383514,
            "nextGrpId": 3703383515
        },
        {
            "index": 8,
            "grpId": 3703383515,
            "nextGrpId": 3135739069
        }
    ],
    "freeStyleDic": {
        "1025": [],
        "1026": [],
        "1063": [
            1190,
            4040
        ],
        "1050": [
            1220,
            1190
        ],
        "1058": [
            1120,
            1171
        ],
        "1064": [
            1060,
            1110
        ],
        "1067": [
            1120
        ]
    }
}