{
    "type": "",
    "FJANPNOAAFK": "",
    "LOADEKGFFLN": [
        {
            "type": "",
            "FJANPNOAAFK": "Platform == IOS",
            "scriptedMoveToTactic": [
                "animation.compressionCacheBudget=1048576",
                "animation.aclDatabaseLRUSize=2097152"
            ],
            "LOADEKGFFLN": [
                {
                    "type": "",
                    "FJANPNOAAFK": "Device [iPadMini5Gen,iPad7Gen,iPad8Gen,iPad9Gen,iPadAir3Gen]",
                    "scriptedMoveToTactic": [
                        "textureStreaming.textureStreamingBudget.max=70"
                    ]
                }
            ]
        },
        {
            "type": "",
            "FJANPNOAAFK": "Platform == Android",
            "scriptedMoveToTactic": [
                "animation.compressionCacheBudget=1048576",
                "animation.aclDatabaseLRUSize=2097152"
            ]
        },
        {
            "type": "",
            "FJANPNOAAFK": "Platform == PS5",
            "LOADEKGFFLN": [
                {
                    "type": "",
                    "FJANPNOAAFK": "",
                    "scriptedMoveToTactic": [
                        "resource.maxAssetBundleCacheSizeMB=12000",
                        "resource.assetBundleUnloadWarnningMemoryMB=11000"
                    ]
                }
            ]
        }
    ]
}