{
    "DBHEKOGPEPB": {
        "4270473": 2113931008,
        "4274613": 3221225472,
        "4201766": 100663296,
        "4201945": 4026531840,
        "4201748": 3759112199,
        "4201934": 4262461199,
        "4262986": 16646258,
        "4201763": 234888960,
        "4201926": 234888966,
        "4203245": 2113945344,
        "4270592": 12582976,
        "4270947": 100667136,
        "4274435": 14680176,
        "4203244": 503316480,
        "4256483": 2164195328,
        "4201707": 2147686400,
        "4201734": 3221225472,
        "4201765": 1308622848,
        "4220937": 2013265920,
        "4258633": 3760177167,
        "4201725": 3237970047,
        "4201751": 4278188063,
        "4201950": 4263509775,
        "4256511": 4294967295,
        "4258634": 4261531392,
        "4201739": 1572876,
        "4203250": 4227858432,
        "4256513": 469762048,
        "4267576": 15728760,
        "4267577": 14680160,
        "4267578": 16253052,
        "4267579": 15728760,
        "4269244": 32768,
        "4208160": 16252928,
        "4208161": 3774742655,
        "4208163": 15728640,
        "4208164": 16515072,
        "4208165": 33455736,
        "4259532": 16253048,
        "4262995": 15728640,
        "4267580": 2147483648,
        "4267581": 4043243520,
        "4258637": 4261412864,
        "4259545": 4026531840,
        "4259567": 2113929216,
        "4267004": 1073741824,
        "4267409": 234881024,
        "4267411": 4261412864,
        "4269245": 4294966399,
        "4271204": 4294967040,
        "4262998": 2147483648,
        "4263011": 2113929216,
        "4267592": 268435448,
        "4271207": 4261412864,
        "4271238": 4261412864,
        "4274462": 4261412864,
        "4263336": 4160749568,
        "4267593": 1073741823,
        "4274467": 4261412864,
        "4274468": 4261412864
    }
}