{
    "DBHEKOGPEPB": {
        "92388916": 4294443008,
        "92388928": 2147483648,
        "92389076": 1072693248,
        "92389332": 1879048192,
        "92389336": 2147483648,
        "92389345": 2147483648,
        "92389346": 2147483648,
        "92389348": 2147483648,
        "92389349": 2147483648,
        "92389350": 1073487870,
        "92389360": 3758096384,
        "92389364": 2147450879,
        "92389365": 1073684479,
        "92389563": 2146435072,
        "92389597": 805306368,
        "92389605": 2147483648,
        "92389617": 2147483648,
        "92389625": 3221225472,
        "92389629": 2147483648,
        "92389639": 2147483648,
        "92389640": 4294443008,
        "92389641": 2147483648,
        "92389642": 2113929216,
        "92389643": 4294508480,
        "92389644": 4294705152,
        "92389645": 4294443008,
        "92389678": 4294967295,
        "92389691": 1627374591,
        "92389701": 1879048192,
        "92389702": 2147483648,
        "92389768": 4294705152,
        "92389796": 2147483648,
        "92389798": 3221200895,
        "92389803": 2147483648,
        "92389804": 2147383296,
        "92389829": 2415394816,
        "92389858": 2147483648,
        "92389866": 2147450879,
        "92389909": 4026531840,
        "92389913": 537083903,
        "92389920": 2147352576,
        "92389928": 2146435072,
        "92389946": 2147450879,
        "92390026": 2147483648,
        "92390082": 134217728,
        "92390085": 536346624,
        "92390089": 2147483648,
        "92390108": 503319552,
        "92392131": 1878227970,
        "92392133": 131086,
        "92392138": 2147483648,
        "92392145": 1040187392,
        "92392150": 1,
        "92392230": 2146516867,
        "92392231": 4026531840,
        "92392240": 4228282368,
        "92392242": 2214068224,
        "92392257": 2147483648,
        "92392264": 2147483648,
        "92394761": 4294967295,
        "92394762": 2146435072,
        "92394763": 2147483648,
        "92394765": 2147500032,
        "92411828": 4261412864,
        "92398421": 4026531840,
        "92394931": 2147483648,
        "92394932": 2147483648,
        "92394971": 2147483648,
        "92394972": 2147483648,
        "92394973": 2147483648,
        "92394974": 2147483648,
        "92394977": 2147483648,
        "92395030": 1073676767,
        "92395046": 4293918720,
        "92395071": 2147483648,
        "92395072": 2147483648,
        "92395074": 2147483648,
        "92395075": 3758096384,
        "92395076": 2147483648,
        "92395078": 2146959360,
        "92395261": 1879048192,
        "92395386": 2147483648,
        "92395449": 2147483648,
        "92395518": 1073479680,
        "92395519": 32505856,
        "92395520": 2147483648,
        "92395538": 2147483648,
        "92395548": 66977919,
        "92395550": 16385,
        "92395669": 805306368,
        "92395965": 134217728,
        "92395975": 2147450879,
        "92396062": 1073627134,
        "92396088": 536608768,
        "92396198": 4293918720,
        "92396262": 2147483648,
        "92396281": 2147483648,
        "92396292": 67108864,
        "92396322": 1073676288,
        "92396346": 2147483648,
        "92397362": 2147483648,
        "92397371": 4294443008,
        "92397379": 133693440,
        "92397395": 2147483648
    },
    "GBOIFPEPJIK": [
        {
            "NCPENHOJNCG": 1714911903,
            "PODJNFONKFD": 6
        },
        {
            "NCPENHOJNCG": 1714911903,
            "PODJNFONKFD": 6
        },
        {
            "NCPENHOJNCG": 1714911903,
            "PODJNFONKFD": 6
        },
        {
            "NCPENHOJNCG": 1714911903,
            "PODJNFONKFD": 6
        },
        {
            "NCPENHOJNCG": 1714911903,
            "PODJNFONKFD": 6
        },
        {
            "NCPENHOJNCG": 1714911903,
            "PODJNFONKFD": 6
        },
        {
            "NCPENHOJNCG": 1714911903,
            "PODJNFONKFD": 6
        },
        {
            "NCPENHOJNCG": 1714911903,
            "PODJNFONKFD": 6
        },
        {
            "NCPENHOJNCG": 1714911903,
            "PODJNFONKFD": 6
        }
    ]
}