{
    "Roguelike": {
        "$type": "LONOKHHCJKB",
        "PIMEHEOPDCD": "",
        "PHJDAJBHPMK": [
            "ACTIVITY_NORMAL_BTN",
            "BAG_BTN"
        ],
        "GJOMIBPONAH": true,
        "MKJLIGIPOHC": true,
        "FMNGJNMIMGA": true,
        "IMFDABHMEIO": "UI_BtnIcon_ActivityTips",
        "JECLBOIHCMF": "DUNGEON_ROGUELIKE",
        "OAKGCHONIPF": true,
        "AGKOMKJGOKE": "",
        "CDFMOPJDPHK": "",
        "BOIDGFCPBJH": "",
        "HCOHLKJPGLK": ""
    }
}