{
    "name": "Char_Skill_12042",
    "LBJBMKBADGI": {
        "-2060930438": {
            "$type": "JMNPJNKIBNE",
            "value": 2
        },
        "476224977": {
            "$type": "GBMLNFDAKNE",
            "type": "Element",
            "ratio": "GCG_ELEMENT_HYDRO"
        },
        "-1197212178": {
            "$type": "KHOGOPHAOEK",
            "type": "EffectNum",
            "value": 2
        },
        "-162842690": {
            "$type": "MFBHIPMKLFF",
            "type": "IndirectDamage",
            "value": 1
        },
        "-1921431221": {
            "$type": "GBMLNFDAKNE",
            "type": "Element"
        },
        "-1588530376": {
            "$type": "KHOGOPHAOEK",
            "type": "EffectNum",
            "value": 1
        }
    }
}