{
    "name": "Char_Skill_14063",
    "LBJBMKBADGI": {
        "-2060930438": {
            "$type": "JMNPJNKIBNE",
            "value": 1
        },
        "476224977": {
            "$type": "GBMLNFDAKNE",
            "type": "Element",
            "ratio": "GCG_ELEMENT_ELECTRO"
        }
    }
}