{
    "name": "Effect_Damage_Fire_5",
    "LBJBMKBADGI": {
        "-2060930438": {
            "$type": "JMNPJNKIBNE",
            "value": 5
        },
        "476224977": {
            "$type": "GBMLNFDAKNE",
            "type": "Element",
            "ratio": "GCG_ELEMENT_PYRO"
        }
    }
}