{
    "id": 18,
    "sceneId": 3,
    "PGIMMPDIKMB": {
        "$type": "ANAAAEBMAGJ",
        "shape": {
            "$type": "IHDCPCONENO",
            "LFELDHHMHDI": {
                "x": 1604.5,
                "y": 284.29998779296875,
                "z": -1137.0
            },
            "radius": 2.0
        }
    },
    "LBEFJJEMNOB": {
        "DEDDPHACGKJ": [
            {
                "id": 1,
                "MHIDPPFMAPL": [
                    {
                        "$type": "PAFNDFLOEGE",
                        "id": 1
                    },
                    {
                        "$type": "NJMIFFOGFIA",
                        "id": 2,
                        "source": 1,
                        "target": 3
                    },
                    {
                        "$type": "CLEICPEOCLE",
                        "id": 3,
                        "HGEBIEGPOAH": {
                            "$type": "BPGMBNBFNOB",
                            "POEOODMCMJH": 190385103
                        },
                        "ONABALJIOAI": {
                            "$type": "OMOIKPDPDIP"
                        }
                    },
                    {
                        "$type": "NJMIFFOGFIA",
                        "id": 4,
                        "source": 3,
                        "target": 5
                    },
                    {
                        "$type": "MFCHFCMKKCE",
                        "id": 5
                    },
                    {
                        "$type": "EMMEJCPBIBN",
                        "id": 6,
                        "KDMGPKMAGCJ": {
                            "$type": "FPDLGFCIIAI",
                            "EGJMGEHLDOL": {
                                "$type": "JLPGAJKOMAK",
                                "IDLLEKPCFIG": {
                                    "$type": "MJNJJBBNAMO",
                                    "MNODLEEACAI": {
                                        "npcId": 1016,
                                        "questId": 2010
                                    }
                                },
                                "LDFFEAIODIB": {
                                    "$type": "ENAKOLLKPEN",
                                    "CIIFNIIODPF": "StopDist",
                                    "FDFHFIHCJMH": "ACT_FLOAT"
                                }
                            }
                        },
                        "BMHGNAGCHDL": 3,
                        "NBACHPBCFIN": "ACT_BOUNDARY_EFFECTOR_SUSPEND"
                    },
                    {
                        "$type": "NJMIFFOGFIA",
                        "id": 7,
                        "source": 6,
                        "target": 8
                    },
                    {
                        "$type": "FKJDOCIENNK",
                        "id": 8,
                        "AONCHNEOHIH": {
                            "$type": "OJAJAAJKGHO",
                            "GHPNFCDINFM": {
                                "CIIFNIIODPF": "StopDist",
                                "FDFHFIHCJMH": "ACT_FLOAT"
                            },
                            "DDKBKDNAJML": {
                                "$type": "ODFJOGOBJFI",
                                "ratio": 10.0
                            }
                        }
                    },
                    {
                        "$type": "NJMIFFOGFIA",
                        "id": 9,
                        "source": 8,
                        "target": 12
                    },
                    {
                        "$type": "OANIPIDEHDC",
                        "id": 12,
                        "HGEBIEGPOAH": {
                            "$type": "FIIMOOBMCFE",
                            "EGJMGEHLDOL": {
                                "$type": "DJMALPPLEPI",
                                "IDLLEKPCFIG": {
                                    "$type": "MJNJJBBNAMO",
                                    "MNODLEEACAI": {
                                        "npcId": 1016,
                                        "questId": 2010
                                    }
                                },
                                "LDFFEAIODIB": {
                                    "$type": "ENAKOLLKPEN",
                                    "CIIFNIIODPF": "ResumeDist",
                                    "FDFHFIHCJMH": "ACT_FLOAT"
                                }
                            }
                        }
                    },
                    {
                        "$type": "NJMIFFOGFIA",
                        "id": 13,
                        "source": 12,
                        "target": 3
                    }
                ],
                "KHNAENLHGPF": [
                    {
                        "CJBEFGPBLNM": "StopDist",
                        "KIIOONECJGH": "ACT_FLOAT",
                        "ONJMGLMKDAE": {
                            "$type": "ODFJOGOBJFI",
                            "ratio": 20.0
                        }
                    },
                    {
                        "CJBEFGPBLNM": "",
                        "KIIOONECJGH": "ACT_FLOAT",
                        "ONJMGLMKDAE": {
                            "$type": "ODFJOGOBJFI",
                            "ratio": 50.0
                        }
                    },
                    {
                        "CJBEFGPBLNM": "ResumeDist",
                        "KIIOONECJGH": "ACT_FLOAT",
                        "ONJMGLMKDAE": {
                            "$type": "ODFJOGOBJFI",
                            "ratio": 6.0
                        }
                    }
                ]
            }
        ],
        "PNJMAKIJCAE": [
            {
                "id": 90,
                "name": "onAlert"
            },
            {
                "id": 91,
                "name": "onAware"
            },
            {
                "id": 92,
                "name": "onUnAware"
            },
            {
                "id": 93,
                "name": "continue_move"
            }
        ]
    }
}