{
    "DMNMJEOIJKK": 5118,
    "PPEGIGHGFEG": {
        "GMFJEKDPLBN": [
            {
                "INCKOBNCDLL": [
                    2013
                ],
                "DIKHMBLHIFA": [
                    {
                        "$type": "BBEPGFFJLBF",
                        "MMBIBOKFEAB": ""
                    }
                ],
                "NJGFIONKNPN": [
                    {
                        "$type": "BBEPGFFJLBF",
                        "MMBIBOKFEAB": ""
                    }
                ]
            },
            {
                "INCKOBNCDLL": [
                    11008,
                    2021,
                    12026,
                    12042,
                    71045
                ],
                "CIEAJIGHOJI": [
                    {
                        "$type": "BOOGNDKGHBD"
                    }
                ],
                "DBBGIJCFKIN": [
                    {
                        "$type": "FDKEAODJGPH",
                        "GFHIGLBCCOB": [
                            {
                                "IBDIEFEIINI": [
                                    11008
                                ],
                                "desc": "UI_ACTIVITY_ELECTROHERCULESBATTLE_QUESTREQUIRED4"
                            },
                            {
                                "IBDIEFEIINI": [
                                    2021
                                ],
                                "desc": "UI_ACTIVITY_ELECTROHERCULESBATTLE_QUESTREQUIRED1"
                            },
                            {
                                "IBDIEFEIINI": [
                                    12026
                                ],
                                "desc": "UI_ACTIVITY_ELECTROHERCULESBATTLE_QUESTREQUIRED2"
                            },
                            {
                                "IBDIEFEIINI": [
                                    12042
                                ],
                                "desc": "UI_ACTIVITY_ELECTROHERCULESBATTLE_QUESTREQUIRED3"
                            },
                            {
                                "IBDIEFEIINI": [
                                    71045
                                ],
                                "desc": "UI_ACTIVITY_ELECTROHERCULESBATTLE_QUESTREQUIRED5"
                            }
                        ],
                        "LBADOCCADFF": 40
                    }
                ],
                "DIKHMBLHIFA": [
                    {
                        "$type": "IDLDIFPEACK",
                        "CGKLIKIDIFN": "UI_ACTIVITY_JUXTAPOSITIONQUEST_YELLOWBAR",
                        "NEBBKJLBKAM": ""
                    }
                ],
                "DIJPPDHEOGG": [
                    {
                        "$type": "FDKEAODJGPH",
                        "GFHIGLBCCOB": [
                            {
                                "IBDIEFEIINI": [
                                    11008
                                ],
                                "desc": "UI_ACTIVITY_ELECTROHERCULESBATTLE_QUESTREQUIRED4"
                            },
                            {
                                "IBDIEFEIINI": [
                                    2021
                                ],
                                "desc": "UI_ACTIVITY_ELECTROHERCULESBATTLE_QUESTREQUIRED1"
                            },
                            {
                                "IBDIEFEIINI": [
                                    12026
                                ],
                                "desc": "UI_ACTIVITY_ELECTROHERCULESBATTLE_QUESTREQUIRED2"
                            },
                            {
                                "IBDIEFEIINI": [
                                    12042
                                ],
                                "desc": "UI_ACTIVITY_ELECTROHERCULESBATTLE_QUESTREQUIRED3"
                            },
                            {
                                "IBDIEFEIINI": [
                                    71045
                                ],
                                "desc": "UI_ACTIVITY_ELECTROHERCULESBATTLE_QUESTREQUIRED5"
                            }
                        ],
                        "LBADOCCADFF": 40
                    }
                ],
                "NJGFIONKNPN": [
                    {
                        "$type": "IDLDIFPEACK",
                        "CGKLIKIDIFN": "UI_ACTIVITY_JUXTAPOSITIONQUEST_YELLOWBAR",
                        "NEBBKJLBKAM": ""
                    }
                ]
            },
            {
                "INCKOBNCDLL": [
                    1019,
                    1028,
                    1029,
                    1030,
                    1031
                ],
                "CIEAJIGHOJI": [
                    {
                        "$type": "BOOGNDKGHBD"
                    }
                ],
                "DBBGIJCFKIN": [
                    {
                        "$type": "NBGCCHNNKAB"
                    }
                ],
                "DIKHMBLHIFA": [
                    {
                        "$type": "IDLDIFPEACK",
                        "CGKLIKIDIFN": "",
                        "NEBBKJLBKAM": ""
                    }
                ],
                "DIJPPDHEOGG": [
                    {
                        "$type": "NBGCCHNNKAB"
                    }
                ],
                "NJGFIONKNPN": [
                    {
                        "$type": "IDLDIFPEACK",
                        "CGKLIKIDIFN": "",
                        "NEBBKJLBKAM": ""
                    }
                ]
            },
            {
                "INCKOBNCDLL": [
                    72730
                ],
                "DBBGIJCFKIN": [
                    {
                        "$type": "NBGCCHNNKAB"
                    }
                ],
                "DIKHMBLHIFA": [
                    {
                        "$type": "ANCOJFPEIGF",
                        "MMBIBOKFEAB": ""
                    }
                ],
                "DIJPPDHEOGG": [
                    {
                        "$type": "NBGCCHNNKAB"
                    }
                ],
                "NJGFIONKNPN": [
                    {
                        "$type": "ANCOJFPEIGF",
                        "MMBIBOKFEAB": ""
                    }
                ]
            }
        ],
        "DKFLOIJJGJJ": "",
        "GAPIGCALFDP": "UI_ACTIVITY_ELECTROHERCULESBATTLE_QUICKSTART_DES",
        "LIFCPJBKMLB": [
            [
                2013
            ],
            [
                11008,
                2021,
                12026,
                12042,
                71045,
                1019,
                1028,
                1029,
                1030,
                1031
            ],
            [
                72730
            ]
        ]
    }
}