{
    "ChannellerSlabLoop": {
        "$type": "LONOKHHCJKB",
        "PIMEHEOPDCD": "",
        "PHJDAJBHPMK": [
            "ACTIVITY_NORMAL_BTN"
        ],
        "FMNGJNMIMGA": true,
        "IMFDABHMEIO": "",
        "JECLBOIHCMF": "DUNGEON_CHANNELLER_SLAB_LOOP",
        "AGKOMKJGOKE": "",
        "CDFMOPJDPHK": "",
        "BOIDGFCPBJH": "",
        "HCOHLKJPGLK": ""
    }
}