{
    "DMNMJEOIJKK": 5123,
    "PPEGIGHGFEG": {
        "GMFJEKDPLBN": [
            {
                "INCKOBNCDLL": [
                    1025
                ],
                "DIKHMBLHIFA": [
                    {
                        "$type": "BBEPGFFJLBF",
                        "MMBIBOKFEAB": ""
                    }
                ],
                "NJGFIONKNPN": [
                    {
                        "$type": "BBEPGFFJLBF",
                        "MMBIBOKFEAB": ""
                    }
                ]
            },
            {
                "INCKOBNCDLL": [
                    73689
                ]
            }
        ],
        "DKFLOIJJGJJ": "",
        "GAPIGCALFDP": "",
        "LIFCPJBKMLB": [
            [
                1025
            ],
            [
                73689
            ]
        ]
    }
}