{
    "DBHEKOGPEPB": {
        "205566676": 2147483648,
        "205568923": 2147483648,
        "205568924": 3221225472,
        "205568926": 2147483648,
        "205563194": 2147483648,
        "205563195": 4294836223,
        "205563201": 4294967295,
        "205566728": 4294443008,
        "205568130": 3221486847,
        "205568371": 4018143232,
        "205575840": 1073618942,
        "205575842": 2147450879,
        "205575843": 1073692671,
        "205575844": 2147434495,
        "205575845": 2147483647,
        "205575846": 1073684479,
        "205575847": 2147434495,
        "205575848": 4294967295,
        "205594665": 4294770684,
        "205594666": 4294967295,
        "205594667": 2147450879,
        "205594668": 4294967295,
        "205594669": 4294967295,
        "205594670": 4294901759,
        "205604121": 1074000511,
        "205600039": 536863743,
        "205603529": 4294967295,
        "205603560": 4294967295
    },
    "HJMEJGGHPBL": [
        {
            "AILCLHPEOGM": "Tag_2",
            "IGAGHEABBEL": [
                205591050,
                205590649,
                205587718,
                205587706,
                205587534,
                205586537,
                205576832,
                205600779,
                205600778,
                205600775,
                205600771,
                205600770,
                205600763,
                205600762,
                205600761,
                205600760,
                205600757,
                205600756,
                205600754,
                205602277,
                205602276,
                205602275,
                205602005,
                205602333,
                205602332,
                205602331,
                205602330,
                205602329,
                205602047,
                205602046,
                205601154,
                205601152,
                205601151,
                205601146,
                205601145,
                205601142,
                205601140,
                205601139,
                205601137,
                205601136,
                205601135,
                205601134,
                205601133,
                205601132,
                205601131,
                205601130,
                205601129,
                205601127,
                205601126,
                205601125,
                205601124,
                205601120,
                205601119,
                205601118,
                205600821,
                205600816,
                205600815,
                205600814,
                205600810,
                205600809,
                205600807,
                205602274,
                205602272,
                205602271,
                205602270,
                205602269,
                205602268,
                205602267,
                205602266,
                205602265,
                205602262,
                205602261,
                205602260,
                205602259,
                205602258,
                205602219,
                205602092,
                205602032,
                205601892,
                205601891,
                205601877,
                205601871,
                205601870,
                205601869,
                205601868,
                205601867,
                205601865,
                205601864,
                205601845,
                205601843,
                205601842,
                205601840,
                205601839,
                205601837,
                205601836,
                205601835,
                205601834,
                205601821,
                205601820,
                205601818,
                205601816,
                205601815,
                205601814,
                205601813,
                205601811,
                205601810,
                205600649,
                205600648,
                205600643,
                205600642,
                205600641,
                205600640,
                205600639,
                205600638,
                205600637,
                205600636,
                205600635,
                205600634,
                205600632,
                205600627,
                205600622,
                205600587,
                205600586,
                205600585,
                205600583,
                205600582,
                205600560,
                205600559,
                205600558,
                205600532,
                205600531,
                205600502,
                205600501,
                205600462,
                205600456,
                205600453,
                205600452,
                205600446,
                205600445,
                205600441,
                205600440,
                205602843,
                205602842,
                205602775
            ]
        }
    ],
    "EEGDCHELFAP": [
        205556315,
        205561849,
        205561850,
        205561855,
        205562138,
        205569012,
        205585840,
        205585883,
        205585884,
        205585885,
        205585895,
        205585979,
        205585985,
        205586148,
        205586149,
        205586172,
        205587573,
        205587574,
        205587679,
        205587685,
        205587693,
        205594528,
        205594529,
        205594530,
        205594531,
        205594532,
        205594533,
        205594534,
        205594535,
        205594536,
        205594537,
        205594538,
        205594539,
        205594540,
        205594541,
        205594542,
        205594543,
        205594544,
        205594545,
        205594546,
        205601102,
        205601103,
        205601104,
        205601105,
        205604426,
        205563201,
        205566728,
        205575842,
        205575843,
        205575844,
        205575845,
        205575846,
        205575847,
        205575848,
        205587433,
        205594660,
        205594661,
        205594662,
        205594663,
        205594664,
        205594665,
        205594666,
        205594667,
        205594668,
        205594670,
        205594671,
        205603528,
        205603560,
        205600930,
        205591050,
        205590946,
        205590795,
        205590785,
        205590697,
        205590696,
        205590687,
        205590649,
        205587718,
        205587706,
        205587534,
        205586662,
        205586537,
        205576832,
        205576831,
        205576830,
        205603153,
        205603152,
        205603151,
        205603150,
        205603149,
        205603148,
        205603147,
        205603146,
        205603145,
        205603144,
        205603143,
        205603142,
        205603141,
        205603140,
        205603139,
        205603138,
        205603137,
        205600779,
        205600778,
        205600777,
        205600776,
        205600775,
        205600774,
        205600773,
        205600772,
        205600771,
        205600770,
        205600768,
        205600767,
        205600766,
        205600765,
        205600763,
        205600762,
        205600761,
        205600760,
        205600759,
        205600758,
        205600757,
        205600756,
        205600755,
        205600754,
        205603170,
        205603169,
        205603168,
        205603167,
        205603166,
        205603165,
        205603164,
        205603163,
        205603162,
        205603161,
        205603160,
        205603159,
        205603158,
        205603157,
        205603156,
        205603155,
        205603154,
        205602277,
        205602276,
        205602275,
        205602048,
        205602005,
        205601992,
        205601991,
        205601990,
        205601989,
        205602333,
        205602332,
        205602331,
        205602330,
        205602329,
        205602047,
        205602046,
        205601154,
        205601152,
        205601151,
        205601146,
        205601145,
        205601142,
        205601140,
        205601139,
        205601137,
        205601136,
        205601135,
        205601134,
        205601133,
        205601132,
        205601131,
        205601130,
        205601129,
        205601128,
        205601127,
        205601126,
        205601125,
        205601124,
        205601123,
        205601122,
        205601121,
        205601120,
        205601119,
        205601118,
        205600822,
        205600821,
        205600820,
        205600819,
        205600818,
        205600817,
        205600816,
        205600815,
        205600814,
        205600813,
        205600812,
        205600811,
        205600810,
        205600809,
        205600808,
        205600807,
        205600806,
        205604234,
        205602328,
        205602327,
        205602326,
        205602325,
        205602324,
        205602323,
        205602322,
        205602321,
        205602320,
        205602319,
        205602318,
        205602317,
        205602316,
        205602315,
        205602314,
        205602313,
        205602312,
        205602311,
        205602310,
        205602309,
        205602308,
        205602307,
        205602306,
        205602305,
        205602304,
        205602303,
        205602302,
        205602301,
        205602300,
        205602299,
        205602298,
        205602297,
        205602296,
        205602295,
        205602294,
        205602293,
        205602292,
        205602291,
        205602290,
        205602289,
        205602288,
        205602287,
        205602286,
        205602285,
        205602284,
        205602283,
        205602282,
        205602274,
        205602273,
        205602272,
        205602271,
        205602270,
        205602269,
        205602268,
        205602267,
        205602266,
        205602265,
        205602264,
        205602263,
        205602262,
        205602261,
        205602260,
        205602259,
        205602258,
        205602219,
        205602092,
        205602091,
        205602090,
        205602032,
        205601896,
        205601895,
        205601894,
        205601893,
        205601892,
        205601891,
        205601890,
        205601888,
        205601887,
        205601886,
        205601885,
        205601882,
        205601878,
        205601877,
        205601876,
        205601875,
        205601874,
        205601873,
        205601872,
        205601871,
        205601870,
        205601869,
        205601868,
        205601867,
        205601866,
        205601865,
        205601864,
        205601863,
        205601847,
        205601845,
        205601843,
        205601842,
        205601840,
        205601839,
        205601837,
        205601836,
        205601835,
        205601834,
        205601827,
        205601826,
        205601821,
        205601820,
        205601818,
        205601816,
        205601815,
        205601814,
        205601813,
        205601812,
        205601811,
        205601810,
        205600654,
        205600653,
        205600652,
        205600651,
        205600650,
        205600649,
        205600648,
        205600646,
        205600645,
        205600644,
        205600643,
        205600642,
        205600641,
        205600640,
        205600639,
        205600638,
        205600637,
        205600636,
        205600635,
        205600634,
        205600633,
        205600632,
        205600631,
        205600630,
        205600627,
        205600624,
        205600623,
        205600622,
        205600621,
        205600620,
        205600587,
        205600586,
        205600585,
        205600584,
        205600583,
        205600582,
        205600578,
        205600577,
        205600576,
        205600573,
        205600572,
        205600570,
        205600562,
        205600560,
        205600559,
        205600558,
        205600553,
        205600545,
        205600532,
        205600531,
        205600526,
        205600516,
        205600509,
        205600502,
        205600501,
        205600468,
        205600462,
        205600460,
        205600457,
        205600456,
        205600453,
        205600452,
        205600446,
        205600445,
        205600444,
        205600443,
        205600442,
        205600441,
        205600440,
        205558031,
        205552723
    ]
}