{
    "common": {
        "effectAttachShape": {
            "$type": "DPGKNHENGLM",
            "DDDEJPIFECG": "EffectMesh"
        },
        "height": 1.0,
        "shadowViewSizeRatio": 0.0,
        "affectedByWorld": true,
        "checkInSurface": true,
        "canTriggerElementReactionText": false,
        "useGrassDisplacement": true,
        "clearAnimatorOnSetLightDeactive": true,
        "clearAIOnSetLightDeactive": true
    },
    "model": {
        "bornEffect": "",
        "attachEffect": "",
        "canBakeMesh": false
    },
    "dither": {
        "showDitherDuration": 1.0
    },
    "combat": {
        "property": {
            "endureType": "Monster_Minion",
            "weight": 101.0,
            "isInvincible": true
        },
        "beHit": {
            "hitBloodEffect": "",
            "OFKMFHKFECF": true,
            "muteAllHitText": true
        },
        "combatLock": {
            "lockShape": "CircleLockEnemy",
            "lockType": "Animal_Lv2"
        },
        "die": {
            "dieEndTime": 1.7999999523162842,
            "dieForceDisappearTime": 2.0,
            "dieDisappearEffect": ""
        }
    },
    "abilities": [
        {
            "abilityID": "",
            "abilityName": "Partner_Animal_Electrohercules_Properties",
            "abilityOverride": ""
        },
        {
            "abilityID": "",
            "abilityName": "Animal_Electrohercules_Properties_Partner",
            "abilityOverride": ""
        },
        {
            "abilityID": "",
            "abilityName": "Animal_Electrohercules_PlayAlert",
            "abilityOverride": ""
        },
        {
            "abilityID": "",
            "abilityName": "Partner_Animal_Electrohercules_JumpForward_ChargeHandler",
            "abilityOverride": ""
        },
        {
            "abilityID": "",
            "abilityName": "Partner_Animal_Electrohercules_JumpBack_Handler",
            "abilityOverride": ""
        },
        {
            "abilityID": "",
            "abilityName": "Partner_Animal_Electrohercules_AttackManager",
            "abilityOverride": ""
        },
        {
            "abilityID": "",
            "abilityName": "Partner_Animal_Electrohercules_Tutorial_AddStage",
            "abilityOverride": ""
        },
        {
            "abilityID": "",
            "abilityName": "Partner_Animal_Electrohercules_Tutorial_JumpForward",
            "abilityOverride": ""
        },
        {
            "abilityID": "",
            "abilityName": "Partner_Animal_Electrohercules_Tutorial_JumpBack",
            "abilityOverride": ""
        },
        {
            "abilityID": "",
            "abilityName": "Partner_Animal_Electrohercules_Tutorial_RecoverStamina",
            "abilityOverride": ""
        }
    ],
    "stateLayers": {
        "defaultLayer": {
            "$type": "EPAPJJAGHKG",
            "ACOCIAFGIAD": "",
            "stateIDs": {
                "Born": {
                    "$type": "IJOIMFMEGMM",
                    "DLOHGBDFFGB": {
                        "Born": []
                    },
                    "DLAOMOCMANL": [
                        "DoSkill"
                    ]
                },
                "NormalIdle": {
                    "$type": "IJOIMFMEGMM",
                    "DLOHGBDFFGB": {
                        "Standby": []
                    },
                    "POLKCLOHPOO": true,
                    "PGKCBIHGAOC": true,
                    "AJBLILDCLBO": [
                        "IsCharging",
                        "ChargeEnd"
                    ],
                    "DLAOMOCMANL": [
                        "DoSkill",
                        "ChargeEnd"
                    ]
                },
                "BeHit": {
                    "$type": "IJOIMFMEGMM",
                    "DLOHGBDFFGB": {
                        "Hit_L": [
                            "Audio_Animal_Electrohercules_01_Hit_L"
                        ],
                        "Hit_H": [
                            "Audio_Animal_Electrohercules_01_Hit_H"
                        ]
                    },
                    "AJBLILDCLBO": [
                        "BeHit",
                        "IsCharging",
                        "ChargeEnd"
                    ],
                    "DLAOMOCMANL": [
                        "DoSkill"
                    ]
                },
                "BeHitThrow": {
                    "$type": "IJOIMFMEGMM",
                    "DLOHGBDFFGB": {
                        "HitThrow": [],
                        "HitThrowDrop": [],
                        "HitThrowToGround": []
                    },
                    "AJBLILDCLBO": [
                        "BeHit",
                        "HitAir2HitDrop",
                        "IsCharging",
                        "ChargeEnd"
                    ],
                    "DLAOMOCMANL": [
                        "DoSkill"
                    ]
                },
                "Struggle": {
                    "$type": "IJOIMFMEGMM",
                    "DLOHGBDFFGB": {
                        "Struggle": []
                    },
                    "AJBLILDCLBO": [
                        "BeHit",
                        "HitAir2HitDrop",
                        "IsCharging",
                        "ChargeEnd"
                    ],
                    "DLAOMOCMANL": [
                        "DoSkill"
                    ]
                },
                "Die": {
                    "$type": "IJOIMFMEGMM",
                    "DLOHGBDFFGB": {
                        "Die": [
                            "Audio_Animal_Electrohercules_01_Die"
                        ]
                    }
                },
                "Warning": {
                    "$type": "IJOIMFMEGMM",
                    "DLOHGBDFFGB": {
                        "Alert": [
                            "Audio_Animal_Electrohercules_01_Alert"
                        ]
                    },
                    "PGKCBIHGAOC": true,
                    "DLAOMOCMANL": [
                        "BeHit",
                        "DoSkill"
                    ],
                    "LIPMJPLGIKD": true
                },
                "JumpForward_Once": {
                    "$type": "IJOIMFMEGMM",
                    "DLOHGBDFFGB": {
                        "JumpForward_Once": [
                            "Animal_Electrohercules_01_JumpBack",
                            "Audio_Animal_Electrohercules_01_JumpForward"
                        ],
                        "JumpForward_Once_CanTriggerCritical": []
                    },
                    "AJBLILDCLBO": [
                        "IsCharging",
                        "ChargeEnd"
                    ],
                    "DLAOMOCMANL": [
                        "BeHit",
                        "DoSkill"
                    ]
                },
                "JumpForward_Once_AS": {
                    "$type": "IJOIMFMEGMM",
                    "DLOHGBDFFGB": {
                        "JumpForward_Once_AS": []
                    },
                    "POLKCLOHPOO": true,
                    "AJBLILDCLBO": [
                        "IsCharging",
                        "ChargeEnd"
                    ],
                    "DLAOMOCMANL": [
                        "BeHit",
                        "DoSkill"
                    ]
                },
                "JumpForward_Critical": {
                    "$type": "IJOIMFMEGMM",
                    "DLOHGBDFFGB": {
                        "JumpForward_Critical": []
                    },
                    "AJBLILDCLBO": [
                        "IsCharging",
                        "ChargeEnd"
                    ],
                    "DLAOMOCMANL": [
                        "BeHit",
                        "DoSkill",
                        "CriticalTrigger"
                    ]
                },
                "JumpForward_Recoil": {
                    "$type": "IJOIMFMEGMM",
                    "DLOHGBDFFGB": {
                        "JumpForward_Recoil": []
                    },
                    "AJBLILDCLBO": [
                        "IsCharging",
                        "ChargeEnd"
                    ],
                    "DLAOMOCMANL": [
                        "BeHit",
                        "DoSkill",
                        "CriticalTrigger"
                    ]
                },
                "JumpForward_Charging": {
                    "$type": "IJOIMFMEGMM",
                    "DLOHGBDFFGB": {
                        "JumpForward_Charging_BS": [],
                        "JumpForward_Charging_Loop": []
                    },
                    "POLKCLOHPOO": true,
                    "AJBLILDCLBO": [
                        "IsCharging"
                    ],
                    "DLAOMOCMANL": [
                        "BeHit",
                        "DoSkill",
                        "IsCharging"
                    ]
                },
                "JumpForward_Long": {
                    "$type": "IJOIMFMEGMM",
                    "DLOHGBDFFGB": {
                        "JumpForward_Long": [
                            "Animal_Electrohercules_01_JumpForward",
                            "Audio_Animal_Electrohercules_01_JumpForward"
                        ],
                        "JumpForward_Long_CanTriggerCritical": []
                    },
                    "AJBLILDCLBO": [
                        "IsCharging",
                        "ChargeEnd"
                    ],
                    "DLAOMOCMANL": [
                        "BeHit",
                        "DoSkill"
                    ]
                },
                "JumpForward_Long_AS": {
                    "$type": "IJOIMFMEGMM",
                    "DLOHGBDFFGB": {
                        "JumpForward_Long_AS": []
                    },
                    "POLKCLOHPOO": true,
                    "AJBLILDCLBO": [
                        "IsCharging",
                        "ChargeEnd"
                    ],
                    "DLAOMOCMANL": [
                        "BeHit",
                        "DoSkill"
                    ]
                },
                "JumpForward_Short": {
                    "$type": "IJOIMFMEGMM",
                    "DLOHGBDFFGB": {
                        "JumpForward_Short": [
                            "Animal_Electrohercules_01_JumpForward",
                            "Audio_Animal_Electrohercules_01_JumpForward"
                        ],
                        "JumpForward_Short_CanTriggerCritical": []
                    },
                    "AJBLILDCLBO": [
                        "IsCharging",
                        "ChargeEnd"
                    ],
                    "DLAOMOCMANL": [
                        "BeHit",
                        "DoSkill"
                    ]
                },
                "JumpForward_Short_AS": {
                    "$type": "IJOIMFMEGMM",
                    "DLOHGBDFFGB": {
                        "JumpForward_Short_AS": []
                    },
                    "POLKCLOHPOO": true,
                    "AJBLILDCLBO": [
                        "IsCharging",
                        "ChargeEnd"
                    ],
                    "DLAOMOCMANL": [
                        "BeHit",
                        "DoSkill"
                    ]
                },
                "JumpBack": {
                    "$type": "IJOIMFMEGMM",
                    "DLOHGBDFFGB": {
                        "JumpBack": [
                            "Animal_Electrohercules_01_JumpBack",
                            "Audio_Animal_Electrohercules_01_Jump"
                        ]
                    },
                    "AJBLILDCLBO": [
                        "IsCharging",
                        "ChargeEnd"
                    ],
                    "DLAOMOCMANL": [
                        "BeHit",
                        "DoSkill"
                    ]
                },
                "JumpBack_AS": {
                    "$type": "IJOIMFMEGMM",
                    "DLOHGBDFFGB": {
                        "JumpBack_AS": []
                    },
                    "POLKCLOHPOO": true,
                    "AJBLILDCLBO": [
                        "IsCharging",
                        "ChargeEnd"
                    ],
                    "DLAOMOCMANL": [
                        "BeHit",
                        "DoSkill"
                    ]
                }
            }
        }
    },
    "initialPoses": {
        "Default": {
            "initialPoseID": 1,
            "initialPoseParams": {
                "intParams": {
                    "ActionState": "0"
                }
            }
        }
    },
    "inputKeys": [
        {
            "keyID": 1,
            "inputKeyCode": 257,
            "abilityName": ""
        },
        {
            "keyID": 1011,
            "inputKeyCode": 258,
            "abilityName": ""
        },
        {
            "keyID": 1021,
            "inputKeyCode": 259,
            "abilityName": ""
        },
        {
            "keyID": 1012,
            "inputKeyCode": 260,
            "abilityName": ""
        }
    ],
    "move": {
        "$type": "IIGPJJNGCLE",
        "FACNOEFNHIB": "RootNode"
    },
    "animal": {
        "tickAbilityElement": false,
        "hasCharacterRenderering": false
    }
}