{
    "AkaFesPotion": {
        "$type": "LONOKHHCJKB",
        "PIMEHEOPDCD": "",
        "FMNGJNMIMGA": true,
        "IMFDABHMEIO": "UI_BtnIcon_ActivityTips",
        "JECLBOIHCMF": "DUNGEON_AKA_FES_POTION",
        "MLDCADLPCDO": true,
        "AGKOMKJGOKE": "Challenge_UI_Terminate_Title",
        "CDFMOPJDPHK": "Challenge_UI_Terminate_Tips",
        "BOIDGFCPBJH": "",
        "HCOHLKJPGLK": ""
    }
}