{
    "0": {},
    "4240": {
        "KIHPEPHJMOG": -3,
        "GEAICNICJAJ": 342.3804931640625,
        "MKIFALNJFHB": 195.70211791992188
    },
    "-3": {
        "MKIFALNJFHB": -9.443385615552147e+26,
        "JGLOLGPFMPH": 9.184617203441958e-36
    },
    "23": {
        "MKIFALNJFHB": 1.441286707272403e+21,
        "AHIFDOEAEBO": true
    },
    "-34": {
        "KIHPEPHJMOG": 3,
        "CCBKMKFDEGD": -2.4122528341020868e-30
    },
    "356": {
        "KIHPEPHJMOG": -3,
        "GEAICNICJAJ": 328.45306396484375,
        "JGLOLGPFMPH": 128.89639282226562
    },
    "997695": {
        "KIHPEPHJMOG": 867781,
        "GEAICNICJAJ": 32258.630859375,
        "JGLOLGPFMPH": -8.748850442260869e+23
    },
    "48": {
        "KIHPEPHJMOG": -3,
        "GEAICNICJAJ": 339.99041748046875,
        "JGLOLGPFMPH": 223.7866973876953
    }
}