{
    "name": "Char_Skill_36043",
    "LBJBMKBADGI": {
        "-2060930438": {
            "$type": "JMNPJNKIBNE",
            "value": 3
        },
        "476224977": {
            "$type": "GBMLNFDAKNE",
            "type": "Element",
            "ratio": "GCG_ELEMENT_GEO"
        }
    }
}