{
    "id": 205,
    "stageMatureEvents": [
        "Play_Amb_Dungeon_Circus"
    ],
    "stageExitEvents": [
        "Stop_Amb_Dungeon_Circus",
        "State_Music_NonCombat"
    ],
    "stateValue": "State_Dungeon_v38_Circus_Combat",
    "KILINABMDFC": {
        "text": "Play_Music_Dungeon"
    },
    "LLIDCCLAENC": {
        "text": "Stop_Music_Dungeon"
    }
}