{
    "AOOGPAEJDFN": {
        "x": -1008.0739135742188,
        "y": -1000.0,
        "z": -353.6405029296875
    },
    "ELJHMKDBOIJ": {
        "x": -6.656005859375,
        "y": 1000.0,
        "z": 26.240264892578125
    },
    "DELPMEEHPHO": [
        {
            "x": -273.046630859375,
            "y": 199.99993896484375,
            "z": -353.6405029296875
        },
        {
            "x": -972.5944213867188,
            "y": 199.99993896484375,
            "z": -261.652099609375
        },
        {
            "x": -1008.0739135742188,
            "y": 199.9999542236328,
            "z": -161.94676208496094
        },
        {
            "x": -350.7304992675781,
            "y": 199.99993896484375,
            "z": -129.47592163085938
        },
        {
            "x": -93.82864379882812,
            "y": 199.99998474121094,
            "z": 26.240264892578125
        },
        {
            "x": -6.656005859375,
            "y": 200.0,
            "z": -126.66021728515625
        }
    ]
}