{
    "OKFLHLNCDJG": [
        {
            "name": "Character_Keqing_Q_Golden",
            "PGIFGOJJDDF": [
                {
                    "INMGIPBAFKH": 0.75,
                    "actionGroups": [
                        {
                            "actions": [
                                {
                                    "$type": "BNODOMDHNOJ",
                                    "MILMHBPDFDA": {
                                        "target": "Actor"
                                    }
                                },
                                {
                                    "$type": "MJIDMAGDIOA",
                                    "MILMHBPDFDA": {
                                        "target": "Actor"
                                    }
                                },
                                {
                                    "$type": "EJHLKIFCGKD",
                                    "MILMHBPDFDA": {
                                        "target": "Actor"
                                    }
                                },
                                {
                                    "$type": "OEKONPAKJGJ",
                                    "MILMHBPDFDA": {
                                        "target": "Actor"
                                    },
                                    "effectName": "Eff_Gcg_Avatar_Keqing_ElementalBurst_Spine",
                                    "BEGLDNNLAAN": true,
                                    "NEPMAAEOKBN": "",
                                    "OCNBEBFMONO": "",
                                    "FBICHJAGDCK": {
                                        "$type": "GGEINACNMHK"
                                    }
                                }
                            ]
                        }
                    ]
                },
                {
                    "INMGIPBAFKH": 1.0,
                    "actionGroups": [
                        {
                            "actions": [
                                {
                                    "$type": "OEKONPAKJGJ",
                                    "MILMHBPDFDA": {
                                        "target": "Actor"
                                    },
                                    "effectName": "Eff_Gcg_Avatar_Keqing_ElementalBurst_Spine_Weapon",
                                    "BEGLDNNLAAN": true,
                                    "IEICFELNNNI": true,
                                    "NEPMAAEOKBN": "Gcg_CardFace_Char_Avatar_Keqing_Spine",
                                    "OCNBEBFMONO": "EffectRoot_Weapons_Attack1",
                                    "FBICHJAGDCK": {
                                        "$type": "GGEINACNMHK"
                                    }
                                }
                            ]
                        }
                    ]
                },
                {
                    "INMGIPBAFKH": 0.25,
                    "actionGroups": [
                        {
                            "actions": [
                                {
                                    "$type": "PMCLKBDMEEF",
                                    "BFMLIKKKCPJ": "CharacterCenter",
                                    "FKEPBFNANNG": "ActorOppoCamp",
                                    "effectName": "Eff_Gcg_Avatar_Keqing_ElementalBurst_Hit"
                                }
                            ]
                        }
                    ]
                },
                {
                    "INMGIPBAFKH": 1.0499999523162842,
                    "actionGroups": [
                        {
                            "actions": [
                                {
                                    "$type": "OEKONPAKJGJ",
                                    "MILMHBPDFDA": {
                                        "target": "Actor"
                                    },
                                    "effectName": "Eff_Gcg_Avatar_Keqing_ElementalBurst_BS",
                                    "NEPMAAEOKBN": "",
                                    "OCNBEBFMONO": "",
                                    "FBICHJAGDCK": {
                                        "$type": "GGEINACNMHK"
                                    }
                                }
                            ]
                        }
                    ]
                },
                {
                    "actionGroups": [
                        {
                            "actions": [
                                {
                                    "$type": "AGBMNNBNNMO",
                                    "MILMHBPDFDA": {
                                        "target": "AllTarget"
                                    }
                                }
                            ]
                        }
                    ]
                },
                {
                    "INMGIPBAFKH": 0.15000000596046448,
                    "actionGroups": [
                        {
                            "actions": [
                                {
                                    "$type": "OEKONPAKJGJ",
                                    "MILMHBPDFDA": {
                                        "target": "MainTarget"
                                    },
                                    "effectName": "Eff_Gcg_Avatar_Keqing_ElementalBurst_Hit_01",
                                    "NEPMAAEOKBN": "",
                                    "OCNBEBFMONO": "",
                                    "FBICHJAGDCK": {
                                        "$type": "GGEINACNMHK"
                                    }
                                },
                                {
                                    "$type": "KEEGPPOFLMH",
                                    "MILMHBPDFDA": {
                                        "target": "MainTarget"
                                    },
                                    "EJFDPLPDGHE": "Common_ShakeScreen_Test_Q"
                                },
                                {
                                    "$type": "OFJDNKABCOD",
                                    "EMBBADOIGNH": "GcgMotion_Hit04_03",
                                    "PAFNKJKDAHJ": "",
                                    "MJFDMEJKJAL": {
                                        "target": "MainTarget"
                                    },
                                    "MILMHBPDFDA": {
                                        "target": "Actor"
                                    },
                                    "JJAPCLFGOCA": true
                                }
                            ]
                        }
                    ]
                },
                {
                    "INMGIPBAFKH": 0.7699999809265137,
                    "actionGroups": [
                        {
                            "actions": [
                                {
                                    "$type": "OEKONPAKJGJ",
                                    "MILMHBPDFDA": {
                                        "target": "SubTarget"
                                    },
                                    "effectName": "Eff_Gcg_Avatar_Keqing_ElementalBurst_Hit_02",
                                    "NEPMAAEOKBN": "",
                                    "OCNBEBFMONO": "",
                                    "FBICHJAGDCK": {
                                        "$type": "GGEINACNMHK"
                                    }
                                }
                            ]
                        }
                    ]
                },
                {
                    "INMGIPBAFKH": 0.029999999329447746,
                    "actionGroups": [
                        {
                            "actions": [
                                {
                                    "$type": "OEKONPAKJGJ",
                                    "MILMHBPDFDA": {
                                        "target": "Actor"
                                    },
                                    "effectName": "Eff_Gcg_Common_Spine_ReturnToLoop",
                                    "BEGLDNNLAAN": true,
                                    "NEPMAAEOKBN": "",
                                    "OCNBEBFMONO": "",
                                    "FBICHJAGDCK": {
                                        "$type": "GGEINACNMHK"
                                    }
                                }
                            ]
                        }
                    ]
                },
                {
                    "actionGroups": [
                        {
                            "actions": [
                                {
                                    "$type": "BNODOMDHNOJ",
                                    "MILMHBPDFDA": {
                                        "target": "Actor"
                                    },
                                    "DNFGIMLCEEK": true
                                },
                                {
                                    "$type": "MJIDMAGDIOA",
                                    "MILMHBPDFDA": {
                                        "target": "Actor"
                                    },
                                    "DNFGIMLCEEK": true
                                }
                            ]
                        }
                    ]
                }
            ]
        }
    ]
}