{
    "id": 112,
    "stageMatureEvents": [
        "Play_Amb_Scene_liulihotel_LP"
    ],
    "stageExitEvents": [
        "Stop_Amb_Scene_liulihotel_LP",
        "State_Music_NonCombat"
    ],
    "stateValue": "State_DQ_Uyutei",
    "KILINABMDFC": {
        "text": "Play_Music_Scene"
    },
    "LLIDCCLAENC": {
        "text": "Stop_Music_Scene"
    }
}