{
    "HJMEJGGHPBL": [
        {
            "IGAGHEABBEL": [
                201494294,
                201494293,
                201494292,
                201494289,
                201494287,
                201494286,
                201494283,
                201489284,
                201489283,
                201489282,
                201489281,
                201489280,
                201489279,
                201505400,
                201489278,
                201489277,
                201489276,
                201489275,
                201489274,
                201489273,
                201489272,
                201489271,
                201489270,
                201489269,
                201489268,
                201489267,
                201489266,
                201489265,
                201489237,
                201489236,
                201489235,
                201489234,
                201489233,
                201489232,
                201489231,
                201489230,
                201489229,
                201489228,
                201489264,
                201489263,
                201489262,
                201489261,
                201489260,
                201489259,
                201489258,
                201489256,
                201489255,
                201489254,
                201489253,
                201489252,
                201489251,
                201489250,
                201489249,
                201489248,
                201489247,
                201489246,
                201489245,
                201489244,
                201489243,
                201489242,
                201489241,
                201489240,
                201489239,
                201489238,
                201494311,
                201494310,
                201494309,
                201489224,
                201489223,
                201489222,
                201489221,
                201489220,
                201489219,
                201489218,
                201489217,
                201489216,
                201489215,
                201489214,
                201489213,
                201489212,
                201489211,
                201489210,
                201489209,
                201489208,
                201489207,
                201489206,
                201489205,
                201489204,
                201489203,
                201489202,
                201489201,
                201489200,
                201489199,
                201489198,
                201489197,
                201489196,
                201489195,
                201489194,
                201489193,
                201489192,
                201489191,
                201489190,
                201489189,
                201489188,
                201489187,
                201489186,
                201489185,
                201489184,
                201489183,
                201489182,
                201489181,
                201489180,
                201489179,
                201489178,
                201489177,
                201489176,
                201489175,
                201489174,
                201489173,
                201489172,
                201489171,
                201489170,
                201489169,
                201502613,
                201502612,
                201489285,
                201489257,
                201472798,
                201472797,
                201472796,
                201472795,
                201472794,
                201472793,
                201472791,
                201472790,
                201472789,
                201472788,
                201472787,
                201472786,
                201510173,
                201510172,
                201510171,
                201510170,
                201510169,
                201510168,
                201510167,
                201510166,
                201489373,
                201489372,
                201489371,
                201489370,
                201489369,
                201489368,
                201489367,
                201489366,
                201489365,
                201489364,
                201489363,
                201489362,
                201489361,
                201489360,
                201489359,
                201489358,
                201489357,
                201489356,
                201489355,
                201489354,
                201489353,
                201489352,
                201489351,
                201489350,
                201489348,
                201489347,
                201489346,
                201489345,
                201489344,
                201489343,
                201489342,
                201489341,
                201489340,
                201489339,
                201489338,
                201489337,
                201489336,
                201489335,
                201489334,
                201489333,
                201489332,
                201489331,
                201489330,
                201489329,
                201489328,
                201489327,
                201489326,
                201489325,
                201489324,
                201489323,
                201489322,
                201489321,
                201489320,
                201489319,
                201489318,
                201489317,
                201489316,
                201489315,
                201489314,
                201489313,
                201489312,
                201489311,
                201489310,
                201489309,
                201489308,
                201489307,
                201489306,
                201489305,
                201489304,
                201489303,
                201489302,
                201489301,
                201489300,
                201489299,
                201489298,
                201489297,
                201489296,
                201489295,
                201489294,
                201489427,
                201489426,
                201489425,
                201489424,
                201489423,
                201489422,
                201489421,
                201489420,
                201489419,
                201489418,
                201489417,
                201489416,
                201489415,
                201489414,
                201489413,
                201489412,
                201498690,
                201498689,
                201498688,
                201498687,
                201498686,
                201498685,
                201498684,
                201498683,
                201498682,
                201498681,
                201498680,
                201498679,
                201498678,
                201498677,
                201498676,
                201498675,
                201498674,
                201498673,
                201498672,
                201498671,
                201498670,
                201498669,
                201498668,
                201489411,
                201489410,
                201489409,
                201489408,
                201489407,
                201489406,
                201489405,
                201489404,
                201489403,
                201489402,
                201489401,
                201489400,
                201489399,
                201489398,
                201489397,
                201489428,
                201505176,
                201505175,
                201505174,
                201505173,
                201505172,
                201502751,
                201502750,
                201502749,
                201502748,
                201502742,
                201489432,
                201489431,
                201489430,
                201489429,
                201498667,
                201498666,
                201498665,
                201498664,
                201498663,
                201498662,
                201498661,
                201498660,
                201489452,
                201489451,
                201489450,
                201489449,
                201489448,
                201489447,
                201489446,
                201489445,
                201489444,
                201489443,
                201489442,
                201489441
            ]
        }
    ]
}