{
    "MPINPDJNJBD": 74113,
    "DCPCAFPFKIK": {
        "11307": {
            "$type": "ABPAKNJJCLP",
            "PEBJDHIMGDA": 11307,
            "PHBKGOACLOA": 74115,
            "itemType": "Evidence",
            "JPAJKHODENF": 3,
            "sortID": 7,
            "AKEEMCCLLLE": "UI_QuestIcon_120545",
            "title": "EVENTSITEM_7411301_TITLETEXTMAP_375",
            "desc": "EVENTSITEM_7411301_DESCTEXTMAP_376",
            "INMDBAEEHCC": "EVENTSITEM_7411301_LOCKDESCTEXTMAP_377",
            "CGNJAJCPBPM": "",
            "ALJNBBDEOEP": "UI_QuestIcon_120545",
            "FCNHIMHPABN": "UI_QuestIcon_120545",
            "IMBNOOJLJNO": 120544
        },
        "11308": {
            "$type": "ABPAKNJJCLP",
            "PEBJDHIMGDA": 11308,
            "PHBKGOACLOA": 74115,
            "itemType": "Evidence",
            "JPAJKHODENF": 1,
            "sortID": 8,
            "AKEEMCCLLLE": "UI_QuestIcon_120549",
            "title": "EVENTSITEM_7411301_TITLETEXTMAP_378",
            "desc": "EVENTSITEM_7411301_DESCTEXTMAP_379",
            "INMDBAEEHCC": "EVENTSITEM_7411301_LOCKDESCTEXTMAP_380",
            "CGNJAJCPBPM": "",
            "ALJNBBDEOEP": "UI_QuestIcon_120549",
            "FCNHIMHPABN": "UI_QuestIcon_120549"
        },
        "11309": {
            "$type": "ABPAKNJJCLP",
            "PEBJDHIMGDA": 11309,
            "PHBKGOACLOA": 74116,
            "itemType": "Evidence",
            "JPAJKHODENF": 5,
            "sortID": 9,
            "AKEEMCCLLLE": "",
            "title": "EVENTSITEM_7411301_TITLETEXTMAP_381",
            "desc": "EVENTSITEM_7411301_DESCTEXTMAP_382",
            "INMDBAEEHCC": "EVENTSITEM_7411301_LOCKDESCTEXTMAP_383",
            "CGNJAJCPBPM": "",
            "ALJNBBDEOEP": "UI_QuestIcon_400414",
            "FCNHIMHPABN": ""
        },
        "11310": {
            "$type": "BILMNMABNEL",
            "PEBJDHIMGDA": 11310,
            "PHBKGOACLOA": 74113,
            "itemType": "Clues",
            "JPAJKHODENF": 5,
            "sortID": 10,
            "AKEEMCCLLLE": "",
            "title": "EVENTSITEM_7411301_TITLETEXTMAP_384",
            "desc": "EVENTSITEM_7411301_DESCTEXTMAP_385",
            "INMDBAEEHCC": "EVENTSITEM_7411301_LOCKDESCTEXTMAP_386",
            "CGNJAJCPBPM": "",
            "ALJNBBDEOEP": "UI_QuestIcon_400414",
            "FCNHIMHPABN": "",
            "FAPBDKBCHMG": ""
        },
        "11311": {
            "$type": "BILMNMABNEL",
            "PEBJDHIMGDA": 11311,
            "PHBKGOACLOA": 74113,
            "itemType": "Clues",
            "JPAJKHODENF": 5,
            "sortID": 11,
            "AKEEMCCLLLE": "",
            "title": "EVENTSITEM_7411301_TITLETEXTMAP_387",
            "desc": "EVENTSITEM_7411301_DESCTEXTMAP_388",
            "INMDBAEEHCC": "EVENTSITEM_7411301_LOCKDESCTEXTMAP_389",
            "CGNJAJCPBPM": "",
            "ALJNBBDEOEP": "UI_QuestIcon_400414",
            "FCNHIMHPABN": "",
            "FAPBDKBCHMG": ""
        },
        "11312": {
            "$type": "BILMNMABNEL",
            "PEBJDHIMGDA": 11312,
            "PHBKGOACLOA": 74113,
            "itemType": "Clues",
            "JPAJKHODENF": 6,
            "sortID": 12,
            "AKEEMCCLLLE": "",
            "title": "EVENTSITEM_7411301_TITLETEXTMAP_390",
            "desc": "EVENTSITEM_7411301_DESCTEXTMAP_391",
            "INMDBAEEHCC": "EVENTSITEM_7411301_LOCKDESCTEXTMAP_392",
            "CGNJAJCPBPM": "",
            "ALJNBBDEOEP": "UI_NPC_Quest_Rocher",
            "FCNHIMHPABN": "",
            "FAPBDKBCHMG": ""
        },
        "11313": {
            "$type": "BILMNMABNEL",
            "PEBJDHIMGDA": 11313,
            "PHBKGOACLOA": 74113,
            "itemType": "Clues",
            "JPAJKHODENF": 6,
            "sortID": 13,
            "AKEEMCCLLLE": "",
            "title": "EVENTSITEM_7411301_TITLETEXTMAP_393",
            "desc": "EVENTSITEM_7411301_DESCTEXTMAP_394",
            "INMDBAEEHCC": "EVENTSITEM_7411301_LOCKDESCTEXTMAP_395",
            "CGNJAJCPBPM": "",
            "ALJNBBDEOEP": "UI_NPC_Quest_Kevin",
            "FCNHIMHPABN": "",
            "FAPBDKBCHMG": ""
        },
        "11314": {
            "$type": "BILMNMABNEL",
            "PEBJDHIMGDA": 11314,
            "PHBKGOACLOA": 74115,
            "itemType": "Clues",
            "JPAJKHODENF": 6,
            "sortID": 14,
            "AKEEMCCLLLE": "",
            "title": "EVENTSITEM_7411301_TITLETEXTMAP_396",
            "desc": "EVENTSITEM_7411301_DESCTEXTMAP_397",
            "INMDBAEEHCC": "EVENTSITEM_7411301_LOCKDESCTEXTMAP_398",
            "CGNJAJCPBPM": "",
            "ALJNBBDEOEP": "UI_NPC_Quest_Valberry",
            "FCNHIMHPABN": "",
            "FAPBDKBCHMG": ""
        },
        "11315": {
            "$type": "BILMNMABNEL",
            "PEBJDHIMGDA": 11315,
            "PHBKGOACLOA": 74115,
            "itemType": "Clues",
            "JPAJKHODENF": 6,
            "sortID": 15,
            "AKEEMCCLLLE": "",
            "title": "EVENTSITEM_7411301_TITLETEXTMAP_399",
            "desc": "EVENTSITEM_7411301_DESCTEXTMAP_400",
            "INMDBAEEHCC": "EVENTSITEM_7411301_LOCKDESCTEXTMAP_401",
            "CGNJAJCPBPM": "",
            "ALJNBBDEOEP": "UI_NPC_Quest_Baulard",
            "FCNHIMHPABN": "",
            "FAPBDKBCHMG": ""
        },
        "11321": {
            "$type": "ABPAKNJJCLP",
            "PEBJDHIMGDA": 11321,
            "PHBKGOACLOA": 74115,
            "itemType": "Evidence",
            "JPAJKHODENF": 2,
            "sortID": 16,
            "AKEEMCCLLLE": "",
            "title": "EVENTSITEM_7411301_TITLETEXTMAP_405",
            "desc": "EVENTSITEM_7411301_DESCTEXTMAP_406",
            "INMDBAEEHCC": "EVENTSITEM_7411301_LOCKDESCTEXTMAP_407",
            "CGNJAJCPBPM": "",
            "ALJNBBDEOEP": "UI_QuestIcon_400414",
            "FCNHIMHPABN": "",
            "IMBNOOJLJNO": 120656
        },
        "11322": {
            "$type": "ABPAKNJJCLP",
            "PEBJDHIMGDA": 11322,
            "PHBKGOACLOA": 74116,
            "itemType": "Evidence",
            "JPAJKHODENF": 1,
            "sortID": 17,
            "AKEEMCCLLLE": "UI_QuestIcon_120545",
            "title": "EVENTSITEM_7411301_TITLETEXTMAP_408",
            "desc": "EVENTSITEM_7411301_DESCTEXTMAP_409",
            "INMDBAEEHCC": "EVENTSITEM_7411301_LOCKDESCTEXTMAP_410",
            "CGNJAJCPBPM": "",
            "ALJNBBDEOEP": "UI_QuestIcon_120545",
            "FCNHIMHPABN": "UI_QuestIcon_120545",
            "IMBNOOJLJNO": 120545
        },
        "11320": {
            "$type": "ABPAKNJJCLP",
            "PEBJDHIMGDA": 11320,
            "PHBKGOACLOA": 74113,
            "itemType": "Evidence",
            "JPAJKHODENF": 4,
            "sortID": 4,
            "AKEEMCCLLLE": "UI_QuestIcon_120542",
            "title": "EVENTSITEM_7411301_TITLETEXTMAP_402",
            "desc": "EVENTSITEM_7411301_DESCTEXTMAP_403",
            "INMDBAEEHCC": "EVENTSITEM_7411301_LOCKDESCTEXTMAP_404",
            "CGNJAJCPBPM": "",
            "ALJNBBDEOEP": "UI_QuestIcon_120542",
            "FCNHIMHPABN": "UI_QuestIcon_120542",
            "LGBACOOIBJI": 1
        },
        "11323": {
            "$type": "ABPAKNJJCLP",
            "PEBJDHIMGDA": 11323,
            "PHBKGOACLOA": 74113,
            "itemType": "Evidence",
            "JPAJKHODENF": 4,
            "sortID": 4,
            "AKEEMCCLLLE": "UI_QuestIcon_120542",
            "title": "EVENTSITEM_7411301_TITLETEXTMAP_417",
            "desc": "EVENTSITEM_7411301_DESCTEXTMAP_418",
            "INMDBAEEHCC": "EVENTSITEM_7411301_LOCKDESCTEXTMAP_419",
            "CGNJAJCPBPM": "",
            "ALJNBBDEOEP": "UI_QuestIcon_120542",
            "FCNHIMHPABN": "UI_QuestIcon_120542",
            "LGBACOOIBJI": 1,
            "MICLPEGCKPL": 1
        },
        "11301": {
            "$type": "ABPAKNJJCLP",
            "PEBJDHIMGDA": 11301,
            "PHBKGOACLOA": 74113,
            "itemType": "Evidence",
            "JPAJKHODENF": 1,
            "sortID": 1,
            "AKEEMCCLLLE": "UI_QuestIcon_120533",
            "title": "EVENTSITEM_7411301_TITLETEXTMAP_360",
            "desc": "EVENTSITEM_7411301_DESCTEXTMAP_361",
            "INMDBAEEHCC": "EVENTSITEM_7411301_LOCKDESCTEXTMAP_362",
            "CGNJAJCPBPM": "",
            "ALJNBBDEOEP": "UI_QuestIcon_120533",
            "FCNHIMHPABN": "UI_QuestIcon_120533",
            "LGBACOOIBJI": 2
        },
        "11324": {
            "$type": "ABPAKNJJCLP",
            "PEBJDHIMGDA": 11324,
            "PHBKGOACLOA": 74115,
            "itemType": "Evidence",
            "JPAJKHODENF": 1,
            "sortID": 1,
            "AKEEMCCLLLE": "UI_QuestIcon_120533",
            "title": "EVENTSITEM_7411301_TITLETEXTMAP_435",
            "desc": "EVENTSITEM_7411301_DESCTEXTMAP_436",
            "INMDBAEEHCC": "EVENTSITEM_7411301_LOCKDESCTEXTMAP_437",
            "CGNJAJCPBPM": "",
            "ALJNBBDEOEP": "UI_QuestIcon_120533",
            "FCNHIMHPABN": "UI_QuestIcon_120533",
            "LGBACOOIBJI": 2,
            "MICLPEGCKPL": 1
        },
        "11306": {
            "$type": "ABPAKNJJCLP",
            "PEBJDHIMGDA": 11306,
            "PHBKGOACLOA": 74115,
            "itemType": "Evidence",
            "JPAJKHODENF": 2,
            "sortID": 6,
            "AKEEMCCLLLE": "UI_QuestIcon_120548",
            "title": "EVENTSITEM_7411301_TITLETEXTMAP_372",
            "desc": "EVENTSITEM_7411301_DESCTEXTMAP_373",
            "INMDBAEEHCC": "EVENTSITEM_7411301_LOCKDESCTEXTMAP_374",
            "CGNJAJCPBPM": "",
            "ALJNBBDEOEP": "UI_QuestIcon_120548",
            "FCNHIMHPABN": "UI_QuestIcon_120548",
            "LGBACOOIBJI": 3,
            "MPDICHHJHGE": 11325
        },
        "11325": {
            "$type": "ABPAKNJJCLP",
            "PEBJDHIMGDA": 11325,
            "PHBKGOACLOA": 74115,
            "itemType": "Evidence",
            "JPAJKHODENF": 2,
            "sortID": 6,
            "AKEEMCCLLLE": "UI_QuestIcon_120548",
            "title": "EVENTSITEM_7411301_TITLETEXTMAP_438",
            "desc": "EVENTSITEM_7411301_DESCTEXTMAP_439",
            "INMDBAEEHCC": "EVENTSITEM_7411301_LOCKDESCTEXTMAP_440",
            "CGNJAJCPBPM": "",
            "ALJNBBDEOEP": "UI_QuestIcon_120548",
            "FCNHIMHPABN": "UI_QuestIcon_120548",
            "IMBNOOJLJNO": 120543,
            "LGBACOOIBJI": 3,
            "MICLPEGCKPL": 1
        },
        "11303": {
            "$type": "ABPAKNJJCLP",
            "PEBJDHIMGDA": 11303,
            "PHBKGOACLOA": 74113,
            "itemType": "Evidence",
            "JPAJKHODENF": 1,
            "sortID": 3,
            "AKEEMCCLLLE": "UI_QuestIcon_120546",
            "title": "EVENTSITEM_7411301_TITLETEXTMAP_357",
            "desc": "EVENTSITEM_7411301_DESCTEXTMAP_358",
            "INMDBAEEHCC": "EVENTSITEM_7411301_LOCKDESCTEXTMAP_359",
            "CGNJAJCPBPM": "UI_QuestIcon_120546",
            "ALJNBBDEOEP": "UI_QuestIcon_120546",
            "FCNHIMHPABN": "",
            "LGBACOOIBJI": 4
        },
        "11326": {
            "$type": "ABPAKNJJCLP",
            "PEBJDHIMGDA": 11326,
            "PHBKGOACLOA": 74113,
            "itemType": "Evidence",
            "JPAJKHODENF": 1,
            "sortID": 3,
            "AKEEMCCLLLE": "UI_QuestIcon_120546",
            "title": "EVENTSITEM_7411301_TITLETEXTMAP_441",
            "desc": "EVENTSITEM_7411301_DESCTEXTMAP_442",
            "INMDBAEEHCC": "EVENTSITEM_7411301_LOCKDESCTEXTMAP_443",
            "CGNJAJCPBPM": "",
            "ALJNBBDEOEP": "UI_QuestIcon_120546",
            "FCNHIMHPABN": "UI_QuestIcon_120546",
            "LGBACOOIBJI": 4,
            "MICLPEGCKPL": 1
        },
        "11302": {
            "$type": "MFEJHMBGKKL",
            "PEBJDHIMGDA": 11302,
            "PHBKGOACLOA": 74113,
            "itemType": "Evidence",
            "JPAJKHODENF": 1,
            "sortID": 2,
            "AKEEMCCLLLE": "UI_QuestIcon_120544",
            "title": "EVENTSITEM_7411301_TITLETEXTMAP_366",
            "desc": "EVENTSITEM_7411301_DESCTEXTMAP_367",
            "INMDBAEEHCC": "EVENTSITEM_7411301_LOCKDESCTEXTMAP_368",
            "CGNJAJCPBPM": "",
            "ALJNBBDEOEP": "UI_QuestIcon_120544",
            "FCNHIMHPABN": "UI_QuestIcon_120544",
            "LGBACOOIBJI": 5
        },
        "11327": {
            "$type": "MFEJHMBGKKL",
            "PEBJDHIMGDA": 11327,
            "PHBKGOACLOA": 74113,
            "itemType": "Evidence",
            "JPAJKHODENF": 1,
            "sortID": 2,
            "AKEEMCCLLLE": "UI_QuestIcon_120544",
            "title": "EVENTSITEM_7411301_TITLETEXTMAP_447",
            "desc": "EVENTSITEM_7411301_DESCTEXTMAP_448",
            "INMDBAEEHCC": "EVENTSITEM_7411301_LOCKDESCTEXTMAP_449",
            "CGNJAJCPBPM": "",
            "ALJNBBDEOEP": "UI_QuestIcon_120544",
            "FCNHIMHPABN": "UI_QuestIcon_120544",
            "LGBACOOIBJI": 5,
            "MICLPEGCKPL": 1
        },
        "11304": {
            "$type": "ABPAKNJJCLP",
            "PEBJDHIMGDA": 11304,
            "PHBKGOACLOA": 74113,
            "itemType": "Evidence",
            "JPAJKHODENF": 1,
            "sortID": 4,
            "AKEEMCCLLLE": "UI_QuestIcon_120535",
            "title": "EVENTSITEM_7411301_TITLETEXTMAP_363",
            "desc": "EVENTSITEM_7411301_DESCTEXTMAP_364",
            "INMDBAEEHCC": "EVENTSITEM_7411301_LOCKDESCTEXTMAP_365",
            "CGNJAJCPBPM": "",
            "ALJNBBDEOEP": "UI_QuestIcon_120535",
            "FCNHIMHPABN": "UI_QuestIcon_120535",
            "LGBACOOIBJI": 6
        },
        "11328": {
            "$type": "ABPAKNJJCLP",
            "PEBJDHIMGDA": 11328,
            "PHBKGOACLOA": 74113,
            "itemType": "Evidence",
            "JPAJKHODENF": 1,
            "sortID": 4,
            "AKEEMCCLLLE": "UI_QuestIcon_120535",
            "title": "EVENTSITEM_7411301_TITLETEXTMAP_453",
            "desc": "EVENTSITEM_7411301_DESCTEXTMAP_454",
            "INMDBAEEHCC": "EVENTSITEM_7411301_LOCKDESCTEXTMAP_455",
            "CGNJAJCPBPM": "",
            "ALJNBBDEOEP": "UI_QuestIcon_120535",
            "FCNHIMHPABN": "UI_QuestIcon_120535",
            "LGBACOOIBJI": 6,
            "MICLPEGCKPL": 1
        },
        "11305": {
            "$type": "ABPAKNJJCLP",
            "PEBJDHIMGDA": 11305,
            "PHBKGOACLOA": 74113,
            "itemType": "Evidence",
            "JPAJKHODENF": 1,
            "sortID": 5,
            "AKEEMCCLLLE": "UI_QuestIcon_120534",
            "title": "EVENTSITEM_7411301_TITLETEXTMAP_369",
            "desc": "EVENTSITEM_7411301_DESCTEXTMAP_370",
            "INMDBAEEHCC": "EVENTSITEM_7411301_LOCKDESCTEXTMAP_371",
            "CGNJAJCPBPM": "",
            "ALJNBBDEOEP": "UI_QuestIcon_120534",
            "FCNHIMHPABN": "UI_QuestIcon_120534",
            "LGBACOOIBJI": 7
        },
        "11329": {
            "$type": "ABPAKNJJCLP",
            "PEBJDHIMGDA": 11329,
            "PHBKGOACLOA": 74113,
            "itemType": "Evidence",
            "JPAJKHODENF": 1,
            "sortID": 5,
            "AKEEMCCLLLE": "UI_QuestIcon_120534",
            "title": "EVENTSITEM_7411301_TITLETEXTMAP_459",
            "desc": "EVENTSITEM_7411301_DESCTEXTMAP_460",
            "INMDBAEEHCC": "EVENTSITEM_7411301_LOCKDESCTEXTMAP_461",
            "CGNJAJCPBPM": "",
            "ALJNBBDEOEP": "UI_QuestIcon_120534",
            "FCNHIMHPABN": "UI_QuestIcon_120534",
            "LGBACOOIBJI": 7,
            "MICLPEGCKPL": 1
        }
    },
    "FOCKDMCIIPN": [
        {
            "FBHHMOOAILC": 1,
            "name": "EVENTSLOCATION_7411301_NAMETEXTMAP_411"
        },
        {
            "FBHHMOOAILC": 2,
            "name": "EVENTSLOCATION_7411301_NAMETEXTMAP_412"
        },
        {
            "FBHHMOOAILC": 3,
            "name": "EVENTSLOCATION_7411301_NAMETEXTMAP_413"
        },
        {
            "FBHHMOOAILC": 4,
            "name": "EVENTSLOCATION_7411301_NAMETEXTMAP_414"
        }
    ],
    "OJJIHJBKFEK": [
        {
            "FBHHMOOAILC": 5,
            "name": "EVENTSLOCATION_7411301_NAMETEXTMAP_415"
        },
        {
            "FBHHMOOAILC": 6,
            "name": "EVENTSLOCATION_7411301_NAMETEXTMAP_416"
        }
    ],
    "OJEGOGBEABA": 74113
}