{
    "freeStyleStateMap": {
        "10100": [],
        "10101": [],
        "10201": [],
        "10301": [],
        "10401": [],
        "10501": [],
        "10601": [],
        "10701": [],
        "10801": [],
        "1231": [
            "Ani_Avatar_NPC_AkimboHand01BS_0",
            "Ani_Avatar_NPC_AkimboHand01BS_Sync_0",
            "Ani_Avatar_NPC_AkimboHand01Loop_0",
            "Ani_Avatar_NPC_AkimboHand01Loop_Sync_0",
            "Ani_Avatar_NPC_AkimboHand01AS_0",
            "Ani_Avatar_NPC_AkimboHand01AS_Sync_0",
            "Ani_Avatar_NPC_Akimbo01Loop_0",
            "Ani_Avatar_NPC_Akimbo01Loop_Sync_0",
            "Ani_Avatar_NPC_Akimbo01AS_0",
            "Ani_Avatar_NPC_Akimbo01AS_Sync_0"
        ],
        "1121": [
            "Ani_Avatar_NPC_HoldArmHand01BS_0",
            "Ani_Avatar_NPC_HoldArmHand01BS_Sync_0",
            "Ani_Avatar_NPC_HoldArmHand01Loop_0",
            "Ani_Avatar_NPC_HoldArmHand01Loop_Sync_0",
            "Ani_Avatar_NPC_HoldArmHand01AS_0",
            "Ani_Avatar_NPC_HoldArmHand01AS_Sync_0",
            "Ani_Avatar_NPC_HoldArm01Loop_0",
            "Ani_Avatar_NPC_HoldArm01Loop_Sync_0",
            "Ani_Avatar_NPC_HoldArm01AS_0",
            "Ani_Avatar_NPC_HoldArm01AS_Sync_0"
        ],
        "1191": [
            "Ani_Avatar_NPC_ThinkHand01BS_0",
            "Ani_Avatar_NPC_ThinkHand01Loop_0",
            "Ani_Avatar_NPC_ThinkHand01AS_0",
            "Ani_Avatar_NPC_Think01Loop_0",
            "Ani_Avatar_NPC_Think01Loop_Sync_0",
            "Ani_Avatar_NPC_Think01AS_0",
            "Ani_Avatar_NPC_Think01AS_Sync_0"
        ],
        "1221": [
            "Ani_Avatar_NPC_AkimboHand02BS_0",
            "Ani_Avatar_NPC_AkimboHand02BS_Sync_0",
            "Ani_Avatar_NPC_AkimboHand02Loop_0",
            "Ani_Avatar_NPC_AkimboHand02Loop_Sync_0",
            "Ani_Avatar_NPC_AkimboHand02AS_0",
            "Ani_Avatar_NPC_AkimboHand02AS_Sync_0",
            "Ani_Avatar_NPC_Akimbo02Loop_0",
            "Ani_Avatar_NPC_Akimbo02Loop_Sync_0",
            "Ani_Avatar_NPC_Akimbo02AS_0",
            "Ani_Avatar_NPC_Akimbo02AS_Sync_0"
        ],
        "8040": [
            "Ani_Avatar_NPC_SitHoldArm01BS_0",
            "Ani_Avatar_NPC_SitHoldArm01BS_Sync_0",
            "Ani_Avatar_NPC_SitHoldArm01Loop_0",
            "Ani_Avatar_NPC_SitHoldArm01Loop_Sync_0",
            "Ani_Avatar_NPC_SitHoldArm01AS_0",
            "Ani_Avatar_NPC_SitHoldArm01AS_Sync_0"
        ],
        "8012": [
            "Ani_Avatar_NPC_SitShrug01BS_0",
            "Ani_Avatar_NPC_SitShrug01BS_Sync_0",
            "Ani_Avatar_NPC_SitShrug01Loop_0",
            "Ani_Avatar_NPC_SitShrug01Loop_Sync_0",
            "Ani_Avatar_NPC_SitShrug01AS_0",
            "Ani_Avatar_NPC_SitShrug01AS_Sync_0"
        ],
        "8013": [
            "Ani_Avatar_NPC_SitThink01BS_0",
            "Ani_Avatar_NPC_SitThink01BS_Sync_0",
            "Ani_Avatar_NPC_SitThink01Loop_0",
            "Ani_Avatar_NPC_SitThink01Loop_Sync_0",
            "Ani_Avatar_NPC_SitThink01AS_0",
            "Ani_Avatar_NPC_SitThink01AS_Sync_0"
        ],
        "8011": [
            "Ani_Avatar_NPC_SitChat01BS_0",
            "Ani_Avatar_NPC_SitChat01BS_Sync_0",
            "Ani_Avatar_NPC_SitChat01Loop_0",
            "Ani_Avatar_NPC_SitChat01Loop_Sync_0",
            "Ani_Avatar_NPC_SitChat01AS_0",
            "Ani_Avatar_NPC_SitChat01AS_Sync_0"
        ],
        "8060": [
            "Ani_Avatar_NPC_SitPutArm01BS_0",
            "Ani_Avatar_NPC_SitPutArm01BS_Sync_0",
            "Ani_Avatar_NPC_SitPutArm01Loop_0",
            "Ani_Avatar_NPC_SitPutArm01Loop_Sync_0",
            "Ani_Avatar_NPC_SitPutArm01AS_0",
            "Ani_Avatar_NPC_SitPutArm01AS_Sync_0"
        ],
        "8041": [
            "Ani_Avatar_NPC_SitHoldArmHand01BS_0",
            "Ani_Avatar_NPC_SitHoldArmHand01BS_Sync_0",
            "Ani_Avatar_NPC_SitHoldArmHand01Loop_0",
            "Ani_Avatar_NPC_SitHoldArmHand01Loop_Sync_0",
            "Ani_Avatar_NPC_SitHoldArmHand01AS_0",
            "Ani_Avatar_NPC_SitHoldArmHand01AS_Sync_0",
            "Ani_Avatar_NPC_SitHoldArm01Loop_0",
            "Ani_Avatar_NPC_SitHoldArm01Loop_Sync_0",
            "Ani_Avatar_NPC_SitHoldArm01AS_0",
            "Ani_Avatar_NPC_SitHoldArm01AS_Sync_0"
        ],
        "1230": [
            "Ani_Avatar_NPC_Akimbo01BS_0",
            "Ani_Avatar_NPC_Akimbo01BS_Sync_0",
            "Ani_Avatar_NPC_Akimbo01Loop_0",
            "Ani_Avatar_NPC_Akimbo01Loop_Sync_0",
            "Ani_Avatar_NPC_Akimbo01AS_0",
            "Ani_Avatar_NPC_Akimbo01AS_Sync_0"
        ],
        "1040": [
            "Ani_Avatar_NPC_Backrake01BS_0",
            "Ani_Avatar_NPC_Backrake01BS_Sync_0",
            "Ani_Avatar_NPC_Backrake01Loop_0",
            "Ani_Avatar_NPC_Backrake01Loop_Sync_0",
            "Ani_Avatar_NPC_Backrake01AS_0",
            "Ani_Avatar_NPC_Backrake01AS_Sync_0"
        ],
        "1050": [
            "Ani_Avatar_NPC_Confuse01BS_0",
            "Ani_Avatar_NPC_Confuse01BS_Sync_0",
            "Ani_Avatar_NPC_Confuse01Loop_0",
            "Ani_Avatar_NPC_Confuse01Loop_Sync_0",
            "Ani_Avatar_NPC_Confuse01AS_0",
            "Ani_Avatar_NPC_Confuse01AS_Sync_0"
        ],
        "1060": [
            "Ani_Avatar_NPC_Forerake01BS_0",
            "Ani_Avatar_NPC_Forerake01BS_Sync_0",
            "Ani_Avatar_NPC_Forerake01Loop_0",
            "Ani_Avatar_NPC_Forerake01Loop_Sync_0",
            "Ani_Avatar_NPC_Forerake01AS_0",
            "Ani_Avatar_NPC_Forerake01AS_Sync_0"
        ],
        "1070": [
            "Ani_Avatar_NPC_Afraid01BS_0",
            "Ani_Avatar_NPC_Afraid01Loop_0",
            "Ani_Avatar_NPC_Afraid01AS_0"
        ],
        "1080": [
            "Ani_Avatar_NPC_Alert01BS_0",
            "Ani_Avatar_NPC_Alert01BS_Sync_0",
            "Ani_Avatar_NPC_Alert01Loop_0",
            "Ani_Avatar_NPC_Alert01Loop_Sync_0",
            "Ani_Avatar_NPC_Alert01AS_0",
            "Ani_Avatar_NPC_Alert01AS_Sync_0"
        ],
        "1090": [
            "Ani_Avatar_NPC_Shy01BS_0",
            "Ani_Avatar_NPC_Shy01BS_Sync_0",
            "Ani_Avatar_NPC_Shy01Loop_0",
            "Ani_Avatar_NPC_Shy01Loop_Sync_0",
            "Ani_Avatar_NPC_Shy01AS_0",
            "Ani_Avatar_NPC_Shy01AS_Sync_0"
        ],
        "1110": [
            "Ani_Avatar_NPC_Shrug01BS_0",
            "Ani_Avatar_NPC_Shrug01BS_Sync_0",
            "Ani_Avatar_NPC_Shrug01Loop_0",
            "Ani_Avatar_NPC_Shrug01Loop_Sync_0",
            "Ani_Avatar_NPC_Shrug01AS_0",
            "Ani_Avatar_NPC_Shrug01AS_Sync_0"
        ],
        "1120": [
            "Ani_Avatar_NPC_HoldArm01BS_0",
            "Ani_Avatar_NPC_HoldArm01BS_Sync_0",
            "Ani_Avatar_NPC_HoldArm01Loop_0",
            "Ani_Avatar_NPC_HoldArm01Loop_Sync_0",
            "Ani_Avatar_NPC_HoldArm01AS_0",
            "Ani_Avatar_NPC_HoldArm01AS_Sync_0"
        ],
        "1130": [
            "Ani_Avatar_NPC_StrikeChest01BS_0",
            "Ani_Avatar_NPC_StrikeChest01BS_Sync_0",
            "Ani_Avatar_NPC_StrikeChest01Loop_0",
            "Ani_Avatar_NPC_StrikeChest01Loop_Sync_0",
            "Ani_Avatar_NPC_StrikeChest01AS_0",
            "Ani_Avatar_NPC_StrikeChest01AS_Sync_0"
        ],
        "1140": [
            "Ani_Avatar_NPC_PointR01BS_0",
            "Ani_Avatar_NPC_PointR01Loop_0",
            "Ani_Avatar_NPC_PointR01AS_0"
        ],
        "1160": [
            "Ani_Avatar_NPC_Downcast01BS_0",
            "Ani_Avatar_NPC_Downcast01BS_Sync_0",
            "Ani_Avatar_NPC_Downcast01Loop_0",
            "Ani_Avatar_NPC_Downcast01Loop_Sync_0",
            "Ani_Avatar_NPC_Downcast01AS_0",
            "Ani_Avatar_NPC_Downcast01AS_Sync_0"
        ],
        "1170": [
            "Ani_Avatar_NPC_Chat01BS_0",
            "Ani_Avatar_NPC_Chat01BS_Sync_0",
            "Ani_Avatar_NPC_Chat01Loop_0",
            "Ani_Avatar_NPC_Chat01Loop_Sync_0",
            "Ani_Avatar_NPC_Chat01AS_0",
            "Ani_Avatar_NPC_Chat01AS_Sync_0"
        ],
        "1180": [
            "Ani_Avatar_NPC_Chat02BS_0",
            "Ani_Avatar_NPC_Chat02BS_Sync_0",
            "Ani_Avatar_NPC_Chat02Loop_0",
            "Ani_Avatar_NPC_Chat02Loop_Sync_0",
            "Ani_Avatar_NPC_Chat02AS_0",
            "Ani_Avatar_NPC_Chat02AS_Sync_0"
        ],
        "1190": [
            "Ani_Avatar_NPC_Think01BS_0",
            "Ani_Avatar_NPC_Think01BS_Sync_0",
            "Ani_Avatar_NPC_Think01Loop_0",
            "Ani_Avatar_NPC_Think01Loop_Sync_0",
            "Ani_Avatar_NPC_Think01AS_0",
            "Ani_Avatar_NPC_Think01AS_Sync_0"
        ],
        "9030": [],
        "9040": [],
        "1200": [
            "Ani_Avatar_NPC_Greet01_0",
            "Ani_Avatar_NPC_Greet01_Sync_0"
        ],
        "1220": [
            "Ani_Avatar_NPC_Akimbo02BS_0",
            "Ani_Avatar_NPC_Akimbo02BS_Sync_0",
            "Ani_Avatar_NPC_Akimbo02Loop_0",
            "Ani_Avatar_NPC_Akimbo02Loop_Sync_0",
            "Ani_Avatar_NPC_Akimbo02AS_0",
            "Ani_Avatar_NPC_Akimbo02AS_Sync_0"
        ],
        "1210": [
            "Ani_Avatar_NPC_SaluteMengde01BS_0",
            "Ani_Avatar_NPC_SaluteMengde01Loop_0",
            "Ani_Avatar_NPC_SaluteMengde01AS_0"
        ],
        "1240": [
            "Ani_Avatar_NPC_HoldHead01BS_0",
            "Ani_Avatar_NPC_HoldHead01BS_Sync_0",
            "Ani_Avatar_NPC_HoldHead01Loop_0",
            "Ani_Avatar_NPC_HoldHead01Loop_Sync_0",
            "Ani_Avatar_NPC_HoldHead01AS_0",
            "Ani_Avatar_NPC_HoldHead01AS_Sync_0"
        ],
        "1030": [
            "Ani_Avatar_NPC_PutHand01BS_0",
            "Ani_Avatar_NPC_PutHand01BS_Sync_0",
            "Ani_Avatar_NPC_PutHand01Loop_0",
            "Ani_Avatar_NPC_PutHand01Loop_Sync_0",
            "Ani_Avatar_NPC_PutHand01AS_0",
            "Ani_Avatar_NPC_PutHand01AS_Sync_0"
        ],
        "8010": [],
        "8020": [],
        "1142": [
            "Ani_Avatar_NPC_PointL01BS_0",
            "Ani_Avatar_NPC_PointL01Loop_0",
            "Ani_Avatar_NPC_PointL01AS_0"
        ],
        "1150": [
            "Ani_Avatar_NPC_Refuse01_0",
            "Ani_Avatar_NPC_Refuse01_Sync_0"
        ],
        "1171": [
            "Ani_Avatar_NPC_Talk01_0",
            "Ani_Avatar_NPC_Talk01_Sync_0"
        ],
        "1172": [
            "Ani_Avatar_NPC_Talk02_0",
            "Ani_Avatar_NPC_Talk02_Sync_0"
        ],
        "1173": [
            "Ani_Avatar_NPC_Talk03_0",
            "Ani_Avatar_NPC_Talk03_Sync_0"
        ],
        "1250": [
            "Ani_Avatar_NPC_Request01BS_0",
            "Ani_Avatar_NPC_Request01Loop_0",
            "Ani_Avatar_NPC_Request01AS_0"
        ],
        "1141": [
            "Ani_Avatar_NPC_PointF01BS_0",
            "Ani_Avatar_NPC_PointF01Loop_0",
            "Ani_Avatar_NPC_PointF01AS_0"
        ],
        "1260": [
            "Ani_Avatar_NPC_Clap01_0",
            "Ani_Avatar_NPC_Clap01_Sync_0"
        ],
        "1270": [
            "Ani_Avatar_NPC_Cheer01BS_0",
            "Ani_Avatar_NPC_Cheer01Loop_0",
            "Ani_Avatar_NPC_Cheer01AS_0"
        ],
        "1280": [
            "Ani_Avatar_NPC_Investigate01BS_0",
            "Ani_Avatar_NPC_Investigate01BS_Sync_0",
            "Ani_Avatar_NPC_Investigate01Loop_0",
            "Ani_Avatar_NPC_Investigate01Loop_Sync_0",
            "Ani_Avatar_NPC_Investigate01AS_0",
            "Ani_Avatar_NPC_Investigate01AS_Sync_0"
        ],
        "1290": [
            "Ani_Avatar_NPC_Laugh01_0",
            "Ani_Avatar_NPC_Laugh01_Sync_0"
        ],
        "1300": [
            "Ani_Avatar_NPC_Encourage01_0",
            "Ani_Avatar_NPC_Encourage01_Sync_0"
        ],
        "1310": [
            "Ani_Avatar_NPC_Dusting01_0"
        ],
        "4090": [
            "Ani_Avatar_PlayLyre01BS_0",
            "Ani_Avatar_Claymore_PlayLyre01BS_Sync_0",
            "Ani_Avatar_PlayLyre01Loop_0",
            "Ani_Avatar_Claymore_PlayLyre01Loop_Sync_0",
            "Ani_Avatar_PlayLyre01AS_0",
            "Ani_Avatar_Claymore_PlayLyre01AS_Sync_0"
        ],
        "4091": [
            "Ani_Avatar_PlayQin01BS_0",
            "Ani_Avatar_Claymore_PlayQin01BS_Sync_0",
            "Ani_Avatar_PlayQin01Loop_0",
            "Ani_Avatar_Claymore_PlayQin01Loop_Sync_0",
            "Ani_Avatar_PlayQin01AS_0",
            "Ani_Avatar_Claymore_PlayQin01AS_Sync_0"
        ]
    },
    "stateAnimeMap": {
        "Ani_Avatar_NPC_Akimbo01BS_0": 7170561056457563112,
        "Ani_Avatar_NPC_Akimbo01BS_Sync_0": 13575597255634530363,
        "Ani_Avatar_NPC_Akimbo01Loop_0": 28105177174861180,
        "Ani_Avatar_NPC_Akimbo01Loop_Sync_0": 9355661858106306546,
        "Ani_Avatar_NPC_Akimbo01AS_0": 5096274102340706692,
        "Ani_Avatar_NPC_Akimbo01AS_Sync_0": 11215664292937364178,
        "Ani_Avatar_NPC_Backrake01BS_0": 3716113960799457317,
        "Ani_Avatar_NPC_Backrake01BS_Sync_0": 7909160100873718792,
        "Ani_Avatar_NPC_Backrake01Loop_0": 5163346185393345159,
        "Ani_Avatar_NPC_Backrake01Loop_Sync_0": 18146171320309087198,
        "Ani_Avatar_NPC_Backrake01AS_0": 14866594958902827923,
        "Ani_Avatar_NPC_Backrake01AS_Sync_0": 14208084915283247977,
        "Ani_Avatar_NPC_Confuse01BS_0": 12903944942122590194,
        "Ani_Avatar_NPC_Confuse01BS_Sync_0": 6944588044433932266,
        "Ani_Avatar_NPC_Confuse01Loop_0": 4490850424240705685,
        "Ani_Avatar_NPC_Confuse01Loop_Sync_0": 1369004824039617417,
        "Ani_Avatar_NPC_Confuse01AS_0": 9107516294779088147,
        "Ani_Avatar_NPC_Confuse01AS_Sync_0": 1678563390559153686,
        "Ani_Avatar_NPC_Forerake01BS_0": 3635045794910836661,
        "Ani_Avatar_NPC_Forerake01BS_Sync_0": 13077905181445151232,
        "Ani_Avatar_NPC_Forerake01Loop_0": 17764409357293257469,
        "Ani_Avatar_NPC_Forerake01Loop_Sync_0": 16088617659252610035,
        "Ani_Avatar_NPC_Forerake01AS_0": 17889237588158039636,
        "Ani_Avatar_NPC_Forerake01AS_Sync_0": 8207273741088418031,
        "Ani_Avatar_NPC_Afraid01BS_0": 14327196935207323701,
        "Ani_Avatar_NPC_Afraid01Loop_0": 8181452246441218403,
        "Ani_Avatar_NPC_Afraid01AS_0": 13251841029804636759,
        "Ani_Avatar_NPC_Alert01BS_0": 9737739488219544636,
        "Ani_Avatar_NPC_Alert01BS_Sync_0": 17083685122947147272,
        "Ani_Avatar_NPC_Alert01Loop_0": 10827431483677887456,
        "Ani_Avatar_NPC_Alert01Loop_Sync_0": 6321950501565675383,
        "Ani_Avatar_NPC_Alert01AS_0": 8769202871165872477,
        "Ani_Avatar_NPC_Alert01AS_Sync_0": 8121541300685493632,
        "Ani_Avatar_NPC_Shy01BS_0": 3496475870786645860,
        "Ani_Avatar_NPC_Shy01BS_Sync_0": 6607988366780986869,
        "Ani_Avatar_NPC_Shy01Loop_0": 8185526891832290405,
        "Ani_Avatar_NPC_Shy01Loop_Sync_0": 12616558062562853708,
        "Ani_Avatar_NPC_Shy01AS_0": 6069781583774030399,
        "Ani_Avatar_NPC_Shy01AS_Sync_0": 4870960117015784637,
        "Ani_Avatar_NPC_Shrug01BS_0": 948948505767802488,
        "Ani_Avatar_NPC_Shrug01BS_Sync_0": 8831337215810755231,
        "Ani_Avatar_NPC_Shrug01Loop_0": 826813790150180883,
        "Ani_Avatar_NPC_Shrug01Loop_Sync_0": 1753972444124892018,
        "Ani_Avatar_NPC_Shrug01AS_0": 10099021340293521813,
        "Ani_Avatar_NPC_Shrug01AS_Sync_0": 367250348414687026,
        "Ani_Avatar_NPC_HoldArm01BS_0": 149410338178805922,
        "Ani_Avatar_NPC_HoldArm01BS_Sync_0": 7454592545481876366,
        "Ani_Avatar_NPC_HoldArm01Loop_0": 15908973743345176773,
        "Ani_Avatar_NPC_HoldArm01Loop_Sync_0": 5398347268741692502,
        "Ani_Avatar_NPC_HoldArm01AS_0": 9427185590862728821,
        "Ani_Avatar_NPC_HoldArm01AS_Sync_0": 8651887410626747019,
        "Ani_Avatar_NPC_StrikeChest01BS_0": 1909632418817671545,
        "Ani_Avatar_NPC_StrikeChest01BS_Sync_0": 2495379472364794157,
        "Ani_Avatar_NPC_StrikeChest01Loop_0": 8742129497219637499,
        "Ani_Avatar_NPC_StrikeChest01Loop_Sync_0": 15731053000050764870,
        "Ani_Avatar_NPC_StrikeChest01AS_0": 4214378326159682627,
        "Ani_Avatar_NPC_StrikeChest01AS_Sync_0": 10274711277625364207,
        "Ani_Avatar_NPC_PointR01BS_0": 14869295281824533958,
        "Ani_Avatar_NPC_PointR01Loop_0": 1052410777437668909,
        "Ani_Avatar_NPC_PointR01AS_0": 1884575597880894811,
        "Ani_Avatar_NPC_Downcast01BS_0": 13648720498986149560,
        "Ani_Avatar_NPC_Downcast01BS_Sync_0": 340721092943163245,
        "Ani_Avatar_NPC_Downcast01Loop_0": 11149516742491375101,
        "Ani_Avatar_NPC_Downcast01Loop_Sync_0": 7917142915731789814,
        "Ani_Avatar_NPC_Downcast01AS_0": 368493915874238960,
        "Ani_Avatar_NPC_Downcast01AS_Sync_0": 3614812666469540700,
        "Ani_Avatar_NPC_Chat01BS_0": 17158896574457923831,
        "Ani_Avatar_NPC_Chat01BS_Sync_0": 7388668121345160558,
        "Ani_Avatar_NPC_Chat01Loop_0": 13422523195793756536,
        "Ani_Avatar_NPC_Chat01Loop_Sync_0": 248157440373284075,
        "Ani_Avatar_NPC_Chat01AS_0": 1467453189409912035,
        "Ani_Avatar_NPC_Chat01AS_Sync_0": 652385279217810817,
        "Ani_Avatar_NPC_Chat02BS_0": 5757270846917587464,
        "Ani_Avatar_NPC_Chat02BS_Sync_0": 13254765547217467198,
        "Ani_Avatar_NPC_Chat02Loop_0": 13558395712417551113,
        "Ani_Avatar_NPC_Chat02Loop_Sync_0": 13475440063919567836,
        "Ani_Avatar_NPC_Chat02AS_0": 8805753145230277354,
        "Ani_Avatar_NPC_Chat02AS_Sync_0": 5746243330112927599,
        "Ani_Avatar_NPC_Think01BS_0": 8031951918318590684,
        "Ani_Avatar_NPC_Think01BS_Sync_0": 18310942308771475801,
        "Ani_Avatar_NPC_Think01Loop_0": 1697591378693258012,
        "Ani_Avatar_NPC_Think01Loop_Sync_0": 11554060163087947094,
        "Ani_Avatar_NPC_Think01AS_0": 9122294348488362805,
        "Ani_Avatar_NPC_Think01AS_Sync_0": 17047133847995076493,
        "Ani_Avatar_NPC_Greet01_0": 5221332120018759625,
        "Ani_Avatar_NPC_Greet01_Sync_0": 422535481312209221,
        "Ani_Avatar_NPC_AkimboHand01BS_0": 470324415574860620,
        "Ani_Avatar_NPC_AkimboHand01BS_Sync_0": 9950602433467142282,
        "Ani_Avatar_NPC_AkimboHand01Loop_0": 11145165109955621359,
        "Ani_Avatar_NPC_AkimboHand01Loop_Sync_0": 7163069449182625073,
        "Ani_Avatar_NPC_AkimboHand01AS_0": 14952030525545612958,
        "Ani_Avatar_NPC_AkimboHand01AS_Sync_0": 7013763505583628143,
        "Ani_Avatar_NPC_Akimbo02BS_0": 2651803249306857227,
        "Ani_Avatar_NPC_Akimbo02BS_Sync_0": 10466634776621504047,
        "Ani_Avatar_NPC_Akimbo02Loop_0": 8467238733242256264,
        "Ani_Avatar_NPC_Akimbo02Loop_Sync_0": 9020813202007315719,
        "Ani_Avatar_NPC_Akimbo02AS_0": 11772972481829928173,
        "Ani_Avatar_NPC_Akimbo02AS_Sync_0": 5499899650012309276,
        "Ani_Avatar_NPC_HoldArmHand01BS_0": 16518600584126587833,
        "Ani_Avatar_NPC_HoldArmHand01BS_Sync_0": 2896459893333432742,
        "Ani_Avatar_NPC_HoldArmHand01Loop_0": 4730051137571469122,
        "Ani_Avatar_NPC_HoldArmHand01Loop_Sync_0": 5281198988741405063,
        "Ani_Avatar_NPC_HoldArmHand01AS_0": 9336885681574059245,
        "Ani_Avatar_NPC_HoldArmHand01AS_Sync_0": 16974487877079533820,
        "Ani_Avatar_NPC_ThinkHand01BS_0": 4520193562327621740,
        "Ani_Avatar_NPC_ThinkHand01Loop_0": 4685591793458092770,
        "Ani_Avatar_NPC_ThinkHand01AS_0": 1232463843505178630,
        "Ani_Avatar_NPC_AkimboHand02BS_0": 1611513443005390211,
        "Ani_Avatar_NPC_AkimboHand02BS_Sync_0": 13980990535478175722,
        "Ani_Avatar_NPC_AkimboHand02AS_0": 7872345205474002691,
        "Ani_Avatar_NPC_AkimboHand02AS_Sync_0": 7006274336360001121,
        "Ani_Avatar_NPC_AkimboHand02Loop_0": 8714413725760737032,
        "Ani_Avatar_NPC_AkimboHand02Loop_Sync_0": 5794011913942876475,
        "Ani_Avatar_NPC_SaluteMengde01BS_0": 4089873108114987838,
        "Ani_Avatar_NPC_HoldHead01BS_0": 1023649425259361352,
        "Ani_Avatar_NPC_HoldHead01BS_Sync_0": 274226108086311658,
        "Ani_Avatar_NPC_HoldHead01Loop_0": 1028943737652066823,
        "Ani_Avatar_NPC_HoldHead01Loop_Sync_0": 1030433451476346540,
        "Ani_Avatar_NPC_HoldHead01AS_0": 7837424032646610710,
        "Ani_Avatar_NPC_HoldHead01AS_Sync_0": 11314114695529144449,
        "Ani_Avatar_NPC_PutHand01BS_0": 16527144681778013178,
        "Ani_Avatar_NPC_PutHand01BS_Sync_0": 17270110940323844838,
        "Ani_Avatar_NPC_PutHand01Loop_0": 993409251386459405,
        "Ani_Avatar_NPC_PutHand01Loop_Sync_0": 17605309835284708629,
        "Ani_Avatar_NPC_PutHand01AS_0": 2818938040188307726,
        "Ani_Avatar_NPC_PutHand01AS_Sync_0": 14862231216352317009,
        "Ani_Avatar_NPC_SaluteMengde01Loop_0": 5102257562538352003,
        "Ani_Avatar_NPC_SaluteMengde01AS_0": 12910649759341312920,
        "Ani_Avatar_NPC_PointF01BS_0": 15576368258137814558,
        "Ani_Avatar_NPC_PointF01Loop_0": 1712291104573849836,
        "Ani_Avatar_NPC_PointF01AS_0": 11880326032671776594,
        "Ani_Avatar_NPC_PointL01AS_0": 15197588262710047716,
        "Ani_Avatar_NPC_PointL01Loop_0": 10133726658243780334,
        "Ani_Avatar_NPC_PointL01BS_0": 11897655131193051710,
        "Ani_Avatar_NPC_Refuse01_0": 14862295362699290410,
        "Ani_Avatar_NPC_Refuse01_Sync_0": 10519919061441464985,
        "Ani_Avatar_NPC_Talk01_0": 6790157231851488297,
        "Ani_Avatar_NPC_Talk01_Sync_0": 6420295731131804080,
        "Ani_Avatar_NPC_Talk02_0": 18028788832485002585,
        "Ani_Avatar_NPC_Talk02_Sync_0": 15274544631844248585,
        "Ani_Avatar_NPC_Talk03_0": 14561760082592094158,
        "Ani_Avatar_NPC_Talk03_Sync_0": 2044004656287686085,
        "Ani_Avatar_NPC_Request01BS_0": 1645911422758139498,
        "Ani_Avatar_NPC_Request01Loop_0": 13054578888778993295,
        "Ani_Avatar_NPC_Request01AS_0": 16943343831829181130,
        "Ani_Avatar_NPC_Clap01_0": 10837897357635882994,
        "Ani_Avatar_NPC_Clap01_Sync_0": 16192309369361523795,
        "Ani_Avatar_NPC_Cheer01BS_0": 9919632557245268380,
        "Ani_Avatar_NPC_Cheer01Loop_0": 4504541070587991229,
        "Ani_Avatar_NPC_Cheer01AS_0": 11365935788967547977,
        "Ani_Avatar_NPC_Investigate01BS_0": 13109909550193364192,
        "Ani_Avatar_NPC_Investigate01BS_Sync_0": 17915620843023864142,
        "Ani_Avatar_NPC_Investigate01Loop_0": 17975078262446710472,
        "Ani_Avatar_NPC_Investigate01Loop_Sync_0": 655208499046047576,
        "Ani_Avatar_NPC_Investigate01AS_0": 14093983267067344147,
        "Ani_Avatar_NPC_Investigate01AS_Sync_0": 17835362112570828340,
        "Ani_Avatar_NPC_Laugh01_0": 2464960071123391090,
        "Ani_Avatar_NPC_Laugh01_Sync_0": 11655662218996822769,
        "Ani_Avatar_NPC_Encourage01_0": 2041834854010035548,
        "Ani_Avatar_NPC_Encourage01_Sync_0": 10457413238001455250,
        "Ani_Avatar_NPC_Dusting01_0": 8817864504632608220,
        "Ani_Avatar_NPC_SitHoldArm01Loop_0": 533099280387179377,
        "Ani_Avatar_NPC_SitHoldArm01Loop_Sync_0": 13123703856459699880,
        "Ani_Avatar_NPC_SitHoldArm01AS_0": 26584731767543147,
        "Ani_Avatar_NPC_SitHoldArm01AS_Sync_0": 9653928920269135408,
        "Ani_Avatar_NPC_SitHoldArmHand01AS_0": 6000162104205733943,
        "Ani_Avatar_NPC_SitHoldArmHand01AS_Sync_0": 11318034600355300286,
        "Ani_Avatar_NPC_SitHoldArmHand01BS_0": 13310495112791934496,
        "Ani_Avatar_NPC_SitHoldArmHand01BS_Sync_0": 18434843722119150734,
        "Ani_Avatar_NPC_SitHoldArmHand01Loop_0": 16556311444396228428,
        "Ani_Avatar_NPC_SitHoldArmHand01Loop_Sync_0": 11791988898911434756,
        "Ani_Avatar_NPC_SitHoldArm01BS_0": 6407953465256279547,
        "Ani_Avatar_NPC_SitHoldArm01BS_Sync_0": 10937223038164297921,
        "Ani_Avatar_NPC_SitShrug01BS_0": 27110369804128622,
        "Ani_Avatar_NPC_SitShrug01BS_Sync_0": 1719531007820809074,
        "Ani_Avatar_NPC_SitShrug01Loop_0": 3950658360970801442,
        "Ani_Avatar_NPC_SitShrug01Loop_Sync_0": 17381546656662118532,
        "Ani_Avatar_NPC_SitShrug01AS_0": 10650347659011988711,
        "Ani_Avatar_NPC_SitShrug01AS_Sync_0": 11629689728662152580,
        "Ani_Avatar_NPC_SitThink01AS_0": 11731416370684395936,
        "Ani_Avatar_NPC_SitThink01AS_Sync_0": 1072070458571783325,
        "Ani_Avatar_NPC_SitThink01Loop_0": 3627997034186050400,
        "Ani_Avatar_NPC_SitThink01Loop_Sync_0": 14371864808894570639,
        "Ani_Avatar_NPC_SitThink01BS_0": 13591139315613617186,
        "Ani_Avatar_NPC_SitThink01BS_Sync_0": 13578468501706703088,
        "Ani_Avatar_NPC_SitChat01AS_0": 14267715484740818284,
        "Ani_Avatar_NPC_SitChat01AS_Sync_0": 14892770068043486622,
        "Ani_Avatar_NPC_SitChat01Loop_0": 14718282956958995209,
        "Ani_Avatar_NPC_SitChat01Loop_Sync_0": 9428757612463255628,
        "Ani_Avatar_NPC_SitChat01BS_0": 14105994822988134263,
        "Ani_Avatar_NPC_SitChat01BS_Sync_0": 3904133614445218195,
        "Ani_Avatar_PlayQin01BS_0": 6631471260171092195,
        "Ani_Avatar_Claymore_PlayQin01BS_Sync_0": 613766747533487394,
        "Ani_Avatar_PlayLyre01BS_0": 7040952514586193431,
        "Ani_Avatar_Claymore_PlayLyre01BS_Sync_0": 1509919584074507999,
        "Ani_Avatar_PlayQin01AS_0": 793179029584258167,
        "Ani_Avatar_Claymore_PlayQin01AS_Sync_0": 17872428424356648977,
        "Ani_Avatar_PlayQin01Loop_0": 14209344216982972452,
        "Ani_Avatar_Claymore_PlayQin01Loop_Sync_0": 13716344494126442577,
        "Ani_Avatar_PlayLyre01AS_0": 2834181650918499917,
        "Ani_Avatar_Claymore_PlayLyre01AS_Sync_0": 1442010188487824122,
        "Ani_Avatar_PlayLyre01Loop_0": 3084128628876051132,
        "Ani_Avatar_Claymore_PlayLyre01Loop_Sync_0": 8921383731592218585,
        "Ani_Avatar_NPC_SitPutArm01AS_0": 1900297136491637605,
        "Ani_Avatar_NPC_SitPutArm01AS_Sync_0": 14548569607584329014,
        "Ani_Avatar_NPC_SitPutArm01Loop_0": 12754724109657480339,
        "Ani_Avatar_NPC_SitPutArm01Loop_Sync_0": 4857888996261605700,
        "Ani_Avatar_NPC_SitPutArm01BS_0": 12040190075069621363,
        "Ani_Avatar_NPC_SitPutArm01BS_Sync_0": 5787347942115164912
    }
}