{
    "name": "Char_Skill_11061",
    "LBJBMKBADGI": {
        "-2060930438": {
            "$type": "JMNPJNKIBNE",
            "value": 2
        },
        "476224977": {
            "$type": "GBMLNFDAKNE",
            "type": "Element"
        },
        "-1197212178": {
            "$type": "KHOGOPHAOEK",
            "type": "EffectNum",
            "value": 1
        }
    }
}