{
    "DBHEKOGPEPB": {
        "339759009": 4026556416,
        "339806655": 4160774144,
        "339818902": 3758096384,
        "339818903": 3758112768,
        "339759164": 3758096384,
        "339759166": 3758096384,
        "339759167": 3758096384,
        "339759190": 3221225472,
        "339759191": 3221225472,
        "339759193": 4026531840,
        "339759195": 4026531840,
        "339759196": 4026531840,
        "339776473": 4294967295,
        "339799804": 4160749568,
        "339799930": 3758096384,
        "339836579": 4093633535,
        "339836580": 4160749568,
        "339841311": 4026531840,
        "339862256": 4026531840,
        "339862259": 4286578688,
        "339759221": 3221225472,
        "339759223": 3758096384,
        "339759225": 3758096384,
        "339759228": 2147483648,
        "339759229": 3221225472,
        "339759230": 3221225472,
        "339785548": 2147483648,
        "339785549": 3758112768,
        "339841312": 3221225472,
        "339841313": 3221225472,
        "339862261": 3221225472,
        "339765778": 4227858432,
        "339766101": 4294967295,
        "339767466": 4293983230,
        "339767479": 4261412864,
        "339767480": 4286578688,
        "339770663": 3221225472,
        "339800664": 3221225472,
        "339803922": 4290772992,
        "339841848": 3221225472,
        "339841850": 4292870144,
        "339841851": 4290772992,
        "339841853": 2147483648,
        "339844406": 4294967295,
        "339841855": 4290772992,
        "339841856": 4294901758,
        "339841857": 4294967295,
        "339841858": 4261412864,
        "339841860": 4227858432,
        "339841865": 4294967295,
        "339846999": 2147483648,
        "339847003": 3758096384,
        "339847001": 4286578688,
        "339874836": 2147483648,
        "339856126": 4286578688,
        "339856129": 4160749568,
        "339856130": 3221225472,
        "339856133": 2147483648,
        "339856140": 3221225472,
        "339856143": 4278190080,
        "339856148": 4294967295,
        "339855986": 4286578688,
        "339855988": 4278190080,
        "339855989": 4290772992,
        "339855990": 4290772992,
        "339855991": 4287627008,
        "339855992": 4286578688,
        "339855996": 3758096384,
        "339855997": 4278190080,
        "339855999": 4026531840,
        "339856000": 2147483648,
        "339856001": 4227858432,
        "339856002": 3758096384,
        "339856020": 3758096384,
        "339856021": 2147483648,
        "339856022": 520191999,
        "339856023": 4294967295,
        "339856024": 4294967295,
        "339856040": 4278190080,
        "339856062": 4278190080,
        "339856066": 4294967295,
        "339856067": 4294967295,
        "339856121": 4292870144,
        "339867407": 4278190080,
        "339867408": 4294508540,
        "339874847": 4278190080,
        "339855322": 4294967295,
        "339781490": 4294967295,
        "339859213": 1073709055,
        "339838130": 4286578688,
        "339838862": 4278190080,
        "339838863": 4294967295,
        "339838846": 4294967295,
        "339838849": 4294967295,
        "339838855": 4286578688,
        "339840773": 3221225472,
        "339847424": 4160749568,
        "339847425": 4026531840,
        "339859008": 4294705152,
        "339867410": 4294967295,
        "339875542": 4026531840,
        "339824663": 4227858432,
        "339824664": 4278190080,
        "339838850": 4294967295,
        "339838857": 4261412864,
        "339855324": 4294705152,
        "339875543": 2147483648,
        "339867411": 4294918143,
        "339863807": 4294508536,
        "339875544": 4290772992,
        "339840705": 4286578688,
        "339859212": 4294705152,
        "339845750": 4294967295,
        "339845751": 4294705152,
        "339781433": 4286578688,
        "339840814": 4294967295,
        "339873667": 4294967295,
        "339783590": 4292870144,
        "339783593": 4294507518,
        "339783594": 4227858432,
        "339783597": 2148466719,
        "339783599": 4294934527,
        "339783601": 4265607167,
        "339783602": 4294967294,
        "339798905": 4294901752,
        "339799564": 4286578688,
        "339799783": 4294967295,
        "339799784": 4290838272,
        "339799786": 4294967295,
        "339800013": 4294967295,
        "339800014": 4294967295,
        "339800497": 4160749568,
        "339801826": 3758096384,
        "339801827": 4227858432,
        "339802192": 2147483648,
        "339802195": 4026531840,
        "339806669": 4294967295,
        "339806670": 4294967295,
        "339806672": 4294967295,
        "339806673": 4028621119,
        "339825955": 4294967295,
        "339825957": 4294967295,
        "339783633": 2147483648,
        "339800084": 4026560536,
        "339800498": 4026531840,
        "339800543": 4026531840,
        "339801009": 4294967295,
        "339799568": 3758112768,
        "339799993": 3221225472,
        "339800491": 4227858432,
        "339800492": 4160749568,
        "339800541": 4026560512,
        "339802194": 4160749568,
        "339806671": 4294967295,
        "339825952": 4026531840,
        "339799569": 3758096384,
        "339799789": 2147483648,
        "339800296": 4294443008,
        "339799570": 4160749568,
        "339799571": 4160749568,
        "339800008": 4294443008,
        "339800010": 4294967295,
        "339800011": 4294967295,
        "339800012": 4294967295,
        "339800141": 2147483648,
        "339800142": 4294967295,
        "339800295": 4160749568,
        "339800490": 4278190080,
        "339800533": 4026531840,
        "339800535": 4278190080,
        "339800540": 3221225472,
        "339801010": 4294967295,
        "339801825": 4160749568,
        "339802190": 2172649472,
        "339802191": 3221225472,
        "339804003": 4278190080,
        "339804147": 3489611775,
        "339822959": 4294967295,
        "339822960": 4294967294,
        "339825956": 4294967295,
        "339838860": 4286578688,
        "339847165": 4294967295,
        "339847166": 4294967295,
        "339804005": 4286578688,
        "339806674": 4294967294,
        "339806737": 4292870144,
        "339806738": 4294443008,
        "339806739": 4290772992
    },
    "HJMEJGGHPBL": [
        {
            "AILCLHPEOGM": "Tag_2",
            "IGAGHEABBEL": [
                339759009,
                339806655,
                339818902,
                339818903,
                339874856,
                339759164,
                339759166,
                339759167,
                339759190,
                339759191,
                339759193,
                339759195,
                339759196,
                339799804,
                339799930,
                339806733,
                339836579,
                339836580,
                339841311,
                339862254,
                339862255,
                339862256,
                339862259,
                339862260,
                339759221,
                339759223,
                339759225,
                339759228,
                339759229,
                339759230,
                339785548,
                339785549,
                339862261,
                339826141,
                339826142,
                339826143,
                339826144,
                339826146,
                339826147,
                339826148,
                339826150,
                339826151,
                339826153,
                339826154,
                339845708,
                339845709,
                339846298,
                339867860,
                339873798,
                339873799,
                339873800,
                339873801,
                339873802,
                339873803,
                339873804,
                339873805,
                339873806,
                339873807,
                339873808,
                339873809,
                339873810,
                339873811,
                339873812,
                339874845,
                339766464,
                339767462,
                339765773,
                339765778,
                339766101,
                339767442,
                339767466,
                339767479,
                339767480,
                339770654,
                339770663,
                339780581,
                339780582,
                339800329,
                339800330,
                339800332,
                339800664,
                339800343,
                339800344,
                339800667,
                339800668,
                339803922,
                339825494,
                339841848,
                339841849,
                339841850,
                339841851,
                339841853,
                339844406,
                339841855,
                339841856,
                339841857,
                339841858,
                339841860,
                339841865,
                339841868,
                339846996,
                339846997,
                339846999,
                339847000,
                339847003,
                339846998,
                339847001,
                339847002,
                339847004,
                339874836,
                339874837,
                339856126,
                339856127,
                339856128,
                339856129,
                339856130,
                339856132,
                339856133,
                339856134,
                339856135,
                339856136,
                339856137,
                339856138,
                339856139,
                339856140,
                339856143,
                339856148,
                339855986,
                339855988,
                339855989,
                339855990,
                339855991,
                339855992,
                339855993,
                339855994,
                339855995,
                339855996,
                339855997,
                339855998,
                339855999,
                339856000,
                339856001,
                339856002,
                339856003,
                339856004,
                339856007,
                339856008,
                339856009,
                339856010,
                339856011,
                339856012,
                339856013,
                339856014,
                339856015,
                339856016,
                339856017,
                339856018,
                339856019,
                339856020,
                339856021,
                339856022,
                339856023,
                339856024,
                339856040,
                339856062,
                339856066,
                339856067,
                339856073,
                339856097,
                339856121,
                339856124,
                339859205,
                339867407,
                339867408,
                339867859,
                339874847,
                339855322,
                339781490,
                339859213,
                339838130,
                339838862,
                339838863,
                339838846,
                339838849,
                339838855,
                339840773,
                339847424,
                339847425,
                339859008,
                339867410,
                339875541,
                339875542,
                339824663,
                339824664,
                339838850,
                339838857,
                339840769,
                339855324,
                339875543,
                339867411,
                339863807,
                339875544,
                339840705,
                339840768,
                339859212,
                339781432,
                339781433,
                339840766,
                339840814,
                339873667,
                339783590,
                339783592,
                339783593,
                339783594,
                339783595,
                339783596,
                339783597,
                339783598,
                339783599,
                339783600,
                339783601,
                339783602,
                339798905,
                339799564,
                339799783,
                339799784,
                339799785,
                339799786,
                339799795,
                339800013,
                339800014,
                339800244,
                339800299,
                339800302,
                339800345,
                339800346,
                339800497,
                339800524,
                339801826,
                339801827,
                339802192,
                339802195,
                339806669,
                339806670,
                339806672,
                339806673,
                339812964,
                339825955,
                339825957,
                339826012,
                339826013,
                339826566,
                339783609,
                339783622,
                339783625,
                339783633,
                339800498,
                339800543,
                339799568,
                339799993,
                339800301,
                339800491,
                339800492,
                339800541,
                339800899,
                339802194,
                339806671,
                339825952,
                339799569,
                339799788,
                339799789,
                339799799,
                339800296,
                339800433,
                339800536,
                339800537,
                339801008,
                339799570,
                339799571,
                339800008,
                339800010,
                339800011,
                339800012,
                339800141,
                339800142,
                339800305,
                339800435,
                339800490,
                339800500,
                339800533,
                339800535,
                339800540,
                339800542,
                339800544,
                339800937,
                339801824,
                339801889,
                339802190,
                339802191,
                339802193,
                339804003,
                339804147,
                339804148,
                339804149,
                339806740,
                339822959,
                339822960,
                339825956,
                339838860,
                339804005,
                339806674,
                339806737,
                339806738,
                339806739,
                339799819,
                339811485
            ]
        }
    ],
    "EEGDCHELFAP": [
        339759009,
        339806655,
        339818902,
        339818903,
        339874856,
        339759164,
        339759166,
        339759167,
        339759190,
        339759191,
        339759193,
        339759195,
        339759196,
        339766094,
        339776473,
        339799804,
        339799930,
        339806733,
        339836579,
        339836580,
        339841311,
        339862254,
        339862255,
        339862256,
        339862257,
        339862258,
        339862259,
        339862260,
        339759221,
        339759223,
        339759225,
        339759228,
        339759229,
        339759230,
        339785548,
        339785549,
        339841312,
        339841313,
        339862261,
        339826141,
        339826142,
        339826143,
        339826144,
        339826146,
        339826147,
        339826148,
        339826150,
        339826151,
        339826153,
        339826154,
        339845708,
        339845709,
        339846298,
        339867860,
        339873798,
        339873799,
        339873800,
        339873801,
        339873802,
        339873803,
        339873804,
        339873805,
        339873806,
        339873807,
        339873808,
        339873809,
        339873810,
        339873811,
        339873812,
        339874845,
        339766464,
        339767462,
        339765773,
        339765778,
        339766101,
        339767442,
        339767466,
        339767479,
        339767480,
        339770654,
        339770655,
        339770663,
        339780581,
        339780582,
        339800287,
        339800289,
        339800329,
        339800330,
        339800332,
        339800664,
        339800343,
        339800344,
        339800667,
        339800668,
        339803922,
        339825494,
        339841848,
        339841849,
        339841850,
        339841851,
        339841853,
        339844406,
        339841855,
        339841856,
        339841857,
        339841858,
        339841860,
        339841865,
        339841868,
        339846996,
        339846997,
        339846999,
        339847000,
        339847003,
        339846998,
        339847001,
        339847002,
        339847004,
        339874836,
        339874837,
        339856126,
        339856127,
        339856128,
        339856129,
        339856130,
        339856132,
        339856133,
        339856134,
        339856135,
        339856136,
        339856137,
        339856138,
        339856139,
        339856140,
        339856143,
        339856148,
        339855986,
        339855988,
        339855989,
        339855990,
        339855991,
        339855992,
        339855993,
        339855994,
        339855995,
        339855996,
        339855997,
        339855998,
        339855999,
        339856000,
        339856001,
        339856002,
        339856003,
        339856004,
        339856007,
        339856008,
        339856009,
        339856010,
        339856011,
        339856012,
        339856013,
        339856014,
        339856015,
        339856016,
        339856017,
        339856018,
        339856019,
        339856020,
        339856021,
        339856022,
        339856023,
        339856024,
        339856040,
        339856062,
        339856066,
        339856067,
        339856073,
        339856097,
        339856121,
        339856124,
        339859205,
        339867407,
        339867408,
        339867859,
        339874847,
        339855322,
        339781490,
        339859213,
        339838130,
        339838862,
        339838863,
        339838846,
        339838849,
        339838855,
        339840773,
        339847424,
        339847425,
        339859008,
        339867410,
        339875541,
        339875542,
        339824663,
        339824664,
        339838850,
        339838857,
        339840769,
        339855324,
        339875543,
        339867411,
        339863807,
        339875544,
        339840705,
        339840768,
        339859212,
        339845750,
        339845751,
        339781432,
        339781433,
        339840766,
        339840814,
        339873667,
        339783590,
        339783592,
        339783593,
        339783594,
        339783595,
        339783596,
        339783597,
        339783598,
        339783599,
        339783600,
        339783601,
        339783602,
        339798905,
        339799564,
        339799783,
        339799784,
        339799785,
        339799786,
        339799795,
        339800013,
        339800014,
        339800244,
        339800299,
        339800302,
        339800345,
        339800346,
        339800497,
        339800524,
        339801826,
        339801827,
        339802192,
        339802195,
        339806669,
        339806670,
        339806672,
        339806673,
        339812964,
        339825955,
        339825957,
        339826012,
        339826013,
        339826566,
        339783609,
        339783622,
        339783625,
        339783633,
        339800498,
        339800543,
        339799568,
        339799993,
        339800301,
        339800491,
        339800492,
        339800541,
        339800899,
        339802194,
        339806671,
        339825952,
        339799569,
        339799788,
        339799789,
        339799799,
        339800296,
        339800433,
        339800536,
        339800537,
        339801008,
        339799570,
        339799571,
        339800008,
        339800010,
        339800011,
        339800012,
        339800141,
        339800142,
        339800305,
        339800435,
        339800490,
        339800500,
        339800533,
        339800535,
        339800540,
        339800542,
        339800544,
        339800937,
        339801824,
        339801889,
        339802190,
        339802191,
        339802193,
        339804003,
        339804004,
        339804147,
        339804148,
        339804149,
        339806740,
        339822959,
        339822960,
        339825956,
        339838860,
        339804005,
        339806674,
        339806737,
        339806738,
        339806739,
        339799819,
        339811484,
        339811485
    ]
}