{
    "id": 133,
    "stageMatureEvents": [
        "Play_Amb_Dungeon_CYDungeon_Activy"
    ],
    "stageExitEvents": [
        "Stop_Amb_Dungeon_CYDungeon_Activy",
        "Stop_Amb_Dungeon_Common_Outdoor",
        "State_Music_NonCombat"
    ],
    "stateValue": "State_Dungeon_CYJY_Rogue",
    "KILINABMDFC": {
        "text": "Play_Music_Dungeon"
    },
    "LLIDCCLAENC": {
        "text": "Stop_Music_Dungeon"
    }
}