{
    "luaDataPath": "",
    "entityBan": "",
    "group": [
        [
            {
                "$type": "CCEEIGNAILH",
                "type": "DIALOG_CLEAR"
            }
        ],
        [
            {
                "$type": "HDJMINLNCLO",
                "type": "SHOP_EXCHANGE",
                "JHMMLOGDCJJ": "SHOP_TYPE_NPC_Azalai"
            }
        ],
        [
            {
                "$type": "BCJBNCJOPCE",
                "type": "CAMERA_MOVE",
                "duration": 1.0,
                "KNAICGCGOHN": "EXIT",
                "KOPGEAIDOOE": "TO_INTEE",
                "KJGNHMHGCEK": 5.0,
                "KIPMIDIKECP": "",
                "BDLGHOJPJHD": "",
                "LCOJGFEOLCK": "",
                "BBBGAEDCJEL": ""
            }
        ]
    ]
}