{
    "luaDataPath": "",
    "startBlackKeepTime": 0.5,
    "entityBan": "",
    "disableNpcLod": true,
    "startFade": {
        "startFadeInDuration": 0.5,
        "startFadeOutDuration": 0.5
    },
    "endFade": {
        "startFadeOutDuration": 0.0
    },
    "actors": [
        {
            "alias": "Avatar",
            "visible": true,
            "bornPointName": "Q2008born",
            "relativePosNpcAlias": "",
            "bindMovingTargetKey": ""
        },
        {
            "configID": 1005,
            "alias": "1005",
            "visible": true,
            "bornPointName": "Q2008paimon",
            "relativePosNpcAlias": "",
            "bindMovingTargetKey": ""
        }
    ],
    "group": [
        [
            {
                "$type": "MoleMole.Config.ConfigTimeProtectAction",
                "type": "TIME_PROTECT",
                "duration": 2.0
            },
            {
                "$type": "MoleMole.Config.ConfigBlackScreenAction",
                "type": "BLACK_SCREEN",
                "delayTime": 0.5,
                "duration": 1.5,
                "blackScreenType": "KEEP_BLACK",
                "durationKeepBlack": 1.5,
                "inteePos": "",
                "textMapID": "",
                "useTextFade": true
            },
            {
                "$type": "MoleMole.Config.ConfigBlackScreenAction",
                "type": "BLACK_SCREEN",
                "duration": 0.5,
                "blackScreenType": "TO_BLACK",
                "durationToBlack": 0.5,
                "inteePos": "",
                "textMapID": "",
                "useTextFade": true
            }
        ],
        [
            {
                "$type": "FOMCPCOIMIK",
                "type": "CUTSCENE",
                "FGGLJJNOAFL": {
                    "$type": "FOAMGDNKJFE",
                    "preTaskCfg": {
                        "BOCMBGGGDPG": ""
                    },
                    "luaDataPath": "",
                    "resPath": "",
                    "castListPath": "",
                    "entityBan": ""
                },
                "LMHLEOPOLEK": 20080401
            }
        ],
        [
            {
                "$type": "MoleMole.Config.ConfigTimeProtectAction",
                "type": "TIME_PROTECT",
                "duration": 0.10000000149011612
            },
            {
                "$type": "MoleMole.Config.ConfigTimeProtectAction",
                "type": "TIME_PROTECT",
                "duration": 1.0
            },
            {
                "$type": "MoleMole.Config.ConfigSimpleBlackScreenAction",
                "type": "SIMPLE_BLACK_SCREEN",
                "durationKeepBlack": 3.0,
                "durationFromBlack": 0.5,
                "textMapID": "",
                "useTextFade": true
            }
        ]
    ],
    "groupId": [
        {
            "grpId": 2510821828,
            "nextGrpId": 2510821829
        },
        {
            "index": 1,
            "grpId": 2510821829,
            "nextGrpId": 2510821830
        },
        {
            "index": 2,
            "grpId": 2510821830,
            "nextGrpId": 2510821831
        }
    ]
}