{
    "sceneId": 35905,
    "monsters": [
        {
            "groupId": 235905001,
            "mapInstId": 1003,
            "aiGroupID": 235905001,
            "aiNeuronSetting": "DefaultSetting",
            "aiSensingTemplate": "DefaultTemplate",
            "forceCombatOnSpawn": true,
            "disableWander": true,
            "OPOFAEBHLLK": "",
            "OGJHDDPDNKM": ""
        },
        {
            "groupId": 235905001,
            "mapInstId": 1004,
            "aiGroupID": 235905001,
            "aiNeuronSetting": "DefaultSetting",
            "aiSensingTemplate": "DefaultTemplate",
            "forceCombatOnSpawn": true,
            "disableWander": true,
            "OPOFAEBHLLK": "",
            "OGJHDDPDNKM": ""
        },
        {
            "groupId": 235905001,
            "mapInstId": 1005,
            "aiGroupID": 235905001,
            "aiNeuronSetting": "DefaultSetting",
            "aiSensingTemplate": "DefaultTemplate",
            "forceCombatOnSpawn": true,
            "disableWander": true,
            "OPOFAEBHLLK": "",
            "OGJHDDPDNKM": ""
        },
        {
            "groupId": 235905001,
            "mapInstId": 1006,
            "aiGroupID": 235905001,
            "aiNeuronSetting": "DefaultSetting",
            "aiSensingTemplate": "DefaultTemplate",
            "forceCombatOnSpawn": true,
            "disableWander": true,
            "OPOFAEBHLLK": "",
            "OGJHDDPDNKM": ""
        },
        {
            "groupId": 235905001,
            "mapInstId": 1007,
            "aiGroupID": 235905001,
            "aiNeuronSetting": "DefaultSetting",
            "aiSensingTemplate": "DefaultTemplate",
            "forceCombatOnSpawn": true,
            "disableWander": true,
            "OPOFAEBHLLK": "",
            "OGJHDDPDNKM": ""
        },
        {
            "groupId": 235905001,
            "mapInstId": 1008,
            "aiGroupID": 235905001,
            "aiNeuronSetting": "DefaultSetting",
            "aiSensingTemplate": "DefaultTemplate",
            "forceCombatOnSpawn": true,
            "disableWander": true,
            "OPOFAEBHLLK": "",
            "OGJHDDPDNKM": ""
        },
        {
            "groupId": 235905001,
            "mapInstId": 1009,
            "aiGroupID": 235905001,
            "aiNeuronSetting": "DefaultSetting",
            "aiSensingTemplate": "DefaultTemplate",
            "forceCombatOnSpawn": true,
            "disableWander": true,
            "OPOFAEBHLLK": "",
            "OGJHDDPDNKM": ""
        },
        {
            "groupId": 235905001,
            "mapInstId": 1010,
            "aiGroupID": 235905001,
            "aiNeuronSetting": "DefaultSetting",
            "aiSensingTemplate": "DefaultTemplate",
            "forceCombatOnSpawn": true,
            "disableWander": true,
            "OPOFAEBHLLK": "",
            "OGJHDDPDNKM": ""
        },
        {
            "groupId": 235905001,
            "mapInstId": 1011,
            "aiGroupID": 235905001,
            "aiNeuronSetting": "DefaultSetting",
            "aiSensingTemplate": "DefaultTemplate",
            "forceCombatOnSpawn": true,
            "disableWander": true,
            "OPOFAEBHLLK": "",
            "OGJHDDPDNKM": ""
        },
        {
            "groupId": 235905001,
            "mapInstId": 1012,
            "aiGroupID": 235905001,
            "aiNeuronSetting": "DefaultSetting",
            "aiSensingTemplate": "DefaultTemplate",
            "forceCombatOnSpawn": true,
            "disableWander": true,
            "OPOFAEBHLLK": "",
            "OGJHDDPDNKM": ""
        },
        {
            "groupId": 235905001,
            "mapInstId": 1013,
            "aiGroupID": 235905001,
            "aiNeuronSetting": "DefaultSetting",
            "aiSensingTemplate": "DefaultTemplate",
            "forceCombatOnSpawn": true,
            "disableWander": true,
            "OPOFAEBHLLK": "",
            "OGJHDDPDNKM": ""
        },
        {
            "groupId": 235905001,
            "mapInstId": 1014,
            "aiGroupID": 235905001,
            "aiNeuronSetting": "DefaultSetting",
            "aiSensingTemplate": "DefaultTemplate",
            "forceCombatOnSpawn": true,
            "disableWander": true,
            "OPOFAEBHLLK": "",
            "OGJHDDPDNKM": ""
        },
        {
            "groupId": 235905001,
            "mapInstId": 1015,
            "aiGroupID": 235905001,
            "aiNeuronSetting": "DefaultSetting",
            "aiSensingTemplate": "DefaultTemplate",
            "forceCombatOnSpawn": true,
            "disableWander": true,
            "OPOFAEBHLLK": "",
            "OGJHDDPDNKM": ""
        },
        {
            "groupId": 235905001,
            "mapInstId": 1016,
            "aiGroupID": 235905001,
            "aiNeuronSetting": "DefaultSetting",
            "aiSensingTemplate": "DefaultTemplate",
            "forceCombatOnSpawn": true,
            "disableWander": true,
            "OPOFAEBHLLK": "",
            "OGJHDDPDNKM": ""
        },
        {
            "groupId": 235905001,
            "mapInstId": 1017,
            "aiGroupID": 235905001,
            "aiNeuronSetting": "DefaultSetting",
            "aiSensingTemplate": "DefaultTemplate",
            "forceCombatOnSpawn": true,
            "disableWander": true,
            "OPOFAEBHLLK": "",
            "OGJHDDPDNKM": ""
        },
        {
            "groupId": 235905001,
            "mapInstId": 1018,
            "aiGroupID": 235905001,
            "aiNeuronSetting": "DefaultSetting",
            "aiSensingTemplate": "DefaultTemplate",
            "forceCombatOnSpawn": true,
            "disableWander": true,
            "OPOFAEBHLLK": "",
            "OGJHDDPDNKM": ""
        },
        {
            "groupId": 235905001,
            "mapInstId": 1019,
            "aiGroupID": 235905001,
            "aiNeuronSetting": "DefaultSetting",
            "aiSensingTemplate": "DefaultTemplate",
            "forceCombatOnSpawn": true,
            "disableWander": true,
            "OPOFAEBHLLK": "",
            "OGJHDDPDNKM": ""
        },
        {
            "groupId": 235905001,
            "mapInstId": 1020,
            "aiGroupID": 235905001,
            "aiNeuronSetting": "DefaultSetting",
            "aiSensingTemplate": "DefaultTemplate",
            "forceCombatOnSpawn": true,
            "disableWander": true,
            "OPOFAEBHLLK": "",
            "OGJHDDPDNKM": ""
        },
        {
            "groupId": 235905001,
            "mapInstId": 1021,
            "aiGroupID": 235905001,
            "aiNeuronSetting": "DefaultSetting",
            "aiSensingTemplate": "DefaultTemplate",
            "forceCombatOnSpawn": true,
            "disableWander": true,
            "OPOFAEBHLLK": "",
            "OGJHDDPDNKM": ""
        },
        {
            "groupId": 235905001,
            "mapInstId": 1022,
            "aiGroupID": 235905001,
            "aiNeuronSetting": "DefaultSetting",
            "aiSensingTemplate": "DefaultTemplate",
            "forceCombatOnSpawn": true,
            "disableWander": true,
            "OPOFAEBHLLK": "",
            "OGJHDDPDNKM": ""
        },
        {
            "groupId": 235905001,
            "mapInstId": 1023,
            "aiGroupID": 235905001,
            "aiNeuronSetting": "DefaultSetting",
            "aiSensingTemplate": "DefaultTemplate",
            "forceCombatOnSpawn": true,
            "disableWander": true,
            "OPOFAEBHLLK": "",
            "OGJHDDPDNKM": ""
        },
        {
            "groupId": 235905001,
            "mapInstId": 1024,
            "aiGroupID": 235905001,
            "aiNeuronSetting": "DefaultSetting",
            "aiSensingTemplate": "DefaultTemplate",
            "forceCombatOnSpawn": true,
            "disableWander": true,
            "OPOFAEBHLLK": "",
            "OGJHDDPDNKM": ""
        },
        {
            "groupId": 235905001,
            "mapInstId": 1025,
            "aiGroupID": 235905001,
            "aiNeuronSetting": "DefaultSetting",
            "aiSensingTemplate": "DefaultTemplate",
            "forceCombatOnSpawn": true,
            "disableWander": true,
            "OPOFAEBHLLK": "",
            "OGJHDDPDNKM": ""
        },
        {
            "groupId": 235905001,
            "mapInstId": 1026,
            "aiGroupID": 235905001,
            "aiNeuronSetting": "DefaultSetting",
            "aiSensingTemplate": "DefaultTemplate",
            "forceCombatOnSpawn": true,
            "disableWander": true,
            "OPOFAEBHLLK": "",
            "OGJHDDPDNKM": ""
        },
        {
            "groupId": 235905001,
            "mapInstId": 1028,
            "aiGroupID": 235905001,
            "aiNeuronSetting": "DefaultSetting",
            "aiSensingTemplate": "DefaultTemplate",
            "forceCombatOnSpawn": true,
            "disableWander": true,
            "OPOFAEBHLLK": "",
            "OGJHDDPDNKM": ""
        },
        {
            "groupId": 235905001,
            "mapInstId": 1029,
            "aiGroupID": 235905001,
            "aiNeuronSetting": "DefaultSetting",
            "aiSensingTemplate": "DefaultTemplate",
            "forceCombatOnSpawn": true,
            "disableWander": true,
            "OPOFAEBHLLK": "",
            "OGJHDDPDNKM": ""
        },
        {
            "groupId": 235905001,
            "mapInstId": 1030,
            "aiGroupID": 235905001,
            "aiNeuronSetting": "DefaultSetting",
            "aiSensingTemplate": "DefaultTemplate",
            "forceCombatOnSpawn": true,
            "disableWander": true,
            "OPOFAEBHLLK": "",
            "OGJHDDPDNKM": ""
        },
        {
            "groupId": 235905001,
            "mapInstId": 1031,
            "aiGroupID": 235905001,
            "aiNeuronSetting": "DefaultSetting",
            "aiSensingTemplate": "DefaultTemplate",
            "forceCombatOnSpawn": true,
            "disableWander": true,
            "OPOFAEBHLLK": "",
            "OGJHDDPDNKM": ""
        },
        {
            "groupId": 235905001,
            "mapInstId": 1032,
            "aiGroupID": 235905001,
            "aiNeuronSetting": "DefaultSetting",
            "aiSensingTemplate": "DefaultTemplate",
            "forceCombatOnSpawn": true,
            "disableWander": true,
            "OPOFAEBHLLK": "",
            "OGJHDDPDNKM": ""
        },
        {
            "groupId": 235905001,
            "mapInstId": 1033,
            "aiGroupID": 235905001,
            "aiNeuronSetting": "DefaultSetting",
            "aiSensingTemplate": "DefaultTemplate",
            "forceCombatOnSpawn": true,
            "disableWander": true,
            "OPOFAEBHLLK": "",
            "OGJHDDPDNKM": ""
        },
        {
            "groupId": 235905001,
            "mapInstId": 1034,
            "aiGroupID": 235905001,
            "aiNeuronSetting": "DefaultSetting",
            "aiSensingTemplate": "DefaultTemplate",
            "forceCombatOnSpawn": true,
            "disableWander": true,
            "OPOFAEBHLLK": "",
            "OGJHDDPDNKM": ""
        },
        {
            "groupId": 235905001,
            "mapInstId": 1035,
            "aiGroupID": 235905001,
            "aiNeuronSetting": "DefaultSetting",
            "aiSensingTemplate": "DefaultTemplate",
            "forceCombatOnSpawn": true,
            "disableWander": true,
            "OPOFAEBHLLK": "",
            "OGJHDDPDNKM": ""
        },
        {
            "groupId": 235905001,
            "mapInstId": 1036,
            "aiGroupID": 235905001,
            "aiNeuronSetting": "DefaultSetting",
            "aiSensingTemplate": "DefaultTemplate",
            "forceCombatOnSpawn": true,
            "disableWander": true,
            "OPOFAEBHLLK": "",
            "OGJHDDPDNKM": ""
        },
        {
            "groupId": 235905001,
            "mapInstId": 1037,
            "aiGroupID": 235905001,
            "aiNeuronSetting": "DefaultSetting",
            "aiSensingTemplate": "DefaultTemplate",
            "forceCombatOnSpawn": true,
            "disableWander": true,
            "OPOFAEBHLLK": "",
            "OGJHDDPDNKM": ""
        },
        {
            "groupId": 235905001,
            "mapInstId": 1038,
            "aiGroupID": 235905001,
            "aiNeuronSetting": "DefaultSetting",
            "aiSensingTemplate": "DefaultTemplate",
            "forceCombatOnSpawn": true,
            "disableWander": true,
            "OPOFAEBHLLK": "",
            "OGJHDDPDNKM": ""
        },
        {
            "groupId": 235905001,
            "mapInstId": 1039,
            "aiGroupID": 235905001,
            "aiNeuronSetting": "DefaultSetting",
            "aiSensingTemplate": "DefaultTemplate",
            "forceCombatOnSpawn": true,
            "disableWander": true,
            "OPOFAEBHLLK": "",
            "OGJHDDPDNKM": ""
        },
        {
            "groupId": 235905001,
            "mapInstId": 1040,
            "aiGroupID": 235905001,
            "aiNeuronSetting": "DefaultSetting",
            "aiSensingTemplate": "DefaultTemplate",
            "forceCombatOnSpawn": true,
            "disableWander": true,
            "OPOFAEBHLLK": "",
            "OGJHDDPDNKM": ""
        },
        {
            "groupId": 235905001,
            "mapInstId": 1041,
            "aiGroupID": 235905001,
            "aiNeuronSetting": "DefaultSetting",
            "aiSensingTemplate": "DefaultTemplate",
            "forceCombatOnSpawn": true,
            "disableWander": true,
            "OPOFAEBHLLK": "",
            "OGJHDDPDNKM": ""
        },
        {
            "groupId": 235905001,
            "mapInstId": 1042,
            "aiGroupID": 235905001,
            "aiNeuronSetting": "DefaultSetting",
            "aiSensingTemplate": "DefaultTemplate",
            "forceCombatOnSpawn": true,
            "disableWander": true,
            "OPOFAEBHLLK": "",
            "OGJHDDPDNKM": ""
        },
        {
            "groupId": 235905001,
            "mapInstId": 1043,
            "aiGroupID": 235905001,
            "aiNeuronSetting": "DefaultSetting",
            "aiSensingTemplate": "DefaultTemplate",
            "forceCombatOnSpawn": true,
            "disableWander": true,
            "OPOFAEBHLLK": "",
            "OGJHDDPDNKM": ""
        },
        {
            "groupId": 235905001,
            "mapInstId": 1044,
            "aiGroupID": 235905001,
            "aiNeuronSetting": "DefaultSetting",
            "aiSensingTemplate": "DefaultTemplate",
            "forceCombatOnSpawn": true,
            "disableWander": true,
            "OPOFAEBHLLK": "",
            "OGJHDDPDNKM": ""
        },
        {
            "groupId": 235905001,
            "mapInstId": 1045,
            "aiGroupID": 235905001,
            "aiNeuronSetting": "DefaultSetting",
            "aiSensingTemplate": "DefaultTemplate",
            "forceCombatOnSpawn": true,
            "disableWander": true,
            "OPOFAEBHLLK": "",
            "OGJHDDPDNKM": ""
        },
        {
            "groupId": 235905001,
            "mapInstId": 1046,
            "aiGroupID": 235905001,
            "aiNeuronSetting": "DefaultSetting",
            "aiSensingTemplate": "DefaultTemplate",
            "forceCombatOnSpawn": true,
            "disableWander": true,
            "OPOFAEBHLLK": "",
            "OGJHDDPDNKM": ""
        },
        {
            "groupId": 235905001,
            "mapInstId": 1047,
            "aiGroupID": 235905001,
            "aiNeuronSetting": "DefaultSetting",
            "aiSensingTemplate": "DefaultTemplate",
            "forceCombatOnSpawn": true,
            "disableWander": true,
            "OPOFAEBHLLK": "",
            "OGJHDDPDNKM": ""
        }
    ]
}