{
    "sceneId": 20174,
    "monsters": [
        {
            "groupId": 220174007,
            "mapInstId": 7001,
            "aiNeuronSetting": "NeverCombat",
            "aiSensingTemplate": "NeverCombatTemplate",
            "disableWander": true,
            "OPOFAEBHLLK": "",
            "PMPHFNADDFK": true,
            "NPHJOAECJBI": true,
            "OGJHDDPDNKM": "NeverCombat"
        },
        {
            "groupId": 220174007,
            "mapInstId": 7003,
            "aiNeuronSetting": "NeverCombat",
            "aiSensingTemplate": "NeverCombatTemplate",
            "disableWander": true,
            "OPOFAEBHLLK": "",
            "PMPHFNADDFK": true,
            "NPHJOAECJBI": true,
            "OGJHDDPDNKM": "NeverCombat"
        }
    ]
}