{
    "sceneId": 3,
    "monsters": [
        {
            "groupId": 133223065,
            "mapInstId": 65005,
            "routeId": 322300094,
            "aiNeuronSetting": "DefaultSetting",
            "aiSensingTemplate": "DefaultTemplate",
            "OPOFAEBHLLK": "",
            "OGJHDDPDNKM": ""
        },
        {
            "groupId": 133225073,
            "mapInstId": 73001,
            "aiGroupID": 133225073,
            "defendAreaID": 322500002,
            "aiNeuronSetting": "DefaultSetting",
            "aiSensingTemplate": "DefaultTemplate",
            "disableWander": true,
            "OPOFAEBHLLK": "",
            "OGJHDDPDNKM": ""
        },
        {
            "groupId": 133225073,
            "mapInstId": 73002,
            "routeId": 322500009,
            "aiGroupID": 133225073,
            "aiNeuronSetting": "DefaultSetting",
            "aiSensingTemplate": "DefaultTemplate",
            "OPOFAEBHLLK": "",
            "OGJHDDPDNKM": ""
        },
        {
            "groupId": 133225073,
            "mapInstId": 73010,
            "aiGroupID": 133225073,
            "defendAreaID": 322500002,
            "aiNeuronSetting": "DefaultSetting",
            "aiSensingTemplate": "DefaultTemplate",
            "disableWander": true,
            "OPOFAEBHLLK": "",
            "OGJHDDPDNKM": ""
        },
        {
            "groupId": 133225073,
            "mapInstId": 73011,
            "aiGroupID": 133225073,
            "defendAreaID": 322500002,
            "aiNeuronSetting": "DefaultSetting",
            "aiSensingTemplate": "DefaultTemplate",
            "disableWander": true,
            "OPOFAEBHLLK": "",
            "OGJHDDPDNKM": ""
        },
        {
            "groupId": 133225073,
            "mapInstId": 73012,
            "aiGroupID": 133225073,
            "aiNeuronSetting": "DefaultSetting",
            "aiSensingTemplate": "DefaultTemplate",
            "disableWander": true,
            "OPOFAEBHLLK": "",
            "OGJHDDPDNKM": ""
        },
        {
            "groupId": 133225073,
            "mapInstId": 73013,
            "aiGroupID": 133225073,
            "aiNeuronSetting": "DefaultSetting",
            "aiSensingTemplate": "DefaultTemplate",
            "disableWander": true,
            "OPOFAEBHLLK": "",
            "OGJHDDPDNKM": ""
        },
        {
            "groupId": 133225073,
            "mapInstId": 73014,
            "aiGroupID": 133225073,
            "aiNeuronSetting": "DefaultSetting",
            "aiSensingTemplate": "DefaultTemplate",
            "disableWander": true,
            "OPOFAEBHLLK": "",
            "OGJHDDPDNKM": ""
        },
        {
            "groupId": 133225073,
            "mapInstId": 73015,
            "routeId": 322500011,
            "aiGroupID": 133225073,
            "aiNeuronSetting": "DefaultSetting",
            "aiSensingTemplate": "DefaultTemplate",
            "OPOFAEBHLLK": "",
            "OGJHDDPDNKM": ""
        },
        {
            "groupId": 133225073,
            "mapInstId": 73016,
            "routeId": 322500010,
            "aiGroupID": 133225073,
            "aiNeuronSetting": "DefaultSetting",
            "aiSensingTemplate": "DefaultTemplate",
            "OPOFAEBHLLK": "",
            "OGJHDDPDNKM": ""
        },
        {
            "groupId": 133225076,
            "mapInstId": 76001,
            "aiGroupID": 133225076,
            "defendAreaID": 322500003,
            "aiNeuronSetting": "DefaultSetting",
            "aiSensingTemplate": "DefaultTemplate",
            "disableWander": true,
            "OPOFAEBHLLK": "",
            "OGJHDDPDNKM": ""
        },
        {
            "groupId": 133225076,
            "mapInstId": 76002,
            "aiGroupID": 133225076,
            "aiNeuronSetting": "DefaultSetting",
            "aiSensingTemplate": "DefaultTemplate",
            "disableWander": true,
            "OPOFAEBHLLK": "",
            "OGJHDDPDNKM": ""
        },
        {
            "groupId": 133225076,
            "mapInstId": 76003,
            "aiGroupID": 133225076,
            "aiNeuronSetting": "DefaultSetting",
            "aiSensingTemplate": "DefaultTemplate",
            "disableWander": true,
            "OPOFAEBHLLK": "",
            "OGJHDDPDNKM": ""
        },
        {
            "groupId": 133225076,
            "mapInstId": 76010,
            "aiGroupID": 133225076,
            "defendAreaID": 322500003,
            "aiNeuronSetting": "DefaultSetting",
            "aiSensingTemplate": "DefaultTemplate",
            "disableWander": true,
            "OPOFAEBHLLK": "",
            "OGJHDDPDNKM": ""
        },
        {
            "groupId": 133225076,
            "mapInstId": 76011,
            "aiGroupID": 133225076,
            "defendAreaID": 322500003,
            "aiNeuronSetting": "DefaultSetting",
            "aiSensingTemplate": "DefaultTemplate",
            "disableWander": true,
            "OPOFAEBHLLK": "",
            "OGJHDDPDNKM": ""
        },
        {
            "groupId": 133225076,
            "mapInstId": 76012,
            "aiGroupID": 133225076,
            "defendAreaID": 322500003,
            "aiNeuronSetting": "DefaultSetting",
            "aiSensingTemplate": "DefaultTemplate",
            "disableWander": true,
            "OPOFAEBHLLK": "",
            "OGJHDDPDNKM": ""
        },
        {
            "groupId": 133225076,
            "mapInstId": 76013,
            "aiGroupID": 133225076,
            "aiNeuronSetting": "DefaultSetting",
            "aiSensingTemplate": "DefaultTemplate",
            "disableWander": true,
            "OPOFAEBHLLK": "",
            "OGJHDDPDNKM": ""
        },
        {
            "groupId": 133225076,
            "mapInstId": 76014,
            "aiGroupID": 133225076,
            "aiNeuronSetting": "DefaultSetting",
            "aiSensingTemplate": "DefaultTemplate",
            "disableWander": true,
            "OPOFAEBHLLK": "",
            "OGJHDDPDNKM": ""
        },
        {
            "groupId": 133225076,
            "mapInstId": 76015,
            "aiGroupID": 133225076,
            "aiNeuronSetting": "DefaultSetting",
            "aiSensingTemplate": "DefaultTemplate",
            "disableWander": true,
            "OPOFAEBHLLK": "",
            "OGJHDDPDNKM": ""
        },
        {
            "groupId": 133225076,
            "mapInstId": 76016,
            "aiGroupID": 133225076,
            "aiNeuronSetting": "DefaultSetting",
            "aiSensingTemplate": "DefaultTemplate",
            "disableWander": true,
            "OPOFAEBHLLK": "",
            "OGJHDDPDNKM": ""
        },
        {
            "groupId": 133225076,
            "mapInstId": 76017,
            "aiGroupID": 133225076,
            "aiNeuronSetting": "DefaultSetting",
            "aiSensingTemplate": "DefaultTemplate",
            "disableWander": true,
            "OPOFAEBHLLK": "",
            "OGJHDDPDNKM": ""
        },
        {
            "groupId": 133225076,
            "mapInstId": 76018,
            "aiGroupID": 133225076,
            "aiNeuronSetting": "DefaultSetting",
            "aiSensingTemplate": "DefaultTemplate",
            "disableWander": true,
            "OPOFAEBHLLK": "",
            "OGJHDDPDNKM": ""
        },
        {
            "groupId": 133225082,
            "mapInstId": 82001,
            "aiGroupID": 133225082,
            "aiNeuronSetting": "DefaultSetting",
            "aiSensingTemplate": "DefaultTemplate",
            "disableWander": true,
            "OPOFAEBHLLK": "",
            "OGJHDDPDNKM": ""
        },
        {
            "groupId": 133225082,
            "mapInstId": 82002,
            "aiGroupID": 133225082,
            "aiNeuronSetting": "DefaultSetting",
            "aiSensingTemplate": "DefaultTemplate",
            "disableWander": true,
            "OPOFAEBHLLK": "",
            "OGJHDDPDNKM": ""
        },
        {
            "groupId": 133225082,
            "mapInstId": 82003,
            "aiGroupID": 133225082,
            "aiNeuronSetting": "DefaultSetting",
            "aiSensingTemplate": "DefaultTemplate",
            "disableWander": true,
            "OPOFAEBHLLK": "",
            "OGJHDDPDNKM": ""
        },
        {
            "groupId": 133225082,
            "mapInstId": 82010,
            "routeId": 322500021,
            "aiGroupID": 133225082,
            "aiNeuronSetting": "DefaultSetting",
            "aiSensingTemplate": "DefaultTemplate",
            "OPOFAEBHLLK": "",
            "OGJHDDPDNKM": ""
        },
        {
            "groupId": 133225082,
            "mapInstId": 82011,
            "routeId": 322500023,
            "aiGroupID": 133225082,
            "aiNeuronSetting": "DefaultSetting",
            "aiSensingTemplate": "DefaultTemplate",
            "OPOFAEBHLLK": "",
            "OGJHDDPDNKM": ""
        },
        {
            "groupId": 133225082,
            "mapInstId": 82012,
            "routeId": 322500024,
            "aiGroupID": 133225082,
            "aiNeuronSetting": "DefaultSetting",
            "aiSensingTemplate": "DefaultTemplate",
            "OPOFAEBHLLK": "",
            "OGJHDDPDNKM": ""
        },
        {
            "groupId": 133225082,
            "mapInstId": 82013,
            "aiGroupID": 133225082,
            "aiNeuronSetting": "DefaultSetting",
            "aiSensingTemplate": "DefaultTemplate",
            "disableWander": true,
            "OPOFAEBHLLK": "",
            "OGJHDDPDNKM": ""
        },
        {
            "groupId": 133225082,
            "mapInstId": 82014,
            "aiGroupID": 133225082,
            "aiNeuronSetting": "DefaultSetting",
            "aiSensingTemplate": "DefaultTemplate",
            "disableWander": true,
            "OPOFAEBHLLK": "",
            "OGJHDDPDNKM": ""
        },
        {
            "groupId": 133225082,
            "mapInstId": 82015,
            "aiGroupID": 133225082,
            "aiNeuronSetting": "DefaultSetting",
            "aiSensingTemplate": "DefaultTemplate",
            "disableWander": true,
            "OPOFAEBHLLK": "",
            "OGJHDDPDNKM": ""
        },
        {
            "groupId": 133225082,
            "mapInstId": 82016,
            "aiGroupID": 133225082,
            "aiNeuronSetting": "DefaultSetting",
            "aiSensingTemplate": "DefaultTemplate",
            "disableWander": true,
            "OPOFAEBHLLK": "",
            "OGJHDDPDNKM": ""
        },
        {
            "groupId": 133225083,
            "mapInstId": 83001,
            "aiNeuronSetting": "DefaultSetting",
            "aiSensingTemplate": "DefaultTemplate",
            "disableWander": true,
            "OPOFAEBHLLK": "",
            "OGJHDDPDNKM": ""
        },
        {
            "groupId": 133225083,
            "mapInstId": 83002,
            "aiNeuronSetting": "DefaultSetting",
            "aiSensingTemplate": "DefaultTemplate",
            "disableWander": true,
            "OPOFAEBHLLK": "",
            "OGJHDDPDNKM": ""
        },
        {
            "groupId": 133225083,
            "mapInstId": 83003,
            "aiNeuronSetting": "DefaultSetting",
            "aiSensingTemplate": "DefaultTemplate",
            "disableWander": true,
            "OPOFAEBHLLK": "",
            "OGJHDDPDNKM": ""
        },
        {
            "groupId": 133223083,
            "mapInstId": 83004,
            "aiNeuronSetting": "PowerOff_Passive",
            "aiSensingTemplate": "PowerOff_Passive",
            "OPOFAEBHLLK": "",
            "OGJHDDPDNKM": ""
        },
        {
            "groupId": 133225083,
            "mapInstId": 83013,
            "aiNeuronSetting": "DefaultSetting",
            "aiSensingTemplate": "DefaultTemplate",
            "disableWander": true,
            "OPOFAEBHLLK": "",
            "OGJHDDPDNKM": ""
        },
        {
            "groupId": 133225083,
            "mapInstId": 83014,
            "aiNeuronSetting": "DefaultSetting",
            "aiSensingTemplate": "DefaultTemplate",
            "disableWander": true,
            "OPOFAEBHLLK": "",
            "OGJHDDPDNKM": ""
        },
        {
            "groupId": 133225083,
            "mapInstId": 83020,
            "aiNeuronSetting": "DefaultSetting",
            "aiSensingTemplate": "DefaultTemplate",
            "disableWander": true,
            "OPOFAEBHLLK": "",
            "OGJHDDPDNKM": ""
        },
        {
            "groupId": 133225083,
            "mapInstId": 83021,
            "aiNeuronSetting": "DefaultSetting",
            "aiSensingTemplate": "DefaultTemplate",
            "disableWander": true,
            "OPOFAEBHLLK": "",
            "OGJHDDPDNKM": ""
        },
        {
            "groupId": 133225083,
            "mapInstId": 83022,
            "aiNeuronSetting": "DefaultSetting",
            "aiSensingTemplate": "DefaultTemplate",
            "disableWander": true,
            "OPOFAEBHLLK": "",
            "OGJHDDPDNKM": ""
        },
        {
            "groupId": 133225083,
            "mapInstId": 83023,
            "aiNeuronSetting": "DefaultSetting",
            "aiSensingTemplate": "DefaultTemplate",
            "disableWander": true,
            "OPOFAEBHLLK": "",
            "OGJHDDPDNKM": ""
        },
        {
            "groupId": 133225083,
            "mapInstId": 83024,
            "aiNeuronSetting": "DefaultSetting",
            "aiSensingTemplate": "DefaultTemplate",
            "disableWander": true,
            "OPOFAEBHLLK": "",
            "OGJHDDPDNKM": ""
        },
        {
            "groupId": 133225083,
            "mapInstId": 83025,
            "aiNeuronSetting": "DefaultSetting",
            "aiSensingTemplate": "DefaultTemplate",
            "disableWander": true,
            "OPOFAEBHLLK": "",
            "OGJHDDPDNKM": ""
        },
        {
            "groupId": 133225112,
            "mapInstId": 112001,
            "aiGroupID": 133225112,
            "aiNeuronSetting": "DefaultSetting",
            "aiSensingTemplate": "DefaultTemplate",
            "disableWander": true,
            "OPOFAEBHLLK": "",
            "OGJHDDPDNKM": ""
        },
        {
            "groupId": 133225112,
            "mapInstId": 112004,
            "aiGroupID": 133225112,
            "aiNeuronSetting": "DefaultSetting",
            "aiSensingTemplate": "DefaultTemplate",
            "disableWander": true,
            "OPOFAEBHLLK": "",
            "OGJHDDPDNKM": ""
        },
        {
            "groupId": 133225112,
            "mapInstId": 112005,
            "aiGroupID": 133225112,
            "aiNeuronSetting": "DefaultSetting",
            "aiSensingTemplate": "DefaultTemplate",
            "disableWander": true,
            "OPOFAEBHLLK": "",
            "OGJHDDPDNKM": ""
        },
        {
            "groupId": 133225126,
            "mapInstId": 126003,
            "aiNeuronSetting": "DefaultSetting",
            "aiSensingTemplate": "DefaultTemplate",
            "disableWander": true,
            "OPOFAEBHLLK": "",
            "OGJHDDPDNKM": ""
        },
        {
            "groupId": 133225126,
            "mapInstId": 126012,
            "aiNeuronSetting": "DefaultSetting",
            "aiSensingTemplate": "DefaultTemplate",
            "disableWander": true,
            "OPOFAEBHLLK": "",
            "OGJHDDPDNKM": ""
        },
        {
            "groupId": 133225126,
            "mapInstId": 126013,
            "aiNeuronSetting": "DefaultSetting",
            "aiSensingTemplate": "DefaultTemplate",
            "disableWander": true,
            "OPOFAEBHLLK": "",
            "OGJHDDPDNKM": ""
        },
        {
            "groupId": 133225126,
            "mapInstId": 126024,
            "aiNeuronSetting": "DefaultSetting",
            "aiSensingTemplate": "DefaultTemplate",
            "disableWander": true,
            "OPOFAEBHLLK": "",
            "OGJHDDPDNKM": ""
        },
        {
            "groupId": 133225126,
            "mapInstId": 126025,
            "routeId": 322500043,
            "aiNeuronSetting": "DefaultSetting",
            "aiSensingTemplate": "DefaultTemplate",
            "OPOFAEBHLLK": "",
            "OGJHDDPDNKM": ""
        },
        {
            "groupId": 133225126,
            "mapInstId": 126026,
            "aiNeuronSetting": "DefaultSetting",
            "aiSensingTemplate": "DefaultTemplate",
            "disableWander": true,
            "OPOFAEBHLLK": "",
            "OGJHDDPDNKM": ""
        },
        {
            "groupId": 133225126,
            "mapInstId": 126027,
            "aiNeuronSetting": "DefaultSetting",
            "aiSensingTemplate": "DefaultTemplate",
            "disableWander": true,
            "OPOFAEBHLLK": "",
            "OGJHDDPDNKM": ""
        },
        {
            "groupId": 133223143,
            "mapInstId": 143001,
            "routeId": 322300033,
            "aiNeuronSetting": "DefaultSetting",
            "aiSensingTemplate": "DefaultTemplate",
            "OPOFAEBHLLK": "",
            "OGJHDDPDNKM": ""
        },
        {
            "groupId": 133225143,
            "mapInstId": 143001,
            "aiGroupID": 133225143,
            "aiNeuronSetting": "DefaultSetting",
            "aiSensingTemplate": "DefaultTemplate",
            "OPOFAEBHLLK": "",
            "OGJHDDPDNKM": ""
        },
        {
            "groupId": 133223143,
            "mapInstId": 143002,
            "routeId": 322300033,
            "aiNeuronSetting": "DefaultSetting",
            "aiSensingTemplate": "DefaultTemplate",
            "OPOFAEBHLLK": "",
            "OGJHDDPDNKM": ""
        },
        {
            "groupId": 133225143,
            "mapInstId": 143002,
            "aiGroupID": 133225143,
            "aiNeuronSetting": "DefaultSetting",
            "aiSensingTemplate": "DefaultTemplate",
            "OPOFAEBHLLK": "",
            "OGJHDDPDNKM": ""
        },
        {
            "groupId": 133223164,
            "mapInstId": 164006,
            "routeId": 322300097,
            "aiNeuronSetting": "DefaultSetting",
            "aiSensingTemplate": "DefaultTemplate",
            "OPOFAEBHLLK": "",
            "OGJHDDPDNKM": ""
        },
        {
            "groupId": 133223176,
            "mapInstId": 176002,
            "aiNeuronSetting": "DefaultSetting",
            "aiSensingTemplate": "DefaultTemplate",
            "disableWander": true,
            "OPOFAEBHLLK": "",
            "OGJHDDPDNKM": ""
        },
        {
            "groupId": 133223202,
            "mapInstId": 202004,
            "routeId": 322300082,
            "aiNeuronSetting": "DefaultSetting",
            "aiSensingTemplate": "DefaultTemplate",
            "OPOFAEBHLLK": "",
            "OGJHDDPDNKM": ""
        },
        {
            "groupId": 133223286,
            "mapInstId": 286001,
            "aiNeuronSetting": "DefaultSetting",
            "aiSensingTemplate": "DefaultTemplate",
            "forceCombatOnSpawn": true,
            "OPOFAEBHLLK": "",
            "OGJHDDPDNKM": ""
        },
        {
            "groupId": 133223301,
            "mapInstId": 301001,
            "aiGroupID": 139998382,
            "aiNeuronSetting": "DefaultSetting",
            "aiSensingTemplate": "DefaultTemplate",
            "forceCombatOnSpawn": true,
            "disableWander": true,
            "OPOFAEBHLLK": "",
            "OGJHDDPDNKM": ""
        },
        {
            "groupId": 133223301,
            "mapInstId": 301002,
            "aiGroupID": 139998382,
            "aiNeuronSetting": "DefaultSetting",
            "aiSensingTemplate": "DefaultTemplate",
            "forceCombatOnSpawn": true,
            "disableWander": true,
            "OPOFAEBHLLK": "",
            "OGJHDDPDNKM": ""
        },
        {
            "groupId": 133223301,
            "mapInstId": 301003,
            "aiGroupID": 139998382,
            "aiNeuronSetting": "DefaultSetting",
            "aiSensingTemplate": "DefaultTemplate",
            "forceCombatOnSpawn": true,
            "disableWander": true,
            "OPOFAEBHLLK": "",
            "OGJHDDPDNKM": ""
        },
        {
            "groupId": 133223301,
            "mapInstId": 301004,
            "aiGroupID": 139998382,
            "aiNeuronSetting": "DefaultSetting",
            "aiSensingTemplate": "DefaultTemplate",
            "forceCombatOnSpawn": true,
            "disableWander": true,
            "OPOFAEBHLLK": "",
            "OGJHDDPDNKM": ""
        },
        {
            "groupId": 133223309,
            "mapInstId": 309021,
            "aiNeuronSetting": "DefaultSetting",
            "aiSensingTemplate": "HighFeelTemplate",
            "disableWander": true,
            "OPOFAEBHLLK": "",
            "OGJHDDPDNKM": ""
        },
        {
            "groupId": 133223309,
            "mapInstId": 309022,
            "aiNeuronSetting": "DefaultSetting",
            "aiSensingTemplate": "HighFeelTemplate",
            "disableWander": true,
            "OPOFAEBHLLK": "",
            "OGJHDDPDNKM": ""
        },
        {
            "groupId": 133223309,
            "mapInstId": 309023,
            "aiNeuronSetting": "DefaultSetting",
            "aiSensingTemplate": "HighFeelTemplate",
            "disableWander": true,
            "OPOFAEBHLLK": "",
            "OGJHDDPDNKM": ""
        },
        {
            "groupId": 133223309,
            "mapInstId": 309024,
            "aiNeuronSetting": "DefaultSetting",
            "aiSensingTemplate": "HighFeelTemplate",
            "disableWander": true,
            "OPOFAEBHLLK": "",
            "OGJHDDPDNKM": ""
        },
        {
            "groupId": 133223309,
            "mapInstId": 309025,
            "aiNeuronSetting": "DefaultSetting",
            "aiSensingTemplate": "HighFeelTemplate",
            "disableWander": true,
            "OPOFAEBHLLK": "",
            "OGJHDDPDNKM": ""
        },
        {
            "groupId": 133223309,
            "mapInstId": 309026,
            "aiNeuronSetting": "DefaultSetting",
            "aiSensingTemplate": "HighFeelTemplate",
            "disableWander": true,
            "OPOFAEBHLLK": "",
            "OGJHDDPDNKM": ""
        },
        {
            "groupId": 133223309,
            "mapInstId": 309032,
            "aiGroupID": 133223309,
            "aiNeuronSetting": "DefaultSetting",
            "aiSensingTemplate": "HighFeelTemplate",
            "disableWander": true,
            "OPOFAEBHLLK": "",
            "OGJHDDPDNKM": ""
        },
        {
            "groupId": 133223309,
            "mapInstId": 309035,
            "aiGroupID": 133223309,
            "aiNeuronSetting": "DefaultSetting",
            "aiSensingTemplate": "HighFeelTemplate",
            "disableWander": true,
            "OPOFAEBHLLK": "",
            "OGJHDDPDNKM": ""
        },
        {
            "groupId": 133223309,
            "mapInstId": 309036,
            "aiGroupID": 133223309,
            "aiNeuronSetting": "DefaultSetting",
            "aiSensingTemplate": "HighFeelTemplate",
            "disableWander": true,
            "OPOFAEBHLLK": "",
            "OGJHDDPDNKM": ""
        },
        {
            "groupId": 133223309,
            "mapInstId": 309038,
            "aiGroupID": 133223309,
            "aiNeuronSetting": "DefaultSetting",
            "aiSensingTemplate": "HighFeelTemplate",
            "disableWander": true,
            "OPOFAEBHLLK": "",
            "OGJHDDPDNKM": ""
        },
        {
            "groupId": 133223309,
            "mapInstId": 309039,
            "aiGroupID": 133223309,
            "aiNeuronSetting": "DefaultSetting",
            "aiSensingTemplate": "HighFeelTemplate",
            "disableWander": true,
            "OPOFAEBHLLK": "",
            "OGJHDDPDNKM": ""
        },
        {
            "groupId": 133223309,
            "mapInstId": 309040,
            "aiGroupID": 133223309,
            "aiNeuronSetting": "DefaultSetting",
            "aiSensingTemplate": "HighFeelTemplate",
            "disableWander": true,
            "OPOFAEBHLLK": "",
            "OGJHDDPDNKM": ""
        },
        {
            "groupId": 133223323,
            "mapInstId": 323001,
            "routeId": 322300057,
            "aiNeuronSetting": "DefaultSetting",
            "aiSensingTemplate": "DefaultTemplate",
            "OPOFAEBHLLK": "",
            "OGJHDDPDNKM": ""
        },
        {
            "groupId": 133223323,
            "mapInstId": 323018,
            "routeId": 322300058,
            "aiNeuronSetting": "DefaultSetting",
            "aiSensingTemplate": "DefaultTemplate",
            "OPOFAEBHLLK": "",
            "OGJHDDPDNKM": ""
        },
        {
            "groupId": 133223343,
            "mapInstId": 343001,
            "aiNeuronSetting": "DefaultSetting",
            "aiSensingTemplate": "DefaultTemplate",
            "forceCombatOnSpawn": true,
            "OPOFAEBHLLK": "",
            "OGJHDDPDNKM": ""
        },
        {
            "groupId": 133223363,
            "mapInstId": 363001,
            "aiGroupID": 133223363,
            "aiNeuronSetting": "DefaultSetting",
            "aiSensingTemplate": "DefaultTemplate",
            "disableWander": true,
            "OPOFAEBHLLK": "",
            "OGJHDDPDNKM": ""
        },
        {
            "groupId": 133223363,
            "mapInstId": 363003,
            "aiGroupID": 133223363,
            "aiNeuronSetting": "DefaultSetting",
            "aiSensingTemplate": "DefaultTemplate",
            "disableWander": true,
            "OPOFAEBHLLK": "",
            "OGJHDDPDNKM": ""
        },
        {
            "groupId": 133223363,
            "mapInstId": 363005,
            "routeId": 322300065,
            "aiGroupID": 133223363,
            "aiNeuronSetting": "DefaultSetting",
            "aiSensingTemplate": "DefaultTemplate",
            "OPOFAEBHLLK": "",
            "OGJHDDPDNKM": ""
        },
        {
            "groupId": 133223363,
            "mapInstId": 363006,
            "routeId": 322300064,
            "aiGroupID": 133223363,
            "aiNeuronSetting": "DefaultSetting",
            "aiSensingTemplate": "DefaultTemplate",
            "OPOFAEBHLLK": "",
            "OGJHDDPDNKM": ""
        },
        {
            "groupId": 133223363,
            "mapInstId": 363007,
            "routeId": 322300067,
            "aiGroupID": 133223363,
            "aiNeuronSetting": "DefaultSetting",
            "aiSensingTemplate": "DefaultTemplate",
            "OPOFAEBHLLK": "",
            "OGJHDDPDNKM": ""
        },
        {
            "groupId": 133223363,
            "mapInstId": 363008,
            "routeId": 322300066,
            "aiGroupID": 133223363,
            "aiNeuronSetting": "DefaultSetting",
            "aiSensingTemplate": "DefaultTemplate",
            "OPOFAEBHLLK": "",
            "OGJHDDPDNKM": ""
        },
        {
            "groupId": 133223462,
            "mapInstId": 462002,
            "aiNeuronSetting": "PowerOff_Passive",
            "aiSensingTemplate": "PowerOff_Passive",
            "OPOFAEBHLLK": "",
            "OGJHDDPDNKM": ""
        },
        {
            "groupId": 133223462,
            "mapInstId": 462003,
            "aiNeuronSetting": "PowerOff_Passive",
            "aiSensingTemplate": "PowerOff_Passive",
            "OPOFAEBHLLK": "",
            "OGJHDDPDNKM": ""
        },
        {
            "groupId": 133223470,
            "mapInstId": 470001,
            "aiGroupID": 133223470,
            "aiNeuronSetting": "DefaultSetting",
            "aiSensingTemplate": "DefaultTemplate",
            "OPOFAEBHLLK": "",
            "OGJHDDPDNKM": ""
        },
        {
            "groupId": 133223470,
            "mapInstId": 470002,
            "aiGroupID": 133223470,
            "aiNeuronSetting": "DefaultSetting",
            "aiSensingTemplate": "DefaultTemplate",
            "OPOFAEBHLLK": "",
            "OGJHDDPDNKM": ""
        },
        {
            "groupId": 133223488,
            "mapInstId": 488001,
            "routeId": 322300098,
            "aiNeuronSetting": "DefaultSetting",
            "aiSensingTemplate": "DefaultTemplate",
            "OPOFAEBHLLK": "",
            "OGJHDDPDNKM": ""
        },
        {
            "groupId": 133223488,
            "mapInstId": 488002,
            "routeId": 322300099,
            "aiNeuronSetting": "DefaultSetting",
            "aiSensingTemplate": "DefaultTemplate",
            "OPOFAEBHLLK": "",
            "OGJHDDPDNKM": ""
        }
    ]
}