{
    "sceneId": 35724,
    "monsters": [
        {
            "groupId": 235724004,
            "mapInstId": 4001,
            "aiGroupID": 235724004,
            "DBJILNPPJHP": true,
            "EIANNAGALAJ": 999.0,
            "FKMENPJNOEM": true,
            "clearThreatTargetDistance": 999.0,
            "aiNeuronSetting": "DefaultSetting",
            "aiSensingTemplate": "DefaultTemplate",
            "forceCombatOnSpawn": true,
            "disableWander": true,
            "OPOFAEBHLLK": "",
            "OGJHDDPDNKM": ""
        },
        {
            "groupId": 235724004,
            "mapInstId": 4002,
            "aiGroupID": 235724004,
            "DBJILNPPJHP": true,
            "EIANNAGALAJ": 999.0,
            "FKMENPJNOEM": true,
            "clearThreatTargetDistance": 999.0,
            "aiNeuronSetting": "DefaultSetting",
            "aiSensingTemplate": "DefaultTemplate",
            "forceCombatOnSpawn": true,
            "disableWander": true,
            "OPOFAEBHLLK": "",
            "OGJHDDPDNKM": ""
        },
        {
            "groupId": 235724004,
            "mapInstId": 4003,
            "aiGroupID": 235724004,
            "DBJILNPPJHP": true,
            "EIANNAGALAJ": 999.0,
            "FKMENPJNOEM": true,
            "clearThreatTargetDistance": 999.0,
            "aiNeuronSetting": "DefaultSetting",
            "aiSensingTemplate": "DefaultTemplate",
            "forceCombatOnSpawn": true,
            "disableWander": true,
            "OPOFAEBHLLK": "",
            "OGJHDDPDNKM": ""
        },
        {
            "groupId": 235724004,
            "mapInstId": 4008,
            "aiGroupID": 235724004,
            "DBJILNPPJHP": true,
            "EIANNAGALAJ": 999.0,
            "FKMENPJNOEM": true,
            "clearThreatTargetDistance": 999.0,
            "aiNeuronSetting": "DefaultSetting",
            "aiSensingTemplate": "DefaultTemplate",
            "forceCombatOnSpawn": true,
            "disableWander": true,
            "OPOFAEBHLLK": "",
            "OGJHDDPDNKM": ""
        },
        {
            "groupId": 235724004,
            "mapInstId": 4009,
            "aiGroupID": 235724004,
            "DBJILNPPJHP": true,
            "EIANNAGALAJ": 999.0,
            "FKMENPJNOEM": true,
            "clearThreatTargetDistance": 999.0,
            "aiNeuronSetting": "DefaultSetting",
            "aiSensingTemplate": "DefaultTemplate",
            "forceCombatOnSpawn": true,
            "disableWander": true,
            "OPOFAEBHLLK": "",
            "OGJHDDPDNKM": ""
        },
        {
            "groupId": 235724004,
            "mapInstId": 4011,
            "aiGroupID": 235724004,
            "DBJILNPPJHP": true,
            "EIANNAGALAJ": 999.0,
            "FKMENPJNOEM": true,
            "clearThreatTargetDistance": 999.0,
            "aiNeuronSetting": "DefaultSetting",
            "aiSensingTemplate": "DefaultTemplate",
            "forceCombatOnSpawn": true,
            "disableWander": true,
            "OPOFAEBHLLK": "",
            "OGJHDDPDNKM": ""
        },
        {
            "groupId": 235724005,
            "mapInstId": 5001,
            "aiGroupID": 235724005,
            "DBJILNPPJHP": true,
            "EIANNAGALAJ": 999.0,
            "FKMENPJNOEM": true,
            "clearThreatTargetDistance": 999.0,
            "aiNeuronSetting": "DefaultSetting",
            "aiSensingTemplate": "DefaultTemplate",
            "forceCombatOnSpawn": true,
            "disableWander": true,
            "OPOFAEBHLLK": "",
            "OGJHDDPDNKM": ""
        },
        {
            "groupId": 235724005,
            "mapInstId": 5002,
            "aiGroupID": 235724005,
            "DBJILNPPJHP": true,
            "EIANNAGALAJ": 999.0,
            "FKMENPJNOEM": true,
            "clearThreatTargetDistance": 999.0,
            "aiNeuronSetting": "DefaultSetting",
            "aiSensingTemplate": "DefaultTemplate",
            "forceCombatOnSpawn": true,
            "disableWander": true,
            "OPOFAEBHLLK": "",
            "OGJHDDPDNKM": ""
        },
        {
            "groupId": 235724005,
            "mapInstId": 5003,
            "aiGroupID": 235724005,
            "DBJILNPPJHP": true,
            "EIANNAGALAJ": 999.0,
            "FKMENPJNOEM": true,
            "clearThreatTargetDistance": 999.0,
            "aiNeuronSetting": "DefaultSetting",
            "aiSensingTemplate": "DefaultTemplate",
            "forceCombatOnSpawn": true,
            "disableWander": true,
            "OPOFAEBHLLK": "",
            "OGJHDDPDNKM": ""
        },
        {
            "groupId": 235724005,
            "mapInstId": 5005,
            "aiGroupID": 235724005,
            "DBJILNPPJHP": true,
            "EIANNAGALAJ": 999.0,
            "FKMENPJNOEM": true,
            "clearThreatTargetDistance": 999.0,
            "aiNeuronSetting": "DefaultSetting",
            "aiSensingTemplate": "DefaultTemplate",
            "forceCombatOnSpawn": true,
            "disableWander": true,
            "OPOFAEBHLLK": "",
            "OGJHDDPDNKM": ""
        },
        {
            "groupId": 235724005,
            "mapInstId": 5006,
            "aiGroupID": 235724005,
            "DBJILNPPJHP": true,
            "EIANNAGALAJ": 999.0,
            "FKMENPJNOEM": true,
            "clearThreatTargetDistance": 999.0,
            "aiNeuronSetting": "DefaultSetting",
            "aiSensingTemplate": "DefaultTemplate",
            "forceCombatOnSpawn": true,
            "disableWander": true,
            "OPOFAEBHLLK": "",
            "OGJHDDPDNKM": ""
        },
        {
            "groupId": 235724005,
            "mapInstId": 5007,
            "aiGroupID": 235724005,
            "DBJILNPPJHP": true,
            "EIANNAGALAJ": 999.0,
            "FKMENPJNOEM": true,
            "clearThreatTargetDistance": 999.0,
            "aiNeuronSetting": "DefaultSetting",
            "aiSensingTemplate": "DefaultTemplate",
            "forceCombatOnSpawn": true,
            "disableWander": true,
            "OPOFAEBHLLK": "",
            "OGJHDDPDNKM": ""
        }
    ]
}