{
    "sceneId": 40502,
    "monsters": [
        {
            "groupId": 240502004,
            "mapInstId": 4004,
            "aiGroupID": 240502004,
            "DBJILNPPJHP": true,
            "EIANNAGALAJ": 999.0,
            "FKMENPJNOEM": true,
            "clearThreatTargetDistance": 999.0,
            "aiNeuronSetting": "DefaultSetting",
            "aiSensingTemplate": "DefaultTemplate",
            "forceCombatOnSpawn": true,
            "OPOFAEBHLLK": "",
            "OGJHDDPDNKM": ""
        },
        {
            "groupId": 240502004,
            "mapInstId": 4005,
            "aiGroupID": 240502004,
            "DBJILNPPJHP": true,
            "EIANNAGALAJ": 999.0,
            "FKMENPJNOEM": true,
            "clearThreatTargetDistance": 999.0,
            "aiNeuronSetting": "DefaultSetting",
            "aiSensingTemplate": "DefaultTemplate",
            "forceCombatOnSpawn": true,
            "OPOFAEBHLLK": "",
            "OGJHDDPDNKM": ""
        },
        {
            "groupId": 240502004,
            "mapInstId": 4024,
            "aiGroupID": 240502004,
            "DBJILNPPJHP": true,
            "EIANNAGALAJ": 999.0,
            "FKMENPJNOEM": true,
            "clearThreatTargetDistance": 999.0,
            "aiNeuronSetting": "DefaultSetting",
            "aiSensingTemplate": "DefaultTemplate",
            "forceCombatOnSpawn": true,
            "OPOFAEBHLLK": "",
            "OGJHDDPDNKM": ""
        },
        {
            "groupId": 240502004,
            "mapInstId": 4025,
            "aiGroupID": 240502004,
            "DBJILNPPJHP": true,
            "EIANNAGALAJ": 999.0,
            "FKMENPJNOEM": true,
            "clearThreatTargetDistance": 999.0,
            "aiNeuronSetting": "DefaultSetting",
            "aiSensingTemplate": "DefaultTemplate",
            "forceCombatOnSpawn": true,
            "OPOFAEBHLLK": "",
            "OGJHDDPDNKM": ""
        },
        {
            "groupId": 240502004,
            "mapInstId": 4038,
            "aiGroupID": 240502004,
            "DBJILNPPJHP": true,
            "EIANNAGALAJ": 999.0,
            "FKMENPJNOEM": true,
            "clearThreatTargetDistance": 999.0,
            "aiNeuronSetting": "DefaultSetting",
            "aiSensingTemplate": "DefaultTemplate",
            "forceCombatOnSpawn": true,
            "OPOFAEBHLLK": "",
            "OGJHDDPDNKM": ""
        },
        {
            "groupId": 240502004,
            "mapInstId": 4039,
            "aiGroupID": 240502004,
            "DBJILNPPJHP": true,
            "EIANNAGALAJ": 999.0,
            "FKMENPJNOEM": true,
            "clearThreatTargetDistance": 999.0,
            "aiNeuronSetting": "DefaultSetting",
            "aiSensingTemplate": "DefaultTemplate",
            "forceCombatOnSpawn": true,
            "OPOFAEBHLLK": "",
            "OGJHDDPDNKM": ""
        },
        {
            "groupId": 240502004,
            "mapInstId": 4040,
            "aiGroupID": 240502004,
            "DBJILNPPJHP": true,
            "EIANNAGALAJ": 999.0,
            "FKMENPJNOEM": true,
            "clearThreatTargetDistance": 999.0,
            "aiNeuronSetting": "DefaultSetting",
            "aiSensingTemplate": "DefaultTemplate",
            "forceCombatOnSpawn": true,
            "OPOFAEBHLLK": "",
            "OGJHDDPDNKM": ""
        },
        {
            "groupId": 240502004,
            "mapInstId": 4041,
            "aiGroupID": 240502004,
            "DBJILNPPJHP": true,
            "EIANNAGALAJ": 999.0,
            "FKMENPJNOEM": true,
            "clearThreatTargetDistance": 999.0,
            "aiNeuronSetting": "DefaultSetting",
            "aiSensingTemplate": "DefaultTemplate",
            "forceCombatOnSpawn": true,
            "OPOFAEBHLLK": "",
            "OGJHDDPDNKM": ""
        },
        {
            "groupId": 240502004,
            "mapInstId": 4042,
            "aiGroupID": 240502004,
            "DBJILNPPJHP": true,
            "EIANNAGALAJ": 999.0,
            "FKMENPJNOEM": true,
            "clearThreatTargetDistance": 999.0,
            "aiNeuronSetting": "DefaultSetting",
            "aiSensingTemplate": "DefaultTemplate",
            "forceCombatOnSpawn": true,
            "OPOFAEBHLLK": "",
            "OGJHDDPDNKM": ""
        },
        {
            "groupId": 240502004,
            "mapInstId": 4043,
            "aiGroupID": 240502004,
            "DBJILNPPJHP": true,
            "EIANNAGALAJ": 999.0,
            "FKMENPJNOEM": true,
            "clearThreatTargetDistance": 999.0,
            "aiNeuronSetting": "DefaultSetting",
            "aiSensingTemplate": "DefaultTemplate",
            "forceCombatOnSpawn": true,
            "OPOFAEBHLLK": "",
            "OGJHDDPDNKM": ""
        },
        {
            "groupId": 240502004,
            "mapInstId": 4044,
            "aiGroupID": 240502004,
            "DBJILNPPJHP": true,
            "EIANNAGALAJ": 999.0,
            "FKMENPJNOEM": true,
            "clearThreatTargetDistance": 999.0,
            "aiNeuronSetting": "DefaultSetting",
            "aiSensingTemplate": "DefaultTemplate",
            "forceCombatOnSpawn": true,
            "OPOFAEBHLLK": "",
            "OGJHDDPDNKM": ""
        },
        {
            "groupId": 240502004,
            "mapInstId": 4045,
            "aiGroupID": 240502004,
            "DBJILNPPJHP": true,
            "EIANNAGALAJ": 999.0,
            "FKMENPJNOEM": true,
            "clearThreatTargetDistance": 999.0,
            "aiNeuronSetting": "DefaultSetting",
            "aiSensingTemplate": "DefaultTemplate",
            "forceCombatOnSpawn": true,
            "OPOFAEBHLLK": "",
            "OGJHDDPDNKM": ""
        }
    ]
}