{
    "sceneId": 30300,
    "monsters": [
        {
            "groupId": 230300003,
            "mapInstId": 3001,
            "aiGroupID": 230300003,
            "aiNeuronSetting": "DefaultSetting",
            "aiSensingTemplate": "DefaultTemplate",
            "forceCombatOnSpawn": true,
            "OPOFAEBHLLK": "",
            "OGJHDDPDNKM": ""
        },
        {
            "groupId": 230300003,
            "mapInstId": 3002,
            "aiGroupID": 230300003,
            "aiNeuronSetting": "DefaultSetting",
            "aiSensingTemplate": "DefaultTemplate",
            "forceCombatOnSpawn": true,
            "OPOFAEBHLLK": "",
            "OGJHDDPDNKM": ""
        },
        {
            "groupId": 230300003,
            "mapInstId": 3003,
            "aiGroupID": 230300003,
            "aiNeuronSetting": "DefaultSetting",
            "aiSensingTemplate": "DefaultTemplate",
            "forceCombatOnSpawn": true,
            "OPOFAEBHLLK": "",
            "OGJHDDPDNKM": ""
        },
        {
            "groupId": 230300003,
            "mapInstId": 3004,
            "aiGroupID": 230300003,
            "aiNeuronSetting": "DefaultSetting",
            "aiSensingTemplate": "DefaultTemplate",
            "forceCombatOnSpawn": true,
            "OPOFAEBHLLK": "",
            "OGJHDDPDNKM": ""
        },
        {
            "groupId": 230300003,
            "mapInstId": 3005,
            "aiGroupID": 230300003,
            "aiNeuronSetting": "DefaultSetting",
            "aiSensingTemplate": "DefaultTemplate",
            "forceCombatOnSpawn": true,
            "OPOFAEBHLLK": "",
            "OGJHDDPDNKM": ""
        },
        {
            "groupId": 230300003,
            "mapInstId": 3006,
            "aiGroupID": 230300003,
            "aiNeuronSetting": "DefaultSetting",
            "aiSensingTemplate": "DefaultTemplate",
            "forceCombatOnSpawn": true,
            "OPOFAEBHLLK": "",
            "OGJHDDPDNKM": ""
        },
        {
            "groupId": 230300003,
            "mapInstId": 3007,
            "aiGroupID": 230300003,
            "aiNeuronSetting": "DefaultSetting",
            "aiSensingTemplate": "DefaultTemplate",
            "forceCombatOnSpawn": true,
            "OPOFAEBHLLK": "",
            "OGJHDDPDNKM": ""
        },
        {
            "groupId": 230300003,
            "mapInstId": 3008,
            "aiGroupID": 230300003,
            "aiNeuronSetting": "DefaultSetting",
            "aiSensingTemplate": "DefaultTemplate",
            "forceCombatOnSpawn": true,
            "OPOFAEBHLLK": "",
            "OGJHDDPDNKM": ""
        },
        {
            "groupId": 230300003,
            "mapInstId": 3009,
            "aiGroupID": 230300003,
            "aiNeuronSetting": "DefaultSetting",
            "aiSensingTemplate": "DefaultTemplate",
            "forceCombatOnSpawn": true,
            "OPOFAEBHLLK": "",
            "OGJHDDPDNKM": ""
        },
        {
            "groupId": 230300003,
            "mapInstId": 3010,
            "aiGroupID": 230300003,
            "aiNeuronSetting": "DefaultSetting",
            "aiSensingTemplate": "DefaultTemplate",
            "forceCombatOnSpawn": true,
            "OPOFAEBHLLK": "",
            "OGJHDDPDNKM": ""
        },
        {
            "groupId": 230300003,
            "mapInstId": 3011,
            "aiGroupID": 230300003,
            "aiNeuronSetting": "DefaultSetting",
            "aiSensingTemplate": "DefaultTemplate",
            "forceCombatOnSpawn": true,
            "OPOFAEBHLLK": "",
            "OGJHDDPDNKM": ""
        },
        {
            "groupId": 230300003,
            "mapInstId": 3012,
            "aiGroupID": 230300003,
            "aiNeuronSetting": "DefaultSetting",
            "aiSensingTemplate": "DefaultTemplate",
            "forceCombatOnSpawn": true,
            "OPOFAEBHLLK": "",
            "OGJHDDPDNKM": ""
        },
        {
            "groupId": 230300003,
            "mapInstId": 3013,
            "aiGroupID": 230300003,
            "aiNeuronSetting": "DefaultSetting",
            "aiSensingTemplate": "DefaultTemplate",
            "forceCombatOnSpawn": true,
            "OPOFAEBHLLK": "",
            "OGJHDDPDNKM": ""
        },
        {
            "groupId": 230300003,
            "mapInstId": 3014,
            "aiGroupID": 230300003,
            "aiNeuronSetting": "DefaultSetting",
            "aiSensingTemplate": "DefaultTemplate",
            "forceCombatOnSpawn": true,
            "OPOFAEBHLLK": "",
            "OGJHDDPDNKM": ""
        },
        {
            "groupId": 230300003,
            "mapInstId": 3015,
            "aiGroupID": 230300003,
            "aiNeuronSetting": "DefaultSetting",
            "aiSensingTemplate": "DefaultTemplate",
            "forceCombatOnSpawn": true,
            "OPOFAEBHLLK": "",
            "OGJHDDPDNKM": ""
        },
        {
            "groupId": 230300003,
            "mapInstId": 3017,
            "aiGroupID": 230300003,
            "aiNeuronSetting": "DefaultSetting",
            "aiSensingTemplate": "DefaultTemplate",
            "forceCombatOnSpawn": true,
            "OPOFAEBHLLK": "",
            "OGJHDDPDNKM": ""
        },
        {
            "groupId": 230300003,
            "mapInstId": 3018,
            "aiGroupID": 230300003,
            "aiNeuronSetting": "DefaultSetting",
            "aiSensingTemplate": "DefaultTemplate",
            "forceCombatOnSpawn": true,
            "OPOFAEBHLLK": "",
            "OGJHDDPDNKM": ""
        },
        {
            "groupId": 230300003,
            "mapInstId": 3019,
            "aiGroupID": 230300003,
            "aiNeuronSetting": "DefaultSetting",
            "aiSensingTemplate": "DefaultTemplate",
            "forceCombatOnSpawn": true,
            "OPOFAEBHLLK": "",
            "OGJHDDPDNKM": ""
        },
        {
            "groupId": 230300003,
            "mapInstId": 3020,
            "aiGroupID": 230300003,
            "aiNeuronSetting": "DefaultSetting",
            "aiSensingTemplate": "DefaultTemplate",
            "forceCombatOnSpawn": true,
            "OPOFAEBHLLK": "",
            "OGJHDDPDNKM": ""
        },
        {
            "groupId": 230300003,
            "mapInstId": 3022,
            "aiGroupID": 230300003,
            "aiNeuronSetting": "DefaultSetting",
            "aiSensingTemplate": "DefaultTemplate",
            "forceCombatOnSpawn": true,
            "OPOFAEBHLLK": "",
            "OGJHDDPDNKM": ""
        },
        {
            "groupId": 230300003,
            "mapInstId": 3023,
            "aiGroupID": 230300003,
            "aiNeuronSetting": "DefaultSetting",
            "aiSensingTemplate": "DefaultTemplate",
            "forceCombatOnSpawn": true,
            "OPOFAEBHLLK": "",
            "OGJHDDPDNKM": ""
        },
        {
            "groupId": 230300003,
            "mapInstId": 3024,
            "aiGroupID": 230300003,
            "aiNeuronSetting": "DefaultSetting",
            "aiSensingTemplate": "DefaultTemplate",
            "forceCombatOnSpawn": true,
            "OPOFAEBHLLK": "",
            "OGJHDDPDNKM": ""
        },
        {
            "groupId": 230300003,
            "mapInstId": 3029,
            "aiGroupID": 230300003,
            "aiNeuronSetting": "DefaultSetting",
            "aiSensingTemplate": "DefaultTemplate",
            "forceCombatOnSpawn": true,
            "OPOFAEBHLLK": "",
            "OGJHDDPDNKM": ""
        }
    ]
}