{
    "luaDataPath": "",
    "dontUseDefaultFinish": true,
    "startBlackKeepTime": 0.5,
    "entityBan": "",
    "disableNpcLod": true,
    "isAutoBanNpc": true,
    "isBanWidgetPet": true,
    "protectNpcMobileLod": true,
    "MNHFNFDCEFG": 7,
    "startFade": {
        "startFadeInDuration": 0.5,
        "startFadeOutDuration": 0.5
    },
    "endFade": {
        "startFadeOutDuration": 0.0
    },
    "actors": [
        {
            "alias": "Avatar",
            "visible": true,
            "bornPointName": "[3_340100282:3477.931,283.321,4550.447]",
            "relativePosType": "AVATAR_NEW",
            "relativePosNpcAlias": "",
            "bindMovingTargetKey": ""
        },
        {
            "alias": "AvatarNpc",
            "visible": true,
            "bornPointName": "[3_340100282:3477.931,283.321,4550.447]",
            "removeActorType": "NEW_REMOVE",
            "relativePosType": "AVATAR_NEW",
            "relativePosNpcAlias": "",
            "bindMovingTargetKey": ""
        },
        {
            "configID": 1005,
            "alias": "1005",
            "visible": true,
            "bornPointName": "[3_340100283:3480.166,283.330,4550.005]",
            "removeActorType": "NEW_REMOVE_WITH_DISAPPEAR",
            "relativePosType": "AVATAR_NEW",
            "relativePosNpcAlias": "",
            "bindMovingTargetKey": ""
        },
        {
            "configID": 13611,
            "alias": "13611",
            "visible": true,
            "bornPointName": "[3_340100299:3483.120,283.353,4552.157,0.000,311.410,0.000]",
            "relativePosType": "AVATAR_NEW",
            "relativePosNpcAlias": "",
            "bindMovingTargetKey": ""
        }
    ],
    "group": [
        [
            {
                "$type": "MoleMole.Config.ConfigTimeProtectAction",
                "type": "TIME_PROTECT",
                "duration": 1.0,
                "actionId": 104
            },
            {
                "$type": "MoleMole.Config.ConfigBlackScreenAction",
                "type": "BLACK_SCREEN",
                "duration": 1.0,
                "actionId": 136,
                "flag": 2048,
                "blackScreenType": "KEEP_BLACK",
                "durationToBlack": 0.5,
                "durationKeepBlack": 1.0,
                "durationFromBlack": 0.5,
                "inteePos": "",
                "textMapID": "",
                "useTextFade": true,
                "changeAudioState": true
            },
            {
                "$type": "MoleMole.Config.ConfigCameraDOFAction",
                "type": "CAMERA_DOF",
                "actionId": 200,
                "focusDistance": 5.0,
                "focusRange": 10.0,
                "nearFocalDistance": 1.0,
                "nearFocalTransDistance": 1.0,
                "quality": 3
            },
            {
                "$type": "MoleMole.Config.ConfigSitOrStandAction",
                "type": "SIT_OR_STAND",
                "aliasList": [
                    "Avatar"
                ],
                "actionId": 142,
                "flag": 8192,
                "banResetFreestyle": true
            },
            {
                "$type": "MoleMole.Config.ConfigVisibleInterAction",
                "type": "VISIBLE",
                "aliasList": [
                    "Avatar"
                ],
                "actionId": 146,
                "extraParam": ""
            },
            {
                "$type": "MoleMole.Config.ConfigTeleportToAction",
                "type": "TELEPORT_TO",
                "aliasList": [
                    "Avatar"
                ],
                "actionId": 209,
                "position": {
                    "x": 3472.909912109375,
                    "y": 283.27398681640625,
                    "z": 4551.59912109375
                },
                "forward": {
                    "x": 9.303999900817871,
                    "y": 0.04699999839067459,
                    "z": -0.9160000085830688
                },
                "openLongDisTeleport": true,
                "syncForward": true,
                "posBindMovingTargetKey": "",
                "forwardBindMovingTargetKey": ""
            },
            {
                "$type": "MoleMole.Config.ConfigPlayerNPCEnergyTypeAction",
                "type": "SET_PLAYER_NPC_ENERGY_TYPE",
                "aliasList": [
                    "AvatarNpc"
                ],
                "actionId": 143,
                "setHeroEngergyType": true
            },
            {
                "$type": "KCBOGFFHPBD",
                "type": "BODY_LANG",
                "aliasList": [
                    "AvatarNpc"
                ],
                "actionId": 144,
                "AHGOBCDHCMC": true,
                "FHLAMNNHMFA": true,
                "KCEHDJLKIAL": false,
                "AOFEDPBOOIE": ""
            },
            {
                "$type": "MoleMole.Config.ConfigTeleportToAction",
                "type": "TELEPORT_TO",
                "aliasList": [
                    "AvatarNpc"
                ],
                "actionId": 184,
                "position": {
                    "x": 3472.909912109375,
                    "y": 283.27398681640625,
                    "z": 4551.59912109375
                },
                "forward": {
                    "x": 9.303999900817871,
                    "y": 0.04699999839067459,
                    "z": -0.9160000085830688
                },
                "openLongDisTeleport": true,
                "syncForward": true,
                "posBindMovingTargetKey": "",
                "forwardBindMovingTargetKey": ""
            },
            {
                "$type": "KCBOGFFHPBD",
                "type": "BODY_LANG",
                "aliasList": [
                    "1005"
                ],
                "actionId": 132,
                "AHGOBCDHCMC": true,
                "FHLAMNNHMFA": true,
                "KCEHDJLKIAL": false,
                "AOFEDPBOOIE": ""
            },
            {
                "$type": "MoleMole.Config.ConfigTeleportToAction",
                "type": "TELEPORT_TO",
                "aliasList": [
                    "1005"
                ],
                "actionId": 185,
                "position": {
                    "x": 3473.06201171875,
                    "y": 283.2829895019531,
                    "z": 4550.591796875
                },
                "forward": {
                    "x": 7.875,
                    "y": 0.04699999839067459,
                    "z": -0.010999999940395355
                },
                "openLongDisTeleport": true,
                "syncForward": true,
                "posBindMovingTargetKey": "",
                "forwardBindMovingTargetKey": ""
            }
        ],
        [
            {
                "$type": "MoleMole.Config.ConfigBlackScreenAction",
                "type": "BLACK_SCREEN",
                "duration": 0.5,
                "actionId": 157,
                "flag": 2048,
                "blackScreenType": "FROM_BLACK",
                "durationToBlack": 0.5,
                "durationKeepBlack": 0.5,
                "durationFromBlack": 0.5,
                "inteePos": "",
                "textMapID": "",
                "useTextFade": true,
                "changeAudioState": true
            },
            {
                "$type": "MoleMole.Config.ConfigTimeProtectAction",
                "type": "TIME_PROTECT",
                "duration": 4.5,
                "actionId": 159
            },
            {
                "$type": "BCJBNCJOPCE",
                "type": "CAMERA_MOVE",
                "duration": 0.5,
                "actionId": 161,
                "AKFGKKEOEFA": {
                    "x": 3476.693115234375,
                    "y": 290.4020080566406,
                    "z": 4529.30615234375
                },
                "NGEBMAEFFGJ": {
                    "x": 3476.60205078125,
                    "y": 290.0660095214844,
                    "z": 4530.2431640625
                },
                "LIGHLBKBDEI": 35.0,
                "GFIOJGJJGCN": 6,
                "ABAEPHOGOFF": "EaseInOutCubic",
                "KFDBMBFFANN": {},
                "IEJBKHHEJEN": true,
                "CEDHIBLHMKP": false,
                "KIPMIDIKECP": "",
                "ANFHNPOCMNI": true,
                "BDLGHOJPJHD": "",
                "LCOJGFEOLCK": "",
                "BBBGAEDCJEL": ""
            },
            {
                "$type": "MoleMole.Config.ConfigMoveToAction",
                "type": "MOVE_TO",
                "aliasList": [
                    "Avatar"
                ],
                "actionId": 210,
                "moveType": "WALK",
                "routeList": [
                    {
                        "x": 3478.583984375,
                        "y": 283.3240051269531,
                        "z": 4550.333984375
                    }
                ],
                "exactlyMove": true,
                "closeNavMesh": true,
                "closeAvatarNavMesh": true,
                "openSetPos": true,
                "bindMovingTargetKey": ""
            },
            {
                "$type": "MoleMole.Config.ConfigMoveToAction",
                "type": "MOVE_TO",
                "aliasList": [
                    "AvatarNpc"
                ],
                "actionId": 166,
                "moveType": "WALK",
                "routeList": [
                    {
                        "x": 3478.583984375,
                        "y": 283.3240051269531,
                        "z": 4550.333984375
                    }
                ],
                "exactlyMove": true,
                "closeNavMesh": true,
                "openSetPos": true,
                "bindMovingTargetKey": ""
            },
            {
                "$type": "BCJBNCJOPCE",
                "type": "CAMERA_MOVE",
                "delayTime": 0.10000000149011612,
                "duration": 2.9000000953674316,
                "actionId": 158,
                "AKFGKKEOEFA": {
                    "x": 3477.2470703125,
                    "y": 290.39801025390625,
                    "z": 4529.35791015625
                },
                "NGEBMAEFFGJ": {
                    "x": 3477.156005859375,
                    "y": 290.06298828125,
                    "z": 4530.294921875
                },
                "LIGHLBKBDEI": 35.0,
                "ABAEPHOGOFF": "Linear",
                "KFDBMBFFANN": {},
                "IEJBKHHEJEN": true,
                "CEDHIBLHMKP": false,
                "KIPMIDIKECP": "",
                "ANFHNPOCMNI": true,
                "BDLGHOJPJHD": "",
                "LCOJGFEOLCK": "",
                "BBBGAEDCJEL": ""
            },
            {
                "$type": "MoleMole.Config.ConfigMoveToAction",
                "type": "MOVE_TO",
                "delayTime": 0.20600000023841858,
                "aliasList": [
                    "1005"
                ],
                "actionId": 168,
                "moveType": "WALK",
                "routeList": [
                    {
                        "x": 3478.153076171875,
                        "y": 283.3559875488281,
                        "z": 4549.544921875
                    }
                ],
                "exactlyMove": true,
                "closeNavMesh": true,
                "openSetPos": true,
                "bindMovingTargetKey": ""
            },
            {
                "$type": "BCJBNCJOPCE",
                "type": "CAMERA_MOVE",
                "delayTime": 3.0,
                "duration": 0.5,
                "actionId": 190,
                "AKFGKKEOEFA": {
                    "x": 3480.52490234375,
                    "y": 284.3169860839844,
                    "z": 4554.39892578125
                },
                "NGEBMAEFFGJ": {
                    "x": 3480.60400390625,
                    "y": 284.3580017089844,
                    "z": 4553.40283203125
                },
                "LIGHLBKBDEI": 25.0,
                "GFIOJGJJGCN": 6,
                "ABAEPHOGOFF": "EaseInOutCubic",
                "KFDBMBFFANN": {},
                "IEJBKHHEJEN": true,
                "CEDHIBLHMKP": false,
                "KIPMIDIKECP": "",
                "ANFHNPOCMNI": true,
                "CLMKIECBMAA": true,
                "IFJHOGINFKN": 0.30000001192092896,
                "BDLGHOJPJHD": "",
                "LCOJGFEOLCK": "",
                "BBBGAEDCJEL": ""
            },
            {
                "$type": "MoleMole.Config.ConfigCameraDOFAction",
                "type": "CAMERA_DOF",
                "delayTime": 3.0,
                "actionId": 199,
                "enabled": true,
                "focusDistance": 16.305999755859375,
                "focusRange": 10.0,
                "nearFocalDistance": 2.446000099182129,
                "nearFocalTransDistance": 0.3880000114440918,
                "dofBlurAmount": 2.0,
                "quality": 3
            },
            {
                "$type": "MoleMole.Config.ConfigSetModelTransform",
                "type": "SET_MODEL_TRANSFORM",
                "delayTime": 3.2809998989105225,
                "aliasList": [
                    "1005"
                ],
                "actionId": 195,
                "groudHight": 0.30000001192092896
            },
            {
                "$type": "MoleMole.Config.ConfigTeleportToAction",
                "type": "TELEPORT_TO",
                "delayTime": 3.2920000553131104,
                "aliasList": [
                    "1005"
                ],
                "actionId": 194,
                "flag": 4,
                "position": {
                    "x": 3480.85595703125,
                    "y": 283.3340148925781,
                    "z": 4550.373046875
                },
                "forward": {
                    "x": 0.5490000247955322,
                    "y": 0.02199999988079071,
                    "z": 0.14800000190734863
                },
                "openLongDisTeleport": true,
                "syncForward": true,
                "posBindMovingTargetKey": "",
                "forwardBindMovingTargetKey": ""
            },
            {
                "$type": "BCJBNCJOPCE",
                "type": "CAMERA_MOVE",
                "delayTime": 3.4000000953674316,
                "duration": 6.0,
                "actionId": 191,
                "AKFGKKEOEFA": {
                    "x": 3480.8779296875,
                    "y": 284.3529968261719,
                    "z": 4554.3779296875
                },
                "NGEBMAEFFGJ": {
                    "x": 3480.68603515625,
                    "y": 284.31298828125,
                    "z": 4553.39697265625
                },
                "LIGHLBKBDEI": 25.0,
                "ABAEPHOGOFF": "EaseOutQuad",
                "KFDBMBFFANN": {},
                "IEJBKHHEJEN": true,
                "CEDHIBLHMKP": false,
                "KIPMIDIKECP": "",
                "ANFHNPOCMNI": true,
                "BDLGHOJPJHD": "",
                "LCOJGFEOLCK": "",
                "BBBGAEDCJEL": ""
            },
            {
                "$type": "MoleMole.Config.ConfigTeleportToAction",
                "type": "TELEPORT_TO",
                "delayTime": 3.49399995803833,
                "aliasList": [
                    "Avatar"
                ],
                "actionId": 250,
                "flag": 4,
                "position": {
                    "x": 3480.993896484375,
                    "y": 283.3219909667969,
                    "z": 4551.28515625
                },
                "forward": {
                    "x": 0.7519999742507935,
                    "y": 0.0020000000949949026,
                    "z": 0.11900000274181366
                },
                "openLongDisTeleport": true,
                "syncForward": true,
                "posBindMovingTargetKey": "",
                "forwardBindMovingTargetKey": ""
            },
            {
                "$type": "MoleMole.Config.ConfigTeleportToAction",
                "type": "TELEPORT_TO",
                "delayTime": 3.49399995803833,
                "aliasList": [
                    "AvatarNpc"
                ],
                "actionId": 192,
                "flag": 4,
                "position": {
                    "x": 3480.993896484375,
                    "y": 283.3219909667969,
                    "z": 4551.28515625
                },
                "forward": {
                    "x": 0.7519999742507935,
                    "y": 0.0020000000949949026,
                    "z": 0.11900000274181366
                },
                "openLongDisTeleport": true,
                "syncForward": true,
                "posBindMovingTargetKey": "",
                "forwardBindMovingTargetKey": ""
            },
            {
                "$type": "MoleMole.Config.ConfigSitOrStandAction",
                "type": "SIT_OR_STAND",
                "delayTime": 3.6760001182556152,
                "aliasList": [
                    "AvatarNpc"
                ],
                "actionId": 193,
                "flag": 8192,
                "isSit": true,
                "designatedSeat": true,
                "chairPos": {
                    "x": 3480.322021484375,
                    "y": 283.3210144042969,
                    "z": 4551.22900390625
                },
                "chairEulerAngle": {
                    "y": 80.0009994506836
                },
                "banResetFreestyle": true
            },
            {
                "$type": "MoleMole.Config.ConfigSkipGroupAction",
                "type": "SKIP_GROUP",
                "delayTime": 4.5,
                "actionId": 196
            }
        ],
        [
            {
                "$type": "CCEEIGNAILH",
                "type": "DIALOG",
                "aliasList": [
                    "1005"
                ],
                "actionId": 107,
                "KICBIOMGHIN": 40211701,
                "PNCCODDABKI": 1.0
            },
            {
                "$type": "CNBNGFNKLGP",
                "type": "STEER_TO",
                "duration": 1.0,
                "aliasList": [
                    "1005"
                ],
                "actionId": 197,
                "flag": 32,
                "DEMFHGAIELL": "ABSOLUTE",
                "KDKLEJFHDJG": {
                    "x": 3480.676025390625,
                    "y": 283.3299865722656,
                    "z": 4550.7109375
                },
                "BBNLLCHBKAI": true,
                "COJBPJMLIFM": true,
                "NLIKMFJCLBP": true,
                "KIPMIDIKECP": "",
                "IDIIDHLNENJ": true,
                "FDLMFGAMGJK": true,
                "AOFBAGFCGPJ": ""
            },
            {
                "$type": "IBPNIIGAIPF",
                "type": "LOOK_AT",
                "aliasList": [
                    "1005"
                ],
                "actionId": 198,
                "flag": 64,
                "GGIENKFBOGL": true,
                "NDOMJCOFKDJ": 0.5,
                "KIPMIDIKECP": "AvatarNpc",
                "FGPHOPBEJDE": true,
                "PEIIOFIBMAK": 10.0,
                "HJJAFGPMJNJ": "",
                "AOFBAGFCGPJ": ""
            },
            {
                "$type": "DNAEECJNBFB",
                "type": "EMO_SYNC",
                "aliasList": [
                    "1005"
                ],
                "actionId": 298,
                "flag": 256,
                "EOGJDJKPPGE": "Cs_Emo_Avatar_Simple_Common_Set/Cs_Emo_Avatar_Talk/Cs_Emo_Avatar_MainLine/Cs_Emo_Avatar_Fontaine03/Cs_Emo_40211701",
                "IHCBGPABDLE": "",
                "CIKPDMODFPL": "",
                "HDIAHFFHNGE": "",
                "BOAAGJEEFDD": "",
                "PFDPJKHPADE": "",
                "DALINBJAHOC": [
                    2629524250612839737,
                    7577417232164196129,
                    5540925881622150778,
                    4430220275980284005
                ]
            },
            {
                "$type": "OMPHNKNPPJO",
                "type": "LOOK_AT_EYECTRL",
                "delayTime": 0.26600000262260437,
                "aliasList": [
                    "AvatarNpc"
                ],
                "actionId": 203,
                "flag": 4672,
                "useTargetPos": false,
                "OMHMNNDGHFL": {
                    "x": 4.0,
                    "z": -1.0
                },
                "AMNIBCAICEP": {
                    "x": 4.0,
                    "z": -1.0
                },
                "MHBPPJNDKJC": 0.20000000298023224,
                "KIPMIDIKECP": "",
                "JJEGGHOEIPD": "Face"
            },
            {
                "$type": "IBPNIIGAIPF",
                "type": "LOOK_AT",
                "delayTime": 0.33399999141693115,
                "aliasList": [
                    "AvatarNpc"
                ],
                "actionId": 201,
                "flag": 64,
                "GGIENKFBOGL": true,
                "useTargetPos": true,
                "GCOONJBHNIM": true,
                "JHNJNNOPJKG": {
                    "x": 3480.89794921875,
                    "y": 284.4020080566406,
                    "z": 4551.02197265625
                },
                "NDOMJCOFKDJ": 0.5,
                "KIPMIDIKECP": "1005",
                "AHLPNEGAKGG": "NONE",
                "FGPHOPBEJDE": true,
                "PEIIOFIBMAK": 10.0,
                "HJJAFGPMJNJ": "",
                "AOFBAGFCGPJ": ""
            },
            {
                "$type": "MEKNGCBGKEJ",
                "type": "DIALOG_SELECT",
                "delayTime": 1.0,
                "aliasList": [
                    "AvatarNpc"
                ],
                "actionId": 138,
                "MLAABINGLAA": [
                    40211702
                ],
                "HPBPDBFGKID": [
                    3454307853
                ],
                "CFJOJADDHHG": true,
                "APEOOMIGHNL": 3454307849
            },
            {
                "$type": "KCBOGFFHPBD",
                "type": "BODY_LANG",
                "delayTime": 2.2119998931884766,
                "aliasList": [
                    "1005"
                ],
                "actionId": 256,
                "GPIEDGOMCGL": 1310,
                "FHLAMNNHMFA": true,
                "KCEHDJLKIAL": false,
                "KCOLHJBDILK": true,
                "AOFEDPBOOIE": ""
            },
            {
                "$type": "IBPNIIGAIPF",
                "type": "LOOK_AT",
                "delayTime": 5.119999885559082,
                "aliasList": [
                    "1005"
                ],
                "actionId": 205,
                "flag": 64,
                "GGIENKFBOGL": true,
                "useTargetPos": true,
                "GCOONJBHNIM": true,
                "JHNJNNOPJKG": {
                    "x": 3480.64501953125,
                    "y": 284.2799987792969,
                    "z": 4550.89794921875
                },
                "NDOMJCOFKDJ": 0.5,
                "KIPMIDIKECP": "",
                "AHLPNEGAKGG": "NONE",
                "FGPHOPBEJDE": true,
                "PEIIOFIBMAK": 10.0,
                "HJJAFGPMJNJ": "",
                "AOFBAGFCGPJ": ""
            },
            {
                "$type": "KCBOGFFHPBD",
                "type": "BODY_LANG",
                "delayTime": 5.164999961853027,
                "aliasList": [
                    "1005"
                ],
                "actionId": 204,
                "GPIEDGOMCGL": 1130,
                "FHLAMNNHMFA": true,
                "KCEHDJLKIAL": false,
                "KCOLHJBDILK": true,
                "AOFEDPBOOIE": ""
            }
        ],
        [
            {
                "$type": "MoleMole.Config.ConfigCameraDOFAction",
                "type": "CAMERA_DOF",
                "actionId": 207,
                "focusDistance": 13.005000114440918,
                "focusRange": 10.0,
                "nearFocalDistance": 1.5449999570846558,
                "nearFocalTransDistance": 0.43700000643730164,
                "quality": 3
            },
            {
                "$type": "BCJBNCJOPCE",
                "type": "CAMERA_MOVE",
                "duration": 0.5,
                "actionId": 213,
                "AKFGKKEOEFA": {
                    "x": 3480.89306640625,
                    "y": 284.43798828125,
                    "z": 4551.39404296875
                },
                "NGEBMAEFFGJ": {
                    "x": 3480.824951171875,
                    "y": 284.4259948730469,
                    "z": 4550.39599609375
                },
                "LIGHLBKBDEI": 25.0,
                "GFIOJGJJGCN": 6,
                "ABAEPHOGOFF": "EaseInOutCubic",
                "KFDBMBFFANN": {},
                "IEJBKHHEJEN": true,
                "CEDHIBLHMKP": false,
                "KIPMIDIKECP": "",
                "ANFHNPOCMNI": true,
                "BDLGHOJPJHD": "",
                "LCOJGFEOLCK": "",
                "BBBGAEDCJEL": ""
            },
            {
                "$type": "OMPHNKNPPJO",
                "type": "LOOK_AT_EYECTRL",
                "aliasList": [
                    "AvatarNpc"
                ],
                "actionId": 221,
                "flag": 4672,
                "useTargetPos": false,
                "OMHMNNDGHFL": {
                    "x": 4.0,
                    "z": -1.0
                },
                "AMNIBCAICEP": {
                    "x": 4.0,
                    "z": -1.0
                },
                "MHBPPJNDKJC": 0.20000000298023224,
                "KIPMIDIKECP": "",
                "JJEGGHOEIPD": "Face"
            },
            {
                "$type": "IBPNIIGAIPF",
                "type": "LOOK_AT",
                "aliasList": [
                    "AvatarNpc"
                ],
                "actionId": 222,
                "flag": 64,
                "GGIENKFBOGL": true,
                "useTargetPos": true,
                "GCOONJBHNIM": true,
                "JHNJNNOPJKG": {
                    "x": 3480.89794921875,
                    "y": 284.4020080566406,
                    "z": 4551.02197265625
                },
                "NDOMJCOFKDJ": 0.5,
                "KIPMIDIKECP": "1005",
                "AHLPNEGAKGG": "NONE",
                "FGPHOPBEJDE": true,
                "PEIIOFIBMAK": 10.0,
                "HJJAFGPMJNJ": "",
                "AOFBAGFCGPJ": ""
            },
            {
                "$type": "CCEEIGNAILH",
                "type": "DIALOG",
                "aliasList": [
                    "1005"
                ],
                "actionId": 110,
                "KICBIOMGHIN": 40211703,
                "PNCCODDABKI": 0.5
            },
            {
                "$type": "IBPNIIGAIPF",
                "type": "LOOK_AT",
                "aliasList": [
                    "1005"
                ],
                "actionId": 215,
                "flag": 64,
                "GGIENKFBOGL": true,
                "NDOMJCOFKDJ": 0.5,
                "KIPMIDIKECP": "AvatarNpc",
                "FGPHOPBEJDE": true,
                "PEIIOFIBMAK": 10.0,
                "HJJAFGPMJNJ": "",
                "AOFBAGFCGPJ": ""
            },
            {
                "$type": "KCBOGFFHPBD",
                "type": "BODY_LANG",
                "aliasList": [
                    "1005"
                ],
                "actionId": 216,
                "AHGOBCDHCMC": true,
                "FHLAMNNHMFA": true,
                "KCEHDJLKIAL": false,
                "KCOLHJBDILK": true,
                "AOFEDPBOOIE": ""
            },
            {
                "$type": "DNAEECJNBFB",
                "type": "EMO_SYNC",
                "aliasList": [
                    "1005"
                ],
                "actionId": 299,
                "flag": 256,
                "EOGJDJKPPGE": "Cs_Emo_Avatar_Simple_Common_Set/Cs_Emo_Avatar_Talk/Cs_Emo_Avatar_MainLine/Cs_Emo_Avatar_Fontaine03/Cs_Emo_40211703",
                "IHCBGPABDLE": "",
                "CIKPDMODFPL": "",
                "HDIAHFFHNGE": "",
                "BOAAGJEEFDD": "",
                "PFDPJKHPADE": "",
                "DALINBJAHOC": [
                    9433511533124225583,
                    4517927398504774522,
                    4270822710114178536,
                    14727571140422080101
                ]
            },
            {
                "$type": "KCBOGFFHPBD",
                "type": "BODY_LANG",
                "delayTime": 3.3369998931884766,
                "aliasList": [
                    "1005"
                ],
                "actionId": 217,
                "GPIEDGOMCGL": 1110,
                "FHLAMNNHMFA": true,
                "KCEHDJLKIAL": false,
                "KCOLHJBDILK": true,
                "AOFEDPBOOIE": ""
            },
            {
                "$type": "KCBOGFFHPBD",
                "type": "BODY_LANG",
                "delayTime": 5.303999900817871,
                "aliasList": [
                    "1005"
                ],
                "actionId": 218,
                "AHGOBCDHCMC": true,
                "FHLAMNNHMFA": true,
                "KCEHDJLKIAL": false,
                "KCOLHJBDILK": true,
                "AOFEDPBOOIE": ""
            }
        ],
        [
            {
                "$type": "MoleMole.Config.ConfigCameraDOFAction",
                "type": "CAMERA_DOF",
                "actionId": 214,
                "focusDistance": 5.0,
                "focusRange": 10.0,
                "nearFocalDistance": 1.0,
                "nearFocalTransDistance": 1.0,
                "quality": 3
            },
            {
                "$type": "CCEEIGNAILH",
                "type": "DIALOG",
                "aliasList": [
                    "1005"
                ],
                "actionId": 112,
                "KICBIOMGHIN": 40211704,
                "PNCCODDABKI": 3.7760000228881836
            },
            {
                "$type": "KCBOGFFHPBD",
                "type": "BODY_LANG",
                "aliasList": [
                    "1005"
                ],
                "actionId": 219,
                "AHGOBCDHCMC": true,
                "FHLAMNNHMFA": true,
                "KCEHDJLKIAL": false,
                "KCOLHJBDILK": true,
                "AOFEDPBOOIE": ""
            },
            {
                "$type": "DNAEECJNBFB",
                "type": "EMO_SYNC",
                "aliasList": [
                    "1005"
                ],
                "actionId": 300,
                "flag": 256,
                "EOGJDJKPPGE": "Cs_Emo_Avatar_Simple_Common_Set/Cs_Emo_Avatar_Talk/Cs_Emo_Avatar_MainLine/Cs_Emo_Avatar_Fontaine03/Cs_Emo_40211704",
                "IHCBGPABDLE": "",
                "CIKPDMODFPL": "",
                "HDIAHFFHNGE": "",
                "BOAAGJEEFDD": "",
                "PFDPJKHPADE": "",
                "DALINBJAHOC": [
                    4672691000681891496,
                    13302133328348375525,
                    834866726057517241,
                    1714946200451554715
                ]
            },
            {
                "$type": "KCBOGFFHPBD",
                "type": "BODY_LANG",
                "delayTime": 0.29600000381469727,
                "aliasList": [
                    "1005"
                ],
                "actionId": 257,
                "GPIEDGOMCGL": 1120,
                "FHLAMNNHMFA": true,
                "KCEHDJLKIAL": false,
                "KCOLHJBDILK": true,
                "AOFEDPBOOIE": ""
            },
            {
                "$type": "KCBOGFFHPBD",
                "type": "BODY_LANG",
                "delayTime": 2.7070000171661377,
                "aliasList": [
                    "1005"
                ],
                "actionId": 258,
                "AHGOBCDHCMC": true,
                "FHLAMNNHMFA": true,
                "KCEHDJLKIAL": false,
                "KCOLHJBDILK": true,
                "AOFEDPBOOIE": ""
            },
            {
                "$type": "BCJBNCJOPCE",
                "type": "CAMERA_MOVE",
                "delayTime": 3.2309999465942383,
                "duration": 0.5,
                "actionId": 245,
                "AKFGKKEOEFA": {
                    "x": 3482.06689453125,
                    "y": 284.4540100097656,
                    "z": 4549.5517578125
                },
                "NGEBMAEFFGJ": {
                    "x": 3481.306884765625,
                    "y": 284.37298583984375,
                    "z": 4550.1982421875
                },
                "LIGHLBKBDEI": 25.0,
                "GFIOJGJJGCN": 6,
                "ABAEPHOGOFF": "EaseInOutCubic",
                "KFDBMBFFANN": {},
                "IEJBKHHEJEN": true,
                "CEDHIBLHMKP": false,
                "KIPMIDIKECP": "",
                "ANFHNPOCMNI": true,
                "BDLGHOJPJHD": "",
                "LCOJGFEOLCK": "",
                "BBBGAEDCJEL": ""
            },
            {
                "$type": "BCJBNCJOPCE",
                "type": "CAMERA_MOVE",
                "delayTime": 3.3310000896453857,
                "duration": 10.0,
                "actionId": 220,
                "AKFGKKEOEFA": {
                    "x": 3482.279052734375,
                    "y": 284.4209899902344,
                    "z": 4549.8427734375
                },
                "NGEBMAEFFGJ": {
                    "x": 3481.424072265625,
                    "y": 284.35400390625,
                    "z": 4550.35791015625
                },
                "LIGHLBKBDEI": 25.0,
                "ABAEPHOGOFF": "EaseOutQuad",
                "KFDBMBFFANN": {},
                "IEJBKHHEJEN": true,
                "CEDHIBLHMKP": false,
                "KIPMIDIKECP": "",
                "ANFHNPOCMNI": true,
                "BDLGHOJPJHD": "",
                "LCOJGFEOLCK": "",
                "BBBGAEDCJEL": ""
            },
            {
                "$type": "MEKNGCBGKEJ",
                "type": "DIALOG_SELECT",
                "delayTime": 3.5,
                "aliasList": [
                    "AvatarNpc"
                ],
                "actionId": 139,
                "MLAABINGLAA": [
                    40211705
                ],
                "HPBPDBFGKID": [
                    3454307855
                ],
                "CFJOJADDHHG": true,
                "APEOOMIGHNL": 3454307849
            },
            {
                "$type": "KCBOGFFHPBD",
                "type": "BODY_LANG",
                "delayTime": 7.320000171661377,
                "aliasList": [
                    "1005"
                ],
                "actionId": 259,
                "GPIEDGOMCGL": 1110,
                "FHLAMNNHMFA": true,
                "KCEHDJLKIAL": false,
                "KCOLHJBDILK": true,
                "AOFEDPBOOIE": ""
            },
            {
                "$type": "KCBOGFFHPBD",
                "type": "BODY_LANG",
                "delayTime": 9.020999908447266,
                "aliasList": [
                    "1005"
                ],
                "actionId": 260,
                "AHGOBCDHCMC": true,
                "FHLAMNNHMFA": true,
                "KCEHDJLKIAL": false,
                "KCOLHJBDILK": true,
                "AOFEDPBOOIE": ""
            }
        ],
        [
            {
                "$type": "BCJBNCJOPCE",
                "type": "CAMERA_MOVE",
                "duration": 0.5,
                "actionId": 223,
                "AKFGKKEOEFA": {
                    "x": 3480.757080078125,
                    "y": 284.1210021972656,
                    "z": 4551.97998046875
                },
                "NGEBMAEFFGJ": {
                    "x": 3480.676025390625,
                    "y": 284.27801513671875,
                    "z": 4550.99609375
                },
                "LIGHLBKBDEI": 25.0,
                "GFIOJGJJGCN": 6,
                "ABAEPHOGOFF": "EaseInOutCubic",
                "KFDBMBFFANN": {},
                "IEJBKHHEJEN": true,
                "CEDHIBLHMKP": false,
                "KIPMIDIKECP": "",
                "ANFHNPOCMNI": true,
                "BDLGHOJPJHD": "",
                "LCOJGFEOLCK": "",
                "BBBGAEDCJEL": ""
            },
            {
                "$type": "CCEEIGNAILH",
                "type": "DIALOG",
                "aliasList": [
                    "1005"
                ],
                "actionId": 115,
                "KICBIOMGHIN": 40211706,
                "PNCCODDABKI": 0.5
            },
            {
                "$type": "KCBOGFFHPBD",
                "type": "BODY_LANG",
                "aliasList": [
                    "1005"
                ],
                "actionId": 226,
                "GPIEDGOMCGL": 1130,
                "FHLAMNNHMFA": true,
                "KCEHDJLKIAL": false,
                "KCOLHJBDILK": true,
                "AOFEDPBOOIE": ""
            },
            {
                "$type": "IBPNIIGAIPF",
                "type": "LOOK_AT",
                "aliasList": [
                    "1005"
                ],
                "actionId": 229,
                "flag": 64,
                "GGIENKFBOGL": true,
                "NDOMJCOFKDJ": 0.5,
                "KIPMIDIKECP": "AvatarNpc",
                "FGPHOPBEJDE": true,
                "PEIIOFIBMAK": 10.0,
                "HJJAFGPMJNJ": "",
                "AOFBAGFCGPJ": ""
            },
            {
                "$type": "OMPHNKNPPJO",
                "type": "LOOK_AT_EYECTRL",
                "aliasList": [
                    "1005"
                ],
                "actionId": 230,
                "flag": 4672,
                "useTargetPos": false,
                "MHBPPJNDKJC": 0.20000000298023224,
                "KIPMIDIKECP": "",
                "JJEGGHOEIPD": "Face"
            },
            {
                "$type": "DNAEECJNBFB",
                "type": "EMO_SYNC",
                "aliasList": [
                    "1005"
                ],
                "actionId": 301,
                "flag": 256,
                "EOGJDJKPPGE": "Cs_Emo_Avatar_Simple_Common_Set/Cs_Emo_Avatar_Talk/Cs_Emo_Avatar_MainLine/Cs_Emo_Avatar_Fontaine03/Cs_Emo_40211706",
                "IHCBGPABDLE": "",
                "CIKPDMODFPL": "",
                "HDIAHFFHNGE": "",
                "BOAAGJEEFDD": "",
                "PFDPJKHPADE": "",
                "DALINBJAHOC": [
                    16340546525401785285,
                    33559953486740581,
                    4427585724126286901,
                    10576649443432307304
                ]
            },
            {
                "$type": "OMPHNKNPPJO",
                "type": "LOOK_AT_EYECTRL",
                "delayTime": 1.6399999856948853,
                "aliasList": [
                    "1005"
                ],
                "actionId": 228,
                "flag": 4672,
                "useTargetPos": false,
                "OMHMNNDGHFL": {
                    "z": 4.0
                },
                "AMNIBCAICEP": {
                    "z": 4.0
                },
                "MHBPPJNDKJC": 0.20000000298023224,
                "KIPMIDIKECP": "",
                "JJEGGHOEIPD": "Face"
            },
            {
                "$type": "IBPNIIGAIPF",
                "type": "LOOK_AT",
                "delayTime": 1.694000005722046,
                "aliasList": [
                    "1005"
                ],
                "actionId": 227,
                "flag": 64,
                "GGIENKFBOGL": true,
                "useTargetPos": true,
                "GCOONJBHNIM": true,
                "JHNJNNOPJKG": {
                    "x": 3480.386962890625,
                    "y": 284.09600830078125,
                    "z": 4551.3369140625
                },
                "NDOMJCOFKDJ": 0.5,
                "KIPMIDIKECP": "",
                "AHLPNEGAKGG": "NONE",
                "FGPHOPBEJDE": true,
                "PEIIOFIBMAK": 10.0,
                "HJJAFGPMJNJ": "",
                "AOFBAGFCGPJ": ""
            }
        ],
        [
            {
                "$type": "BCJBNCJOPCE",
                "type": "CAMERA_MOVE",
                "duration": 0.5,
                "actionId": 242,
                "AKFGKKEOEFA": {
                    "x": 3480.757080078125,
                    "y": 284.1210021972656,
                    "z": 4551.97998046875
                },
                "NGEBMAEFFGJ": {
                    "x": 3480.676025390625,
                    "y": 284.27801513671875,
                    "z": 4550.99609375
                },
                "LIGHLBKBDEI": 25.0,
                "GFIOJGJJGCN": 6,
                "ABAEPHOGOFF": "EaseInOutCubic",
                "KFDBMBFFANN": {},
                "IEJBKHHEJEN": true,
                "CEDHIBLHMKP": false,
                "KIPMIDIKECP": "",
                "ANFHNPOCMNI": true,
                "BDLGHOJPJHD": "",
                "LCOJGFEOLCK": "",
                "BBBGAEDCJEL": ""
            },
            {
                "$type": "CCEEIGNAILH",
                "type": "DIALOG",
                "aliasList": [
                    "1005"
                ],
                "actionId": 117,
                "KICBIOMGHIN": 40211707,
                "PNCCODDABKI": 0.5
            },
            {
                "$type": "IBPNIIGAIPF",
                "type": "LOOK_AT",
                "aliasList": [
                    "1005"
                ],
                "actionId": 231,
                "flag": 64,
                "GGIENKFBOGL": true,
                "useTargetPos": true,
                "GCOONJBHNIM": true,
                "JHNJNNOPJKG": {
                    "x": 3480.386962890625,
                    "y": 284.09600830078125,
                    "z": 4551.3369140625
                },
                "NDOMJCOFKDJ": 0.5,
                "KIPMIDIKECP": "",
                "AHLPNEGAKGG": "NONE",
                "FGPHOPBEJDE": true,
                "PEIIOFIBMAK": 10.0,
                "HJJAFGPMJNJ": "",
                "AOFBAGFCGPJ": ""
            },
            {
                "$type": "OMPHNKNPPJO",
                "type": "LOOK_AT_EYECTRL",
                "aliasList": [
                    "1005"
                ],
                "actionId": 232,
                "flag": 4672,
                "useTargetPos": false,
                "OMHMNNDGHFL": {
                    "z": 4.0
                },
                "AMNIBCAICEP": {
                    "z": 4.0
                },
                "MHBPPJNDKJC": 0.20000000298023224,
                "KIPMIDIKECP": "",
                "JJEGGHOEIPD": "Face"
            },
            {
                "$type": "KCBOGFFHPBD",
                "type": "BODY_LANG",
                "aliasList": [
                    "1005"
                ],
                "actionId": 233,
                "GPIEDGOMCGL": 4040,
                "FHLAMNNHMFA": true,
                "KCEHDJLKIAL": false,
                "KCOLHJBDILK": true,
                "AOFEDPBOOIE": ""
            },
            {
                "$type": "DNAEECJNBFB",
                "type": "EMO_SYNC",
                "aliasList": [
                    "1005"
                ],
                "actionId": 302,
                "flag": 256,
                "EOGJDJKPPGE": "Cs_Emo_Avatar_Simple_Common_Set/Cs_Emo_Avatar_Talk/Cs_Emo_Avatar_MainLine/Cs_Emo_Avatar_Fontaine03/Cs_Emo_40211707",
                "IHCBGPABDLE": "",
                "CIKPDMODFPL": "",
                "HDIAHFFHNGE": "",
                "BOAAGJEEFDD": "",
                "PFDPJKHPADE": "",
                "DALINBJAHOC": [
                    16643452709179831984,
                    7100826122137077146,
                    1871246112159456990,
                    16184774001750605105
                ]
            },
            {
                "$type": "OMPHNKNPPJO",
                "type": "LOOK_AT_EYECTRL",
                "delayTime": 1.1549999713897705,
                "aliasList": [
                    "1005"
                ],
                "actionId": 235,
                "flag": 4672,
                "useTargetPos": false,
                "MHBPPJNDKJC": 0.20000000298023224,
                "KIPMIDIKECP": "",
                "JJEGGHOEIPD": "Face"
            },
            {
                "$type": "IBPNIIGAIPF",
                "type": "LOOK_AT",
                "delayTime": 1.2649999856948853,
                "aliasList": [
                    "1005"
                ],
                "actionId": 234,
                "flag": 64,
                "GGIENKFBOGL": true,
                "NDOMJCOFKDJ": 0.5,
                "KIPMIDIKECP": "AvatarNpc",
                "FGPHOPBEJDE": true,
                "PEIIOFIBMAK": 10.0,
                "HJJAFGPMJNJ": "",
                "AOFBAGFCGPJ": ""
            },
            {
                "$type": "KCBOGFFHPBD",
                "type": "BODY_LANG",
                "delayTime": 3.002000093460083,
                "aliasList": [
                    "1005"
                ],
                "actionId": 236,
                "AHGOBCDHCMC": true,
                "FHLAMNNHMFA": true,
                "KCEHDJLKIAL": false,
                "KCOLHJBDILK": true,
                "AOFEDPBOOIE": ""
            },
            {
                "$type": "BCJBNCJOPCE",
                "type": "CAMERA_MOVE",
                "delayTime": 3.5,
                "duration": 0.5,
                "actionId": 243,
                "AKFGKKEOEFA": {
                    "x": 3481.448974609375,
                    "y": 284.5840148925781,
                    "z": 4550.09912109375
                },
                "NGEBMAEFFGJ": {
                    "x": 3480.6650390625,
                    "y": 284.4309997558594,
                    "z": 4550.69921875
                },
                "LIGHLBKBDEI": 30.0,
                "GFIOJGJJGCN": 6,
                "ABAEPHOGOFF": "EaseInOutCubic",
                "KFDBMBFFANN": {},
                "IEJBKHHEJEN": true,
                "CEDHIBLHMKP": false,
                "KIPMIDIKECP": "",
                "ANFHNPOCMNI": true,
                "BDLGHOJPJHD": "",
                "LCOJGFEOLCK": "",
                "BBBGAEDCJEL": ""
            },
            {
                "$type": "BCJBNCJOPCE",
                "type": "CAMERA_MOVE",
                "delayTime": 3.5999999046325684,
                "duration": 6.0,
                "actionId": 241,
                "AKFGKKEOEFA": {
                    "x": 3481.47412109375,
                    "y": 284.58599853515625,
                    "z": 4550.130859375
                },
                "NGEBMAEFFGJ": {
                    "x": 3480.68896484375,
                    "y": 284.4330139160156,
                    "z": 4550.73193359375
                },
                "LIGHLBKBDEI": 30.0,
                "ABAEPHOGOFF": "EaseOutQuad",
                "KFDBMBFFANN": {},
                "IEJBKHHEJEN": true,
                "CEDHIBLHMKP": false,
                "KIPMIDIKECP": "",
                "ANFHNPOCMNI": true,
                "BDLGHOJPJHD": "",
                "LCOJGFEOLCK": "",
                "BBBGAEDCJEL": ""
            },
            {
                "$type": "KCBOGFFHPBD",
                "type": "BODY_LANG",
                "delayTime": 5.093999862670898,
                "aliasList": [
                    "1005"
                ],
                "actionId": 237,
                "GPIEDGOMCGL": 1230,
                "FHLAMNNHMFA": true,
                "KCEHDJLKIAL": false,
                "KCOLHJBDILK": true,
                "AOFEDPBOOIE": ""
            }
        ],
        [
            {
                "$type": "MoleMole.Config.ConfigLocalGadgetOP",
                "type": "LOCAL_GADGET_OP",
                "actionId": 244,
                "gadgetId": 70711318,
                "oprCode": 1,
                "slotName": "",
                "sceneId": 3,
                "position": {
                    "x": 3482.235107421875,
                    "y": 284.1189880371094,
                    "z": 4551.85693359375
                },
                "euler": {
                    "y": 126.5999984741211
                },
                "gvKey": ""
            },
            {
                "$type": "DNAEECJNBFB",
                "type": "EMO_SYNC",
                "aliasList": [
                    "1005"
                ],
                "actionId": 303,
                "flag": 256,
                "EOGJDJKPPGE": "Cs_Emo_Avatar_Simple_Common_Set/Cs_Emo_Avatar_Talk/Cs_Emo_Avatar_MainLine/Cs_Emo_Avatar_Fontaine03/Cs_Emo_40211708",
                "IHCBGPABDLE": "",
                "CIKPDMODFPL": "",
                "HDIAHFFHNGE": "",
                "BOAAGJEEFDD": "",
                "PFDPJKHPADE": "",
                "DALINBJAHOC": [
                    10848937034670856604,
                    7289370360017877804,
                    12918012853512337006,
                    10683744899425301903
                ]
            },
            {
                "$type": "BCJBNCJOPCE",
                "type": "CAMERA_MOVE",
                "duration": 0.5,
                "actionId": 265,
                "AKFGKKEOEFA": {
                    "x": 3481.85693359375,
                    "y": 284.5270080566406,
                    "z": 4555.130859375
                },
                "NGEBMAEFFGJ": {
                    "x": 3481.73388671875,
                    "y": 284.4419860839844,
                    "z": 4554.14306640625
                },
                "LIGHLBKBDEI": 25.0,
                "GFIOJGJJGCN": 6,
                "ABAEPHOGOFF": "EaseOutQuad",
                "KFDBMBFFANN": {},
                "IEJBKHHEJEN": true,
                "CEDHIBLHMKP": false,
                "KIPMIDIKECP": "",
                "ANFHNPOCMNI": true,
                "BDLGHOJPJHD": "",
                "LCOJGFEOLCK": "",
                "BBBGAEDCJEL": ""
            },
            {
                "$type": "MoleMole.Config.ConfigCameraDOFAction",
                "type": "CAMERA_DOF",
                "actionId": 266,
                "enabled": true,
                "focusDistance": 50.0,
                "focusRange": 10.0,
                "nearFocalDistance": 2.9769999980926514,
                "nearFocalTransDistance": 1.0,
                "dofBlurAmount": 1.0,
                "quality": 3
            },
            {
                "$type": "KCBOGFFHPBD",
                "type": "BODY_LANG",
                "aliasList": [
                    "1005"
                ],
                "actionId": 261,
                "AHGOBCDHCMC": true,
                "FHLAMNNHMFA": true,
                "KCEHDJLKIAL": false,
                "KCOLHJBDILK": true,
                "AOFEDPBOOIE": ""
            },
            {
                "$type": "CCEEIGNAILH",
                "type": "DIALOG",
                "aliasList": [
                    "1005"
                ],
                "actionId": 119,
                "KICBIOMGHIN": 40211708,
                "PNCCODDABKI": 0.5
            },
            {
                "$type": "OMPHNKNPPJO",
                "type": "LOOK_AT_EYECTRL",
                "aliasList": [
                    "1005"
                ],
                "actionId": 252,
                "flag": 4672,
                "useTargetPos": false,
                "OMHMNNDGHFL": {
                    "z": 4.0
                },
                "AMNIBCAICEP": {
                    "z": 4.0
                },
                "MHBPPJNDKJC": 0.20000000298023224,
                "KIPMIDIKECP": "",
                "JJEGGHOEIPD": "Face"
            },
            {
                "$type": "IBPNIIGAIPF",
                "type": "LOOK_AT",
                "aliasList": [
                    "1005"
                ],
                "actionId": 255,
                "flag": 64,
                "NDOMJCOFKDJ": 0.5,
                "KIPMIDIKECP": "AvatarNpc",
                "FGPHOPBEJDE": true,
                "PEIIOFIBMAK": 10.0,
                "HJJAFGPMJNJ": "",
                "AOFBAGFCGPJ": ""
            },
            {
                "$type": "BCJBNCJOPCE",
                "type": "CAMERA_MOVE",
                "delayTime": 0.10000000149011612,
                "duration": 5.900000095367432,
                "actionId": 253,
                "AKFGKKEOEFA": {
                    "x": 3481.781005859375,
                    "y": 284.5270080566406,
                    "z": 4555.14111328125
                },
                "NGEBMAEFFGJ": {
                    "x": 3481.657958984375,
                    "y": 284.4419860839844,
                    "z": 4554.15185546875
                },
                "LIGHLBKBDEI": 25.0,
                "ABAEPHOGOFF": "Linear",
                "KFDBMBFFANN": {},
                "IEJBKHHEJEN": true,
                "CEDHIBLHMKP": false,
                "KIPMIDIKECP": "",
                "ANFHNPOCMNI": true,
                "BDLGHOJPJHD": "",
                "LCOJGFEOLCK": "",
                "BBBGAEDCJEL": ""
            },
            {
                "$type": "KCBOGFFHPBD",
                "type": "BODY_LANG",
                "delayTime": 0.14000000059604645,
                "aliasList": [
                    "1005"
                ],
                "actionId": 246,
                "GPIEDGOMCGL": 1190,
                "FHLAMNNHMFA": true,
                "KCEHDJLKIAL": false,
                "KCOLHJBDILK": true,
                "AOFEDPBOOIE": ""
            },
            {
                "$type": "MEKNGCBGKEJ",
                "type": "DIALOG_SELECT",
                "delayTime": 0.4000000059604645,
                "aliasList": [
                    "AvatarNpc"
                ],
                "actionId": 140,
                "MLAABINGLAA": [
                    40211709
                ],
                "HPBPDBFGKID": [
                    3454307858
                ],
                "CFJOJADDHHG": true,
                "APEOOMIGHNL": 3454307849
            },
            {
                "$type": "OMPHNKNPPJO",
                "type": "LOOK_AT_EYECTRL",
                "delayTime": 3.118000030517578,
                "aliasList": [
                    "1005"
                ],
                "actionId": 251,
                "flag": 4672,
                "useTargetPos": false,
                "MHBPPJNDKJC": 0.20000000298023224,
                "KIPMIDIKECP": "",
                "JJEGGHOEIPD": "Face"
            },
            {
                "$type": "IBPNIIGAIPF",
                "type": "LOOK_AT",
                "delayTime": 3.1649999618530273,
                "aliasList": [
                    "1005"
                ],
                "actionId": 321,
                "flag": 64,
                "GGIENKFBOGL": true,
                "NDOMJCOFKDJ": 0.5,
                "KIPMIDIKECP": "AvatarNpc",
                "FGPHOPBEJDE": true,
                "PEIIOFIBMAK": 10.0,
                "HJJAFGPMJNJ": "",
                "AOFBAGFCGPJ": ""
            },
            {
                "$type": "KCBOGFFHPBD",
                "type": "BODY_LANG",
                "delayTime": 3.2860000133514404,
                "aliasList": [
                    "1005"
                ],
                "actionId": 322,
                "AHGOBCDHCMC": true,
                "FHLAMNNHMFA": true,
                "KCEHDJLKIAL": false,
                "KCOLHJBDILK": true,
                "AOFEDPBOOIE": ""
            },
            {
                "$type": "KCBOGFFHPBD",
                "type": "BODY_LANG",
                "delayTime": 5.4079999923706055,
                "aliasList": [
                    "1005"
                ],
                "actionId": 249,
                "GPIEDGOMCGL": 1090,
                "FHLAMNNHMFA": true,
                "KCEHDJLKIAL": false,
                "KCOLHJBDILK": true,
                "AOFEDPBOOIE": ""
            },
            {
                "$type": "BCJBNCJOPCE",
                "type": "CAMERA_MOVE",
                "delayTime": 6.0,
                "duration": 0.5,
                "actionId": 262,
                "AKFGKKEOEFA": {
                    "x": 3480.987060546875,
                    "y": 284.4580078125,
                    "z": 4551.044921875
                },
                "NGEBMAEFFGJ": {
                    "x": 3480.8310546875,
                    "y": 284.4939880371094,
                    "z": 4550.05810546875
                },
                "LIGHLBKBDEI": 25.0,
                "GFIOJGJJGCN": 6,
                "ABAEPHOGOFF": "EaseOutQuad",
                "KFDBMBFFANN": {},
                "IEJBKHHEJEN": true,
                "CEDHIBLHMKP": false,
                "KIPMIDIKECP": "",
                "ANFHNPOCMNI": true,
                "BDLGHOJPJHD": "",
                "LCOJGFEOLCK": "",
                "BBBGAEDCJEL": ""
            },
            {
                "$type": "MoleMole.Config.ConfigCameraDOFAction",
                "type": "CAMERA_DOF",
                "delayTime": 6.0,
                "actionId": 267,
                "focusDistance": 5.0,
                "focusRange": 10.0,
                "nearFocalDistance": 1.0,
                "nearFocalTransDistance": 1.0,
                "quality": 3
            },
            {
                "$type": "OMPHNKNPPJO",
                "type": "LOOK_AT_EYECTRL",
                "delayTime": 6.788000106811523,
                "aliasList": [
                    "1005"
                ],
                "actionId": 263,
                "flag": 4672,
                "useTargetPos": false,
                "OMHMNNDGHFL": {
                    "x": 10.0
                },
                "AMNIBCAICEP": {
                    "x": 10.0
                },
                "MHBPPJNDKJC": 0.20000000298023224,
                "KIPMIDIKECP": "",
                "JJEGGHOEIPD": "Face"
            },
            {
                "$type": "IBPNIIGAIPF",
                "type": "LOOK_AT",
                "delayTime": 6.861999988555908,
                "aliasList": [
                    "1005"
                ],
                "actionId": 264,
                "flag": 64,
                "GGIENKFBOGL": true,
                "useTargetPos": true,
                "GCOONJBHNIM": true,
                "JHNJNNOPJKG": {
                    "x": 3480.947998046875,
                    "y": 284.28399658203125,
                    "z": 4551.06884765625
                },
                "NDOMJCOFKDJ": 0.30000001192092896,
                "KIPMIDIKECP": "",
                "AHLPNEGAKGG": "NONE",
                "FGPHOPBEJDE": true,
                "PEIIOFIBMAK": 10.0,
                "HJJAFGPMJNJ": "",
                "AOFBAGFCGPJ": ""
            }
        ],
        [
            {
                "$type": "MoleMole.Config.ConfigCameraDOFAction",
                "type": "CAMERA_DOF",
                "actionId": 268,
                "focusDistance": 5.0,
                "focusRange": 10.0,
                "nearFocalDistance": 1.0,
                "nearFocalTransDistance": 1.0,
                "quality": 3
            },
            {
                "$type": "BCJBNCJOPCE",
                "type": "CAMERA_MOVE",
                "duration": 0.5,
                "actionId": 269,
                "AKFGKKEOEFA": {
                    "x": 3480.929931640625,
                    "y": 284.4100036621094,
                    "z": 4552.4677734375
                },
                "NGEBMAEFFGJ": {
                    "x": 3480.748046875,
                    "y": 284.3710021972656,
                    "z": 4551.48583984375
                },
                "LIGHLBKBDEI": 25.0,
                "GFIOJGJJGCN": 6,
                "ABAEPHOGOFF": "EaseInOutCubic",
                "KFDBMBFFANN": {},
                "IEJBKHHEJEN": true,
                "CEDHIBLHMKP": false,
                "KIPMIDIKECP": "",
                "ANFHNPOCMNI": true,
                "BDLGHOJPJHD": "",
                "LCOJGFEOLCK": "",
                "BBBGAEDCJEL": ""
            },
            {
                "$type": "CCEEIGNAILH",
                "type": "DIALOG",
                "aliasList": [
                    "1005"
                ],
                "actionId": 122,
                "KICBIOMGHIN": 40211710,
                "PNCCODDABKI": 0.5
            },
            {
                "$type": "KCBOGFFHPBD",
                "type": "BODY_LANG",
                "aliasList": [
                    "1005"
                ],
                "actionId": 270,
                "AHGOBCDHCMC": true,
                "FHLAMNNHMFA": true,
                "KCEHDJLKIAL": false,
                "KCOLHJBDILK": true,
                "AOFEDPBOOIE": ""
            },
            {
                "$type": "OMPHNKNPPJO",
                "type": "LOOK_AT_EYECTRL",
                "aliasList": [
                    "1005"
                ],
                "actionId": 271,
                "flag": 4672,
                "useTargetPos": false,
                "MHBPPJNDKJC": 0.20000000298023224,
                "KIPMIDIKECP": "",
                "JJEGGHOEIPD": "Face"
            },
            {
                "$type": "IBPNIIGAIPF",
                "type": "LOOK_AT",
                "aliasList": [
                    "1005"
                ],
                "actionId": 272,
                "flag": 64,
                "GGIENKFBOGL": true,
                "NDOMJCOFKDJ": 0.5,
                "KIPMIDIKECP": "AvatarNpc",
                "FGPHOPBEJDE": true,
                "PEIIOFIBMAK": 10.0,
                "HJJAFGPMJNJ": "",
                "AOFBAGFCGPJ": ""
            },
            {
                "$type": "DNAEECJNBFB",
                "type": "EMO_SYNC",
                "aliasList": [
                    "1005"
                ],
                "actionId": 304,
                "flag": 256,
                "EOGJDJKPPGE": "Cs_Emo_Avatar_Simple_Common_Set/Cs_Emo_Avatar_Talk/Cs_Emo_Avatar_MainLine/Cs_Emo_Avatar_Fontaine03/Cs_Emo_40211710",
                "IHCBGPABDLE": "",
                "CIKPDMODFPL": "",
                "HDIAHFFHNGE": "",
                "BOAAGJEEFDD": "",
                "PFDPJKHPADE": "",
                "DALINBJAHOC": [
                    5022385606719704094,
                    9297494825733447258,
                    6781845578315081018,
                    13570467599552162383
                ]
            },
            {
                "$type": "MEKNGCBGKEJ",
                "type": "DIALOG_SELECT",
                "delayTime": 0.4000000059604645,
                "aliasList": [
                    "AvatarNpc"
                ],
                "actionId": 141,
                "MLAABINGLAA": [
                    40211711
                ],
                "HPBPDBFGKID": [
                    4004328294
                ],
                "CFJOJADDHHG": true,
                "APEOOMIGHNL": 3454307849
            },
            {
                "$type": "KCBOGFFHPBD",
                "type": "BODY_LANG",
                "delayTime": 0.5730000138282776,
                "aliasList": [
                    "1005"
                ],
                "actionId": 273,
                "GPIEDGOMCGL": 1110,
                "FHLAMNNHMFA": true,
                "KCEHDJLKIAL": false,
                "KCOLHJBDILK": true,
                "AOFEDPBOOIE": ""
            },
            {
                "$type": "KCBOGFFHPBD",
                "type": "BODY_LANG",
                "delayTime": 2.5199999809265137,
                "aliasList": [
                    "1005"
                ],
                "actionId": 274,
                "GPIEDGOMCGL": 1130,
                "FHLAMNNHMFA": true,
                "KCEHDJLKIAL": false,
                "KCOLHJBDILK": true,
                "AOFEDPBOOIE": ""
            },
            {
                "$type": "KCBOGFFHPBD",
                "type": "BODY_LANG",
                "delayTime": 4.004000186920166,
                "aliasList": [
                    "AvatarNpc"
                ],
                "actionId": 275,
                "GPIEDGOMCGL": 4040,
                "FHLAMNNHMFA": true,
                "KCEHDJLKIAL": false,
                "KCOLHJBDILK": true,
                "AOFEDPBOOIE": ""
            }
        ],
        [
            {
                "$type": "BCJBNCJOPCE",
                "type": "CAMERA_MOVE",
                "duration": 0.5,
                "actionId": 277,
                "AKFGKKEOEFA": {
                    "x": 3483.133056640625,
                    "y": 284.4079895019531,
                    "z": 4552.421875
                },
                "NGEBMAEFFGJ": {
                    "x": 3482.282958984375,
                    "y": 284.3290100097656,
                    "z": 4551.90087890625
                },
                "LIGHLBKBDEI": 25.0,
                "GFIOJGJJGCN": 6,
                "ABAEPHOGOFF": "EaseInOutCubic",
                "KFDBMBFFANN": {},
                "IEJBKHHEJEN": true,
                "CEDHIBLHMKP": false,
                "KIPMIDIKECP": "",
                "ANFHNPOCMNI": true,
                "BDLGHOJPJHD": "",
                "LCOJGFEOLCK": "",
                "BBBGAEDCJEL": ""
            },
            {
                "$type": "DNAEECJNBFB",
                "type": "EMO_SYNC",
                "aliasList": [
                    "AvatarNpc"
                ],
                "actionId": 286,
                "flag": 256,
                "EOGJDJKPPGE": "",
                "IHCBGPABDLE": "Cs_Emo_Avatar_Common/Cs_Emo_Avatar_Normal01",
                "CIKPDMODFPL": "Cs_Emo_Avatar_Common/Cs_Emo_Avatar_Normal01",
                "HDIAHFFHNGE": "",
                "BOAAGJEEFDD": "",
                "PFDPJKHPADE": "",
                "MJAONEKDECJ": [
                    9445916536337636767,
                    14128686126614747219,
                    10779105391569104182,
                    11659242061757756269
                ],
                "DAALMFGCAOO": [
                    3341118736972784235,
                    17518384881145547503,
                    1737609680237640824,
                    13896238032681170250
                ]
            },
            {
                "$type": "CCEEIGNAILH",
                "type": "DIALOG",
                "aliasList": [
                    "1005"
                ],
                "actionId": 125,
                "KICBIOMGHIN": 40211712,
                "PNCCODDABKI": 1.100000023841858
            },
            {
                "$type": "KCBOGFFHPBD",
                "type": "BODY_LANG",
                "aliasList": [
                    "1005"
                ],
                "actionId": 278,
                "AHGOBCDHCMC": true,
                "FHLAMNNHMFA": true,
                "KCEHDJLKIAL": false,
                "KCOLHJBDILK": true,
                "AOFEDPBOOIE": ""
            },
            {
                "$type": "IBPNIIGAIPF",
                "type": "LOOK_AT",
                "aliasList": [
                    "1005"
                ],
                "actionId": 280,
                "flag": 64,
                "GGIENKFBOGL": true,
                "useTargetPos": true,
                "GCOONJBHNIM": true,
                "JHNJNNOPJKG": {
                    "x": 3481.910888671875,
                    "y": 284.2279968261719,
                    "z": 4551.83984375
                },
                "NDOMJCOFKDJ": 0.5,
                "KIPMIDIKECP": "",
                "AHLPNEGAKGG": "NONE",
                "FGPHOPBEJDE": true,
                "PEIIOFIBMAK": 10.0,
                "HJJAFGPMJNJ": "",
                "AOFBAGFCGPJ": ""
            },
            {
                "$type": "DNAEECJNBFB",
                "type": "EMO_SYNC",
                "aliasList": [
                    "1005"
                ],
                "actionId": 305,
                "flag": 256,
                "EOGJDJKPPGE": "Cs_Emo_Avatar_Simple_Common_Set/Cs_Emo_Avatar_Talk/Cs_Emo_Avatar_MainLine/Cs_Emo_Avatar_Fontaine03/Cs_Emo_40211712",
                "IHCBGPABDLE": "",
                "CIKPDMODFPL": "",
                "HDIAHFFHNGE": "",
                "BOAAGJEEFDD": "",
                "PFDPJKHPADE": "",
                "DALINBJAHOC": [
                    13887002768376509048,
                    4204531181102795905,
                    5332581672300224447,
                    4120879911646054839
                ]
            },
            {
                "$type": "MoleMole.Config.ConfigTeleportToAction",
                "type": "TELEPORT_TO",
                "aliasList": [
                    "1005"
                ],
                "actionId": 316,
                "flag": 4,
                "position": {
                    "x": 3480.85595703125,
                    "y": 283.3340148925781,
                    "z": 4550.373046875
                },
                "forward": {
                    "x": -0.4699999988079071,
                    "z": 0.8830000162124634
                },
                "openLongDisTeleport": true,
                "syncForward": true,
                "posBindMovingTargetKey": "",
                "forwardBindMovingTargetKey": ""
            },
            {
                "$type": "BCJBNCJOPCE",
                "type": "CAMERA_MOVE",
                "delayTime": 0.10000000149011612,
                "duration": 6.0,
                "actionId": 276,
                "AKFGKKEOEFA": {
                    "x": 3483.319091796875,
                    "y": 284.42498779296875,
                    "z": 4552.5361328125
                },
                "NGEBMAEFFGJ": {
                    "x": 3482.468994140625,
                    "y": 284.34600830078125,
                    "z": 4552.01513671875
                },
                "LIGHLBKBDEI": 25.0,
                "ABAEPHOGOFF": "EaseOutQuad",
                "KFDBMBFFANN": {},
                "IEJBKHHEJEN": true,
                "CEDHIBLHMKP": false,
                "KIPMIDIKECP": "",
                "ANFHNPOCMNI": true,
                "BDLGHOJPJHD": "",
                "LCOJGFEOLCK": "",
                "BBBGAEDCJEL": ""
            },
            {
                "$type": "CNBNGFNKLGP",
                "type": "STEER_TO",
                "delayTime": 0.10000000149011612,
                "duration": 1.0,
                "aliasList": [
                    "1005"
                ],
                "actionId": 279,
                "flag": 32,
                "DEMFHGAIELL": "ABSOLUTE",
                "KDKLEJFHDJG": {
                    "x": 3481.2958984375,
                    "y": 283.32501220703125,
                    "z": 4550.951171875
                },
                "BBNLLCHBKAI": true,
                "COJBPJMLIFM": true,
                "NLIKMFJCLBP": true,
                "KIPMIDIKECP": "",
                "IDIIDHLNENJ": true,
                "FDLMFGAMGJK": true,
                "AOFBAGFCGPJ": ""
            },
            {
                "$type": "OMPHNKNPPJO",
                "type": "LOOK_AT_EYECTRL",
                "delayTime": 1.1649999618530273,
                "aliasList": [
                    "AvatarNpc"
                ],
                "actionId": 282,
                "flag": 4672,
                "useTargetPos": false,
                "OMHMNNDGHFL": {
                    "z": 2.0
                },
                "AMNIBCAICEP": {
                    "z": 2.0
                },
                "MHBPPJNDKJC": 0.20000000298023224,
                "KIPMIDIKECP": "",
                "JJEGGHOEIPD": "Face"
            },
            {
                "$type": "DNAEECJNBFB",
                "type": "EMO_SYNC",
                "delayTime": 1.2230000495910645,
                "aliasList": [
                    "AvatarNpc"
                ],
                "actionId": 283,
                "flag": 256,
                "EOGJDJKPPGE": "",
                "IHCBGPABDLE": "Cs_Emo_Avatar_Common/Cs_Emo_Avatar_Angry01",
                "CIKPDMODFPL": "Cs_Emo_Avatar_Common/Cs_Emo_Avatar_Normal01_B",
                "HDIAHFFHNGE": "",
                "BOAAGJEEFDD": "",
                "PFDPJKHPADE": "",
                "MIDKJONOACI": false,
                "MJAONEKDECJ": [
                    14296606849723709100,
                    5508348580450379567,
                    7627497203169383327,
                    8979581647593659876
                ],
                "DAALMFGCAOO": [
                    12958401574658666588,
                    15474241282904027449,
                    9323653209111416134,
                    8508374650737503979
                ]
            },
            {
                "$type": "IBPNIIGAIPF",
                "type": "LOOK_AT",
                "delayTime": 1.2339999675750732,
                "aliasList": [
                    "AvatarNpc"
                ],
                "actionId": 281,
                "flag": 64,
                "GGIENKFBOGL": true,
                "useTargetPos": true,
                "GCOONJBHNIM": true,
                "JHNJNNOPJKG": {
                    "x": 3481.862060546875,
                    "y": 284.1650085449219,
                    "z": 4551.7490234375
                },
                "NDOMJCOFKDJ": 0.5,
                "KIPMIDIKECP": "",
                "AHLPNEGAKGG": "NONE",
                "FGPHOPBEJDE": true,
                "PEIIOFIBMAK": 10.0,
                "HJJAFGPMJNJ": "",
                "AOFBAGFCGPJ": ""
            }
        ],
        [
            {
                "$type": "BCJBNCJOPCE",
                "type": "CAMERA_MOVE",
                "duration": 0.5,
                "actionId": 311,
                "AKFGKKEOEFA": {
                    "x": 3482.264892578125,
                    "y": 284.18701171875,
                    "z": 4552.34814453125
                },
                "NGEBMAEFFGJ": {
                    "x": 3481.85888671875,
                    "y": 284.2040100097656,
                    "z": 4551.43505859375
                },
                "LIGHLBKBDEI": 25.0,
                "GFIOJGJJGCN": 6,
                "ABAEPHOGOFF": "EaseInOutCubic",
                "KFDBMBFFANN": {},
                "IEJBKHHEJEN": true,
                "CEDHIBLHMKP": false,
                "KIPMIDIKECP": "",
                "ANFHNPOCMNI": true,
                "BDLGHOJPJHD": "",
                "LCOJGFEOLCK": "",
                "BBBGAEDCJEL": ""
            },
            {
                "$type": "MoleMole.Config.ConfigCameraDOFAction",
                "type": "CAMERA_DOF",
                "actionId": 323,
                "enabled": true,
                "focusDistance": 50.0,
                "focusRange": 10.0,
                "nearFocalDistance": 1.2170000076293945,
                "nearFocalTransDistance": 0.25699999928474426,
                "dofBlurAmount": 2.0,
                "quality": 3
            },
            {
                "$type": "DNAEECJNBFB",
                "type": "EMO_SYNC",
                "aliasList": [
                    "AvatarNpc"
                ],
                "actionId": 287,
                "flag": 320,
                "EOGJDJKPPGE": "",
                "IHCBGPABDLE": "Cs_Emo_Avatar_Common/Cs_Emo_Avatar_Angry01",
                "CIKPDMODFPL": "Cs_Emo_Avatar_Common/Cs_Emo_Avatar_Normal01",
                "HDIAHFFHNGE": "",
                "BOAAGJEEFDD": "",
                "PFDPJKHPADE": "",
                "MJAONEKDECJ": [
                    14296606849723709100,
                    5508348580450379567,
                    7627497203169383327,
                    8979581647593659876
                ],
                "DAALMFGCAOO": [
                    3341118736972784235,
                    17518384881145547503,
                    1737609680237640824,
                    13896238032681170250
                ]
            },
            {
                "$type": "IBPNIIGAIPF",
                "type": "LOOK_AT",
                "aliasList": [
                    "AvatarNpc"
                ],
                "actionId": 288,
                "flag": 64,
                "GGIENKFBOGL": true,
                "useTargetPos": true,
                "GCOONJBHNIM": true,
                "JHNJNNOPJKG": {
                    "x": 3481.862060546875,
                    "y": 284.1650085449219,
                    "z": 4551.7490234375
                },
                "NDOMJCOFKDJ": 0.5,
                "KIPMIDIKECP": "",
                "AHLPNEGAKGG": "NONE",
                "FGPHOPBEJDE": true,
                "PEIIOFIBMAK": 10.0,
                "HJJAFGPMJNJ": "",
                "AOFBAGFCGPJ": ""
            },
            {
                "$type": "OMPHNKNPPJO",
                "type": "LOOK_AT_EYECTRL",
                "aliasList": [
                    "AvatarNpc"
                ],
                "actionId": 289,
                "flag": 4672,
                "useTargetPos": false,
                "OMHMNNDGHFL": {
                    "z": 2.0
                },
                "AMNIBCAICEP": {
                    "z": 2.0
                },
                "MHBPPJNDKJC": 0.20000000298023224,
                "KIPMIDIKECP": "",
                "JJEGGHOEIPD": "Face"
            },
            {
                "$type": "CCEEIGNAILH",
                "type": "DIALOG",
                "aliasList": [
                    "1005"
                ],
                "actionId": 127,
                "KICBIOMGHIN": 40211713,
                "PNCCODDABKI": 0.5
            },
            {
                "$type": "IBPNIIGAIPF",
                "type": "LOOK_AT",
                "aliasList": [
                    "1005"
                ],
                "actionId": 285,
                "flag": 64,
                "NDOMJCOFKDJ": 0.5,
                "KIPMIDIKECP": "",
                "FGPHOPBEJDE": true,
                "PEIIOFIBMAK": 10.0,
                "HJJAFGPMJNJ": "",
                "AOFBAGFCGPJ": ""
            },
            {
                "$type": "DNAEECJNBFB",
                "type": "EMO_SYNC",
                "aliasList": [
                    "1005"
                ],
                "actionId": 306,
                "flag": 256,
                "EOGJDJKPPGE": "Cs_Emo_Avatar_Simple_Common_Set/Cs_Emo_Avatar_Talk/Cs_Emo_Avatar_MainLine/Cs_Emo_Avatar_Fontaine03/Cs_Emo_40211713",
                "IHCBGPABDLE": "",
                "CIKPDMODFPL": "",
                "HDIAHFFHNGE": "",
                "BOAAGJEEFDD": "",
                "PFDPJKHPADE": "",
                "DALINBJAHOC": [
                    16462827640032464698,
                    6464452336631565673,
                    10952898616165801227,
                    14912535065711290315
                ]
            },
            {
                "$type": "MoleMole.Config.ConfigMoveToAction",
                "type": "MOVE_TO",
                "aliasList": [
                    "1005"
                ],
                "actionId": 309,
                "moveType": "WALK",
                "routeList": [
                    {
                        "x": 3481.470947265625,
                        "y": 283.3219909667969,
                        "z": 4551.0859375
                    }
                ],
                "exactlyMove": true,
                "closeNavMesh": true,
                "openSetPos": true,
                "bindMovingTargetKey": "",
                "delayTriggerNextTime": 0.30000001192092896
            },
            {
                "$type": "MoleMole.Config.ConfigSetModelTransform",
                "type": "SET_MODEL_TRANSFORM",
                "duration": 0.5,
                "aliasList": [
                    "1005"
                ],
                "actionId": 310,
                "groudHight": 0.10000000149011612,
                "useBlend": true,
                "blendType": "EaseOutQuart"
            },
            {
                "$type": "MoleMole.Config.ConfigColliderOpInterAction",
                "type": "COLLIDER_OP",
                "aliasList": [
                    "1005"
                ],
                "actionId": 314,
                "isClose": true
            },
            {
                "$type": "BCJBNCJOPCE",
                "type": "CAMERA_MOVE",
                "delayTime": 0.10000000149011612,
                "duration": 6.0,
                "actionId": 317,
                "AKFGKKEOEFA": {
                    "x": 3482.2958984375,
                    "y": 284.18798828125,
                    "z": 4552.3349609375
                },
                "NGEBMAEFFGJ": {
                    "x": 3481.889892578125,
                    "y": 284.2049865722656,
                    "z": 4551.421875
                },
                "LIGHLBKBDEI": 25.0,
                "ABAEPHOGOFF": "EaseOutQuad",
                "KFDBMBFFANN": {},
                "IEJBKHHEJEN": true,
                "CEDHIBLHMKP": false,
                "KIPMIDIKECP": "",
                "ANFHNPOCMNI": true,
                "BDLGHOJPJHD": "",
                "LCOJGFEOLCK": "",
                "BBBGAEDCJEL": ""
            }
        ],
        [
            {
                "$type": "BCJBNCJOPCE",
                "type": "CAMERA_MOVE",
                "duration": 0.5,
                "actionId": 293,
                "AKFGKKEOEFA": {
                    "x": 3481.16796875,
                    "y": 284.5880126953125,
                    "z": 4551.10107421875
                },
                "NGEBMAEFFGJ": {
                    "x": 3481.950927734375,
                    "y": 284.3070068359375,
                    "z": 4551.65478515625
                },
                "LIGHLBKBDEI": 25.0,
                "GFIOJGJJGCN": 6,
                "ABAEPHOGOFF": "EaseInOutCubic",
                "KFDBMBFFANN": {},
                "IEJBKHHEJEN": true,
                "CEDHIBLHMKP": false,
                "KIPMIDIKECP": "",
                "ANFHNPOCMNI": true,
                "BDLGHOJPJHD": "",
                "LCOJGFEOLCK": "",
                "BBBGAEDCJEL": ""
            },
            {
                "$type": "MoleMole.Config.ConfigCameraDOFAction",
                "type": "CAMERA_DOF",
                "actionId": 324,
                "focusDistance": 5.0,
                "focusRange": 10.0,
                "nearFocalDistance": 1.0,
                "nearFocalTransDistance": 1.0,
                "quality": 3
            },
            {
                "$type": "KCBOGFFHPBD",
                "type": "BODY_LANG",
                "aliasList": [
                    "1005"
                ],
                "actionId": 292,
                "AHGOBCDHCMC": true,
                "FHLAMNNHMFA": true,
                "KCEHDJLKIAL": false,
                "KCOLHJBDILK": true,
                "AOFEDPBOOIE": ""
            },
            {
                "$type": "DNAEECJNBFB",
                "type": "EMO_SYNC",
                "aliasList": [
                    "1005"
                ],
                "actionId": 296,
                "flag": 256,
                "EOGJDJKPPGE": "",
                "IHCBGPABDLE": "Cs_Emo_Pet_Common/Cs_Emo_Paimon_Angry01",
                "CIKPDMODFPL": "Cs_Emo_Pet_Common/Cs_Emo_Paimon_Normal02",
                "HDIAHFFHNGE": "",
                "BOAAGJEEFDD": "",
                "PFDPJKHPADE": "",
                "MJAONEKDECJ": [
                    8887624181441475292,
                    18209086005751125871,
                    3291038487434063407,
                    2002509548947436691
                ],
                "DAALMFGCAOO": [
                    18069355584172837685,
                    15252089842078405392,
                    3912795416900241226,
                    13220211510885340510
                ]
            },
            {
                "$type": "MoleMole.Config.ConfigTeleportToAction",
                "type": "TELEPORT_TO",
                "aliasList": [
                    "1005"
                ],
                "actionId": 313,
                "flag": 4,
                "position": {
                    "x": 3480.85595703125,
                    "y": 283.3340148925781,
                    "z": 4550.373046875
                },
                "forward": {
                    "x": 0.6060000061988831,
                    "z": 0.7950000166893005
                },
                "openLongDisTeleport": true,
                "syncForward": true,
                "posBindMovingTargetKey": "",
                "forwardBindMovingTargetKey": ""
            },
            {
                "$type": "CCEEIGNAILH",
                "type": "DIALOG",
                "aliasList": [
                    "13611"
                ],
                "actionId": 129,
                "KICBIOMGHIN": 40211714,
                "PNCCODDABKI": 0.5
            },
            {
                "$type": "DNAEECJNBFB",
                "type": "EMO_SYNC",
                "aliasList": [
                    "13611"
                ],
                "actionId": 308,
                "flag": 320,
                "EOGJDJKPPGE": "Cs_Emo_Avatar_Simple_Common_Set/Cs_Emo_Avatar_Talk/Cs_Emo_Avatar_MainLine/Cs_Emo_Avatar_Fontaine03/Cs_Emo_40211714",
                "IHCBGPABDLE": "",
                "CIKPDMODFPL": "",
                "HDIAHFFHNGE": "",
                "BOAAGJEEFDD": "",
                "PFDPJKHPADE": "",
                "DALINBJAHOC": [
                    16404087168735799032,
                    4986215285873178890,
                    5998777578756142268,
                    13574386130339799420
                ]
            },
            {
                "$type": "BCJBNCJOPCE",
                "type": "CAMERA_MOVE",
                "delayTime": 0.10000000149011612,
                "duration": 8.0,
                "actionId": 291,
                "AKFGKKEOEFA": {
                    "x": 3481.256103515625,
                    "y": 284.5559997558594,
                    "z": 4551.1640625
                },
                "NGEBMAEFFGJ": {
                    "x": 3482.0390625,
                    "y": 284.2749938964844,
                    "z": 4551.7177734375
                },
                "LIGHLBKBDEI": 25.0,
                "ABAEPHOGOFF": "EaseOutQuad",
                "KFDBMBFFANN": {},
                "IEJBKHHEJEN": true,
                "CEDHIBLHMKP": false,
                "KIPMIDIKECP": "",
                "ANFHNPOCMNI": true,
                "BDLGHOJPJHD": "",
                "LCOJGFEOLCK": "",
                "BBBGAEDCJEL": ""
            }
        ],
        [
            {
                "$type": "BCJBNCJOPCE",
                "type": "CAMERA_MOVE",
                "duration": 0.5,
                "actionId": 294,
                "AKFGKKEOEFA": {
                    "x": 3480.72607421875,
                    "y": 284.4330139160156,
                    "z": 4550.94189453125
                },
                "NGEBMAEFFGJ": {
                    "x": 3480.47802734375,
                    "y": 284.572998046875,
                    "z": 4549.98291015625
                },
                "LIGHLBKBDEI": 25.0,
                "GFIOJGJJGCN": 6,
                "ABAEPHOGOFF": "EaseInOutCubic",
                "KFDBMBFFANN": {},
                "IEJBKHHEJEN": true,
                "CEDHIBLHMKP": false,
                "KIPMIDIKECP": "",
                "ANFHNPOCMNI": true,
                "BDLGHOJPJHD": "",
                "LCOJGFEOLCK": "",
                "BBBGAEDCJEL": ""
            },
            {
                "$type": "CCEEIGNAILH",
                "type": "DIALOG",
                "aliasList": [
                    "1005"
                ],
                "actionId": 131,
                "KICBIOMGHIN": 40211715,
                "PNCCODDABKI": 0.5
            },
            {
                "$type": "KCBOGFFHPBD",
                "type": "BODY_LANG",
                "aliasList": [
                    "1005"
                ],
                "actionId": 295,
                "GPIEDGOMCGL": 1040,
                "FHLAMNNHMFA": true,
                "KCEHDJLKIAL": false,
                "KCOLHJBDILK": true,
                "AOFEDPBOOIE": ""
            },
            {
                "$type": "DNAEECJNBFB",
                "type": "EMO_SYNC",
                "aliasList": [
                    "1005"
                ],
                "actionId": 307,
                "flag": 320,
                "EOGJDJKPPGE": "Cs_Emo_Avatar_Simple_Common_Set/Cs_Emo_Avatar_Talk/Cs_Emo_Avatar_MainLine/Cs_Emo_Avatar_Fontaine03/Cs_Emo_40211715",
                "IHCBGPABDLE": "",
                "CIKPDMODFPL": "",
                "HDIAHFFHNGE": "",
                "BOAAGJEEFDD": "",
                "PFDPJKHPADE": "",
                "DALINBJAHOC": [
                    7423898584976709116,
                    10712287379486696209,
                    12779636889361914761,
                    6323756061984333522
                ]
            },
            {
                "$type": "MoleMole.Config.ConfigSetModelTransform",
                "type": "SET_MODEL_TRANSFORM",
                "duration": 0.5,
                "aliasList": [
                    "1005"
                ],
                "actionId": 320,
                "groudHight": 0.30000001192092896,
                "useBlend": true,
                "blendType": "EaseInOutCubic"
            }
        ],
        [
            {
                "$type": "MoleMole.Config.ConfigTimeProtectAction",
                "type": "TIME_PROTECT",
                "duration": 0.10000000149011612,
                "actionId": 105
            }
        ]
    ],
    "groupId": [
        {
            "grpId": 3454307850,
            "nextGrpId": 3454307851
        },
        {
            "index": 1,
            "grpId": 3454307851,
            "nextGrpId": 3454307852
        },
        {
            "index": 2,
            "grpId": 3454307852,
            "nextGrpId": 3454307853
        },
        {
            "index": 3,
            "grpId": 3454307853,
            "nextGrpId": 3454307854
        },
        {
            "index": 4,
            "grpId": 3454307854,
            "nextGrpId": 3454307855
        },
        {
            "index": 5,
            "grpId": 3454307855,
            "nextGrpId": 3454307856
        },
        {
            "index": 6,
            "grpId": 3454307856,
            "nextGrpId": 3454307857
        },
        {
            "index": 7,
            "grpId": 3454307857,
            "nextGrpId": 3454307858
        },
        {
            "index": 8,
            "grpId": 3454307858,
            "nextGrpId": 4004328294
        },
        {
            "index": 9,
            "grpId": 4004328294,
            "nextGrpId": 4004328295
        },
        {
            "index": 10,
            "grpId": 4004328295,
            "nextGrpId": 4004328296
        },
        {
            "index": 11,
            "grpId": 4004328296,
            "nextGrpId": 4004328297
        },
        {
            "index": 12,
            "grpId": 4004328297,
            "nextGrpId": 4004328298
        },
        {
            "index": 13,
            "grpId": 4004328298,
            "nextGrpId": 4004328299
        }
    ],
    "freeStyleDic": {
        "1025": [
            4040
        ],
        "1026": [
            4040
        ]
    },
    "CKNKEEMIAPG": {
        "AvatarNpc": [
            "SitChat01AS",
            "SitHoldArm01AS",
            "SitShrug01AS",
            "SitThink01AS"
        ]
    }
}