{
    "luaDataPath": "",
    "dontUseDefaultFinish": true,
    "entityBan": "",
    "disableNpcLod": true,
    "isAutoBanNpc": true,
    "isBanWidgetPet": true,
    "protectNpcMobileLod": true,
    "startFade": {
        "startFadeOutDuration": 0.0
    },
    "endFade": {
        "startFadeOutDuration": 0.0
    },
    "actors": [
        {
            "alias": "Avatar",
            "visible": true,
            "bornPointName": "",
            "relativePosNpcAlias": "",
            "bindMovingTargetKey": ""
        },
        {
            "configID": 1005,
            "alias": "1005",
            "visible": true,
            "bornPointName": "",
            "relativePos": {
                "x": -1.0,
                "z": 0.5
            },
            "relativePosNpcAlias": "",
            "bindMovingTargetKey": ""
        },
        {
            "configID": 4313,
            "alias": "4313",
            "visible": true,
            "bornPointName": "",
            "forceCreateDaily": true,
            "relativePosNpcAlias": "",
            "bindMovingTargetKey": ""
        }
    ],
    "group": [
        [
            {
                "$type": "MoleMole.Config.ConfigTimeProtectAction",
                "type": "TIME_PROTECT",
                "duration": 0.10000000149011612
            },
            {
                "$type": "MoleMole.Config.ConfigVisibleInterAction",
                "type": "VISIBLE",
                "aliasList": [
                    "4313"
                ],
                "actionId": 174,
                "extraParam": ""
            },
            {
                "$type": "MoleMole.Config.ConfigTeleportToAction",
                "type": "TELEPORT_TO",
                "delayTime": 0.07100000232458115,
                "aliasList": [
                    "4313"
                ],
                "actionId": 162,
                "position": {
                    "x": -504.114990234375,
                    "y": 230.90699768066406,
                    "z": 2697.98388671875
                },
                "forward": {
                    "x": -1.2050000429153442,
                    "y": -0.09300000220537186,
                    "z": -0.9950000047683716
                },
                "openLongDisTeleport": true,
                "posBindMovingTargetKey": "",
                "forwardBindMovingTargetKey": ""
            }
        ],
        [
            {
                "$type": "BCJBNCJOPCE",
                "type": "CAMERA_MOVE",
                "duration": 0.20000000298023224,
                "actionId": 118,
                "AKFGKKEOEFA": {
                    "x": -506.6499938964844,
                    "y": 231.87399291992188,
                    "z": 2701.385009765625
                },
                "NGEBMAEFFGJ": {
                    "x": -506.9599914550781,
                    "y": 231.98500061035156,
                    "z": 2700.44091796875
                },
                "LIGHLBKBDEI": 20.0,
                "GFIOJGJJGCN": 6,
                "ABAEPHOGOFF": "EaseInOutCubic",
                "KFDBMBFFANN": {},
                "IEJBKHHEJEN": true,
                "CEDHIBLHMKP": false,
                "KIPMIDIKECP": "",
                "ANFHNPOCMNI": true,
                "BDLGHOJPJHD": "",
                "LCOJGFEOLCK": "",
                "BBBGAEDCJEL": ""
            },
            {
                "$type": "CCEEIGNAILH",
                "type": "DIALOG",
                "aliasList": [
                    "Avatar"
                ],
                "KICBIOMGHIN": 30042002,
                "PNCCODDABKI": 0.5
            },
            {
                "$type": "KCBOGFFHPBD",
                "type": "BODY_LANG",
                "aliasList": [
                    "Avatar"
                ],
                "actionId": 153,
                "GPIEDGOMCGL": 1190,
                "MCLAICMHGJK": false,
                "FHLAMNNHMFA": true,
                "KCEHDJLKIAL": false,
                "KCOLHJBDILK": true,
                "AOFEDPBOOIE": ""
            },
            {
                "$type": "IBPNIIGAIPF",
                "type": "LOOK_AT",
                "aliasList": [
                    "Avatar"
                ],
                "actionId": 154,
                "NDOMJCOFKDJ": 0.5,
                "KIPMIDIKECP": "",
                "FGPHOPBEJDE": true,
                "HJJAFGPMJNJ": "",
                "AOFBAGFCGPJ": ""
            },
            {
                "$type": "OMPHNKNPPJO",
                "type": "LOOK_AT_EYECTRL",
                "aliasList": [
                    "Avatar"
                ],
                "actionId": 156,
                "useTargetPos": false,
                "OMHMNNDGHFL": {
                    "z": 3.0
                },
                "AMNIBCAICEP": {
                    "z": 3.0
                },
                "MHBPPJNDKJC": 0.20000000298023224,
                "KIPMIDIKECP": "",
                "JJEGGHOEIPD": "Face"
            },
            {
                "$type": "DNAEECJNBFB",
                "type": "EMO_SYNC",
                "aliasList": [
                    "Avatar"
                ],
                "actionId": 157,
                "EOGJDJKPPGE": "",
                "IHCBGPABDLE": "Cs_Emo_Avatar_Common/Cs_Emo_Avatar_Angry01",
                "CIKPDMODFPL": "Cs_Emo_Avatar_Common/Cs_Emo_Avatar_LowClosed01",
                "HDIAHFFHNGE": "",
                "BOAAGJEEFDD": "",
                "PFDPJKHPADE": "",
                "MIDKJONOACI": false,
                "MJAONEKDECJ": [
                    14296606849723709100,
                    5508348580450379567,
                    7627497203169383327,
                    8979581647593659876
                ],
                "DAALMFGCAOO": [
                    13948284213264595615,
                    7688108384441439599,
                    13936602145956991039,
                    10261157731837374257
                ]
            },
            {
                "$type": "IBPNIIGAIPF",
                "type": "LOOK_AT",
                "aliasList": [
                    "1005"
                ],
                "actionId": 181,
                "GGIENKFBOGL": true,
                "NDOMJCOFKDJ": 0.5,
                "KIPMIDIKECP": "Avatar",
                "FGPHOPBEJDE": true,
                "HJJAFGPMJNJ": "",
                "AOFBAGFCGPJ": ""
            },
            {
                "$type": "BCJBNCJOPCE",
                "type": "CAMERA_MOVE",
                "delayTime": 0.15000000596046448,
                "duration": 15.0,
                "actionId": 119,
                "AKFGKKEOEFA": {
                    "x": -506.67498779296875,
                    "y": 231.88299560546875,
                    "z": 2701.30810546875
                },
                "NGEBMAEFFGJ": {
                    "x": -506.9849853515625,
                    "y": 231.99400329589844,
                    "z": 2700.364013671875
                },
                "LIGHLBKBDEI": 20.0,
                "ABAEPHOGOFF": "EaseOutQuad",
                "KFDBMBFFANN": {},
                "IEJBKHHEJEN": true,
                "CEDHIBLHMKP": false,
                "KIPMIDIKECP": "",
                "ANFHNPOCMNI": true,
                "BDLGHOJPJHD": "",
                "LCOJGFEOLCK": "",
                "BBBGAEDCJEL": ""
            }
        ],
        [
            {
                "$type": "BCJBNCJOPCE",
                "type": "CAMERA_MOVE",
                "duration": 0.20000000298023224,
                "actionId": 165,
                "AKFGKKEOEFA": {
                    "x": -495.6080017089844,
                    "y": 235.2760009765625,
                    "z": 2717.52392578125
                },
                "NGEBMAEFFGJ": {
                    "x": -496.1709899902344,
                    "y": 235.13299560546875,
                    "z": 2716.7099609375
                },
                "LIGHLBKBDEI": 20.0,
                "GFIOJGJJGCN": 6,
                "ABAEPHOGOFF": "EaseInOutCubic",
                "KFDBMBFFANN": {},
                "IEJBKHHEJEN": true,
                "CEDHIBLHMKP": false,
                "KIPMIDIKECP": "",
                "ANFHNPOCMNI": true,
                "BDLGHOJPJHD": "",
                "LCOJGFEOLCK": "",
                "BBBGAEDCJEL": ""
            },
            {
                "$type": "MoleMole.Config.ConfigTimeProtectAction",
                "type": "TIME_PROTECT",
                "duration": 6.0,
                "actionId": 173
            },
            {
                "$type": "CCEEIGNAILH",
                "type": "DIALOG_CLEAR",
                "actionId": 175
            },
            {
                "$type": "MoleMole.Config.ConfigCameraDOFAction",
                "type": "CAMERA_DOF",
                "actionId": 176,
                "enabled": true,
                "focusDistance": 33.880001068115234,
                "focusRange": 16.694000244140625,
                "nearFocalDistance": 8.60200023651123,
                "nearFocalTransDistance": 8.626999855041504,
                "dofBlurAmount": 1.0,
                "quality": 3
            },
            {
                "$type": "KCBOGFFHPBD",
                "type": "BODY_LANG",
                "aliasList": [
                    "Avatar"
                ],
                "actionId": 149,
                "AHGOBCDHCMC": true,
                "FHLAMNNHMFA": true,
                "KCEHDJLKIAL": false,
                "KCOLHJBDILK": true,
                "AOFEDPBOOIE": ""
            },
            {
                "$type": "IBPNIIGAIPF",
                "type": "LOOK_AT",
                "aliasList": [
                    "Avatar"
                ],
                "actionId": 150,
                "GGIENKFBOGL": true,
                "useTargetPos": true,
                "GCOONJBHNIM": true,
                "JHNJNNOPJKG": {
                    "x": -507.60400390625,
                    "y": 232.01699829101562,
                    "z": 2700.803955078125
                },
                "NDOMJCOFKDJ": 0.5,
                "KIPMIDIKECP": "",
                "AHLPNEGAKGG": "NONE",
                "FGPHOPBEJDE": true,
                "HJJAFGPMJNJ": "",
                "AOFBAGFCGPJ": ""
            },
            {
                "$type": "OMPHNKNPPJO",
                "type": "LOOK_AT_EYECTRL",
                "aliasList": [
                    "Avatar"
                ],
                "actionId": 151,
                "useTargetPos": false,
                "OMHMNNDGHFL": {
                    "x": -3.0
                },
                "AMNIBCAICEP": {
                    "x": -3.0
                },
                "MHBPPJNDKJC": 0.20000000298023224,
                "KIPMIDIKECP": "",
                "JJEGGHOEIPD": "Face"
            },
            {
                "$type": "DNAEECJNBFB",
                "type": "EMO_SYNC",
                "aliasList": [
                    "Avatar"
                ],
                "actionId": 152,
                "EOGJDJKPPGE": "",
                "IHCBGPABDLE": "Cs_Emo_Avatar_Common/Cs_Emo_Avatar_Default01",
                "CIKPDMODFPL": "Cs_Emo_Avatar_Common/Cs_Emo_Avatar_Default01",
                "HDIAHFFHNGE": "",
                "BOAAGJEEFDD": "",
                "PFDPJKHPADE": "",
                "MJAONEKDECJ": [
                    1010565500959774114,
                    17914558573000180712,
                    14498871351621154070,
                    14348654671849899985
                ],
                "DAALMFGCAOO": [
                    17551147554270584215,
                    11567349927864383394,
                    11535483659151300012,
                    3124390413002392171
                ]
            },
            {
                "$type": "BCJBNCJOPCE",
                "type": "CAMERA_MOVE",
                "delayTime": 0.10000000149011612,
                "duration": 9.043999671936035,
                "actionId": 172,
                "AKFGKKEOEFA": {
                    "x": -495.4580078125,
                    "y": 235.302001953125,
                    "z": 2717.4150390625
                },
                "NGEBMAEFFGJ": {
                    "x": -496.02099609375,
                    "y": 235.15899658203125,
                    "z": 2716.60107421875
                },
                "LIGHLBKBDEI": 20.0,
                "ABAEPHOGOFF": "EaseOutQuad",
                "KFDBMBFFANN": {},
                "IEJBKHHEJEN": true,
                "CEDHIBLHMKP": false,
                "KIPMIDIKECP": "",
                "ANFHNPOCMNI": true,
                "BDLGHOJPJHD": "",
                "LCOJGFEOLCK": "",
                "BBBGAEDCJEL": ""
            },
            {
                "$type": "KCBOGFFHPBD",
                "type": "BODY_LANG",
                "delayTime": 1.100000023841858,
                "aliasList": [
                    "Avatar"
                ],
                "actionId": 178,
                "GPIEDGOMCGL": 4041,
                "FHLAMNNHMFA": true,
                "KCEHDJLKIAL": false,
                "KCOLHJBDILK": true,
                "AOFEDPBOOIE": ""
            },
            {
                "$type": "KCBOGFFHPBD",
                "type": "BODY_LANG",
                "delayTime": 2.381999969482422,
                "aliasList": [
                    "1005"
                ],
                "actionId": 170,
                "GPIEDGOMCGL": 4030,
                "FHLAMNNHMFA": true,
                "KCEHDJLKIAL": false,
                "KCOLHJBDILK": true,
                "AOFEDPBOOIE": ""
            },
            {
                "$type": "KCBOGFFHPBD",
                "type": "BODY_LANG",
                "delayTime": 4.445000171661377,
                "aliasList": [
                    "1005"
                ],
                "actionId": 179,
                "GPIEDGOMCGL": 1170,
                "FHLAMNNHMFA": true,
                "KCEHDJLKIAL": false,
                "KCOLHJBDILK": true,
                "AOFEDPBOOIE": ""
            }
        ],
        [
            {
                "$type": "BCJBNCJOPCE",
                "type": "CAMERA_MOVE",
                "duration": 0.20000000298023224,
                "actionId": 131,
                "AKFGKKEOEFA": {
                    "x": -505.0679931640625,
                    "y": 232.13400268554688,
                    "z": 2700.302978515625
                },
                "NGEBMAEFFGJ": {
                    "x": -506.06500244140625,
                    "y": 232.0709991455078,
                    "z": 2700.264892578125
                },
                "LIGHLBKBDEI": 23.948999404907227,
                "GFIOJGJJGCN": 6,
                "ABAEPHOGOFF": "EaseInOutCubic",
                "KFDBMBFFANN": {},
                "IEJBKHHEJEN": true,
                "CEDHIBLHMKP": false,
                "KIPMIDIKECP": "",
                "ANFHNPOCMNI": true,
                "BDLGHOJPJHD": "",
                "LCOJGFEOLCK": "",
                "BBBGAEDCJEL": ""
            },
            {
                "$type": "MoleMole.Config.ConfigCameraDOFAction",
                "type": "CAMERA_DOF",
                "actionId": 177,
                "enabled": true,
                "dofBlurAmount": 1.0,
                "quality": 3
            },
            {
                "$type": "CCEEIGNAILH",
                "type": "DIALOG",
                "aliasList": [
                    "1005"
                ],
                "KICBIOMGHIN": 30042003,
                "PNCCODDABKI": 0.5
            },
            {
                "$type": "DNAEECJNBFB",
                "type": "EMO_SYNC",
                "aliasList": [
                    "1005"
                ],
                "EOGJDJKPPGE": "Cs_Emo_Avatar_Simple_Common_Set/Cs_Emo_Avatar_Talk/Cs_Emo_Avatar_MainLine/Cs_Emo_Avatar_Sumeru1/Cs_Emo_30042003",
                "IHCBGPABDLE": "",
                "CIKPDMODFPL": "",
                "HDIAHFFHNGE": "",
                "BOAAGJEEFDD": "",
                "PFDPJKHPADE": "",
                "MIDKJONOACI": false,
                "DALINBJAHOC": [
                    5938924745839205962,
                    9439639101854400792,
                    5336355475799598666,
                    14911456057421399466
                ]
            },
            {
                "$type": "MoleMole.Config.ConfigTeleportToAction",
                "type": "TELEPORT_TO",
                "aliasList": [
                    "1005"
                ],
                "actionId": 171,
                "position": {
                    "x": -507.4169921875,
                    "y": 230.71299743652344,
                    "z": 2700.572998046875
                },
                "forward": {
                    "x": 0.9110000133514404,
                    "z": -0.41200000047683716
                },
                "openLongDisTeleport": true,
                "posBindMovingTargetKey": "",
                "forwardBindMovingTargetKey": ""
            },
            {
                "$type": "KCBOGFFHPBD",
                "type": "BODY_LANG",
                "aliasList": [
                    "1005"
                ],
                "actionId": 180,
                "AHGOBCDHCMC": true,
                "FHLAMNNHMFA": true,
                "KCEHDJLKIAL": false,
                "KCOLHJBDILK": true,
                "AOFEDPBOOIE": ""
            },
            {
                "$type": "BCJBNCJOPCE",
                "type": "CAMERA_MOVE",
                "delayTime": 0.15000000596046448,
                "duration": 15.0,
                "actionId": 126,
                "AKFGKKEOEFA": {
                    "x": -505.3890075683594,
                    "y": 232.11399841308594,
                    "z": 2700.291015625
                },
                "NGEBMAEFFGJ": {
                    "x": -506.385986328125,
                    "y": 232.05099487304688,
                    "z": 2700.2529296875
                },
                "LIGHLBKBDEI": 23.948999404907227,
                "ABAEPHOGOFF": "EaseOutQuad",
                "KFDBMBFFANN": {},
                "IEJBKHHEJEN": true,
                "CEDHIBLHMKP": false,
                "KIPMIDIKECP": "",
                "ANFHNPOCMNI": true,
                "BDLGHOJPJHD": "",
                "LCOJGFEOLCK": "",
                "BBBGAEDCJEL": ""
            },
            {
                "$type": "KCBOGFFHPBD",
                "type": "BODY_LANG",
                "delayTime": 1.1660000085830688,
                "aliasList": [
                    "1005"
                ],
                "actionId": 123,
                "GPIEDGOMCGL": 1090,
                "FHLAMNNHMFA": true,
                "KCEHDJLKIAL": false,
                "KCOLHJBDILK": true,
                "AOFEDPBOOIE": ""
            }
        ],
        [
            {
                "$type": "MoleMole.Config.ConfigTimeProtectAction",
                "type": "TIME_PROTECT",
                "duration": 0.10000000149011612
            },
            {
                "$type": "KCBOGFFHPBD",
                "type": "BODY_LANG",
                "aliasList": [
                    "1005"
                ],
                "actionId": 121,
                "FHLAMNNHMFA": true,
                "KCEHDJLKIAL": false,
                "KCOLHJBDILK": true,
                "AOFEDPBOOIE": ""
            }
        ]
    ],
    "groupId": [
        {
            "grpId": 1503363862,
            "nextGrpId": 1503363863
        },
        {
            "index": 1,
            "grpId": 1503363863,
            "nextGrpId": 1503363864
        },
        {
            "index": 2,
            "grpId": 1503363864,
            "nextGrpId": 1503363865
        },
        {
            "index": 3,
            "grpId": 1503363865,
            "nextGrpId": 1503363866
        },
        {
            "index": 4,
            "grpId": 1503363866,
            "nextGrpId": 1503363867
        }
    ],
    "freeStyleDic": {
        "4313": []
    }
}