{
    "luaDataPath": "",
    "startBlackKeepTime": 0.5,
    "entityBan": "",
    "disableNpcLod": true,
    "isAutoBanNpc": true,
    "isBanWidgetPet": true,
    "protectNpcMobileLod": true,
    "startFade": {
        "startFadeInDuration": 0.5,
        "startFadeOutDuration": 0.5
    },
    "endFade": {
        "startFadeOutDuration": 0.0
    },
    "actors": [
        {
            "alias": "Avatar",
            "visible": true,
            "bornPointName": "T7305510_N10000005",
            "relativePosType": "AVATAR_NEW",
            "relativePosNpcAlias": "",
            "bindMovingTargetKey": ""
        },
        {
            "configID": 4218,
            "alias": "4218",
            "visible": true,
            "bornPointName": "T7305510_N4218",
            "forceCreateDaily": true,
            "relativePosType": "AVATAR_NEW",
            "relativePosNpcAlias": "",
            "bindMovingTargetKey": ""
        },
        {
            "configID": 20723,
            "alias": "20723",
            "visible": true,
            "bornPointName": "T7305510_N20723",
            "relativePosType": "AVATAR_NEW",
            "relativePosNpcAlias": "",
            "bindMovingTargetKey": ""
        },
        {
            "configID": 1005,
            "alias": "1005",
            "visible": true,
            "bornPointName": "T7305510_N1005",
            "removeActorType": "REMOVE_WITH_DISAPPEAR",
            "relativePosType": "AVATAR_NEW",
            "relativePosNpcAlias": "",
            "bindMovingTargetKey": ""
        },
        {
            "configID": 20722,
            "alias": "20722",
            "visible": true,
            "bornPointName": "T7305510_N20722",
            "relativePosType": "AVATAR_NEW",
            "relativePosNpcAlias": "",
            "bindMovingTargetKey": ""
        },
        {
            "configID": 20724,
            "alias": "20724",
            "visible": true,
            "bornPointName": "T7305510_N4218",
            "relativePosType": "AVATAR_NEW",
            "relativePosNpcAlias": "",
            "bindMovingTargetKey": ""
        }
    ],
    "group": [
        [
            {
                "$type": "MoleMole.Config.ConfigTimeProtectAction",
                "type": "TIME_PROTECT",
                "duration": 0.5070000290870667,
                "actionId": 104
            },
            {
                "$type": "MoleMole.Config.ConfigBlackScreenAction",
                "type": "BLACK_SCREEN",
                "actionId": 151,
                "blackScreenType": "KEEP_BLACK",
                "durationKeepBlack": 0.5,
                "inteePos": "",
                "textMapID": "",
                "useTextFade": true
            },
            {
                "$type": "MoleMole.Config.ConfigTeleportToAction",
                "type": "TELEPORT_TO",
                "aliasList": [
                    "Avatar"
                ],
                "actionId": 141,
                "position": {
                    "x": -1443.0899658203125,
                    "y": 82.37300109863281,
                    "z": 4730.44921875
                },
                "forward": {
                    "x": -0.006000000052154064,
                    "y": 0.10300000011920929,
                    "z": -2.4489998817443848
                },
                "openLongDisTeleport": true,
                "posBindMovingTargetKey": "",
                "forwardBindMovingTargetKey": ""
            },
            {
                "$type": "IBPNIIGAIPF",
                "type": "LOOK_AT",
                "aliasList": [
                    "Avatar"
                ],
                "actionId": 158,
                "GGIENKFBOGL": true,
                "useTargetPos": true,
                "GCOONJBHNIM": true,
                "JHNJNNOPJKG": {
                    "x": -1455.531982421875,
                    "y": 116.55699920654297,
                    "z": 4478.06396484375
                },
                "NDOMJCOFKDJ": 0.5,
                "KIPMIDIKECP": "",
                "AHLPNEGAKGG": "NONE",
                "FGPHOPBEJDE": true,
                "HJJAFGPMJNJ": "",
                "AOFBAGFCGPJ": ""
            },
            {
                "$type": "MoleMole.Config.ConfigTeleportToAction",
                "type": "TELEPORT_TO",
                "aliasList": [
                    "4218"
                ],
                "actionId": 146,
                "position": {
                    "x": -1441.3499755859375,
                    "y": 82.37300109863281,
                    "z": 4730.0361328125
                },
                "forward": {
                    "x": -0.6990000009536743,
                    "y": 0.11299999803304672,
                    "z": -2.2249999046325684
                },
                "openLongDisTeleport": true,
                "posBindMovingTargetKey": "",
                "forwardBindMovingTargetKey": ""
            },
            {
                "$type": "IBPNIIGAIPF",
                "type": "LOOK_AT",
                "aliasList": [
                    "4218"
                ],
                "actionId": 159,
                "GGIENKFBOGL": true,
                "useTargetPos": true,
                "GCOONJBHNIM": true,
                "JHNJNNOPJKG": {
                    "x": -1455.531982421875,
                    "y": 116.55699920654297,
                    "z": 4478.06396484375
                },
                "NDOMJCOFKDJ": 0.5,
                "KIPMIDIKECP": "",
                "AHLPNEGAKGG": "NONE",
                "FGPHOPBEJDE": true,
                "HJJAFGPMJNJ": "",
                "AOFBAGFCGPJ": ""
            },
            {
                "$type": "MoleMole.Config.ConfigTeleportToAction",
                "type": "TELEPORT_TO",
                "aliasList": [
                    "20723"
                ],
                "actionId": 142,
                "position": {
                    "x": -1439.5159912109375,
                    "y": 82.52100372314453,
                    "z": 4728.43115234375
                },
                "forward": {
                    "x": -0.859000027179718,
                    "y": 0.05299999937415123,
                    "z": -1.9709999561309814
                },
                "openLongDisTeleport": true,
                "posBindMovingTargetKey": "",
                "forwardBindMovingTargetKey": ""
            },
            {
                "$type": "MoleMole.Config.ConfigTeleportToAction",
                "type": "TELEPORT_TO",
                "aliasList": [
                    "20724"
                ],
                "actionId": 144,
                "position": {
                    "x": -1440.2540283203125,
                    "y": 82.37300109863281,
                    "z": 4730.123046875
                },
                "forward": {
                    "x": -0.6069999933242798,
                    "y": 0.11800000071525574,
                    "z": -2.992000102996826
                },
                "openLongDisTeleport": true,
                "posBindMovingTargetKey": "",
                "forwardBindMovingTargetKey": ""
            },
            {
                "$type": "IBPNIIGAIPF",
                "type": "LOOK_AT",
                "aliasList": [
                    "20723"
                ],
                "actionId": 160,
                "GGIENKFBOGL": true,
                "useTargetPos": true,
                "GCOONJBHNIM": true,
                "JHNJNNOPJKG": {
                    "x": -1455.531982421875,
                    "y": 116.55699920654297,
                    "z": 4478.06396484375
                },
                "NDOMJCOFKDJ": 0.5,
                "KIPMIDIKECP": "",
                "AHLPNEGAKGG": "NONE",
                "FGPHOPBEJDE": true,
                "HJJAFGPMJNJ": "",
                "AOFBAGFCGPJ": ""
            },
            {
                "$type": "MoleMole.Config.ConfigTeleportToAction",
                "type": "TELEPORT_TO",
                "aliasList": [
                    "1005"
                ],
                "actionId": 145,
                "position": {
                    "x": -1443.7080078125,
                    "y": 82.37300109863281,
                    "z": 4731.4091796875
                },
                "forward": {
                    "x": -0.49300000071525574,
                    "y": 0.125,
                    "z": -3.8410000801086426
                },
                "openLongDisTeleport": true,
                "posBindMovingTargetKey": "",
                "forwardBindMovingTargetKey": ""
            },
            {
                "$type": "IBPNIIGAIPF",
                "type": "LOOK_AT",
                "aliasList": [
                    "20722"
                ],
                "actionId": 162,
                "GGIENKFBOGL": true,
                "useTargetPos": true,
                "GCOONJBHNIM": true,
                "JHNJNNOPJKG": {
                    "x": -1455.531982421875,
                    "y": 116.55699920654297,
                    "z": 4478.06396484375
                },
                "NDOMJCOFKDJ": 0.5,
                "KIPMIDIKECP": "",
                "AHLPNEGAKGG": "NONE",
                "FGPHOPBEJDE": true,
                "HJJAFGPMJNJ": "",
                "AOFBAGFCGPJ": ""
            },
            {
                "$type": "IBPNIIGAIPF",
                "type": "LOOK_AT",
                "aliasList": [
                    "1005"
                ],
                "actionId": 161,
                "GGIENKFBOGL": true,
                "useTargetPos": true,
                "GCOONJBHNIM": true,
                "JHNJNNOPJKG": {
                    "x": -1455.531982421875,
                    "y": 116.55699920654297,
                    "z": 4478.06396484375
                },
                "NDOMJCOFKDJ": 0.5,
                "KIPMIDIKECP": "",
                "AHLPNEGAKGG": "NONE",
                "FGPHOPBEJDE": true,
                "HJJAFGPMJNJ": "",
                "AOFBAGFCGPJ": ""
            },
            {
                "$type": "MoleMole.Config.ConfigTeleportToAction",
                "type": "TELEPORT_TO",
                "aliasList": [
                    "20722"
                ],
                "actionId": 143,
                "position": {
                    "x": -1444.8160400390625,
                    "y": 82.54199981689453,
                    "z": 4730.10498046875
                },
                "forward": {
                    "x": -0.11800000071525574,
                    "y": 0.1420000046491623,
                    "z": -3.490999937057495
                },
                "openLongDisTeleport": true,
                "posBindMovingTargetKey": "",
                "forwardBindMovingTargetKey": ""
            },
            {
                "$type": "MoleMole.Config.ConfigMoveToAction",
                "type": "MOVE_TO",
                "delayTime": 0.07199999690055847,
                "aliasList": [
                    "Avatar"
                ],
                "actionId": 147,
                "moveType": "WALK",
                "routeList": [
                    {
                        "x": -1443.0899658203125,
                        "y": 82.47699737548828,
                        "z": 4729.0
                    }
                ],
                "exactlyMove": true,
                "closeNavMesh": true,
                "closeAvatarNavMesh": true,
                "bindMovingTargetKey": ""
            },
            {
                "$type": "MoleMole.Config.ConfigMoveToAction",
                "type": "MOVE_TO",
                "delayTime": 0.08900000154972076,
                "aliasList": [
                    "4218"
                ],
                "actionId": 148,
                "moveType": "WALK",
                "routeList": [
                    {
                        "x": -1441.7039794921875,
                        "y": 82.4739990234375,
                        "z": 4728.75
                    }
                ],
                "exactlyMove": true,
                "closeNavMesh": true,
                "bindMovingTargetKey": ""
            },
            {
                "$type": "MoleMole.Config.ConfigMoveToAction",
                "type": "MOVE_TO",
                "delayTime": 0.09399999678134918,
                "aliasList": [
                    "20724"
                ],
                "actionId": 154,
                "moveType": "DIRECT",
                "routeList": [
                    {
                        "x": -1440.5909423828125,
                        "y": 82.48699951171875,
                        "z": 4728.2900390625
                    }
                ],
                "exactlyMove": true,
                "closeNavMesh": true,
                "directMoveSpeed": 1.3300000429153442,
                "bindMovingTargetKey": ""
            },
            {
                "$type": "MoleMole.Config.ConfigMoveToAction",
                "type": "MOVE_TO",
                "delayTime": 0.12200000137090683,
                "aliasList": [
                    "20722"
                ],
                "actionId": 153,
                "moveType": "WALK",
                "routeList": [
                    {
                        "x": -1444.85205078125,
                        "y": 82.6780014038086,
                        "z": 4728.26611328125
                    }
                ],
                "exactlyMove": true,
                "closeNavMesh": true,
                "bindMovingTargetKey": ""
            },
            {
                "$type": "MoleMole.Config.ConfigMoveToAction",
                "type": "MOVE_TO",
                "delayTime": 0.12700000405311584,
                "aliasList": [
                    "20723"
                ],
                "actionId": 150,
                "moveType": "WALK",
                "routeList": [
                    {
                        "x": -1439.9090576171875,
                        "y": 82.5739974975586,
                        "z": 4727.52099609375
                    }
                ],
                "exactlyMove": true,
                "closeNavMesh": true,
                "bindMovingTargetKey": ""
            },
            {
                "$type": "MoleMole.Config.ConfigMoveToAction",
                "type": "MOVE_TO",
                "delayTime": 0.210999995470047,
                "aliasList": [
                    "1005"
                ],
                "actionId": 155,
                "moveType": "WALK",
                "routeList": [
                    {
                        "x": -1444.093017578125,
                        "y": 82.49800109863281,
                        "z": 4728.75
                    }
                ],
                "exactlyMove": true,
                "closeNavMesh": true,
                "bindMovingTargetKey": ""
            }
        ],
        [
            {
                "$type": "BCJBNCJOPCE",
                "type": "CAMERA_MOVE",
                "duration": 0.5,
                "actionId": 139,
                "AKFGKKEOEFA": {
                    "x": -1438.3609619140625,
                    "y": 83.28800201416016,
                    "z": 4715.5732421875
                },
                "NGEBMAEFFGJ": {
                    "x": -1438.8690185546875,
                    "y": 83.29100036621094,
                    "z": 4716.43505859375
                },
                "GFIOJGJJGCN": 6,
                "ABAEPHOGOFF": "EaseInOutCubic",
                "KFDBMBFFANN": {},
                "IEJBKHHEJEN": true,
                "CEDHIBLHMKP": false,
                "KIPMIDIKECP": "",
                "ANFHNPOCMNI": true,
                "BDLGHOJPJHD": "",
                "LCOJGFEOLCK": "",
                "BBBGAEDCJEL": ""
            },
            {
                "$type": "MoleMole.Config.ConfigBlackScreenAction",
                "type": "BLACK_SCREEN",
                "actionId": 152,
                "blackScreenType": "FROM_BLACK",
                "durationFromBlack": 0.5,
                "inteePos": "",
                "textMapID": "",
                "useTextFade": true
            },
            {
                "$type": "CCEEIGNAILH",
                "type": "DIALOG",
                "aliasList": [
                    "4218"
                ],
                "actionId": 107,
                "KICBIOMGHIN": 730551001,
                "PNCCODDABKI": 2.5299999713897705
            },
            {
                "$type": "BCJBNCJOPCE",
                "type": "CAMERA_MOVE",
                "delayTime": 0.08399999886751175,
                "duration": 8.960000038146973,
                "actionId": 140,
                "AKFGKKEOEFA": {
                    "x": -1438.26904296875,
                    "y": 84.91999816894531,
                    "z": 4715.73681640625
                },
                "NGEBMAEFFGJ": {
                    "x": -1438.7840576171875,
                    "y": 84.8030014038086,
                    "z": 4716.5859375
                },
                "ABAEPHOGOFF": "EaseOutQuad",
                "KFDBMBFFANN": {},
                "IEJBKHHEJEN": true,
                "CEDHIBLHMKP": false,
                "KIPMIDIKECP": "",
                "ANFHNPOCMNI": true,
                "BDLGHOJPJHD": "",
                "LCOJGFEOLCK": "",
                "BBBGAEDCJEL": ""
            }
        ],
        [
            {
                "$type": "BCJBNCJOPCE",
                "type": "CAMERA_MOVE",
                "duration": 0.5,
                "actionId": 156,
                "AKFGKKEOEFA": {
                    "x": -1440.93701171875,
                    "y": 83.0,
                    "z": 4736.64501953125
                },
                "NGEBMAEFFGJ": {
                    "x": -1441.1300048828125,
                    "y": 83.22899627685547,
                    "z": 4735.69091796875
                },
                "GFIOJGJJGCN": 6,
                "ABAEPHOGOFF": "EaseInOutCubic",
                "KFDBMBFFANN": {},
                "IEJBKHHEJEN": true,
                "CEDHIBLHMKP": false,
                "KIPMIDIKECP": "",
                "ANFHNPOCMNI": true,
                "BDLGHOJPJHD": "",
                "LCOJGFEOLCK": "",
                "BBBGAEDCJEL": ""
            },
            {
                "$type": "CCEEIGNAILH",
                "type": "DIALOG",
                "aliasList": [
                    "4218"
                ],
                "actionId": 109,
                "KICBIOMGHIN": 730551002,
                "PNCCODDABKI": 0.5
            },
            {
                "$type": "MoleMole.Config.ConfigTeleportToAction",
                "type": "TELEPORT_TO",
                "aliasList": [
                    "1005"
                ],
                "actionId": 163,
                "position": {
                    "x": -1444.093017578125,
                    "y": 82.49800109863281,
                    "z": 4728.75
                },
                "forward": {
                    "x": -0.14300000667572021,
                    "z": -0.9900000095367432
                },
                "openLongDisTeleport": true,
                "posBindMovingTargetKey": "",
                "forwardBindMovingTargetKey": ""
            },
            {
                "$type": "BCJBNCJOPCE",
                "type": "CAMERA_MOVE",
                "delayTime": 0.054999999701976776,
                "duration": 10.0,
                "actionId": 157,
                "AKFGKKEOEFA": {
                    "x": -1441.3590087890625,
                    "y": 82.77400207519531,
                    "z": 4734.98095703125
                },
                "NGEBMAEFFGJ": {
                    "x": -1441.541015625,
                    "y": 83.06400299072266,
                    "z": 4734.041015625
                },
                "ABAEPHOGOFF": "EaseOutQuad",
                "KFDBMBFFANN": {},
                "IEJBKHHEJEN": true,
                "CEDHIBLHMKP": false,
                "KIPMIDIKECP": "",
                "ANFHNPOCMNI": true,
                "BDLGHOJPJHD": "",
                "LCOJGFEOLCK": "",
                "BBBGAEDCJEL": ""
            }
        ],
        [
            {
                "$type": "BCJBNCJOPCE",
                "type": "CAMERA_MOVE",
                "duration": 0.5,
                "actionId": 164,
                "AKFGKKEOEFA": {
                    "x": -1439.406005859375,
                    "y": 84.11299896240234,
                    "z": 4726.505859375
                },
                "NGEBMAEFFGJ": {
                    "x": -1439.9029541015625,
                    "y": 84.06800079345703,
                    "z": 4727.373046875
                },
                "LIGHLBKBDEI": 25.0,
                "GFIOJGJJGCN": 6,
                "ABAEPHOGOFF": "EaseInOutCubic",
                "KFDBMBFFANN": {},
                "IEJBKHHEJEN": true,
                "CEDHIBLHMKP": false,
                "KIPMIDIKECP": "",
                "ANFHNPOCMNI": true,
                "BDLGHOJPJHD": "",
                "LCOJGFEOLCK": "",
                "BBBGAEDCJEL": ""
            },
            {
                "$type": "MoleMole.Config.ConfigTeleportToAction",
                "type": "TELEPORT_TO",
                "aliasList": [
                    "Avatar"
                ],
                "actionId": 195,
                "position": {
                    "x": -1443.0899658203125,
                    "y": 82.47699737548828,
                    "z": 4729.0
                },
                "forward": {
                    "z": -1.0
                },
                "openLongDisTeleport": true,
                "posBindMovingTargetKey": "",
                "forwardBindMovingTargetKey": ""
            },
            {
                "$type": "IBPNIIGAIPF",
                "type": "LOOK_AT",
                "aliasList": [
                    "4218"
                ],
                "actionId": 167,
                "GGIENKFBOGL": true,
                "useTargetPos": true,
                "GCOONJBHNIM": true,
                "JHNJNNOPJKG": {
                    "x": -1440.291015625,
                    "y": 84.20700073242188,
                    "z": 4726.5888671875
                },
                "NDOMJCOFKDJ": 0.5,
                "KIPMIDIKECP": "",
                "AHLPNEGAKGG": "NONE",
                "FGPHOPBEJDE": true,
                "HJJAFGPMJNJ": "",
                "AOFBAGFCGPJ": ""
            },
            {
                "$type": "OMPHNKNPPJO",
                "type": "LOOK_AT_EYECTRL",
                "aliasList": [
                    "4218"
                ],
                "actionId": 168,
                "useTargetPos": false,
                "OMHMNNDGHFL": {
                    "x": -3.0,
                    "z": 2.0
                },
                "AMNIBCAICEP": {
                    "x": -3.0,
                    "z": 2.0
                },
                "MHBPPJNDKJC": 0.20000000298023224,
                "KIPMIDIKECP": "",
                "JJEGGHOEIPD": "Face"
            },
            {
                "$type": "MoleMole.Config.ConfigTeleportToAction",
                "type": "TELEPORT_TO",
                "aliasList": [
                    "4218"
                ],
                "actionId": 169,
                "position": {
                    "x": -1441.7039794921875,
                    "y": 82.4739990234375,
                    "z": 4728.75
                },
                "forward": {
                    "x": 0.04800000041723251,
                    "z": -1.093000054359436
                },
                "openLongDisTeleport": true,
                "posBindMovingTargetKey": "",
                "forwardBindMovingTargetKey": ""
            },
            {
                "$type": "CCEEIGNAILH",
                "type": "DIALOG",
                "aliasList": [
                    "20723"
                ],
                "actionId": 111,
                "KICBIOMGHIN": 730551003,
                "PNCCODDABKI": 0.5
            },
            {
                "$type": "IBPNIIGAIPF",
                "type": "LOOK_AT",
                "aliasList": [
                    "20723"
                ],
                "actionId": 166,
                "GGIENKFBOGL": true,
                "useTargetPos": true,
                "GCOONJBHNIM": true,
                "JHNJNNOPJKG": {
                    "x": -1441.9739990234375,
                    "y": 84.05999755859375,
                    "z": 4728.5390625
                },
                "NDOMJCOFKDJ": 0.5,
                "KIPMIDIKECP": "",
                "AHLPNEGAKGG": "NONE",
                "FGPHOPBEJDE": true,
                "HJJAFGPMJNJ": "",
                "AOFBAGFCGPJ": ""
            },
            {
                "$type": "MoleMole.Config.ConfigTeleportToAction",
                "type": "TELEPORT_TO",
                "aliasList": [
                    "20723"
                ],
                "actionId": 196,
                "position": {
                    "x": -1439.9090576171875,
                    "y": 82.5739974975586,
                    "z": 4727.52099609375
                },
                "forward": {
                    "x": -0.3970000147819519,
                    "z": -0.9179999828338623
                },
                "openLongDisTeleport": true,
                "posBindMovingTargetKey": "",
                "forwardBindMovingTargetKey": ""
            },
            {
                "$type": "MoleMole.Config.ConfigTeleportToAction",
                "type": "TELEPORT_TO",
                "aliasList": [
                    "1005"
                ],
                "actionId": 197,
                "position": {
                    "x": -1444.093017578125,
                    "y": 82.49800109863281,
                    "z": 4728.75
                },
                "forward": {
                    "x": -0.14300000667572021,
                    "z": -0.9900000095367432
                },
                "openLongDisTeleport": true,
                "posBindMovingTargetKey": "",
                "forwardBindMovingTargetKey": ""
            },
            {
                "$type": "MoleMole.Config.ConfigTeleportToAction",
                "type": "TELEPORT_TO",
                "aliasList": [
                    "20722"
                ],
                "actionId": 199,
                "position": {
                    "x": -1444.85205078125,
                    "y": 82.6780014038086,
                    "z": 4728.26611328125
                },
                "forward": {
                    "x": -0.02199999988079071,
                    "z": -1.0
                },
                "openLongDisTeleport": true,
                "posBindMovingTargetKey": "",
                "forwardBindMovingTargetKey": ""
            },
            {
                "$type": "MoleMole.Config.ConfigTeleportToAction",
                "type": "TELEPORT_TO",
                "aliasList": [
                    "20724"
                ],
                "actionId": 198,
                "position": {
                    "x": -1440.5909423828125,
                    "y": 82.48699951171875,
                    "z": 4728.2900390625
                },
                "forward": {
                    "x": -0.19900000095367432,
                    "z": -0.9800000190734863
                },
                "openLongDisTeleport": true,
                "posBindMovingTargetKey": "",
                "forwardBindMovingTargetKey": ""
            },
            {
                "$type": "BCJBNCJOPCE",
                "type": "CAMERA_MOVE",
                "delayTime": 0.12600000202655792,
                "duration": 5.989999771118164,
                "actionId": 165,
                "AKFGKKEOEFA": {
                    "x": -1439.489990234375,
                    "y": 84.14900207519531,
                    "z": 4726.4638671875
                },
                "NGEBMAEFFGJ": {
                    "x": -1439.9759521484375,
                    "y": 84.07099914550781,
                    "z": 4727.333984375
                },
                "LIGHLBKBDEI": 25.0,
                "ABAEPHOGOFF": "EaseOutQuad",
                "KFDBMBFFANN": {},
                "IEJBKHHEJEN": true,
                "CEDHIBLHMKP": false,
                "KIPMIDIKECP": "",
                "ANFHNPOCMNI": true,
                "BDLGHOJPJHD": "",
                "LCOJGFEOLCK": "",
                "BBBGAEDCJEL": ""
            }
        ],
        [
            {
                "$type": "BCJBNCJOPCE",
                "type": "CAMERA_MOVE",
                "duration": 0.5,
                "actionId": 170,
                "AKFGKKEOEFA": {
                    "x": -1443.98095703125,
                    "y": 84.26899719238281,
                    "z": 4728.248046875
                },
                "NGEBMAEFFGJ": {
                    "x": -1442.991943359375,
                    "y": 84.12300109863281,
                    "z": 4728.27197265625
                },
                "LIGHLBKBDEI": 25.0,
                "GFIOJGJJGCN": 6,
                "ABAEPHOGOFF": "EaseInOutCubic",
                "KFDBMBFFANN": {},
                "IEJBKHHEJEN": true,
                "CEDHIBLHMKP": false,
                "KIPMIDIKECP": "",
                "ANFHNPOCMNI": true,
                "BDLGHOJPJHD": "",
                "LCOJGFEOLCK": "",
                "BBBGAEDCJEL": ""
            },
            {
                "$type": "CCEEIGNAILH",
                "type": "DIALOG",
                "aliasList": [
                    "20724"
                ],
                "actionId": 113,
                "KICBIOMGHIN": 730551004,
                "PNCCODDABKI": 2.859999895095825
            },
            {
                "$type": "KCBOGFFHPBD",
                "type": "BODY_LANG",
                "aliasList": [
                    "20724"
                ],
                "actionId": 172,
                "GPIEDGOMCGL": 4,
                "FHLAMNNHMFA": true,
                "KCEHDJLKIAL": false,
                "KCOLHJBDILK": true,
                "AOFEDPBOOIE": ""
            },
            {
                "$type": "CNBNGFNKLGP",
                "type": "STEER_TO",
                "duration": 6.510000228881836,
                "aliasList": [
                    "20724"
                ],
                "actionId": 173,
                "DEMFHGAIELL": "ABSOLUTE",
                "KDKLEJFHDJG": {
                    "x": -1441.406982421875,
                    "y": 82.48899841308594,
                    "z": 4728.38818359375
                },
                "KIPMIDIKECP": "",
                "AOFBAGFCGPJ": ""
            },
            {
                "$type": "BCJBNCJOPCE",
                "type": "CAMERA_MOVE",
                "delayTime": 0.09399999678134918,
                "duration": 5.0,
                "actionId": 171,
                "AKFGKKEOEFA": {
                    "x": -1443.9849853515625,
                    "y": 84.2509994506836,
                    "z": 4728.3017578125
                },
                "NGEBMAEFFGJ": {
                    "x": -1442.9959716796875,
                    "y": 84.1050033569336,
                    "z": 4728.326171875
                },
                "LIGHLBKBDEI": 25.0,
                "ABAEPHOGOFF": "EaseOutQuad",
                "KFDBMBFFANN": {},
                "IEJBKHHEJEN": true,
                "CEDHIBLHMKP": false,
                "KIPMIDIKECP": "",
                "ANFHNPOCMNI": true,
                "BDLGHOJPJHD": "",
                "LCOJGFEOLCK": "",
                "BBBGAEDCJEL": ""
            },
            {
                "$type": "IBPNIIGAIPF",
                "type": "LOOK_AT",
                "delayTime": 0.2409999966621399,
                "aliasList": [
                    "4218"
                ],
                "actionId": 174,
                "GGIENKFBOGL": true,
                "useTargetPos": true,
                "GCOONJBHNIM": true,
                "JHNJNNOPJKG": {
                    "x": -1440.7449951171875,
                    "y": 83.66899871826172,
                    "z": 4728.0478515625
                },
                "NDOMJCOFKDJ": 0.5,
                "KIPMIDIKECP": "",
                "AHLPNEGAKGG": "NONE",
                "FGPHOPBEJDE": true,
                "HJJAFGPMJNJ": "",
                "AOFBAGFCGPJ": ""
            }
        ],
        [
            {
                "$type": "BCJBNCJOPCE",
                "type": "CAMERA_MOVE",
                "duration": 0.5,
                "actionId": 175,
                "AKFGKKEOEFA": {
                    "x": -1441.2049560546875,
                    "y": 84.0770034790039,
                    "z": 4727.64990234375
                },
                "NGEBMAEFFGJ": {
                    "x": -1441.6409912109375,
                    "y": 84.09200286865234,
                    "z": 4728.548828125
                },
                "LIGHLBKBDEI": 25.0,
                "GFIOJGJJGCN": 6,
                "ABAEPHOGOFF": "EaseInOutCubic",
                "KFDBMBFFANN": {},
                "IEJBKHHEJEN": true,
                "CEDHIBLHMKP": false,
                "KIPMIDIKECP": "",
                "ANFHNPOCMNI": true,
                "BDLGHOJPJHD": "",
                "LCOJGFEOLCK": "",
                "BBBGAEDCJEL": ""
            },
            {
                "$type": "CCEEIGNAILH",
                "type": "DIALOG",
                "aliasList": [
                    "4218"
                ],
                "actionId": 115,
                "KICBIOMGHIN": 730551005,
                "PNCCODDABKI": 0.5
            },
            {
                "$type": "IBPNIIGAIPF",
                "type": "LOOK_AT",
                "aliasList": [
                    "4218"
                ],
                "actionId": 176,
                "GGIENKFBOGL": true,
                "useTargetPos": true,
                "GCOONJBHNIM": true,
                "JHNJNNOPJKG": {
                    "x": -1441.7020263671875,
                    "y": 83.88800048828125,
                    "z": 4725.255859375
                },
                "NDOMJCOFKDJ": 0.5,
                "KIPMIDIKECP": "",
                "AHLPNEGAKGG": "NONE",
                "FGPHOPBEJDE": true,
                "HJJAFGPMJNJ": "",
                "AOFBAGFCGPJ": ""
            },
            {
                "$type": "KCBOGFFHPBD",
                "type": "BODY_LANG",
                "aliasList": [
                    "4218"
                ],
                "actionId": 177,
                "GPIEDGOMCGL": 1190,
                "FHLAMNNHMFA": true,
                "KCEHDJLKIAL": false,
                "KCOLHJBDILK": true,
                "AOFEDPBOOIE": ""
            },
            {
                "$type": "DNAEECJNBFB",
                "type": "EMO_SYNC",
                "aliasList": [
                    "4218"
                ],
                "actionId": 178,
                "EOGJDJKPPGE": "",
                "IHCBGPABDLE": "Cs_Emo_NPC_Common/Cs_Emo_NPC_Normal01",
                "CIKPDMODFPL": "Cs_Emo_NPC_Common/Cs_Emo_NPC_Upset01_B",
                "HDIAHFFHNGE": "",
                "BOAAGJEEFDD": "",
                "PFDPJKHPADE": "",
                "MJAONEKDECJ": [
                    12803840960998583578,
                    3437050431160283015,
                    6548526936325855136,
                    1274732080047098512
                ],
                "DAALMFGCAOO": [
                    5533870946267865131,
                    11546585331116088239,
                    14854862320501907384,
                    5150354034693083475
                ]
            }
        ],
        [
            {
                "$type": "BCJBNCJOPCE",
                "type": "CAMERA_MOVE",
                "duration": 0.5,
                "actionId": 180,
                "AKFGKKEOEFA": {
                    "x": -1444.8790283203125,
                    "y": 83.74500274658203,
                    "z": 4728.11279296875
                },
                "NGEBMAEFFGJ": {
                    "x": -1443.9610595703125,
                    "y": 83.81099700927734,
                    "z": 4728.50390625
                },
                "LIGHLBKBDEI": 25.0,
                "GFIOJGJJGCN": 6,
                "ABAEPHOGOFF": "EaseInOutCubic",
                "KFDBMBFFANN": {},
                "IEJBKHHEJEN": true,
                "CEDHIBLHMKP": false,
                "KIPMIDIKECP": "",
                "ANFHNPOCMNI": true,
                "BDLGHOJPJHD": "",
                "LCOJGFEOLCK": "",
                "BBBGAEDCJEL": ""
            },
            {
                "$type": "CCEEIGNAILH",
                "type": "DIALOG",
                "aliasList": [
                    "4218"
                ],
                "actionId": 117,
                "KICBIOMGHIN": 730551006,
                "PNCCODDABKI": 0.5
            },
            {
                "$type": "IBPNIIGAIPF",
                "type": "LOOK_AT",
                "aliasList": [
                    "20723"
                ],
                "actionId": 189,
                "GGIENKFBOGL": true,
                "useTargetPos": true,
                "GCOONJBHNIM": true,
                "JHNJNNOPJKG": {
                    "x": -1441.376953125,
                    "y": 83.88800048828125,
                    "z": 4716.5380859375
                },
                "NDOMJCOFKDJ": 0.5,
                "KIPMIDIKECP": "",
                "AHLPNEGAKGG": "NONE",
                "FGPHOPBEJDE": true,
                "HJJAFGPMJNJ": "",
                "AOFBAGFCGPJ": ""
            },
            {
                "$type": "MoleMole.Config.ConfigTeleportToAction",
                "type": "TELEPORT_TO",
                "aliasList": [
                    "20722"
                ],
                "actionId": 179,
                "position": {
                    "x": -1445.7469482421875,
                    "y": 82.58699798583984,
                    "z": 4728.18603515625
                },
                "forward": {
                    "x": -0.02199999988079071,
                    "z": -1.0
                },
                "openLongDisTeleport": true,
                "posBindMovingTargetKey": "",
                "forwardBindMovingTargetKey": ""
            },
            {
                "$type": "KCBOGFFHPBD",
                "type": "BODY_LANG",
                "aliasList": [
                    "20722"
                ],
                "actionId": 182,
                "AHGOBCDHCMC": true,
                "FHLAMNNHMFA": true,
                "KCEHDJLKIAL": false,
                "KCOLHJBDILK": true,
                "AOFEDPBOOIE": ""
            },
            {
                "$type": "BCJBNCJOPCE",
                "type": "CAMERA_MOVE",
                "delayTime": 0.0989999994635582,
                "duration": 5.0,
                "actionId": 181,
                "AKFGKKEOEFA": {
                    "x": -1444.9110107421875,
                    "y": 83.74400329589844,
                    "z": 4728.18798828125
                },
                "NGEBMAEFFGJ": {
                    "x": -1443.9930419921875,
                    "y": 83.80999755859375,
                    "z": 4728.5791015625
                },
                "LIGHLBKBDEI": 25.0,
                "ABAEPHOGOFF": "EaseOutQuad",
                "KFDBMBFFANN": {},
                "IEJBKHHEJEN": true,
                "CEDHIBLHMKP": false,
                "KIPMIDIKECP": "",
                "ANFHNPOCMNI": true,
                "BDLGHOJPJHD": "",
                "LCOJGFEOLCK": "",
                "BBBGAEDCJEL": ""
            },
            {
                "$type": "MEKNGCBGKEJ",
                "type": "DIALOG_SELECT",
                "delayTime": 0.4000000059604645,
                "aliasList": [
                    "Avatar"
                ],
                "actionId": 118,
                "MLAABINGLAA": [
                    730551007
                ],
                "HPBPDBFGKID": [
                    2098343691
                ],
                "CFJOJADDHHG": true
            }
        ],
        [
            {
                "$type": "BCJBNCJOPCE",
                "type": "CAMERA_MOVE",
                "duration": 0.5,
                "actionId": 183,
                "AKFGKKEOEFA": {
                    "x": -1446.0579833984375,
                    "y": 83.53199768066406,
                    "z": 4740.8359375
                },
                "NGEBMAEFFGJ": {
                    "x": -1446.02294921875,
                    "y": 83.68099975585938,
                    "z": 4739.84814453125
                },
                "GFIOJGJJGCN": 6,
                "ABAEPHOGOFF": "EaseInOutCubic",
                "KFDBMBFFANN": {},
                "IEJBKHHEJEN": true,
                "CEDHIBLHMKP": false,
                "KIPMIDIKECP": "",
                "ANFHNPOCMNI": true,
                "BDLGHOJPJHD": "",
                "LCOJGFEOLCK": "",
                "BBBGAEDCJEL": ""
            },
            {
                "$type": "CCEEIGNAILH",
                "type": "DIALOG",
                "aliasList": [
                    "4218"
                ],
                "actionId": 120,
                "KICBIOMGHIN": 730551008,
                "PNCCODDABKI": 0.5
            },
            {
                "$type": "MoleMole.Config.ConfigTeleportToAction",
                "type": "TELEPORT_TO",
                "aliasList": [
                    "20724"
                ],
                "actionId": 250,
                "position": {
                    "x": -1440.5909423828125,
                    "y": 82.48699951171875,
                    "z": 4728.2900390625
                },
                "forward": {
                    "x": -0.2930000126361847,
                    "z": -0.9559999704360962
                },
                "openLongDisTeleport": true,
                "posBindMovingTargetKey": "",
                "forwardBindMovingTargetKey": ""
            },
            {
                "$type": "BCJBNCJOPCE",
                "type": "CAMERA_MOVE",
                "delayTime": 0.07100000232458115,
                "duration": 17.968000411987305,
                "actionId": 185,
                "AKFGKKEOEFA": {
                    "x": -1447.3790283203125,
                    "y": 83.5999984741211,
                    "z": 4740.72216796875
                },
                "NGEBMAEFFGJ": {
                    "x": -1447.22900390625,
                    "y": 83.74400329589844,
                    "z": 4739.744140625
                },
                "ABAEPHOGOFF": "EaseOutQuad",
                "KFDBMBFFANN": {},
                "IEJBKHHEJEN": true,
                "CEDHIBLHMKP": false,
                "KIPMIDIKECP": "",
                "ANFHNPOCMNI": true,
                "BDLGHOJPJHD": "",
                "LCOJGFEOLCK": "",
                "BBBGAEDCJEL": ""
            }
        ],
        [
            {
                "$type": "BCJBNCJOPCE",
                "type": "CAMERA_MOVE",
                "duration": 0.5,
                "actionId": 186,
                "AKFGKKEOEFA": {
                    "x": -1451.2989501953125,
                    "y": 83.75499725341797,
                    "z": 4717.923828125
                },
                "NGEBMAEFFGJ": {
                    "x": -1450.6319580078125,
                    "y": 83.76699829101562,
                    "z": 4718.6689453125
                },
                "LIGHLBKBDEI": 25.0,
                "GFIOJGJJGCN": 6,
                "ABAEPHOGOFF": "EaseInOutCubic",
                "KFDBMBFFANN": {},
                "IEJBKHHEJEN": true,
                "CEDHIBLHMKP": false,
                "KIPMIDIKECP": "",
                "ANFHNPOCMNI": true,
                "BDLGHOJPJHD": "",
                "LCOJGFEOLCK": "",
                "BBBGAEDCJEL": ""
            },
            {
                "$type": "CCEEIGNAILH",
                "type": "DIALOG",
                "aliasList": [
                    "1005"
                ],
                "actionId": 122,
                "KICBIOMGHIN": 730551009,
                "PNCCODDABKI": 0.5
            },
            {
                "$type": "KCBOGFFHPBD",
                "type": "BODY_LANG",
                "aliasList": [
                    "1005"
                ],
                "actionId": 194,
                "GPIEDGOMCGL": 1090,
                "FHLAMNNHMFA": true,
                "KCEHDJLKIAL": false,
                "KCOLHJBDILK": true,
                "AOFEDPBOOIE": ""
            },
            {
                "$type": "BCJBNCJOPCE",
                "type": "CAMERA_MOVE",
                "delayTime": 0.07100000232458115,
                "duration": 5.0,
                "actionId": 187,
                "AKFGKKEOEFA": {
                    "x": -1451.468017578125,
                    "y": 83.75,
                    "z": 4718.076171875
                },
                "NGEBMAEFFGJ": {
                    "x": -1450.801025390625,
                    "y": 83.76200103759766,
                    "z": 4718.82080078125
                },
                "LIGHLBKBDEI": 25.0,
                "ABAEPHOGOFF": "EaseOutQuad",
                "KFDBMBFFANN": {},
                "IEJBKHHEJEN": true,
                "CEDHIBLHMKP": false,
                "KIPMIDIKECP": "",
                "ANFHNPOCMNI": true,
                "BDLGHOJPJHD": "",
                "LCOJGFEOLCK": "",
                "BBBGAEDCJEL": ""
            }
        ],
        [
            {
                "$type": "CCEEIGNAILH",
                "type": "DIALOG",
                "aliasList": [
                    "20722"
                ],
                "actionId": 124,
                "KICBIOMGHIN": 730551010,
                "PNCCODDABKI": 0.5
            },
            {
                "$type": "IBPNIIGAIPF",
                "type": "LOOK_AT",
                "aliasList": [
                    "20722"
                ],
                "actionId": 201,
                "GGIENKFBOGL": true,
                "useTargetPos": true,
                "GCOONJBHNIM": true,
                "JHNJNNOPJKG": {
                    "x": -1447.8389892578125,
                    "y": 84.38800048828125,
                    "z": 4727.02490234375
                },
                "NDOMJCOFKDJ": 0.5,
                "KIPMIDIKECP": "",
                "AHLPNEGAKGG": "NONE",
                "FGPHOPBEJDE": true,
                "HJJAFGPMJNJ": "",
                "AOFBAGFCGPJ": ""
            },
            {
                "$type": "KCBOGFFHPBD",
                "type": "BODY_LANG",
                "aliasList": [
                    "20722"
                ],
                "actionId": 202,
                "GPIEDGOMCGL": 1120,
                "FHLAMNNHMFA": true,
                "KCEHDJLKIAL": false,
                "KCOLHJBDILK": true,
                "AOFEDPBOOIE": ""
            },
            {
                "$type": "BCJBNCJOPCE",
                "type": "CAMERA_MOVE",
                "delayTime": 0.25,
                "duration": 0.5,
                "actionId": 191,
                "AKFGKKEOEFA": {
                    "x": -1444.154052734375,
                    "y": 84.41400146484375,
                    "z": 4727.6611328125
                },
                "NGEBMAEFFGJ": {
                    "x": -1445.1409912109375,
                    "y": 84.45899963378906,
                    "z": 4727.81494140625
                },
                "LIGHLBKBDEI": 25.0,
                "GFIOJGJJGCN": 6,
                "ABAEPHOGOFF": "EaseInOutCubic",
                "KFDBMBFFANN": {},
                "IEJBKHHEJEN": true,
                "CEDHIBLHMKP": false,
                "KIPMIDIKECP": "",
                "ANFHNPOCMNI": true,
                "BDLGHOJPJHD": "",
                "LCOJGFEOLCK": "",
                "BBBGAEDCJEL": ""
            },
            {
                "$type": "MoleMole.Config.ConfigTeleportToAction",
                "type": "TELEPORT_TO",
                "delayTime": 0.25,
                "aliasList": [
                    "20722"
                ],
                "actionId": 251,
                "position": {
                    "x": -1445.7530517578125,
                    "y": 82.57499694824219,
                    "z": 4728.14111328125
                },
                "forward": {
                    "x": 0.24699999392032623,
                    "z": -0.968999981880188
                },
                "openLongDisTeleport": true,
                "posBindMovingTargetKey": "",
                "forwardBindMovingTargetKey": ""
            }
        ],
        [
            {
                "$type": "BCJBNCJOPCE",
                "type": "CAMERA_MOVE",
                "duration": 0.5,
                "actionId": 203,
                "AKFGKKEOEFA": {
                    "x": -1448.468017578125,
                    "y": 84.35099792480469,
                    "z": 4728.6640625
                },
                "NGEBMAEFFGJ": {
                    "x": -1449.4659423828125,
                    "y": 84.39299774169922,
                    "z": 4728.7109375
                },
                "LIGHLBKBDEI": 25.0,
                "GFIOJGJJGCN": 6,
                "ABAEPHOGOFF": "EaseInOutCubic",
                "KFDBMBFFANN": {},
                "IEJBKHHEJEN": true,
                "CEDHIBLHMKP": false,
                "KIPMIDIKECP": "",
                "ANFHNPOCMNI": true,
                "BDLGHOJPJHD": "",
                "LCOJGFEOLCK": "",
                "BBBGAEDCJEL": ""
            },
            {
                "$type": "CCEEIGNAILH",
                "type": "DIALOG",
                "aliasList": [
                    "1005"
                ],
                "actionId": 126,
                "KICBIOMGHIN": 730551011,
                "PNCCODDABKI": 0.5
            },
            {
                "$type": "BCJBNCJOPCE",
                "type": "CAMERA_MOVE",
                "delayTime": 0.0949999988079071,
                "duration": 5.0,
                "actionId": 204,
                "AKFGKKEOEFA": {
                    "x": -1449.990966796875,
                    "y": 84.41500091552734,
                    "z": 4728.73486328125
                },
                "NGEBMAEFFGJ": {
                    "x": -1450.989013671875,
                    "y": 84.45700073242188,
                    "z": 4728.7822265625
                },
                "LIGHLBKBDEI": 25.0,
                "ABAEPHOGOFF": "EaseOutQuad",
                "KFDBMBFFANN": {},
                "IEJBKHHEJEN": true,
                "CEDHIBLHMKP": false,
                "KIPMIDIKECP": "",
                "ANFHNPOCMNI": true,
                "BDLGHOJPJHD": "",
                "LCOJGFEOLCK": "",
                "BBBGAEDCJEL": ""
            }
        ],
        [
            {
                "$type": "BCJBNCJOPCE",
                "type": "CAMERA_MOVE",
                "duration": 0.5,
                "actionId": 205,
                "AKFGKKEOEFA": {
                    "x": -1447.114013671875,
                    "y": 84.71900177001953,
                    "z": 4728.85888671875
                },
                "NGEBMAEFFGJ": {
                    "x": -1446.1529541015625,
                    "y": 84.50199890136719,
                    "z": 4728.68603515625
                },
                "LIGHLBKBDEI": 25.0,
                "GFIOJGJJGCN": 6,
                "ABAEPHOGOFF": "EaseInOutCubic",
                "KFDBMBFFANN": {},
                "IEJBKHHEJEN": true,
                "CEDHIBLHMKP": false,
                "KIPMIDIKECP": "",
                "ANFHNPOCMNI": true,
                "BDLGHOJPJHD": "",
                "LCOJGFEOLCK": "",
                "BBBGAEDCJEL": ""
            },
            {
                "$type": "MoleMole.Config.ConfigTeleportToAction",
                "type": "TELEPORT_TO",
                "aliasList": [
                    "20722"
                ],
                "actionId": 210,
                "position": {
                    "x": -1445.7469482421875,
                    "y": 82.57499694824219,
                    "z": 4728.18603515625
                },
                "forward": {
                    "x": -0.6140000224113464,
                    "z": -0.7889999747276306
                },
                "openLongDisTeleport": true,
                "posBindMovingTargetKey": "",
                "forwardBindMovingTargetKey": ""
            },
            {
                "$type": "MoleMole.Config.ConfigSetModelTransform",
                "type": "SET_MODEL_TRANSFORM",
                "aliasList": [
                    "1005"
                ],
                "actionId": 223,
                "groudHight": 0.5
            },
            {
                "$type": "DNAEECJNBFB",
                "type": "EMO_SYNC",
                "aliasList": [
                    "1005"
                ],
                "actionId": 221,
                "EOGJDJKPPGE": "",
                "IHCBGPABDLE": "Cs_Emo_Pet_Common/Cs_Emo_Paimon_None",
                "CIKPDMODFPL": "Cs_Emo_Pet_Common/Cs_Emo_Paimon_Normal02_B",
                "HDIAHFFHNGE": "",
                "BOAAGJEEFDD": "",
                "PFDPJKHPADE": "",
                "MJAONEKDECJ": [
                    1796869206626684908,
                    2049648015653630001,
                    14015965774222061559,
                    873259039409222856
                ],
                "DAALMFGCAOO": [
                    8193175980003048155,
                    1264945116173066023,
                    9863698042095554948,
                    6125281388361076342
                ]
            },
            {
                "$type": "KCBOGFFHPBD",
                "type": "BODY_LANG",
                "aliasList": [
                    "1005"
                ],
                "actionId": 219,
                "GPIEDGOMCGL": 1120,
                "FHLAMNNHMFA": true,
                "KCEHDJLKIAL": false,
                "KCOLHJBDILK": true,
                "AOFEDPBOOIE": ""
            },
            {
                "$type": "MoleMole.Config.ConfigTeleportToAction",
                "type": "TELEPORT_TO",
                "aliasList": [
                    "1005"
                ],
                "actionId": 209,
                "position": {
                    "x": -1443.97998046875,
                    "y": 82.50299835205078,
                    "z": 4728.61083984375
                },
                "forward": {
                    "x": -0.9810000061988831,
                    "z": -0.1940000057220459
                },
                "openLongDisTeleport": true,
                "posBindMovingTargetKey": "",
                "forwardBindMovingTargetKey": ""
            },
            {
                "$type": "KCBOGFFHPBD",
                "type": "BODY_LANG",
                "aliasList": [
                    "20723"
                ],
                "actionId": 218,
                "GPIEDGOMCGL": 1190,
                "FHLAMNNHMFA": true,
                "KCEHDJLKIAL": false,
                "KCOLHJBDILK": true,
                "AOFEDPBOOIE": ""
            },
            {
                "$type": "IBPNIIGAIPF",
                "type": "LOOK_AT",
                "aliasList": [
                    "20722"
                ],
                "actionId": 216,
                "GGIENKFBOGL": true,
                "useTargetPos": true,
                "GCOONJBHNIM": true,
                "JHNJNNOPJKG": {
                    "x": -1454.3370361328125,
                    "y": 84.08999633789062,
                    "z": 4728.64306640625
                },
                "NDOMJCOFKDJ": 0.5,
                "KIPMIDIKECP": "",
                "AHLPNEGAKGG": "NONE",
                "FGPHOPBEJDE": true,
                "HJJAFGPMJNJ": "",
                "AOFBAGFCGPJ": ""
            },
            {
                "$type": "IBPNIIGAIPF",
                "type": "LOOK_AT",
                "aliasList": [
                    "20723"
                ],
                "actionId": 214,
                "GGIENKFBOGL": true,
                "useTargetPos": true,
                "GCOONJBHNIM": true,
                "JHNJNNOPJKG": {
                    "x": -1454.3370361328125,
                    "y": 84.25900268554688,
                    "z": 4728.64306640625
                },
                "NDOMJCOFKDJ": 0.5,
                "KIPMIDIKECP": "",
                "AHLPNEGAKGG": "NONE",
                "FGPHOPBEJDE": true,
                "HJJAFGPMJNJ": "",
                "AOFBAGFCGPJ": ""
            },
            {
                "$type": "DNAEECJNBFB",
                "type": "EMO_SYNC",
                "aliasList": [
                    "4218"
                ],
                "actionId": 220,
                "EOGJDJKPPGE": "",
                "IHCBGPABDLE": "Cs_Emo_NPC_Common/Cs_Emo_NPC_Normal01",
                "CIKPDMODFPL": "Cs_Emo_NPC_Common/Cs_Emo_NPC_Angry01_B",
                "HDIAHFFHNGE": "",
                "BOAAGJEEFDD": "",
                "PFDPJKHPADE": "",
                "MJAONEKDECJ": [
                    12803840960998583578,
                    3437050431160283015,
                    6548526936325855136,
                    1274732080047098512
                ],
                "DAALMFGCAOO": [
                    7899044606840785740,
                    10175703066045221409,
                    10119021136772445063,
                    4929826079990131913
                ]
            },
            {
                "$type": "IBPNIIGAIPF",
                "type": "LOOK_AT",
                "aliasList": [
                    "4218"
                ],
                "actionId": 213,
                "GGIENKFBOGL": true,
                "useTargetPos": true,
                "GCOONJBHNIM": true,
                "JHNJNNOPJKG": {
                    "x": -1454.3370361328125,
                    "y": 84.7239990234375,
                    "z": 4728.64306640625
                },
                "NDOMJCOFKDJ": 0.5,
                "KIPMIDIKECP": "",
                "AHLPNEGAKGG": "NONE",
                "FGPHOPBEJDE": true,
                "HJJAFGPMJNJ": "",
                "AOFBAGFCGPJ": ""
            },
            {
                "$type": "MoleMole.Config.ConfigTeleportToAction",
                "type": "TELEPORT_TO",
                "aliasList": [
                    "4218"
                ],
                "actionId": 207,
                "position": {
                    "x": -1441.7039794921875,
                    "y": 82.4739990234375,
                    "z": 4728.75
                },
                "forward": {
                    "x": -0.9779999852180481,
                    "z": -0.20600000023841858
                },
                "openLongDisTeleport": true,
                "posBindMovingTargetKey": "",
                "forwardBindMovingTargetKey": ""
            },
            {
                "$type": "CCEEIGNAILH",
                "type": "DIALOG",
                "aliasList": [
                    "4218"
                ],
                "actionId": 128,
                "KICBIOMGHIN": 730551012,
                "PNCCODDABKI": 0.5
            },
            {
                "$type": "DNAEECJNBFB",
                "type": "EMO_SYNC",
                "aliasList": [
                    "Avatar"
                ],
                "actionId": 222,
                "EOGJDJKPPGE": "",
                "IHCBGPABDLE": "Cs_Emo_Avatar_Common/Cs_Emo_Avatar_Angry01",
                "CIKPDMODFPL": "Cs_Emo_Avatar_Common/Cs_Emo_Avatar_Angry01",
                "HDIAHFFHNGE": "",
                "BOAAGJEEFDD": "",
                "PFDPJKHPADE": "",
                "MJAONEKDECJ": [
                    14296606849723709100,
                    5508348580450379567,
                    7627497203169383327,
                    8979581647593659876
                ],
                "DAALMFGCAOO": [
                    17142441291827365433,
                    5141166644388952532,
                    3717387055984808681,
                    713130900221361119
                ]
            },
            {
                "$type": "IBPNIIGAIPF",
                "type": "LOOK_AT",
                "aliasList": [
                    "Avatar"
                ],
                "actionId": 212,
                "GGIENKFBOGL": true,
                "useTargetPos": true,
                "GCOONJBHNIM": true,
                "JHNJNNOPJKG": {
                    "x": -1454.3370361328125,
                    "y": 84.66699981689453,
                    "z": 4728.64306640625
                },
                "NDOMJCOFKDJ": 0.5,
                "KIPMIDIKECP": "",
                "AHLPNEGAKGG": "NONE",
                "FGPHOPBEJDE": true,
                "HJJAFGPMJNJ": "",
                "AOFBAGFCGPJ": ""
            },
            {
                "$type": "MoleMole.Config.ConfigTeleportToAction",
                "type": "TELEPORT_TO",
                "aliasList": [
                    "Avatar"
                ],
                "actionId": 206,
                "position": {
                    "x": -1443.0899658203125,
                    "y": 82.46399688720703,
                    "z": 4729.27685546875
                },
                "forward": {
                    "x": -0.8939999938011169,
                    "z": -0.4490000009536743
                },
                "openLongDisTeleport": true,
                "posBindMovingTargetKey": "",
                "forwardBindMovingTargetKey": ""
            },
            {
                "$type": "MoleMole.Config.ConfigTeleportToAction",
                "type": "TELEPORT_TO",
                "aliasList": [
                    "20723"
                ],
                "actionId": 208,
                "position": {
                    "x": -1439.9090576171875,
                    "y": 82.5739974975586,
                    "z": 4727.52099609375
                },
                "forward": {
                    "x": -0.8220000267028809,
                    "z": -0.5690000057220459
                },
                "openLongDisTeleport": true,
                "posBindMovingTargetKey": "",
                "forwardBindMovingTargetKey": ""
            },
            {
                "$type": "MoleMole.Config.ConfigTeleportToAction",
                "type": "TELEPORT_TO",
                "aliasList": [
                    "20724"
                ],
                "actionId": 211,
                "position": {
                    "x": -1440.5909423828125,
                    "y": 82.48699951171875,
                    "z": 4728.2900390625
                },
                "forward": {
                    "x": -0.9929999709129333,
                    "z": 0.11900000274181366
                },
                "openLongDisTeleport": true,
                "posBindMovingTargetKey": "",
                "forwardBindMovingTargetKey": ""
            },
            {
                "$type": "IBPNIIGAIPF",
                "type": "LOOK_AT",
                "delayTime": 0.006000000052154064,
                "aliasList": [
                    "1005"
                ],
                "actionId": 215,
                "GGIENKFBOGL": true,
                "useTargetPos": true,
                "GCOONJBHNIM": true,
                "JHNJNNOPJKG": {
                    "x": -1454.3370361328125,
                    "y": 85.11199951171875,
                    "z": 4728.64306640625
                },
                "NDOMJCOFKDJ": 0.5,
                "KIPMIDIKECP": "",
                "AHLPNEGAKGG": "NONE",
                "FGPHOPBEJDE": true,
                "HJJAFGPMJNJ": "",
                "AOFBAGFCGPJ": ""
            }
        ],
        [
            {
                "$type": "BCJBNCJOPCE",
                "type": "CAMERA_MOVE",
                "duration": 4.245999813079834,
                "actionId": 235,
                "AKFGKKEOEFA": {
                    "x": -1447.1199951171875,
                    "y": 84.74600219726562,
                    "z": 4728.7880859375
                },
                "NGEBMAEFFGJ": {
                    "x": -1446.1590576171875,
                    "y": 84.52899932861328,
                    "z": 4728.615234375
                },
                "LIGHLBKBDEI": 25.0,
                "GFIOJGJJGCN": 1,
                "ABAEPHOGOFF": "EaseOutQuad",
                "KFDBMBFFANN": {},
                "IEJBKHHEJEN": true,
                "CEDHIBLHMKP": false,
                "KIPMIDIKECP": "",
                "ANFHNPOCMNI": true,
                "BDLGHOJPJHD": "",
                "LCOJGFEOLCK": "",
                "BBBGAEDCJEL": ""
            },
            {
                "$type": "CCEEIGNAILH",
                "type": "DIALOG",
                "aliasList": [
                    "20722"
                ],
                "actionId": 130,
                "KICBIOMGHIN": 730551013,
                "PNCCODDABKI": 0.5
            }
        ],
        [
            {
                "$type": "BCJBNCJOPCE",
                "type": "CAMERA_MOVE",
                "duration": 0.5,
                "actionId": 236,
                "AKFGKKEOEFA": {
                    "x": -1442.5670166015625,
                    "y": 84.072998046875,
                    "z": 4727.97314453125
                },
                "NGEBMAEFFGJ": {
                    "x": -1441.85302734375,
                    "y": 84.06999969482422,
                    "z": 4728.6728515625
                },
                "LIGHLBKBDEI": 25.0,
                "GFIOJGJJGCN": 6,
                "ABAEPHOGOFF": "EaseInOutCubic",
                "KFDBMBFFANN": {},
                "IEJBKHHEJEN": true,
                "CEDHIBLHMKP": false,
                "KIPMIDIKECP": "",
                "ANFHNPOCMNI": true,
                "BDLGHOJPJHD": "",
                "LCOJGFEOLCK": "",
                "BBBGAEDCJEL": ""
            },
            {
                "$type": "CCEEIGNAILH",
                "type": "DIALOG",
                "aliasList": [
                    "4218"
                ],
                "actionId": 132,
                "KICBIOMGHIN": 730551014,
                "PNCCODDABKI": 0.5
            },
            {
                "$type": "KCBOGFFHPBD",
                "type": "BODY_LANG",
                "aliasList": [
                    "20723"
                ],
                "actionId": 240,
                "AHGOBCDHCMC": true,
                "FHLAMNNHMFA": true,
                "KCEHDJLKIAL": false,
                "KCOLHJBDILK": true,
                "AOFEDPBOOIE": ""
            },
            {
                "$type": "IBPNIIGAIPF",
                "type": "LOOK_AT",
                "delayTime": 0.4230000078678131,
                "aliasList": [
                    "4218"
                ],
                "actionId": 237,
                "GGIENKFBOGL": true,
                "useTargetPos": true,
                "GCOONJBHNIM": true,
                "JHNJNNOPJKG": {
                    "x": -1445.47705078125,
                    "y": 84.32099914550781,
                    "z": 4728.375
                },
                "NDOMJCOFKDJ": 0.5,
                "KIPMIDIKECP": "",
                "AHLPNEGAKGG": "NONE",
                "FGPHOPBEJDE": true,
                "HJJAFGPMJNJ": "",
                "AOFBAGFCGPJ": ""
            }
        ],
        [
            {
                "$type": "BCJBNCJOPCE",
                "type": "CAMERA_MOVE",
                "duration": 0.5,
                "actionId": 238,
                "AKFGKKEOEFA": {
                    "x": -1443.3570556640625,
                    "y": 84.25299835205078,
                    "z": 4728.6689453125
                },
                "NGEBMAEFFGJ": {
                    "x": -1442.3699951171875,
                    "y": 84.1240005493164,
                    "z": 4728.56982421875
                },
                "LIGHLBKBDEI": 25.0,
                "GFIOJGJJGCN": 6,
                "ABAEPHOGOFF": "EaseInOutCubic",
                "KFDBMBFFANN": {},
                "IEJBKHHEJEN": true,
                "CEDHIBLHMKP": false,
                "KIPMIDIKECP": "",
                "ANFHNPOCMNI": true,
                "BDLGHOJPJHD": "",
                "LCOJGFEOLCK": "",
                "BBBGAEDCJEL": ""
            },
            {
                "$type": "OMPHNKNPPJO",
                "type": "LOOK_AT_EYECTRL",
                "aliasList": [
                    "4218"
                ],
                "actionId": 244,
                "useTargetPos": false,
                "OMHMNNDGHFL": {
                    "x": -6.0,
                    "z": 5.0
                },
                "AMNIBCAICEP": {
                    "x": -6.0,
                    "z": 5.0
                },
                "MHBPPJNDKJC": 0.20000000298023224,
                "KIPMIDIKECP": "",
                "JJEGGHOEIPD": "Face"
            },
            {
                "$type": "CCEEIGNAILH",
                "type": "DIALOG",
                "aliasList": [
                    "20723"
                ],
                "actionId": 134,
                "KICBIOMGHIN": 730551015,
                "PNCCODDABKI": 1.0700000524520874
            },
            {
                "$type": "KCBOGFFHPBD",
                "type": "BODY_LANG",
                "aliasList": [
                    "20723"
                ],
                "actionId": 239,
                "GPIEDGOMCGL": 1230,
                "FHLAMNNHMFA": true,
                "KCEHDJLKIAL": false,
                "KCOLHJBDILK": true,
                "AOFEDPBOOIE": ""
            },
            {
                "$type": "MoleMole.Config.ConfigTeleportToAction",
                "type": "TELEPORT_TO",
                "aliasList": [
                    "20723"
                ],
                "actionId": 241,
                "position": {
                    "x": -1439.9090576171875,
                    "y": 82.5739974975586,
                    "z": 4727.52099609375
                },
                "forward": {
                    "x": -1.0,
                    "z": 0.008999999612569809
                },
                "openLongDisTeleport": true,
                "posBindMovingTargetKey": "",
                "forwardBindMovingTargetKey": ""
            },
            {
                "$type": "IBPNIIGAIPF",
                "type": "LOOK_AT",
                "aliasList": [
                    "20723"
                ],
                "actionId": 242,
                "GGIENKFBOGL": true,
                "useTargetPos": true,
                "GCOONJBHNIM": true,
                "JHNJNNOPJKG": {
                    "x": -1441.720947265625,
                    "y": 84.18399810791016,
                    "z": 4728.73193359375
                },
                "NDOMJCOFKDJ": 0.5,
                "KIPMIDIKECP": "",
                "AHLPNEGAKGG": "NONE",
                "FGPHOPBEJDE": true,
                "HJJAFGPMJNJ": "",
                "AOFBAGFCGPJ": ""
            },
            {
                "$type": "DNAEECJNBFB",
                "type": "EMO_SYNC",
                "delayTime": 0.38600000739097595,
                "aliasList": [
                    "4218"
                ],
                "actionId": 246,
                "EOGJDJKPPGE": "",
                "IHCBGPABDLE": "Cs_Emo_NPC_Common/Cs_Emo_NPC_Normal02",
                "CIKPDMODFPL": "Cs_Emo_NPC_Common/Cs_Emo_NPC_Normal01_B",
                "HDIAHFFHNGE": "",
                "BOAAGJEEFDD": "",
                "PFDPJKHPADE": "",
                "MJAONEKDECJ": [
                    1687212637248170397,
                    2934538754396876204,
                    5736905791227243017,
                    16709119666208472498
                ],
                "DAALMFGCAOO": [
                    15191155715402440098,
                    420038106395935518,
                    2651432695756251320,
                    4209314551981667660
                ]
            },
            {
                "$type": "IBPNIIGAIPF",
                "type": "LOOK_AT",
                "delayTime": 0.4659999907016754,
                "aliasList": [
                    "4218"
                ],
                "actionId": 243,
                "GGIENKFBOGL": true,
                "useTargetPos": true,
                "GCOONJBHNIM": true,
                "JHNJNNOPJKG": {
                    "x": -1442.177001953125,
                    "y": 83.95099639892578,
                    "z": 4728.466796875
                },
                "NDOMJCOFKDJ": 0.5,
                "KIPMIDIKECP": "",
                "AHLPNEGAKGG": "NONE",
                "FGPHOPBEJDE": true,
                "HJJAFGPMJNJ": "",
                "AOFBAGFCGPJ": ""
            }
        ],
        [
            {
                "$type": "BCJBNCJOPCE",
                "type": "CAMERA_MOVE",
                "duration": 0.5,
                "actionId": 247,
                "AKFGKKEOEFA": {
                    "x": -1441.7249755859375,
                    "y": 83.99800109863281,
                    "z": 4728.2109375
                },
                "NGEBMAEFFGJ": {
                    "x": -1440.7490234375,
                    "y": 83.96499633789062,
                    "z": 4727.99609375
                },
                "LIGHLBKBDEI": 25.0,
                "GFIOJGJJGCN": 6,
                "ABAEPHOGOFF": "EaseInOutCubic",
                "KFDBMBFFANN": {},
                "IEJBKHHEJEN": true,
                "CEDHIBLHMKP": false,
                "KIPMIDIKECP": "",
                "ANFHNPOCMNI": true,
                "BDLGHOJPJHD": "",
                "LCOJGFEOLCK": "",
                "BBBGAEDCJEL": ""
            },
            {
                "$type": "CCEEIGNAILH",
                "type": "DIALOG",
                "aliasList": [
                    "20723"
                ],
                "actionId": 136,
                "KICBIOMGHIN": 730551016,
                "PNCCODDABKI": 0.5
            }
        ],
        [
            {
                "$type": "MoleMole.Config.ConfigSimpleBlackScreenAction",
                "type": "SIMPLE_BLACK_SCREEN",
                "actionId": 137,
                "durationToBlack": 0.5,
                "durationKeepBlack": 1.0,
                "durationFromBlack": 0.5,
                "textMapID": ""
            },
            {
                "$type": "MoleMole.Config.ConfigTimeProtectAction",
                "type": "TIME_PROTECT",
                "duration": 0.699999988079071,
                "actionId": 138
            },
            {
                "$type": "BCJBNCJOPCE",
                "type": "CAMERA_MOVE",
                "delayTime": 0.5149999856948853,
                "duration": 0.10000000149011612,
                "actionId": 249,
                "AKFGKKEOEFA": {
                    "x": -1426.833984375,
                    "y": 85.24199676513672,
                    "z": 4727.6689453125
                },
                "NGEBMAEFFGJ": {
                    "x": -1427.823974609375,
                    "y": 85.1520004272461,
                    "z": 4727.77978515625
                },
                "GFIOJGJJGCN": 6,
                "ABAEPHOGOFF": "EaseInOutCubic",
                "KFDBMBFFANN": {},
                "IEJBKHHEJEN": true,
                "CEDHIBLHMKP": false,
                "KIPMIDIKECP": "",
                "ANFHNPOCMNI": true,
                "BDLGHOJPJHD": "",
                "LCOJGFEOLCK": "",
                "BBBGAEDCJEL": ""
            }
        ]
    ],
    "groupId": [
        {
            "grpId": 2098343684,
            "nextGrpId": 2098343685
        },
        {
            "index": 1,
            "grpId": 2098343685,
            "nextGrpId": 2098343686
        },
        {
            "index": 2,
            "grpId": 2098343686,
            "nextGrpId": 2098343687
        },
        {
            "index": 3,
            "grpId": 2098343687,
            "nextGrpId": 2098343688
        },
        {
            "index": 4,
            "grpId": 2098343688,
            "nextGrpId": 2098343689
        },
        {
            "index": 5,
            "grpId": 2098343689,
            "nextGrpId": 2098343690
        },
        {
            "index": 6,
            "grpId": 2098343690,
            "nextGrpId": 2098343691
        },
        {
            "index": 7,
            "grpId": 2098343691,
            "nextGrpId": 2098343692
        },
        {
            "index": 8,
            "grpId": 2098343692,
            "nextGrpId": 624144812
        },
        {
            "index": 9,
            "grpId": 624144812,
            "nextGrpId": 624144813
        },
        {
            "index": 10,
            "grpId": 624144813,
            "nextGrpId": 624144814
        },
        {
            "index": 11,
            "grpId": 624144814,
            "nextGrpId": 624144815
        },
        {
            "index": 12,
            "grpId": 624144815,
            "nextGrpId": 624144816
        },
        {
            "index": 13,
            "grpId": 624144816,
            "nextGrpId": 624144817
        },
        {
            "index": 14,
            "grpId": 624144817,
            "nextGrpId": 624144818
        },
        {
            "index": 15,
            "grpId": 624144818,
            "nextGrpId": 624144819
        },
        {
            "index": 16,
            "grpId": 624144819,
            "nextGrpId": 624144820
        }
    ],
    "freeStyleDic": {
        "4218": [
            1190
        ]
    }
}