{
    "sceneId": 3,
    "routes": [
        {
            "localId": 311500005,
            "name": "Platform_999800195",
            "type": "Reciprocate",
            "points": [
                {
                    "pos": {
                        "x": 3035.57373046875,
                        "y": 403.4821472167969,
                        "z": 3023.391845703125
                    },
                    "targetVelocity": 2.0
                },
                {
                    "pos": {
                        "x": 3034.3193359375,
                        "y": 400.18572998046875,
                        "z": 3022.04931640625
                    },
                    "targetVelocity": 2.0
                }
            ],
            "rotAngleType": "ROT_ANGLE_Y",
            "isSimulateTempRouteByTime": true,
            "isUsePreStopMove": true
        },
        {
            "localId": 340200434,
            "name": "Platform_999800195",
            "type": "Reciprocate",
            "points": [
                {
                    "pos": {
                        "x": 3026.341552734375,
                        "y": 415.3665466308594,
                        "z": 3029.359375
                    },
                    "targetVelocity": 2.0
                },
                {
                    "pos": {
                        "x": 3033.043212890625,
                        "y": 409.7248840332031,
                        "z": 3026.340576171875
                    },
                    "targetVelocity": 2.0
                }
            ],
            "rotAngleType": "ROT_ANGLE_Y",
            "isSimulateTempRouteByTime": true,
            "isUsePreStopMove": true
        },
        {
            "localId": 340200518,
            "name": "Route_340200518",
            "type": "Loop",
            "points": [
                {
                    "pos": {
                        "x": 2784.3994140625,
                        "y": 404.7497863769531,
                        "z": 3076.81103515625
                    },
                    "waitTime": 2.0
                },
                {
                    "pos": {
                        "x": 2795.05126953125,
                        "y": 406.0347900390625,
                        "z": 3073.7265625
                    },
                    "waitTime": 3.0
                },
                {
                    "pos": {
                        "x": 2792.90771484375,
                        "y": 405.6787109375,
                        "z": 3067.217529296875
                    }
                },
                {
                    "pos": {
                        "x": 2794.740234375,
                        "y": 406.470703125,
                        "z": 3061.65869140625
                    }
                },
                {
                    "pos": {
                        "x": 2798.9931640625,
                        "y": 407.83709716796875,
                        "z": 3055.2998046875
                    }
                },
                {
                    "pos": {
                        "x": 2801.095947265625,
                        "y": 408.3603820800781,
                        "z": 3051.966064453125
                    },
                    "waitTime": 3.0
                }
            ],
            "rotAngleType": "ROT_ANGLE_Y",
            "isSimulateTempRouteByTime": true,
            "isUsePreStopMove": true
        },
        {
            "localId": 340200519,
            "name": "Route_340200519",
            "type": "Loop",
            "points": [
                {
                    "pos": {
                        "x": 2911.86474609375,
                        "y": 428.25335693359375,
                        "z": 2972.90966796875
                    }
                },
                {
                    "pos": {
                        "x": 2921.4130859375,
                        "y": 426.9236755371094,
                        "z": 2966.466552734375
                    }
                },
                {
                    "pos": {
                        "x": 2930.87451171875,
                        "y": 425.69207763671875,
                        "z": 2955.62939453125
                    },
                    "waitTime": 3.0
                },
                {
                    "pos": {
                        "x": 2934.85498046875,
                        "y": 425.1395263671875,
                        "z": 2947.797607421875
                    }
                },
                {
                    "pos": {
                        "x": 2949.590576171875,
                        "y": 424.8740539550781,
                        "z": 2937.494140625
                    }
                },
                {
                    "pos": {
                        "x": 2975.727294921875,
                        "y": 423.7165222167969,
                        "z": 2936.2236328125
                    },
                    "waitTime": 3.0
                },
                {
                    "pos": {
                        "x": 2993.667724609375,
                        "y": 422.6389465332031,
                        "z": 2939.40234375
                    }
                }
            ],
            "rotAngleType": "ROT_ANGLE_Y",
            "isSimulateTempRouteByTime": true,
            "isUsePreStopMove": true
        },
        {
            "localId": 340400260,
            "name": "Route_340400260",
            "type": "Reciprocate",
            "points": [
                {
                    "pos": {
                        "x": 2929.288330078125,
                        "y": 440.4804382324219,
                        "z": 3002.119384765625
                    },
                    "waitTime": 1.0
                },
                {
                    "pos": {
                        "x": 2919.248291015625,
                        "y": 440.05120849609375,
                        "z": 3009.961181640625
                    }
                },
                {
                    "pos": {
                        "x": 2903.54248046875,
                        "y": 440.3081970214844,
                        "z": 3015.2744140625
                    }
                },
                {
                    "pos": {
                        "x": 2887.20166015625,
                        "y": 440.2104797363281,
                        "z": 3025.64892578125
                    },
                    "waitTime": 1.0
                }
            ],
            "rotAngleType": "ROT_ANGLE_Y",
            "isSimulateTempRouteByTime": true,
            "isUsePreStopMove": true
        },
        {
            "localId": 340400367,
            "name": "Route_340400367",
            "type": "Reciprocate",
            "points": [
                {
                    "pos": {
                        "x": 2965.451904296875,
                        "y": 440.0,
                        "z": 2984.99169921875
                    }
                },
                {
                    "pos": {
                        "x": 2969.759765625,
                        "y": 440.0,
                        "z": 2990.267578125
                    }
                },
                {
                    "pos": {
                        "x": 2974.4697265625,
                        "y": 440.1904296875,
                        "z": 2992.0634765625
                    }
                },
                {
                    "pos": {
                        "x": 2980.338623046875,
                        "y": 440.0,
                        "z": 2991.110107421875
                    }
                }
            ],
            "rotAngleType": "ROT_ANGLE_Y",
            "isSimulateTempRouteByTime": true,
            "isUsePreStopMove": true
        },
        {
            "localId": 341200048,
            "name": "Route_341200048",
            "type": "Loop",
            "points": [
                {
                    "pos": {
                        "x": 2815.953125,
                        "y": 420.90228271484375,
                        "z": 3004.7548828125
                    }
                },
                {
                    "pos": {
                        "x": 2816.9697265625,
                        "y": 418.2332458496094,
                        "z": 3016.1572265625
                    }
                },
                {
                    "pos": {
                        "x": 2802.607421875,
                        "y": 416.783203125,
                        "z": 3028.384033203125
                    }
                },
                {
                    "pos": {
                        "x": 2806.65087890625,
                        "y": 416.32891845703125,
                        "z": 3031.169189453125
                    },
                    "waitTime": 3.0
                },
                {
                    "pos": {
                        "x": 2812.777099609375,
                        "y": 418.2331848144531,
                        "z": 3014.853515625
                    }
                }
            ],
            "rotAngleType": "ROT_ANGLE_Y",
            "isSimulateTempRouteByTime": true,
            "isUsePreStopMove": true
        }
    ]
}