{
    "luaDataPath": "",
    "entityBan": "",
    "disableNpcLod": true,
    "protectNpcMobileLod": true,
    "MNHFNFDCEFG": 7,
    "startFade": {
        "startFadeOutDuration": 0.0
    },
    "endFade": {
        "startFadeOutDuration": 0.0
    },
    "actors": [
        {
            "alias": "Avatar",
            "visible": true,
            "bornPointName": "",
            "relativePosType": "AVATAR_NEW",
            "relativePosNpcAlias": "",
            "bindMovingTargetKey": ""
        },
        {
            "configID": 12084,
            "alias": "12084",
            "visible": true,
            "bornPointName": "Q12016Book1",
            "relativePosType": "AVATAR_NEW",
            "relativePosNpcAlias": "",
            "bindMovingTargetKey": ""
        },
        {
            "configID": 1005,
            "alias": "1005",
            "visible": true,
            "bornPointName": "",
            "useRelativePos": true,
            "relativePos": {
                "x": -1.0,
                "z": 0.5
            },
            "removeActorType": "REMOVE_WITH_DISAPPEAR",
            "relativePosType": "AVATAR_NEW",
            "relativePosNpcAlias": "",
            "bindMovingTargetKey": ""
        }
    ],
    "group": [
        [
            {
                "$type": "MoleMole.Config.ConfigTimeProtectAction",
                "type": "TIME_PROTECT",
                "duration": 0.4000000059604645,
                "actionId": 111
            },
            {
                "$type": "CNBNGFNKLGP",
                "type": "STEER_TO",
                "duration": 0.800000011920929,
                "aliasList": [
                    "Avatar"
                ],
                "actionId": 118,
                "flag": 32,
                "DEMFHGAIELL": "TO_TARGET",
                "BBNLLCHBKAI": true,
                "KIPMIDIKECP": "12084",
                "FDLMFGAMGJK": true,
                "AOFBAGFCGPJ": ""
            },
            {
                "$type": "IBPNIIGAIPF",
                "type": "LOOK_AT",
                "aliasList": [
                    "Avatar"
                ],
                "actionId": 119,
                "flag": 64,
                "GGIENKFBOGL": true,
                "useTargetPos": true,
                "GCOONJBHNIM": true,
                "NDOMJCOFKDJ": 0.5,
                "KIPMIDIKECP": "12084",
                "HJJAFGPMJNJ": "",
                "AOFBAGFCGPJ": ""
            },
            {
                "$type": "CNBNGFNKLGP",
                "type": "STEER_TO",
                "duration": 1.2000000476837158,
                "aliasList": [
                    "1005"
                ],
                "actionId": 127,
                "flag": 32,
                "DEMFHGAIELL": "TO_TARGET",
                "KDKLEJFHDJG": {
                    "x": -3009.65087890625,
                    "y": 224.5959930419922,
                    "z": -4397.501953125
                },
                "BBNLLCHBKAI": true,
                "KIPMIDIKECP": "12084",
                "FDLMFGAMGJK": true,
                "AOFBAGFCGPJ": ""
            },
            {
                "$type": "IBPNIIGAIPF",
                "type": "LOOK_AT",
                "aliasList": [
                    "1005"
                ],
                "actionId": 128,
                "flag": 64,
                "GGIENKFBOGL": true,
                "useTargetPos": true,
                "GCOONJBHNIM": true,
                "NDOMJCOFKDJ": 0.5,
                "KIPMIDIKECP": "12084",
                "HJJAFGPMJNJ": "",
                "AOFBAGFCGPJ": ""
            }
        ],
        [
            {
                "$type": "MoleMole.Config.ConfigTimeProtectAction",
                "type": "TIME_PROTECT",
                "duration": 0.5,
                "actionId": 112
            },
            {
                "$type": "CCEEIGNAILH",
                "type": "DIALOG",
                "aliasList": [
                    "12084"
                ],
                "actionId": 122,
                "KICBIOMGHIN": 120161301,
                "PNCCODDABKI": 0.5
            },
            {
                "$type": "IBPNIIGAIPF",
                "type": "LOOK_AT",
                "aliasList": [
                    "1005"
                ],
                "actionId": 129,
                "flag": 64,
                "GGIENKFBOGL": true,
                "useTargetPos": true,
                "GCOONJBHNIM": true,
                "NDOMJCOFKDJ": 0.5,
                "KIPMIDIKECP": "12084",
                "HJJAFGPMJNJ": "",
                "AOFBAGFCGPJ": ""
            }
        ],
        [
            {
                "$type": "MoleMole.Config.ConfigTimeProtectAction",
                "type": "TIME_PROTECT",
                "duration": 0.5,
                "actionId": 113
            },
            {
                "$type": "CCEEIGNAILH",
                "type": "DIALOG",
                "aliasList": [
                    "12084"
                ],
                "actionId": 123,
                "KICBIOMGHIN": 120161302,
                "PNCCODDABKI": 0.5
            }
        ],
        [
            {
                "$type": "MoleMole.Config.ConfigTimeProtectAction",
                "type": "TIME_PROTECT",
                "duration": 0.5,
                "actionId": 114
            },
            {
                "$type": "CCEEIGNAILH",
                "type": "DIALOG",
                "aliasList": [
                    "12084"
                ],
                "actionId": 124,
                "KICBIOMGHIN": 120161303,
                "PNCCODDABKI": 0.5
            }
        ],
        [
            {
                "$type": "MoleMole.Config.ConfigTimeProtectAction",
                "type": "TIME_PROTECT",
                "duration": 0.5,
                "actionId": 115
            },
            {
                "$type": "CCEEIGNAILH",
                "type": "DIALOG",
                "aliasList": [
                    "12084"
                ],
                "actionId": 125,
                "KICBIOMGHIN": 120161304,
                "PNCCODDABKI": 0.5
            }
        ],
        [
            {
                "$type": "MoleMole.Config.ConfigTimeProtectAction",
                "type": "TIME_PROTECT",
                "duration": 0.5,
                "actionId": 116
            },
            {
                "$type": "CCEEIGNAILH",
                "type": "DIALOG",
                "aliasList": [
                    "12084"
                ],
                "actionId": 126,
                "KICBIOMGHIN": 120161305,
                "PNCCODDABKI": 0.5
            }
        ],
        [
            {
                "$type": "IBPNIIGAIPF",
                "type": "LOOK_AT",
                "aliasList": [
                    "Avatar"
                ],
                "actionId": 120,
                "flag": 64,
                "GGIENKFBOGL": true,
                "MHMKIICCEDG": {
                    "x": 309.13800048828125
                },
                "NDOMJCOFKDJ": 0.5,
                "KIPMIDIKECP": "1005",
                "AHLPNEGAKGG": "NONE",
                "HJJAFGPMJNJ": "",
                "AOFBAGFCGPJ": ""
            },
            {
                "$type": "CCEEIGNAILH",
                "type": "DIALOG",
                "aliasList": [
                    "1005"
                ],
                "actionId": 130,
                "KICBIOMGHIN": 120161306,
                "PNCCODDABKI": 1.2000000476837158
            },
            {
                "$type": "DNAEECJNBFB",
                "type": "EMO_SYNC",
                "aliasList": [
                    "1005"
                ],
                "actionId": 133,
                "flag": 256,
                "EOGJDJKPPGE": "Cs_Emo_Avatar_Simple_Common_Set/Cs_Emo_Avatar_Talk/Cs_Emo_Avatar_PersonalLine/Cs_Emo_Avatar_Shougun/Cs_Emo_120161306",
                "IHCBGPABDLE": "",
                "CIKPDMODFPL": "",
                "HDIAHFFHNGE": "",
                "BOAAGJEEFDD": "",
                "PFDPJKHPADE": "",
                "DALINBJAHOC": [
                    13477789960508912724,
                    5279436992107916884,
                    12299195290626375021,
                    12541454873323835144
                ]
            },
            {
                "$type": "CNBNGFNKLGP",
                "type": "STEER_TO",
                "duration": 1.2000000476837158,
                "aliasList": [
                    "1005"
                ],
                "actionId": 134,
                "flag": 32,
                "DEMFHGAIELL": "TO_TARGET",
                "KDKLEJFHDJG": {
                    "x": -3009.65087890625,
                    "y": 224.5959930419922,
                    "z": -4397.501953125
                },
                "BBNLLCHBKAI": true,
                "KIPMIDIKECP": "Avatar",
                "FDLMFGAMGJK": true,
                "AOFBAGFCGPJ": ""
            },
            {
                "$type": "IBPNIIGAIPF",
                "type": "LOOK_AT",
                "aliasList": [
                    "1005"
                ],
                "actionId": 135,
                "flag": 64,
                "GGIENKFBOGL": true,
                "useTargetPos": true,
                "GCOONJBHNIM": true,
                "NDOMJCOFKDJ": 0.5,
                "KIPMIDIKECP": "Avatar",
                "HJJAFGPMJNJ": "",
                "AOFBAGFCGPJ": ""
            },
            {
                "$type": "KCBOGFFHPBD",
                "type": "BODY_LANG",
                "delayTime": 2.1419999599456787,
                "aliasList": [
                    "1005"
                ],
                "actionId": 131,
                "GPIEDGOMCGL": 1050,
                "FHLAMNNHMFA": true,
                "KCEHDJLKIAL": false,
                "AOFEDPBOOIE": ""
            },
            {
                "$type": "KCBOGFFHPBD",
                "type": "BODY_LANG",
                "delayTime": 4.1579999923706055,
                "aliasList": [
                    "1005"
                ],
                "actionId": 132,
                "AHGOBCDHCMC": true,
                "FHLAMNNHMFA": true,
                "KCEHDJLKIAL": false,
                "AOFEDPBOOIE": ""
            }
        ],
        [
            {
                "$type": "CCEEIGNAILH",
                "type": "DIALOG",
                "aliasList": [
                    "1005"
                ],
                "actionId": 136,
                "KICBIOMGHIN": 120161307,
                "PNCCODDABKI": 0.5
            },
            {
                "$type": "DNAEECJNBFB",
                "type": "EMO_SYNC",
                "aliasList": [
                    "1005"
                ],
                "actionId": 139,
                "flag": 256,
                "EOGJDJKPPGE": "Cs_Emo_Avatar_Simple_Common_Set/Cs_Emo_Avatar_Talk/Cs_Emo_Avatar_PersonalLine/Cs_Emo_Avatar_Shougun/Cs_Emo_120161307",
                "IHCBGPABDLE": "",
                "CIKPDMODFPL": "",
                "HDIAHFFHNGE": "",
                "BOAAGJEEFDD": "",
                "PFDPJKHPADE": "",
                "DALINBJAHOC": [
                    9066407822437138641,
                    13437356277467652392,
                    5778136681689279144,
                    3500878177310405930
                ]
            },
            {
                "$type": "IBPNIIGAIPF",
                "type": "LOOK_AT",
                "aliasList": [
                    "1005"
                ],
                "actionId": 140,
                "flag": 64,
                "GGIENKFBOGL": true,
                "useTargetPos": true,
                "GCOONJBHNIM": true,
                "NDOMJCOFKDJ": 0.5,
                "KIPMIDIKECP": "Avatar",
                "HJJAFGPMJNJ": "",
                "AOFBAGFCGPJ": ""
            },
            {
                "$type": "KCBOGFFHPBD",
                "type": "BODY_LANG",
                "aliasList": [
                    "1005"
                ],
                "actionId": 141,
                "AHGOBCDHCMC": true,
                "FHLAMNNHMFA": true,
                "KCEHDJLKIAL": false,
                "AOFEDPBOOIE": ""
            },
            {
                "$type": "MEKNGCBGKEJ",
                "type": "DIALOG_SELECT",
                "delayTime": 0.4000000059604645,
                "aliasList": [
                    "Avatar"
                ],
                "actionId": 121,
                "MLAABINGLAA": [
                    120161308,
                    120161309
                ],
                "HPBPDBFGKID": [
                    3807199019,
                    3807199019
                ],
                "CFJOJADDHHG": true,
                "APEOOMIGHNL": 3807199010
            },
            {
                "$type": "KCBOGFFHPBD",
                "type": "BODY_LANG",
                "delayTime": 3.118000030517578,
                "aliasList": [
                    "1005"
                ],
                "actionId": 137,
                "GPIEDGOMCGL": 1110,
                "FHLAMNNHMFA": true,
                "KCEHDJLKIAL": false,
                "AOFEDPBOOIE": ""
            },
            {
                "$type": "KCBOGFFHPBD",
                "type": "BODY_LANG",
                "delayTime": 4.769999980926514,
                "aliasList": [
                    "1005"
                ],
                "actionId": 138,
                "AHGOBCDHCMC": true,
                "FHLAMNNHMFA": true,
                "KCEHDJLKIAL": false,
                "AOFEDPBOOIE": ""
            }
        ],
        [
            {
                "$type": "CCEEIGNAILH",
                "type": "DIALOG",
                "aliasList": [
                    "1005"
                ],
                "actionId": 142,
                "KICBIOMGHIN": 120161310,
                "PNCCODDABKI": 0.5
            },
            {
                "$type": "KCBOGFFHPBD",
                "type": "BODY_LANG",
                "aliasList": [
                    "1005"
                ],
                "actionId": 143,
                "GPIEDGOMCGL": 1120,
                "FHLAMNNHMFA": true,
                "KCEHDJLKIAL": false,
                "AOFEDPBOOIE": ""
            },
            {
                "$type": "DNAEECJNBFB",
                "type": "EMO_SYNC",
                "aliasList": [
                    "1005"
                ],
                "actionId": 146,
                "flag": 320,
                "EOGJDJKPPGE": "Cs_Emo_Avatar_Simple_Common_Set/Cs_Emo_Avatar_Talk/Cs_Emo_Avatar_PersonalLine/Cs_Emo_Avatar_Shougun/Cs_Emo_120161310",
                "IHCBGPABDLE": "",
                "CIKPDMODFPL": "",
                "HDIAHFFHNGE": "",
                "BOAAGJEEFDD": "",
                "PFDPJKHPADE": "",
                "DALINBJAHOC": [
                    18184170163791614664,
                    1353149557955419075,
                    7285929829545105927,
                    13958499102909949662
                ]
            },
            {
                "$type": "KCBOGFFHPBD",
                "type": "BODY_LANG",
                "delayTime": 2.0739998817443848,
                "aliasList": [
                    "1005"
                ],
                "actionId": 144,
                "GPIEDGOMCGL": 1170,
                "FHLAMNNHMFA": true,
                "KCEHDJLKIAL": false,
                "AOFEDPBOOIE": ""
            },
            {
                "$type": "KCBOGFFHPBD",
                "type": "BODY_LANG",
                "delayTime": 4.818999767303467,
                "aliasList": [
                    "1005"
                ],
                "actionId": 145,
                "GPIEDGOMCGL": 1230,
                "FHLAMNNHMFA": true,
                "KCEHDJLKIAL": false,
                "AOFEDPBOOIE": ""
            }
        ],
        [
            {
                "$type": "MoleMole.Config.ConfigTimeProtectAction",
                "type": "TIME_PROTECT",
                "duration": 0.5,
                "actionId": 117
            }
        ]
    ],
    "groupId": [
        {
            "grpId": 3807199011,
            "nextGrpId": 3807199012
        },
        {
            "index": 1,
            "grpId": 3807199012,
            "nextGrpId": 3807199013
        },
        {
            "index": 2,
            "grpId": 3807199013,
            "nextGrpId": 3807199014
        },
        {
            "index": 3,
            "grpId": 3807199014,
            "nextGrpId": 3807199015
        },
        {
            "index": 4,
            "grpId": 3807199015,
            "nextGrpId": 3807199016
        },
        {
            "index": 5,
            "grpId": 3807199016,
            "nextGrpId": 3807199017
        },
        {
            "index": 6,
            "grpId": 3807199017,
            "nextGrpId": 3807199018
        },
        {
            "index": 7,
            "grpId": 3807199018,
            "nextGrpId": 3807199019
        },
        {
            "index": 8,
            "grpId": 3807199019,
            "nextGrpId": 2059052397
        },
        {
            "index": 9,
            "grpId": 2059052397,
            "nextGrpId": 2059052398
        }
    ]
}