{
    "luaDataPath": "",
    "entityBan": "",
    "disableNpcLod": true,
    "isAutoBanNpc": true,
    "isBanWidgetPet": true,
    "protectNpcMobileLod": true,
    "MNHFNFDCEFG": 1,
    "startFade": {
        "startFadeOutDuration": 0.0
    },
    "endFade": {
        "startFadeOutDuration": 0.0
    },
    "actors": [
        {
            "alias": "Avatar",
            "visible": true,
            "bornPointName": "",
            "relativePosType": "AVATAR_NEW",
            "relativePosNpcAlias": "",
            "bindMovingTargetKey": ""
        },
        {
            "configID": 1005,
            "alias": "1005",
            "visible": true,
            "bornPointName": "",
            "removeActorType": "NEW_REMOVE_WITH_DISAPPEAR",
            "relativePosType": "AVATAR_NEW",
            "relativePosNpcAlias": "",
            "bindMovingTargetKey": ""
        },
        {
            "configID": 4283,
            "alias": "4283",
            "visible": true,
            "bornPointName": "",
            "forceCreateDaily": true,
            "relativePosType": "AVATAR_NEW",
            "relativePosNpcAlias": "",
            "bindMovingTargetKey": ""
        },
        {
            "configID": 20987,
            "alias": "20987",
            "visible": true,
            "bornPointName": "",
            "removeActorType": "NEW_REMOVE",
            "relativePosType": "AVATAR_NEW",
            "relativePosNpcAlias": "",
            "bindMovingTargetKey": ""
        }
    ],
    "group": [
        [
            {
                "$type": "BCJBNCJOPCE",
                "type": "CAMERA_MOVE",
                "duration": 0.10000000149011612,
                "actionId": 131,
                "AKFGKKEOEFA": {
                    "x": 971.3759765625,
                    "y": 438.7659912109375,
                    "z": 6204.23486328125
                },
                "NGEBMAEFFGJ": {
                    "x": 971.8380126953125,
                    "y": 437.9169921875,
                    "z": 6203.97900390625
                },
                "LIGHLBKBDEI": 30.0,
                "GFIOJGJJGCN": 6,
                "ABAEPHOGOFF": "EaseInOutCubic",
                "KFDBMBFFANN": {},
                "IEJBKHHEJEN": true,
                "CEDHIBLHMKP": false,
                "KIPMIDIKECP": "",
                "ANFHNPOCMNI": true,
                "BDLGHOJPJHD": "",
                "LCOJGFEOLCK": "",
                "BBBGAEDCJEL": ""
            },
            {
                "$type": "MoleMole.Config.ConfigTeleportToAction",
                "type": "TELEPORT_TO",
                "aliasList": [
                    "Avatar"
                ],
                "actionId": 129,
                "position": {
                    "x": 976.6170043945312,
                    "y": 429.1180114746094,
                    "z": 6201.56591796875
                },
                "forward": {
                    "x": 0.546999990940094,
                    "y": 0.06400000303983688,
                    "z": 1.61899995803833
                },
                "openLongDisTeleport": true,
                "posBindMovingTargetKey": "",
                "forwardBindMovingTargetKey": ""
            },
            {
                "$type": "IBPNIIGAIPF",
                "type": "LOOK_AT",
                "aliasList": [
                    "Avatar"
                ],
                "actionId": 134,
                "GGIENKFBOGL": true,
                "useTargetPos": true,
                "GCOONJBHNIM": true,
                "JHNJNNOPJKG": {
                    "x": 977.2650146484375,
                    "y": 430.5539855957031,
                    "z": 6203.7890625
                },
                "NDOMJCOFKDJ": 0.5,
                "KIPMIDIKECP": "",
                "AHLPNEGAKGG": "NONE",
                "FGPHOPBEJDE": true,
                "HJJAFGPMJNJ": "",
                "AOFBAGFCGPJ": ""
            },
            {
                "$type": "DNAEECJNBFB",
                "type": "EMO_SYNC",
                "aliasList": [
                    "Avatar"
                ],
                "actionId": 145,
                "EOGJDJKPPGE": "",
                "IHCBGPABDLE": "Cs_Emo_Avatar_Common/Cs_Emo_Avatar_Default01",
                "CIKPDMODFPL": "Cs_Emo_Avatar_Common/Cs_Emo_Avatar_Default01_B",
                "HDIAHFFHNGE": "",
                "BOAAGJEEFDD": "",
                "PFDPJKHPADE": "",
                "MJAONEKDECJ": [
                    1010565500959774114,
                    17914558573000180712,
                    14498871351621154070,
                    14348654671849899985
                ],
                "DAALMFGCAOO": [
                    12199605016063642592,
                    6659610500948409138,
                    10783156204328777859,
                    13383650154785247612
                ]
            },
            {
                "$type": "CCEEIGNAILH",
                "type": "DIALOG",
                "aliasList": [
                    "1005"
                ],
                "actionId": 107,
                "KICBIOMGHIN": 732351201,
                "PNCCODDABKI": 1.0
            },
            {
                "$type": "MoleMole.Config.ConfigTeleportToAction",
                "type": "TELEPORT_TO",
                "aliasList": [
                    "1005"
                ],
                "actionId": 126,
                "position": {
                    "x": 976.1019897460938,
                    "y": 429.1820068359375,
                    "z": 6202.201171875
                },
                "forward": {
                    "x": 0.652999997138977,
                    "z": 0.7570000290870667
                },
                "openLongDisTeleport": true,
                "posBindMovingTargetKey": "",
                "forwardBindMovingTargetKey": ""
            },
            {
                "$type": "IBPNIIGAIPF",
                "type": "LOOK_AT",
                "aliasList": [
                    "1005"
                ],
                "actionId": 133,
                "GGIENKFBOGL": true,
                "useTargetPos": true,
                "GCOONJBHNIM": true,
                "JHNJNNOPJKG": {
                    "x": 977.2650146484375,
                    "y": 430.5539855957031,
                    "z": 6203.7890625
                },
                "NDOMJCOFKDJ": 0.5,
                "KIPMIDIKECP": "",
                "AHLPNEGAKGG": "NONE",
                "FGPHOPBEJDE": true,
                "HJJAFGPMJNJ": "",
                "AOFBAGFCGPJ": ""
            },
            {
                "$type": "KCBOGFFHPBD",
                "type": "BODY_LANG",
                "aliasList": [
                    "1005"
                ],
                "actionId": 136,
                "GPIEDGOMCGL": 1090,
                "FHLAMNNHMFA": true,
                "KCEHDJLKIAL": false,
                "KCOLHJBDILK": true,
                "AOFEDPBOOIE": ""
            },
            {
                "$type": "DNAEECJNBFB",
                "type": "EMO_SYNC",
                "aliasList": [
                    "1005"
                ],
                "actionId": 144,
                "EOGJDJKPPGE": "",
                "IHCBGPABDLE": "Cs_Emo_Pet_Common/Cs_Emo_Paimon_None",
                "CIKPDMODFPL": "Cs_Emo_Pet_Common/Cs_Emo_Paimon_Normal01_B",
                "HDIAHFFHNGE": "",
                "BOAAGJEEFDD": "",
                "PFDPJKHPADE": "",
                "MJAONEKDECJ": [
                    1796869206626684908,
                    2049648015653630001,
                    14015965774222061559,
                    873259039409222856
                ],
                "DAALMFGCAOO": [
                    14892026956990897578,
                    7647528750435710781,
                    2171559387429051042,
                    15358483104891988261
                ]
            },
            {
                "$type": "MoleMole.Config.ConfigTeleportToAction",
                "type": "TELEPORT_TO",
                "aliasList": [
                    "4283"
                ],
                "actionId": 127,
                "position": {
                    "x": 977.3070068359375,
                    "y": 428.85400390625,
                    "z": 6203.8388671875
                },
                "forward": {
                    "x": -0.24899999797344208,
                    "z": -0.9679999947547913
                },
                "openLongDisTeleport": true,
                "posBindMovingTargetKey": "",
                "forwardBindMovingTargetKey": ""
            },
            {
                "$type": "IBPNIIGAIPF",
                "type": "LOOK_AT",
                "aliasList": [
                    "4283"
                ],
                "actionId": 132,
                "GGIENKFBOGL": true,
                "useTargetPos": true,
                "GCOONJBHNIM": true,
                "JHNJNNOPJKG": {
                    "x": 976.1530151367188,
                    "y": 430.3800048828125,
                    "z": 6202.18701171875
                },
                "NDOMJCOFKDJ": 0.5,
                "KIPMIDIKECP": "",
                "AHLPNEGAKGG": "NONE",
                "FGPHOPBEJDE": true,
                "HJJAFGPMJNJ": "",
                "AOFBAGFCGPJ": ""
            },
            {
                "$type": "DNAEECJNBFB",
                "type": "EMO_SYNC",
                "aliasList": [
                    "4283"
                ],
                "actionId": 143,
                "EOGJDJKPPGE": "",
                "IHCBGPABDLE": "Cs_Emo_NPC_Common/Cs_Emo_NPC_Normal01",
                "CIKPDMODFPL": "Cs_Emo_NPC_Common/Cs_Emo_NPC_Normal01_B",
                "HDIAHFFHNGE": "",
                "BOAAGJEEFDD": "",
                "PFDPJKHPADE": "",
                "MJAONEKDECJ": [
                    12803840960998583578,
                    3437050431160283015,
                    6548526936325855136,
                    1274732080047098512
                ],
                "DAALMFGCAOO": [
                    15191155715402440098,
                    420038106395935518,
                    2651432695756251320,
                    4209314551981667660
                ]
            },
            {
                "$type": "MoleMole.Config.ConfigTeleportToAction",
                "type": "TELEPORT_TO",
                "aliasList": [
                    "20987"
                ],
                "actionId": 128,
                "position": {
                    "x": 977.7410278320312,
                    "y": 428.75299072265625,
                    "z": 6202.123046875
                },
                "forward": {
                    "x": -0.30399999022483826,
                    "z": 0.953000009059906
                },
                "openLongDisTeleport": true,
                "posBindMovingTargetKey": "",
                "forwardBindMovingTargetKey": ""
            },
            {
                "$type": "IBPNIIGAIPF",
                "type": "LOOK_AT",
                "aliasList": [
                    "20987"
                ],
                "actionId": 135,
                "GGIENKFBOGL": true,
                "useTargetPos": true,
                "GCOONJBHNIM": true,
                "JHNJNNOPJKG": {
                    "x": 977.2650146484375,
                    "y": 430.5539855957031,
                    "z": 6203.7890625
                },
                "NDOMJCOFKDJ": 0.5,
                "KIPMIDIKECP": "",
                "AHLPNEGAKGG": "NONE",
                "FGPHOPBEJDE": true,
                "HJJAFGPMJNJ": "",
                "AOFBAGFCGPJ": ""
            },
            {
                "$type": "BCJBNCJOPCE",
                "type": "CAMERA_MOVE",
                "delayTime": 0.10000000149011612,
                "duration": 8.682000160217285,
                "actionId": 130,
                "AKFGKKEOEFA": {
                    "x": 971.6699829101562,
                    "y": 438.08599853515625,
                    "z": 6204.85400390625
                },
                "NGEBMAEFFGJ": {
                    "x": 972.1409912109375,
                    "y": 437.25799560546875,
                    "z": 6204.548828125
                },
                "LIGHLBKBDEI": 30.0,
                "ABAEPHOGOFF": "EaseOutQuad",
                "KFDBMBFFANN": {},
                "IEJBKHHEJEN": true,
                "CEDHIBLHMKP": false,
                "KIPMIDIKECP": "",
                "ANFHNPOCMNI": true,
                "BDLGHOJPJHD": "",
                "LCOJGFEOLCK": "",
                "BBBGAEDCJEL": ""
            }
        ],
        [
            {
                "$type": "CCEEIGNAILH",
                "type": "DIALOG",
                "aliasList": [
                    "4283"
                ],
                "actionId": 110,
                "KICBIOMGHIN": 732351203,
                "PNCCODDABKI": 0.5
            },
            {
                "$type": "KCBOGFFHPBD",
                "type": "BODY_LANG",
                "aliasList": [
                    "4283"
                ],
                "actionId": 137,
                "GPIEDGOMCGL": 1130,
                "FHLAMNNHMFA": true,
                "KCEHDJLKIAL": false,
                "KCOLHJBDILK": true,
                "AOFEDPBOOIE": ""
            }
        ],
        [
            {
                "$type": "BCJBNCJOPCE",
                "type": "CAMERA_MOVE",
                "duration": 0.10000000149011612,
                "actionId": 138,
                "AKFGKKEOEFA": {
                    "x": 975.9450073242188,
                    "y": 430.42999267578125,
                    "z": 6203.328125
                },
                "NGEBMAEFFGJ": {
                    "x": 976.89599609375,
                    "y": 430.39898681640625,
                    "z": 6203.63623046875
                },
                "LIGHLBKBDEI": 30.0,
                "GFIOJGJJGCN": 6,
                "ABAEPHOGOFF": "EaseInOutCubic",
                "KFDBMBFFANN": {},
                "IEJBKHHEJEN": true,
                "CEDHIBLHMKP": false,
                "KIPMIDIKECP": "",
                "ANFHNPOCMNI": true,
                "BDLGHOJPJHD": "",
                "LCOJGFEOLCK": "",
                "BBBGAEDCJEL": ""
            },
            {
                "$type": "CCEEIGNAILH",
                "type": "DIALOG",
                "aliasList": [
                    "4283"
                ],
                "actionId": 121,
                "KICBIOMGHIN": 732351204,
                "PNCCODDABKI": 0.5
            },
            {
                "$type": "KCBOGFFHPBD",
                "type": "BODY_LANG",
                "aliasList": [
                    "4283"
                ],
                "actionId": 139,
                "AHGOBCDHCMC": true,
                "FHLAMNNHMFA": true,
                "KCEHDJLKIAL": false,
                "KCOLHJBDILK": true,
                "AOFEDPBOOIE": ""
            },
            {
                "$type": "KCBOGFFHPBD",
                "type": "BODY_LANG",
                "delayTime": 0.9440000057220459,
                "aliasList": [
                    "4283"
                ],
                "actionId": 140,
                "GPIEDGOMCGL": 1173,
                "FHLAMNNHMFA": true,
                "KCEHDJLKIAL": false,
                "KCOLHJBDILK": true,
                "AOFEDPBOOIE": ""
            }
        ],
        [
            {
                "$type": "MoleMole.Config.ConfigTimeProtectAction",
                "type": "TIME_PROTECT",
                "duration": 0.699999988079071,
                "actionId": 105
            },
            {
                "$type": "MoleMole.Config.ConfigSimpleBlackScreenAction",
                "type": "SIMPLE_BLACK_SCREEN",
                "actionId": 141,
                "durationToBlack": 0.5,
                "durationKeepBlack": 1.0,
                "durationFromBlack": 0.5,
                "textMapID": "",
                "useTextFade": true
            },
            {
                "$type": "BCJBNCJOPCE",
                "type": "CAMERA_MOVE",
                "delayTime": 0.5,
                "duration": 0.10000000149011612,
                "actionId": 113,
                "NGEBMAEFFGJ": {
                    "z": 1.0
                },
                "LIGHLBKBDEI": 30.0,
                "GFIOJGJJGCN": 5,
                "ABAEPHOGOFF": "EaseInOutCubic",
                "KFDBMBFFANN": {},
                "CEDHIBLHMKP": false,
                "KIPMIDIKECP": "",
                "ANFHNPOCMNI": true,
                "BDLGHOJPJHD": "",
                "LCOJGFEOLCK": "",
                "BBBGAEDCJEL": ""
            },
            {
                "$type": "MoleMole.Config.ConfigVisibleInterAction",
                "type": "VISIBLE",
                "delayTime": 0.5,
                "aliasList": [
                    "20987"
                ],
                "actionId": 142,
                "extraParam": ""
            }
        ]
    ],
    "groupId": [
        {
            "grpId": 3391783430,
            "nextGrpId": 3391783431
        },
        {
            "index": 1,
            "grpId": 3391783431,
            "nextGrpId": 3391783432
        },
        {
            "index": 2,
            "grpId": 3391783432,
            "nextGrpId": 3391783433
        },
        {
            "index": 3,
            "grpId": 3391783433,
            "nextGrpId": 3391783434
        }
    ],
    "freeStyleDic": {
        "4283": [
            1130,
            1173
        ],
        "20987": []
    }
}