{
    "luaDataPath": "",
    "isSimpleTalk": true,
    "startBlackKeepTime": 1.0,
    "entityBan": "",
    "disableNpcLod": true,
    "startFade": {
        "startFadeInDuration": 0.5,
        "startFadeOutDuration": 0.5
    },
    "endFade": {
        "startFadeOutDuration": 0.0
    },
    "actors": [
        {
            "alias": "Avatar",
            "visible": true,
            "bornPointName": "",
            "relativePosNpcAlias": "",
            "bindMovingTargetKey": ""
        },
        {
            "configID": 20239,
            "alias": "20239",
            "visible": true,
            "bornPointName": "",
            "relativePosNpcAlias": "",
            "bindMovingTargetKey": ""
        }
    ],
    "group": [
        [
            {
                "$type": "MoleMole.Config.ConfigTimeProtectAction",
                "type": "TIME_PROTECT",
                "duration": 0.4000000059604645
            },
            {
                "$type": "MoleMole.Config.ConfigBlackScreenAction",
                "type": "BLACK_SCREEN",
                "blackScreenType": "KEEP_BLACK",
                "durationKeepBlack": 0.5,
                "inteePos": "",
                "textMapID": "",
                "useTextFade": true
            },
            {
                "$type": "MoleMole.Config.ConfigTeleportToAction",
                "type": "TELEPORT_TO",
                "aliasList": [
                    "Avatar"
                ],
                "position": {
                    "x": -3911.45751953125,
                    "y": 284.658935546875,
                    "z": -2296.876953125
                },
                "forward": {
                    "x": 0.3212890625,
                    "y": 0.238739013671875,
                    "z": -6.06787109375
                },
                "posBindMovingTargetKey": "",
                "forwardBindMovingTargetKey": ""
            },
            {
                "$type": "IBPNIIGAIPF",
                "type": "LOOK_AT",
                "aliasList": [
                    "Avatar"
                ],
                "GGIENKFBOGL": true,
                "useTargetPos": true,
                "GCOONJBHNIM": true,
                "JHNJNNOPJKG": {
                    "x": -3911.136962890625,
                    "y": 286.42303466796875,
                    "z": -2303.375732421875
                },
                "NDOMJCOFKDJ": 0.5,
                "KIPMIDIKECP": "",
                "AHLPNEGAKGG": "NONE",
                "HJJAFGPMJNJ": "",
                "AOFBAGFCGPJ": ""
            },
            {
                "$type": "KCBOGFFHPBD",
                "type": "BODY_LANG",
                "aliasList": [
                    "20239"
                ],
                "GPIEDGOMCGL": 2,
                "FHLAMNNHMFA": true,
                "KCEHDJLKIAL": false,
                "AOFEDPBOOIE": ""
            },
            {
                "$type": "MoleMole.Config.ConfigTeleportToAction",
                "type": "TELEPORT_TO",
                "aliasList": [
                    "20239"
                ],
                "position": {
                    "x": -3911.213134765625,
                    "y": 285.0100402832031,
                    "z": -2302.9375
                },
                "forward": {
                    "x": -0.179443359375,
                    "y": -0.02325439453125,
                    "z": 1.29833984375
                },
                "posBindMovingTargetKey": "",
                "forwardBindMovingTargetKey": ""
            }
        ],
        [
            {
                "$type": "BCJBNCJOPCE",
                "type": "CAMERA_MOVE",
                "delayTime": 0.10000000149011612,
                "duration": 10.0,
                "AKFGKKEOEFA": {
                    "x": -3911.891845703125,
                    "y": 285.9483642578125,
                    "z": -2295.815673828125
                },
                "NGEBMAEFFGJ": {
                    "x": -3911.67919921875,
                    "y": 285.9373779296875,
                    "z": -2296.792724609375
                },
                "LIGHLBKBDEI": 15.0,
                "GFIOJGJJGCN": 1,
                "ABAEPHOGOFF": "EaseOutQuad",
                "KFDBMBFFANN": {},
                "CEDHIBLHMKP": false,
                "KIPMIDIKECP": "",
                "BDLGHOJPJHD": "",
                "LCOJGFEOLCK": "",
                "BBBGAEDCJEL": ""
            },
            {
                "$type": "BCJBNCJOPCE",
                "type": "CAMERA_MOVE",
                "duration": 0.10000000149011612,
                "AKFGKKEOEFA": {
                    "x": -3911.891845703125,
                    "y": 285.9483642578125,
                    "z": -2296.3720703125
                },
                "NGEBMAEFFGJ": {
                    "x": -3911.67919921875,
                    "y": 285.9373779296875,
                    "z": -2297.34912109375
                },
                "LIGHLBKBDEI": 15.0,
                "GFIOJGJJGCN": 6,
                "ABAEPHOGOFF": "EaseInOutCubic",
                "KFDBMBFFANN": {},
                "IEJBKHHEJEN": true,
                "GDHBGCNKHDE": -1.3341018068047106e-08,
                "CEDHIBLHMKP": false,
                "KIPMIDIKECP": "",
                "BDLGHOJPJHD": "",
                "LCOJGFEOLCK": "",
                "BBBGAEDCJEL": ""
            },
            {
                "$type": "MoleMole.Config.ConfigTimeProtectAction",
                "type": "TIME_PROTECT",
                "duration": 0.5
            },
            {
                "$type": "MoleMole.Config.ConfigBlackScreenAction",
                "type": "BLACK_SCREEN",
                "blackScreenType": "FROM_BLACK",
                "durationFromBlack": 0.5,
                "inteePos": "",
                "textMapID": "",
                "useTextFade": true
            },
            {
                "$type": "MEKNGCBGKEJ",
                "type": "DIALOG_SELECT",
                "delayTime": 0.4000000059604645,
                "aliasList": [
                    "Avatar"
                ],
                "MLAABINGLAA": [
                    721411202,
                    721411203
                ],
                "HPBPDBFGKID": [
                    2505344052,
                    2505344052
                ],
                "CFJOJADDHHG": true
            },
            {
                "$type": "CCEEIGNAILH",
                "type": "DIALOG",
                "aliasList": [
                    "20239"
                ],
                "KICBIOMGHIN": 721411201,
                "PNCCODDABKI": 0.5
            }
        ],
        [
            {
                "$type": "BCJBNCJOPCE",
                "type": "CAMERA_MOVE",
                "duration": 0.20000000298023224,
                "AKFGKKEOEFA": {
                    "x": -3911.6298828125,
                    "y": 286.5322265625,
                    "z": -2302.67333984375
                },
                "NGEBMAEFFGJ": {
                    "x": -3910.899658203125,
                    "y": 285.96685791015625,
                    "z": -2303.05712890625
                },
                "LIGHLBKBDEI": 50.0,
                "GFIOJGJJGCN": 6,
                "ABAEPHOGOFF": "EaseInOutCubic",
                "KFDBMBFFANN": {},
                "IEJBKHHEJEN": true,
                "GDHBGCNKHDE": -4.591408071519254e-07,
                "CEDHIBLHMKP": false,
                "KIPMIDIKECP": "",
                "BDLGHOJPJHD": "",
                "LCOJGFEOLCK": "",
                "BBBGAEDCJEL": ""
            },
            {
                "$type": "BCJBNCJOPCE",
                "type": "CAMERA_MOVE",
                "delayTime": 0.05000000074505806,
                "duration": 15.028575897216797,
                "AKFGKKEOEFA": {
                    "x": -3911.472900390625,
                    "y": 286.3719787597656,
                    "z": -2302.376708984375
                },
                "NGEBMAEFFGJ": {
                    "x": -3910.952880859375,
                    "y": 286.06988525390625,
                    "z": -2303.17578125
                },
                "LIGHLBKBDEI": 50.0,
                "GFIOJGJJGCN": 1,
                "ABAEPHOGOFF": "EaseOutQuad",
                "KFDBMBFFANN": {},
                "IEJBKHHEJEN": true,
                "GDHBGCNKHDE": -2.1646908976435952e-07,
                "CEDHIBLHMKP": false,
                "KIPMIDIKECP": "",
                "BDLGHOJPJHD": "",
                "LCOJGFEOLCK": "",
                "BBBGAEDCJEL": ""
            },
            {
                "$type": "MoleMole.Config.ConfigTimeProtectAction",
                "type": "TIME_PROTECT",
                "duration": 0.5
            },
            {
                "$type": "MEKNGCBGKEJ",
                "type": "DIALOG_SELECT",
                "delayTime": 0.4000000059604645,
                "aliasList": [
                    "Avatar"
                ],
                "MLAABINGLAA": [
                    721411205,
                    721411206
                ],
                "HPBPDBFGKID": [
                    2505344053,
                    2505344053
                ],
                "CFJOJADDHHG": true
            },
            {
                "$type": "CCEEIGNAILH",
                "type": "DIALOG",
                "aliasList": [
                    "20239"
                ],
                "KICBIOMGHIN": 721411204,
                "PNCCODDABKI": 0.5
            }
        ],
        [
            {
                "$type": "BCJBNCJOPCE",
                "type": "CAMERA_MOVE",
                "delayTime": 0.10000000149011612,
                "duration": 20.0,
                "AKFGKKEOEFA": {
                    "x": -3919.72021484375,
                    "y": 288.6649475097656,
                    "z": -2290.707275390625
                },
                "NGEBMAEFFGJ": {
                    "x": -3918.991455078125,
                    "y": 288.4107666015625,
                    "z": -2291.34326171875
                },
                "LIGHLBKBDEI": 30.0,
                "ABAEPHOGOFF": "EaseOutQuad",
                "KFDBMBFFANN": {},
                "CEDHIBLHMKP": false,
                "KIPMIDIKECP": "",
                "BDLGHOJPJHD": "",
                "LCOJGFEOLCK": "",
                "BBBGAEDCJEL": ""
            },
            {
                "$type": "BCJBNCJOPCE",
                "type": "CAMERA_MOVE",
                "duration": 1.0,
                "AKFGKKEOEFA": {
                    "x": -3920.615478515625,
                    "y": 288.6649475097656,
                    "z": -2291.848876953125
                },
                "NGEBMAEFFGJ": {
                    "x": -3919.82421875,
                    "y": 288.4107666015625,
                    "z": -2292.405029296875
                },
                "LIGHLBKBDEI": 30.0,
                "GFIOJGJJGCN": 6,
                "ABAEPHOGOFF": "EaseOutQuad",
                "KFDBMBFFANN": {},
                "CEDHIBLHMKP": false,
                "KIPMIDIKECP": "",
                "BDLGHOJPJHD": "",
                "LCOJGFEOLCK": "",
                "BBBGAEDCJEL": ""
            },
            {
                "$type": "MoleMole.Config.ConfigTimeProtectAction",
                "type": "TIME_PROTECT",
                "duration": 0.5
            },
            {
                "$type": "MEKNGCBGKEJ",
                "type": "DIALOG_SELECT",
                "delayTime": 0.4000000059604645,
                "aliasList": [
                    "Avatar"
                ],
                "MLAABINGLAA": [
                    721411208,
                    721411209
                ],
                "HPBPDBFGKID": [
                    2505344054,
                    2505344054
                ],
                "CFJOJADDHHG": true
            },
            {
                "$type": "CCEEIGNAILH",
                "type": "DIALOG",
                "aliasList": [
                    "20239"
                ],
                "KICBIOMGHIN": 721411207,
                "PNCCODDABKI": 0.5
            }
        ],
        [
            {
                "$type": "BCJBNCJOPCE",
                "type": "CAMERA_MOVE",
                "duration": 0.10000000149011612,
                "AKFGKKEOEFA": {
                    "x": -3911.78564453125,
                    "y": 286.0895690917969,
                    "z": -2301.930908203125
                },
                "NGEBMAEFFGJ": {
                    "x": -3911.208251953125,
                    "y": 286.127685546875,
                    "z": -2302.74658203125
                },
                "LIGHLBKBDEI": 15.0,
                "GFIOJGJJGCN": 6,
                "ABAEPHOGOFF": "EaseInOutCubic",
                "KFDBMBFFANN": {},
                "IEJBKHHEJEN": true,
                "GDHBGCNKHDE": 5.339964914696793e-08,
                "CEDHIBLHMKP": false,
                "KIPMIDIKECP": "",
                "BDLGHOJPJHD": "",
                "LCOJGFEOLCK": "",
                "BBBGAEDCJEL": ""
            },
            {
                "$type": "MoleMole.Config.ConfigTimeProtectAction",
                "type": "TIME_PROTECT",
                "duration": 0.5
            },
            {
                "$type": "BCJBNCJOPCE",
                "type": "CAMERA_MOVE",
                "delayTime": 0.05000000074505806,
                "duration": 10.0,
                "AKFGKKEOEFA": {
                    "x": -3911.765869140625,
                    "y": 286.2099914550781,
                    "z": -2301.9404296875
                },
                "NGEBMAEFFGJ": {
                    "x": -3911.1884765625,
                    "y": 286.24810791015625,
                    "z": -2302.756103515625
                },
                "LIGHLBKBDEI": 15.0,
                "GFIOJGJJGCN": 1,
                "ABAEPHOGOFF": "EaseOutQuad",
                "KFDBMBFFANN": {},
                "IEJBKHHEJEN": true,
                "GDHBGCNKHDE": 355.385498046875,
                "CEDHIBLHMKP": false,
                "KIPMIDIKECP": "",
                "BDLGHOJPJHD": "",
                "LCOJGFEOLCK": "",
                "BBBGAEDCJEL": ""
            },
            {
                "$type": "CCEEIGNAILH",
                "type": "DIALOG",
                "aliasList": [
                    "20239"
                ],
                "KICBIOMGHIN": 721411210,
                "PNCCODDABKI": 0.5
            }
        ],
        [
            {
                "$type": "BCJBNCJOPCE",
                "type": "CAMERA_MOVE",
                "delayTime": 0.20000000298023224,
                "duration": 10.0,
                "AKFGKKEOEFA": {
                    "x": -3912.1435546875,
                    "y": 286.18402099609375,
                    "z": -2304.710205078125
                },
                "NGEBMAEFFGJ": {
                    "x": -3911.958251953125,
                    "y": 286.1055603027344,
                    "z": -2303.730712890625
                },
                "LIGHLBKBDEI": 15.0,
                "ABAEPHOGOFF": "EaseOutQuad",
                "KFDBMBFFANN": {},
                "IEJBKHHEJEN": true,
                "GDHBGCNKHDE": 0.6742033362388611,
                "CEDHIBLHMKP": false,
                "KIPMIDIKECP": "",
                "BDLGHOJPJHD": "",
                "LCOJGFEOLCK": "",
                "BBBGAEDCJEL": ""
            },
            {
                "$type": "MoleMole.Config.ConfigTimeProtectAction",
                "type": "TIME_PROTECT",
                "duration": 0.5
            },
            {
                "$type": "BCJBNCJOPCE",
                "type": "CAMERA_MOVE",
                "duration": 1.0,
                "AKFGKKEOEFA": {
                    "x": -3912.193115234375,
                    "y": 286.2049865722656,
                    "z": -2304.971923828125
                },
                "NGEBMAEFFGJ": {
                    "x": -3912.0078125,
                    "y": 286.12652587890625,
                    "z": -2303.992431640625
                },
                "LIGHLBKBDEI": 15.0,
                "GFIOJGJJGCN": 6,
                "ABAEPHOGOFF": "EaseInOutCubic",
                "KFDBMBFFANN": {},
                "IEJBKHHEJEN": true,
                "GDHBGCNKHDE": 0.6742033362388611,
                "CEDHIBLHMKP": false,
                "KIPMIDIKECP": "",
                "BDLGHOJPJHD": "",
                "LCOJGFEOLCK": "",
                "BBBGAEDCJEL": ""
            },
            {
                "$type": "DNAEECJNBFB",
                "type": "EMO_SYNC",
                "delayTime": 0.10386893898248672,
                "aliasList": [
                    "Avatar"
                ],
                "EOGJDJKPPGE": "",
                "IHCBGPABDLE": "Cs_Emo_Avatar_Common/Cs_Emo_Avatar_Normal01",
                "CIKPDMODFPL": "Cs_Emo_Avatar_Common/Cs_Emo_Avatar_Gentle03_B",
                "HDIAHFFHNGE": "",
                "BOAAGJEEFDD": "",
                "PFDPJKHPADE": "",
                "MJAONEKDECJ": [
                    9445916536337636767,
                    14128686126614747219,
                    10779105391569104182,
                    11659242061757756269
                ],
                "DAALMFGCAOO": [
                    17725315554403610697,
                    9804002130209517257,
                    6808173280887363693,
                    2427898717475203145
                ]
            },
            {
                "$type": "CCEEIGNAILH",
                "type": "DIALOG",
                "aliasList": [
                    "20239"
                ],
                "KICBIOMGHIN": 721411211,
                "PNCCODDABKI": 0.5
            }
        ],
        [
            {
                "$type": "BCJBNCJOPCE",
                "type": "CAMERA_MOVE",
                "delayTime": 0.10000000149011612,
                "duration": 10.0,
                "AKFGKKEOEFA": {
                    "x": -3911.765869140625,
                    "y": 286.0133361816406,
                    "z": -2298.51318359375
                },
                "NGEBMAEFFGJ": {
                    "x": -3911.522216796875,
                    "y": 285.94384765625,
                    "z": -2297.5458984375
                },
                "LIGHLBKBDEI": 20.0,
                "ABAEPHOGOFF": "EaseOutQuad",
                "KFDBMBFFANN": {},
                "CEDHIBLHMKP": false,
                "KIPMIDIKECP": "",
                "BDLGHOJPJHD": "",
                "LCOJGFEOLCK": "",
                "BBBGAEDCJEL": ""
            },
            {
                "$type": "MoleMole.Config.ConfigTimeProtectAction",
                "type": "TIME_PROTECT",
                "duration": 0.5
            },
            {
                "$type": "BCJBNCJOPCE",
                "type": "CAMERA_MOVE",
                "duration": 1.0,
                "AKFGKKEOEFA": {
                    "x": -3911.795166015625,
                    "y": 286.0216979980469,
                    "z": -2298.62939453125
                },
                "NGEBMAEFFGJ": {
                    "x": -3911.551513671875,
                    "y": 285.95220947265625,
                    "z": -2297.662109375
                },
                "LIGHLBKBDEI": 20.0,
                "GFIOJGJJGCN": 6,
                "ABAEPHOGOFF": "EaseInOutCubic",
                "KFDBMBFFANN": {},
                "CEDHIBLHMKP": false,
                "KIPMIDIKECP": "",
                "BDLGHOJPJHD": "",
                "LCOJGFEOLCK": "",
                "BBBGAEDCJEL": ""
            },
            {
                "$type": "MEKNGCBGKEJ",
                "type": "DIALOG_SELECT",
                "delayTime": 0.4000000059604645,
                "aliasList": [
                    "Avatar"
                ],
                "MLAABINGLAA": [
                    721411213,
                    721411214
                ],
                "HPBPDBFGKID": [
                    2505344057,
                    2505344057
                ],
                "CFJOJADDHHG": true
            },
            {
                "$type": "DNAEECJNBFB",
                "type": "EMO_SYNC",
                "delayTime": 0.10386893898248672,
                "aliasList": [
                    "Avatar"
                ],
                "EOGJDJKPPGE": "",
                "IHCBGPABDLE": "Cs_Emo_Avatar_Common/Cs_Emo_Avatar_Normal01",
                "CIKPDMODFPL": "Cs_Emo_Avatar_Common/Cs_Emo_Avatar_Gentle03_B",
                "HDIAHFFHNGE": "",
                "BOAAGJEEFDD": "",
                "PFDPJKHPADE": "",
                "MJAONEKDECJ": [
                    9445916536337636767,
                    14128686126614747219,
                    10779105391569104182,
                    11659242061757756269
                ],
                "DAALMFGCAOO": [
                    17725315554403610697,
                    9804002130209517257,
                    6808173280887363693,
                    2427898717475203145
                ]
            },
            {
                "$type": "CCEEIGNAILH",
                "type": "DIALOG",
                "aliasList": [
                    "20239"
                ],
                "KICBIOMGHIN": 721411212,
                "PNCCODDABKI": 0.5
            }
        ],
        [
            {
                "$type": "BCJBNCJOPCE",
                "type": "CAMERA_MOVE",
                "duration": 0.10000000149011612,
                "AKFGKKEOEFA": {
                    "x": -3911.802490234375,
                    "y": 285.7616882324219,
                    "z": -2302.047607421875
                },
                "NGEBMAEFFGJ": {
                    "x": -3911.219482421875,
                    "y": 286.15765380859375,
                    "z": -2302.757080078125
                },
                "LIGHLBKBDEI": 30.0,
                "GFIOJGJJGCN": 6,
                "ABAEPHOGOFF": "EaseOutQuad",
                "KFDBMBFFANN": {},
                "CEDHIBLHMKP": false,
                "KIPMIDIKECP": "",
                "BDLGHOJPJHD": "",
                "LCOJGFEOLCK": "",
                "BBBGAEDCJEL": ""
            },
            {
                "$type": "BCJBNCJOPCE",
                "type": "CAMERA_MOVE",
                "delayTime": 0.10000000149011612,
                "duration": 10.0,
                "AKFGKKEOEFA": {
                    "x": -3911.75439453125,
                    "y": 285.7943115234375,
                    "z": -2302.106201171875
                },
                "NGEBMAEFFGJ": {
                    "x": -3911.17138671875,
                    "y": 286.1902770996094,
                    "z": -2302.815673828125
                },
                "LIGHLBKBDEI": 30.0,
                "ABAEPHOGOFF": "EaseOutQuad",
                "KFDBMBFFANN": {},
                "CEDHIBLHMKP": false,
                "KIPMIDIKECP": "",
                "BDLGHOJPJHD": "",
                "LCOJGFEOLCK": "",
                "BBBGAEDCJEL": ""
            },
            {
                "$type": "MoleMole.Config.ConfigTimeProtectAction",
                "type": "TIME_PROTECT",
                "duration": 0.5
            },
            {
                "$type": "CCEEIGNAILH",
                "type": "DIALOG",
                "aliasList": [
                    "20239"
                ],
                "KICBIOMGHIN": 721411215,
                "PNCCODDABKI": 0.5
            }
        ],
        [
            {
                "$type": "MoleMole.Config.ConfigTimeProtectAction",
                "type": "TIME_PROTECT",
                "duration": 0.6000000238418579
            },
            {
                "$type": "BCJBNCJOPCE",
                "type": "CAMERA_MOVE",
                "delayTime": 0.5,
                "duration": 0.10000000149011612,
                "AKFGKKEOEFA": {
                    "x": -3911.3603515625,
                    "y": 285.41094970703125,
                    "z": -2294.354248046875
                },
                "NGEBMAEFFGJ": {
                    "x": -3911.40185546875,
                    "y": 285.4044189453125,
                    "z": -2295.353271484375
                },
                "GFIOJGJJGCN": 6,
                "ABAEPHOGOFF": "EaseInOutCubic",
                "KFDBMBFFANN": {},
                "CEDHIBLHMKP": false,
                "KIPMIDIKECP": "",
                "BDLGHOJPJHD": "",
                "LCOJGFEOLCK": "",
                "BBBGAEDCJEL": ""
            },
            {
                "$type": "MoleMole.Config.ConfigSimpleBlackScreenAction",
                "type": "SIMPLE_BLACK_SCREEN",
                "durationToBlack": 0.5,
                "durationKeepBlack": 1.0,
                "durationFromBlack": 0.5,
                "textMapID": "",
                "useTextFade": true
            }
        ]
    ],
    "groupId": [
        {
            "grpId": 2505344050,
            "nextGrpId": 2505344051
        },
        {
            "index": 1,
            "grpId": 2505344051,
            "nextGrpId": 2505344052
        },
        {
            "index": 2,
            "grpId": 2505344052,
            "nextGrpId": 2505344053
        },
        {
            "index": 3,
            "grpId": 2505344053,
            "nextGrpId": 2505344054
        },
        {
            "index": 4,
            "grpId": 2505344054,
            "nextGrpId": 2505344055
        },
        {
            "index": 5,
            "grpId": 2505344055,
            "nextGrpId": 2505344056
        },
        {
            "index": 6,
            "grpId": 2505344056,
            "nextGrpId": 2505344057
        },
        {
            "index": 7,
            "grpId": 2505344057,
            "nextGrpId": 2505344058
        },
        {
            "index": 8,
            "grpId": 2505344058,
            "nextGrpId": 356254270
        }
    ]
}