{
    "luaDataPath": "",
    "startBlackKeepTime": 0.4000000059604645,
    "entityBan": "",
    "disableNpcLod": true,
    "startFade": {
        "startFadeInDuration": 0.30000001192092896,
        "startFadeOutDuration": 0.30000001192092896
    },
    "endFade": {
        "startFadeOutDuration": 0.0
    },
    "actors": [
        {
            "alias": "Avatar",
            "visible": true,
            "bornPointName": "Q4131303Paimon",
            "relativePosNpcAlias": "",
            "bindMovingTargetKey": ""
        },
        {
            "configID": 220801,
            "alias": "220801",
            "visible": true,
            "bornPointName": "Q4131101Verr",
            "relativePosNpcAlias": "",
            "bindMovingTargetKey": ""
        },
        {
            "configID": 220201,
            "alias": "220201",
            "visible": true,
            "bornPointName": "Q4131303HuaiAn",
            "relativePosNpcAlias": "",
            "bindMovingTargetKey": ""
        },
        {
            "configID": 1005,
            "alias": "1005",
            "visible": true,
            "bornPointName": "Q4131303Player",
            "relativePosNpcAlias": "",
            "bindMovingTargetKey": ""
        }
    ],
    "group": [
        [
            {
                "$type": "BCJBNCJOPCE",
                "type": "CAMERA_MOVE",
                "delayTime": 0.10000000149011612,
                "duration": 5.0,
                "AKFGKKEOEFA": {
                    "x": 906.14013671875,
                    "y": 261.3696594238281,
                    "z": 346.7430725097656
                },
                "NGEBMAEFFGJ": {
                    "x": 907.1344604492188,
                    "y": 261.2672119140625,
                    "z": 346.771728515625
                },
                "LIGHLBKBDEI": 20.0,
                "ABAEPHOGOFF": "EaseOutQuad",
                "KFDBMBFFANN": {},
                "KIPMIDIKECP": "",
                "BDLGHOJPJHD": "",
                "LCOJGFEOLCK": "",
                "BBBGAEDCJEL": ""
            },
            {
                "$type": "BCJBNCJOPCE",
                "type": "CAMERA_MOVE",
                "duration": 1.0,
                "AKFGKKEOEFA": {
                    "x": 906.0850219726562,
                    "y": 261.406982421875,
                    "z": 346.73919677734375
                },
                "NGEBMAEFFGJ": {
                    "x": 907.079345703125,
                    "y": 261.3045349121094,
                    "z": 346.7678527832031
                },
                "LIGHLBKBDEI": 20.0,
                "GFIOJGJJGCN": 6,
                "ABAEPHOGOFF": "EaseInOutCubic",
                "KFDBMBFFANN": {},
                "KIPMIDIKECP": "",
                "BDLGHOJPJHD": "",
                "LCOJGFEOLCK": "",
                "BBBGAEDCJEL": ""
            },
            {
                "$type": "IBPNIIGAIPF",
                "type": "LOOK_AT",
                "aliasList": [
                    "Avatar"
                ],
                "GGIENKFBOGL": true,
                "NDOMJCOFKDJ": 0.4000000059604645,
                "KIPMIDIKECP": "220801",
                "HJJAFGPMJNJ": "",
                "AOFBAGFCGPJ": ""
            },
            {
                "$type": "DNAEECJNBFB",
                "type": "EMO_SYNC",
                "aliasList": [
                    "Avatar"
                ],
                "EOGJDJKPPGE": "",
                "IHCBGPABDLE": "Cs_Emo_Avatar_Common/Cs_Emo_Avatar_Default01",
                "CIKPDMODFPL": "Cs_Emo_Avatar_Common/Cs_Emo_Avatar_Default01",
                "HDIAHFFHNGE": "",
                "BOAAGJEEFDD": "",
                "PFDPJKHPADE": "",
                "MJAONEKDECJ": [
                    1010565500959774114,
                    17914558573000180712,
                    14498871351621154070,
                    14348654671849899985
                ],
                "DAALMFGCAOO": [
                    17551147554270584215,
                    11567349927864383394,
                    11535483659151300012,
                    3124390413002392171
                ]
            },
            {
                "$type": "CCEEIGNAILH",
                "type": "DIALOG",
                "aliasList": [
                    "220801"
                ],
                "KICBIOMGHIN": 413130301
            },
            {
                "$type": "IBPNIIGAIPF",
                "type": "LOOK_AT",
                "aliasList": [
                    "220801"
                ],
                "GGIENKFBOGL": true,
                "NDOMJCOFKDJ": 0.4000000059604645,
                "KIPMIDIKECP": "Avatar",
                "HJJAFGPMJNJ": "",
                "AOFBAGFCGPJ": ""
            },
            {
                "$type": "DNAEECJNBFB",
                "type": "EMO_SYNC",
                "aliasList": [
                    "220801"
                ],
                "EOGJDJKPPGE": "Cs_Emo_Avatar_Simple_Common_Set/Cs_Emo_Avatar_Talk/Cs_Emo_Avatar_Event/Cs_Emo_Avatar_HaiDeng/Cs_Emo_413130301",
                "IHCBGPABDLE": "",
                "CIKPDMODFPL": "",
                "HDIAHFFHNGE": "",
                "BOAAGJEEFDD": "",
                "PFDPJKHPADE": "",
                "DALINBJAHOC": [
                    5814899791232118414,
                    3560502998554016126,
                    16856069058167839455,
                    355618656880470144
                ]
            },
            {
                "$type": "IBPNIIGAIPF",
                "type": "LOOK_AT",
                "aliasList": [
                    "220201"
                ],
                "GGIENKFBOGL": true,
                "NDOMJCOFKDJ": 0.4000000059604645,
                "KIPMIDIKECP": "Avatar",
                "HJJAFGPMJNJ": "",
                "AOFBAGFCGPJ": ""
            },
            {
                "$type": "OMPHNKNPPJO",
                "type": "LOOK_AT_EYECTRL",
                "aliasList": [
                    "220201"
                ],
                "useTargetPos": false,
                "OMHMNNDGHFL": {
                    "z": 3.0
                },
                "AMNIBCAICEP": {
                    "z": 3.0
                },
                "MHBPPJNDKJC": 1.0,
                "KIPMIDIKECP": "",
                "JJEGGHOEIPD": "Face"
            },
            {
                "$type": "IBPNIIGAIPF",
                "type": "LOOK_AT",
                "aliasList": [
                    "1005"
                ],
                "GGIENKFBOGL": true,
                "NDOMJCOFKDJ": 0.4000000059604645,
                "KIPMIDIKECP": "220801",
                "HJJAFGPMJNJ": "",
                "AOFBAGFCGPJ": ""
            }
        ],
        [
            {
                "$type": "BCJBNCJOPCE",
                "type": "CAMERA_MOVE",
                "duration": 2.0,
                "AKFGKKEOEFA": {
                    "x": 905.7869262695312,
                    "y": 261.4189147949219,
                    "z": 347.0121154785156
                },
                "NGEBMAEFFGJ": {
                    "x": 906.7659912109375,
                    "y": 261.298583984375,
                    "z": 346.847900390625
                },
                "LIGHLBKBDEI": 20.0,
                "ABAEPHOGOFF": "EaseInOutQuad",
                "KFDBMBFFANN": {},
                "KIPMIDIKECP": "",
                "BDLGHOJPJHD": "",
                "LCOJGFEOLCK": "",
                "BBBGAEDCJEL": ""
            },
            {
                "$type": "IBPNIIGAIPF",
                "type": "LOOK_AT",
                "aliasList": [
                    "Avatar"
                ],
                "GGIENKFBOGL": true,
                "NDOMJCOFKDJ": 0.6000000238418579,
                "KIPMIDIKECP": "220201",
                "HJJAFGPMJNJ": "",
                "AOFBAGFCGPJ": ""
            },
            {
                "$type": "CCEEIGNAILH",
                "type": "DIALOG",
                "aliasList": [
                    "220201"
                ],
                "KICBIOMGHIN": 413130302
            },
            {
                "$type": "KCBOGFFHPBD",
                "type": "BODY_LANG",
                "aliasList": [
                    "220201"
                ],
                "GPIEDGOMCGL": 1171,
                "FHLAMNNHMFA": true,
                "AOFEDPBOOIE": ""
            },
            {
                "$type": "DNAEECJNBFB",
                "type": "EMO_SYNC",
                "aliasList": [
                    "220201"
                ],
                "EOGJDJKPPGE": "Cs_Emo_Avatar_Simple_Common_Set/Cs_Emo_Avatar_Talk/Cs_Emo_Avatar_Event/Cs_Emo_Avatar_HaiDeng/Cs_Emo_413130302",
                "IHCBGPABDLE": "",
                "CIKPDMODFPL": "",
                "HDIAHFFHNGE": "",
                "BOAAGJEEFDD": "",
                "PFDPJKHPADE": "",
                "DALINBJAHOC": [
                    9499585491611700083,
                    5982664640856508308,
                    2010376597804284634,
                    10924400080173988613
                ]
            },
            {
                "$type": "IBPNIIGAIPF",
                "type": "LOOK_AT",
                "aliasList": [
                    "1005"
                ],
                "GGIENKFBOGL": true,
                "NDOMJCOFKDJ": 0.6000000238418579,
                "KIPMIDIKECP": "220201",
                "HJJAFGPMJNJ": "",
                "AOFBAGFCGPJ": ""
            }
        ],
        [
            {
                "$type": "BCJBNCJOPCE",
                "type": "CAMERA_MOVE",
                "duration": 1.0,
                "AKFGKKEOEFA": {
                    "x": 909.6171875,
                    "y": 261.17413330078125,
                    "z": 346.2171325683594
                },
                "NGEBMAEFFGJ": {
                    "x": 910.6138305664062,
                    "y": 261.1554870605469,
                    "z": 346.2968444824219
                },
                "LIGHLBKBDEI": 30.0,
                "GFIOJGJJGCN": 6,
                "ABAEPHOGOFF": "EaseInOutCubic",
                "KFDBMBFFANN": {},
                "KIPMIDIKECP": "",
                "BDLGHOJPJHD": "",
                "LCOJGFEOLCK": "",
                "BBBGAEDCJEL": ""
            },
            {
                "$type": "CCEEIGNAILH",
                "type": "DIALOG",
                "aliasList": [
                    "220801"
                ],
                "KICBIOMGHIN": 413130303
            },
            {
                "$type": "IBPNIIGAIPF",
                "type": "LOOK_AT",
                "aliasList": [
                    "220801"
                ],
                "GGIENKFBOGL": true,
                "MHMKIICCEDG": {
                    "y": 20.0
                },
                "NDOMJCOFKDJ": 0.5,
                "KIPMIDIKECP": "",
                "AHLPNEGAKGG": "NONE",
                "HJJAFGPMJNJ": "",
                "AOFBAGFCGPJ": ""
            },
            {
                "$type": "DNAEECJNBFB",
                "type": "EMO_SYNC",
                "aliasList": [
                    "220801"
                ],
                "EOGJDJKPPGE": "Cs_Emo_Avatar_Simple_Common_Set/Cs_Emo_Avatar_Talk/Cs_Emo_Avatar_Event/Cs_Emo_Avatar_HaiDeng/Cs_Emo_413130303",
                "IHCBGPABDLE": "",
                "CIKPDMODFPL": "",
                "HDIAHFFHNGE": "",
                "BOAAGJEEFDD": "",
                "PFDPJKHPADE": "",
                "DALINBJAHOC": [
                    18240334158089058434,
                    11112125143889166596,
                    14466683452301240169,
                    12943251358333149969
                ]
            },
            {
                "$type": "OMPHNKNPPJO",
                "type": "LOOK_AT_EYECTRL",
                "aliasList": [
                    "220801"
                ],
                "useTargetPos": false,
                "OMHMNNDGHFL": {
                    "x": 3.0,
                    "z": 5.0
                },
                "AMNIBCAICEP": {
                    "x": 3.0,
                    "z": 5.0
                },
                "MHBPPJNDKJC": 1.0,
                "KIPMIDIKECP": "",
                "JJEGGHOEIPD": "Face"
            },
            {
                "$type": "KCBOGFFHPBD",
                "type": "BODY_LANG",
                "aliasList": [
                    "220201"
                ],
                "AHGOBCDHCMC": true,
                "FHLAMNNHMFA": true,
                "AOFEDPBOOIE": ""
            },
            {
                "$type": "IBPNIIGAIPF",
                "type": "LOOK_AT",
                "aliasList": [
                    "220201"
                ],
                "GGIENKFBOGL": true,
                "NDOMJCOFKDJ": 0.4000000059604645,
                "KIPMIDIKECP": "220801",
                "HJJAFGPMJNJ": "",
                "AOFBAGFCGPJ": ""
            }
        ],
        [
            {
                "$type": "BCJBNCJOPCE",
                "type": "CAMERA_MOVE",
                "delayTime": 0.10000000149011612,
                "duration": 15.0,
                "AKFGKKEOEFA": {
                    "x": 911.3765258789062,
                    "y": 261.33306884765625,
                    "z": 347.1956787109375
                },
                "NGEBMAEFFGJ": {
                    "x": 910.5578002929688,
                    "y": 261.1978454589844,
                    "z": 346.6376647949219
                },
                "LIGHLBKBDEI": 30.0,
                "ABAEPHOGOFF": "EaseOutQuad",
                "KFDBMBFFANN": {},
                "KIPMIDIKECP": "",
                "BDLGHOJPJHD": "",
                "LCOJGFEOLCK": "",
                "BBBGAEDCJEL": ""
            },
            {
                "$type": "BCJBNCJOPCE",
                "type": "CAMERA_MOVE",
                "duration": 1.0,
                "AKFGKKEOEFA": {
                    "x": 911.4640502929688,
                    "y": 261.322265625,
                    "z": 347.26422119140625
                },
                "NGEBMAEFFGJ": {
                    "x": 910.6676635742188,
                    "y": 261.1870422363281,
                    "z": 346.6747131347656
                },
                "LIGHLBKBDEI": 30.0,
                "GFIOJGJJGCN": 6,
                "ABAEPHOGOFF": "EaseInOutCubic",
                "KFDBMBFFANN": {},
                "KIPMIDIKECP": "",
                "BDLGHOJPJHD": "",
                "LCOJGFEOLCK": "",
                "BBBGAEDCJEL": ""
            },
            {
                "$type": "OMPHNKNPPJO",
                "type": "LOOK_AT_EYECTRL",
                "aliasList": [
                    "220801"
                ],
                "useTargetPos": false,
                "MHBPPJNDKJC": 1.0,
                "KIPMIDIKECP": "",
                "JJEGGHOEIPD": "Face"
            },
            {
                "$type": "CCEEIGNAILH",
                "type": "DIALOG",
                "aliasList": [
                    "220201"
                ],
                "KICBIOMGHIN": 413130304
            },
            {
                "$type": "KCBOGFFHPBD",
                "type": "BODY_LANG",
                "aliasList": [
                    "220201"
                ],
                "GPIEDGOMCGL": 1160,
                "FHLAMNNHMFA": true,
                "AOFEDPBOOIE": ""
            },
            {
                "$type": "KCBOGFFHPBD",
                "type": "BODY_LANG",
                "delayTime": 2.4809072017669678,
                "aliasList": [
                    "220201"
                ],
                "AHGOBCDHCMC": true,
                "FHLAMNNHMFA": true,
                "AOFEDPBOOIE": ""
            },
            {
                "$type": "DNAEECJNBFB",
                "type": "EMO_SYNC",
                "aliasList": [
                    "220201"
                ],
                "EOGJDJKPPGE": "Cs_Emo_Avatar_Simple_Common_Set/Cs_Emo_Avatar_Talk/Cs_Emo_Avatar_Event/Cs_Emo_Avatar_HaiDeng/Cs_Emo_413130304",
                "IHCBGPABDLE": "",
                "CIKPDMODFPL": "",
                "HDIAHFFHNGE": "",
                "BOAAGJEEFDD": "",
                "PFDPJKHPADE": "",
                "DALINBJAHOC": [
                    9380581984729765519,
                    4588181083939216350,
                    5676675173152730388,
                    14618851290117742648
                ]
            },
            {
                "$type": "IBPNIIGAIPF",
                "type": "LOOK_AT",
                "aliasList": [
                    "220201"
                ],
                "GGIENKFBOGL": true,
                "useTargetPos": true,
                "GCOONJBHNIM": true,
                "JHNJNNOPJKG": {
                    "x": 908.8621215820312,
                    "y": 261.2121887207031,
                    "z": 346.3756103515625
                },
                "NDOMJCOFKDJ": 0.6000000238418579,
                "KIPMIDIKECP": "",
                "HJJAFGPMJNJ": "",
                "AOFBAGFCGPJ": ""
            },
            {
                "$type": "IBPNIIGAIPF",
                "type": "LOOK_AT",
                "delayTime": 2.6091907024383545,
                "aliasList": [
                    "220201"
                ],
                "GGIENKFBOGL": true,
                "NDOMJCOFKDJ": 0.6000000238418579,
                "KIPMIDIKECP": "220801",
                "HJJAFGPMJNJ": "",
                "AOFBAGFCGPJ": ""
            }
        ],
        [
            {
                "$type": "CCEEIGNAILH",
                "type": "DIALOG",
                "aliasList": [
                    "220201"
                ],
                "KICBIOMGHIN": 413130305,
                "PNCCODDABKI": 1.0
            },
            {
                "$type": "KCBOGFFHPBD",
                "type": "BODY_LANG",
                "aliasList": [
                    "220201"
                ],
                "AHGOBCDHCMC": true,
                "FHLAMNNHMFA": true,
                "AOFEDPBOOIE": ""
            },
            {
                "$type": "KCBOGFFHPBD",
                "type": "BODY_LANG",
                "delayTime": 0.8999999761581421,
                "aliasList": [
                    "220201"
                ],
                "GPIEDGOMCGL": 1170,
                "FHLAMNNHMFA": true,
                "AOFEDPBOOIE": ""
            },
            {
                "$type": "KCBOGFFHPBD",
                "type": "BODY_LANG",
                "delayTime": 4.5,
                "aliasList": [
                    "220201"
                ],
                "GPIEDGOMCGL": 1120,
                "FHLAMNNHMFA": true,
                "AOFEDPBOOIE": ""
            },
            {
                "$type": "KCBOGFFHPBD",
                "type": "BODY_LANG",
                "delayTime": 3.5,
                "aliasList": [
                    "220201"
                ],
                "AHGOBCDHCMC": true,
                "FHLAMNNHMFA": true,
                "AOFEDPBOOIE": ""
            },
            {
                "$type": "DNAEECJNBFB",
                "type": "EMO_SYNC",
                "aliasList": [
                    "220201"
                ],
                "EOGJDJKPPGE": "Cs_Emo_Avatar_Simple_Common_Set/Cs_Emo_Avatar_Talk/Cs_Emo_Avatar_Event/Cs_Emo_Avatar_HaiDeng/Cs_Emo_413130305",
                "IHCBGPABDLE": "",
                "CIKPDMODFPL": "",
                "HDIAHFFHNGE": "",
                "BOAAGJEEFDD": "",
                "PFDPJKHPADE": "",
                "DALINBJAHOC": [
                    11793408240813534692,
                    11805168024969022432,
                    9442265766679970105,
                    3708691993424457644
                ]
            },
            {
                "$type": "IBPNIIGAIPF",
                "type": "LOOK_AT",
                "aliasList": [
                    "220201"
                ],
                "GGIENKFBOGL": true,
                "NDOMJCOFKDJ": 0.4000000059604645,
                "KIPMIDIKECP": "220801",
                "HJJAFGPMJNJ": "",
                "AOFBAGFCGPJ": ""
            }
        ],
        [
            {
                "$type": "BCJBNCJOPCE",
                "type": "CAMERA_MOVE",
                "duration": 1.0,
                "AKFGKKEOEFA": {
                    "x": 907.8488159179688,
                    "y": 261.69049072265625,
                    "z": 344.9538879394531
                },
                "NGEBMAEFFGJ": {
                    "x": 908.1941528320312,
                    "y": 261.35736083984375,
                    "z": 345.83123779296875
                },
                "LIGHLBKBDEI": 30.0,
                "GFIOJGJJGCN": 6,
                "ABAEPHOGOFF": "EaseInOutCubic",
                "KFDBMBFFANN": {},
                "KIPMIDIKECP": "",
                "BDLGHOJPJHD": "",
                "LCOJGFEOLCK": "",
                "BBBGAEDCJEL": ""
            },
            {
                "$type": "MEKNGCBGKEJ",
                "type": "DIALOG_SELECT",
                "delayTime": 1.0,
                "aliasList": [
                    "Avatar"
                ],
                "MLAABINGLAA": [
                    413130307
                ],
                "HPBPDBFGKID": [
                    870077074
                ],
                "CFJOJADDHHG": true
            },
            {
                "$type": "IBPNIIGAIPF",
                "type": "LOOK_AT",
                "delayTime": 0.7454830408096313,
                "aliasList": [
                    "Avatar"
                ],
                "GGIENKFBOGL": true,
                "useTargetPos": true,
                "GCOONJBHNIM": true,
                "JHNJNNOPJKG": {
                    "x": 909.2000732421875,
                    "y": 260.927734375,
                    "z": 347.1219482421875
                },
                "NDOMJCOFKDJ": 0.800000011920929,
                "KIPMIDIKECP": "",
                "HJJAFGPMJNJ": "",
                "AOFBAGFCGPJ": ""
            },
            {
                "$type": "DNAEECJNBFB",
                "type": "EMO_SYNC",
                "delayTime": 0.9361225366592407,
                "aliasList": [
                    "Avatar"
                ],
                "EOGJDJKPPGE": "",
                "IHCBGPABDLE": "Cs_Emo_Avatar_Common/Cs_Emo_Avatar_N",
                "CIKPDMODFPL": "Cs_Emo_Avatar_Common/Cs_Emo_Avatar_Default01",
                "HDIAHFFHNGE": "",
                "BOAAGJEEFDD": "",
                "PFDPJKHPADE": "",
                "MJAONEKDECJ": [
                    8580669323297051107,
                    15023355033871486163,
                    10579363106450329133,
                    10340570440011467750
                ],
                "DAALMFGCAOO": [
                    17551147554270584215,
                    11567349927864383394,
                    11535483659151300012,
                    3124390413002392171
                ]
            },
            {
                "$type": "DNAEECJNBFB",
                "type": "EMO_SYNC",
                "delayTime": 0.7617862224578857,
                "aliasList": [
                    "Avatar"
                ],
                "EOGJDJKPPGE": "",
                "IHCBGPABDLE": "Cs_Emo_Avatar_Common/Cs_Emo_Avatar_N",
                "CIKPDMODFPL": "Cs_Emo_Avatar_Common/Cs_Emo_Avatar_LowClosed01",
                "HDIAHFFHNGE": "",
                "BOAAGJEEFDD": "",
                "PFDPJKHPADE": "",
                "MJAONEKDECJ": [
                    8580669323297051107,
                    15023355033871486163,
                    10579363106450329133,
                    10340570440011467750
                ],
                "DAALMFGCAOO": [
                    13948284213264595615,
                    7688108384441439599,
                    13936602145956991039,
                    10261157731837374257
                ]
            },
            {
                "$type": "IBPNIIGAIPF",
                "type": "LOOK_AT",
                "aliasList": [
                    "220801"
                ],
                "GGIENKFBOGL": true,
                "NDOMJCOFKDJ": 0.5,
                "KIPMIDIKECP": "1005",
                "HJJAFGPMJNJ": "",
                "AOFBAGFCGPJ": ""
            },
            {
                "$type": "KCBOGFFHPBD",
                "type": "BODY_LANG",
                "aliasList": [
                    "220201"
                ],
                "AHGOBCDHCMC": true,
                "FHLAMNNHMFA": true,
                "AOFEDPBOOIE": ""
            },
            {
                "$type": "IBPNIIGAIPF",
                "type": "LOOK_AT",
                "aliasList": [
                    "220201"
                ],
                "GGIENKFBOGL": true,
                "NDOMJCOFKDJ": 0.699999988079071,
                "KIPMIDIKECP": "1005",
                "HJJAFGPMJNJ": "",
                "AOFBAGFCGPJ": ""
            },
            {
                "$type": "CCEEIGNAILH",
                "type": "DIALOG",
                "aliasList": [
                    "1005"
                ],
                "KICBIOMGHIN": 413130306,
                "PNCCODDABKI": 1.0
            },
            {
                "$type": "KCBOGFFHPBD",
                "type": "BODY_LANG",
                "aliasList": [
                    "1005"
                ],
                "GPIEDGOMCGL": 1190,
                "FHLAMNNHMFA": true,
                "AOFEDPBOOIE": ""
            },
            {
                "$type": "IBPNIIGAIPF",
                "type": "LOOK_AT",
                "aliasList": [
                    "1005"
                ],
                "KIPMIDIKECP": "",
                "HJJAFGPMJNJ": "",
                "AOFBAGFCGPJ": ""
            },
            {
                "$type": "DNAEECJNBFB",
                "type": "EMO_SYNC",
                "aliasList": [
                    "1005"
                ],
                "EOGJDJKPPGE": "Cs_Emo_Avatar_Simple_Common_Set/Cs_Emo_Avatar_Talk/Cs_Emo_Avatar_Event/Cs_Emo_Avatar_HaiDeng/Cs_Emo_413130306",
                "IHCBGPABDLE": "",
                "CIKPDMODFPL": "",
                "HDIAHFFHNGE": "",
                "BOAAGJEEFDD": "",
                "PFDPJKHPADE": "",
                "DALINBJAHOC": [
                    2684669904827083927,
                    10223052361308006901,
                    12902876869215112434,
                    15359558228359178140
                ]
            }
        ],
        [
            {
                "$type": "BCJBNCJOPCE",
                "type": "CAMERA_MOVE",
                "duration": 1.0,
                "AKFGKKEOEFA": {
                    "x": 908.6184692382812,
                    "y": 261.2696838378906,
                    "z": 346.55224609375
                },
                "NGEBMAEFFGJ": {
                    "x": 908.9605712890625,
                    "y": 261.0313720703125,
                    "z": 347.461181640625
                },
                "LIGHLBKBDEI": 30.0,
                "GFIOJGJJGCN": 6,
                "ABAEPHOGOFF": "EaseInOutCubic",
                "KFDBMBFFANN": {},
                "KIPMIDIKECP": "",
                "BDLGHOJPJHD": "",
                "LCOJGFEOLCK": "",
                "BBBGAEDCJEL": ""
            },
            {
                "$type": "IBPNIIGAIPF",
                "type": "LOOK_AT",
                "aliasList": [
                    "Avatar"
                ],
                "GGIENKFBOGL": true,
                "NDOMJCOFKDJ": 0.6000000238418579,
                "KIPMIDIKECP": "220201",
                "HJJAFGPMJNJ": "",
                "AOFBAGFCGPJ": ""
            },
            {
                "$type": "DNAEECJNBFB",
                "type": "EMO_SYNC",
                "aliasList": [
                    "Avatar"
                ],
                "EOGJDJKPPGE": "",
                "IHCBGPABDLE": "Cs_Emo_Avatar_Common/Cs_Emo_Avatar_Default01",
                "CIKPDMODFPL": "Cs_Emo_Avatar_Common/Cs_Emo_Avatar_Default01",
                "HDIAHFFHNGE": "",
                "BOAAGJEEFDD": "",
                "PFDPJKHPADE": "",
                "MJAONEKDECJ": [
                    1010565500959774114,
                    17914558573000180712,
                    14498871351621154070,
                    14348654671849899985
                ],
                "DAALMFGCAOO": [
                    17551147554270584215,
                    11567349927864383394,
                    11535483659151300012,
                    3124390413002392171
                ]
            },
            {
                "$type": "CCEEIGNAILH",
                "type": "DIALOG",
                "aliasList": [
                    "1005"
                ],
                "KICBIOMGHIN": 413130308,
                "PNCCODDABKI": 0.5
            },
            {
                "$type": "KCBOGFFHPBD",
                "type": "BODY_LANG",
                "aliasList": [
                    "1005"
                ],
                "GPIEDGOMCGL": 1060,
                "FHLAMNNHMFA": true,
                "AOFEDPBOOIE": ""
            },
            {
                "$type": "KCBOGFFHPBD",
                "type": "BODY_LANG",
                "delayTime": 0.8999999761581421,
                "aliasList": [
                    "1005"
                ],
                "GPIEDGOMCGL": 1170,
                "FHLAMNNHMFA": true,
                "AOFEDPBOOIE": ""
            },
            {
                "$type": "KCBOGFFHPBD",
                "type": "BODY_LANG",
                "delayTime": 5.393764495849609,
                "aliasList": [
                    "1005"
                ],
                "AHGOBCDHCMC": true,
                "FHLAMNNHMFA": true,
                "AOFEDPBOOIE": ""
            },
            {
                "$type": "CNBNGFNKLGP",
                "type": "STEER_TO",
                "duration": 1.0,
                "aliasList": [
                    "1005"
                ],
                "DEMFHGAIELL": "ABSOLUTE",
                "KDKLEJFHDJG": {
                    "x": 908.8685913085938,
                    "y": 259.7195739746094,
                    "z": 346.6949462890625
                },
                "KIPMIDIKECP": "",
                "AOFBAGFCGPJ": ""
            },
            {
                "$type": "IBPNIIGAIPF",
                "type": "LOOK_AT",
                "aliasList": [
                    "1005"
                ],
                "GGIENKFBOGL": true,
                "NDOMJCOFKDJ": 0.5,
                "KIPMIDIKECP": "220201",
                "HJJAFGPMJNJ": "",
                "AOFBAGFCGPJ": ""
            },
            {
                "$type": "DNAEECJNBFB",
                "type": "EMO_SYNC",
                "aliasList": [
                    "1005"
                ],
                "EOGJDJKPPGE": "Cs_Emo_Avatar_Simple_Common_Set/Cs_Emo_Avatar_Talk/Cs_Emo_Avatar_Event/Cs_Emo_Avatar_HaiDeng/Cs_Emo_413130308",
                "IHCBGPABDLE": "",
                "CIKPDMODFPL": "",
                "HDIAHFFHNGE": "",
                "BOAAGJEEFDD": "",
                "PFDPJKHPADE": "",
                "DALINBJAHOC": [
                    15030264027628903001,
                    904642607914525432,
                    1899780721849901122,
                    13005265472826455327
                ]
            }
        ],
        [
            {
                "$type": "BCJBNCJOPCE",
                "type": "CAMERA_MOVE",
                "duration": 1.0,
                "AKFGKKEOEFA": {
                    "x": 908.5181274414062,
                    "y": 261.0509948730469,
                    "z": 348.8559265136719
                },
                "NGEBMAEFFGJ": {
                    "x": 908.6353149414062,
                    "y": 261.00238037109375,
                    "z": 347.864013671875
                },
                "LIGHLBKBDEI": 30.0,
                "GFIOJGJJGCN": 6,
                "ABAEPHOGOFF": "EaseInOutCubic",
                "KFDBMBFFANN": {},
                "KIPMIDIKECP": "",
                "BDLGHOJPJHD": "",
                "LCOJGFEOLCK": "",
                "BBBGAEDCJEL": ""
            },
            {
                "$type": "CCEEIGNAILH",
                "type": "DIALOG",
                "aliasList": [
                    "220201"
                ],
                "KICBIOMGHIN": 413130309,
                "PNCCODDABKI": 0.5
            },
            {
                "$type": "KCBOGFFHPBD",
                "type": "BODY_LANG",
                "aliasList": [
                    "220201"
                ],
                "GPIEDGOMCGL": 1060,
                "FHLAMNNHMFA": true,
                "AOFEDPBOOIE": ""
            },
            {
                "$type": "KCBOGFFHPBD",
                "type": "BODY_LANG",
                "delayTime": 2.799999952316284,
                "aliasList": [
                    "220201"
                ],
                "GPIEDGOMCGL": 1110,
                "FHLAMNNHMFA": true,
                "AOFEDPBOOIE": ""
            },
            {
                "$type": "KCBOGFFHPBD",
                "type": "BODY_LANG",
                "delayTime": 1.7999999523162842,
                "aliasList": [
                    "220201"
                ],
                "AHGOBCDHCMC": true,
                "FHLAMNNHMFA": true,
                "AOFEDPBOOIE": ""
            },
            {
                "$type": "DNAEECJNBFB",
                "type": "EMO_SYNC",
                "aliasList": [
                    "220201"
                ],
                "EOGJDJKPPGE": "Cs_Emo_Avatar_Simple_Common_Set/Cs_Emo_Avatar_Talk/Cs_Emo_Avatar_Event/Cs_Emo_Avatar_HaiDeng/Cs_Emo_413130309",
                "IHCBGPABDLE": "",
                "CIKPDMODFPL": "",
                "HDIAHFFHNGE": "",
                "BOAAGJEEFDD": "",
                "PFDPJKHPADE": "",
                "DALINBJAHOC": [
                    7934949364455689407,
                    14954179593831240287,
                    8213288362459275500,
                    15767697400957492808
                ]
            },
            {
                "$type": "KCBOGFFHPBD",
                "type": "BODY_LANG",
                "aliasList": [
                    "1005"
                ],
                "AHGOBCDHCMC": true,
                "FHLAMNNHMFA": true,
                "AOFEDPBOOIE": ""
            },
            {
                "$type": "IBPNIIGAIPF",
                "type": "LOOK_AT",
                "aliasList": [
                    "1005"
                ],
                "GGIENKFBOGL": true,
                "NDOMJCOFKDJ": 0.5,
                "KIPMIDIKECP": "220201",
                "HJJAFGPMJNJ": "",
                "AOFBAGFCGPJ": ""
            }
        ],
        [
            {
                "$type": "BCJBNCJOPCE",
                "type": "CAMERA_MOVE",
                "delayTime": 0.10000000149011612,
                "duration": 15.0,
                "AKFGKKEOEFA": {
                    "x": 908.7613525390625,
                    "y": 261.3118896484375,
                    "z": 346.51904296875
                },
                "NGEBMAEFFGJ": {
                    "x": 908.9295654296875,
                    "y": 260.98724365234375,
                    "z": 347.4497985839844
                },
                "LIGHLBKBDEI": 30.0,
                "ABAEPHOGOFF": "EaseOutQuad",
                "KFDBMBFFANN": {},
                "KIPMIDIKECP": "",
                "BDLGHOJPJHD": "",
                "LCOJGFEOLCK": "",
                "BBBGAEDCJEL": ""
            },
            {
                "$type": "BCJBNCJOPCE",
                "type": "CAMERA_MOVE",
                "duration": 1.0,
                "AKFGKKEOEFA": {
                    "x": 908.7434692382812,
                    "y": 261.3448791503906,
                    "z": 346.3718566894531
                },
                "NGEBMAEFFGJ": {
                    "x": 908.9116821289062,
                    "y": 261.0202331542969,
                    "z": 347.3026123046875
                },
                "LIGHLBKBDEI": 30.0,
                "GFIOJGJJGCN": 6,
                "ABAEPHOGOFF": "EaseInOutCubic",
                "KFDBMBFFANN": {},
                "KIPMIDIKECP": "",
                "BDLGHOJPJHD": "",
                "LCOJGFEOLCK": "",
                "BBBGAEDCJEL": ""
            },
            {
                "$type": "KCBOGFFHPBD",
                "type": "BODY_LANG",
                "aliasList": [
                    "220201"
                ],
                "AHGOBCDHCMC": true,
                "FHLAMNNHMFA": true,
                "AOFEDPBOOIE": ""
            },
            {
                "$type": "CCEEIGNAILH",
                "type": "DIALOG",
                "aliasList": [
                    "1005"
                ],
                "KICBIOMGHIN": 413130310,
                "PNCCODDABKI": 0.5
            },
            {
                "$type": "KCBOGFFHPBD",
                "type": "BODY_LANG",
                "aliasList": [
                    "1005"
                ],
                "GPIEDGOMCGL": 1180,
                "FHLAMNNHMFA": true,
                "AOFEDPBOOIE": ""
            },
            {
                "$type": "KCBOGFFHPBD",
                "type": "BODY_LANG",
                "delayTime": 3.7911911010742188,
                "aliasList": [
                    "1005"
                ],
                "GPIEDGOMCGL": 1260,
                "FHLAMNNHMFA": true,
                "AOFEDPBOOIE": ""
            },
            {
                "$type": "DNAEECJNBFB",
                "type": "EMO_SYNC",
                "aliasList": [
                    "1005"
                ],
                "EOGJDJKPPGE": "Cs_Emo_Avatar_Simple_Common_Set/Cs_Emo_Avatar_Talk/Cs_Emo_Avatar_Event/Cs_Emo_Avatar_HaiDeng/Cs_Emo_413130310",
                "IHCBGPABDLE": "",
                "CIKPDMODFPL": "",
                "HDIAHFFHNGE": "",
                "BOAAGJEEFDD": "",
                "PFDPJKHPADE": "",
                "DALINBJAHOC": [
                    931605131982890396,
                    18233909380600193927,
                    1139092070469739650,
                    1533365957424797134
                ]
            }
        ],
        [
            {
                "$type": "CCEEIGNAILH",
                "type": "DIALOG",
                "aliasList": [
                    "1005"
                ],
                "KICBIOMGHIN": 413130311,
                "PNCCODDABKI": 0.5
            },
            {
                "$type": "KCBOGFFHPBD",
                "type": "BODY_LANG",
                "aliasList": [
                    "1005"
                ],
                "GPIEDGOMCGL": 1170,
                "FHLAMNNHMFA": true,
                "AOFEDPBOOIE": ""
            },
            {
                "$type": "KCBOGFFHPBD",
                "type": "BODY_LANG",
                "delayTime": 3.247652292251587,
                "aliasList": [
                    "1005"
                ],
                "GPIEDGOMCGL": 1120,
                "FHLAMNNHMFA": true,
                "AOFEDPBOOIE": ""
            },
            {
                "$type": "KCBOGFFHPBD",
                "type": "BODY_LANG",
                "delayTime": 5.433604717254639,
                "aliasList": [
                    "1005"
                ],
                "GPIEDGOMCGL": 1180,
                "FHLAMNNHMFA": true,
                "AOFEDPBOOIE": ""
            },
            {
                "$type": "IBPNIIGAIPF",
                "type": "LOOK_AT",
                "delayTime": 3.2459964752197266,
                "aliasList": [
                    "1005"
                ],
                "GGIENKFBOGL": true,
                "MHMKIICCEDG": {
                    "y": 15.0
                },
                "NDOMJCOFKDJ": 0.5,
                "KIPMIDIKECP": "",
                "HJJAFGPMJNJ": "",
                "AOFBAGFCGPJ": ""
            },
            {
                "$type": "IBPNIIGAIPF",
                "type": "LOOK_AT",
                "delayTime": 5.43194580078125,
                "aliasList": [
                    "1005"
                ],
                "GGIENKFBOGL": true,
                "NDOMJCOFKDJ": 0.5,
                "KIPMIDIKECP": "220201",
                "HJJAFGPMJNJ": "",
                "AOFBAGFCGPJ": ""
            },
            {
                "$type": "KCBOGFFHPBD",
                "type": "BODY_LANG",
                "delayTime": 8.914237976074219,
                "aliasList": [
                    "1005"
                ],
                "AHGOBCDHCMC": true,
                "FHLAMNNHMFA": true,
                "AOFEDPBOOIE": ""
            },
            {
                "$type": "DNAEECJNBFB",
                "type": "EMO_SYNC",
                "aliasList": [
                    "1005"
                ],
                "EOGJDJKPPGE": "Cs_Emo_Avatar_Simple_Common_Set/Cs_Emo_Avatar_Talk/Cs_Emo_Avatar_Event/Cs_Emo_Avatar_HaiDeng/Cs_Emo_413130311",
                "IHCBGPABDLE": "",
                "CIKPDMODFPL": "",
                "HDIAHFFHNGE": "",
                "BOAAGJEEFDD": "",
                "PFDPJKHPADE": "",
                "DALINBJAHOC": [
                    9253286802772223323,
                    2686768488181138699,
                    17728534824217594499,
                    10900411188047253967
                ]
            },
            {
                "$type": "OMPHNKNPPJO",
                "type": "LOOK_AT_EYECTRL",
                "delayTime": 3.994368314743042,
                "aliasList": [
                    "1005"
                ],
                "useTargetPos": false,
                "OMHMNNDGHFL": {
                    "x": -3.0,
                    "z": 8.0
                },
                "AMNIBCAICEP": {
                    "x": -3.0,
                    "z": 8.0
                },
                "MHBPPJNDKJC": 0.5,
                "KIPMIDIKECP": "",
                "JJEGGHOEIPD": "Face"
            },
            {
                "$type": "OMPHNKNPPJO",
                "type": "LOOK_AT_EYECTRL",
                "delayTime": 5.380648612976074,
                "aliasList": [
                    "1005"
                ],
                "useTargetPos": false,
                "MHBPPJNDKJC": 0.5,
                "KIPMIDIKECP": "",
                "JJEGGHOEIPD": "Face"
            },
            {
                "$type": "OMPHNKNPPJO",
                "type": "LOOK_AT_EYECTRL",
                "delayTime": 4.722754001617432,
                "aliasList": [
                    "1005"
                ],
                "useTargetPos": false,
                "OMHMNNDGHFL": {
                    "x": 3.0,
                    "z": 8.0
                },
                "AMNIBCAICEP": {
                    "x": 3.0,
                    "z": 8.0
                },
                "MHBPPJNDKJC": 0.5,
                "KIPMIDIKECP": "",
                "JJEGGHOEIPD": "Face"
            },
            {
                "$type": "OMPHNKNPPJO",
                "type": "LOOK_AT_EYECTRL",
                "aliasList": [
                    "1005"
                ],
                "useTargetPos": false,
                "MHBPPJNDKJC": 1.0,
                "KIPMIDIKECP": "",
                "JJEGGHOEIPD": "Face"
            },
            {
                "$type": "OMPHNKNPPJO",
                "type": "LOOK_AT_EYECTRL",
                "delayTime": 3.359968662261963,
                "aliasList": [
                    "1005"
                ],
                "useTargetPos": false,
                "OMHMNNDGHFL": {
                    "z": 8.0
                },
                "AMNIBCAICEP": {
                    "z": 8.0
                },
                "MHBPPJNDKJC": 0.5,
                "KIPMIDIKECP": "",
                "JJEGGHOEIPD": "Face"
            }
        ],
        [
            {
                "$type": "BCJBNCJOPCE",
                "type": "CAMERA_MOVE",
                "duration": 1.0,
                "AKFGKKEOEFA": {
                    "x": 908.6583862304688,
                    "y": 261.12054443359375,
                    "z": 348.8244934082031
                },
                "NGEBMAEFFGJ": {
                    "x": 908.7080078125,
                    "y": 261.0419921875,
                    "z": 347.8288269042969
                },
                "LIGHLBKBDEI": 30.0,
                "GFIOJGJJGCN": 6,
                "ABAEPHOGOFF": "EaseInOutCubic",
                "KFDBMBFFANN": {},
                "KIPMIDIKECP": "",
                "BDLGHOJPJHD": "",
                "LCOJGFEOLCK": "",
                "BBBGAEDCJEL": ""
            },
            {
                "$type": "DNAEECJNBFB",
                "type": "EMO_SYNC",
                "aliasList": [
                    "220201"
                ],
                "EOGJDJKPPGE": "",
                "IHCBGPABDLE": "Cs_Emo_NPC_Common/Cs_Emo_NPC_Normal01",
                "CIKPDMODFPL": "Cs_Emo_NPC_Common/Cs_Emo_NPC_Sad01",
                "HDIAHFFHNGE": "",
                "BOAAGJEEFDD": "",
                "PFDPJKHPADE": "",
                "MJAONEKDECJ": [
                    12803840960998583578,
                    3437050431160283015,
                    6548526936325855136,
                    1274732080047098512
                ],
                "DAALMFGCAOO": [
                    10177107371780097363,
                    7676342586867601621,
                    11061655104220842906,
                    2233256420039617137
                ]
            },
            {
                "$type": "CCEEIGNAILH",
                "type": "DIALOG",
                "aliasList": [
                    "1005"
                ],
                "KICBIOMGHIN": 413130312,
                "PNCCODDABKI": 0.5
            },
            {
                "$type": "KCBOGFFHPBD",
                "type": "BODY_LANG",
                "aliasList": [
                    "1005"
                ],
                "GPIEDGOMCGL": 1090,
                "FHLAMNNHMFA": true,
                "AOFEDPBOOIE": ""
            },
            {
                "$type": "IBPNIIGAIPF",
                "type": "LOOK_AT",
                "aliasList": [
                    "1005"
                ],
                "GGIENKFBOGL": true,
                "NDOMJCOFKDJ": 0.5,
                "KIPMIDIKECP": "220201",
                "HJJAFGPMJNJ": "",
                "AOFBAGFCGPJ": ""
            },
            {
                "$type": "DNAEECJNBFB",
                "type": "EMO_SYNC",
                "aliasList": [
                    "1005"
                ],
                "EOGJDJKPPGE": "Cs_Emo_Avatar_Simple_Common_Set/Cs_Emo_Avatar_Talk/Cs_Emo_Avatar_Event/Cs_Emo_Avatar_HaiDeng/Cs_Emo_413130312",
                "IHCBGPABDLE": "",
                "CIKPDMODFPL": "",
                "HDIAHFFHNGE": "",
                "BOAAGJEEFDD": "",
                "PFDPJKHPADE": "",
                "DALINBJAHOC": [
                    474226367574426695,
                    8786022961367554033,
                    7472560084972035730,
                    5126479641848889208
                ]
            },
            {
                "$type": "OMPHNKNPPJO",
                "type": "LOOK_AT_EYECTRL",
                "aliasList": [
                    "1005"
                ],
                "useTargetPos": false,
                "MHBPPJNDKJC": 1.0,
                "KIPMIDIKECP": "",
                "JJEGGHOEIPD": "Face"
            }
        ],
        [
            {
                "$type": "BCJBNCJOPCE",
                "type": "CAMERA_MOVE",
                "duration": 1.0,
                "AKFGKKEOEFA": {
                    "x": 910.0366821289062,
                    "y": 261.1613464355469,
                    "z": 347.3351745605469
                },
                "NGEBMAEFFGJ": {
                    "x": 910.6272583007812,
                    "y": 261.1637268066406,
                    "z": 346.5281982421875
                },
                "LIGHLBKBDEI": 30.0,
                "GFIOJGJJGCN": 6,
                "ABAEPHOGOFF": "EaseInOutCubic",
                "KFDBMBFFANN": {},
                "KIPMIDIKECP": "",
                "BDLGHOJPJHD": "",
                "LCOJGFEOLCK": "",
                "BBBGAEDCJEL": ""
            },
            {
                "$type": "CCEEIGNAILH",
                "type": "DIALOG",
                "aliasList": [
                    "220801"
                ],
                "KICBIOMGHIN": 413130313,
                "PNCCODDABKI": 0.5
            },
            {
                "$type": "IBPNIIGAIPF",
                "type": "LOOK_AT",
                "delayTime": 2.33624267578125,
                "aliasList": [
                    "220801"
                ],
                "GGIENKFBOGL": true,
                "MHMKIICCEDG": {
                    "y": 20.0
                },
                "NDOMJCOFKDJ": 1.0,
                "KIPMIDIKECP": "",
                "HJJAFGPMJNJ": "",
                "AOFBAGFCGPJ": ""
            },
            {
                "$type": "DNAEECJNBFB",
                "type": "EMO_SYNC",
                "aliasList": [
                    "220801"
                ],
                "EOGJDJKPPGE": "Cs_Emo_Avatar_Simple_Common_Set/Cs_Emo_Avatar_Talk/Cs_Emo_Avatar_Event/Cs_Emo_Avatar_HaiDeng/Cs_Emo_413130313",
                "IHCBGPABDLE": "",
                "CIKPDMODFPL": "",
                "HDIAHFFHNGE": "",
                "BOAAGJEEFDD": "",
                "PFDPJKHPADE": "",
                "DALINBJAHOC": [
                    1901526568862435969,
                    11100928458175257215,
                    16669970557865502176,
                    9363062901535203312
                ]
            },
            {
                "$type": "OMPHNKNPPJO",
                "type": "LOOK_AT_EYECTRL",
                "delayTime": 2.3659448623657227,
                "aliasList": [
                    "220801"
                ],
                "useTargetPos": false,
                "OMHMNNDGHFL": {
                    "x": -3.0,
                    "z": 5.0
                },
                "AMNIBCAICEP": {
                    "x": -3.0,
                    "z": 5.0
                },
                "MHBPPJNDKJC": 1.0,
                "KIPMIDIKECP": "",
                "JJEGGHOEIPD": "Face"
            },
            {
                "$type": "IBPNIIGAIPF",
                "type": "LOOK_AT",
                "aliasList": [
                    "220201"
                ],
                "GGIENKFBOGL": true,
                "NDOMJCOFKDJ": 0.4000000059604645,
                "KIPMIDIKECP": "220801",
                "HJJAFGPMJNJ": "",
                "AOFBAGFCGPJ": ""
            },
            {
                "$type": "KCBOGFFHPBD",
                "type": "BODY_LANG",
                "aliasList": [
                    "1005"
                ],
                "AHGOBCDHCMC": true,
                "FHLAMNNHMFA": true,
                "AOFEDPBOOIE": ""
            }
        ],
        [
            {
                "$type": "BCJBNCJOPCE",
                "type": "CAMERA_MOVE",
                "duration": 1.0,
                "AKFGKKEOEFA": {
                    "x": 911.4033813476562,
                    "y": 261.3575134277344,
                    "z": 347.0397644042969
                },
                "NGEBMAEFFGJ": {
                    "x": 910.543701171875,
                    "y": 261.2193298339844,
                    "z": 346.5480041503906
                },
                "LIGHLBKBDEI": 30.0,
                "GFIOJGJJGCN": 6,
                "ABAEPHOGOFF": "EaseInOutCubic",
                "KFDBMBFFANN": {},
                "KIPMIDIKECP": "",
                "BDLGHOJPJHD": "",
                "LCOJGFEOLCK": "",
                "BBBGAEDCJEL": ""
            },
            {
                "$type": "IBPNIIGAIPF",
                "type": "LOOK_AT",
                "aliasList": [
                    "220801"
                ],
                "GGIENKFBOGL": true,
                "NDOMJCOFKDJ": 0.699999988079071,
                "KIPMIDIKECP": "220201",
                "HJJAFGPMJNJ": "",
                "AOFBAGFCGPJ": ""
            },
            {
                "$type": "OMPHNKNPPJO",
                "type": "LOOK_AT_EYECTRL",
                "aliasList": [
                    "220801"
                ],
                "useTargetPos": false,
                "MHBPPJNDKJC": 1.0,
                "KIPMIDIKECP": "",
                "JJEGGHOEIPD": "Face"
            },
            {
                "$type": "CCEEIGNAILH",
                "type": "DIALOG",
                "aliasList": [
                    "220201"
                ],
                "KICBIOMGHIN": 413130314,
                "PNCCODDABKI": 0.5
            },
            {
                "$type": "KCBOGFFHPBD",
                "type": "BODY_LANG",
                "aliasList": [
                    "220201"
                ],
                "GPIEDGOMCGL": 1171,
                "FHLAMNNHMFA": true,
                "AOFEDPBOOIE": ""
            },
            {
                "$type": "KCBOGFFHPBD",
                "type": "BODY_LANG",
                "delayTime": 2.5999999046325684,
                "aliasList": [
                    "220201"
                ],
                "GPIEDGOMCGL": 1120,
                "FHLAMNNHMFA": true,
                "AOFEDPBOOIE": ""
            },
            {
                "$type": "IBPNIIGAIPF",
                "type": "LOOK_AT",
                "delayTime": 2.5999999046325684,
                "aliasList": [
                    "220201"
                ],
                "GGIENKFBOGL": true,
                "MHMKIICCEDG": {
                    "y": 15.0
                },
                "NDOMJCOFKDJ": 0.6000000238418579,
                "KIPMIDIKECP": "",
                "AHLPNEGAKGG": "NONE",
                "HJJAFGPMJNJ": "",
                "AOFBAGFCGPJ": ""
            },
            {
                "$type": "DNAEECJNBFB",
                "type": "EMO_SYNC",
                "aliasList": [
                    "220201"
                ],
                "EOGJDJKPPGE": "Cs_Emo_Avatar_Simple_Common_Set/Cs_Emo_Avatar_Talk/Cs_Emo_Avatar_Event/Cs_Emo_Avatar_HaiDeng/Cs_Emo_413130314",
                "IHCBGPABDLE": "",
                "CIKPDMODFPL": "",
                "HDIAHFFHNGE": "",
                "BOAAGJEEFDD": "",
                "PFDPJKHPADE": "",
                "DALINBJAHOC": [
                    15354174136038232557,
                    6186994866724877000,
                    11599629784206438357,
                    1659916067650091126
                ]
            },
            {
                "$type": "IBPNIIGAIPF",
                "type": "LOOK_AT",
                "delayTime": 8.584208488464355,
                "aliasList": [
                    "220201"
                ],
                "GGIENKFBOGL": true,
                "NDOMJCOFKDJ": 0.4000000059604645,
                "KIPMIDIKECP": "220801",
                "HJJAFGPMJNJ": "",
                "AOFBAGFCGPJ": ""
            }
        ],
        [
            {
                "$type": "BCJBNCJOPCE",
                "type": "CAMERA_MOVE",
                "duration": 1.0,
                "AKFGKKEOEFA": {
                    "x": 908.4063110351562,
                    "y": 261.1053161621094,
                    "z": 348.806396484375
                },
                "NGEBMAEFFGJ": {
                    "x": 908.577880859375,
                    "y": 261.0417175292969,
                    "z": 347.8232727050781
                },
                "LIGHLBKBDEI": 30.0,
                "GFIOJGJJGCN": 6,
                "ABAEPHOGOFF": "EaseInOutCubic",
                "KFDBMBFFANN": {},
                "KIPMIDIKECP": "",
                "BDLGHOJPJHD": "",
                "LCOJGFEOLCK": "",
                "BBBGAEDCJEL": ""
            },
            {
                "$type": "CCEEIGNAILH",
                "type": "DIALOG",
                "aliasList": [
                    "220201"
                ],
                "KICBIOMGHIN": 413130315,
                "PNCCODDABKI": 1.0
            },
            {
                "$type": "KCBOGFFHPBD",
                "type": "BODY_LANG",
                "aliasList": [
                    "220201"
                ],
                "AHGOBCDHCMC": true,
                "FHLAMNNHMFA": true,
                "AOFEDPBOOIE": ""
            },
            {
                "$type": "KCBOGFFHPBD",
                "type": "BODY_LANG",
                "delayTime": 0.8999999761581421,
                "aliasList": [
                    "220201"
                ],
                "GPIEDGOMCGL": 1180,
                "FHLAMNNHMFA": true,
                "AOFEDPBOOIE": ""
            },
            {
                "$type": "KCBOGFFHPBD",
                "type": "BODY_LANG",
                "delayTime": 4.410194396972656,
                "aliasList": [
                    "220201"
                ],
                "AHGOBCDHCMC": true,
                "FHLAMNNHMFA": true,
                "AOFEDPBOOIE": ""
            },
            {
                "$type": "IBPNIIGAIPF",
                "type": "LOOK_AT",
                "aliasList": [
                    "220201"
                ],
                "GGIENKFBOGL": true,
                "NDOMJCOFKDJ": 0.6000000238418579,
                "KIPMIDIKECP": "Avatar",
                "HJJAFGPMJNJ": "",
                "AOFBAGFCGPJ": ""
            },
            {
                "$type": "DNAEECJNBFB",
                "type": "EMO_SYNC",
                "aliasList": [
                    "220201"
                ],
                "EOGJDJKPPGE": "Cs_Emo_Avatar_Simple_Common_Set/Cs_Emo_Avatar_Talk/Cs_Emo_Avatar_Event/Cs_Emo_Avatar_HaiDeng/Cs_Emo_413130315",
                "IHCBGPABDLE": "",
                "CIKPDMODFPL": "",
                "HDIAHFFHNGE": "",
                "BOAAGJEEFDD": "",
                "PFDPJKHPADE": "",
                "DALINBJAHOC": [
                    15093600464600805549,
                    12192507988987644298,
                    3776842432376607936,
                    12089523010331314961
                ]
            }
        ],
        [
            {
                "$type": "BCJBNCJOPCE",
                "type": "CAMERA_MOVE",
                "duration": 1.0,
                "AKFGKKEOEFA": {
                    "x": 909.4766235351562,
                    "y": 261.33056640625,
                    "z": 346.6993713378906
                },
                "NGEBMAEFFGJ": {
                    "x": 908.8054809570312,
                    "y": 261.2999267578125,
                    "z": 345.9587097167969
                },
                "LIGHLBKBDEI": 30.0,
                "GFIOJGJJGCN": 6,
                "ABAEPHOGOFF": "EaseInOutCubic",
                "KFDBMBFFANN": {},
                "KIPMIDIKECP": "",
                "BDLGHOJPJHD": "",
                "LCOJGFEOLCK": "",
                "BBBGAEDCJEL": ""
            },
            {
                "$type": "CCEEIGNAILH",
                "type": "DIALOG",
                "aliasList": [
                    "220201"
                ],
                "KICBIOMGHIN": 413130316,
                "PNCCODDABKI": 1.0
            },
            {
                "$type": "KCBOGFFHPBD",
                "type": "BODY_LANG",
                "aliasList": [
                    "220201"
                ],
                "AHGOBCDHCMC": true,
                "FHLAMNNHMFA": true,
                "AOFEDPBOOIE": ""
            },
            {
                "$type": "KCBOGFFHPBD",
                "type": "BODY_LANG",
                "delayTime": 0.8999999761581421,
                "aliasList": [
                    "220201"
                ],
                "GPIEDGOMCGL": 1190,
                "FHLAMNNHMFA": true,
                "AOFEDPBOOIE": ""
            },
            {
                "$type": "IBPNIIGAIPF",
                "type": "LOOK_AT",
                "delayTime": 4.841917514801025,
                "aliasList": [
                    "220201"
                ],
                "GGIENKFBOGL": true,
                "useTargetPos": true,
                "GCOONJBHNIM": true,
                "JHNJNNOPJKG": {
                    "x": 908.6837768554688,
                    "y": 261.1900939941406,
                    "z": 346.4122619628906
                },
                "NDOMJCOFKDJ": 0.4000000059604645,
                "KIPMIDIKECP": "",
                "HJJAFGPMJNJ": "",
                "AOFBAGFCGPJ": ""
            },
            {
                "$type": "DNAEECJNBFB",
                "type": "EMO_SYNC",
                "aliasList": [
                    "220201"
                ],
                "EOGJDJKPPGE": "Cs_Emo_Avatar_Simple_Common_Set/Cs_Emo_Avatar_Talk/Cs_Emo_Avatar_Event/Cs_Emo_Avatar_HaiDeng/Cs_Emo_413130316",
                "IHCBGPABDLE": "",
                "CIKPDMODFPL": "",
                "HDIAHFFHNGE": "",
                "BOAAGJEEFDD": "",
                "PFDPJKHPADE": "",
                "MIDKJONOACI": false,
                "DALINBJAHOC": [
                    12619565261995290133,
                    461828415542903747,
                    13368291695963585460,
                    8675438714713250981
                ]
            },
            {
                "$type": "OMPHNKNPPJO",
                "type": "LOOK_AT_EYECTRL",
                "delayTime": 3.7678885459899902,
                "aliasList": [
                    "220201"
                ],
                "useTargetPos": false,
                "OMHMNNDGHFL": {
                    "z": 7.0
                },
                "AMNIBCAICEP": {
                    "z": 7.0
                },
                "MHBPPJNDKJC": 0.30000001192092896,
                "KIPMIDIKECP": "",
                "JJEGGHOEIPD": "Face"
            },
            {
                "$type": "IBPNIIGAIPF",
                "type": "LOOK_AT",
                "aliasList": [
                    "220201"
                ],
                "GGIENKFBOGL": true,
                "useTargetPos": true,
                "GCOONJBHNIM": true,
                "JHNJNNOPJKG": {
                    "x": 908.6748657226562,
                    "y": 261.4396057128906,
                    "z": 346.45001220703125
                },
                "NDOMJCOFKDJ": 0.4000000059604645,
                "KIPMIDIKECP": "",
                "HJJAFGPMJNJ": "",
                "AOFBAGFCGPJ": ""
            },
            {
                "$type": "IBPNIIGAIPF",
                "type": "LOOK_AT",
                "delayTime": 0.8513262271881104,
                "aliasList": [
                    "220201"
                ],
                "GGIENKFBOGL": true,
                "useTargetPos": true,
                "GCOONJBHNIM": true,
                "JHNJNNOPJKG": {
                    "x": 908.7207641601562,
                    "y": 261.26837158203125,
                    "z": 346.3628845214844
                },
                "NDOMJCOFKDJ": 0.4000000059604645,
                "KIPMIDIKECP": "",
                "HJJAFGPMJNJ": "",
                "AOFBAGFCGPJ": ""
            },
            {
                "$type": "OMPHNKNPPJO",
                "type": "LOOK_AT_EYECTRL",
                "delayTime": 0.9478710889816284,
                "aliasList": [
                    "220201"
                ],
                "useTargetPos": false,
                "OMHMNNDGHFL": {
                    "z": 5.0
                },
                "AMNIBCAICEP": {
                    "z": 5.0
                },
                "MHBPPJNDKJC": 1.0,
                "KIPMIDIKECP": "",
                "JJEGGHOEIPD": "Face"
            },
            {
                "$type": "OMPHNKNPPJO",
                "type": "LOOK_AT_EYECTRL",
                "delayTime": 3.080735921859741,
                "aliasList": [
                    "220201"
                ],
                "useTargetPos": false,
                "OMHMNNDGHFL": {
                    "x": 2.0,
                    "z": 7.0
                },
                "AMNIBCAICEP": {
                    "x": 2.0,
                    "z": 7.0
                },
                "MHBPPJNDKJC": 0.30000001192092896,
                "KIPMIDIKECP": "",
                "JJEGGHOEIPD": "Face"
            },
            {
                "$type": "OMPHNKNPPJO",
                "type": "LOOK_AT_EYECTRL",
                "delayTime": 2.2014551162719727,
                "aliasList": [
                    "220201"
                ],
                "useTargetPos": false,
                "OMHMNNDGHFL": {
                    "x": -2.0,
                    "z": 7.0
                },
                "AMNIBCAICEP": {
                    "x": -2.0,
                    "z": 7.0
                },
                "MHBPPJNDKJC": 0.30000001192092896,
                "KIPMIDIKECP": "",
                "JJEGGHOEIPD": "Face"
            }
        ],
        [
            {
                "$type": "MoleMole.Config.ConfigSimpleBlackScreenAction",
                "type": "SIMPLE_BLACK_SCREEN",
                "durationToBlack": 0.4000000059604645,
                "durationKeepBlack": 0.699999988079071,
                "durationFromBlack": 0.4000000059604645,
                "textMapID": ""
            },
            {
                "$type": "MoleMole.Config.ConfigTimeProtectAction",
                "type": "TIME_PROTECT",
                "duration": 0.6000000238418579
            },
            {
                "$type": "BCJBNCJOPCE",
                "type": "CAMERA_MOVE",
                "delayTime": 0.5,
                "AKFGKKEOEFA": {
                    "x": 907.3194580078125,
                    "y": 261.1137390136719,
                    "z": 347.6239318847656
                },
                "NGEBMAEFFGJ": {
                    "x": 908.0692138671875,
                    "y": 261.12811279296875,
                    "z": 346.9623718261719
                },
                "GFIOJGJJGCN": 6,
                "ABAEPHOGOFF": "EaseInOutCubic",
                "KFDBMBFFANN": {},
                "KIPMIDIKECP": "",
                "BDLGHOJPJHD": "",
                "LCOJGFEOLCK": "",
                "BBBGAEDCJEL": ""
            },
            {
                "$type": "CCEEIGNAILH",
                "type": "DIALOG_CLEAR",
                "KICBIOMGHIN": 413130316
            },
            {
                "$type": "MoleMole.Config.ConfigVisibleInterAction",
                "type": "VISIBLE",
                "delayTime": 0.5,
                "aliasList": [
                    "220201"
                ],
                "extraParam": ""
            }
        ]
    ],
    "groupId": [
        {
            "grpId": 870077068,
            "nextGrpId": 870077069
        },
        {
            "index": 1,
            "grpId": 870077069,
            "nextGrpId": 870077070
        },
        {
            "index": 2,
            "grpId": 870077070,
            "nextGrpId": 870077071
        },
        {
            "index": 3,
            "grpId": 870077071,
            "nextGrpId": 870077072
        },
        {
            "index": 4,
            "grpId": 870077072,
            "nextGrpId": 870077073
        },
        {
            "index": 5,
            "grpId": 870077073,
            "nextGrpId": 870077074
        },
        {
            "index": 6,
            "grpId": 870077074,
            "nextGrpId": 870077075
        },
        {
            "index": 7,
            "grpId": 870077075,
            "nextGrpId": 870077076
        },
        {
            "index": 8,
            "grpId": 870077076,
            "nextGrpId": 1202585380
        },
        {
            "index": 9,
            "grpId": 1202585380,
            "nextGrpId": 1202585381
        },
        {
            "index": 10,
            "grpId": 1202585381,
            "nextGrpId": 1202585382
        },
        {
            "index": 11,
            "grpId": 1202585382,
            "nextGrpId": 1202585383
        },
        {
            "index": 12,
            "grpId": 1202585383,
            "nextGrpId": 1202585384
        },
        {
            "index": 13,
            "grpId": 1202585384,
            "nextGrpId": 1202585385
        },
        {
            "index": 14,
            "grpId": 1202585385,
            "nextGrpId": 1202585386
        },
        {
            "index": 15,
            "grpId": 1202585386,
            "nextGrpId": 1202585387
        }
    ],
    "freeStyleDic": {
        "220801": [],
        "220201": [
            1171,
            1160,
            1170,
            1120,
            1060,
            1110,
            1180,
            1190
        ]
    }
}