{
    "luaDataPath": "",
    "dontUseDefaultFinish": true,
    "entityBan": "",
    "disableNpcLod": true,
    "isAutoBanNpc": true,
    "isBanWidgetPet": true,
    "protectNpcMobileLod": true,
    "startFade": {
        "startFadeOutDuration": 0.0
    },
    "endFade": {
        "startFadeOutDuration": 0.0
    },
    "actors": [
        {
            "alias": "Avatar",
            "visible": true,
            "bornPointName": "",
            "relativePosNpcAlias": "",
            "bindMovingTargetKey": ""
        },
        {
            "configID": 30192,
            "alias": "30192",
            "visible": true,
            "bornPointName": "",
            "relativePosNpcAlias": "",
            "bindMovingTargetKey": ""
        }
    ],
    "group": [
        [
            {
                "$type": "MoleMole.Config.ConfigTimeProtectAction",
                "type": "TIME_PROTECT",
                "duration": 0.10000000149011612
            }
        ],
        [
            {
                "$type": "CCEEIGNAILH",
                "type": "DIALOG",
                "aliasList": [
                    "30192"
                ],
                "KICBIOMGHIN": 705132302,
                "PNCCODDABKI": 0.5
            }
        ],
        [
            {
                "$type": "CCEEIGNAILH",
                "type": "DIALOG",
                "aliasList": [
                    "30192"
                ],
                "KICBIOMGHIN": 705132303,
                "PNCCODDABKI": 0.5
            }
        ],
        [
            {
                "$type": "CCEEIGNAILH",
                "type": "DIALOG",
                "aliasList": [
                    "30192"
                ],
                "KICBIOMGHIN": 705132304,
                "PNCCODDABKI": 0.5
            }
        ],
        [
            {
                "$type": "CCEEIGNAILH",
                "type": "DIALOG",
                "aliasList": [
                    "30192"
                ],
                "KICBIOMGHIN": 705132305,
                "PNCCODDABKI": 0.5
            }
        ],
        [
            {
                "$type": "CCEEIGNAILH",
                "type": "DIALOG",
                "aliasList": [
                    "30192"
                ],
                "KICBIOMGHIN": 705132306,
                "PNCCODDABKI": 0.5
            }
        ],
        [
            {
                "$type": "CCEEIGNAILH",
                "type": "DIALOG",
                "aliasList": [
                    "30192"
                ],
                "KICBIOMGHIN": 705132307,
                "PNCCODDABKI": 0.5
            }
        ],
        [
            {
                "$type": "CCEEIGNAILH",
                "type": "DIALOG",
                "aliasList": [
                    "30192"
                ],
                "KICBIOMGHIN": 705132308,
                "PNCCODDABKI": 0.5
            }
        ],
        [
            {
                "$type": "CCEEIGNAILH",
                "type": "DIALOG",
                "aliasList": [
                    "30192"
                ],
                "KICBIOMGHIN": 705132309,
                "PNCCODDABKI": 0.5
            }
        ],
        [
            {
                "$type": "CCEEIGNAILH",
                "type": "DIALOG",
                "aliasList": [
                    "30192"
                ],
                "KICBIOMGHIN": 705132310,
                "PNCCODDABKI": 0.5
            }
        ],
        [
            {
                "$type": "CCEEIGNAILH",
                "type": "DIALOG",
                "aliasList": [
                    "30192"
                ],
                "KICBIOMGHIN": 705132311,
                "PNCCODDABKI": 0.5
            }
        ],
        [
            {
                "$type": "CCEEIGNAILH",
                "type": "DIALOG",
                "aliasList": [
                    "30192"
                ],
                "KICBIOMGHIN": 705132312,
                "PNCCODDABKI": 0.5
            }
        ],
        [
            {
                "$type": "CCEEIGNAILH",
                "type": "DIALOG",
                "aliasList": [
                    "30192"
                ],
                "KICBIOMGHIN": 705132313,
                "PNCCODDABKI": 0.5
            }
        ],
        [
            {
                "$type": "CCEEIGNAILH",
                "type": "DIALOG",
                "aliasList": [
                    "30192"
                ],
                "KICBIOMGHIN": 705132314,
                "PNCCODDABKI": 0.5
            }
        ],
        [
            {
                "$type": "CCEEIGNAILH",
                "type": "DIALOG",
                "aliasList": [
                    "30192"
                ],
                "KICBIOMGHIN": 705132315,
                "PNCCODDABKI": 0.5
            }
        ],
        [
            {
                "$type": "CCEEIGNAILH",
                "type": "DIALOG",
                "aliasList": [
                    "30192"
                ],
                "KICBIOMGHIN": 705132316,
                "PNCCODDABKI": 0.5
            }
        ],
        [
            {
                "$type": "CCEEIGNAILH",
                "type": "DIALOG",
                "aliasList": [
                    "30192"
                ],
                "KICBIOMGHIN": 705132317,
                "PNCCODDABKI": 0.5
            }
        ],
        [
            {
                "$type": "CCEEIGNAILH",
                "type": "DIALOG",
                "aliasList": [
                    "30192"
                ],
                "KICBIOMGHIN": 705132318,
                "PNCCODDABKI": 0.5
            }
        ],
        [
            {
                "$type": "CCEEIGNAILH",
                "type": "DIALOG",
                "aliasList": [
                    "30192"
                ],
                "KICBIOMGHIN": 705132319,
                "PNCCODDABKI": 0.5
            }
        ],
        [
            {
                "$type": "CCEEIGNAILH",
                "type": "DIALOG",
                "aliasList": [
                    "30192"
                ],
                "KICBIOMGHIN": 705132320,
                "PNCCODDABKI": 0.5
            }
        ],
        [
            {
                "$type": "CCEEIGNAILH",
                "type": "DIALOG",
                "aliasList": [
                    "30192"
                ],
                "KICBIOMGHIN": 705132321,
                "PNCCODDABKI": 0.5
            }
        ],
        [
            {
                "$type": "MoleMole.Config.ConfigTimeProtectAction",
                "type": "TIME_PROTECT",
                "duration": 0.10000000149011612
            }
        ]
    ],
    "groupId": [
        {
            "grpId": 511232632,
            "nextGrpId": 511232633
        },
        {
            "index": 1,
            "grpId": 511232633,
            "nextGrpId": 511232634
        },
        {
            "index": 2,
            "grpId": 511232634,
            "nextGrpId": 511232635
        },
        {
            "index": 3,
            "grpId": 511232635,
            "nextGrpId": 511232636
        },
        {
            "index": 4,
            "grpId": 511232636,
            "nextGrpId": 511232637
        },
        {
            "index": 5,
            "grpId": 511232637,
            "nextGrpId": 511232638
        },
        {
            "index": 6,
            "grpId": 511232638,
            "nextGrpId": 511232639
        },
        {
            "index": 7,
            "grpId": 511232639,
            "nextGrpId": 511232640
        },
        {
            "index": 8,
            "grpId": 511232640,
            "nextGrpId": 2963309752
        },
        {
            "index": 9,
            "grpId": 2963309752,
            "nextGrpId": 2963309753
        },
        {
            "index": 10,
            "grpId": 2963309753,
            "nextGrpId": 2963309754
        },
        {
            "index": 11,
            "grpId": 2963309754,
            "nextGrpId": 2963309755
        },
        {
            "index": 12,
            "grpId": 2963309755,
            "nextGrpId": 2963309756
        },
        {
            "index": 13,
            "grpId": 2963309756,
            "nextGrpId": 2963309757
        },
        {
            "index": 14,
            "grpId": 2963309757,
            "nextGrpId": 2963309758
        },
        {
            "index": 15,
            "grpId": 2963309758,
            "nextGrpId": 2963309759
        },
        {
            "index": 16,
            "grpId": 2963309759,
            "nextGrpId": 2963309760
        },
        {
            "index": 17,
            "grpId": 2963309760,
            "nextGrpId": 2963309761
        },
        {
            "index": 18,
            "grpId": 2963309761,
            "nextGrpId": 2963309783
        },
        {
            "index": 19,
            "grpId": 2963309783,
            "nextGrpId": 2963309784
        },
        {
            "index": 20,
            "grpId": 2963309784,
            "nextGrpId": 2963309785
        },
        {
            "index": 21,
            "grpId": 2963309785,
            "nextGrpId": 2963309786
        }
    ]
}