{
    "Qiqi_ElementalArt": {
        "$type": "PEMAKBHLNEK",
        "common": {
            "effectAttachShape": {
                "$type": "PBJLPIBAGLF"
            }
        },
        "LAEDCIHCNJG": true,
        "combat": {
            "property": {
                "useCreatorProperty": true,
                "HP": 99999.0,
                "defense": 99999.0,
                "isGhostToEnemy": true
            },
            "beHit": {
                "hitBloodEffect": "",
                "OFKMFHKFECF": true,
                "muteAllHitEffect": true,
                "muteAllHitText": true
            },
            "combatLock": {
                "lockShape": "CircleLockEnemy",
                "denyLockOn": true,
                "lockType": "Gadget_Lv1"
            },
            "animEvents": {
                "ELEMENTAL_ART": {
                    "attackPattern": {
                        "$type": "AGJFCPDIMCK",
                        "triggerType": "TriggerNoRepeat",
                        "height": 1.0,
                        "LOACHGCADCO": 2.5
                    },
                    "attackInfo": {
                        "attackTag": "Elemental_Art",
                        "attenuationTag": "Elemental_Art",
                        "attenuationGroup": "default",
                        "attackProperty": {
                            "HOGNHNAHNML": 0.30000001192092896,
                            "BAPILBAGBOJ": 0.0,
                            "elementType": "Ice",
                            "bonusCriticalHurt": 25.0,
                            "strikeType": "Default",
                            "enBreak": 80.0,
                            "damagePercentage": 0.0
                        },
                        "hitPattern": {
                            "onHitEffectName": "Eff_Qiqi_ElementalArt_Bullet_Hit",
                            "hitImpulseType": "",
                            "overrideHitImpulse": {
                                "hitLevel": "Light",
                                "hitImpulseX": 600.0,
                                "hitImpulseY": 400.0
                            },
                            "retreatType": "ByHitDirection",
                            "hitHaltTime": 0.05000000074505806,
                            "hitHaltTimeScale": 0.05000000074505806,
                            "canBeDefenceHalt": true
                        },
                        "canBeModifiedBy": "OriginOwner"
                    }
                }
            }
        },
        "combatTemplate": "",
        "abilities": [
            {
                "abilityID": "Material",
                "abilityName": "Avatar_Qiqi_ElementalArt_Bullet",
                "abilityOverride": ""
            }
        ],
        "HFAEAOCAIOL": {
            "lifeTime": 25.0
        },
        "move": {
            "$type": "JDHEIHNEBHE",
            "attachPoint": "",
            "PFMHNPNIEME": true,
            "ILOPKIBGKPK": {
                "z": 1.0
            },
            "MMEKLMLLADI": true,
            "IEBBHLGLCDC": ""
        },
        "LMIGFNJNNCG": {
            "$type": "OKOALHENOCF",
            "collision": {
                "triggerType": "TriggerAlways",
                "triggerCD": 0.5,
                "targetType": "Enemy",
                "ignoreScene": true
            },
            "IMCFCCCOGAA": [
                {
                    "$type": "ADJNDLDECBK",
                    "abilityName": "Avatar_Qiqi_ElementalArt_Bullet"
                }
            ]
        },
        "stateLayers": {
            "defaultLayer": {
                "$type": "EPAPJJAGHKG",
                "ACOCIAFGIAD": "",
                "stateIDs": {
                    "SkillObj_Qiqi_ElementalArt": {
                        "$type": "EHKOCKNMHMO",
                        "DLOHGBDFFGB": {
                            "SkillObj_Qiqi_ElementalArt": [
                                "SkillObj_Qiqi_ElementalArt"
                            ]
                        },
                        "LAKHIBAPNAB": true
                    },
                    "Wait": {
                        "$type": "EHKOCKNMHMO",
                        "DLOHGBDFFGB": {
                            "Wait": []
                        },
                        "LAKHIBAPNAB": true
                    }
                }
            }
        }
    }
}