{
    "Sorush_Normal_01": {
        "$type": "PEMAKBHLNEK",
        "common": {
            "effectAttachShape": {
                "$type": "PBJLPIBAGLF"
            },
            "mass": 10.0
        },
        "specialPoint": {
            "elementAbsorb": "RootNode",
            "elementPendant": "",
            "elementDrop": "RootNode",
            "bulletAim": "RootNode_FX"
        },
        "LAEDCIHCNJG": true,
        "combat": {
            "property": {
                "HP": 10000.0,
                "attack": 100.0,
                "weight": 500.0,
                "ignorePurgeRate": true
            },
            "combatLock": {
                "lockShape": "CircleLockEnemy",
                "lockType": "Gadget_Lv1"
            },
            "die": {
                "dieForceDisappearTime": 0.0,
                "dieDisappearEffect": "Eff_Sorush_Normal_Die"
            }
        },
        "combatTemplate": "",
        "abilities": [
            {
                "abilityID": "Vehicle_Sorush_Normal_01",
                "abilityName": "Vehicle_Sorush_Normal_01",
                "abilityOverride": ""
            },
            {
                "abilityID": "Vehicle_Sorush_AutoHeal",
                "abilityName": "Vehicle_Sorush_AutoHeal",
                "abilityOverride": ""
            },
            {
                "abilityID": "SorushStatue_WithOutAvatar",
                "abilityName": "SorushStatue_WithOutAvatar",
                "abilityOverride": ""
            },
            {
                "abilityID": "SorushStatue_WithAvatar",
                "abilityName": "SorushStatue_WithAvatar",
                "abilityOverride": ""
            },
            {
                "abilityID": "Vehicle_Sorush_ActionSkill",
                "abilityName": "Vehicle_Sorush_ActionSkill",
                "abilityOverride": ""
            },
            {
                "abilityID": "Vehicle_Sorush_ChargeSkill",
                "abilityName": "Vehicle_Sorush_ChargeSkill",
                "abilityOverride": ""
            },
            {
                "abilityID": "Vehicle_Sorush_GrapplingHookSkill",
                "abilityName": "Vehicle_Sorush_GrapplingHookSkill",
                "abilityOverride": ""
            },
            {
                "abilityID": "ActivityAbility_Hitman_Sorush_FireBomb",
                "abilityName": "ActivityAbility_Hitman_Sorush_FireBomb",
                "abilityOverride": ""
            },
            {
                "abilityID": "Vehicle_Sorush_HookPoint_DropHandler",
                "abilityName": "Vehicle_Sorush_HookPoint_DropHandler",
                "abilityOverride": ""
            },
            {
                "abilityID": "Vehicle_Sorush_ActionSkillHighLight",
                "abilityName": "Vehicle_Sorush_ActionSkillHighLight",
                "abilityOverride": ""
            }
        ],
        "field": {
            "concernType": "AllAvatars",
            "shape": "CircleR4",
            "fromShape": "",
            "triggerInfinite": true,
            "lifeInfinite": true,
            "checkInterval": 0.5,
            "colliderName": "",
            "fromColliderName": ""
        },
        "move": {
            "$type": "IODNEHJJEJD"
        },
        "LMIGFNJNNCG": {
            "$type": "NPHAMCHDHHJ"
        },
        "stateLayers": {
            "defaultLayer": {
                "$type": "EPAPJJAGHKG",
                "ACOCIAFGIAD": "",
                "stateIDs": {
                    "Born": {
                        "$type": "BDINDCNIAIN",
                        "DLOHGBDFFGB": {
                            "Born": []
                        },
                        "POLKCLOHPOO": true,
                        "IDCGNGBPDHO": ""
                    },
                    "Idle": {
                        "$type": "BDINDCNIAIN",
                        "DLOHGBDFFGB": {
                            "Idle": []
                        },
                        "POLKCLOHPOO": true,
                        "NKBIEPDEJAO": 10000.0,
                        "IDCGNGBPDHO": ""
                    },
                    "Move": {
                        "$type": "BDINDCNIAIN",
                        "DLOHGBDFFGB": {
                            "Move": []
                        },
                        "POLKCLOHPOO": true,
                        "IDCGNGBPDHO": ""
                    },
                    "Sprint": {
                        "$type": "BDINDCNIAIN",
                        "DLOHGBDFFGB": {
                            "Sprint": []
                        },
                        "POLKCLOHPOO": true,
                        "IDCGNGBPDHO": ""
                    },
                    "ActionSkill_BS": {
                        "$type": "BDINDCNIAIN",
                        "DLOHGBDFFGB": {
                            "Skill_BS": [
                                "Sorush_Skill_BS"
                            ]
                        },
                        "POLKCLOHPOO": true,
                        "NKBIEPDEJAO": 10000.0,
                        "IDCGNGBPDHO": ""
                    },
                    "ActionSkill_Loop": {
                        "$type": "BDINDCNIAIN",
                        "DLOHGBDFFGB": {
                            "Skill_Loop": []
                        },
                        "POLKCLOHPOO": true,
                        "NKBIEPDEJAO": 10000.0,
                        "IDCGNGBPDHO": ""
                    },
                    "ActionSkill_AS": {
                        "$type": "BDINDCNIAIN",
                        "DLOHGBDFFGB": {
                            "Skill_AS": []
                        },
                        "POLKCLOHPOO": true,
                        "NKBIEPDEJAO": 10000.0,
                        "IDCGNGBPDHO": ""
                    },
                    "FastSkill": {
                        "$type": "BDINDCNIAIN",
                        "DLOHGBDFFGB": {
                            "FastSkill": [
                                "Sorush_FastSkill"
                            ]
                        },
                        "POLKCLOHPOO": true,
                        "IDCGNGBPDHO": ""
                    },
                    "ChargeSkill": {
                        "$type": "BDINDCNIAIN",
                        "DLOHGBDFFGB": {
                            "ChargeSkill": []
                        },
                        "POLKCLOHPOO": true,
                        "IDCGNGBPDHO": ""
                    }
                }
            }
        },
        "audio": {
            "$type": "OLBIENNOKOF",
            "KEEAIACIJBN": "",
            "FIEBJLFMHDJ": {
                "text": "Play_amb_sceneObj_Boat_Impact"
            },
            "BJNGHDCGPIM": 6.0,
            "GKOGIEHHCON": 100,
            "HIIEIPANBEF": 0.10000000149011612
        },
        "CDHKLNMCOOM": {
            "DKGKJPCJHDM": "Sorush",
            "IKNNIBALGOG": "Vehicle_Sorush",
            "KCDADGPCHIG": "",
            "AJGDBBFGDGA": 1,
            "FGHKJGGBAND": [
                {
                    "EGGKHJBMLAJ": "AvatarSeat",
                    "FEMHIEDAILA": 1001
                }
            ],
            "NKBLBOJBCOI": 30,
            "IHFNJFAJBCB": 600301,
            "DPDPOCHLEMJ": {
                "CEODEKCODNN": 240.0,
                "IFNNKBIBHNK": 25.0,
                "EBDFBLNHOED": 1.5,
                "FEKDNNGFNMA": 200.0,
                "GICHLPGKEAK": 1.0,
                "OHEBHKIIENN": 10.199999809265137
            },
            "LNDGOEEKLKG": 1.0,
            "GGFBANKDIHG": 1.5,
            "HCMGGPJEHCP": false,
            "EAKEILMFDLI": [
                "Skill_BS",
                "Skill_Loop",
                "Skill_AS"
            ]
        }
    },
    "Sorush_Normal_02": {
        "$type": "PEMAKBHLNEK",
        "common": {
            "effectAttachShape": {
                "$type": "PBJLPIBAGLF"
            },
            "mass": 10.0
        },
        "specialPoint": {
            "elementAbsorb": "RootNode",
            "elementPendant": "",
            "elementDrop": "RootNode",
            "bulletAim": "RootNode_FX"
        },
        "LAEDCIHCNJG": true,
        "combat": {
            "property": {
                "HP": 10000.0,
                "attack": 100.0,
                "weight": 500.0,
                "ignorePurgeRate": true
            },
            "combatLock": {
                "lockShape": "CircleLockEnemy",
                "lockType": "Gadget_Lv1"
            },
            "die": {
                "dieForceDisappearTime": 0.0,
                "dieDisappearEffect": "Eff_Sorush_Normal_Die"
            }
        },
        "combatTemplate": "",
        "abilities": [
            {
                "abilityID": "Vehicle_Sorush_Normal_01",
                "abilityName": "Vehicle_Sorush_Normal_01",
                "abilityOverride": ""
            },
            {
                "abilityID": "Vehicle_Sorush_AutoHeal",
                "abilityName": "Vehicle_Sorush_AutoHeal",
                "abilityOverride": ""
            },
            {
                "abilityID": "SorushStatue_WithOutAvatar",
                "abilityName": "SorushStatue_WithOutAvatar",
                "abilityOverride": ""
            },
            {
                "abilityID": "SorushStatue_WithAvatar",
                "abilityName": "SorushStatue_WithAvatar",
                "abilityOverride": ""
            },
            {
                "abilityID": "Vehicle_Sorush_ActionSkill",
                "abilityName": "Vehicle_Sorush_ActionSkill",
                "abilityOverride": ""
            },
            {
                "abilityID": "Vehicle_Sorush_ChargeSkill",
                "abilityName": "Vehicle_Sorush_ChargeSkill",
                "abilityOverride": ""
            },
            {
                "abilityID": "Vehicle_Sorush_GrapplingHookSkill",
                "abilityName": "Vehicle_Sorush_GrapplingHookSkill",
                "abilityOverride": ""
            },
            {
                "abilityID": "ActivityAbility_Hitman_Sorush_FireBomb",
                "abilityName": "ActivityAbility_Hitman_Sorush_FireBomb",
                "abilityOverride": ""
            },
            {
                "abilityID": "Vehicle_Sorush_HookPoint_DropHandler",
                "abilityName": "Vehicle_Sorush_HookPoint_DropHandler",
                "abilityOverride": ""
            },
            {
                "abilityID": "Vehicle_Sorush_DynamicCollisionHandler",
                "abilityName": "Vehicle_Sorush_DynamicCollisionHandler",
                "abilityOverride": ""
            },
            {
                "abilityID": "Vehicle_Sorush_SorushWithCrown",
                "abilityName": "Vehicle_Sorush_SorushWithCrown",
                "abilityOverride": ""
            },
            {
                "abilityID": "Vehicle_Sorush_ActionSkillHighLight_WithCrown",
                "abilityName": "Vehicle_Sorush_ActionSkillHighLight_WithCrown",
                "abilityOverride": ""
            }
        ],
        "field": {
            "concernType": "AllAvatars",
            "shape": "CircleR4",
            "fromShape": "",
            "triggerInfinite": true,
            "lifeInfinite": true,
            "checkInterval": 0.5,
            "colliderName": "",
            "fromColliderName": ""
        },
        "move": {
            "$type": "IODNEHJJEJD"
        },
        "LMIGFNJNNCG": {
            "$type": "NPHAMCHDHHJ"
        },
        "stateLayers": {
            "defaultLayer": {
                "$type": "EPAPJJAGHKG",
                "ACOCIAFGIAD": "",
                "stateIDs": {
                    "Born": {
                        "$type": "BDINDCNIAIN",
                        "DLOHGBDFFGB": {
                            "Born": []
                        },
                        "POLKCLOHPOO": true,
                        "IDCGNGBPDHO": ""
                    },
                    "Idle": {
                        "$type": "BDINDCNIAIN",
                        "DLOHGBDFFGB": {
                            "Idle": []
                        },
                        "POLKCLOHPOO": true,
                        "NKBIEPDEJAO": 10000.0,
                        "IDCGNGBPDHO": ""
                    },
                    "Move": {
                        "$type": "BDINDCNIAIN",
                        "DLOHGBDFFGB": {
                            "Move": []
                        },
                        "POLKCLOHPOO": true,
                        "IDCGNGBPDHO": ""
                    },
                    "Sprint": {
                        "$type": "BDINDCNIAIN",
                        "DLOHGBDFFGB": {
                            "Sprint": []
                        },
                        "POLKCLOHPOO": true,
                        "IDCGNGBPDHO": ""
                    },
                    "ActionSkill_BS": {
                        "$type": "BDINDCNIAIN",
                        "DLOHGBDFFGB": {
                            "Skill_BS": [
                                "Sorush_Skill_BS"
                            ]
                        },
                        "POLKCLOHPOO": true,
                        "NKBIEPDEJAO": 10000.0,
                        "IDCGNGBPDHO": ""
                    },
                    "ActionSkill_Loop": {
                        "$type": "BDINDCNIAIN",
                        "DLOHGBDFFGB": {
                            "Skill_Loop": []
                        },
                        "POLKCLOHPOO": true,
                        "NKBIEPDEJAO": 10000.0,
                        "IDCGNGBPDHO": ""
                    },
                    "ActionSkill_AS": {
                        "$type": "BDINDCNIAIN",
                        "DLOHGBDFFGB": {
                            "Skill_AS": []
                        },
                        "POLKCLOHPOO": true,
                        "NKBIEPDEJAO": 10000.0,
                        "IDCGNGBPDHO": ""
                    },
                    "FastSkill": {
                        "$type": "BDINDCNIAIN",
                        "DLOHGBDFFGB": {
                            "FastSkill": [
                                "Sorush_FastSkill"
                            ]
                        },
                        "POLKCLOHPOO": true,
                        "IDCGNGBPDHO": ""
                    },
                    "ChargeSkill": {
                        "$type": "BDINDCNIAIN",
                        "DLOHGBDFFGB": {
                            "ChargeSkill": []
                        },
                        "POLKCLOHPOO": true,
                        "IDCGNGBPDHO": ""
                    }
                }
            }
        },
        "audio": {
            "$type": "OLBIENNOKOF",
            "KEEAIACIJBN": "",
            "FIEBJLFMHDJ": {
                "text": "Play_amb_sceneObj_Boat_Impact"
            },
            "BJNGHDCGPIM": 6.0,
            "GKOGIEHHCON": 100,
            "HIIEIPANBEF": 0.10000000149011612
        },
        "CDHKLNMCOOM": {
            "DKGKJPCJHDM": "Sorush",
            "IKNNIBALGOG": "Vehicle_Sorush",
            "KCDADGPCHIG": "",
            "AJGDBBFGDGA": 1,
            "FGHKJGGBAND": [
                {
                    "EGGKHJBMLAJ": "AvatarSeat",
                    "FEMHIEDAILA": 1001
                }
            ],
            "NKBLBOJBCOI": 30,
            "IHFNJFAJBCB": 600301,
            "DPDPOCHLEMJ": {
                "CEODEKCODNN": 240.0,
                "IFNNKBIBHNK": 25.0,
                "EBDFBLNHOED": 1.5,
                "FEKDNNGFNMA": 200.0,
                "GICHLPGKEAK": 1.0,
                "OHEBHKIIENN": 10.199999809265137
            },
            "LNDGOEEKLKG": 1.0,
            "GGFBANKDIHG": 1.5,
            "HCMGGPJEHCP": false,
            "EAKEILMFDLI": [
                "Skill_BS",
                "Skill_Loop",
                "Skill_AS"
            ]
        }
    },
    "Sorush_Normal_03": {
        "$type": "PEMAKBHLNEK",
        "common": {
            "effectAttachShape": {
                "$type": "PBJLPIBAGLF"
            },
            "mass": 10.0
        },
        "specialPoint": {
            "elementAbsorb": "RootNode",
            "elementPendant": "",
            "elementDrop": "RootNode",
            "bulletAim": "RootNode_FX"
        },
        "LAEDCIHCNJG": true,
        "combat": {
            "property": {
                "HP": 10000.0,
                "attack": 100.0,
                "weight": 500.0,
                "ignorePurgeRate": true
            },
            "combatLock": {
                "lockShape": "CircleLockEnemy",
                "lockType": "Gadget_Lv1"
            },
            "die": {
                "dieForceDisappearTime": 0.0,
                "dieDisappearEffect": "Eff_Sorush_Normal_Die"
            }
        },
        "combatTemplate": "",
        "abilities": [
            {
                "abilityID": "Vehicle_Sorush_Normal_01",
                "abilityName": "Vehicle_Sorush_Normal_01",
                "abilityOverride": ""
            },
            {
                "abilityID": "Vehicle_Sorush_AutoHeal",
                "abilityName": "Vehicle_Sorush_AutoHeal",
                "abilityOverride": ""
            },
            {
                "abilityID": "SorushStatue_WithOutAvatar",
                "abilityName": "SorushStatue_WithOutAvatar",
                "abilityOverride": ""
            },
            {
                "abilityID": "SorushStatue_WithAvatar",
                "abilityName": "SorushStatue_WithAvatar",
                "abilityOverride": ""
            },
            {
                "abilityID": "Vehicle_Sorush_ActionSkill",
                "abilityName": "Vehicle_Sorush_ActionSkill",
                "abilityOverride": ""
            },
            {
                "abilityID": "Vehicle_Sorush_ChargeSkill",
                "abilityName": "Vehicle_Sorush_ChargeSkill",
                "abilityOverride": ""
            },
            {
                "abilityID": "Vehicle_Sorush_GrapplingHookSkill",
                "abilityName": "Vehicle_Sorush_GrapplingHookSkill",
                "abilityOverride": ""
            },
            {
                "abilityID": "ActivityAbility_Hitman_Sorush_FireBomb",
                "abilityName": "ActivityAbility_Hitman_Sorush_FireBomb",
                "abilityOverride": ""
            },
            {
                "abilityID": "Vehicle_Sorush_HookPoint_DropHandler",
                "abilityName": "Vehicle_Sorush_HookPoint_DropHandler",
                "abilityOverride": ""
            },
            {
                "abilityID": "Vehicle_Sorush_DynamicCollisionHandler",
                "abilityName": "Vehicle_Sorush_DynamicCollisionHandler",
                "abilityOverride": ""
            },
            {
                "abilityID": "Vehicle_Sorush_ActivityVehicleMark",
                "abilityName": "Vehicle_Sorush_ActivityVehicleMark",
                "abilityOverride": ""
            }
        ],
        "field": {
            "concernType": "AllAvatars",
            "shape": "CircleR4",
            "fromShape": "",
            "triggerInfinite": true,
            "lifeInfinite": true,
            "checkInterval": 0.5,
            "colliderName": "",
            "fromColliderName": ""
        },
        "move": {
            "$type": "IODNEHJJEJD"
        },
        "LMIGFNJNNCG": {
            "$type": "NPHAMCHDHHJ"
        },
        "stateLayers": {
            "defaultLayer": {
                "$type": "EPAPJJAGHKG",
                "ACOCIAFGIAD": "",
                "stateIDs": {
                    "Born": {
                        "$type": "BDINDCNIAIN",
                        "DLOHGBDFFGB": {
                            "Born": []
                        },
                        "POLKCLOHPOO": true,
                        "IDCGNGBPDHO": ""
                    },
                    "Idle": {
                        "$type": "BDINDCNIAIN",
                        "DLOHGBDFFGB": {
                            "Idle": []
                        },
                        "POLKCLOHPOO": true,
                        "NKBIEPDEJAO": 10000.0,
                        "IDCGNGBPDHO": ""
                    },
                    "Move": {
                        "$type": "BDINDCNIAIN",
                        "DLOHGBDFFGB": {
                            "Move": []
                        },
                        "POLKCLOHPOO": true,
                        "IDCGNGBPDHO": ""
                    },
                    "Sprint": {
                        "$type": "BDINDCNIAIN",
                        "DLOHGBDFFGB": {
                            "Sprint": []
                        },
                        "POLKCLOHPOO": true,
                        "IDCGNGBPDHO": ""
                    },
                    "ActionSkill_BS": {
                        "$type": "BDINDCNIAIN",
                        "DLOHGBDFFGB": {
                            "Skill_BS": [
                                "Sorush_Skill_BS"
                            ]
                        },
                        "POLKCLOHPOO": true,
                        "NKBIEPDEJAO": 10000.0,
                        "IDCGNGBPDHO": ""
                    },
                    "ActionSkill_Loop": {
                        "$type": "BDINDCNIAIN",
                        "DLOHGBDFFGB": {
                            "Skill_Loop": []
                        },
                        "POLKCLOHPOO": true,
                        "NKBIEPDEJAO": 10000.0,
                        "IDCGNGBPDHO": ""
                    },
                    "ActionSkill_AS": {
                        "$type": "BDINDCNIAIN",
                        "DLOHGBDFFGB": {
                            "Skill_AS": []
                        },
                        "POLKCLOHPOO": true,
                        "NKBIEPDEJAO": 10000.0,
                        "IDCGNGBPDHO": ""
                    },
                    "FastSkill": {
                        "$type": "BDINDCNIAIN",
                        "DLOHGBDFFGB": {
                            "FastSkill": [
                                "Sorush_FastSkill"
                            ]
                        },
                        "POLKCLOHPOO": true,
                        "IDCGNGBPDHO": ""
                    },
                    "ChargeSkill": {
                        "$type": "BDINDCNIAIN",
                        "DLOHGBDFFGB": {
                            "ChargeSkill": []
                        },
                        "POLKCLOHPOO": true,
                        "IDCGNGBPDHO": ""
                    }
                }
            }
        },
        "audio": {
            "$type": "OLBIENNOKOF",
            "KEEAIACIJBN": "",
            "FIEBJLFMHDJ": {
                "text": "Play_amb_sceneObj_Boat_Impact"
            },
            "BJNGHDCGPIM": 6.0,
            "GKOGIEHHCON": 100,
            "HIIEIPANBEF": 0.10000000149011612
        },
        "CDHKLNMCOOM": {
            "DKGKJPCJHDM": "Sorush",
            "IKNNIBALGOG": "Vehicle_Sorush",
            "KCDADGPCHIG": "",
            "AJGDBBFGDGA": 1,
            "FGHKJGGBAND": [
                {
                    "EGGKHJBMLAJ": "AvatarSeat",
                    "FEMHIEDAILA": 1001
                }
            ],
            "NKBLBOJBCOI": 30,
            "IHFNJFAJBCB": 600301,
            "DPDPOCHLEMJ": {
                "CEODEKCODNN": 240.0,
                "IFNNKBIBHNK": 25.0,
                "EBDFBLNHOED": 1.5,
                "FEKDNNGFNMA": 200.0,
                "GICHLPGKEAK": 1.0,
                "OHEBHKIIENN": 10.199999809265137
            },
            "LNDGOEEKLKG": 1.0,
            "GGFBANKDIHG": 1.5,
            "HCMGGPJEHCP": false,
            "EAKEILMFDLI": [
                "Skill_BS",
                "Skill_Loop",
                "Skill_AS"
            ]
        }
    },
    "Bullet_Sorush_Bomb": {
        "$type": "PEMAKBHLNEK",
        "common": {
            "effectAttachShape": {
                "$type": "PBJLPIBAGLF",
                "CGEDBGCPFKM": 0.4000000059604645
            },
            "mass": 10.0,
            "affectedByWorld": true,
            "checkInSurface": true
        },
        "combat": {
            "property": {
                "useCreatorProperty": true,
                "HP": 99999.0,
                "isLockHP": true,
                "isGhostToAllied": true
            },
            "combatLock": {
                "lockShape": "CircleLockEnemy",
                "denyLockOn": true,
                "lockType": "Default"
            }
        },
        "combatTemplate": "",
        "abilities": [
            {
                "abilityID": "Bullet_Sorush_Bomb",
                "abilityName": "Bullet_Sorush_Bomb",
                "abilityOverride": ""
            }
        ],
        "HFAEAOCAIOL": {
            "lifeTime": 15.0
        },
        "move": {
            "$type": "CNHOPMEDBJG",
            "BJEGJFALENC": 80.0
        },
        "LMIGFNJNNCG": {
            "$type": "OKOALHENOCF",
            "collision": {
                "ccd": {
                    "type": "Always"
                },
                "targetType": "Enemy"
            },
            "IMCFCCCOGAA": [
                {
                    "$type": "ADJNDLDECBK",
                    "abilityName": "Bullet_Sorush_Bomb"
                }
            ],
            "JFMHINCCKBB": true
        }
    },
    "Bullet_Sorush_Hitman_FireBomb": {
        "$type": "PEMAKBHLNEK",
        "common": {
            "effectAttachShape": {
                "$type": "PBJLPIBAGLF",
                "CGEDBGCPFKM": 0.4000000059604645
            },
            "mass": 10.0,
            "affectedByWorld": true,
            "checkInSurface": true
        },
        "combat": {
            "property": {
                "useCreatorProperty": true,
                "HP": 99999.0,
                "isLockHP": true,
                "isGhostToAllied": true
            },
            "combatLock": {
                "lockShape": "CircleLockEnemy",
                "denyLockOn": true,
                "lockType": "Default"
            }
        },
        "combatTemplate": "",
        "abilities": [
            {
                "abilityID": "Bullet_Sorush_Hitman_FireBomb",
                "abilityName": "Bullet_Sorush_Hitman_FireBomb",
                "abilityOverride": ""
            }
        ],
        "HFAEAOCAIOL": {
            "lifeTime": 15.0
        },
        "move": {
            "$type": "CNHOPMEDBJG",
            "BJEGJFALENC": 80.0
        },
        "LMIGFNJNNCG": {
            "$type": "OKOALHENOCF",
            "collision": {
                "ccd": {
                    "type": "Always"
                },
                "targetType": "Enemy"
            },
            "IMCFCCCOGAA": [
                {
                    "$type": "ADJNDLDECBK",
                    "abilityName": "Bullet_Sorush_Hitman_FireBomb"
                }
            ],
            "JFMHINCCKBB": true
        }
    }
}