{
    "SceneObj_Area_Xm_Property_Ani_Prop_AbyssVines_01": {
        "$type": "IOHCOOOBCPH",
        "common": {
            "disableTickDistance": 1500.0
        },
        "KNGBEDDABOM": true,
        "attackAttenuation": "default",
        "abilities": [
            {
                "abilityID": "",
                "abilityName": "SceneObj_Area_Xm_Property_Ani_Prop_AbyssVines_01_Ability",
                "abilityOverride": ""
            }
        ],
        "stateLayers": {
            "defaultLayer": {
                "$type": "KFHJINNNDPN",
                "BOPIBFKFKCA": "",
                "stateIDs": {
                    "All": {
                        "$type": "ILLKEGMDAEF",
                        "HKPCLGHBKFD": {
                            "Idle01": [],
                            "Idle02": [],
                            "Idle03": [],
                            "Appear01": [],
                            "Appear02": [],
                            "Appear03": []
                        },
                        "BGJDNIJICNM": true
                    }
                }
            }
        }
    },
    "SceneObj_Area_Xm_Property_Prop_TitanCore_01": {
        "$type": "IOHCOOOBCPH",
        "KNGBEDDABOM": true,
        "attackAttenuation": "default",
        "abilities": [
            {
                "abilityID": "",
                "abilityName": "SceneObj_Area_Xm_Property_Prop_TitanCore_01_Ability",
                "abilityOverride": ""
            }
        ]
    },
    "SceneObj_Area_Xm_Property_Prop_Display_01": {
        "$type": "IOHCOOOBCPH",
        "KNGBEDDABOM": true,
        "combat": {
            "property": {
                "HP": 99999.0,
                "isInvincible": true,
                "isLockHP": true,
                "canTriggerBullet": true,
                "denyElementStick": true
            },
            "beHit": {
                "hitBloodEffect": "",
                "hitAutoRedirect": false,
                "muteAllHitText": true
            },
            "combatLock": {
                "lockShape": "CircleLockEnemy",
                "lockType": "Gadget_Lv1",
                "overrideRange": 5.0
            }
        },
        "attackAttenuation": "",
        "abilities": [
            {
                "abilityID": "",
                "abilityName": "SceneObj_Area_Xm_Property_Prop_Display_01_Ability",
                "abilityOverride": ""
            }
        ],
        "JJENAKLGBNC": {
            "BGJCIKIOCLM": "UI/open_robot_control_page",
            "ALEGNEJBLAF": "UI_GADGET_DISPLAY_ACTIVE",
            "OAJHCMOLIDM": [
                "HOST"
            ],
            "icon": "",
            "KKMMGKBKLNB": "",
            "GEDPHHDMFAD": "",
            "NIBCCLBLADB": ""
        },
        "stateLayers": {
            "defaultLayer": {
                "$type": "KFHJINNNDPN",
                "BOPIBFKFKCA": "",
                "stateIDs": {
                    "All": {
                        "$type": "ILLKEGMDAEF",
                        "HKPCLGHBKFD": {
                            "On": [],
                            "Off": []
                        },
                        "BGJDNIJICNM": true
                    }
                }
            }
        },
        "JEMDHNLFOGF": {
            "APGKCLJCPJN": 2.0,
            "LLGLLNBBJBF": {
                "x": -0.42500001192092896,
                "y": -1.5870000123977661,
                "z": 2.690999984741211
            }
        }
    },
    "SceneObj_Area_Xm_Property_Prop_DisplayController_01": {
        "$type": "IOHCOOOBCPH",
        "attackAttenuation": "",
        "abilities": [
            {
                "abilityID": "ability_01",
                "abilityName": "SceneObj_Area_Xm_Property_Prop_DisplayController_01_Ability",
                "abilityOverride": ""
            }
        ]
    },
    "SceneObj_Area_Xm_Property_Ani_Prop_TitanElevator_01": {
        "$type": "IOHCOOOBCPH",
        "common": {
            "disableTickDistance": 10000.0
        },
        "KNGBEDDABOM": true,
        "attackAttenuation": "",
        "abilities": [
            {
                "abilityID": "",
                "abilityName": "SceneObj_Area_Xm_Property_Ani_Prop_TitanElevator_01_Ability",
                "abilityOverride": ""
            },
            {
                "abilityID": "",
                "abilityName": "Scene_RockGadget_Summon_Detect",
                "abilityOverride": ""
            }
        ],
        "field": {
            "concernType": "AllAvatars",
            "shape": "",
            "AGKCOGKCAGC": "",
            "triggerInfinite": true,
            "lifeInfinite": true,
            "campType": "AllExceptSelf",
            "PKBIFJFAJEK": "",
            "CJIOPEJJHDM": "",
            "NGFDCNIFEHH": true
        },
        "move": {
            "$type": "AOAMMBMNHEH"
        }
    },
    "SceneObj_Area_Xm_Property_Prop_TitanElevatorButton_01": {
        "$type": "IOHCOOOBCPH",
        "KNGBEDDABOM": true,
        "attackAttenuation": "",
        "abilities": [
            {
                "abilityID": "",
                "abilityName": "SceneObj_Area_Xm_Property_Prop_TitanElevatorButton_01_Ability",
                "abilityOverride": ""
            }
        ],
        "field": {
            "concernType": "LocalAvatar",
            "shape": "CircleR2H2",
            "AGKCOGKCAGC": "",
            "triggerInfinite": true,
            "lifeInfinite": true,
            "checkInterval": 0.5,
            "overwriteCampType": true,
            "campType": "SelfCamp",
            "PKBIFJFAJEK": "",
            "CJIOPEJJHDM": ""
        }
    },
    "SceneObj_Area_Xm_Property_Prop_TitanElevatorSeal_01": {
        "$type": "IOHCOOOBCPH",
        "model": {
            "bornEffect": "",
            "attachEffect": "Eff_ScenObj_TitanElevatorSeal"
        },
        "KNGBEDDABOM": true,
        "attackAttenuation": "",
        "abilities": [
            {
                "abilityID": "",
                "abilityName": "SceneObj_Area_Xm_Property_Prop_TitanElevatorSeal_01_Ability",
                "abilityOverride": ""
            },
            {
                "abilityID": "",
                "abilityName": "Scene_RockGadget_Summon_Detect",
                "abilityOverride": ""
            }
        ],
        "field": {
            "concernType": "AllAvatars",
            "shape": "",
            "AGKCOGKCAGC": "",
            "triggerInfinite": true,
            "lifeInfinite": true,
            "checkInterval": 0.20000000298023224,
            "campType": "AllExceptSelf",
            "PKBIFJFAJEK": "",
            "CJIOPEJJHDM": ""
        }
    },
    "SceneObj_Area_Xm_Property_Ani_Prop_EnergyMachine_01": {
        "$type": "IOHCOOOBCPH",
        "globalValue": {
            "serverGlobalValues": [
                "SGV_MACHINE_ENERGY_LEVEL"
            ],
            "CCKNHEFGCPP": {
                "SGV_MACHINE_ENERGY_LEVEL": 0.0
            }
        },
        "KNGBEDDABOM": true,
        "combat": {
            "property": {
                "HP": 99999.0,
                "isLockHP": true
            },
            "combatLock": {
                "lockShape": "CircleLockEnemy",
                "denyLockOn": true,
                "lockType": "Default"
            }
        },
        "attackAttenuation": "",
        "abilities": [
            {
                "abilityID": "ability_01",
                "abilityName": "SceneObj_Area_Xm_Property_Ani_Prop_EnergyMachine_01_Ability",
                "abilityOverride": ""
            }
        ],
        "field": {
            "concernType": "LocalAvatar",
            "shape": "CircleR2H2",
            "AGKCOGKCAGC": "",
            "triggerInfinite": true,
            "lifeInfinite": true,
            "checkInterval": 0.5,
            "overwriteCampType": true,
            "campType": "SelfCamp",
            "PKBIFJFAJEK": "",
            "CJIOPEJJHDM": ""
        },
        "NEPNGCGEAOL": {
            "MJDNEHMOFEA": [
                {
                    "$type": "FHCNELPNCPL",
                    "intID": "GadgetState",
                    "EBNFFBOBCHB": true
                }
            ]
        }
    },
    "SceneObj_Area_Xm_Property_Ani_Prop_EnergyMachine_02": {
        "$type": "IOHCOOOBCPH",
        "globalValue": {
            "serverGlobalValues": [
                "SGV_MACHINE_ENERGY_LEVEL"
            ],
            "CCKNHEFGCPP": {
                "SGV_MACHINE_ENERGY_LEVEL": 0.0
            }
        },
        "KNGBEDDABOM": true,
        "combat": {
            "property": {
                "HP": 99999.0,
                "isLockHP": true
            },
            "combatLock": {
                "lockShape": "CircleLockEnemy",
                "denyLockOn": true,
                "lockType": "Default"
            }
        },
        "attackAttenuation": "",
        "abilities": [
            {
                "abilityID": "ability_01",
                "abilityName": "SceneObj_Area_Xm_Property_Ani_Prop_EnergyMachine_02_Ability",
                "abilityOverride": ""
            }
        ],
        "field": {
            "concernType": "LocalAvatar",
            "shape": "CircleR2H2",
            "AGKCOGKCAGC": "",
            "triggerInfinite": true,
            "lifeInfinite": true,
            "checkInterval": 0.5,
            "overwriteCampType": true,
            "campType": "SelfCamp",
            "PKBIFJFAJEK": "",
            "CJIOPEJJHDM": ""
        },
        "NEPNGCGEAOL": {
            "MJDNEHMOFEA": [
                {
                    "$type": "FHCNELPNCPL",
                    "intID": "GadgetState",
                    "EBNFFBOBCHB": true
                }
            ]
        }
    },
    "SceneObj_Area_Xm_Property_Ani_Prop_EnergyMachine_03": {
        "$type": "IOHCOOOBCPH",
        "globalValue": {
            "serverGlobalValues": [
                "SGV_MACHINE_ENERGY_LEVEL"
            ],
            "CCKNHEFGCPP": {
                "SGV_MACHINE_ENERGY_LEVEL": 0.0
            }
        },
        "KNGBEDDABOM": true,
        "combat": {
            "property": {
                "HP": 99999.0,
                "isLockHP": true
            },
            "combatLock": {
                "lockShape": "CircleLockEnemy",
                "denyLockOn": true,
                "lockType": "Default"
            }
        },
        "attackAttenuation": "",
        "abilities": [
            {
                "abilityID": "ability_01",
                "abilityName": "SceneObj_Area_Xm_Property_Ani_Prop_EnergyMachine_03_Ability",
                "abilityOverride": ""
            }
        ],
        "field": {
            "concernType": "LocalAvatar",
            "shape": "CircleR2H2",
            "AGKCOGKCAGC": "",
            "triggerInfinite": true,
            "lifeInfinite": true,
            "checkInterval": 0.5,
            "overwriteCampType": true,
            "campType": "SelfCamp",
            "PKBIFJFAJEK": "",
            "CJIOPEJJHDM": ""
        },
        "NEPNGCGEAOL": {
            "MJDNEHMOFEA": [
                {
                    "$type": "FHCNELPNCPL",
                    "intID": "GadgetState",
                    "EBNFFBOBCHB": true
                }
            ]
        }
    },
    "SceneObj_Area_Xm_Property_Ani_Prop_EnergyCell_01": {
        "$type": "IOHCOOOBCPH",
        "KNGBEDDABOM": true,
        "attackAttenuation": "",
        "abilities": [
            {
                "abilityID": "ability_01",
                "abilityName": "SceneObj_Area_Xm_Property_Ani_Prop_EnergyCell_01_Ability",
                "abilityOverride": ""
            }
        ],
        "field": {
            "concernType": "LocalAvatar",
            "shape": "CircleR3.5H2",
            "AGKCOGKCAGC": "",
            "triggerInfinite": true,
            "lifeInfinite": true,
            "checkInterval": 0.5,
            "overwriteCampType": true,
            "campType": "SelfCamp",
            "PKBIFJFAJEK": "",
            "CJIOPEJJHDM": ""
        },
        "DDOEFBHBEPJ": {
            "HGJJHLBEICG": "",
            "JCBHMPCFFDI": 1.350000023841858
        },
        "NEPNGCGEAOL": {
            "MJDNEHMOFEA": [
                {
                    "$type": "FHCNELPNCPL",
                    "intID": "GadgetState",
                    "EBNFFBOBCHB": true
                }
            ]
        }
    },
    "SceneObj_Area_Xm_Property_Ani_Prop_EnergyLine_01": {
        "$type": "IOHCOOOBCPH",
        "KNGBEDDABOM": true,
        "combat": {
            "property": {
                "HP": 99999.0,
                "isLockHP": true
            },
            "combatLock": {
                "lockShape": "CircleLockEnemy",
                "denyLockOn": true,
                "lockType": "Default"
            }
        },
        "attackAttenuation": "",
        "abilities": [
            {
                "abilityID": "ability_01",
                "abilityName": "SceneObj_Area_Xm_Property_Ani_Prop_EnergyLine_01_Ability",
                "abilityOverride": ""
            }
        ],
        "NEPNGCGEAOL": {
            "MJDNEHMOFEA": [
                {
                    "$type": "FHCNELPNCPL",
                    "intID": "GadgetState",
                    "EBNFFBOBCHB": true
                }
            ]
        }
    },
    "SceneObj_Area_Xm_Property_Ani_Prop_EnergyLine_02": {
        "$type": "IOHCOOOBCPH",
        "KNGBEDDABOM": true,
        "combat": {
            "property": {
                "HP": 99999.0,
                "isLockHP": true
            },
            "combatLock": {
                "lockShape": "CircleLockEnemy",
                "denyLockOn": true,
                "lockType": "Default"
            }
        },
        "attackAttenuation": "",
        "abilities": [
            {
                "abilityID": "ability_01",
                "abilityName": "SceneObj_Area_Xm_Property_Ani_Prop_EnergyLine_02_Ability",
                "abilityOverride": ""
            }
        ],
        "NEPNGCGEAOL": {
            "MJDNEHMOFEA": [
                {
                    "$type": "FHCNELPNCPL",
                    "intID": "GadgetState",
                    "EBNFFBOBCHB": true
                }
            ]
        }
    },
    "SceneObj_Area_Xm_Property_Ani_Prop_EnergyLine_03": {
        "$type": "IOHCOOOBCPH",
        "KNGBEDDABOM": true,
        "combat": {
            "property": {
                "HP": 99999.0,
                "isLockHP": true
            },
            "combatLock": {
                "lockShape": "CircleLockEnemy",
                "denyLockOn": true,
                "lockType": "Default"
            }
        },
        "attackAttenuation": "",
        "abilities": [
            {
                "abilityID": "ability_01",
                "abilityName": "SceneObj_Area_Xm_Property_Ani_Prop_EnergyLine_03_Ability",
                "abilityOverride": ""
            }
        ],
        "NEPNGCGEAOL": {
            "MJDNEHMOFEA": [
                {
                    "$type": "FHCNELPNCPL",
                    "intID": "GadgetState",
                    "EBNFFBOBCHB": true
                }
            ]
        }
    },
    "SceneObj_Area_Xm_Property_Ani_Prop_EnergyNode_01": {
        "$type": "IOHCOOOBCPH",
        "KNGBEDDABOM": true,
        "combat": {
            "property": {
                "HP": 99999.0,
                "isLockHP": true
            },
            "combatLock": {
                "lockShape": "CircleLockEnemy",
                "denyLockOn": true,
                "lockType": "Default"
            }
        },
        "attackAttenuation": "",
        "abilities": [
            {
                "abilityID": "ability_01",
                "abilityName": "SceneObj_Area_Xm_Property_Ani_Prop_EnergyNode_01_Ability",
                "abilityOverride": ""
            }
        ],
        "NEPNGCGEAOL": {
            "MJDNEHMOFEA": [
                {
                    "$type": "FHCNELPNCPL",
                    "intID": "GadgetState",
                    "EBNFFBOBCHB": true
                }
            ]
        }
    },
    "SceneObj_Area_Xm_Property_Ani_Prop_EnergyStone_01": {
        "$type": "IOHCOOOBCPH",
        "KNGBEDDABOM": true,
        "combat": {
            "property": {
                "HP": 99999.0,
                "isLockHP": true
            },
            "combatLock": {
                "lockShape": "CircleLockEnemy",
                "denyLockOn": true,
                "lockType": "Default"
            }
        },
        "attackAttenuation": "",
        "abilities": [
            {
                "abilityID": "ability_01",
                "abilityName": "SceneObj_Area_Xm_Property_Ani_Prop_EnergyStone_01_Ability",
                "abilityOverride": ""
            }
        ],
        "field": {
            "concernType": "LocalAvatar",
            "shape": "CircleR2H2",
            "AGKCOGKCAGC": "",
            "triggerInfinite": true,
            "lifeInfinite": true,
            "checkInterval": 0.5,
            "overwriteCampType": true,
            "campType": "SelfCamp",
            "PKBIFJFAJEK": "",
            "CJIOPEJJHDM": ""
        }
    },
    "SceneObj_Area_Xm_Property_Ani_Prop_CircularGate_01": {
        "$type": "IOHCOOOBCPH",
        "KNGBEDDABOM": true,
        "combat": {
            "property": {
                "HP": 99999.0,
                "isLockHP": true
            },
            "combatLock": {
                "lockShape": "CircleLockEnemy",
                "denyLockOn": true,
                "lockType": "Default"
            }
        },
        "attackAttenuation": "",
        "abilities": [
            {
                "abilityID": "ability_01",
                "abilityName": "SceneObj_Area_Xm_Property_Ani_Prop_CircularGate_01_Ability",
                "abilityOverride": ""
            }
        ],
        "stateLayers": {
            "defaultLayer": {
                "$type": "KFHJINNNDPN",
                "BOPIBFKFKCA": "",
                "stateIDs": {
                    "All": {
                        "$type": "ILLKEGMDAEF",
                        "HKPCLGHBKFD": {
                            "Open": [
                                "Audio_SceneObj_gear_circularGate_close"
                            ],
                            "Close": [
                                "Audio_SceneObj_gear_circularGate_open"
                            ]
                        }
                    }
                }
            }
        },
        "NEPNGCGEAOL": {
            "MJDNEHMOFEA": [
                {
                    "$type": "FHCNELPNCPL",
                    "intID": "GadgetState",
                    "EBNFFBOBCHB": true
                }
            ]
        }
    },
    "SceneObj_Area_Xm_Property_Ani_Prop_PolygonGate_01": {
        "$type": "IOHCOOOBCPH",
        "KNGBEDDABOM": true,
        "combat": {
            "property": {
                "HP": 99999.0,
                "isInvincible": true,
                "isLockHP": true,
                "canTriggerBullet": true,
                "denyElementStick": true
            },
            "combatLock": {
                "lockShape": "CircleLockEnemy",
                "denyLockOn": true,
                "lockType": "Default"
            }
        },
        "attackAttenuation": "",
        "abilities": [
            {
                "abilityID": "ability_01",
                "abilityName": "SceneObj_Area_Xm_Property_Ani_Prop_PolygonGate_01_Ability",
                "abilityOverride": ""
            }
        ],
        "NEPNGCGEAOL": {
            "MJDNEHMOFEA": [
                {
                    "$type": "FHCNELPNCPL",
                    "intID": "GadgetState",
                    "EBNFFBOBCHB": true
                }
            ]
        }
    },
    "SceneObj_Area_Xm_Property_Ani_Prop_GrilleGate_01": {
        "$type": "IOHCOOOBCPH",
        "KNGBEDDABOM": true,
        "combat": {
            "property": {
                "HP": 99999.0,
                "isLockHP": true
            },
            "combatLock": {
                "lockShape": "CircleLockEnemy",
                "denyLockOn": true,
                "lockType": "Default"
            }
        },
        "attackAttenuation": "",
        "abilities": [
            {
                "abilityID": "ability_01",
                "abilityName": "SceneObj_Area_Xm_Property_Ani_Prop_GrilleGate_01_Ability",
                "abilityOverride": ""
            }
        ],
        "NEPNGCGEAOL": {
            "MJDNEHMOFEA": [
                {
                    "$type": "FHCNELPNCPL",
                    "intID": "GadgetState",
                    "EBNFFBOBCHB": true
                }
            ]
        }
    },
    "SceneObj_Area_Xm_Property_Ani_Prop_CockpitGate_01": {
        "$type": "IOHCOOOBCPH",
        "KNGBEDDABOM": true,
        "combat": {
            "property": {
                "HP": 99999.0,
                "isLockHP": true
            },
            "combatLock": {
                "lockShape": "CircleLockEnemy",
                "denyLockOn": true,
                "lockType": "Default"
            }
        },
        "attackAttenuation": "",
        "NEPNGCGEAOL": {
            "MJDNEHMOFEA": [
                {
                    "$type": "FHCNELPNCPL",
                    "intID": "GadgetState",
                    "EBNFFBOBCHB": true
                }
            ]
        }
    },
    "SceneObj_Area_Xm_Property_Prop_Gear_01": {
        "$type": "IOHCOOOBCPH",
        "KNGBEDDABOM": true,
        "combat": {
            "property": {
                "HP": 99999.0,
                "isLockHP": true
            },
            "combatLock": {
                "lockShape": "CircleLockEnemy",
                "denyLockOn": true,
                "lockType": "Default"
            }
        },
        "attackAttenuation": "",
        "NEPNGCGEAOL": {
            "MJDNEHMOFEA": [
                {
                    "$type": "FHCNELPNCPL",
                    "intID": "GadgetState",
                    "EBNFFBOBCHB": true
                }
            ]
        }
    },
    "SceneObj_Area_Xm_Property_Prop_Gear_02": {
        "$type": "IOHCOOOBCPH",
        "KNGBEDDABOM": true,
        "combat": {
            "property": {
                "HP": 99999.0,
                "isLockHP": true
            },
            "combatLock": {
                "lockShape": "CircleLockEnemy",
                "denyLockOn": true,
                "lockType": "Default"
            }
        },
        "attackAttenuation": "",
        "NEPNGCGEAOL": {
            "MJDNEHMOFEA": [
                {
                    "$type": "FHCNELPNCPL",
                    "intID": "GadgetState",
                    "EBNFFBOBCHB": true
                }
            ]
        }
    }
}