{
    "Mika_ElementalArt_Bullet_Main": {
        "$type": "PEMAKBHLNEK",
        "common": {
            "effectAttachShape": {
                "$type": "PBJLPIBAGLF"
            }
        },
        "combat": {
            "property": {
                "useCreatorProperty": true,
                "isInvincible": true,
                "DNGKKBCFJII": false
            },
            "beHit": {
                "hitBloodEffect": "",
                "OFKMFHKFECF": true,
                "muteAllHitEffect": true,
                "muteAllHitText": true
            },
            "combatLock": {
                "lockShape": "CircleLockEnemy",
                "denyLockOn": true,
                "lockType": "Default"
            }
        },
        "combatTemplate": "",
        "abilities": [
            {
                "abilityID": "Mika_ElementalArt_Charge_Bullet_Main",
                "abilityName": "Mika_ElementalArt_Charge_Bullet_Main",
                "abilityOverride": ""
            }
        ],
        "HFAEAOCAIOL": {
            "lifeTime": 1.7000000476837158
        },
        "move": {
            "$type": "INAEJGFIJGP",
            "speed": 30.0,
            "IPCLPKMFMNE": {
                "$type": "PEKFJJPEJPC",
                "IJKNIBLNFMM": true
            },
            "COHNPOGPCBD": true
        },
        "LMIGFNJNNCG": {
            "$type": "OKOALHENOCF",
            "collision": {
                "ccd": {
                    "type": "Always"
                },
                "targetType": "Enemy"
            },
            "IMCFCCCOGAA": [
                {
                    "$type": "ADJNDLDECBK",
                    "abilityName": "Mika_ElementalArt_Charge_Bullet_Main"
                }
            ],
            "CCEGGGACIKD": 0.5,
            "NNHAAGPDKHM": true,
            "DMAMHIGNFKP": true
        }
    },
    "Mika_ElementalArt_Bullet_Main_Short": {
        "$type": "PEMAKBHLNEK",
        "common": {
            "effectAttachShape": {
                "$type": "PBJLPIBAGLF"
            }
        },
        "combat": {
            "property": {
                "useCreatorProperty": true,
                "isInvincible": true,
                "DNGKKBCFJII": false
            },
            "beHit": {
                "hitBloodEffect": "",
                "OFKMFHKFECF": true,
                "muteAllHitEffect": true,
                "muteAllHitText": true
            },
            "combatLock": {
                "lockShape": "CircleLockEnemy",
                "denyLockOn": true,
                "lockType": "Default"
            }
        },
        "combatTemplate": "",
        "abilities": [
            {
                "abilityID": "Mika_ElementalArt_NoCharge_Bullet_Main",
                "abilityName": "Mika_ElementalArt_NoCharge_Bullet_Main",
                "abilityOverride": ""
            }
        ],
        "HFAEAOCAIOL": {
            "lifeTime": 0.4000000059604645
        },
        "move": {
            "$type": "LCCKMECMKBG",
            "speed": 15.0
        },
        "LMIGFNJNNCG": {
            "$type": "OKOALHENOCF",
            "collision": {
                "ccd": {
                    "type": "Always"
                },
                "triggerType": "TriggerNoRepeat",
                "targetType": "Enemy"
            },
            "IMCFCCCOGAA": [
                {
                    "$type": "ADJNDLDECBK",
                    "abilityName": "Mika_ElementalArt_NoCharge_Bullet_Main"
                }
            ],
            "CCEGGGACIKD": 0.20000000298023224
        }
    },
    "Mika_ElementalArt_Bullet_Main_NoTarget": {
        "$type": "PEMAKBHLNEK",
        "common": {
            "effectAttachShape": {
                "$type": "PBJLPIBAGLF"
            }
        },
        "combat": {
            "property": {
                "useCreatorProperty": true,
                "isInvincible": true,
                "DNGKKBCFJII": false
            },
            "beHit": {
                "hitBloodEffect": "",
                "OFKMFHKFECF": true,
                "muteAllHitEffect": true,
                "muteAllHitText": true
            },
            "combatLock": {
                "lockShape": "CircleLockEnemy",
                "denyLockOn": true,
                "lockType": "Default"
            }
        },
        "combatTemplate": "",
        "abilities": [
            {
                "abilityID": "Mika_ElementalArt_Charge_Bullet_Main",
                "abilityName": "Mika_ElementalArt_Charge_Bullet_Main",
                "abilityOverride": ""
            }
        ],
        "HFAEAOCAIOL": {
            "lifeTime": 2.5
        },
        "move": {
            "$type": "LLMBDOCNEFN",
            "speed": 30.0,
            "IPCLPKMFMNE": {
                "$type": "PEKFJJPEJPC"
            },
            "FGBJONOFHHC": 25.0,
            "BJEGJFALENC": 5.5,
            "ABKFOMBOKGD": 0.009999999776482582
        },
        "LMIGFNJNNCG": {
            "$type": "OKOALHENOCF",
            "collision": {
                "ccd": {
                    "type": "Always"
                },
                "targetType": "Enemy"
            },
            "IMCFCCCOGAA": [
                {
                    "$type": "ADJNDLDECBK",
                    "abilityName": "Mika_ElementalArt_Charge_Bullet_Main"
                }
            ],
            "NNHAAGPDKHM": true,
            "DMAMHIGNFKP": true
        }
    },
    "Mika_ElementalArt_Bullet_Sub": {
        "$type": "PEMAKBHLNEK",
        "common": {
            "effectAttachShape": {
                "$type": "PBJLPIBAGLF",
                "BLAAHOEKBED": 0.5,
                "JAGCLOLMPNL": 0.5
            },
            "affectedByWorld": true
        },
        "combat": {
            "property": {
                "useCreatorProperty": true,
                "isInvincible": true,
                "DNGKKBCFJII": false
            },
            "beHit": {
                "hitBloodEffect": "",
                "OFKMFHKFECF": true,
                "muteAllHitEffect": true,
                "muteAllHitText": true
            },
            "combatLock": {
                "lockShape": "CircleLockEnemy",
                "denyLockOn": true,
                "lockType": "Gadget_Lv1"
            }
        },
        "combatTemplate": "",
        "abilities": [
            {
                "abilityID": "Mika_ElementalArt_Charge_Bullet_Sub",
                "abilityName": "Mika_ElementalArt_Charge_Bullet_Sub",
                "abilityOverride": ""
            }
        ],
        "HFAEAOCAIOL": {
            "lifeTime": 4.0
        },
        "move": {
            "$type": "INAEJGFIJGP",
            "EIEIGIPKLAO": {
                "muteAll": true
            },
            "speed": 20.0,
            "GOEFBCNDLEO": 40.0,
            "MGEGLPEIKFG": 20.0,
            "DPHMNNPKOOP": 2.0,
            "JADJAPCCNEL": 2.0,
            "IPCLPKMFMNE": {
                "$type": "PEKFJJPEJPC"
            },
            "DGDJBBOFMGA": 0.5,
            "COHNPOGPCBD": true,
            "MENKNOAMIGG": {
                "$type": "BBEMJFLGFJB",
                "AHAHPAMJBGD": {
                    "$type": "NKOODKOFELF",
                    "offset": {
                        "GNGDNIIPPNL": 0.0,
                        "GIIMFINHIED": 0.0,
                        "CLBCHJICOKH": 0.009999999776482582
                    }
                },
                "radius": 0.5,
                "CJGPHMEBHFJ": 0.5
            }
        },
        "LMIGFNJNNCG": {
            "$type": "OKOALHENOCF",
            "collision": {
                "ccd": {
                    "type": "Always"
                },
                "targetType": "Enemy"
            },
            "IMCFCCCOGAA": [
                {
                    "$type": "ADJNDLDECBK",
                    "abilityName": "Mika_ElementalArt_Charge_Bullet_Sub"
                }
            ],
            "CCEGGGACIKD": 0.4000000059604645,
            "NNHAAGPDKHM": true,
            "FHGLIDABMFB": 0.20000000298023224
        }
    },
    "Mika_ExtraAttack_Bullet": {
        "$type": "PEMAKBHLNEK",
        "common": {
            "effectAttachShape": {
                "$type": "PBJLPIBAGLF"
            }
        },
        "combat": {
            "property": {
                "useCreatorProperty": true,
                "isInvincible": true,
                "isGhostToAllied": true,
                "isGhostToEnemy": true,
                "DNGKKBCFJII": false
            },
            "beHit": {
                "hitBloodEffect": "",
                "OFKMFHKFECF": true,
                "muteAllHitEffect": true,
                "muteAllHitText": true
            },
            "combatLock": {
                "lockShape": "CircleLockEnemy",
                "denyLockOn": true,
                "lockType": "Default"
            }
        },
        "combatTemplate": "",
        "abilities": [
            {
                "abilityID": "Avatar_Mika_ExtraAttack_Bullet",
                "abilityName": "Avatar_Mika_ExtraAttack_Bullet",
                "abilityOverride": ""
            }
        ],
        "HFAEAOCAIOL": {
            "lifeTime": 0.5
        },
        "move": {
            "$type": "JDHEIHNEBHE",
            "attachPoint": "",
            "PFMHNPNIEME": true,
            "offset": {
                "y": 0.8999999761581421
            },
            "ILOPKIBGKPK": {
                "z": 1.0
            },
            "IEBBHLGLCDC": ""
        },
        "LMIGFNJNNCG": {
            "$type": "OKOALHENOCF",
            "collision": {
                "ccd": {
                    "type": "Always"
                },
                "triggerType": "TriggerNoRepeat",
                "targetType": "Enemy",
                "ignoreScene": true
            },
            "IMCFCCCOGAA": [
                {
                    "$type": "ADJNDLDECBK",
                    "abilityName": "Avatar_Mika_ExtraAttack_Bullet"
                }
            ]
        }
    },
    "Mika_Sub_Bullet_Creator": {
        "$type": "PEMAKBHLNEK",
        "common": {
            "effectAttachShape": {
                "$type": "PBJLPIBAGLF"
            }
        },
        "specialPoint": {
            "elementAbsorb": "RootNode",
            "elementPendant": "",
            "elementDrop": "RootNode",
            "bulletAim": "RootNode"
        },
        "combat": {
            "property": {
                "useCreatorProperty": true,
                "isInvincible": true,
                "isGhostToAllied": true,
                "isGhostToEnemy": true,
                "ignorePurgeRate": true
            },
            "combatLock": {
                "lockShape": "CircleLockEnemy",
                "denyLockOn": true,
                "lockType": "Default"
            }
        },
        "combatTemplate": "",
        "abilities": [
            {
                "abilityID": "",
                "abilityName": "Avatar_Mika_ElementalArt_Sub_Bullet_Launch",
                "abilityOverride": ""
            },
            {
                "abilityID": "",
                "abilityName": "Avatar_Mika_ElementalArt_Sub_Bullet_Launch",
                "abilityOverride": ""
            }
        ],
        "HFAEAOCAIOL": {
            "lifeTime": 4.0
        },
        "move": {
            "$type": "LLMBDOCNEFN",
            "speed": 5.0,
            "IPCLPKMFMNE": {
                "$type": "PEKFJJPEJPC"
            },
            "FGBJONOFHHC": 25.0,
            "BJEGJFALENC": 5.5,
            "ABKFOMBOKGD": 0.10000000149011612
        }
    }
}