{
    "SceneObj_Quest_Interact_Point_01": {
        "$type": "IOHCOOOBCPH",
        "model": {
            "bornEffect": "",
            "attachEffect": "Eff_Quest_SiteInteract"
        },
        "KNGBEDDABOM": true,
        "attackAttenuation": "",
        "DDOEFBHBEPJ": {
            "PKABANPMJCL": {
                "EHGGNLFEJLK": "Select",
                "DALPHLBLMHD": true,
                "bornEffect": "",
                "HBAJPKPHOMN": "",
                "DKDLKFDICEM": ""
            },
            "HGJJHLBEICG": ""
        }
    },
    "SceneObj_Quest_Interact_Point_02": {
        "$type": "IOHCOOOBCPH",
        "model": {
            "bornEffect": "",
            "attachEffect": "Eff_Quest_SiteInteract_02"
        },
        "KNGBEDDABOM": true,
        "attackAttenuation": "",
        "DDOEFBHBEPJ": {
            "PKABANPMJCL": {
                "EHGGNLFEJLK": "Select",
                "DALPHLBLMHD": true,
                "bornEffect": "",
                "HBAJPKPHOMN": "",
                "DKDLKFDICEM": ""
            },
            "HGJJHLBEICG": ""
        }
    },
    "SceneObj_Quest_Interact_Point_02_NoInteraction": {
        "$type": "IOHCOOOBCPH",
        "model": {
            "bornEffect": "",
            "attachEffect": "Eff_Quest_SiteInteract_02"
        },
        "KNGBEDDABOM": true,
        "attackAttenuation": ""
    },
    "SceneObj_Quest_Interact_Point_03": {
        "$type": "IOHCOOOBCPH",
        "model": {
            "bornEffect": "",
            "attachEffect": "Eff_Quest_SiteInteract_Event"
        },
        "KNGBEDDABOM": true,
        "attackAttenuation": "",
        "DDOEFBHBEPJ": {
            "PKABANPMJCL": {
                "EHGGNLFEJLK": "Select",
                "DALPHLBLMHD": true,
                "bornEffect": "",
                "HBAJPKPHOMN": "",
                "DKDLKFDICEM": ""
            },
            "HGJJHLBEICG": ""
        }
    },
    "SceneObj_Quest_Interact_Point_03_NoInteraction": {
        "$type": "IOHCOOOBCPH",
        "model": {
            "bornEffect": "",
            "attachEffect": "Eff_Quest_SiteInteract_Event",
            "DKNDCKFAKDF": true
        },
        "KNGBEDDABOM": true,
        "attackAttenuation": ""
    },
    "SceneObj_Quest_Interact_Point_04": {
        "$type": "IOHCOOOBCPH",
        "model": {
            "bornEffect": "",
            "attachEffect": "Eff_Quest_SiteInteract"
        },
        "KNGBEDDABOM": true,
        "combat": {
            "property": {
                "HP": 99999.0,
                "isInvincible": true,
                "isLockHP": true,
                "canTriggerBullet": true,
                "denyElementStick": true
            },
            "combatLock": {
                "lockShape": "CircleLockEnemy",
                "denyLockOn": true,
                "lockType": "Gadget_Lv1"
            }
        },
        "attackAttenuation": "",
        "JJENAKLGBNC": {
            "BGJCIKIOCLM": "TEST/TEST_Chest_Btn",
            "ALEGNEJBLAF": "",
            "icon": "",
            "KKMMGKBKLNB": "",
            "GEDPHHDMFAD": "",
            "NIBCCLBLADB": ""
        },
        "JEMDHNLFOGF": {
            "APGKCLJCPJN": 2.0,
            "OHLENMNOCCK": 3.5
        }
    },
    "SceneObj_Quest_Interact_Point_05": {
        "$type": "IOHCOOOBCPH",
        "model": {
            "bornEffect": "",
            "attachEffect": "Eff_Item_Hint_Small"
        },
        "KNGBEDDABOM": true,
        "attackAttenuation": "",
        "DDOEFBHBEPJ": {
            "PKABANPMJCL": {
                "EHGGNLFEJLK": "Select",
                "DALPHLBLMHD": true,
                "bornEffect": "",
                "HBAJPKPHOMN": "",
                "DKDLKFDICEM": ""
            },
            "HGJJHLBEICG": ""
        }
    },
    "SceneObj_Quest_Interact_Point_06": {
        "$type": "IOHCOOOBCPH",
        "model": {
            "bornEffect": "",
            "attachEffect": "Eff_Item_Hint_Small"
        },
        "KNGBEDDABOM": true,
        "attackAttenuation": ""
    },
    "SceneObj_Quest_Interact_Point_07": {
        "$type": "IOHCOOOBCPH",
        "model": {
            "bornEffect": "",
            "attachEffect": "Eff_Item_Hint_Small"
        },
        "KNGBEDDABOM": true,
        "combat": {
            "property": {
                "HP": 99999.0,
                "isInvincible": true,
                "isLockHP": true,
                "canTriggerBullet": true,
                "denyElementStick": true
            },
            "combatLock": {
                "lockShape": "CircleLockEnemy",
                "denyLockOn": true,
                "lockType": "Gadget_Lv1"
            }
        },
        "attackAttenuation": "",
        "JJENAKLGBNC": {
            "BGJCIKIOCLM": "TEST/TEST_Chest_Btn",
            "ALEGNEJBLAF": "",
            "icon": "",
            "KKMMGKBKLNB": "",
            "GEDPHHDMFAD": "",
            "NIBCCLBLADB": ""
        },
        "JEMDHNLFOGF": {
            "APGKCLJCPJN": 2.0,
            "OHLENMNOCCK": 3.5
        }
    },
    "SceneObj_Quest_Interact_Point_08": {
        "$type": "IOHCOOOBCPH",
        "model": {
            "bornEffect": "",
            "attachEffect": "Eff_Item_Hint_NPC"
        },
        "KNGBEDDABOM": true,
        "attackAttenuation": ""
    },
    "SceneObj_Quest_Interact_Point_01_NoInteraction": {
        "$type": "IOHCOOOBCPH",
        "model": {
            "bornEffect": "",
            "attachEffect": "Eff_Quest_SiteInteract"
        },
        "KNGBEDDABOM": true,
        "attackAttenuation": ""
    },
    "SceneObj_Quest_Symbol_Fire_01": {
        "$type": "IOHCOOOBCPH",
        "model": {
            "bornEffect": "",
            "attachEffect": "Eff_Quest_Symbol_Fire_01"
        },
        "KNGBEDDABOM": true,
        "attackAttenuation": ""
    },
    "SceneObj_Quest_Interact_Adjust_Firepower": {
        "$type": "IOHCOOOBCPH",
        "model": {
            "bornEffect": "",
            "attachEffect": "Eff_Fire_Basin_Big"
        },
        "KNGBEDDABOM": true,
        "attackAttenuation": "",
        "DDOEFBHBEPJ": {
            "PKABANPMJCL": {
                "EHGGNLFEJLK": "Select",
                "DALPHLBLMHD": true,
                "bornEffect": "",
                "HBAJPKPHOMN": "",
                "DKDLKFDICEM": ""
            },
            "HGJJHLBEICG": ""
        }
    },
    "SceneObj_Quest_Interact_Muddy_CrysTear": {
        "$type": "IOHCOOOBCPH",
        "model": {
            "bornEffect": "",
            "attachEffect": "Eff_Quest_CrystTear02_Dark"
        },
        "KNGBEDDABOM": true,
        "attackAttenuation": "",
        "DDOEFBHBEPJ": {
            "PKABANPMJCL": {
                "EHGGNLFEJLK": "Select",
                "DALPHLBLMHD": true,
                "bornEffect": "",
                "HBAJPKPHOMN": "",
                "DKDLKFDICEM": ""
            },
            "HGJJHLBEICG": ""
        }
    },
    "SceneObj_Quest_NoInteract_Muddy_CrysTear": {
        "$type": "IOHCOOOBCPH",
        "model": {
            "bornEffect": "",
            "attachEffect": "Eff_Quest_CrystTear02_Dark"
        },
        "attackAttenuation": ""
    },
    "SceneObj_Quest_Interact_Muddy_CrysTear_Dialog": {
        "$type": "IOHCOOOBCPH",
        "model": {
            "bornEffect": "",
            "attachEffect": "Eff_Quest_CrystTear_Dialog"
        },
        "KNGBEDDABOM": true,
        "attackAttenuation": "",
        "DDOEFBHBEPJ": {
            "PKABANPMJCL": {
                "EHGGNLFEJLK": "Select",
                "DALPHLBLMHD": true,
                "bornEffect": "",
                "HBAJPKPHOMN": "",
                "DKDLKFDICEM": ""
            },
            "HGJJHLBEICG": ""
        }
    },
    "SceneObj_Quest_NoInteract_Muddy_CrysTear_Dialog": {
        "$type": "IOHCOOOBCPH",
        "model": {
            "bornEffect": "",
            "attachEffect": "Eff_Quest_CrystTear_Dialog"
        },
        "KNGBEDDABOM": true,
        "attackAttenuation": ""
    },
    "SceneObj_Quest_Interact_Muddy_CrysTear_Dialog_Small": {
        "$type": "IOHCOOOBCPH",
        "model": {
            "bornEffect": "",
            "attachEffect": "Eff_Quest_CrystTear_DialogSmall"
        },
        "KNGBEDDABOM": true,
        "attackAttenuation": ""
    },
    "SceneObj_Quest_Clear_CrysTear": {
        "$type": "IOHCOOOBCPH",
        "model": {
            "bornEffect": "",
            "attachEffect": "Eff_CS_CrystTearQuest01"
        },
        "KNGBEDDABOM": true,
        "attackAttenuation": ""
    },
    "SceneObj_Quest_Mengde_Fading_Light_Pillar": {
        "$type": "IOHCOOOBCPH",
        "model": {
            "bornEffect": "",
            "attachEffect": "Eff_CS_GoddessAura_Downtown"
        },
        "KNGBEDDABOM": true,
        "attackAttenuation": ""
    },
    "SceneObj_Quest_Abyss_Water_Blink_01": {
        "$type": "IOHCOOOBCPH",
        "model": {
            "bornEffect": "Eff_Monster_Abyss_Water_Blink_BS",
            "attachEffect": ""
        },
        "KNGBEDDABOM": true,
        "attackAttenuation": ""
    },
    "SceneObj_Quest_Abyss_Water_Blink_02": {
        "$type": "IOHCOOOBCPH",
        "model": {
            "bornEffect": "Eff_Monster_Abyss_Water_Blink",
            "attachEffect": ""
        },
        "KNGBEDDABOM": true,
        "attackAttenuation": ""
    },
    "SceneObj_Quest_Abyss_Water_Blink_03": {
        "$type": "IOHCOOOBCPH",
        "model": {
            "bornEffect": "Eff_Monster_Abyss_Water_Blink_AS",
            "attachEffect": ""
        },
        "KNGBEDDABOM": true,
        "attackAttenuation": ""
    },
    "SceneObj_Quest_Mengde_City_FlyMission_Target": {
        "$type": "IOHCOOOBCPH",
        "model": {
            "bornEffect": "",
            "attachEffect": "Eff_FlyRace_Goal_Marker_Ambor"
        },
        "KNGBEDDABOM": true,
        "attackAttenuation": ""
    },
    "SceneObj_Quest_Mengde_Dungeon_Top_Effect": {
        "$type": "IOHCOOOBCPH",
        "model": {
            "bornEffect": "",
            "attachEffect": "Eff_DungeonLight_01"
        },
        "KNGBEDDABOM": true,
        "attackAttenuation": ""
    },
    "SceneObj_Quest_Lisa_Dungeon_Seal": {
        "$type": "IOHCOOOBCPH",
        "model": {
            "bornEffect": "",
            "attachEffect": "Eff_LisaDungeon_Seal_01"
        },
        "KNGBEDDABOM": true,
        "attackAttenuation": ""
    },
    "SceneObj_Quest_Lisa_Dungeon_Seal_Break": {
        "$type": "IOHCOOOBCPH",
        "model": {
            "bornEffect": "",
            "attachEffect": "Eff_LisaDungeon_Seal_01_Break"
        },
        "KNGBEDDABOM": true,
        "attackAttenuation": ""
    },
    "SceneObj_Quest_Lisa_Skill_StickElectric": {
        "$type": "IOHCOOOBCPH",
        "model": {
            "bornEffect": "",
            "attachEffect": "Eff_Element_StickElectric"
        },
        "KNGBEDDABOM": true,
        "attackAttenuation": ""
    },
    "SceneObj_Quest_SeaLantern_ThiefRegimentMark": {
        "$type": "IOHCOOOBCPH",
        "model": {
            "bornEffect": "",
            "attachEffect": "Eff_Thoarder_GroundRune_01"
        },
        "KNGBEDDABOM": true,
        "attackAttenuation": ""
    },
    "SceneObj_Quest_Xiaoming_Smoke_BeFound": {
        "$type": "IOHCOOOBCPH",
        "model": {
            "bornEffect": "",
            "attachEffect": "Eff_Avatar_Girl_Pole_Xiangling_PandaBorn"
        },
        "KNGBEDDABOM": true,
        "attackAttenuation": ""
    },
    "SceneObj_Quest_Xingqiu_LookBook_Effect": {
        "$type": "IOHCOOOBCPH",
        "model": {
            "bornEffect": "",
            "attachEffect": "Eff_Avatar_Boy_Sword_Xingqiu_Show_01_Loop"
        },
        "KNGBEDDABOM": true,
        "attackAttenuation": ""
    },
    "SceneObj_Quest_Anbai_Dungeon_Fog_Effect": {
        "$type": "IOHCOOOBCPH",
        "model": {
            "bornEffect": "",
            "attachEffect": "Eff_Stages_HoleGate02_Vo"
        },
        "KNGBEDDABOM": true,
        "attackAttenuation": ""
    },
    "SceneObj_Quest_QuestGuide_Position": {
        "$type": "IOHCOOOBCPH",
        "model": {
            "bornEffect": "",
            "attachEffect": "Eff_QuestGuide_Position"
        },
        "KNGBEDDABOM": true,
        "attackAttenuation": ""
    },
    "SceneObj_Quest_NightStone_Car_Effect": {
        "$type": "IOHCOOOBCPH",
        "model": {
            "bornEffect": "",
            "attachEffect": "Eff_SceneObj_Hint_01_Big"
        },
        "KNGBEDDABOM": true,
        "attackAttenuation": ""
    },
    "SceneObj_Quest_Cricket_Sound_Small": {
        "$type": "IOHCOOOBCPH",
        "model": {
            "bornEffect": "",
            "attachEffect": "Eff_Test_Cricket_Sound01"
        },
        "KNGBEDDABOM": true,
        "attackAttenuation": ""
    },
    "SceneObj_Quest_Cricket_Sound_Middle": {
        "$type": "IOHCOOOBCPH",
        "model": {
            "bornEffect": "",
            "attachEffect": "Eff_Test_Cricket_Sound02"
        },
        "KNGBEDDABOM": true,
        "attackAttenuation": ""
    },
    "SceneObj_Quest_Cricket_Sound_Big": {
        "$type": "IOHCOOOBCPH",
        "model": {
            "bornEffect": "",
            "attachEffect": "Eff_Test_Cricket_Sound03"
        },
        "KNGBEDDABOM": true,
        "attackAttenuation": ""
    },
    "SceneObj_Quest_Cricket_Sound_Loud": {
        "$type": "IOHCOOOBCPH",
        "model": {
            "bornEffect": "",
            "attachEffect": "Eff_Test_Cricket_Sound04"
        },
        "KNGBEDDABOM": true,
        "attackAttenuation": ""
    },
    "SceneObj_Quest_Flying_Get_Coin_Effect": {
        "$type": "IOHCOOOBCPH",
        "model": {
            "bornEffect": "",
            "attachEffect": "Eff_FlyRace_Marker_Active"
        },
        "KNGBEDDABOM": true,
        "attackAttenuation": ""
    },
    "SceneObj_Quest_Flying_Get_GoalFollower_Effect": {
        "$type": "IOHCOOOBCPH",
        "model": {
            "bornEffect": "",
            "attachEffect": "Eff_FlyRace_Goal_Marker"
        },
        "KNGBEDDABOM": true,
        "attackAttenuation": ""
    },
    "SceneObj_Quest_Flying_Get_GoalFollower_Disappear_Effect": {
        "$type": "IOHCOOOBCPH",
        "model": {
            "bornEffect": "",
            "attachEffect": "Eff_FlyRace_Goal_Marker_AS"
        },
        "KNGBEDDABOM": true,
        "attackAttenuation": ""
    },
    "SceneObj_Area_Ly_Property_Ani_Prop_SaltRuler_01": {
        "$type": "IOHCOOOBCPH",
        "model": {
            "bornEffect": "",
            "attachEffect": "Eff_SceneObj_SaltRuler_01"
        },
        "KNGBEDDABOM": true,
        "combat": {
            "property": {
                "HP": 99999.0,
                "isInvincible": true,
                "isLockHP": true
            }
        },
        "attackAttenuation": ""
    },
    "SceneObj_Area_Ly_Property_Ani_Prop_SaltBowl_01": {
        "$type": "IOHCOOOBCPH",
        "model": {
            "bornEffect": "",
            "attachEffect": "Eff_SceneObj_SaltBowl_01"
        },
        "KNGBEDDABOM": true,
        "combat": {
            "property": {
                "HP": 99999.0,
                "isInvincible": true,
                "isLockHP": true
            }
        },
        "attackAttenuation": ""
    },
    "SceneObj_Area_Ly_Property_Prop_EntryMist_01": {
        "$type": "IOHCOOOBCPH",
        "model": {
            "bornEffect": "",
            "attachEffect": "Eff_Stages_HoleGate04"
        },
        "KNGBEDDABOM": true,
        "attackAttenuation": ""
    },
    "SceneObj_Area_Ly_Property_Prop_EntryMistUnderSea_01": {
        "$type": "IOHCOOOBCPH",
        "model": {
            "bornEffect": "",
            "attachEffect": "Eff_Stages_HoleGateUnderWater04"
        },
        "KNGBEDDABOM": true,
        "attackAttenuation": ""
    },
    "SceneObj_Area_Ly_Property_Prop_EntryMist_02": {
        "$type": "IOHCOOOBCPH",
        "model": {
            "bornEffect": "",
            "attachEffect": "Eff_Stages_HoleGate03"
        },
        "KNGBEDDABOM": true,
        "attackAttenuation": ""
    },
    "SceneObj_Area_Ly_Property_Ani_Prop_TransmitSetting_01": {
        "$type": "IOHCOOOBCPH",
        "model": {
            "bornEffect": "",
            "attachEffect": "Eff_SceneObj_TransmitSetting_FlyStone"
        },
        "KNGBEDDABOM": true,
        "attackAttenuation": ""
    },
    "SceneObj_Level_Common_Property_Prop_MonsterProtal_01": {
        "$type": "IOHCOOOBCPH",
        "model": {
            "bornEffect": "",
            "attachEffect": "Eff_SceneObj_MonsterProtal_01"
        },
        "KNGBEDDABOM": true,
        "attackAttenuation": "",
        "BDPGABAMMPP": {
            "lifeTime": 5.0
        }
    },
    "SceneObj_Quest_Gravity_Board_Great_Switch": {
        "$type": "IOHCOOOBCPH",
        "KNGBEDDABOM": true,
        "attackAttenuation": "",
        "abilities": [
            {
                "abilityID": "Ability_01",
                "abilityName": "SceneObj_Quest_Gravity_Board_Great_Switch",
                "abilityOverride": ""
            }
        ],
        "NEPNGCGEAOL": {
            "MJDNEHMOFEA": [
                {
                    "$type": "DLMIEELFJNB",
                    "parameter": "gadgetState",
                    "type": "Int",
                    "healLimitedByCasterMaxHPRatio": "Eff_SceneObj_Gear_Gravity_Lv1"
                },
                {
                    "$type": "DLMIEELFJNB",
                    "GEBLEANKIHJ": "GearStart",
                    "parameter": "gadgetState",
                    "type": "Int",
                    "value": 201,
                    "healLimitedByCasterMaxHPRatio": "Eff_SceneObj_Gear_Gravity_Lv1"
                },
                {
                    "$type": "DLMIEELFJNB",
                    "parameter": "gadgetState",
                    "type": "Int",
                    "healLimitedByCasterMaxHPRatio": "Eff_SceneObj_Gear_Gravity_Lv2"
                },
                {
                    "$type": "DLMIEELFJNB",
                    "GEBLEANKIHJ": "GearStart",
                    "parameter": "gadgetState",
                    "type": "Int",
                    "value": 201,
                    "healLimitedByCasterMaxHPRatio": "Eff_SceneObj_Gear_Gravity_Lv2"
                },
                {
                    "$type": "DLMIEELFJNB",
                    "parameter": "gadgetState",
                    "type": "Int",
                    "healLimitedByCasterMaxHPRatio": "Eff_SceneObj_Gear_Gravity_Lv3"
                },
                {
                    "$type": "DLMIEELFJNB",
                    "GEBLEANKIHJ": "GearStart",
                    "parameter": "gadgetState",
                    "type": "Int",
                    "value": 201,
                    "healLimitedByCasterMaxHPRatio": "Eff_SceneObj_Gear_Gravity_Lv3"
                },
                {
                    "$type": "DLMIEELFJNB",
                    "parameter": "gadgetState",
                    "type": "Int",
                    "healLimitedByCasterMaxHPRatio": "Eff_SceneObj_Gear_Gravity_Center"
                },
                {
                    "$type": "DLMIEELFJNB",
                    "GEBLEANKIHJ": "GearStart",
                    "parameter": "gadgetState",
                    "type": "Int",
                    "value": 201,
                    "healLimitedByCasterMaxHPRatio": "Eff_SceneObj_Gear_Gravity_Center"
                }
            ]
        }
    },
    "SceneObj_Area_Common_Property_Ani_Ajar_ElementBreathFire_01": {
        "$type": "IOHCOOOBCPH",
        "KNGBEDDABOM": true,
        "attackAttenuation": "",
        "abilities": [
            {
                "abilityID": "ElementBreathFireEffect",
                "abilityName": "ElementBreathFireEffect",
                "abilityOverride": ""
            }
        ],
        "field": {
            "concernType": "LocalAvatar",
            "shape": "CircleR2",
            "AGKCOGKCAGC": "",
            "triggerInfinite": true,
            "lifeInfinite": true,
            "checkInterval": 0.5,
            "overwriteCampType": true,
            "campType": "SelfCamp",
            "PKBIFJFAJEK": "",
            "CJIOPEJJHDM": ""
        },
        "DDOEFBHBEPJ": {
            "PKABANPMJCL": {
                "EHGGNLFEJLK": "Select",
                "DALPHLBLMHD": true,
                "bornEffect": "",
                "HBAJPKPHOMN": "",
                "DKDLKFDICEM": ""
            },
            "HGJJHLBEICG": ""
        }
    },
    "SceneObj_Area_Common_Property_Ani_Ajar_ElementBreathWind_01": {
        "$type": "IOHCOOOBCPH",
        "KNGBEDDABOM": true,
        "attackAttenuation": "",
        "abilities": [
            {
                "abilityID": "ElementBreathWindEffect",
                "abilityName": "ElementBreathWindEffect",
                "abilityOverride": ""
            }
        ],
        "field": {
            "concernType": "LocalAvatar",
            "shape": "CircleR2",
            "AGKCOGKCAGC": "",
            "triggerInfinite": true,
            "lifeInfinite": true,
            "checkInterval": 0.5,
            "overwriteCampType": true,
            "campType": "SelfCamp",
            "PKBIFJFAJEK": "",
            "CJIOPEJJHDM": ""
        },
        "DDOEFBHBEPJ": {
            "PKABANPMJCL": {
                "EHGGNLFEJLK": "Select",
                "DALPHLBLMHD": true,
                "bornEffect": "",
                "HBAJPKPHOMN": "",
                "DKDLKFDICEM": ""
            },
            "HGJJHLBEICG": ""
        }
    },
    "SceneObj_Area_Common_Property_Ani_Ajar_ElementBreathElec_01": {
        "$type": "IOHCOOOBCPH",
        "KNGBEDDABOM": true,
        "attackAttenuation": "",
        "abilities": [
            {
                "abilityID": "ElementBreathElecEffect",
                "abilityName": "ElementBreathElecEffect",
                "abilityOverride": ""
            }
        ],
        "field": {
            "concernType": "LocalAvatar",
            "shape": "CircleR2",
            "AGKCOGKCAGC": "",
            "triggerInfinite": true,
            "lifeInfinite": true,
            "checkInterval": 0.5,
            "overwriteCampType": true,
            "campType": "SelfCamp",
            "PKBIFJFAJEK": "",
            "CJIOPEJJHDM": ""
        },
        "DDOEFBHBEPJ": {
            "PKABANPMJCL": {
                "EHGGNLFEJLK": "Select",
                "DALPHLBLMHD": true,
                "bornEffect": "",
                "HBAJPKPHOMN": "",
                "DKDLKFDICEM": ""
            },
            "HGJJHLBEICG": ""
        }
    },
    "SceneObj_Stages_Property_Prop_QuestSeekerSeelie_01": {
        "$type": "IOHCOOOBCPH",
        "model": {
            "bornEffect": "",
            "attachEffect": "Eff_SceneObj_SeekerSeelie_03_NoFollow"
        },
        "KNGBEDDABOM": true,
        "attackAttenuation": ""
    },
    "SceneObj_Stages_Property_Prop_AdeptusPermit_01": {
        "$type": "IOHCOOOBCPH",
        "model": {
            "bornEffect": "",
            "attachEffect": "Eff_Quest_LY_NPC_Spelling_AdeptusPermit_01"
        },
        "KNGBEDDABOM": true,
        "attackAttenuation": ""
    },
    "SceneObj_Level_Common_Property_Light_Lantern_EverLit_01_Pick": {
        "$type": "IOHCOOOBCPH",
        "combat": {
            "property": {
                "HP": 99999.0,
                "isInvincible": true,
                "isLockHP": true,
                "canTriggerBullet": true,
                "denyElementStick": true
            },
            "die": {
                "dieEndTime": 0.20000000298023224,
                "dieForceDisappearTime": 0.30000001192092896,
                "dieDisappearEffect": "Eff_Quest_Lantern_EverLit_01_Disappear",
                "dieShaderData": "GadgetDie",
                "dieModelFadeDelay": 0.10000000149011612
            }
        },
        "attackAttenuation": "",
        "DDOEFBHBEPJ": {
            "PKABANPMJCL": {
                "EHGGNLFEJLK": "Select",
                "DALPHLBLMHD": true,
                "bornEffect": "",
                "HBAJPKPHOMN": "",
                "DKDLKFDICEM": ""
            },
            "HGJJHLBEICG": ""
        }
    },
    "SceneObj_Level_Common_Property_Light_Lantern_EverLit_02_Pick": {
        "$type": "IOHCOOOBCPH",
        "combat": {
            "property": {
                "HP": 99999.0,
                "isInvincible": true,
                "isLockHP": true,
                "canTriggerBullet": true,
                "denyElementStick": true
            },
            "die": {
                "dieEndTime": 0.10000000149011612,
                "dieForceDisappearTime": 0.30000001192092896,
                "dieDisappearEffect": "Eff_Quest_Lantern_EverLit_02_Disappear",
                "dieShaderData": "GadgetDie",
                "dieModelFadeDelay": 0.10000000149011612
            }
        },
        "attackAttenuation": "",
        "DDOEFBHBEPJ": {
            "PKABANPMJCL": {
                "EHGGNLFEJLK": "Select",
                "DALPHLBLMHD": true,
                "bornEffect": "",
                "HBAJPKPHOMN": "",
                "DKDLKFDICEM": ""
            },
            "HGJJHLBEICG": ""
        }
    },
    "SceneObj_Environment_FireMaterial_CookingPotSnowMountain_Louder": {
        "$type": "IOHCOOOBCPH",
        "common": {
            "affectedByWorld": true
        },
        "customAttackShape": {
            "KFCFEHANAHI": {
                "EHCDFIBKNMN": 0.20000000298023224
            }
        },
        "KNGBEDDABOM": true,
        "combat": {
            "property": {
                "HP": 99999.0,
                "attack": 20.0,
                "weight": 50.0,
                "isLockHP": true,
                "ABKGDMJEMJJ": true
            },
            "beHit": {
                "hitBloodEffect": "",
                "hitAutoRedirect": false,
                "muteAllHitText": true
            },
            "combatLock": {
                "lockShape": "CircleLockEnemy",
                "denyLockOn": true,
                "lockType": "Gadget_Lv1"
            }
        },
        "attackAttenuation": "",
        "abilities": [
            {
                "abilityID": "SceneObj_Environment_FireMaterial_CookingPotSnowMountain_Interact_Louder",
                "abilityName": "SceneObj_Environment_FireMaterial_CookingPotSnowMountain_Interact_Louder",
                "abilityOverride": ""
            }
        ],
        "JJENAKLGBNC": {
            "BGJCIKIOCLM": "TEST/TEST_Cook_Btn",
            "ALEGNEJBLAF": "UI_COOKING_QTE_TITLE",
            "icon": "",
            "KKMMGKBKLNB": "",
            "GEDPHHDMFAD": "",
            "NIBCCLBLADB": ""
        },
        "LDKDJEDNDOM": true
    },
    "SceneObj_Area_Dq_Property_Ani_Prop_DqBonfire_01": {
        "$type": "IOHCOOOBCPH",
        "common": {
            "affectedByWorld": true
        },
        "customAttackShape": {
            "KFCFEHANAHI": {
                "EHCDFIBKNMN": 0.20000000298023224
            }
        },
        "KNGBEDDABOM": true,
        "combat": {
            "property": {
                "HP": 99999.0,
                "attack": 20.0,
                "weight": 50.0,
                "isLockHP": true,
                "ABKGDMJEMJJ": true
            },
            "beHit": {
                "hitBloodEffect": "",
                "hitAutoRedirect": false,
                "muteAllHitText": true
            },
            "combatLock": {
                "lockShape": "CircleLockEnemy",
                "denyLockOn": true,
                "lockType": "Gadget_Lv1"
            }
        },
        "attackAttenuation": "",
        "abilities": [
            {
                "abilityID": "SceneObj_Area_Dq_Property_Ani_Prop_DqBonfire_01",
                "abilityName": "SceneObj_Area_Dq_Property_Ani_Prop_DqBonfire_01",
                "abilityOverride": ""
            }
        ],
        "LDKDJEDNDOM": true
    },
    "SceneObj_Area_Dq_Property_Ani_Prop_BBQSumire_01": {
        "$type": "IOHCOOOBCPH",
        "common": {
            "affectedByWorld": true
        },
        "customAttackShape": {
            "KFCFEHANAHI": {
                "EHCDFIBKNMN": 0.20000000298023224
            }
        },
        "KNGBEDDABOM": true,
        "combat": {
            "property": {
                "HP": 99999.0,
                "attack": 20.0,
                "weight": 50.0,
                "isLockHP": true,
                "ABKGDMJEMJJ": true
            },
            "beHit": {
                "hitBloodEffect": "",
                "hitAutoRedirect": false,
                "muteAllHitText": true
            },
            "combatLock": {
                "lockShape": "CircleLockEnemy",
                "denyLockOn": true,
                "lockType": "Gadget_Lv1"
            }
        },
        "attackAttenuation": "",
        "abilities": [
            {
                "abilityID": "SceneObj_Area_Dq_Property_Ani_Prop_BBQSumire_01",
                "abilityName": "SceneObj_Area_Dq_Property_Ani_Prop_BBQSumire_01",
                "abilityOverride": ""
            }
        ],
        "LDKDJEDNDOM": true
    },
    "SceneObj_Stages_Property_Prop_Demonize_01": {
        "$type": "IOHCOOOBCPH",
        "model": {
            "bornEffect": "",
            "attachEffect": "Eff_Quest_Monster_Demonize_01"
        },
        "KNGBEDDABOM": true,
        "attackAttenuation": ""
    },
    "SceneObj_Level_Common_Property_Prop_ThunderFall_01": {
        "$type": "IOHCOOOBCPH",
        "model": {
            "bornEffect": "Eff_ThunderFall_01",
            "attachEffect": ""
        },
        "KNGBEDDABOM": true,
        "attackAttenuation": "",
        "abilities": [
            {
                "abilityID": "Ability_01",
                "abilityName": "SceneObj_Level_Common_Property_Prop_ThunderFall_01_Ability",
                "abilityOverride": ""
            }
        ]
    },
    "SceneObj_Level_Common_Property_Prop_RealThunderFall_01": {
        "$type": "IOHCOOOBCPH",
        "KNGBEDDABOM": true,
        "attackAttenuation": "",
        "abilities": [
            {
                "abilityID": "Ability_01",
                "abilityName": "SceneObj_Level_Common_Property_Prop_RealThunderFall_01_Ability",
                "abilityOverride": ""
            }
        ]
    },
    "SceneObj_Level_Common_Property_Prop_FireworksExplosion_01": {
        "$type": "IOHCOOOBCPH",
        "KNGBEDDABOM": true,
        "attackAttenuation": "",
        "abilities": [
            {
                "abilityID": "Ability_01",
                "abilityName": "SceneObj_Level_Common_Property_Prop_FireworksExplosion_01_Ability",
                "abilityOverride": ""
            }
        ]
    },
    "SceneObj_Stages_Property_Terrain_Mist_01": {
        "$type": "IOHCOOOBCPH",
        "model": {
            "bornEffect": "",
            "attachEffect": "Eff_Quest_LY_WWP_Mist_01"
        },
        "KNGBEDDABOM": true,
        "attackAttenuation": ""
    },
    "SceneObj_Area_Common_Property_Prop_AbyssPower_01": {
        "$type": "IOHCOOOBCPH",
        "model": {
            "bornEffect": "",
            "attachEffect": "Eff_Quest_Goddess_AbyssPower_01_Loop"
        },
        "KNGBEDDABOM": true,
        "attackAttenuation": ""
    },
    "SceneObj_Area_Common_Property_Prop_AbyssSpell_01": {
        "$type": "IOHCOOOBCPH",
        "model": {
            "bornEffect": "",
            "attachEffect": "Eff_Quest_Dainslaif_AbyssSpell_01"
        },
        "KNGBEDDABOM": true,
        "attackAttenuation": ""
    },
    "SceneObj_Quest_Endora": {
        "$type": "IOHCOOOBCPH",
        "model": {
            "bornEffect": "",
            "attachEffect": "Eff_SceneObj_Widget_Endora_01_NoFollow"
        },
        "KNGBEDDABOM": true,
        "attackAttenuation": ""
    },
    "SceneObj_Quest_XiaoSpaceCrack_01": {
        "$type": "IOHCOOOBCPH",
        "KNGBEDDABOM": true,
        "combat": {
            "property": {
                "HP": 99999.0,
                "isInvincible": true,
                "isLockHP": true
            }
        },
        "attackAttenuation": "",
        "abilities": [
            {
                "abilityID": "SceneObj_Quest_XiaoSpaceCrack_01",
                "abilityName": "SceneObj_Quest_XiaoSpaceCrack_01",
                "abilityOverride": ""
            }
        ]
    },
    "SceneObj_Quest_VoidStone_01": {
        "$type": "IOHCOOOBCPH",
        "KNGBEDDABOM": true,
        "combat": {
            "property": {
                "HP": 99999.0,
                "isInvincible": true,
                "isLockHP": true
            }
        },
        "attackAttenuation": "",
        "abilities": [
            {
                "abilityID": "SceneObj_Quest_VoidStone_01",
                "abilityName": "SceneObj_Quest_VoidStone_01",
                "abilityOverride": ""
            }
        ]
    },
    "SceneObj_Quest_XiaoAmber_01": {
        "$type": "IOHCOOOBCPH",
        "KNGBEDDABOM": true,
        "combat": {
            "property": {
                "HP": 99999.0,
                "isInvincible": true,
                "isLockHP": true
            }
        },
        "attackAttenuation": "",
        "abilities": [
            {
                "abilityID": "SceneObj_Quest_XiaoAmber_01",
                "abilityName": "SceneObj_Quest_XiaoAmber_01",
                "abilityOverride": ""
            }
        ]
    },
    "SceneObj_Quest_Demonbreath_01": {
        "$type": "IOHCOOOBCPH",
        "model": {
            "bornEffect": "",
            "attachEffect": "Eff_Quest_Demonbreath_01"
        },
        "KNGBEDDABOM": true,
        "attackAttenuation": ""
    },
    "SceneObj_Level_Common_Property_Prop_NineGrids_01": {
        "$type": "IOHCOOOBCPH",
        "model": {
            "bornEffect": "",
            "attachEffect": "Eff_Quest_Coop_NineGrids_01"
        },
        "KNGBEDDABOM": true,
        "attackAttenuation": ""
    },
    "SceneObj_Area_Common_Property_Prop_GodRay_01": {
        "$type": "IOHCOOOBCPH",
        "model": {
            "bornEffect": "",
            "attachEffect": "Eff_Stages_GodRay_07_Vo"
        },
        "KNGBEDDABOM": true,
        "attackAttenuation": ""
    },
    "SceneObj_Quest_Zhongli2_Dungeon_Dahaka": {
        "$type": "IOHCOOOBCPH",
        "model": {
            "bornEffect": "",
            "attachEffect": "Eff_Quest_Dahaka_Sealed_Circle_Debut"
        },
        "KNGBEDDABOM": true,
        "attackAttenuation": ""
    },
    "SceneObj_Quest_ElementBreath_Rock_Element": {
        "$type": "IOHCOOOBCPH",
        "model": {
            "bornEffect": "",
            "attachEffect": "Eff_Quest_ElementBreath_Rock_Element"
        },
        "KNGBEDDABOM": true,
        "attackAttenuation": ""
    },
    "SceneObj_Area_Common_Property_Prop_Dahaka_01": {
        "$type": "IOHCOOOBCPH",
        "model": {
            "bornEffect": "",
            "attachEffect": "Eff_Quest_Dahaka_Sealed_Circle_Debut"
        },
        "KNGBEDDABOM": true,
        "attackAttenuation": ""
    },
    "SceneObj_Area_Common_Property_Prop_CampSeal_01": {
        "$type": "IOHCOOOBCPH",
        "model": {
            "bornEffect": "",
            "attachEffect": "Eff_Quest_CampSeal_01"
        },
        "KNGBEDDABOM": true,
        "attackAttenuation": "",
        "abilities": [
            {
                "abilityID": "Ability_01",
                "abilityName": "Scene_RockGadget_Summon_Detect",
                "abilityOverride": ""
            }
        ]
    },
    "SceneObj_Area_Common_Property_Prop_PuppetWarriorCrystal_01": {
        "$type": "IOHCOOOBCPH",
        "model": {
            "bornEffect": "",
            "attachEffect": "Eff_Quest_PuppetWarriorCrystal_01"
        },
        "KNGBEDDABOM": true,
        "attackAttenuation": ""
    },
    "SceneObj_Area_Common_Property_Prop_PuppetWarriorCrystal_03": {
        "$type": "IOHCOOOBCPH",
        "model": {
            "bornEffect": "",
            "attachEffect": "Eff_Quest_PuppetWarriorCrystal_03"
        },
        "KNGBEDDABOM": true,
        "attackAttenuation": ""
    },
    "SceneObj_Area_Common_Property_Prop_PuppetWarriorCrystal_04": {
        "$type": "IOHCOOOBCPH",
        "model": {
            "bornEffect": "",
            "attachEffect": "Eff_Quest_PuppetWarriorCrystal_04"
        },
        "KNGBEDDABOM": true,
        "attackAttenuation": ""
    },
    "SceneObj_Area_Common_Property_Prop_ContestAirwall_01": {
        "$type": "IOHCOOOBCPH",
        "model": {
            "bornEffect": "",
            "attachEffect": "Eff_Stage_SealBorder_BattleHalo_08"
        },
        "KNGBEDDABOM": true,
        "attackAttenuation": "",
        "abilities": [
            {
                "abilityID": "Ability_01",
                "abilityName": "Scene_RockGadget_Summon_Detect",
                "abilityOverride": ""
            }
        ]
    },
    "SceneObj_Area_Dq_Property_Foliage_Shrub_Interact_Point_01": {
        "$type": "IOHCOOOBCPH",
        "model": {
            "bornEffect": "",
            "attachEffect": "Eff_Quest_SiteInteract_Event"
        },
        "KNGBEDDABOM": true,
        "attackAttenuation": ""
    },
    "SceneObj_Area_Ly_Property_Prop_EntryMist_03": {
        "$type": "IOHCOOOBCPH",
        "model": {
            "bornEffect": "",
            "attachEffect": "Eff_Stages_HoleGate04"
        },
        "KNGBEDDABOM": true,
        "attackAttenuation": ""
    },
    "SceneObj_Event_MusicPoint_01": {
        "$type": "IOHCOOOBCPH",
        "model": {
            "bornEffect": "",
            "attachEffect": "Eff_QuestGuide_Position"
        },
        "KNGBEDDABOM": true,
        "attackAttenuation": ""
    },
    "SceneObj_Quest_Yoimiya_Fireworks_01": {
        "$type": "IOHCOOOBCPH",
        "model": {
            "bornEffect": "",
            "attachEffect": "Eff_Quest_Yoimiya_Fireworks_01"
        },
        "KNGBEDDABOM": true,
        "attackAttenuation": ""
    },
    "SceneObj_Quest_AbyssGate_01": {
        "$type": "IOHCOOOBCPH",
        "KNGBEDDABOM": true,
        "combat": {
            "property": {
                "HP": 99999.0,
                "isInvincible": true,
                "isLockHP": true
            }
        },
        "attackAttenuation": "",
        "abilities": [
            {
                "abilityID": "SceneObj_Quest_AbyssGate_01",
                "abilityName": "SceneObj_Quest_AbyssGate_01",
                "abilityOverride": ""
            }
        ]
    },
    "SceneObj_Quest_EnergyRay_01": {
        "$type": "IOHCOOOBCPH",
        "KNGBEDDABOM": true,
        "combat": {
            "property": {
                "HP": 99999.0,
                "isInvincible": true,
                "isLockHP": true
            }
        },
        "attackAttenuation": "",
        "abilities": [
            {
                "abilityID": "SceneObj_Quest_EnergyRay_01",
                "abilityName": "SceneObj_Quest_EnergyRay_01",
                "abilityOverride": ""
            }
        ]
    },
    "SceneObj_Quest_EnergyRay_02": {
        "$type": "IOHCOOOBCPH",
        "KNGBEDDABOM": true,
        "combat": {
            "property": {
                "HP": 99999.0,
                "isInvincible": true,
                "isLockHP": true
            }
        },
        "attackAttenuation": "",
        "abilities": [
            {
                "abilityID": "SceneObj_Quest_EnergyRay_02",
                "abilityName": "SceneObj_Quest_EnergyRay_02",
                "abilityOverride": ""
            }
        ]
    },
    "SceneObj_Quest_MechanismBig_01": {
        "$type": "IOHCOOOBCPH",
        "model": {
            "bornEffect": "",
            "attachEffect": "Eff_ScenObj_MechanismBig_03"
        },
        "KNGBEDDABOM": true,
        "attackAttenuation": ""
    },
    "SceneObj_Quest_EnergyRayEnter_01": {
        "$type": "IOHCOOOBCPH",
        "model": {
            "bornEffect": "",
            "attachEffect": "Eff_ScenObj_EnergyRayEnter_01"
        },
        "KNGBEDDABOM": true,
        "attackAttenuation": ""
    },
    "SceneObj_Quest_MechanismBig_02_Monster": {
        "$type": "IOHCOOOBCPH",
        "model": {
            "bornEffect": "",
            "attachEffect": "Eff_ScenObj_MechanismBig_02_Monster"
        },
        "KNGBEDDABOM": true,
        "attackAttenuation": ""
    },
    "SceneObj_Quest_MechanismBig_01_Monster": {
        "$type": "IOHCOOOBCPH",
        "model": {
            "bornEffect": "",
            "attachEffect": "Eff_ScenObj_MechanismBig_01_Monster"
        },
        "KNGBEDDABOM": true,
        "attackAttenuation": ""
    },
    "SceneObj_Quest_VoidDungeonEntrance_01_Element": {
        "$type": "IOHCOOOBCPH",
        "model": {
            "bornEffect": "",
            "attachEffect": "Eff_SceneObj_TowerEnd_01_Ellipse"
        },
        "KNGBEDDABOM": true,
        "attackAttenuation": ""
    },
    "SceneObj_Quest_OpenedVoidGate_01": {
        "$type": "IOHCOOOBCPH",
        "model": {
            "bornEffect": "",
            "attachEffect": "Eff_Quest_OpenedVoidGate_01"
        },
        "KNGBEDDABOM": true,
        "attackAttenuation": ""
    },
    "SceneObj_Quest_Hdj_FireworkLauncher_01": {
        "$type": "IOHCOOOBCPH",
        "model": {
            "bornEffect": "",
            "attachEffect": "Eff_SceneObj_FireworkLauncher_01"
        },
        "KNGBEDDABOM": true,
        "attackAttenuation": ""
    },
    "SceneObj_Quest_DreamIsland_KleePhone_01": {
        "$type": "IOHCOOOBCPH",
        "model": {
            "bornEffect": "",
            "attachEffect": "Eff_SceneObj_KleePhone_01"
        },
        "KNGBEDDABOM": true,
        "attackAttenuation": ""
    },
    "SceneObj_Area_Xm_Property_Prop_Incense_01": {
        "$type": "IOHCOOOBCPH",
        "model": {
            "bornEffect": "",
            "attachEffect": "Eff_SceneObj_Incense_01"
        },
        "KNGBEDDABOM": true,
        "attackAttenuation": ""
    },
    "SceneObj_Area_Xm_Property_Prop_WT_LightBall_01": {
        "$type": "IOHCOOOBCPH",
        "model": {
            "bornEffect": "",
            "attachEffect": "Eff_SceneObj_WT_LightBall"
        },
        "KNGBEDDABOM": true,
        "attackAttenuation": ""
    },
    "SceneObj_Level_Xm_Property_Ani_Prop_Projector_01": {
        "$type": "IOHCOOOBCPH",
        "model": {
            "bornEffect": "",
            "attachEffect": "Eff_SceneObj_Projector_01"
        },
        "KNGBEDDABOM": true,
        "attackAttenuation": ""
    },
    "SceneObj_Area_Xm_Property_Prop_CampBurner_01": {
        "$type": "IOHCOOOBCPH",
        "KNGBEDDABOM": true,
        "combat": {
            "property": {
                "HP": 99999.0,
                "isInvincible": true,
                "isLockHP": true
            },
            "die": {
                "dieEndTime": 0.10000000149011612,
                "dieForceDisappearTime": 0.5,
                "dieDisappearEffect": "Eff_SecenObj_CampBurner_01_Disappear"
            }
        },
        "attackAttenuation": "",
        "abilities": [
            {
                "abilityID": "",
                "abilityName": "SceneObj_Area_Xm_Property_Prop_CampBurner_01",
                "abilityOverride": ""
            }
        ]
    },
    "SceneObj_Area_Common_Property_Prop_FakeFire_01": {
        "$type": "IOHCOOOBCPH",
        "KNGBEDDABOM": true,
        "attackAttenuation": "",
        "abilities": [
            {
                "abilityID": "",
                "abilityName": "SceneObj_Area_Common_Property_Prop_FakeFire_01",
                "abilityOverride": ""
            }
        ]
    },
    "SceneObj_Quest_PantherVoice_01": {
        "$type": "IOHCOOOBCPH",
        "model": {
            "bornEffect": "",
            "attachEffect": "Eff_SceneObj_PantherVoice_01"
        },
        "KNGBEDDABOM": true,
        "attackAttenuation": ""
    },
    "SceneObj_Level_Common_Property_Prop_Worldtreegate_01": {
        "$type": "IOHCOOOBCPH",
        "model": {
            "bornEffect": "",
            "attachEffect": "Eff_SceneObj_Level_Common_Property_Prop_WorldTreeGate_01_Loop"
        },
        "KNGBEDDABOM": true,
        "attackAttenuation": ""
    },
    "SceneObj_Area_Xm_Property_Prop_MemoryInterface_01": {
        "$type": "IOHCOOOBCPH",
        "model": {
            "bornEffect": "",
            "attachEffect": "Eff_SceneObj_MemoryInterface_01"
        },
        "KNGBEDDABOM": true,
        "attackAttenuation": ""
    },
    "SceneObj_Quest_SpecialDisappear_01": {
        "$type": "IOHCOOOBCPH",
        "KNGBEDDABOM": true,
        "combat": {
            "property": {
                "HP": 99999.0,
                "isInvincible": true,
                "isLockHP": true
            }
        },
        "attackAttenuation": "",
        "abilities": [
            {
                "abilityID": "SceneObj_Quest_SpecialDisappear_01",
                "abilityName": "SceneObj_Quest_SpecialDisappear_01",
                "abilityOverride": ""
            }
        ]
    },
    "SceneObj_Quest_Oldmemoryshield_01": {
        "$type": "IOHCOOOBCPH",
        "KNGBEDDABOM": true,
        "combat": {
            "property": {
                "HP": 99999.0,
                "isInvincible": true,
                "isLockHP": true
            }
        },
        "attackAttenuation": "",
        "abilities": [
            {
                "abilityID": "SceneObj_Quest_Oldmemoryshield_01",
                "abilityName": "SceneObj_Quest_Oldmemoryshield_01",
                "abilityOverride": ""
            }
        ]
    },
    "SceneObj_Quest_ElementBreath_Electric_Element": {
        "$type": "IOHCOOOBCPH",
        "model": {
            "bornEffect": "",
            "attachEffect": "Eff_Quest_ElementBreath_Electric_Element"
        },
        "KNGBEDDABOM": true,
        "attackAttenuation": ""
    },
    "SceneObj_Quest_MosterObj_RockGadget_Summon_Detect": {
        "$type": "IOHCOOOBCPH",
        "KNGBEDDABOM": true,
        "attackAttenuation": "",
        "abilities": [
            {
                "abilityID": "Scene_RockGadget_Summon_Detect",
                "abilityName": "Scene_RockGadget_Summon_Detect",
                "abilityOverride": ""
            }
        ]
    },
    "SceneObj_Level_Common_Property_Prop_TravelerQuestDungeonEntrance_01": {
        "$type": "IOHCOOOBCPH",
        "model": {
            "bornEffect": "",
            "attachEffect": "Eff_SceneObj_TravelerQuestDungeonEntrance_01"
        },
        "KNGBEDDABOM": true,
        "attackAttenuation": ""
    },
    "SceneObj_Area_Ly_Property_Ani_Prop_MedicineBottle_01": {
        "$type": "IOHCOOOBCPH",
        "model": {
            "bornEffect": "",
            "attachEffect": "Eff_SceneObj_MedicineBottle_01"
        },
        "KNGBEDDABOM": true,
        "attackAttenuation": ""
    },
    "SceneObj_Area_Ly_Property_Ani_Prop_MedicineBottle_02": {
        "$type": "IOHCOOOBCPH",
        "model": {
            "bornEffect": "",
            "attachEffect": "Eff_SceneObj_MedicineBottle_02"
        },
        "KNGBEDDABOM": true,
        "attackAttenuation": ""
    },
    "SceneObj_Eff_SceneObj_Quset_RemnantsCrystal_Smoke": {
        "$type": "IOHCOOOBCPH",
        "KNGBEDDABOM": true,
        "attackAttenuation": "",
        "abilities": [
            {
                "abilityID": "SceneObj_Eff_SceneObj_Quset_RemnantsCrystal_Smoke",
                "abilityName": "SceneObj_Eff_SceneObj_Quset_RemnantsCrystal_Smoke",
                "abilityOverride": ""
            }
        ]
    },
    "SceneObj_Eff_SceneObj_Area_Ly_Property_Ani_Prop_RemnantsCrystal_04": {
        "$type": "IOHCOOOBCPH",
        "model": {
            "bornEffect": "",
            "attachEffect": "Eff_SceneObj_RemnantsCrystal_04"
        },
        "KNGBEDDABOM": true,
        "attackAttenuation": ""
    },
    "SceneObj_Eff_SceneObj_Area_Ly_Property_Ani_Prop_RemnantsCrystal_05": {
        "$type": "IOHCOOOBCPH",
        "model": {
            "bornEffect": "",
            "attachEffect": "Eff_SceneObj_RemnantsCrystal_05"
        },
        "KNGBEDDABOM": true,
        "attackAttenuation": ""
    },
    "SceneObj_Eff_SceneObj_Area_Ly_Property_Ani_Prop_RemnantsCrystal_06": {
        "$type": "IOHCOOOBCPH",
        "model": {
            "bornEffect": "",
            "attachEffect": "Eff_SceneObj_RemnantsCrystal_06"
        },
        "KNGBEDDABOM": true,
        "attackAttenuation": ""
    },
    "SceneObj_Eff_SceneObj_Area_Ly_Property_Ani_Prop_RemnantsCrystal_07": {
        "$type": "IOHCOOOBCPH",
        "model": {
            "bornEffect": "",
            "attachEffect": "Eff_SceneObj_RemnantsCrystal_07"
        },
        "KNGBEDDABOM": true,
        "attackAttenuation": ""
    },
    "SceneObj_Area_Xm_Property_Ani_Prop_Butterflies_01": {
        "$type": "IOHCOOOBCPH",
        "model": {
            "bornEffect": "",
            "attachEffect": "Eff_SceneObj_Area_Xm_Property_Ani_Prop_Butterflies_01"
        },
        "KNGBEDDABOM": true,
        "attackAttenuation": ""
    },
    "SceneObj_Area_Xm_Property_Ani_Prop_StellarTarget_01": {
        "$type": "IOHCOOOBCPH",
        "model": {
            "bornEffect": "",
            "attachEffect": "Eff_SceneObj_StellarTarget_01"
        },
        "KNGBEDDABOM": true,
        "attackAttenuation": ""
    },
    "SceneObj_Area_Fd_Property_Ani_Build_Perpetuum_01": {
        "$type": "IOHCOOOBCPH",
        "model": {
            "bornEffect": "",
            "attachEffect": "Eff_SceneObj_Fd_FDC_Yongdongji_01"
        },
        "KNGBEDDABOM": true,
        "attackAttenuation": "",
        "abilities": [
            {
                "abilityID": "SceneObj_Area_Fd_Property_Ani_Build_Perpetuum_01",
                "abilityName": "SceneObj_Area_Fd_Property_Ani_Build_Perpetuum_01",
                "abilityOverride": ""
            }
        ]
    },
    "SceneObj_Eff_Quest_FdHotelTea_01": {
        "$type": "IOHCOOOBCPH",
        "model": {
            "bornEffect": "",
            "attachEffect": "Eff_Quest_FdHotelTea_01"
        },
        "KNGBEDDABOM": true,
        "attackAttenuation": ""
    },
    "SceneObj_Eff_Quest_BrokenVase_01": {
        "$type": "IOHCOOOBCPH",
        "model": {
            "bornEffect": "",
            "attachEffect": "Eff_SceneObj_BrokenVase_01_Water_01"
        },
        "KNGBEDDABOM": true,
        "attackAttenuation": ""
    },
    "SceneObj_Eff_Quest_SpotlightQuest_05": {
        "$type": "IOHCOOOBCPH",
        "model": {
            "bornEffect": "",
            "attachEffect": "Eff_ScenObj_SpotlightQuest_05"
        },
        "KNGBEDDABOM": true,
        "attackAttenuation": ""
    },
    "SceneObj_Eff_Quest_SpotlightQuest_01": {
        "$type": "IOHCOOOBCPH",
        "model": {
            "bornEffect": "",
            "attachEffect": "Eff_ScenObj_SpotlightQuest_01"
        },
        "KNGBEDDABOM": true,
        "attackAttenuation": ""
    },
    "SceneObj_Eff_Quest_SpotlightQuest_02": {
        "$type": "IOHCOOOBCPH",
        "model": {
            "bornEffect": "",
            "attachEffect": "Eff_ScenObj_SpotlightQuest_02"
        },
        "KNGBEDDABOM": true,
        "attackAttenuation": ""
    },
    "SceneObj_Eff_Quest_SpotlightQuest_03": {
        "$type": "IOHCOOOBCPH",
        "model": {
            "bornEffect": "",
            "attachEffect": "Eff_ScenObj_SpotlightQuest_03"
        },
        "KNGBEDDABOM": true,
        "attackAttenuation": ""
    },
    "SceneObj_Eff_Quest_SpotlightQuest_04": {
        "$type": "IOHCOOOBCPH",
        "model": {
            "bornEffect": "",
            "attachEffect": "Eff_ScenObj_SpotlightQuest_04"
        },
        "KNGBEDDABOM": true,
        "attackAttenuation": ""
    }
}