{
    "SceneObj_Level_Stage_Ptahur_TSKJ": {
        "$type": "PEMAKBHLNEK",
        "common": {
            "disableTickDistance": 100000.0
        },
        "globalValue": {
            "serverGlobalValues": [
                "SGV_SummonEff"
            ],
            "initServerGlobalValues": {
                "SGV_SummonEff": 0.0
            }
        },
        "LAEDCIHCNJG": true,
        "combat": {
            "property": {
                "HP": 1000.0,
                "attack": 100.0,
                "weight": 50.0,
                "isLockHP": true,
                "isGhostToEnemy": true,
                "DNGKKBCFJII": false
            },
            "beHit": {
                "hitBloodEffect": "",
                "hitAutoRedirect": false,
                "OFKMFHKFECF": true,
                "muteAllHitEffect": true,
                "muteAllHitText": true
            },
            "combatLock": {
                "lockShape": "CircleLockEnemy",
                "denyLockOn": true,
                "lockType": "Gadget_Lv1"
            },
            "die": {
                "dieForceDisappearTime": 0.10000000149011612,
                "dieDisappearEffect": ""
            }
        },
        "combatTemplate": "",
        "abilities": [
            {
                "abilityID": "SceneObj_Level_Stage_Ptahur_TSKJ",
                "abilityName": "SceneObj_Level_Stage_Ptahur_TSKJ",
                "abilityOverride": ""
            }
        ],
        "OJPDAPJAJAI": {
            "JJFLGMPDOIP": [
                {
                    "$type": "MBMAEIHJLBA",
                    "intID": "State",
                    "ONMBAIMGAMM": true
                }
            ]
        }
    },
    "SceneObj_Level_Decal_Ptahur_TSKJ": {
        "$type": "PEMAKBHLNEK",
        "common": {
            "disableTickDistance": 100000.0
        },
        "LAEDCIHCNJG": true,
        "combat": {
            "property": {
                "HP": 1000.0,
                "attack": 100.0,
                "weight": 50.0,
                "isLockHP": true,
                "isGhostToEnemy": true,
                "DNGKKBCFJII": false
            },
            "beHit": {
                "hitBloodEffect": "",
                "hitAutoRedirect": false,
                "OFKMFHKFECF": true,
                "muteAllHitEffect": true,
                "muteAllHitText": true
            },
            "combatLock": {
                "lockShape": "CircleLockEnemy",
                "denyLockOn": true,
                "lockType": "Gadget_Lv1"
            },
            "die": {
                "dieForceDisappearTime": 0.10000000149011612,
                "dieDisappearEffect": ""
            }
        },
        "combatTemplate": "",
        "abilities": [
            {
                "abilityID": "SceneObj_Level_Decal_Ptahur_TSKJ",
                "abilityName": "SceneObj_Level_Decal_Ptahur_TSKJ",
                "abilityOverride": ""
            }
        ]
    }
}