{
    "Scorpion_Sacred_SacredAttack03_Bullet": {
        "$type": "PEMAKBHLNEK",
        "common": {
            "effectAttachShape": {
                "$type": "PBJLPIBAGLF"
            }
        },
        "combat": {
            "property": {
                "useCreatorProperty": true,
                "HP": 999999.0,
                "defense": 999999.0,
                "isInvincible": true,
                "isGhostToAllied": true,
                "isGhostToEnemy": true
            },
            "beHit": {
                "hitBloodEffect": "",
                "OFKMFHKFECF": true,
                "muteAllHitEffect": true,
                "muteAllHitText": true
            },
            "combatLock": {
                "lockShape": "CircleLockEnemy",
                "denyLockOn": true,
                "lockType": "Default"
            }
        },
        "combatTemplate": "",
        "abilities": [
            {
                "abilityID": "",
                "abilityName": "Monster_Scorpion_Sacred_SacredEnergy_Create",
                "abilityOverride": ""
            },
            {
                "abilityID": "",
                "abilityName": "Monster_Scorpion_Sacred_SacredEnergy_CreateO",
                "abilityOverride": ""
            }
        ],
        "HFAEAOCAIOL": {
            "lifeTime": 0.10000000149011612
        },
        "move": {
            "$type": "LCCKMECMKBG",
            "EIEIGIPKLAO": {
                "excludeForces": [
                    "WindZoneType"
                ]
            },
            "speed": 40.0
        },
        "LMIGFNJNNCG": {
            "$type": "OKOALHENOCF",
            "collision": {
                "targetType": "Enemy"
            },
            "IMCFCCCOGAA": [
                {
                    "$type": "ADJNDLDECBK",
                    "abilityName": "Monster_Scorpion_Sacred_SacredEnergy_Create"
                }
            ],
            "NPGJNFJEKPL": [
                {
                    "$type": "ADJNDLDECBK",
                    "abilityName": "Monster_Scorpion_Sacred_SacredEnergy_CreateO"
                }
            ]
        }
    },
    "Scorpion_Sacred_SacredAttack05_Bullet": {
        "$type": "PEMAKBHLNEK",
        "common": {
            "effectAttachShape": {
                "$type": "PBJLPIBAGLF"
            }
        },
        "combat": {
            "property": {
                "useCreatorProperty": true,
                "HP": 999999.0,
                "attack": 10.0,
                "defense": 999999.0,
                "isInvincible": true,
                "isGhostToAllied": true,
                "isGhostToEnemy": true
            },
            "beHit": {
                "hitBloodEffect": "",
                "OFKMFHKFECF": true,
                "muteAllHitEffect": true,
                "muteAllHitText": true
            },
            "combatLock": {
                "lockShape": "CircleLockEnemy",
                "denyLockOn": true,
                "lockType": "Default"
            },
            "simulatePhysics": {}
        },
        "combatTemplate": "",
        "abilities": [
            {
                "abilityID": "",
                "abilityName": "Monster_Scorpion_Sacred_Attack05_BulletExplode",
                "abilityOverride": ""
            }
        ],
        "HFAEAOCAIOL": {
            "lifeTime": 5.0
        },
        "move": {
            "$type": "AFBEKDEOMLD",
            "EIEIGIPKLAO": {
                "excludeForces": [
                    "WindZoneType"
                ]
            }
        },
        "LMIGFNJNNCG": {
            "$type": "HNBCBPKEPBB",
            "collision": {},
            "IMCFCCCOGAA": [
                {
                    "$type": "ADJNDLDECBK",
                    "abilityName": "Monster_Scorpion_Sacred_Attack05_BulletExplode"
                }
            ],
            "NPGJNFJEKPL": [
                {
                    "$type": "ADJNDLDECBK",
                    "abilityName": "Monster_Scorpion_Sacred_Attack05_BulletExplode"
                }
            ],
            "JFMHINCCKBB": true,
            "LNMMOKJDHHI": {
                "$type": "JIDNOGLBICI",
                "HMGKAKGAJLE": "Eff_Monster_Scorpion_Sacred_SacredAttack05_Bullet"
            }
        }
    },
    "Scorpion_Sacred_SacredAttack05_Bullet2": {
        "$type": "PEMAKBHLNEK",
        "common": {
            "effectAttachShape": {
                "$type": "PBJLPIBAGLF"
            }
        },
        "combat": {
            "property": {
                "useCreatorProperty": true,
                "HP": 999999.0,
                "attack": 10.0,
                "defense": 999999.0,
                "isInvincible": true,
                "isGhostToAllied": true,
                "isGhostToEnemy": true
            },
            "beHit": {
                "hitBloodEffect": "",
                "OFKMFHKFECF": true,
                "muteAllHitEffect": true,
                "muteAllHitText": true
            },
            "combatLock": {
                "lockShape": "CircleLockEnemy",
                "denyLockOn": true,
                "lockType": "Default"
            },
            "simulatePhysics": {}
        },
        "combatTemplate": "",
        "abilities": [
            {
                "abilityID": "",
                "abilityName": "Monster_Scorpion_Sacred_Attack05_BulletExplode",
                "abilityOverride": ""
            }
        ],
        "HFAEAOCAIOL": {
            "lifeTime": 5.0
        },
        "move": {
            "$type": "AFBEKDEOMLD",
            "EIEIGIPKLAO": {
                "excludeForces": [
                    "WindZoneType"
                ]
            }
        },
        "LMIGFNJNNCG": {
            "$type": "HNBCBPKEPBB",
            "collision": {},
            "IMCFCCCOGAA": [
                {
                    "$type": "ADJNDLDECBK",
                    "abilityName": "Monster_Scorpion_Sacred_Attack05_BulletExplode"
                }
            ],
            "NPGJNFJEKPL": [
                {
                    "$type": "ADJNDLDECBK",
                    "abilityName": "Monster_Scorpion_Sacred_Attack05_BulletExplode"
                }
            ],
            "JFMHINCCKBB": true,
            "LNMMOKJDHHI": {
                "$type": "JIDNOGLBICI",
                "HMGKAKGAJLE": "Eff_Monster_Scorpion_Sacred_SacredAttack05_Bullet_01"
            }
        }
    },
    "Scorpion_Sacred_SacredEnergy_Accum": {
        "$type": "PEMAKBHLNEK",
        "common": {
            "effectAttachShape": {
                "$type": "PBJLPIBAGLF"
            }
        },
        "combat": {
            "property": {
                "useCreatorProperty": true,
                "HP": 999999.0,
                "attack": 10.0,
                "defense": 999999.0,
                "isInvincible": true,
                "isGhostToAllied": true,
                "isGhostToEnemy": true
            },
            "beHit": {
                "hitBloodEffect": "",
                "OFKMFHKFECF": true,
                "muteAllHitEffect": true,
                "muteAllHitText": true
            },
            "combatLock": {
                "lockShape": "CircleLockEnemy",
                "denyLockOn": true,
                "lockType": "Default"
            },
            "simulatePhysics": {}
        },
        "combatTemplate": "",
        "abilities": [
            {
                "abilityID": "",
                "abilityName": "Monster_Scorpion_Sacred_SacredEnergy_Accum",
                "abilityOverride": ""
            }
        ],
        "HFAEAOCAIOL": {
            "lifeTime": 5.0
        },
        "move": {
            "$type": "AFBEKDEOMLD",
            "EIEIGIPKLAO": {
                "excludeForces": [
                    "WindZoneType"
                ]
            }
        },
        "LMIGFNJNNCG": {
            "$type": "HNBCBPKEPBB",
            "collision": {
                "ignoreScene": true
            },
            "JFMHINCCKBB": true,
            "LNMMOKJDHHI": {
                "$type": "JIDNOGLBICI",
                "HMGKAKGAJLE": "Eff_Monster_Scorpion_Sacred_SacredAttack05_SacredEnergy_Bullet"
            }
        }
    },
    "Scorpion_Sacred_SacredEnergy_Gadget": {
        "$type": "PEMAKBHLNEK",
        "common": {
            "effectAttachShape": {
                "$type": "PBJLPIBAGLF"
            }
        },
        "specialPoint": {
            "elementAbsorb": "RootNode",
            "elementPendant": "",
            "elementDrop": "RootNode",
            "bulletAim": "BulletAimPoint",
            "hitPoints": [
                "BulletAimPoint"
            ],
            "selectedPoints": [
                "BulletAimPoint"
            ]
        },
        "combat": {
            "property": {
                "useCreatorProperty": true,
                "HP": 999999.0,
                "attack": 10.0,
                "defense": 999999.0,
                "isLockHP": true
            },
            "beHit": {
                "hitBloodEffect": "",
                "hitAutoRedirect": false,
                "muteAllHitEffect": true,
                "muteAllHitText": true
            },
            "combatLock": {
                "lockShape": "CircleLockEnemy",
                "lockType": "Avatar&Monster_Lv4"
            }
        },
        "combatTemplate": "",
        "abilities": [
            {
                "abilityID": "",
                "abilityName": "Monster_Scorpion_Sacred_SacredEnergy_Gadget",
                "abilityOverride": ""
            }
        ],
        "HFAEAOCAIOL": {
            "lifeTime": 15.0
        },
        "billboard": {
            "$type": "PAOBAEKGGBC",
            "attachPoint": "BillboardAttach",
            "LOMMBJLKPHE": 3.0,
            "showDistance": 48.0,
            "KGHAGECNJPO": true,
            "JLCJBGKPEEC": 48.0,
            "musicSubStates": "Grand",
            "KECFPIAHHOK": true
        }
    },
    "Scorpion_Sacred_SacredEnergy_Bullet": {
        "$type": "PEMAKBHLNEK",
        "common": {
            "effectAttachShape": {
                "$type": "PBJLPIBAGLF"
            }
        },
        "combat": {
            "property": {
                "useCreatorProperty": true,
                "HP": 999999.0,
                "attack": 10.0,
                "defense": 999999.0,
                "isInvincible": true,
                "isGhostToAllied": true,
                "isGhostToEnemy": true
            },
            "beHit": {
                "hitBloodEffect": "",
                "OFKMFHKFECF": true,
                "muteAllHitEffect": true,
                "muteAllHitText": true
            },
            "combatLock": {
                "lockShape": "CircleLockEnemy",
                "denyLockOn": true,
                "lockType": "Default"
            }
        },
        "combatTemplate": "",
        "abilities": [
            {
                "abilityID": "",
                "abilityName": "Monster_Scorpion_Sacred_SacredEnergy_Bullet",
                "abilityOverride": ""
            }
        ],
        "HFAEAOCAIOL": {
            "lifeTime": 7.5
        },
        "move": {
            "$type": "INAEJGFIJGP",
            "EIEIGIPKLAO": {
                "excludeForces": [
                    "WindZoneType"
                ]
            },
            "speed": 10.0,
            "GOEFBCNDLEO": 20.0,
            "DPHMNNPKOOP": 10.0,
            "IPCLPKMFMNE": {
                "$type": "PEKFJJPEJPC"
            },
            "DGDJBBOFMGA": 0.6000000238418579,
            "COHNPOGPCBD": true
        },
        "LMIGFNJNNCG": {
            "$type": "OKOALHENOCF",
            "collision": {
                "triggerType": "TriggerAlways",
                "targetType": "Enemy",
                "ignoreScene": true
            },
            "IMCFCCCOGAA": [
                {
                    "$type": "ADJNDLDECBK",
                    "abilityName": "Monster_Scorpion_Sacred_SacredEnergy_Bullet"
                }
            ],
            "JFMHINCCKBB": true
        }
    },
    "Scorpion_Sacred_SacredEnergy_Bullet_ToMonster": {
        "$type": "PEMAKBHLNEK",
        "common": {
            "effectAttachShape": {
                "$type": "PBJLPIBAGLF"
            }
        },
        "combat": {
            "property": {
                "useCreatorProperty": true,
                "HP": 999999.0,
                "attack": 10.0,
                "defense": 999999.0,
                "isInvincible": true,
                "isGhostToAllied": true,
                "isGhostToEnemy": true
            },
            "beHit": {
                "hitBloodEffect": "",
                "OFKMFHKFECF": true,
                "muteAllHitEffect": true,
                "muteAllHitText": true
            },
            "combatLock": {
                "lockShape": "CircleLockEnemy",
                "denyLockOn": true,
                "lockType": "Default"
            }
        },
        "combatTemplate": "",
        "abilities": [
            {
                "abilityID": "",
                "abilityName": "Monster_Scorpion_Sacred_SacredEnergy_Bullet_ToMonster",
                "abilityOverride": ""
            }
        ],
        "HFAEAOCAIOL": {
            "lifeTime": 10.0
        },
        "move": {
            "$type": "INAEJGFIJGP",
            "EIEIGIPKLAO": {
                "excludeForces": [
                    "WindZoneType"
                ]
            },
            "speed": 10.0,
            "GOEFBCNDLEO": 20.0,
            "DPHMNNPKOOP": 10.0,
            "IPCLPKMFMNE": {
                "$type": "PEKFJJPEJPC"
            },
            "DGDJBBOFMGA": 0.4000000059604645,
            "COHNPOGPCBD": true
        },
        "LMIGFNJNNCG": {
            "$type": "OKOALHENOCF",
            "collision": {
                "triggerType": "TriggerNoRepeat",
                "targetType": "AllExceptSelf",
                "ignoreScene": true
            },
            "IMCFCCCOGAA": [
                {
                    "$type": "ADJNDLDECBK",
                    "abilityName": "Monster_Scorpion_Sacred_SacredEnergy_Bullet_ToMonster"
                }
            ],
            "JFMHINCCKBB": true
        }
    }
}