{
    "SceneObj_Area_Common_Property_Prop_LoopFarView_01": {
        "$type": "PEMAKBHLNEK",
        "common": {
            "disableTickDistance": 150000.0
        },
        "combat": {
            "property": {
                "HP": 99999.0,
                "isInvincible": true,
                "isLockHP": true,
                "isGhostToAllied": true,
                "isGhostToEnemy": true
            }
        },
        "combatTemplate": "",
        "abilities": [
            {
                "abilityID": "SceneObj_Area_Common_Property_Prop_LoopFarView_01",
                "abilityName": "SceneObj_Area_Common_Property_Prop_LoopFarView_01",
                "abilityOverride": ""
            }
        ],
        "OJPDAPJAJAI": {
            "JJFLGMPDOIP": [
                {
                    "$type": "MBMAEIHJLBA",
                    "intID": "GadgetState",
                    "ONMBAIMGAMM": true
                }
            ]
        }
    },
    "SceneObj_Level_Xm_Property_Ani_Prop_RainFlower_01": {
        "$type": "PEMAKBHLNEK",
        "LAEDCIHCNJG": true,
        "combat": {
            "property": {
                "HP": 99999.0,
                "isInvincible": true,
                "isLockHP": true,
                "isGhostToAllied": true,
                "isGhostToEnemy": true
            }
        },
        "combatTemplate": "",
        "abilities": [
            {
                "abilityID": "SceneObj_Level_Xm_Property_Ani_Prop_RainFlower_01",
                "abilityName": "SceneObj_Level_Xm_Property_Ani_Prop_RainFlower_01",
                "abilityOverride": ""
            }
        ]
    },
    "SceneObj_Level_Common_Property_Prop_DreamPortal_01": {
        "$type": "PEMAKBHLNEK",
        "globalValue": {
            "serverGlobalValues": [
                "SGV_DreamPortal_KillAmberBuff"
            ],
            "initServerGlobalValues": {
                "SGV_DreamPortal_KillAmberBuff": 0.0
            }
        },
        "LAEDCIHCNJG": true,
        "combat": {
            "property": {
                "HP": 10000.0,
                "isLockHP": true,
                "isGhostToAllied": true,
                "isGhostToEnemy": true,
                "canTriggerBullet": true
            },
            "beHit": {
                "hitBloodEffect": "",
                "hitAutoRedirect": false,
                "muteAllHitText": true
            },
            "combatLock": {
                "lockShape": "CircleLockEnemy",
                "denyLockOn": true,
                "lockType": "Gadget_Lv1"
            }
        },
        "combatTemplate": "",
        "abilities": [
            {
                "abilityID": "Scene_RockGadget_Summon_Detect",
                "abilityName": "Scene_RockGadget_Summon_Detect",
                "abilityOverride": ""
            },
            {
                "abilityID": "SceneObj_Level_Common_Property_Prop_DreamPortal_01",
                "abilityName": "SceneObj_Level_Common_Property_Prop_DreamPortal_01",
                "abilityOverride": ""
            }
        ],
        "field": {
            "concernType": "AllAvatars",
            "shape": "",
            "fromShape": "",
            "triggerInfinite": true,
            "lifeInfinite": true,
            "checkInterval": 0.5,
            "overwriteCampType": true,
            "campType": "All",
            "colliderName": "",
            "fromColliderName": "",
            "useLevelOverride": true,
            "useLocalTriggerLogic": true
        }
    },
    "SceneObj_Level_Common_Property_Ani_Build_Elevator_Disc_01": {
        "$type": "PEMAKBHLNEK",
        "common": {
            "disableTickDistance": 150000.0
        },
        "combat": {
            "property": {
                "HP": 99999.0,
                "isInvincible": true,
                "isLockHP": true,
                "isGhostToAllied": true,
                "isGhostToEnemy": true
            }
        },
        "combatTemplate": "",
        "abilities": [
            {
                "abilityID": "Scene_RockGadget_Summon_Detect",
                "abilityName": "Scene_RockGadget_Summon_Detect",
                "abilityOverride": ""
            },
            {
                "abilityID": "SceneObj_Level_Common_Property_Ani_Build_Elevator_Disc_01",
                "abilityName": "SceneObj_Level_Common_Property_Ani_Build_Elevator_Disc_01",
                "abilityOverride": ""
            }
        ],
        "move": {
            "$type": "AHEGNHDADND"
        },
        "OJPDAPJAJAI": {
            "JJFLGMPDOIP": [
                {
                    "$type": "MBMAEIHJLBA",
                    "intID": "GadgetState",
                    "ONMBAIMGAMM": true
                }
            ]
        }
    },
    "SceneObj_Level_Xm_Property_Prop_AmberKeyGear_01": {
        "$type": "PEMAKBHLNEK",
        "LAEDCIHCNJG": true,
        "combatTemplate": "default",
        "abilities": [
            {
                "abilityID": "SceneObj_Level_Xm_Property_Prop_AmberKeyGear_01",
                "abilityName": "SceneObj_Level_Xm_Property_Prop_AmberKeyGear_01",
                "abilityOverride": ""
            }
        ],
        "OJPDAPJAJAI": {
            "JJFLGMPDOIP": [
                {
                    "$type": "MBMAEIHJLBA",
                    "intID": "GadgetState",
                    "ONMBAIMGAMM": true
                }
            ]
        }
    },
    "SceneObj_Level_Common_Property_Ani_Build_Elevator_Disc_03": {
        "$type": "PEMAKBHLNEK",
        "LAEDCIHCNJG": true,
        "combat": {
            "property": {
                "HP": 99999.0,
                "isInvincible": true,
                "isLockHP": true,
                "isGhostToAllied": true,
                "isGhostToEnemy": true
            }
        },
        "combatTemplate": "",
        "abilities": [
            {
                "abilityID": "SceneObj_Level_Common_Property_Ani_Build_Elevator_Disc_03",
                "abilityName": "SceneObj_Level_Common_Property_Ani_Build_Elevator_Disc_03",
                "abilityOverride": ""
            }
        ]
    },
    "SceneObj_Level_Common_Property_Ani_Build_Elevator_Disc_02": {
        "$type": "PEMAKBHLNEK",
        "JHPGHJOGCIM": true,
        "LAEDCIHCNJG": true,
        "combat": {
            "property": {
                "HP": 99999.0,
                "isInvincible": true,
                "isLockHP": true,
                "isGhostToAllied": true,
                "isGhostToEnemy": true
            }
        },
        "combatTemplate": "",
        "abilities": [
            {
                "abilityID": "SceneObj_Level_Common_Property_Ani_Build_Elevator_Disc_02",
                "abilityName": "SceneObj_Level_Common_Property_Ani_Build_Elevator_Disc_02",
                "abilityOverride": ""
            }
        ],
        "move": {
            "$type": "AHEGNHDADND"
        },
        "EACGAOPMMEG": {
            "$type": "BOMGFJCLOHG",
            "KOBOPGDMOEE": "",
            "ADACNJNDBAG": "",
            "DPJIALJEJNC": "TurnNode",
            "CBINFBKJGNF": "TurnNode",
            "AKEPEALBJBO": "",
            "DAAHGNGELGJ": "",
            "HDFKJJKJMAL": {
                "text": ""
            },
            "BOBGONKEJML": {
                "text": "Play_amb_sceneObj_gear_elevator_move_03"
            },
            "OKAHKNPBBEE": {
                "text": ""
            },
            "CAANEPAPNIC": {
                "0": {
                    "lerpTime": 1.0
                },
                "101": {
                    "ODDIJJIEKGO": 15.0,
                    "lerpTime": 1.0
                },
                "102": {
                    "ODDIJJIEKGO": 30.0,
                    "lerpTime": 1.0
                },
                "103": {
                    "ODDIJJIEKGO": 45.0,
                    "lerpTime": 1.0
                },
                "104": {
                    "ODDIJJIEKGO": 60.0,
                    "lerpTime": 1.0
                },
                "105": {
                    "ODDIJJIEKGO": 75.0,
                    "lerpTime": 1.0
                },
                "106": {
                    "ODDIJJIEKGO": 90.0,
                    "lerpTime": 1.0
                },
                "107": {
                    "ODDIJJIEKGO": 105.0,
                    "lerpTime": 1.0
                },
                "108": {
                    "ODDIJJIEKGO": 120.0,
                    "lerpTime": 1.0
                },
                "109": {
                    "ODDIJJIEKGO": 135.0,
                    "lerpTime": 1.0
                },
                "110": {
                    "ODDIJJIEKGO": 150.0,
                    "lerpTime": 1.0
                },
                "111": {
                    "ODDIJJIEKGO": 165.0,
                    "lerpTime": 1.0
                },
                "112": {
                    "ODDIJJIEKGO": 180.0,
                    "lerpTime": 1.0
                },
                "113": {
                    "ODDIJJIEKGO": 195.0,
                    "lerpTime": 1.0
                },
                "114": {
                    "ODDIJJIEKGO": 210.0,
                    "lerpTime": 1.0
                },
                "115": {
                    "ODDIJJIEKGO": 225.0,
                    "lerpTime": 1.0
                },
                "116": {
                    "ODDIJJIEKGO": 240.0,
                    "lerpTime": 1.0
                },
                "117": {
                    "ODDIJJIEKGO": 255.0,
                    "lerpTime": 1.0
                },
                "118": {
                    "ODDIJJIEKGO": 270.0,
                    "lerpTime": 1.0
                },
                "119": {
                    "ODDIJJIEKGO": 285.0,
                    "lerpTime": 1.0
                },
                "120": {
                    "ODDIJJIEKGO": 300.0,
                    "lerpTime": 1.0
                },
                "121": {
                    "ODDIJJIEKGO": 315.0,
                    "lerpTime": 1.0
                },
                "122": {
                    "ODDIJJIEKGO": 330.0,
                    "lerpTime": 1.0
                },
                "123": {
                    "ODDIJJIEKGO": 345.0,
                    "lerpTime": 1.0
                },
                "124": {
                    "ODDIJJIEKGO": 360.0,
                    "lerpTime": 1.0
                }
            }
        }
    },
    "SceneObj_Level_Common_Property_Ani_Build_Elevator_Disc_04": {
        "$type": "PEMAKBHLNEK",
        "JHPGHJOGCIM": true,
        "LAEDCIHCNJG": true,
        "combat": {
            "property": {
                "HP": 99999.0,
                "isInvincible": true,
                "isLockHP": true,
                "isGhostToAllied": true,
                "isGhostToEnemy": true
            }
        },
        "combatTemplate": "",
        "abilities": [
            {
                "abilityID": "SceneObj_Level_Common_Property_Ani_Build_Elevator_Disc_02",
                "abilityName": "SceneObj_Level_Common_Property_Ani_Build_Elevator_Disc_02",
                "abilityOverride": ""
            }
        ],
        "move": {
            "$type": "AHEGNHDADND"
        },
        "EACGAOPMMEG": {
            "$type": "BOMGFJCLOHG",
            "KOBOPGDMOEE": "",
            "ADACNJNDBAG": "",
            "DPJIALJEJNC": "TurnNode",
            "CBINFBKJGNF": "TurnNode",
            "AKEPEALBJBO": "",
            "DAAHGNGELGJ": "",
            "HDFKJJKJMAL": {
                "text": ""
            },
            "BOBGONKEJML": {
                "text": "Play_amb_sceneObj_gear_elevator_move_02"
            },
            "OKAHKNPBBEE": {
                "text": ""
            },
            "CAANEPAPNIC": {
                "0": {
                    "lerpTime": 1.0
                },
                "101": {
                    "ODDIJJIEKGO": 15.0,
                    "lerpTime": 1.0
                },
                "102": {
                    "ODDIJJIEKGO": 30.0,
                    "lerpTime": 1.0
                },
                "103": {
                    "ODDIJJIEKGO": 45.0,
                    "lerpTime": 1.0
                },
                "104": {
                    "ODDIJJIEKGO": 60.0,
                    "lerpTime": 1.0
                },
                "105": {
                    "ODDIJJIEKGO": 75.0,
                    "lerpTime": 1.0
                },
                "106": {
                    "ODDIJJIEKGO": 90.0,
                    "lerpTime": 1.0
                },
                "107": {
                    "ODDIJJIEKGO": 105.0,
                    "lerpTime": 1.0
                },
                "108": {
                    "ODDIJJIEKGO": 120.0,
                    "lerpTime": 1.0
                },
                "109": {
                    "ODDIJJIEKGO": 135.0,
                    "lerpTime": 1.0
                },
                "110": {
                    "ODDIJJIEKGO": 150.0,
                    "lerpTime": 1.0
                },
                "111": {
                    "ODDIJJIEKGO": 165.0,
                    "lerpTime": 1.0
                },
                "112": {
                    "ODDIJJIEKGO": 180.0,
                    "lerpTime": 1.0
                },
                "113": {
                    "ODDIJJIEKGO": 195.0,
                    "lerpTime": 1.0
                },
                "114": {
                    "ODDIJJIEKGO": 210.0,
                    "lerpTime": 1.0
                },
                "115": {
                    "ODDIJJIEKGO": 225.0,
                    "lerpTime": 1.0
                },
                "116": {
                    "ODDIJJIEKGO": 240.0,
                    "lerpTime": 1.0
                },
                "117": {
                    "ODDIJJIEKGO": 255.0,
                    "lerpTime": 1.0
                },
                "118": {
                    "ODDIJJIEKGO": 270.0,
                    "lerpTime": 1.0
                },
                "119": {
                    "ODDIJJIEKGO": 285.0,
                    "lerpTime": 1.0
                },
                "120": {
                    "ODDIJJIEKGO": 300.0,
                    "lerpTime": 1.0
                },
                "121": {
                    "ODDIJJIEKGO": 315.0,
                    "lerpTime": 1.0
                },
                "122": {
                    "ODDIJJIEKGO": 330.0,
                    "lerpTime": 1.0
                },
                "123": {
                    "ODDIJJIEKGO": 345.0,
                    "lerpTime": 1.0
                },
                "124": {
                    "ODDIJJIEKGO": 360.0,
                    "lerpTime": 1.0
                }
            }
        }
    },
    "SceneObj_Level_Common_Property_Prop_RailwayIntersection_01": {
        "$type": "PEMAKBHLNEK",
        "combat": {
            "property": {
                "HP": 99999.0,
                "isInvincible": true,
                "isLockHP": true,
                "isGhostToAllied": true,
                "isGhostToEnemy": true
            }
        },
        "combatTemplate": "",
        "EACGAOPMMEG": {
            "$type": "BOMGFJCLOHG",
            "KOBOPGDMOEE": "TurnNode",
            "ADACNJNDBAG": "TurnNode",
            "DPJIALJEJNC": "TurnNode",
            "CBINFBKJGNF": "TurnNode",
            "AKEPEALBJBO": "",
            "DAAHGNGELGJ": "",
            "HDFKJJKJMAL": {
                "text": ""
            },
            "BOBGONKEJML": {
                "text": "Play_amb_sceneObj_gear_railwayIntersection_01"
            },
            "OKAHKNPBBEE": {
                "text": ""
            },
            "CAANEPAPNIC": {
                "0": {
                    "lerpTime": 1.0
                },
                "201": {
                    "ODDIJJIEKGO": 90.0,
                    "lerpTime": 1.0
                },
                "202": {
                    "ODDIJJIEKGO": 180.0,
                    "lerpTime": 1.0
                },
                "203": {
                    "ODDIJJIEKGO": -90.0,
                    "lerpTime": 1.0
                }
            }
        }
    },
    "SceneObj_Area_Xm_Property_Ani_Prop_Paddle_01": {
        "$type": "PEMAKBHLNEK",
        "common": {
            "disableTickDistance": 150000.0
        },
        "combat": {
            "property": {
                "HP": 99999.0,
                "isInvincible": true,
                "isLockHP": true,
                "isGhostToAllied": true,
                "isGhostToEnemy": true
            }
        },
        "combatTemplate": "",
        "stateLayers": {
            "defaultLayer": {
                "$type": "EPAPJJAGHKG",
                "ACOCIAFGIAD": "",
                "stateIDs": {
                    "Active": {
                        "$type": "EHKOCKNMHMO",
                        "DLOHGBDFFGB": {
                            "Active": []
                        },
                        "LAKHIBAPNAB": true
                    }
                }
            }
        },
        "OJPDAPJAJAI": {
            "JJFLGMPDOIP": [
                {
                    "$type": "MBMAEIHJLBA",
                    "intID": "GadgetState",
                    "ONMBAIMGAMM": true
                }
            ]
        }
    },
    "SceneObj_Level_Xm_Property_Ani_Prop_Rudder_01": {
        "$type": "PEMAKBHLNEK",
        "combat": {
            "property": {
                "HP": 99999.0,
                "isInvincible": true,
                "isLockHP": true,
                "isGhostToAllied": true,
                "isGhostToEnemy": true
            }
        },
        "combatTemplate": "",
        "abilities": [
            {
                "abilityID": "Scene_RockGadget_Summon_Detect",
                "abilityName": "Scene_RockGadget_Summon_Detect",
                "abilityOverride": ""
            },
            {
                "abilityID": "SceneObj_Level_Xm_Property_Ani_Prop_Rudder_01",
                "abilityName": "SceneObj_Level_Xm_Property_Ani_Prop_Rudder_01",
                "abilityOverride": ""
            }
        ],
        "stateLayers": {
            "defaultLayer": {
                "$type": "EPAPJJAGHKG",
                "ACOCIAFGIAD": "",
                "stateIDs": {
                    "All": {
                        "$type": "EHKOCKNMHMO",
                        "DLOHGBDFFGB": {
                            "Idle": [],
                            "Active": []
                        }
                    }
                }
            }
        },
        "OJPDAPJAJAI": {
            "JJFLGMPDOIP": [
                {
                    "$type": "MBMAEIHJLBA",
                    "intID": "GadgetState",
                    "ONMBAIMGAMM": true
                }
            ]
        }
    },
    "SceneObj_Level_Common_Property_Water_DreamMoveWaterPanel_01": {
        "$type": "PEMAKBHLNEK",
        "common": {
            "disableTickDistance": 150000.0
        },
        "model": {
            "bornEffect": "",
            "attachEffect": "Eff_SceneObj_DreamMoveWaterPanel_02"
        },
        "LAEDCIHCNJG": true,
        "combat": {
            "property": {
                "HP": 99999.0,
                "isInvincible": true,
                "isLockHP": true,
                "isGhostToAllied": true,
                "isGhostToEnemy": true
            }
        },
        "combatTemplate": "",
        "move": {
            "$type": "AHEGNHDADND",
            "GDEIBGBCCPD": true
        }
    },
    "SceneObj_Level_Common_Property_Water_DreamMoveWaterPanel_02": {
        "$type": "PEMAKBHLNEK",
        "common": {
            "disableTickDistance": 150000.0
        },
        "model": {
            "bornEffect": "",
            "attachEffect": "Eff_SceneObj_DreamMoveWaterPanel_01"
        },
        "LAEDCIHCNJG": true,
        "combat": {
            "property": {
                "HP": 99999.0,
                "isInvincible": true,
                "isLockHP": true,
                "isGhostToAllied": true,
                "isGhostToEnemy": true
            }
        },
        "combatTemplate": "",
        "move": {
            "$type": "AHEGNHDADND",
            "GDEIBGBCCPD": true
        }
    },
    "SceneObj_Other_Property_Prop_BigTreeDungeonEff_01": {
        "$type": "PEMAKBHLNEK",
        "LAEDCIHCNJG": true,
        "combat": {
            "property": {
                "HP": 99999.0,
                "isInvincible": true,
                "isLockHP": true,
                "isGhostToAllied": true,
                "isGhostToEnemy": true
            }
        },
        "combatTemplate": "",
        "abilities": [
            {
                "abilityID": "SceneObj_Other_Property_Prop_BigTreeDungeonEff_01",
                "abilityName": "SceneObj_Other_Property_Prop_BigTreeDungeonEff_01",
                "abilityOverride": ""
            }
        ]
    },
    "SceneObj_Level_Common_Property_Water_Waterfall_01": {
        "$type": "PEMAKBHLNEK",
        "LAEDCIHCNJG": true,
        "combat": {
            "property": {
                "HP": 99999.0,
                "isInvincible": true,
                "isLockHP": true,
                "isGhostToAllied": true,
                "isGhostToEnemy": true
            }
        },
        "combatTemplate": "",
        "abilities": [
            {
                "abilityID": "SceneObj_Level_Common_Property_Water_Waterfall_01",
                "abilityName": "SceneObj_Level_Common_Property_Water_Waterfall_01",
                "abilityOverride": ""
            }
        ]
    },
    "SceneObj_Level_Common_Property_Water_Waterfall_02": {
        "$type": "PEMAKBHLNEK",
        "LAEDCIHCNJG": true,
        "combat": {
            "property": {
                "HP": 99999.0,
                "isInvincible": true,
                "isLockHP": true,
                "isGhostToAllied": true,
                "isGhostToEnemy": true
            }
        },
        "combatTemplate": "",
        "abilities": [
            {
                "abilityID": "SceneObj_Level_Common_Property_Water_Waterfall_02",
                "abilityName": "SceneObj_Level_Common_Property_Water_Waterfall_02",
                "abilityOverride": ""
            }
        ]
    },
    "SceneObj_Gear_Operator_Invisible_LuaTriggerOperator_01": {
        "$type": "PEMAKBHLNEK",
        "LAEDCIHCNJG": true,
        "combat": {
            "property": {
                "HP": 99999.0,
                "isInvincible": true,
                "isLockHP": true,
                "isGhostToAllied": true,
                "isGhostToEnemy": true
            },
            "combatLock": {
                "lockShape": "CircleLockEnemy",
                "denyLockOn": true,
                "lockType": "Default"
            }
        },
        "combatTemplate": "",
        "abilities": [
            {
                "abilityID": "SceneObj_Gear_Operator_Invisible_LuaTriggerOperator_01",
                "abilityName": "SceneObj_Gear_Operator_Invisible_LuaTriggerOperator_01",
                "abilityOverride": ""
            }
        ],
        "IPIELCJDIBL": {
            "NKBDKNGKFMO": "TEST/TEST_Chest_Btn",
            "CEHHPEIIHBK": "",
            "GBPLAKMHEJM": "WidgetMPSupport",
            "KBBEGLOMIFO": [
                "SceneObj_Gear_Operator_Invisible_LuaTriggerOperator_01"
            ],
            "NIOAOJICPAL": [
                "HOST"
            ],
            "icon": "",
            "BCCLKKLOGEG": "",
            "LKOFMBKJKBJ": "",
            "LFLLDADPAKN": "",
            "LHODAMFNPGB": false
        },
        "OJPDAPJAJAI": {
            "JJFLGMPDOIP": [
                {
                    "$type": "JPFOFOPOIIE",
                    "KCCCKANDEDE": "GearStop"
                },
                {
                    "$type": "JPFOFOPOIIE",
                    "enable": true
                },
                {
                    "$type": "JPFOFOPOIIE",
                    "KCCCKANDEDE": "GearStart",
                    "enable": true
                }
            ]
        },
        "ABLELGOIMNA": {
            "LIJLEBKDDMI": false,
            "FPFNHPHPFFC": 3.0,
            "MFHEGKAGHKM": 0.0
        }
    },
    "SceneObj_Level_Common_Property_Water_Waterfall_03": {
        "$type": "PEMAKBHLNEK",
        "LAEDCIHCNJG": true,
        "combat": {
            "property": {
                "HP": 99999.0,
                "isInvincible": true,
                "isLockHP": true,
                "isGhostToAllied": true,
                "isGhostToEnemy": true
            }
        },
        "combatTemplate": "",
        "abilities": [
            {
                "abilityID": "SceneObj_Level_Common_Property_Water_Waterfall_03",
                "abilityName": "SceneObj_Level_Common_Property_Water_Waterfall_03",
                "abilityOverride": ""
            }
        ]
    },
    "SceneObj_Other_Property_Prop_FactoryCamera_01": {
        "$type": "PEMAKBHLNEK",
        "LAEDCIHCNJG": true,
        "combat": {
            "property": {
                "HP": 99999.0,
                "attack": 20.0,
                "weight": 50.0,
                "isLockHP": true,
                "ignoreDamageToSelf": true
            },
            "beHit": {
                "hitBloodEffect": "",
                "hitAutoRedirect": false,
                "muteAllHitText": true
            },
            "combatLock": {
                "lockShape": "CircleLockEnemy",
                "denyLockOn": true,
                "lockType": "Gadget_Lv1"
            }
        },
        "combatTemplate": "",
        "ALPHBIFKCGJ": {
            "BDJBGJIKEMJ": "Ca_Dungeon_ScaramoucheFactory_Topdown_01",
            "CFHLGBDKNNE": 100.0,
            "MFHGHLBIABP": 150.0
        }
    },
    "SceneObj_Level_Common_Property_Ani_Prop_MachineCarrier_01": {
        "$type": "PEMAKBHLNEK",
        "common": {
            "disableTickDistance": 150000.0
        },
        "globalValue": {
            "serverGlobalValues": [
                "SGV_MachineCarrier_State"
            ],
            "initServerGlobalValues": {
                "SGV_MachineCarrier_State": 0.0
            }
        },
        "combat": {
            "property": {
                "HP": 99999.0,
                "isInvincible": true,
                "isLockHP": true,
                "isGhostToAllied": true,
                "isGhostToEnemy": true
            }
        },
        "combatTemplate": "",
        "abilities": [
            {
                "abilityID": "SceneObj_Level_Common_Property_Ani_Prop_MachineCarrier_01",
                "abilityName": "SceneObj_Level_Common_Property_Ani_Prop_MachineCarrier_01",
                "abilityOverride": ""
            }
        ],
        "field": {
            "concernType": "LocalAvatar",
            "shape": "",
            "fromShape": "",
            "triggerInfinite": true,
            "lifeInfinite": true,
            "checkInterval": 0.5,
            "overwriteCampType": true,
            "campType": "Enemy",
            "colliderName": "",
            "fromColliderName": ""
        },
        "move": {
            "$type": "AHEGNHDADND"
        }
    },
    "SceneObj_Gear_FungusEventDungeon_Operator": {
        "$type": "PEMAKBHLNEK",
        "model": {
            "bornEffect": "",
            "attachEffect": "Eff_Gear_ElementDungeon_Operator"
        },
        "LAEDCIHCNJG": true,
        "combat": {
            "property": {
                "HP": 99999.0,
                "attack": 200.0,
                "weight": 50.0,
                "isLockHP": true,
                "isGhostToAllied": true,
                "isGhostToEnemy": true
            },
            "beHit": {
                "hitBloodEffect": "",
                "hitAutoRedirect": false,
                "muteAllHitText": true
            },
            "combatLock": {
                "lockShape": "CircleLockEnemy",
                "denyLockOn": true,
                "lockType": "Gadget_Lv1"
            }
        },
        "combatTemplate": "",
        "field": {
            "concernType": "LocalAvatar",
            "shape": "CircleR2H2",
            "fromShape": "",
            "triggerInfinite": true,
            "lifeInfinite": true,
            "checkInterval": 0.5,
            "overwriteCampType": true,
            "campType": "SelfCamp",
            "colliderName": "",
            "fromColliderName": ""
        },
        "OJPDAPJAJAI": {
            "JJFLGMPDOIP": [
                {
                    "$type": "FKBOKAHPJFL",
                    "parameter": "gadgetState",
                    "type": "Int",
                    "HMGKAKGAJLE": "Eff_Gear_ElementDungeon_Operator"
                },
                {
                    "$type": "FKBOKAHPJFL",
                    "KCCCKANDEDE": "GearStop",
                    "parameter": "gadgetState",
                    "type": "Int",
                    "value": 202,
                    "HMGKAKGAJLE": "Eff_Gear_ElementDungeon_Operator"
                }
            ]
        }
    }
}