{
    "Nithhoggr_None_RunAttack_FollowBullet": {
        "$type": "PEMAKBHLNEK",
        "common": {
            "effectAttachShape": {
                "$type": "PBJLPIBAGLF"
            },
            "scale": 0.800000011920929
        },
        "combat": {
            "property": {
                "useCreatorProperty": true,
                "HP": 999999.0,
                "attack": 15.0,
                "defense": 999999.0,
                "isLockHP": true,
                "DNGKKBCFJII": false
            },
            "beHit": {
                "hitBloodEffect": ""
            },
            "combatLock": {
                "lockShape": "CircleLockEnemy",
                "denyLockOn": true,
                "lockType": "Default"
            }
        },
        "combatTemplate": "",
        "abilities": [
            {
                "abilityID": "",
                "abilityName": "Nithhoggr_None_FollowHitBox_RushAtk",
                "abilityOverride": ""
            }
        ],
        "HFAEAOCAIOL": {
            "lifeTime": 8.0
        },
        "move": {
            "$type": "JDHEIHNEBHE",
            "target": "TargetEntity",
            "attachPoint": "BulletFollowPoint",
            "PFMHNPNIEME": true,
            "JLPOCGPJOLJ": true,
            "IEBBHLGLCDC": ""
        },
        "LMIGFNJNNCG": {
            "$type": "OKOALHENOCF",
            "collision": {
                "triggerType": "TriggerNoRepeat",
                "targetType": "Enemy",
                "ignoreScene": true
            },
            "IMCFCCCOGAA": [
                {
                    "$type": "ADJNDLDECBK",
                    "abilityName": "Nithhoggr_None_FollowHitBox_RushAtk"
                }
            ],
            "JFMHINCCKBB": true
        }
    },
    "Nithhoggr_None_ChaseBullet_Dark": {
        "$type": "PEMAKBHLNEK",
        "common": {
            "effectAttachShape": {
                "$type": "PBJLPIBAGLF"
            },
            "scale": 1.5
        },
        "combat": {
            "property": {
                "useCreatorProperty": true,
                "isGhostToAllied": true,
                "isGhostToEnemy": true,
                "DNGKKBCFJII": false
            },
            "beHit": {
                "hitBloodEffect": "",
                "OFKMFHKFECF": true,
                "muteAllHitEffect": true,
                "muteAllHitText": true
            },
            "combatLock": {
                "lockShape": "CircleLockEnemy",
                "denyLockOn": true,
                "lockType": "Default"
            }
        },
        "combatTemplate": "",
        "abilities": [
            {
                "abilityID": "",
                "abilityName": "Nithhoggr_None_EnergyBallSmall_Dark",
                "abilityOverride": ""
            }
        ],
        "HFAEAOCAIOL": {
            "lifeTime": 5.0
        },
        "move": {
            "$type": "FKDPBBAAJGD",
            "speed": 8.0,
            "GOEFBCNDLEO": 20.0,
            "NGFKDPPINNL": 8.0,
            "MGEGLPEIKFG": 1080.0,
            "DPHMNNPKOOP": 8.0,
            "IPCLPKMFMNE": {
                "$type": "PEKFJJPEJPC"
            },
            "CBNEEGDEINC": 0.6000000238418579,
            "BKIOJIAPNCA": 1080.0,
            "HAFJBGOLJEL": 10.0
        },
        "LMIGFNJNNCG": {
            "$type": "OKOALHENOCF",
            "collision": {
                "targetType": "Enemy"
            },
            "IMCFCCCOGAA": [
                {
                    "$type": "ADJNDLDECBK",
                    "abilityName": "Nithhoggr_None_EnergyBallSmall_Dark"
                }
            ],
            "NPGJNFJEKPL": [
                {
                    "$type": "ADJNDLDECBK",
                    "abilityName": "Nithhoggr_None_EnergyBallSmall_Dark"
                }
            ]
        }
    },
    "Nithhoggr_None_ChaseBullet_Light": {
        "$type": "PEMAKBHLNEK",
        "common": {
            "effectAttachShape": {
                "$type": "PBJLPIBAGLF"
            },
            "scale": 1.5
        },
        "combat": {
            "property": {
                "useCreatorProperty": true,
                "isGhostToAllied": true,
                "isGhostToEnemy": true,
                "DNGKKBCFJII": false
            },
            "beHit": {
                "hitBloodEffect": "",
                "OFKMFHKFECF": true,
                "muteAllHitEffect": true,
                "muteAllHitText": true
            },
            "combatLock": {
                "lockShape": "CircleLockEnemy",
                "denyLockOn": true,
                "lockType": "Default"
            }
        },
        "combatTemplate": "",
        "abilities": [
            {
                "abilityID": "",
                "abilityName": "Nithhoggr_None_EnergyBallSmall_Light",
                "abilityOverride": ""
            }
        ],
        "HFAEAOCAIOL": {
            "lifeTime": 5.0
        },
        "move": {
            "$type": "FKDPBBAAJGD",
            "speed": 8.0,
            "GOEFBCNDLEO": 20.0,
            "NGFKDPPINNL": 8.0,
            "MGEGLPEIKFG": 1080.0,
            "DPHMNNPKOOP": 8.0,
            "IPCLPKMFMNE": {
                "$type": "PEKFJJPEJPC"
            },
            "CBNEEGDEINC": 0.6000000238418579,
            "BKIOJIAPNCA": 1080.0,
            "HAFJBGOLJEL": 10.0
        },
        "LMIGFNJNNCG": {
            "$type": "OKOALHENOCF",
            "collision": {
                "targetType": "Enemy"
            },
            "IMCFCCCOGAA": [
                {
                    "$type": "ADJNDLDECBK",
                    "abilityName": "Nithhoggr_None_EnergyBallSmall_Light"
                }
            ],
            "NPGJNFJEKPL": [
                {
                    "$type": "ADJNDLDECBK",
                    "abilityName": "Nithhoggr_None_EnergyBallSmall_Light"
                }
            ]
        }
    },
    "Nithhoggr_None_ChaseTarget": {
        "$type": "PEMAKBHLNEK",
        "combat": {
            "property": {
                "useCreatorProperty": true,
                "HP": 999999.0,
                "attack": 15.0,
                "defense": 999999.0,
                "isLockHP": true,
                "DNGKKBCFJII": false
            },
            "beHit": {
                "hitBloodEffect": ""
            },
            "combatLock": {
                "lockShape": "CircleLockEnemy",
                "denyLockOn": true,
                "lockType": "Default"
            }
        },
        "combatTemplate": "",
        "HFAEAOCAIOL": {
            "lifeTime": 3.0
        },
        "move": {
            "$type": "JDHEIHNEBHE",
            "target": "TargetEntity",
            "attachPoint": "RootNode",
            "IEBBHLGLCDC": ""
        }
    },
    "Nithhoggr_SceneObj_Gather_Ore": {
        "$type": "PEMAKBHLNEK",
        "model": {
            "bornEffect": "",
            "attachEffect": "Eff_SceneObj_Hint_01_Big"
        },
        "LAEDCIHCNJG": true,
        "combat": {
            "property": {
                "HP": 99999.0,
                "weight": 50.0
            },
            "beHit": {
                "hitBloodEffect": "",
                "hitAutoRedirect": false,
                "muteAllHitText": true
            },
            "combatLock": {
                "lockShape": "CircleLockEnemy",
                "lockType": "Gear_Lv3"
            },
            "die": {
                "dieEndTime": 0.10000000149011612,
                "dieForceDisappearTime": 0.10000000149011612,
                "dieDisappearEffect": "Eff_SceneObj_Ore_01_Destroy"
            }
        },
        "combatTemplate": "",
        "abilities": [
            {
                "abilityID": "",
                "abilityName": "Nithhoggr_SceneObj_Gather_Ore",
                "abilityOverride": ""
            }
        ],
        "MANCPGOFCEG": true,
        "billboard": {
            "$type": "PAOBAEKGGBC",
            "attachPoint": "BillboardAttach",
            "offset": {
                "y": 2.0
            },
            "LOMMBJLKPHE": 1.0,
            "KGHAGECNJPO": true,
            "KECFPIAHHOK": true
        }
    },
    "Nithhoggr_SceneObj_AbyssCoreLvOne_Position01": {
        "$type": "PEMAKBHLNEK",
        "LAEDCIHCNJG": true,
        "combat": {
            "property": {
                "HP": 99999.0,
                "attack": 20.0,
                "weight": 50.0,
                "isLockHP": true,
                "ignoreDamageToSelf": true
            },
            "beHit": {
                "hitBloodEffect": "",
                "hitAutoRedirect": false,
                "muteAllHitText": true
            },
            "combatLock": {
                "lockShape": "CircleLockEnemy",
                "denyLockOn": true,
                "lockType": "Gadget_Lv1"
            }
        },
        "combatTemplate": "",
        "abilities": [
            {
                "abilityID": "",
                "abilityName": "SceneObj_Area_Cyjy_Property_Prop_AbyssCoreLvOne_01",
                "abilityOverride": ""
            },
            {
                "abilityID": "",
                "abilityName": "Nithhoggr_SceneObj_AbyssCoreLvOne_Position01",
                "abilityOverride": ""
            },
            {
                "abilityID": "",
                "abilityName": "Nithhoggr_SceneObj_AbyssCore_Wathcer_82127",
                "abilityOverride": ""
            }
        ]
    },
    "Nithhoggr_SceneObj_AbyssCoreLvOne_Position02": {
        "$type": "PEMAKBHLNEK",
        "LAEDCIHCNJG": true,
        "combat": {
            "property": {
                "HP": 99999.0,
                "attack": 20.0,
                "weight": 50.0,
                "isLockHP": true,
                "ignoreDamageToSelf": true
            },
            "beHit": {
                "hitBloodEffect": "",
                "hitAutoRedirect": false,
                "muteAllHitText": true
            },
            "combatLock": {
                "lockShape": "CircleLockEnemy",
                "denyLockOn": true,
                "lockType": "Gadget_Lv1"
            }
        },
        "combatTemplate": "",
        "abilities": [
            {
                "abilityID": "",
                "abilityName": "SceneObj_Area_Cyjy_Property_Prop_AbyssCoreLvOne_01",
                "abilityOverride": ""
            },
            {
                "abilityID": "",
                "abilityName": "Nithhoggr_SceneObj_AbyssCoreLvOne_Position02",
                "abilityOverride": ""
            },
            {
                "abilityID": "",
                "abilityName": "Nithhoggr_SceneObj_AbyssCore_Wathcer_82127",
                "abilityOverride": ""
            }
        ]
    },
    "Nithhoggr_SceneObj_AbyssCoreLvOne_Position03": {
        "$type": "PEMAKBHLNEK",
        "LAEDCIHCNJG": true,
        "combat": {
            "property": {
                "HP": 99999.0,
                "attack": 20.0,
                "weight": 50.0,
                "isLockHP": true,
                "ignoreDamageToSelf": true
            },
            "beHit": {
                "hitBloodEffect": "",
                "hitAutoRedirect": false,
                "muteAllHitText": true
            },
            "combatLock": {
                "lockShape": "CircleLockEnemy",
                "denyLockOn": true,
                "lockType": "Gadget_Lv1"
            }
        },
        "combatTemplate": "",
        "abilities": [
            {
                "abilityID": "",
                "abilityName": "SceneObj_Area_Cyjy_Property_Prop_AbyssCoreLvOne_01",
                "abilityOverride": ""
            },
            {
                "abilityID": "",
                "abilityName": "Nithhoggr_SceneObj_AbyssCoreLvOne_Position03",
                "abilityOverride": ""
            },
            {
                "abilityID": "",
                "abilityName": "Nithhoggr_SceneObj_AbyssCore_Wathcer_82127",
                "abilityOverride": ""
            }
        ]
    },
    "Nithhoggr_SceneObj_AbyssCoreLvOne_Position04": {
        "$type": "PEMAKBHLNEK",
        "LAEDCIHCNJG": true,
        "combat": {
            "property": {
                "HP": 99999.0,
                "attack": 20.0,
                "weight": 50.0,
                "isLockHP": true,
                "ignoreDamageToSelf": true
            },
            "beHit": {
                "hitBloodEffect": "",
                "hitAutoRedirect": false,
                "muteAllHitText": true
            },
            "combatLock": {
                "lockShape": "CircleLockEnemy",
                "denyLockOn": true,
                "lockType": "Gadget_Lv1"
            }
        },
        "combatTemplate": "",
        "abilities": [
            {
                "abilityID": "",
                "abilityName": "SceneObj_Area_Cyjy_Property_Prop_AbyssCoreLvOne_01",
                "abilityOverride": ""
            },
            {
                "abilityID": "",
                "abilityName": "Nithhoggr_SceneObj_AbyssCoreLvOne_Position04",
                "abilityOverride": ""
            },
            {
                "abilityID": "",
                "abilityName": "Nithhoggr_SceneObj_AbyssCore_Wathcer_82127",
                "abilityOverride": ""
            }
        ]
    },
    "Nithhoggr_None_Swipe_FollowBullet": {
        "$type": "PEMAKBHLNEK",
        "common": {
            "effectAttachShape": {
                "$type": "PBJLPIBAGLF"
            },
            "scale": 0.800000011920929
        },
        "combat": {
            "property": {
                "useCreatorProperty": true,
                "HP": 999999.0,
                "attack": 15.0,
                "defense": 999999.0,
                "isLockHP": true,
                "DNGKKBCFJII": false
            },
            "beHit": {
                "hitBloodEffect": ""
            },
            "combatLock": {
                "lockShape": "CircleLockEnemy",
                "denyLockOn": true,
                "lockType": "Default"
            }
        },
        "combatTemplate": "",
        "abilities": [
            {
                "abilityID": "",
                "abilityName": "Nithhoggr_None_FollowHitBox_Swipe",
                "abilityOverride": ""
            }
        ],
        "HFAEAOCAIOL": {
            "lifeTime": 8.0
        },
        "move": {
            "$type": "JDHEIHNEBHE",
            "target": "TargetEntity",
            "attachPoint": "BulletFollowPoint",
            "PFMHNPNIEME": true,
            "JLPOCGPJOLJ": true,
            "IEBBHLGLCDC": ""
        },
        "LMIGFNJNNCG": {
            "$type": "OKOALHENOCF",
            "collision": {
                "triggerType": "TriggerAlways",
                "triggerCD": 1.0,
                "targetType": "Enemy",
                "ignoreScene": true
            },
            "IMCFCCCOGAA": [
                {
                    "$type": "ADJNDLDECBK",
                    "abilityName": "Nithhoggr_None_FollowHitBox_Swipe"
                }
            ],
            "JFMHINCCKBB": true
        }
    }
}