{
    "SceneObj_Area_Xm_Property_Prop_EnterSceneLook_01": {
        "$type": "PEMAKBHLNEK",
        "combatTemplate": "",
        "abilities": [
            {
                "abilityID": "ability_01",
                "abilityName": "SceneObj_Area_Xm_Property_Prop_EnterSceneLook_01_Ability",
                "abilityOverride": ""
            }
        ]
    },
    "SceneObj_Area_Xm_Property_Ani_Prop_LotusLeaf_01": {
        "$type": "PEMAKBHLNEK",
        "LAEDCIHCNJG": true,
        "combat": {
            "property": {
                "HP": 99999.0,
                "isLockHP": true
            },
            "beHit": {
                "hitBloodEffect": "",
                "hitAutoRedirect": false,
                "muteAllHitText": true
            },
            "combatLock": {
                "lockShape": "CircleLockEnemy",
                "lockType": "Gadget_Lv1",
                "overrideRange": 5.0
            }
        },
        "combatTemplate": "",
        "abilities": [
            {
                "abilityID": "ability_ThreeState",
                "abilityName": "GrassGadget_ThreeState",
                "abilityOverride": ""
            },
            {
                "abilityID": "ability_01",
                "abilityName": "SceneObj_Area_Xm_Property_Ani_Prop_LotusLeaf_01_Ability",
                "abilityOverride": ""
            }
        ],
        "move": {
            "$type": "NLDBIKBFCKC",
            "attachPoint": "ColliderRoot"
        },
        "OJPDAPJAJAI": {
            "JJFLGMPDOIP": [
                {
                    "$type": "MBMAEIHJLBA",
                    "intID": "GadgetState",
                    "ONMBAIMGAMM": true
                }
            ]
        }
    },
    "SceneObj_Area_Xm_Property_Ani_Prop_GrapplingHookPoint_01": {
        "$type": "PEMAKBHLNEK",
        "model": {
            "bornEffect": "",
            "attachEffect": "Eff_SceneObj_GrappleHook_01"
        },
        "LAEDCIHCNJG": true,
        "combat": {
            "property": {
                "HP": 99999.0,
                "isLockHP": true,
                "isGhostToAllied": true,
                "isGhostToEnemy": true
            },
            "combatLock": {
                "lockShape": "CircleLockEnemy",
                "denyLockOn": true,
                "lockType": "Default"
            }
        },
        "combatTemplate": "",
        "abilities": [
            {
                "abilityID": "ability_01",
                "abilityName": "SceneObj_Area_Xm_Property_Ani_Prop_GrapplingHookPoint_01_Ability",
                "abilityOverride": ""
            }
        ],
        "OJPDAPJAJAI": {
            "JJFLGMPDOIP": [
                {
                    "$type": "MBMAEIHJLBA",
                    "intID": "GadgetState",
                    "ONMBAIMGAMM": true
                }
            ]
        }
    },
    "SceneObj_Area_Xm_Property_Ani_Tree_GrassSeedCreate_01": {
        "$type": "PEMAKBHLNEK",
        "LAEDCIHCNJG": true,
        "combat": {
            "property": {
                "HP": 99999.0,
                "isLockHP": true,
                "isGhostToAllied": true,
                "isGhostToEnemy": true
            }
        },
        "combatTemplate": "",
        "abilities": [
            {
                "abilityID": "ability_01",
                "abilityName": "SceneObj_Area_Xm_Property_Ani_Tree_GrassSeedCreate_01_State",
                "abilityOverride": ""
            },
            {
                "abilityID": "ability_02",
                "abilityName": "SceneObj_Area_Xm_Property_Ani_Tree_GrassSeedCreate_01_Buff",
                "abilityOverride": ""
            },
            {
                "abilityID": "ability_02",
                "abilityName": "Scene_RockGadget_Summon_Detect",
                "abilityOverride": ""
            }
        ],
        "IPIELCJDIBL": {
            "NKBDKNGKFMO": "TEST/TEST_Chest_Btn",
            "CEHHPEIIHBK": "",
            "GBPLAKMHEJM": "WidgetMPSupport",
            "KBBEGLOMIFO": [
                "SceneObj_Area_Xm_Property_Ani_Tree_GrassSeedCreate_01_Buff"
            ],
            "icon": "",
            "BCCLKKLOGEG": "",
            "LKOFMBKJKBJ": "",
            "LFLLDADPAKN": ""
        },
        "OJPDAPJAJAI": {
            "JJFLGMPDOIP": [
                {
                    "$type": "JPFOFOPOIIE",
                    "enable": true
                },
                {
                    "$type": "JPFOFOPOIIE",
                    "KCCCKANDEDE": "GearStop"
                }
            ]
        }
    },
    "SceneObj_Area_Xm_Property_Ani_Tree_GrassSeedCreate_02": {
        "$type": "PEMAKBHLNEK",
        "LAEDCIHCNJG": true,
        "combat": {
            "property": {
                "HP": 99999.0,
                "isLockHP": true,
                "isGhostToAllied": true,
                "isGhostToEnemy": true
            }
        },
        "combatTemplate": "",
        "abilities": [
            {
                "abilityID": "ability_01",
                "abilityName": "SceneObj_Area_Xm_Property_Ani_Tree_GrassSeedCreate_02_State",
                "abilityOverride": ""
            },
            {
                "abilityID": "ability_02",
                "abilityName": "SceneObj_Area_Xm_Property_Ani_Tree_GrassSeedCreate_02_Buff",
                "abilityOverride": ""
            },
            {
                "abilityID": "ability_02",
                "abilityName": "Scene_RockGadget_Summon_Detect",
                "abilityOverride": ""
            }
        ],
        "IPIELCJDIBL": {
            "NKBDKNGKFMO": "TEST/TEST_Chest_Btn",
            "CEHHPEIIHBK": "",
            "GBPLAKMHEJM": "WidgetMPSupport",
            "KBBEGLOMIFO": [
                "SceneObj_Area_Xm_Property_Ani_Tree_GrassSeedCreate_02_Buff"
            ],
            "icon": "",
            "BCCLKKLOGEG": "",
            "LKOFMBKJKBJ": "",
            "LFLLDADPAKN": ""
        },
        "OJPDAPJAJAI": {
            "JJFLGMPDOIP": [
                {
                    "$type": "JPFOFOPOIIE"
                },
                {
                    "$type": "JPFOFOPOIIE",
                    "KCCCKANDEDE": "GearStart",
                    "enable": true
                },
                {
                    "$type": "JPFOFOPOIIE",
                    "KCCCKANDEDE": "GearStop"
                }
            ]
        }
    },
    "SceneObj_Area_Xm_Property_Ani_Prop_GrassSeedBullet_01": {
        "$type": "PEMAKBHLNEK",
        "common": {
            "effectAttachShape": {
                "$type": "PBJLPIBAGLF"
            }
        },
        "combat": {
            "property": {
                "useCreatorProperty": true,
                "isGhostToAllied": true,
                "isGhostToEnemy": true,
                "DNGKKBCFJII": false
            },
            "beHit": {
                "hitBloodEffect": "",
                "OFKMFHKFECF": true,
                "muteAllHitEffect": true,
                "muteAllHitText": true
            },
            "combatLock": {
                "lockShape": "CircleLockEnemy",
                "denyLockOn": true,
                "lockType": "Gadget_Lv1"
            }
        },
        "combatTemplate": "",
        "abilities": [
            {
                "abilityID": "",
                "abilityName": "SceneObj_Area_Xm_Property_Ani_Prop_GrassSeedBullet_01_Damage",
                "abilityOverride": ""
            }
        ],
        "HFAEAOCAIOL": {
            "lifeTime": 5.0
        },
        "move": {
            "$type": "INAEJGFIJGP",
            "speed": 10.0,
            "GOEFBCNDLEO": 60.0,
            "MGEGLPEIKFG": 30.0,
            "DPHMNNPKOOP": 5.0,
            "DGDJBBOFMGA": 0.10000000149011612,
            "COHNPOGPCBD": true
        },
        "LMIGFNJNNCG": {
            "$type": "OKOALHENOCF",
            "collision": {
                "targetType": "Enemy",
                "ignoreScene": true
            },
            "IMCFCCCOGAA": [
                {
                    "$type": "ADJNDLDECBK",
                    "abilityName": "SceneObj_Area_Xm_Property_Ani_Prop_GrassSeedBullet_01_Damage"
                }
            ],
            "NPGJNFJEKPL": [
                {
                    "$type": "ADJNDLDECBK",
                    "abilityName": "SceneObj_Area_Xm_Property_Ani_Prop_GrassSeedBullet_01_Damage"
                }
            ],
            "FHGLIDABMFB": 0.30000001192092896
        }
    },
    "SceneObj_Area_Xm_Property_Ani_Prop_GrassSeedBullet_02": {
        "$type": "PEMAKBHLNEK",
        "common": {
            "effectAttachShape": {
                "$type": "PBJLPIBAGLF"
            }
        },
        "combat": {
            "property": {
                "useCreatorProperty": true,
                "isGhostToAllied": true,
                "isGhostToEnemy": true,
                "DNGKKBCFJII": false
            },
            "beHit": {
                "hitBloodEffect": "",
                "OFKMFHKFECF": true,
                "muteAllHitEffect": true,
                "muteAllHitText": true
            },
            "combatLock": {
                "lockShape": "CircleLockEnemy",
                "denyLockOn": true,
                "lockType": "Gadget_Lv1"
            }
        },
        "combatTemplate": "",
        "abilities": [
            {
                "abilityID": "",
                "abilityName": "SceneObj_Area_Xm_Property_Ani_Prop_GrassSeedBullet_02_Damage",
                "abilityOverride": ""
            }
        ],
        "HFAEAOCAIOL": {
            "lifeTime": 5.0
        },
        "move": {
            "$type": "INAEJGFIJGP",
            "speed": 10.0,
            "GOEFBCNDLEO": 60.0,
            "MGEGLPEIKFG": 30.0,
            "DPHMNNPKOOP": 5.0,
            "DGDJBBOFMGA": 0.10000000149011612,
            "COHNPOGPCBD": true
        },
        "LMIGFNJNNCG": {
            "$type": "OKOALHENOCF",
            "collision": {
                "targetType": "Enemy",
                "ignoreScene": true
            },
            "IMCFCCCOGAA": [
                {
                    "$type": "ADJNDLDECBK",
                    "abilityName": "SceneObj_Area_Xm_Property_Ani_Prop_GrassSeedBullet_02_Damage"
                }
            ],
            "NPGJNFJEKPL": [
                {
                    "$type": "ADJNDLDECBK",
                    "abilityName": "SceneObj_Area_Xm_Property_Ani_Prop_GrassSeedBullet_02_Damage"
                }
            ],
            "FHGLIDABMFB": 0.30000001192092896
        }
    },
    "SceneObj_Area_Xm_Property_Prop_GrassSeedDummy_01": {
        "$type": "PEMAKBHLNEK",
        "common": {
            "effectAttachShape": {
                "$type": "PBJLPIBAGLF"
            }
        },
        "combatTemplate": "canBeAttacked",
        "abilities": [
            {
                "abilityID": "ability_01",
                "abilityName": "SceneObj_Area_Xm_Property_Prop_GrassSeedDummy_01_Ability",
                "abilityOverride": ""
            }
        ],
        "HFAEAOCAIOL": {
            "lifeTime": 2.0
        }
    }
}