{
    "27d80d63-fddd-49be-9c22-3933062c4a7f": {
        "Guid": "27d80d63-fddd-49be-9c22-3933062c4a7f",
        "playRate": 1.0,
        "GameTrigger": "Dialog",
        "gameTriggerArgs": 40210804,
        "personalConfig": 2,
        "ParentID": "c9ce63dd-de76-422b-8800-c2eead89ed2c",
        "SourceNames": [
            {
                "sourceFileName": "VO_AQ\\VO_paimon\\vo_FDAQ303_6_paimon_04.wem",
                "rate": 1.0,
                "avatarName": "",
                "emotion": ""
            }
        ]
    },
    "2a703010-5a7e-4f08-b465-92805e320aa5": {
        "Guid": "2a703010-5a7e-4f08-b465-92805e320aa5",
        "playRate": 1.0,
        "GameTrigger": "Dialog",
        "gameTriggerArgs": 40210812,
        "personalConfig": 2,
        "ParentID": "c9ce63dd-de76-422b-8800-c2eead89ed2c",
        "SourceNames": [
            {
                "sourceFileName": "VO_AQ\\VO_paimon\\vo_FDAQ303_6_paimon_12.wem",
                "rate": 1.0,
                "avatarName": "",
                "emotion": ""
            }
        ]
    },
    "3f99a801-a828-443e-9534-2c6430b9a66d": {
        "Guid": "3f99a801-a828-443e-9534-2c6430b9a66d",
        "playRate": 1.0,
        "GameTrigger": "Dialog",
        "gameTriggerArgs": 40210809,
        "personalConfig": 2,
        "ParentID": "c9ce63dd-de76-422b-8800-c2eead89ed2c",
        "SourceNames": [
            {
                "sourceFileName": "VO_AQ\\VO_paimon\\vo_FDAQ303_6_paimon_09.wem",
                "rate": 1.0,
                "avatarName": "",
                "emotion": ""
            }
        ]
    },
    "4a9bf62f-5930-4d55-bb75-1909c74880bc": {
        "Guid": "4a9bf62f-5930-4d55-bb75-1909c74880bc",
        "playRate": 1.0,
        "GameTrigger": "Dialog",
        "gameTriggerArgs": 40210810,
        "personalConfig": 2,
        "ParentID": "c9ce63dd-de76-422b-8800-c2eead89ed2c",
        "SourceNames": [
            {
                "sourceFileName": "VO_AQ\\VO_paimon\\vo_FDAQ303_6_paimon_10.wem",
                "rate": 1.0,
                "avatarName": "",
                "emotion": ""
            }
        ]
    },
    "6265eff2-1db7-4f46-8080-b8c291c8791c": {
        "Guid": "6265eff2-1db7-4f46-8080-b8c291c8791c",
        "playRate": 1.0,
        "GameTrigger": "Dialog",
        "gameTriggerArgs": 40210806,
        "personalConfig": 2,
        "ParentID": "c9ce63dd-de76-422b-8800-c2eead89ed2c",
        "SourceNames": [
            {
                "sourceFileName": "VO_AQ\\VO_paimon\\vo_FDAQ303_6_paimon_06a.wem",
                "rate": 1.0,
                "avatarName": "",
                "emotion": "",
                "gender": 2
            },
            {
                "sourceFileName": "VO_AQ\\VO_paimon\\vo_FDAQ303_6_paimon_06b.wem",
                "rate": 1.0,
                "avatarName": "",
                "emotion": "",
                "gender": 1
            }
        ]
    },
    "759d5ba3-0cc6-40b0-b5ac-9d48a9279618": {
        "Guid": "759d5ba3-0cc6-40b0-b5ac-9d48a9279618",
        "playRate": 1.0,
        "GameTrigger": "Dialog",
        "gameTriggerArgs": 40210808,
        "personalConfig": 2,
        "ParentID": "c9ce63dd-de76-422b-8800-c2eead89ed2c",
        "SourceNames": [
            {
                "sourceFileName": "VO_AQ\\VO_paimon\\vo_FDAQ303_6_paimon_08.wem",
                "rate": 1.0,
                "avatarName": "",
                "emotion": ""
            }
        ]
    },
    "870d568e-9b5a-487b-8673-97a103c6e316": {
        "Guid": "870d568e-9b5a-487b-8673-97a103c6e316",
        "playRate": 1.0,
        "GameTrigger": "Dialog",
        "gameTriggerArgs": 40210807,
        "personalConfig": 2,
        "ParentID": "c9ce63dd-de76-422b-8800-c2eead89ed2c",
        "SourceNames": [
            {
                "sourceFileName": "VO_AQ\\VO_paimon\\vo_FDAQ303_6_paimon_07.wem",
                "rate": 1.0,
                "avatarName": "",
                "emotion": ""
            }
        ]
    },
    "a0a988bb-d64f-47fc-9bb3-5226d64ccced": {
        "Guid": "a0a988bb-d64f-47fc-9bb3-5226d64ccced",
        "playRate": 1.0,
        "GameTrigger": "Dialog",
        "gameTriggerArgs": 40210803,
        "personalConfig": 2,
        "ParentID": "c9ce63dd-de76-422b-8800-c2eead89ed2c",
        "SourceNames": [
            {
                "sourceFileName": "VO_AQ\\VO_paimon\\vo_FDAQ303_6_paimon_03.wem",
                "rate": 1.0,
                "avatarName": "",
                "emotion": ""
            }
        ]
    },
    "daf2eca0-5513-469f-b2c8-79f985c0de20": {
        "Guid": "daf2eca0-5513-469f-b2c8-79f985c0de20",
        "playRate": 1.0,
        "GameTrigger": "Dialog",
        "gameTriggerArgs": 40210801,
        "personalConfig": 2,
        "ParentID": "c9ce63dd-de76-422b-8800-c2eead89ed2c",
        "SourceNames": [
            {
                "sourceFileName": "VO_AQ\\VO_paimon\\vo_FDAQ303_6_paimon_02.wem",
                "rate": 1.0,
                "avatarName": "",
                "emotion": ""
            }
        ]
    },
    "db0b4a46-7307-4dcd-9eab-61328e6652eb": {
        "Guid": "db0b4a46-7307-4dcd-9eab-61328e6652eb",
        "playRate": 1.0,
        "GameTrigger": "Dialog",
        "gameTriggerArgs": 40219902,
        "personalConfig": 2,
        "IsPlayOnTeam": true,
        "ParentID": "c9ce63dd-de76-422b-8800-c2eead89ed2c",
        "SourceNames": [
            {
                "sourceFileName": "VO_AQ\\VO_paimon\\vo_FDAQ303_6_paimon_01.wem",
                "rate": 1.0,
                "avatarName": "",
                "emotion": ""
            }
        ]
    },
    "ed42a1b0-3c8b-434d-bb6b-ace3e7aa9b87": {
        "Guid": "ed42a1b0-3c8b-434d-bb6b-ace3e7aa9b87",
        "playRate": 1.0,
        "GameTrigger": "Dialog",
        "gameTriggerArgs": 40210805,
        "personalConfig": 2,
        "ParentID": "c9ce63dd-de76-422b-8800-c2eead89ed2c",
        "SourceNames": [
            {
                "sourceFileName": "VO_AQ\\VO_paimon\\vo_FDAQ303_6_paimon_05.wem",
                "rate": 1.0,
                "avatarName": "",
                "emotion": ""
            }
        ]
    }
}