{
    "05571c00-ae06-49a5-82a5-f6ad037dc8ec": {
        "Guid": "05571c00-ae06-49a5-82a5-f6ad037dc8ec",
        "playRate": 1.0,
        "GameTrigger": "Dialog",
        "gameTriggerArgs": 40066138,
        "personalConfig": 2,
        "ParentID": "00ec2cf9-17da-4fa5-ac6d-e996f0c540aa",
        "SourceNames": [
            {
                "sourceFileName": "VO_AQ\\VO_neuvillette\\vo_FDAQ003_42_neuvillette_08.wem",
                "rate": 1.0,
                "avatarName": "",
                "emotion": ""
            }
        ]
    },
    "0c4feefd-cdb7-4903-ab00-ea5c3a9c2972": {
        "Guid": "0c4feefd-cdb7-4903-ab00-ea5c3a9c2972",
        "playRate": 1.0,
        "GameTrigger": "Dialog",
        "gameTriggerArgs": 40066119,
        "personalConfig": 2,
        "ParentID": "00ec2cf9-17da-4fa5-ac6d-e996f0c540aa",
        "SourceNames": [
            {
                "sourceFileName": "VO_AQ\\VO_NPC\\vo_FDAQ003_42_esmond_02.wem",
                "rate": 1.0,
                "avatarName": "",
                "emotion": ""
            }
        ]
    },
    "10fa61f5-a000-40c9-be07-b7a617d5a55f": {
        "Guid": "10fa61f5-a000-40c9-be07-b7a617d5a55f",
        "playRate": 1.0,
        "GameTrigger": "Dialog",
        "gameTriggerArgs": 40066125,
        "personalConfig": 2,
        "ParentID": "00ec2cf9-17da-4fa5-ac6d-e996f0c540aa",
        "SourceNames": [
            {
                "sourceFileName": "VO_AQ\\VO_NPC\\vo_FDAQ003_42_esmond_07.wem",
                "rate": 1.0,
                "avatarName": "",
                "emotion": ""
            }
        ]
    },
    "23a8d49b-d461-4886-92e0-0a00e365a059": {
        "Guid": "23a8d49b-d461-4886-92e0-0a00e365a059",
        "playRate": 1.0,
        "GameTrigger": "Dialog",
        "gameTriggerArgs": 40066123,
        "personalConfig": 2,
        "ParentID": "00ec2cf9-17da-4fa5-ac6d-e996f0c540aa",
        "SourceNames": [
            {
                "sourceFileName": "VO_AQ\\VO_NPC\\vo_FDAQ003_42_esmond_05.wem",
                "rate": 1.0,
                "avatarName": "",
                "emotion": ""
            }
        ]
    },
    "25ce375d-528b-45f8-9fee-0402f61b25f2": {
        "Guid": "25ce375d-528b-45f8-9fee-0402f61b25f2",
        "playRate": 1.0,
        "GameTrigger": "Dialog",
        "gameTriggerArgs": 40069924,
        "personalConfig": 2,
        "AAJIMDDBMLJ": 1,
        "IsPlayOnTeam": true,
        "ParentID": "00ec2cf9-17da-4fa5-ac6d-e996f0c540aa",
        "SourceNames": [
            {
                "sourceFileName": "VO_AQ\\VO_hero\\vo_FDAQ003_42_hero_05.wem",
                "rate": 1.0,
                "avatarName": "Switch_hero",
                "emotion": "",
                "gender": 2
            },
            {
                "sourceFileName": "VO_AQ\\VO_heroine\\vo_FDAQ003_42_heroine_05.wem",
                "rate": 1.0,
                "avatarName": "Switch_heroine",
                "emotion": "",
                "gender": 1
            }
        ]
    },
    "27e3b51a-4e1d-46a7-99b8-211d41513590": {
        "Guid": "27e3b51a-4e1d-46a7-99b8-211d41513590",
        "playRate": 1.0,
        "GameTrigger": "Dialog",
        "gameTriggerArgs": 40066127,
        "personalConfig": 2,
        "ParentID": "00ec2cf9-17da-4fa5-ac6d-e996f0c540aa",
        "SourceNames": [
            {
                "sourceFileName": "VO_AQ\\VO_NPC\\vo_FDAQ003_42_audienceB_01.wem",
                "rate": 1.0,
                "avatarName": "",
                "emotion": ""
            }
        ]
    },
    "2a0d668b-20e5-40ae-b824-13cbdb87858d": {
        "Guid": "2a0d668b-20e5-40ae-b824-13cbdb87858d",
        "playRate": 1.0,
        "GameTrigger": "Dialog",
        "gameTriggerArgs": 40069922,
        "personalConfig": 2,
        "AAJIMDDBMLJ": 1,
        "IsPlayOnTeam": true,
        "ParentID": "00ec2cf9-17da-4fa5-ac6d-e996f0c540aa",
        "SourceNames": [
            {
                "sourceFileName": "VO_AQ\\VO_hero\\vo_FDAQ003_42_hero_03.wem",
                "rate": 1.0,
                "avatarName": "Switch_hero",
                "emotion": "",
                "gender": 2
            },
            {
                "sourceFileName": "VO_AQ\\VO_heroine\\vo_FDAQ003_42_heroine_03.wem",
                "rate": 1.0,
                "avatarName": "Switch_heroine",
                "emotion": "",
                "gender": 1
            }
        ]
    },
    "316471ec-33af-430f-9235-2a4906b1d0de": {
        "Guid": "316471ec-33af-430f-9235-2a4906b1d0de",
        "playRate": 1.0,
        "GameTrigger": "Dialog",
        "gameTriggerArgs": 40066121,
        "personalConfig": 2,
        "ParentID": "00ec2cf9-17da-4fa5-ac6d-e996f0c540aa",
        "SourceNames": [
            {
                "sourceFileName": "VO_AQ\\VO_neuvillette\\vo_FDAQ003_42_neuvillette_03.wem",
                "rate": 1.0,
                "avatarName": "",
                "emotion": ""
            }
        ]
    },
    "357e534a-091a-44d0-a500-8f562f0ee3e1": {
        "Guid": "357e534a-091a-44d0-a500-8f562f0ee3e1",
        "playRate": 1.0,
        "GameTrigger": "Dialog",
        "gameTriggerArgs": 40066102,
        "personalConfig": 2,
        "ParentID": "00ec2cf9-17da-4fa5-ac6d-e996f0c540aa",
        "SourceNames": [
            {
                "sourceFileName": "VO_AQ\\VO_paimon\\vo_FDAQ003_42_paimon_02.wem",
                "rate": 1.0,
                "avatarName": "",
                "emotion": ""
            }
        ]
    },
    "3fb66456-401b-4456-aa05-1505d6e5c254": {
        "Guid": "3fb66456-401b-4456-aa05-1505d6e5c254",
        "playRate": 1.0,
        "GameTrigger": "Dialog",
        "gameTriggerArgs": 40066128,
        "personalConfig": 2,
        "ParentID": "00ec2cf9-17da-4fa5-ac6d-e996f0c540aa",
        "SourceNames": [
            {
                "sourceFileName": "VO_AQ\\VO_NPC\\vo_FDAQ003_42_audienceF_01.wem",
                "rate": 1.0,
                "avatarName": "",
                "emotion": ""
            }
        ]
    },
    "401de786-17ae-4aa1-a8eb-7f770cce36ba": {
        "Guid": "401de786-17ae-4aa1-a8eb-7f770cce36ba",
        "playRate": 1.0,
        "GameTrigger": "Dialog",
        "gameTriggerArgs": 40066131,
        "personalConfig": 2,
        "ParentID": "00ec2cf9-17da-4fa5-ac6d-e996f0c540aa",
        "SourceNames": [
            {
                "sourceFileName": "VO_AQ\\VO_navia\\vo_FDAQ003_42_navia_02.wem",
                "rate": 1.0,
                "avatarName": "",
                "emotion": ""
            }
        ]
    },
    "42e9ed72-9c13-4cfe-9cca-72e1062f0ff1": {
        "Guid": "42e9ed72-9c13-4cfe-9cca-72e1062f0ff1",
        "playRate": 1.0,
        "GameTrigger": "Dialog",
        "gameTriggerArgs": 40066135,
        "personalConfig": 2,
        "ParentID": "00ec2cf9-17da-4fa5-ac6d-e996f0c540aa",
        "SourceNames": [
            {
                "sourceFileName": "VO_AQ\\VO_neuvillette\\vo_FDAQ003_42_neuvillette_05.wem",
                "rate": 1.0,
                "avatarName": "",
                "emotion": ""
            }
        ]
    },
    "43577898-ebf5-4047-8c08-8ad6e030473d": {
        "Guid": "43577898-ebf5-4047-8c08-8ad6e030473d",
        "playRate": 1.0,
        "GameTrigger": "Dialog",
        "gameTriggerArgs": 40066129,
        "personalConfig": 2,
        "ParentID": "00ec2cf9-17da-4fa5-ac6d-e996f0c540aa",
        "SourceNames": [
            {
                "sourceFileName": "VO_AQ\\VO_NPC\\vo_FDAQ003_42_audienceE_01.wem",
                "rate": 1.0,
                "avatarName": "",
                "emotion": ""
            }
        ]
    },
    "467679a5-a78e-452a-8b19-026f9f04e776": {
        "Guid": "467679a5-a78e-452a-8b19-026f9f04e776",
        "playRate": 1.0,
        "GameTrigger": "Dialog",
        "gameTriggerArgs": 40066140,
        "personalConfig": 2,
        "ParentID": "00ec2cf9-17da-4fa5-ac6d-e996f0c540aa",
        "SourceNames": [
            {
                "sourceFileName": "VO_AQ\\VO_lyney\\vo_FDAQ003_42_lyney_06.wem",
                "rate": 1.0,
                "avatarName": "",
                "emotion": ""
            }
        ]
    },
    "4da53e5f-c8fc-45e3-bc15-1067e57c1900": {
        "Guid": "4da53e5f-c8fc-45e3-bc15-1067e57c1900",
        "playRate": 1.0,
        "GameTrigger": "Dialog",
        "gameTriggerArgs": 40066108,
        "personalConfig": 2,
        "ParentID": "00ec2cf9-17da-4fa5-ac6d-e996f0c540aa",
        "SourceNames": [
            {
                "sourceFileName": "VO_AQ\\VO_furina\\vo_FDAQ003_42_furina_03.wem",
                "rate": 1.0,
                "avatarName": "",
                "emotion": ""
            }
        ]
    },
    "5aa56283-a61b-4aa7-9432-a87f35f122ed": {
        "Guid": "5aa56283-a61b-4aa7-9432-a87f35f122ed",
        "playRate": 1.0,
        "GameTrigger": "Dialog",
        "gameTriggerArgs": 40066136,
        "personalConfig": 2,
        "ParentID": "00ec2cf9-17da-4fa5-ac6d-e996f0c540aa",
        "SourceNames": [
            {
                "sourceFileName": "VO_AQ\\VO_neuvillette\\vo_FDAQ003_42_neuvillette_06.wem",
                "rate": 1.0,
                "avatarName": "",
                "emotion": ""
            }
        ]
    },
    "60b6c0f2-94dd-45eb-8a29-fde85dab24dc": {
        "Guid": "60b6c0f2-94dd-45eb-8a29-fde85dab24dc",
        "playRate": 1.0,
        "GameTrigger": "Dialog",
        "gameTriggerArgs": 40066141,
        "personalConfig": 2,
        "ParentID": "00ec2cf9-17da-4fa5-ac6d-e996f0c540aa",
        "SourceNames": [
            {
                "sourceFileName": "VO_AQ\\VO_paimon\\vo_FDAQ003_42_paimon_04.wem",
                "rate": 1.0,
                "avatarName": "",
                "emotion": ""
            }
        ]
    },
    "65a7c126-b09f-4776-91da-23399e0ec810": {
        "Guid": "65a7c126-b09f-4776-91da-23399e0ec810",
        "playRate": 1.0,
        "GameTrigger": "Dialog",
        "gameTriggerArgs": 40066103,
        "personalConfig": 2,
        "ParentID": "00ec2cf9-17da-4fa5-ac6d-e996f0c540aa",
        "SourceNames": [
            {
                "sourceFileName": "VO_AQ\\VO_paimon\\vo_FDAQ003_42_paimon_03.wem",
                "rate": 1.0,
                "avatarName": "",
                "emotion": ""
            }
        ]
    },
    "6ba45be6-9fdc-46a9-bc4e-96f50c67f241": {
        "Guid": "6ba45be6-9fdc-46a9-bc4e-96f50c67f241",
        "playRate": 1.0,
        "GameTrigger": "Dialog",
        "gameTriggerArgs": 40066124,
        "personalConfig": 2,
        "ParentID": "00ec2cf9-17da-4fa5-ac6d-e996f0c540aa",
        "SourceNames": [
            {
                "sourceFileName": "VO_AQ\\VO_NPC\\vo_FDAQ003_42_esmond_06.wem",
                "rate": 1.0,
                "avatarName": "",
                "emotion": ""
            }
        ]
    },
    "6cb25cad-0b82-45e3-bc78-32511803a861": {
        "Guid": "6cb25cad-0b82-45e3-bc78-32511803a861",
        "playRate": 1.0,
        "GameTrigger": "Dialog",
        "gameTriggerArgs": 40066116,
        "personalConfig": 2,
        "ParentID": "00ec2cf9-17da-4fa5-ac6d-e996f0c540aa",
        "SourceNames": [
            {
                "sourceFileName": "VO_AQ\\VO_neuvillette\\vo_FDAQ003_42_neuvillette_02.wem",
                "rate": 1.0,
                "avatarName": "",
                "emotion": ""
            }
        ]
    },
    "7e9dd673-dc33-4f1b-bb74-8eaf7873712b": {
        "Guid": "7e9dd673-dc33-4f1b-bb74-8eaf7873712b",
        "playRate": 1.0,
        "GameTrigger": "Dialog",
        "gameTriggerArgs": 40066120,
        "personalConfig": 2,
        "ParentID": "00ec2cf9-17da-4fa5-ac6d-e996f0c540aa",
        "SourceNames": [
            {
                "sourceFileName": "VO_AQ\\VO_NPC\\vo_FDAQ003_42_esmond_03.wem",
                "rate": 1.0,
                "avatarName": "",
                "emotion": ""
            }
        ]
    },
    "84e79fa7-11c9-4d08-a054-e4d272aea5fa": {
        "Guid": "84e79fa7-11c9-4d08-a054-e4d272aea5fa",
        "playRate": 1.0,
        "GameTrigger": "Dialog",
        "gameTriggerArgs": 40066105,
        "personalConfig": 2,
        "ParentID": "00ec2cf9-17da-4fa5-ac6d-e996f0c540aa",
        "SourceNames": [
            {
                "sourceFileName": "VO_AQ\\VO_furina\\vo_FDAQ003_42_furina_02.wem",
                "rate": 1.0,
                "avatarName": "",
                "emotion": ""
            }
        ]
    },
    "8acc5154-14ab-4655-b4b5-5b7249e2b87d": {
        "Guid": "8acc5154-14ab-4655-b4b5-5b7249e2b87d",
        "playRate": 1.0,
        "GameTrigger": "Dialog",
        "gameTriggerArgs": 40066130,
        "personalConfig": 2,
        "ParentID": "00ec2cf9-17da-4fa5-ac6d-e996f0c540aa",
        "SourceNames": [
            {
                "sourceFileName": "VO_AQ\\VO_navia\\vo_FDAQ003_42_navia_01.wem",
                "rate": 1.0,
                "avatarName": "",
                "emotion": ""
            }
        ]
    },
    "8ae9bf8c-933f-4a4c-8511-9278f8be2c42": {
        "Guid": "8ae9bf8c-933f-4a4c-8511-9278f8be2c42",
        "playRate": 1.0,
        "GameTrigger": "Dialog",
        "gameTriggerArgs": 40066142,
        "personalConfig": 2,
        "ParentID": "00ec2cf9-17da-4fa5-ac6d-e996f0c540aa",
        "SourceNames": [
            {
                "sourceFileName": "VO_AQ\\VO_paimon\\vo_FDAQ003_42_paimon_05.wem",
                "rate": 1.0,
                "avatarName": "",
                "emotion": ""
            }
        ]
    },
    "8e1a3e80-dfa5-417d-8f35-ef52ebea374a": {
        "Guid": "8e1a3e80-dfa5-417d-8f35-ef52ebea374a",
        "playRate": 1.0,
        "GameTrigger": "Dialog",
        "gameTriggerArgs": 40066122,
        "personalConfig": 2,
        "ParentID": "00ec2cf9-17da-4fa5-ac6d-e996f0c540aa",
        "SourceNames": [
            {
                "sourceFileName": "VO_AQ\\VO_NPC\\vo_FDAQ003_42_esmond_04.wem",
                "rate": 1.0,
                "avatarName": "",
                "emotion": ""
            }
        ]
    },
    "978cb052-d738-4e78-b742-dfa3c9e3ad55": {
        "Guid": "978cb052-d738-4e78-b742-dfa3c9e3ad55",
        "playRate": 1.0,
        "GameTrigger": "Dialog",
        "gameTriggerArgs": 40069921,
        "personalConfig": 2,
        "AAJIMDDBMLJ": 1,
        "IsPlayOnTeam": true,
        "ParentID": "00ec2cf9-17da-4fa5-ac6d-e996f0c540aa",
        "SourceNames": [
            {
                "sourceFileName": "VO_AQ\\VO_hero\\vo_FDAQ003_42_hero_02.wem",
                "rate": 1.0,
                "avatarName": "Switch_hero",
                "emotion": "",
                "gender": 2
            },
            {
                "sourceFileName": "VO_AQ\\VO_heroine\\vo_FDAQ003_42_heroine_02.wem",
                "rate": 1.0,
                "avatarName": "Switch_heroine",
                "emotion": "",
                "gender": 1
            }
        ]
    },
    "9a8651b7-8947-456d-b29b-be8ab55b3671": {
        "Guid": "9a8651b7-8947-456d-b29b-be8ab55b3671",
        "playRate": 1.0,
        "GameTrigger": "Dialog",
        "gameTriggerArgs": 40066132,
        "personalConfig": 2,
        "ParentID": "00ec2cf9-17da-4fa5-ac6d-e996f0c540aa",
        "SourceNames": [
            {
                "sourceFileName": "VO_AQ\\VO_NPC\\vo_FDAQ003_42_marcillac_01.wem",
                "rate": 1.0,
                "avatarName": "",
                "emotion": ""
            }
        ]
    },
    "9fe180c2-3e75-4c9e-89be-30353f22cea0": {
        "Guid": "9fe180c2-3e75-4c9e-89be-30353f22cea0",
        "playRate": 1.0,
        "GameTrigger": "Dialog",
        "gameTriggerArgs": 40066112,
        "personalConfig": 2,
        "ParentID": "00ec2cf9-17da-4fa5-ac6d-e996f0c540aa",
        "SourceNames": [
            {
                "sourceFileName": "VO_AQ\\VO_lyney\\vo_FDAQ003_42_lyney_03.wem",
                "rate": 1.0,
                "avatarName": "",
                "emotion": ""
            }
        ]
    },
    "ac4c2b8e-b0a0-4a8b-b6d7-5ab95fc2d186": {
        "Guid": "ac4c2b8e-b0a0-4a8b-b6d7-5ab95fc2d186",
        "playRate": 1.0,
        "GameTrigger": "Dialog",
        "gameTriggerArgs": 40066114,
        "personalConfig": 2,
        "ParentID": "00ec2cf9-17da-4fa5-ac6d-e996f0c540aa",
        "SourceNames": [
            {
                "sourceFileName": "VO_AQ\\VO_furina\\vo_FDAQ003_42_furina_05.wem",
                "rate": 1.0,
                "avatarName": "",
                "emotion": ""
            }
        ]
    },
    "b4a91439-bcc8-4dbd-9665-edcb542b4cd9": {
        "Guid": "b4a91439-bcc8-4dbd-9665-edcb542b4cd9",
        "playRate": 1.0,
        "GameTrigger": "Dialog",
        "gameTriggerArgs": 40066126,
        "personalConfig": 2,
        "ParentID": "00ec2cf9-17da-4fa5-ac6d-e996f0c540aa",
        "SourceNames": [
            {
                "sourceFileName": "VO_AQ\\VO_NPC\\vo_FDAQ003_42_esmond_08.wem",
                "rate": 1.0,
                "avatarName": "",
                "emotion": ""
            }
        ]
    },
    "b75344d6-f35e-44a6-ba61-6dcea6b4e13d": {
        "Guid": "b75344d6-f35e-44a6-ba61-6dcea6b4e13d",
        "playRate": 1.0,
        "GameTrigger": "Dialog",
        "gameTriggerArgs": 40069923,
        "personalConfig": 2,
        "AAJIMDDBMLJ": 1,
        "IsPlayOnTeam": true,
        "ParentID": "00ec2cf9-17da-4fa5-ac6d-e996f0c540aa",
        "SourceNames": [
            {
                "sourceFileName": "VO_AQ\\VO_hero\\vo_FDAQ003_42_hero_04.wem",
                "rate": 1.0,
                "avatarName": "Switch_hero",
                "emotion": "",
                "gender": 2
            },
            {
                "sourceFileName": "VO_AQ\\VO_heroine\\vo_FDAQ003_42_heroine_04.wem",
                "rate": 1.0,
                "avatarName": "Switch_heroine",
                "emotion": "",
                "gender": 1
            }
        ]
    },
    "bafd4419-21fe-4e23-ad4b-43703a917c10": {
        "Guid": "bafd4419-21fe-4e23-ad4b-43703a917c10",
        "playRate": 1.0,
        "GameTrigger": "Dialog",
        "gameTriggerArgs": 40066118,
        "personalConfig": 2,
        "ParentID": "00ec2cf9-17da-4fa5-ac6d-e996f0c540aa",
        "SourceNames": [
            {
                "sourceFileName": "VO_AQ\\VO_NPC\\vo_FDAQ003_42_esmond_01.wem",
                "rate": 1.0,
                "avatarName": "",
                "emotion": ""
            }
        ]
    },
    "bc066c5c-9f5e-4aef-bbc4-aba6e86c433a": {
        "Guid": "bc066c5c-9f5e-4aef-bbc4-aba6e86c433a",
        "playRate": 1.0,
        "GameTrigger": "Dialog",
        "gameTriggerArgs": 40066115,
        "personalConfig": 2,
        "ParentID": "00ec2cf9-17da-4fa5-ac6d-e996f0c540aa",
        "SourceNames": [
            {
                "sourceFileName": "VO_AQ\\VO_neuvillette\\vo_FDAQ003_42_neuvillette_01.wem",
                "rate": 1.0,
                "avatarName": "",
                "emotion": ""
            }
        ]
    },
    "c4b6dd50-6c51-4a34-b03b-7d4bcbd7b901": {
        "Guid": "c4b6dd50-6c51-4a34-b03b-7d4bcbd7b901",
        "playRate": 1.0,
        "GameTrigger": "Dialog",
        "gameTriggerArgs": 40069920,
        "personalConfig": 2,
        "AAJIMDDBMLJ": 1,
        "IsPlayOnTeam": true,
        "ParentID": "00ec2cf9-17da-4fa5-ac6d-e996f0c540aa",
        "SourceNames": [
            {
                "sourceFileName": "VO_AQ\\VO_hero\\vo_FDAQ003_42_hero_01.wem",
                "rate": 1.0,
                "avatarName": "Switch_hero",
                "emotion": "",
                "gender": 2
            },
            {
                "sourceFileName": "VO_AQ\\VO_heroine\\vo_FDAQ003_42_heroine_01.wem",
                "rate": 1.0,
                "avatarName": "Switch_heroine",
                "emotion": "",
                "gender": 1
            }
        ]
    },
    "cd892719-485b-4848-9f94-6b6d90c55237": {
        "Guid": "cd892719-485b-4848-9f94-6b6d90c55237",
        "playRate": 1.0,
        "GameTrigger": "Dialog",
        "gameTriggerArgs": 40066110,
        "personalConfig": 2,
        "ParentID": "00ec2cf9-17da-4fa5-ac6d-e996f0c540aa",
        "SourceNames": [
            {
                "sourceFileName": "VO_AQ\\VO_lyney\\vo_FDAQ003_42_lyney_01.wem",
                "rate": 1.0,
                "avatarName": "",
                "emotion": ""
            }
        ]
    },
    "ce3d9e7f-980a-4a16-997a-33133146bcc5": {
        "Guid": "ce3d9e7f-980a-4a16-997a-33133146bcc5",
        "playRate": 1.0,
        "GameTrigger": "Dialog",
        "gameTriggerArgs": 40066111,
        "personalConfig": 2,
        "ParentID": "00ec2cf9-17da-4fa5-ac6d-e996f0c540aa",
        "SourceNames": [
            {
                "sourceFileName": "VO_AQ\\VO_lyney\\vo_FDAQ003_42_lyney_02.wem",
                "rate": 1.0,
                "avatarName": "",
                "emotion": ""
            }
        ]
    },
    "d69adeba-fa87-459b-b9f7-d5a78955f4bb": {
        "Guid": "d69adeba-fa87-459b-b9f7-d5a78955f4bb",
        "playRate": 1.0,
        "GameTrigger": "Dialog",
        "gameTriggerArgs": 40066139,
        "personalConfig": 2,
        "ParentID": "00ec2cf9-17da-4fa5-ac6d-e996f0c540aa",
        "SourceNames": [
            {
                "sourceFileName": "VO_AQ\\VO_lyney\\vo_FDAQ003_42_lyney_05.wem",
                "rate": 1.0,
                "avatarName": "",
                "emotion": ""
            }
        ]
    },
    "dbaf1216-2603-4195-aff4-39f30fce2fbf": {
        "Guid": "dbaf1216-2603-4195-aff4-39f30fce2fbf",
        "playRate": 1.0,
        "GameTrigger": "Dialog",
        "gameTriggerArgs": 40066137,
        "personalConfig": 2,
        "ParentID": "00ec2cf9-17da-4fa5-ac6d-e996f0c540aa",
        "SourceNames": [
            {
                "sourceFileName": "VO_AQ\\VO_neuvillette\\vo_FDAQ003_42_neuvillette_07.wem",
                "rate": 1.0,
                "avatarName": "",
                "emotion": ""
            }
        ]
    },
    "dbe969de-47e1-4347-93cc-61675ac75f6e": {
        "Guid": "dbe969de-47e1-4347-93cc-61675ac75f6e",
        "playRate": 1.0,
        "GameTrigger": "Dialog",
        "gameTriggerArgs": 40066104,
        "personalConfig": 2,
        "ParentID": "00ec2cf9-17da-4fa5-ac6d-e996f0c540aa",
        "SourceNames": [
            {
                "sourceFileName": "VO_AQ\\VO_furina\\vo_FDAQ003_42_furina_01.wem",
                "rate": 1.0,
                "avatarName": "",
                "emotion": ""
            }
        ]
    },
    "e2b8c693-10ac-494a-b0a1-20b782a75d82": {
        "Guid": "e2b8c693-10ac-494a-b0a1-20b782a75d82",
        "playRate": 1.0,
        "GameTrigger": "Dialog",
        "gameTriggerArgs": 40066133,
        "personalConfig": 2,
        "ParentID": "00ec2cf9-17da-4fa5-ac6d-e996f0c540aa",
        "SourceNames": [
            {
                "sourceFileName": "VO_AQ\\VO_navia\\vo_FDAQ003_42_navia_03.wem",
                "rate": 1.0,
                "avatarName": "",
                "emotion": ""
            }
        ]
    },
    "e917c3f7-f31e-4c6c-8ff3-85a5c006de6b": {
        "Guid": "e917c3f7-f31e-4c6c-8ff3-85a5c006de6b",
        "playRate": 1.0,
        "GameTrigger": "Dialog",
        "gameTriggerArgs": 40066109,
        "personalConfig": 2,
        "ParentID": "00ec2cf9-17da-4fa5-ac6d-e996f0c540aa",
        "SourceNames": [
            {
                "sourceFileName": "VO_AQ\\VO_furina\\vo_FDAQ003_42_furina_04.wem",
                "rate": 1.0,
                "avatarName": "",
                "emotion": ""
            }
        ]
    },
    "f33678b2-2a85-462d-b74a-59ff0dfce23a": {
        "Guid": "f33678b2-2a85-462d-b74a-59ff0dfce23a",
        "playRate": 1.0,
        "GameTrigger": "Dialog",
        "gameTriggerArgs": 40066134,
        "personalConfig": 2,
        "ParentID": "00ec2cf9-17da-4fa5-ac6d-e996f0c540aa",
        "SourceNames": [
            {
                "sourceFileName": "VO_AQ\\VO_neuvillette\\vo_FDAQ003_42_neuvillette_04.wem",
                "rate": 1.0,
                "avatarName": "",
                "emotion": ""
            }
        ]
    },
    "f47939d2-5e73-4231-bb1e-fa1b62ffa2b2": {
        "Guid": "f47939d2-5e73-4231-bb1e-fa1b62ffa2b2",
        "playRate": 1.0,
        "GameTrigger": "Dialog",
        "gameTriggerArgs": 40066101,
        "personalConfig": 2,
        "ParentID": "00ec2cf9-17da-4fa5-ac6d-e996f0c540aa",
        "SourceNames": [
            {
                "sourceFileName": "VO_AQ\\VO_paimon\\vo_FDAQ003_42_paimon_01.wem",
                "rate": 1.0,
                "avatarName": "",
                "emotion": ""
            }
        ]
    },
    "fd74d972-8ac0-437a-8661-336d0121396b": {
        "Guid": "fd74d972-8ac0-437a-8661-336d0121396b",
        "playRate": 1.0,
        "GameTrigger": "Dialog",
        "gameTriggerArgs": 40066113,
        "personalConfig": 2,
        "ParentID": "00ec2cf9-17da-4fa5-ac6d-e996f0c540aa",
        "SourceNames": [
            {
                "sourceFileName": "VO_AQ\\VO_lyney\\vo_FDAQ003_42_lyney_04.wem",
                "rate": 1.0,
                "avatarName": "",
                "emotion": ""
            }
        ]
    }
}