{
    "06fa9db6-b9f8-43ce-8dd9-06c055da7590": {
        "Guid": "06fa9db6-b9f8-43ce-8dd9-06c055da7590",
        "playRate": 1.0,
        "GameTrigger": "Dialog",
        "gameTriggerArgs": 40040222,
        "personalConfig": 2,
        "ParentID": "31557bc3-a00c-4d8f-b13e-9cb2ae7b3ba8",
        "SourceNames": [
            {
                "sourceFileName": "VO_AQ\\VO_NPC\\vo_FDAQ001_2_vienne_03.wem",
                "rate": 1.0,
                "avatarName": "",
                "emotion": ""
            }
        ]
    },
    "0f3a39a9-42c1-4b57-8699-b31ed765b481": {
        "Guid": "0f3a39a9-42c1-4b57-8699-b31ed765b481",
        "playRate": 1.0,
        "GameTrigger": "Dialog",
        "gameTriggerArgs": 40040206,
        "personalConfig": 2,
        "ParentID": "31557bc3-a00c-4d8f-b13e-9cb2ae7b3ba8",
        "SourceNames": [
            {
                "sourceFileName": "VO_AQ\\VO_paimon\\vo_FDAQ001_2_paimon_04.wem",
                "rate": 1.0,
                "avatarName": "",
                "emotion": ""
            }
        ]
    },
    "125e7c05-9551-49b4-8224-cc4f1d75987c": {
        "Guid": "125e7c05-9551-49b4-8224-cc4f1d75987c",
        "playRate": 1.0,
        "GameTrigger": "Dialog",
        "gameTriggerArgs": 40040219,
        "personalConfig": 2,
        "ParentID": "31557bc3-a00c-4d8f-b13e-9cb2ae7b3ba8",
        "SourceNames": [
            {
                "sourceFileName": "VO_AQ\\VO_paimon\\vo_FDAQ001_2_paimon_10.wem",
                "rate": 1.0,
                "avatarName": "",
                "emotion": ""
            }
        ]
    },
    "19043698-44ce-4511-896f-3b1c66f5226a": {
        "Guid": "19043698-44ce-4511-896f-3b1c66f5226a",
        "playRate": 1.0,
        "GameTrigger": "Dialog",
        "gameTriggerArgs": 40040220,
        "personalConfig": 2,
        "ParentID": "31557bc3-a00c-4d8f-b13e-9cb2ae7b3ba8",
        "SourceNames": [
            {
                "sourceFileName": "VO_AQ\\VO_NPC\\vo_FDAQ001_2_antoine_03.wem",
                "rate": 1.0,
                "avatarName": "",
                "emotion": ""
            }
        ]
    },
    "1a3d4e5f-5c37-4c0a-ab02-35d10030b6e1": {
        "Guid": "1a3d4e5f-5c37-4c0a-ab02-35d10030b6e1",
        "playRate": 1.0,
        "GameTrigger": "Dialog",
        "gameTriggerArgs": 40040251,
        "personalConfig": 2,
        "ParentID": "31557bc3-a00c-4d8f-b13e-9cb2ae7b3ba8",
        "SourceNames": [
            {
                "sourceFileName": "VO_AQ\\VO_paimon\\vo_FDAQ001_2_paimon_19.wem",
                "rate": 1.0,
                "avatarName": "",
                "emotion": ""
            }
        ]
    },
    "1c26d9c9-ca73-4544-94c8-35c88500708e": {
        "Guid": "1c26d9c9-ca73-4544-94c8-35c88500708e",
        "playRate": 1.0,
        "GameTrigger": "Dialog",
        "gameTriggerArgs": 40040247,
        "personalConfig": 2,
        "ParentID": "31557bc3-a00c-4d8f-b13e-9cb2ae7b3ba8",
        "SourceNames": [
            {
                "sourceFileName": "VO_AQ\\VO_NPC\\vo_FDAQ001_2_vienne_13.wem",
                "rate": 1.0,
                "avatarName": "",
                "emotion": ""
            }
        ]
    },
    "1e87ff8e-5849-4f07-9c22-dbb6b2ef9d66": {
        "Guid": "1e87ff8e-5849-4f07-9c22-dbb6b2ef9d66",
        "playRate": 1.0,
        "GameTrigger": "Dialog",
        "gameTriggerArgs": 40040221,
        "personalConfig": 2,
        "ParentID": "31557bc3-a00c-4d8f-b13e-9cb2ae7b3ba8",
        "SourceNames": [
            {
                "sourceFileName": "VO_AQ\\VO_paimon\\vo_FDAQ001_2_paimon_11.wem",
                "rate": 1.0,
                "avatarName": "",
                "emotion": ""
            }
        ]
    },
    "358fc892-1e95-4f05-a8c7-ebc3b0a1f23e": {
        "Guid": "358fc892-1e95-4f05-a8c7-ebc3b0a1f23e",
        "playRate": 1.0,
        "GameTrigger": "Dialog",
        "gameTriggerArgs": 40040241,
        "personalConfig": 2,
        "ParentID": "31557bc3-a00c-4d8f-b13e-9cb2ae7b3ba8",
        "SourceNames": [
            {
                "sourceFileName": "VO_AQ\\VO_NPC\\vo_FDAQ001_2_vienne_11.wem",
                "rate": 1.0,
                "avatarName": "",
                "emotion": ""
            }
        ]
    },
    "3dd5b6d1-1a2d-4523-9045-03997c319501": {
        "Guid": "3dd5b6d1-1a2d-4523-9045-03997c319501",
        "playRate": 1.0,
        "GameTrigger": "Dialog",
        "gameTriggerArgs": 40040208,
        "personalConfig": 2,
        "ParentID": "31557bc3-a00c-4d8f-b13e-9cb2ae7b3ba8",
        "SourceNames": [
            {
                "sourceFileName": "VO_AQ\\VO_paimon\\vo_FDAQ001_2_paimon_05.wem",
                "rate": 1.0,
                "avatarName": "",
                "emotion": ""
            }
        ]
    },
    "4a5c70e3-fe3f-4630-b906-a78a0dc90749": {
        "Guid": "4a5c70e3-fe3f-4630-b906-a78a0dc90749",
        "playRate": 1.0,
        "GameTrigger": "Dialog",
        "gameTriggerArgs": 40040214,
        "personalConfig": 2,
        "ParentID": "31557bc3-a00c-4d8f-b13e-9cb2ae7b3ba8",
        "SourceNames": [
            {
                "sourceFileName": "VO_AQ\\VO_paimon\\vo_FDAQ001_2_paimon_09.wem",
                "rate": 1.0,
                "avatarName": "",
                "emotion": ""
            }
        ]
    },
    "4f842918-b71f-4c01-ad08-0e38b2a51894": {
        "Guid": "4f842918-b71f-4c01-ad08-0e38b2a51894",
        "playRate": 1.0,
        "GameTrigger": "Dialog",
        "gameTriggerArgs": 40040240,
        "personalConfig": 2,
        "ParentID": "31557bc3-a00c-4d8f-b13e-9cb2ae7b3ba8",
        "SourceNames": [
            {
                "sourceFileName": "VO_AQ\\VO_NPC\\vo_FDAQ001_2_antoine_05.wem",
                "rate": 1.0,
                "avatarName": "",
                "emotion": ""
            }
        ]
    },
    "4fc0e566-999d-4f1e-b80b-8dc644da39f1": {
        "Guid": "4fc0e566-999d-4f1e-b80b-8dc644da39f1",
        "playRate": 1.0,
        "GameTrigger": "Dialog",
        "gameTriggerArgs": 40040234,
        "personalConfig": 2,
        "ParentID": "31557bc3-a00c-4d8f-b13e-9cb2ae7b3ba8",
        "SourceNames": [
            {
                "sourceFileName": "VO_AQ\\VO_NPC\\vo_FDAQ001_2_antoine_04.wem",
                "rate": 1.0,
                "avatarName": "",
                "emotion": ""
            }
        ]
    },
    "518c67f8-b671-4103-a30d-645658b7e383": {
        "Guid": "518c67f8-b671-4103-a30d-645658b7e383",
        "playRate": 1.0,
        "GameTrigger": "Dialog",
        "gameTriggerArgs": 40040229,
        "personalConfig": 2,
        "ParentID": "31557bc3-a00c-4d8f-b13e-9cb2ae7b3ba8",
        "SourceNames": [
            {
                "sourceFileName": "VO_AQ\\VO_NPC\\vo_FDAQ001_2_vienne_08.wem",
                "rate": 1.0,
                "avatarName": "",
                "emotion": ""
            }
        ]
    },
    "57f7c897-6ec1-404e-b341-de938ea66784": {
        "Guid": "57f7c897-6ec1-404e-b341-de938ea66784",
        "playRate": 1.0,
        "GameTrigger": "Dialog",
        "gameTriggerArgs": 40040252,
        "personalConfig": 2,
        "ParentID": "31557bc3-a00c-4d8f-b13e-9cb2ae7b3ba8",
        "SourceNames": [
            {
                "sourceFileName": "VO_AQ\\VO_paimon\\vo_FDAQ001_2_paimon_20.wem",
                "rate": 1.0,
                "avatarName": "",
                "emotion": ""
            }
        ]
    },
    "58855cec-4364-4c76-a213-2cc4ccdb385f": {
        "Guid": "58855cec-4364-4c76-a213-2cc4ccdb385f",
        "playRate": 1.0,
        "GameTrigger": "Dialog",
        "gameTriggerArgs": 40040213,
        "personalConfig": 2,
        "ParentID": "31557bc3-a00c-4d8f-b13e-9cb2ae7b3ba8",
        "SourceNames": [
            {
                "sourceFileName": "VO_AQ\\VO_paimon\\vo_FDAQ001_2_paimon_08.wem",
                "rate": 1.0,
                "avatarName": "",
                "emotion": ""
            }
        ]
    },
    "62929869-1144-48e1-b53f-695445e11f4b": {
        "Guid": "62929869-1144-48e1-b53f-695445e11f4b",
        "playRate": 1.0,
        "GameTrigger": "Dialog",
        "gameTriggerArgs": 40040224,
        "personalConfig": 2,
        "ParentID": "31557bc3-a00c-4d8f-b13e-9cb2ae7b3ba8",
        "SourceNames": [
            {
                "sourceFileName": "VO_AQ\\VO_NPC\\vo_FDAQ001_2_vienne_05.wem",
                "rate": 1.0,
                "avatarName": "",
                "emotion": ""
            }
        ]
    },
    "65c7f2ab-d485-49fd-b00d-ad6fcad93f31": {
        "Guid": "65c7f2ab-d485-49fd-b00d-ad6fcad93f31",
        "playRate": 1.0,
        "GameTrigger": "Dialog",
        "gameTriggerArgs": 40040226,
        "personalConfig": 2,
        "ParentID": "31557bc3-a00c-4d8f-b13e-9cb2ae7b3ba8",
        "SourceNames": [
            {
                "sourceFileName": "VO_AQ\\VO_paimon\\vo_FDAQ001_2_paimon_12.wem",
                "rate": 1.0,
                "avatarName": "",
                "emotion": ""
            }
        ]
    },
    "6a7549ab-b621-42d4-9b7b-b925da736dc8": {
        "Guid": "6a7549ab-b621-42d4-9b7b-b925da736dc8",
        "playRate": 1.0,
        "GameTrigger": "Dialog",
        "gameTriggerArgs": 40040255,
        "personalConfig": 2,
        "ParentID": "31557bc3-a00c-4d8f-b13e-9cb2ae7b3ba8",
        "SourceNames": [
            {
                "sourceFileName": "VO_AQ\\VO_paimon\\vo_FDAQ001_2_paimon_21.wem",
                "rate": 1.0,
                "avatarName": "",
                "emotion": ""
            }
        ]
    },
    "6eadfe7b-1c7f-488e-a584-4c8078eb3160": {
        "Guid": "6eadfe7b-1c7f-488e-a584-4c8078eb3160",
        "playRate": 1.0,
        "GameTrigger": "Dialog",
        "gameTriggerArgs": 40040256,
        "personalConfig": 2,
        "ParentID": "31557bc3-a00c-4d8f-b13e-9cb2ae7b3ba8",
        "SourceNames": [
            {
                "sourceFileName": "VO_AQ\\VO_paimon\\vo_FDAQ001_2_paimon_22.wem",
                "rate": 1.0,
                "avatarName": "",
                "emotion": ""
            }
        ]
    },
    "772b9985-1443-4f35-b04e-6e26fa9e08a7": {
        "Guid": "772b9985-1443-4f35-b04e-6e26fa9e08a7",
        "playRate": 1.0,
        "GameTrigger": "Dialog",
        "gameTriggerArgs": 40040202,
        "personalConfig": 2,
        "ParentID": "31557bc3-a00c-4d8f-b13e-9cb2ae7b3ba8",
        "SourceNames": [
            {
                "sourceFileName": "VO_AQ\\VO_paimon\\vo_FDAQ001_2_paimon_02.wem",
                "rate": 1.0,
                "avatarName": "",
                "emotion": ""
            }
        ]
    },
    "79f3d428-cc05-49c7-bef6-336c518a64dc": {
        "Guid": "79f3d428-cc05-49c7-bef6-336c518a64dc",
        "playRate": 1.0,
        "GameTrigger": "Dialog",
        "gameTriggerArgs": 40040201,
        "personalConfig": 2,
        "ParentID": "31557bc3-a00c-4d8f-b13e-9cb2ae7b3ba8",
        "SourceNames": [
            {
                "sourceFileName": "VO_AQ\\VO_paimon\\vo_FDAQ001_2_paimon_01.wem",
                "rate": 1.0,
                "avatarName": "",
                "emotion": ""
            }
        ]
    },
    "811338cc-9e3c-4784-8b27-f23c88408a90": {
        "Guid": "811338cc-9e3c-4784-8b27-f23c88408a90",
        "playRate": 1.0,
        "GameTrigger": "Dialog",
        "gameTriggerArgs": 40040233,
        "personalConfig": 2,
        "ParentID": "31557bc3-a00c-4d8f-b13e-9cb2ae7b3ba8",
        "SourceNames": [
            {
                "sourceFileName": "VO_AQ\\VO_paimon\\vo_FDAQ001_2_paimon_14.wem",
                "rate": 1.0,
                "avatarName": "",
                "emotion": ""
            }
        ]
    },
    "8608c4e3-c256-4503-8c24-22615686b487": {
        "Guid": "8608c4e3-c256-4503-8c24-22615686b487",
        "playRate": 1.0,
        "GameTrigger": "Dialog",
        "gameTriggerArgs": 40040215,
        "personalConfig": 2,
        "ParentID": "31557bc3-a00c-4d8f-b13e-9cb2ae7b3ba8",
        "SourceNames": [
            {
                "sourceFileName": "VO_AQ\\VO_NPC\\vo_FDAQ001_2_antoine_01.wem",
                "rate": 1.0,
                "avatarName": "",
                "emotion": ""
            }
        ]
    },
    "907493d9-9bc2-4cac-a4b0-4db33f3ca7d5": {
        "Guid": "907493d9-9bc2-4cac-a4b0-4db33f3ca7d5",
        "playRate": 1.0,
        "GameTrigger": "Dialog",
        "gameTriggerArgs": 40040245,
        "personalConfig": 2,
        "ParentID": "31557bc3-a00c-4d8f-b13e-9cb2ae7b3ba8",
        "SourceNames": [
            {
                "sourceFileName": "VO_AQ\\VO_NPC\\vo_FDAQ001_2_vienne_12.wem",
                "rate": 1.0,
                "avatarName": "",
                "emotion": ""
            }
        ]
    },
    "929ab38b-6491-4d58-8b27-5c38a65238a0": {
        "Guid": "929ab38b-6491-4d58-8b27-5c38a65238a0",
        "playRate": 1.0,
        "GameTrigger": "Dialog",
        "gameTriggerArgs": 40040250,
        "personalConfig": 2,
        "ParentID": "31557bc3-a00c-4d8f-b13e-9cb2ae7b3ba8",
        "SourceNames": [
            {
                "sourceFileName": "VO_AQ\\VO_paimon\\vo_FDAQ001_2_paimon_18.wem",
                "rate": 1.0,
                "avatarName": "",
                "emotion": ""
            }
        ]
    },
    "99250714-bdb6-4f61-8db2-4074f6a6fe53": {
        "Guid": "99250714-bdb6-4f61-8db2-4074f6a6fe53",
        "playRate": 1.0,
        "GameTrigger": "Dialog",
        "gameTriggerArgs": 40040216,
        "personalConfig": 2,
        "ParentID": "31557bc3-a00c-4d8f-b13e-9cb2ae7b3ba8",
        "SourceNames": [
            {
                "sourceFileName": "VO_AQ\\VO_NPC\\vo_FDAQ001_2_vienne_01.wem",
                "rate": 1.0,
                "avatarName": "",
                "emotion": ""
            }
        ]
    },
    "a1e6204d-7ece-4bd2-9b94-7e281c9e18f0": {
        "Guid": "a1e6204d-7ece-4bd2-9b94-7e281c9e18f0",
        "playRate": 1.0,
        "GameTrigger": "Dialog",
        "gameTriggerArgs": 40040212,
        "personalConfig": 2,
        "ParentID": "31557bc3-a00c-4d8f-b13e-9cb2ae7b3ba8",
        "SourceNames": [
            {
                "sourceFileName": "VO_AQ\\VO_paimon\\vo_FDAQ001_2_paimon_07.wem",
                "rate": 1.0,
                "avatarName": "",
                "emotion": ""
            }
        ]
    },
    "a99ede5a-c621-41f0-8ad1-29e7419b77c6": {
        "Guid": "a99ede5a-c621-41f0-8ad1-29e7419b77c6",
        "playRate": 1.0,
        "GameTrigger": "Dialog",
        "gameTriggerArgs": 40040232,
        "personalConfig": 2,
        "ParentID": "31557bc3-a00c-4d8f-b13e-9cb2ae7b3ba8",
        "SourceNames": [
            {
                "sourceFileName": "VO_AQ\\VO_paimon\\vo_FDAQ001_2_paimon_13.wem",
                "rate": 1.0,
                "avatarName": "",
                "emotion": ""
            }
        ]
    },
    "aa8f1928-b406-42d7-9e66-ca499b739fde": {
        "Guid": "aa8f1928-b406-42d7-9e66-ca499b739fde",
        "playRate": 1.0,
        "GameTrigger": "Dialog",
        "gameTriggerArgs": 40040246,
        "personalConfig": 2,
        "ParentID": "31557bc3-a00c-4d8f-b13e-9cb2ae7b3ba8",
        "SourceNames": [
            {
                "sourceFileName": "VO_AQ\\VO_NPC\\vo_FDAQ001_2_antoine_07.wem",
                "rate": 1.0,
                "avatarName": "",
                "emotion": ""
            }
        ]
    },
    "ab91c1be-a4f5-4659-81c2-7681584ee3e7": {
        "Guid": "ab91c1be-a4f5-4659-81c2-7681584ee3e7",
        "playRate": 1.0,
        "GameTrigger": "Dialog",
        "gameTriggerArgs": 40040239,
        "personalConfig": 2,
        "ParentID": "31557bc3-a00c-4d8f-b13e-9cb2ae7b3ba8",
        "SourceNames": [
            {
                "sourceFileName": "VO_AQ\\VO_paimon\\vo_FDAQ001_2_paimon_15.wem",
                "rate": 1.0,
                "avatarName": "",
                "emotion": ""
            }
        ]
    },
    "b8ffd625-e705-4b4f-a2b0-2ed3fe0aaf93": {
        "Guid": "b8ffd625-e705-4b4f-a2b0-2ed3fe0aaf93",
        "playRate": 1.0,
        "GameTrigger": "Dialog",
        "gameTriggerArgs": 40040228,
        "personalConfig": 2,
        "ParentID": "31557bc3-a00c-4d8f-b13e-9cb2ae7b3ba8",
        "SourceNames": [
            {
                "sourceFileName": "VO_AQ\\VO_NPC\\vo_FDAQ001_2_vienne_07.wem",
                "rate": 1.0,
                "avatarName": "",
                "emotion": ""
            }
        ]
    },
    "b91d274d-8cee-498a-b72d-48c295478879": {
        "Guid": "b91d274d-8cee-498a-b72d-48c295478879",
        "playRate": 1.0,
        "GameTrigger": "Dialog",
        "gameTriggerArgs": 40040243,
        "personalConfig": 2,
        "ParentID": "31557bc3-a00c-4d8f-b13e-9cb2ae7b3ba8",
        "SourceNames": [
            {
                "sourceFileName": "VO_AQ\\VO_paimon\\vo_FDAQ001_2_paimon_17.wem",
                "rate": 1.0,
                "avatarName": "",
                "emotion": ""
            }
        ]
    },
    "b94f39e3-8ee2-4959-a89d-8a0dc40e1e27": {
        "Guid": "b94f39e3-8ee2-4959-a89d-8a0dc40e1e27",
        "playRate": 1.0,
        "GameTrigger": "Dialog",
        "gameTriggerArgs": 40040235,
        "personalConfig": 2,
        "ParentID": "31557bc3-a00c-4d8f-b13e-9cb2ae7b3ba8",
        "SourceNames": [
            {
                "sourceFileName": "VO_AQ\\VO_NPC\\vo_FDAQ001_2_vienne_09a.wem",
                "rate": 1.0,
                "avatarName": "",
                "emotion": "",
                "gender": 2
            },
            {
                "sourceFileName": "VO_AQ\\VO_NPC\\vo_FDAQ001_2_vienne_09b.wem",
                "rate": 1.0,
                "avatarName": "",
                "emotion": "",
                "gender": 1
            }
        ]
    },
    "c449cb5a-fc30-4a7a-a58f-25139c5fc495": {
        "Guid": "c449cb5a-fc30-4a7a-a58f-25139c5fc495",
        "playRate": 1.0,
        "GameTrigger": "Dialog",
        "gameTriggerArgs": 40040209,
        "personalConfig": 2,
        "ParentID": "31557bc3-a00c-4d8f-b13e-9cb2ae7b3ba8",
        "SourceNames": [
            {
                "sourceFileName": "VO_AQ\\VO_paimon\\vo_FDAQ001_2_paimon_06.wem",
                "rate": 1.0,
                "avatarName": "",
                "emotion": ""
            }
        ]
    },
    "c4ce5298-bd08-44e0-b147-ee6af30a5726": {
        "Guid": "c4ce5298-bd08-44e0-b147-ee6af30a5726",
        "playRate": 1.0,
        "GameTrigger": "Dialog",
        "gameTriggerArgs": 40040244,
        "personalConfig": 2,
        "ParentID": "31557bc3-a00c-4d8f-b13e-9cb2ae7b3ba8",
        "SourceNames": [
            {
                "sourceFileName": "VO_AQ\\VO_NPC\\vo_FDAQ001_2_antoine_06.wem",
                "rate": 1.0,
                "avatarName": "",
                "emotion": ""
            }
        ]
    },
    "d50145b5-c43c-4731-8d88-c048b39201ad": {
        "Guid": "d50145b5-c43c-4731-8d88-c048b39201ad",
        "playRate": 1.0,
        "GameTrigger": "Dialog",
        "gameTriggerArgs": 40040236,
        "personalConfig": 2,
        "ParentID": "31557bc3-a00c-4d8f-b13e-9cb2ae7b3ba8",
        "SourceNames": [
            {
                "sourceFileName": "VO_AQ\\VO_NPC\\vo_FDAQ001_2_vienne_10.wem",
                "rate": 1.0,
                "avatarName": "",
                "emotion": ""
            }
        ]
    },
    "d5658ead-a11b-42fc-96cb-05d7f778de2b": {
        "Guid": "d5658ead-a11b-42fc-96cb-05d7f778de2b",
        "playRate": 1.0,
        "GameTrigger": "Dialog",
        "gameTriggerArgs": 40040217,
        "personalConfig": 2,
        "ParentID": "31557bc3-a00c-4d8f-b13e-9cb2ae7b3ba8",
        "SourceNames": [
            {
                "sourceFileName": "VO_AQ\\VO_NPC\\vo_FDAQ001_2_vienne_02.wem",
                "rate": 1.0,
                "avatarName": "",
                "emotion": ""
            }
        ]
    },
    "db48521d-bfb8-46c2-86fb-66d1ed6b9b88": {
        "Guid": "db48521d-bfb8-46c2-86fb-66d1ed6b9b88",
        "playRate": 1.0,
        "GameTrigger": "Dialog",
        "gameTriggerArgs": 40040223,
        "personalConfig": 2,
        "ParentID": "31557bc3-a00c-4d8f-b13e-9cb2ae7b3ba8",
        "SourceNames": [
            {
                "sourceFileName": "VO_AQ\\VO_NPC\\vo_FDAQ001_2_vienne_04.wem",
                "rate": 1.0,
                "avatarName": "",
                "emotion": ""
            }
        ]
    },
    "dda1a03e-5f9f-4caa-8c60-d59821485caf": {
        "Guid": "dda1a03e-5f9f-4caa-8c60-d59821485caf",
        "playRate": 1.0,
        "GameTrigger": "Dialog",
        "gameTriggerArgs": 40040218,
        "personalConfig": 2,
        "ParentID": "31557bc3-a00c-4d8f-b13e-9cb2ae7b3ba8",
        "SourceNames": [
            {
                "sourceFileName": "VO_AQ\\VO_NPC\\vo_FDAQ001_2_antoine_02.wem",
                "rate": 1.0,
                "avatarName": "",
                "emotion": ""
            }
        ]
    },
    "e2839050-9e0a-4364-9a77-b5274611ccd2": {
        "Guid": "e2839050-9e0a-4364-9a77-b5274611ccd2",
        "playRate": 1.0,
        "GameTrigger": "Dialog",
        "gameTriggerArgs": 40040242,
        "personalConfig": 2,
        "ParentID": "31557bc3-a00c-4d8f-b13e-9cb2ae7b3ba8",
        "SourceNames": [
            {
                "sourceFileName": "VO_AQ\\VO_paimon\\vo_FDAQ001_2_paimon_16.wem",
                "rate": 1.0,
                "avatarName": "",
                "emotion": ""
            }
        ]
    },
    "fb4ee7f1-354d-4efe-b647-7a291d2aa7c0": {
        "Guid": "fb4ee7f1-354d-4efe-b647-7a291d2aa7c0",
        "playRate": 1.0,
        "GameTrigger": "Dialog",
        "gameTriggerArgs": 40040205,
        "personalConfig": 2,
        "ParentID": "31557bc3-a00c-4d8f-b13e-9cb2ae7b3ba8",
        "SourceNames": [
            {
                "sourceFileName": "VO_AQ\\VO_paimon\\vo_FDAQ001_2_paimon_03.wem",
                "rate": 1.0,
                "avatarName": "",
                "emotion": ""
            }
        ]
    },
    "fcba5cc3-4dd5-4464-9011-a91e15c9f114": {
        "Guid": "fcba5cc3-4dd5-4464-9011-a91e15c9f114",
        "playRate": 1.0,
        "GameTrigger": "Dialog",
        "gameTriggerArgs": 40040227,
        "personalConfig": 2,
        "ParentID": "31557bc3-a00c-4d8f-b13e-9cb2ae7b3ba8",
        "SourceNames": [
            {
                "sourceFileName": "VO_AQ\\VO_NPC\\vo_FDAQ001_2_vienne_06.wem",
                "rate": 1.0,
                "avatarName": "",
                "emotion": ""
            }
        ]
    }
}