{
    "15f44aeb-cdca-4af1-9848-4603650c49b6": {
        "Guid": "15f44aeb-cdca-4af1-9848-4603650c49b6",
        "playRate": 1.0,
        "GameTrigger": "Dialog",
        "gameTriggerArgs": 140013203,
        "personalConfig": 2,
        "ParentID": "ecc7746c-2633-4c9a-8d67-e99d1cd1642f",
        "SourceNames": [
            {
                "sourceFileName": "VO_freetalk\\VO_lynette\\vo_dialog_LNLQ002_lynette_01.wem",
                "rate": 1.0,
                "avatarName": "",
                "emotion": ""
            }
        ]
    },
    "284afe84-57a2-4414-8913-cf0d50998439": {
        "Guid": "284afe84-57a2-4414-8913-cf0d50998439",
        "playRate": 1.0,
        "GameTrigger": "Dialog",
        "gameTriggerArgs": 40060702,
        "personalConfig": 2,
        "ParentID": "ecc7746c-2633-4c9a-8d67-e99d1cd1642f",
        "SourceNames": [
            {
                "sourceFileName": "VO_freetalk\\VO_lynette\\vo_dialog_FDAQ003_lynette_02.wem",
                "rate": 1.0,
                "avatarName": "",
                "emotion": ""
            },
            {
                "sourceFileName": "VO_freetalk\\VO_lynette\\vo_dialog_FDAQ003_lynette_02.wem",
                "rate": 1.0,
                "avatarName": "",
                "emotion": ""
            }
        ]
    },
    "4412bcd3-449b-471c-a71b-dd2b13837d43": {
        "Guid": "4412bcd3-449b-471c-a71b-dd2b13837d43",
        "playRate": 1.0,
        "GameTrigger": "Dialog",
        "gameTriggerArgs": 40102402,
        "personalConfig": 2,
        "ParentID": "ecc7746c-2633-4c9a-8d67-e99d1cd1642f",
        "SourceNames": [
            {
                "sourceFileName": "VO_freetalk\\VO_lynette\\vo_dialog_FDAQ108_lynette_01.wem",
                "rate": 1.0,
                "avatarName": "",
                "emotion": ""
            }
        ]
    },
    "8ae60b6c-4ed4-4fd3-91eb-5baae7235ccc": {
        "Guid": "8ae60b6c-4ed4-4fd3-91eb-5baae7235ccc",
        "playRate": 1.0,
        "GameTrigger": "Dialog",
        "gameTriggerArgs": 140001601,
        "personalConfig": 2,
        "ParentID": "ecc7746c-2633-4c9a-8d67-e99d1cd1642f",
        "SourceNames": [
            {
                "sourceFileName": "VO_freetalk\\VO_lynette\\vo_dialog_LNLQ001_lynette_01.wem",
                "rate": 1.0,
                "avatarName": "",
                "emotion": ""
            }
        ]
    },
    "9bf47c1e-a752-4599-a06d-4e445a213f09": {
        "Guid": "9bf47c1e-a752-4599-a06d-4e445a213f09",
        "playRate": 1.0,
        "GameTrigger": "Dialog",
        "gameTriggerArgs": 140021202,
        "personalConfig": 2,
        "ParentID": "ecc7746c-2633-4c9a-8d67-e99d1cd1642f",
        "SourceNames": [
            {
                "sourceFileName": "VO_freetalk\\VO_lynette\\vo_dialog_LNLQ003_lynette_02.wem",
                "rate": 1.0,
                "avatarName": "",
                "emotion": ""
            }
        ]
    },
    "a8fe09a8-b14e-4eed-9002-4a4adf9de9d7": {
        "Guid": "a8fe09a8-b14e-4eed-9002-4a4adf9de9d7",
        "playRate": 1.0,
        "GameTrigger": "Dialog",
        "gameTriggerArgs": 40192201,
        "personalConfig": 2,
        "ParentID": "ecc7746c-2633-4c9a-8d67-e99d1cd1642f",
        "SourceNames": [
            {
                "sourceFileName": "VO_freetalk\\VO_lynette\\vo_dialog_FDAQ109_lynette_01.wem",
                "rate": 1.0,
                "avatarName": "",
                "emotion": ""
            }
        ]
    },
    "e55de7a9-04cd-457b-a01a-69538118f836": {
        "Guid": "e55de7a9-04cd-457b-a01a-69538118f836",
        "playRate": 1.0,
        "GameTrigger": "Dialog",
        "gameTriggerArgs": 40060701,
        "personalConfig": 2,
        "ParentID": "ecc7746c-2633-4c9a-8d67-e99d1cd1642f",
        "SourceNames": [
            {
                "sourceFileName": "VO_freetalk\\VO_lynette\\vo_dialog_FDAQ003_lynette_01.wem",
                "rate": 1.0,
                "avatarName": "",
                "emotion": ""
            },
            {
                "sourceFileName": "VO_freetalk\\VO_lynette\\vo_dialog_FDAQ003_lynette_01.wem",
                "rate": 1.0,
                "avatarName": "",
                "emotion": ""
            }
        ]
    },
    "f409c99c-96c4-43db-81c7-f2f826a1e075": {
        "Guid": "f409c99c-96c4-43db-81c7-f2f826a1e075",
        "playRate": 1.0,
        "GameTrigger": "Dialog",
        "gameTriggerArgs": 140013401,
        "personalConfig": 2,
        "ParentID": "ecc7746c-2633-4c9a-8d67-e99d1cd1642f",
        "SourceNames": [
            {
                "sourceFileName": "VO_freetalk\\VO_lynette\\vo_dialog_LNLQ002_lynette_02.wem",
                "rate": 1.0,
                "avatarName": "",
                "emotion": ""
            }
        ]
    },
    "f69a2824-d7f4-46ee-bc78-b0eedefa228d": {
        "Guid": "f69a2824-d7f4-46ee-bc78-b0eedefa228d",
        "playRate": 1.0,
        "GameTrigger": "Dialog",
        "gameTriggerArgs": 140021201,
        "personalConfig": 2,
        "ParentID": "ecc7746c-2633-4c9a-8d67-e99d1cd1642f",
        "SourceNames": [
            {
                "sourceFileName": "VO_freetalk\\VO_lynette\\vo_dialog_LNLQ003_lynette_01.wem",
                "rate": 1.0,
                "avatarName": "",
                "emotion": ""
            }
        ]
    }
}