{
    "0ed1895a-a93d-4f84-a119-1755d2dd78ec": {
        "Guid": "0ed1895a-a93d-4f84-a119-1755d2dd78ec",
        "playRate": 1.0,
        "GameTrigger": "Dialog",
        "gameTriggerArgs": 101220117,
        "personalConfig": 2,
        "ParentID": "5798dfb9-8d1d-42d4-9370-ba4ee3637587",
        "SourceNames": [
            {
                "sourceFileName": "VO_LQ\\VO_npc\\vo_ELLQ003_1_schubert_07.wem",
                "rate": 1.0,
                "avatarName": "",
                "emotion": ""
            }
        ]
    },
    "18bc098d-6441-492c-989f-9eaf02ccb2c1": {
        "Guid": "18bc098d-6441-492c-989f-9eaf02ccb2c1",
        "playRate": 1.0,
        "GameTrigger": "Dialog",
        "gameTriggerArgs": 101220127,
        "personalConfig": 2,
        "ParentID": "5798dfb9-8d1d-42d4-9370-ba4ee3637587",
        "SourceNames": [
            {
                "sourceFileName": "VO_LQ\\VO_npc\\vo_ELLQ003_1_schubert_13.wem",
                "rate": 1.0,
                "avatarName": "",
                "emotion": ""
            }
        ]
    },
    "19a386ff-04fe-48d4-920c-5de56fd4b1b9": {
        "Guid": "19a386ff-04fe-48d4-920c-5de56fd4b1b9",
        "playRate": 1.0,
        "GameTrigger": "Dialog",
        "gameTriggerArgs": 101220125,
        "personalConfig": 2,
        "ParentID": "5798dfb9-8d1d-42d4-9370-ba4ee3637587",
        "SourceNames": [
            {
                "sourceFileName": "VO_LQ\\VO_npc\\vo_ELLQ003_1_schubert_12.wem",
                "rate": 1.0,
                "avatarName": "",
                "emotion": ""
            }
        ]
    },
    "19b3b355-46d3-4057-ac77-1c014d8ba125": {
        "Guid": "19b3b355-46d3-4057-ac77-1c014d8ba125",
        "playRate": 1.0,
        "GameTrigger": "Dialog",
        "gameTriggerArgs": 101220122,
        "personalConfig": 2,
        "ParentID": "5798dfb9-8d1d-42d4-9370-ba4ee3637587",
        "SourceNames": [
            {
                "sourceFileName": "VO_LQ\\VO_npc\\vo_ELLQ003_1_schubert_09.wem",
                "rate": 1.0,
                "avatarName": "",
                "emotion": ""
            }
        ]
    },
    "1d48b472-973d-48db-bd15-07e3f4de3124": {
        "Guid": "1d48b472-973d-48db-bd15-07e3f4de3124",
        "playRate": 1.0,
        "GameTrigger": "Dialog",
        "gameTriggerArgs": 101220113,
        "personalConfig": 2,
        "ParentID": "5798dfb9-8d1d-42d4-9370-ba4ee3637587",
        "SourceNames": [
            {
                "sourceFileName": "VO_LQ\\VO_npc\\vo_ELLQ003_1_schubert_04b.wem",
                "rate": 1.0,
                "avatarName": "",
                "emotion": ""
            }
        ]
    },
    "1f7f4d4a-0bac-4b90-852b-eef05c8d8280": {
        "Guid": "1f7f4d4a-0bac-4b90-852b-eef05c8d8280",
        "playRate": 1.0,
        "GameTrigger": "Dialog",
        "gameTriggerArgs": 101220103,
        "personalConfig": 2,
        "ParentID": "5798dfb9-8d1d-42d4-9370-ba4ee3637587",
        "SourceNames": [
            {
                "sourceFileName": "VO_LQ\\VO_npc\\vo_ELLQ003_1_schubert_01.wem",
                "rate": 1.0,
                "avatarName": "",
                "emotion": ""
            }
        ]
    },
    "2135e1d3-8a00-4b9e-8461-c4b01f74245d": {
        "Guid": "2135e1d3-8a00-4b9e-8461-c4b01f74245d",
        "playRate": 1.0,
        "GameTrigger": "Dialog",
        "gameTriggerArgs": 101220129,
        "personalConfig": 2,
        "ParentID": "5798dfb9-8d1d-42d4-9370-ba4ee3637587",
        "SourceNames": [
            {
                "sourceFileName": "VO_LQ\\VO_npc\\vo_ELLQ003_1_schubert_14.wem",
                "rate": 1.0,
                "avatarName": "",
                "emotion": ""
            }
        ]
    },
    "38031bcd-a205-4173-80e4-46d054792e8e": {
        "Guid": "38031bcd-a205-4173-80e4-46d054792e8e",
        "playRate": 1.0,
        "GameTrigger": "Dialog",
        "gameTriggerArgs": 101220126,
        "personalConfig": 2,
        "ParentID": "5798dfb9-8d1d-42d4-9370-ba4ee3637587",
        "SourceNames": [
            {
                "sourceFileName": "VO_LQ\\VO_paimon\\vo_ELLQ003_1_paimon_06.wem",
                "rate": 1.0,
                "avatarName": "",
                "emotion": ""
            }
        ]
    },
    "4e52a02b-0e86-490a-a2c5-95266456323f": {
        "Guid": "4e52a02b-0e86-490a-a2c5-95266456323f",
        "playRate": 1.0,
        "GameTrigger": "Dialog",
        "gameTriggerArgs": 101220105,
        "personalConfig": 2,
        "ParentID": "5798dfb9-8d1d-42d4-9370-ba4ee3637587",
        "SourceNames": [
            {
                "sourceFileName": "VO_LQ\\VO_npc\\vo_ELLQ003_1_schubert_02a.wem",
                "rate": 1.0,
                "avatarName": "",
                "emotion": ""
            }
        ]
    },
    "51fbded0-6379-4f46-9359-27dca04d3869": {
        "Guid": "51fbded0-6379-4f46-9359-27dca04d3869",
        "playRate": 1.0,
        "GameTrigger": "Dialog",
        "gameTriggerArgs": 101220123,
        "personalConfig": 2,
        "ParentID": "5798dfb9-8d1d-42d4-9370-ba4ee3637587",
        "SourceNames": [
            {
                "sourceFileName": "VO_LQ\\VO_npc\\vo_ELLQ003_1_schubert_10.wem",
                "rate": 1.0,
                "avatarName": "",
                "emotion": ""
            }
        ]
    },
    "6aa426f3-b8e9-47ed-81b6-7c23c310d7bd": {
        "Guid": "6aa426f3-b8e9-47ed-81b6-7c23c310d7bd",
        "playRate": 1.0,
        "GameTrigger": "Dialog",
        "gameTriggerArgs": 101220136,
        "personalConfig": 2,
        "ParentID": "5798dfb9-8d1d-42d4-9370-ba4ee3637587",
        "SourceNames": [
            {
                "sourceFileName": "VO_LQ\\VO_npc\\vo_ELLQ003_1_schubert_18.wem",
                "rate": 1.0,
                "avatarName": "",
                "emotion": ""
            }
        ]
    },
    "71f29b07-e8fe-4b56-992a-5b2c27578ec3": {
        "Guid": "71f29b07-e8fe-4b56-992a-5b2c27578ec3",
        "playRate": 1.0,
        "GameTrigger": "Dialog",
        "gameTriggerArgs": 101220111,
        "personalConfig": 2,
        "ParentID": "5798dfb9-8d1d-42d4-9370-ba4ee3637587",
        "SourceNames": [
            {
                "sourceFileName": "VO_LQ\\VO_npc\\vo_ELLQ003_1_schubert_04a.wem",
                "rate": 1.0,
                "avatarName": "",
                "emotion": ""
            }
        ]
    },
    "79e790c4-4114-45ec-81bf-665d6b745138": {
        "Guid": "79e790c4-4114-45ec-81bf-665d6b745138",
        "playRate": 1.0,
        "GameTrigger": "Dialog",
        "gameTriggerArgs": 101220102,
        "personalConfig": 2,
        "AAJIMDDBMLJ": 1,
        "ParentID": "5798dfb9-8d1d-42d4-9370-ba4ee3637587",
        "SourceNames": [
            {
                "sourceFileName": "VO_LQ\\VO_paimon\\vo_ELLQ003_1_paimon_02.wem",
                "rate": 1.0,
                "avatarName": "",
                "emotion": ""
            }
        ]
    },
    "803711bb-51eb-42ff-ab82-22c0f39d9f68": {
        "Guid": "803711bb-51eb-42ff-ab82-22c0f39d9f68",
        "playRate": 1.0,
        "GameTrigger": "Dialog",
        "gameTriggerArgs": 101220115,
        "personalConfig": 2,
        "AAJIMDDBMLJ": 1,
        "ParentID": "5798dfb9-8d1d-42d4-9370-ba4ee3637587",
        "SourceNames": [
            {
                "sourceFileName": "VO_LQ\\VO_paimon\\vo_ELLQ003_1_paimon_04.wem",
                "rate": 1.0,
                "avatarName": "",
                "emotion": ""
            }
        ]
    },
    "854e964c-17c8-4bff-b7b5-1a4e486b57b5": {
        "Guid": "854e964c-17c8-4bff-b7b5-1a4e486b57b5",
        "playRate": 1.0,
        "GameTrigger": "Dialog",
        "gameTriggerArgs": 101220101,
        "personalConfig": 2,
        "AAJIMDDBMLJ": 1,
        "ParentID": "5798dfb9-8d1d-42d4-9370-ba4ee3637587",
        "SourceNames": [
            {
                "sourceFileName": "VO_LQ\\VO_paimon\\vo_ELLQ003_1_paimon_01.wem",
                "rate": 1.0,
                "avatarName": "",
                "emotion": ""
            }
        ]
    },
    "95041eab-f163-4dd1-aa58-2f9b54ef1889": {
        "Guid": "95041eab-f163-4dd1-aa58-2f9b54ef1889",
        "playRate": 1.0,
        "GameTrigger": "Dialog",
        "gameTriggerArgs": 101220120,
        "personalConfig": 2,
        "ParentID": "5798dfb9-8d1d-42d4-9370-ba4ee3637587",
        "SourceNames": [
            {
                "sourceFileName": "VO_LQ\\VO_npc\\vo_ELLQ003_1_schubert_08.wem",
                "rate": 1.0,
                "avatarName": "",
                "emotion": ""
            }
        ]
    },
    "9927d6e3-f857-4bdc-92fb-d80ef8bfd0a8": {
        "Guid": "9927d6e3-f857-4bdc-92fb-d80ef8bfd0a8",
        "playRate": 1.0,
        "GameTrigger": "Dialog",
        "gameTriggerArgs": 101220137,
        "personalConfig": 2,
        "ParentID": "5798dfb9-8d1d-42d4-9370-ba4ee3637587",
        "SourceNames": [
            {
                "sourceFileName": "VO_LQ\\VO_paimon\\vo_ELLQ003_1_paimon_07.wem",
                "rate": 1.0,
                "avatarName": "",
                "emotion": ""
            }
        ]
    },
    "99aa265d-095f-4165-9916-da9fb2102c24": {
        "Guid": "99aa265d-095f-4165-9916-da9fb2102c24",
        "playRate": 1.0,
        "GameTrigger": "Dialog",
        "gameTriggerArgs": 101220109,
        "personalConfig": 2,
        "AAJIMDDBMLJ": 1,
        "ParentID": "5798dfb9-8d1d-42d4-9370-ba4ee3637587",
        "SourceNames": [
            {
                "sourceFileName": "VO_LQ\\VO_paimon\\vo_ELLQ003_1_paimon_03.wem",
                "rate": 1.0,
                "avatarName": "",
                "emotion": ""
            }
        ]
    },
    "9de1d192-bdfd-482a-a7f7-07c9229a1418": {
        "Guid": "9de1d192-bdfd-482a-a7f7-07c9229a1418",
        "playRate": 1.0,
        "GameTrigger": "Dialog",
        "gameTriggerArgs": 101220116,
        "personalConfig": 2,
        "ParentID": "5798dfb9-8d1d-42d4-9370-ba4ee3637587",
        "SourceNames": [
            {
                "sourceFileName": "VO_LQ\\VO_npc\\vo_ELLQ003_1_schubert_06.wem",
                "rate": 1.0,
                "avatarName": "",
                "emotion": ""
            }
        ]
    },
    "ab55e651-ee30-4d76-97e2-c278c14a9fa4": {
        "Guid": "ab55e651-ee30-4d76-97e2-c278c14a9fa4",
        "playRate": 1.0,
        "GameTrigger": "Dialog",
        "gameTriggerArgs": 101220121,
        "personalConfig": 2,
        "ParentID": "5798dfb9-8d1d-42d4-9370-ba4ee3637587",
        "SourceNames": [
            {
                "sourceFileName": "VO_LQ\\VO_paimon\\vo_ELLQ003_1_paimon_05.wem",
                "rate": 1.0,
                "avatarName": "",
                "emotion": ""
            }
        ]
    },
    "b400225a-5879-4438-b4a0-c696d0450649": {
        "Guid": "b400225a-5879-4438-b4a0-c696d0450649",
        "playRate": 1.0,
        "GameTrigger": "Dialog",
        "gameTriggerArgs": 101220108,
        "personalConfig": 2,
        "ParentID": "5798dfb9-8d1d-42d4-9370-ba4ee3637587",
        "SourceNames": [
            {
                "sourceFileName": "VO_LQ\\VO_npc\\vo_ELLQ003_1_schubert_03.wem",
                "rate": 1.0,
                "avatarName": "",
                "emotion": ""
            }
        ]
    },
    "d2e7a560-f44a-4fbe-b5a0-eab4ce087b3a": {
        "Guid": "d2e7a560-f44a-4fbe-b5a0-eab4ce087b3a",
        "playRate": 1.0,
        "GameTrigger": "Dialog",
        "gameTriggerArgs": 101220124,
        "personalConfig": 2,
        "ParentID": "5798dfb9-8d1d-42d4-9370-ba4ee3637587",
        "SourceNames": [
            {
                "sourceFileName": "VO_LQ\\VO_npc\\vo_ELLQ003_1_schubert_11.wem",
                "rate": 1.0,
                "avatarName": "",
                "emotion": ""
            }
        ]
    },
    "d5ba6002-0b82-4123-b749-8388c61385d1": {
        "Guid": "d5ba6002-0b82-4123-b749-8388c61385d1",
        "playRate": 1.0,
        "GameTrigger": "Dialog",
        "gameTriggerArgs": 101220133,
        "personalConfig": 2,
        "ParentID": "5798dfb9-8d1d-42d4-9370-ba4ee3637587",
        "SourceNames": [
            {
                "sourceFileName": "VO_LQ\\VO_npc\\vo_ELLQ003_1_schubert_16.wem",
                "rate": 1.0,
                "avatarName": "",
                "emotion": ""
            }
        ]
    },
    "d7066640-7742-4cab-9864-6a0010303c32": {
        "Guid": "d7066640-7742-4cab-9864-6a0010303c32",
        "playRate": 1.0,
        "GameTrigger": "Dialog",
        "gameTriggerArgs": 101220107,
        "personalConfig": 2,
        "ParentID": "5798dfb9-8d1d-42d4-9370-ba4ee3637587",
        "SourceNames": [
            {
                "sourceFileName": "VO_LQ\\VO_npc\\vo_ELLQ003_1_schubert_02b.wem",
                "rate": 1.0,
                "avatarName": "",
                "emotion": ""
            }
        ]
    },
    "d7af1348-edde-4eef-991e-c4fac5c6b63d": {
        "Guid": "d7af1348-edde-4eef-991e-c4fac5c6b63d",
        "playRate": 1.0,
        "GameTrigger": "Dialog",
        "gameTriggerArgs": 101220114,
        "personalConfig": 2,
        "ParentID": "5798dfb9-8d1d-42d4-9370-ba4ee3637587",
        "SourceNames": [
            {
                "sourceFileName": "VO_LQ\\VO_npc\\vo_ELLQ003_1_schubert_05.wem",
                "rate": 1.0,
                "avatarName": "",
                "emotion": ""
            }
        ]
    },
    "e55cb3cf-bbfc-4046-9825-b69f9f0f0366": {
        "Guid": "e55cb3cf-bbfc-4046-9825-b69f9f0f0366",
        "playRate": 1.0,
        "GameTrigger": "Dialog",
        "gameTriggerArgs": 101220140,
        "personalConfig": 2,
        "ParentID": "5798dfb9-8d1d-42d4-9370-ba4ee3637587",
        "SourceNames": [
            {
                "sourceFileName": "VO_LQ\\VO_npc\\vo_ELLQ003_1_schubert_19.wem",
                "rate": 1.0,
                "avatarName": "",
                "emotion": ""
            }
        ]
    },
    "fbee8b3a-f0c0-43cb-937b-73d6c1814dff": {
        "Guid": "fbee8b3a-f0c0-43cb-937b-73d6c1814dff",
        "playRate": 1.0,
        "GameTrigger": "Dialog",
        "gameTriggerArgs": 101220134,
        "personalConfig": 2,
        "ParentID": "5798dfb9-8d1d-42d4-9370-ba4ee3637587",
        "SourceNames": [
            {
                "sourceFileName": "VO_LQ\\VO_npc\\vo_ELLQ003_1_schubert_17.wem",
                "rate": 1.0,
                "avatarName": "",
                "emotion": ""
            }
        ]
    },
    "fe6e0ad0-eafb-43c2-ba13-ceb8972ec75c": {
        "Guid": "fe6e0ad0-eafb-43c2-ba13-ceb8972ec75c",
        "playRate": 1.0,
        "GameTrigger": "Dialog",
        "gameTriggerArgs": 101220132,
        "personalConfig": 2,
        "ParentID": "5798dfb9-8d1d-42d4-9370-ba4ee3637587",
        "SourceNames": [
            {
                "sourceFileName": "VO_LQ\\VO_npc\\vo_ELLQ003_1_schubert_15.wem",
                "rate": 1.0,
                "avatarName": "",
                "emotion": ""
            }
        ]
    }
}