{
    "0358f5b5-b03e-48de-97a4-cc645751799b": {
        "Guid": "0358f5b5-b03e-48de-97a4-cc645751799b",
        "playRate": 1.0,
        "GameTrigger": "Dialog",
        "gameTriggerArgs": 130222045,
        "personalConfig": 2,
        "ParentID": "183ec535-3a93-439b-ad19-9a79325aaf15",
        "SourceNames": [
            {
                "sourceFileName": "VO_LQ\\VO_paimon\\vo_AHLQ003_6_paimon_09.wem",
                "rate": 1.0,
                "avatarName": "",
                "emotion": ""
            }
        ]
    },
    "061817e5-27ce-4fc9-9222-b2497086b587": {
        "Guid": "061817e5-27ce-4fc9-9222-b2497086b587",
        "playRate": 1.0,
        "GameTrigger": "Dialog",
        "gameTriggerArgs": 130222074,
        "personalConfig": 2,
        "ParentID": "183ec535-3a93-439b-ad19-9a79325aaf15",
        "SourceNames": [
            {
                "sourceFileName": "VO_LQ\\VO_npc\\vo_AHLQ003_6_siraj_31.wem",
                "rate": 1.0,
                "avatarName": "",
                "emotion": ""
            }
        ]
    },
    "071aa236-cd8a-405a-aceb-f8868af0edab": {
        "Guid": "071aa236-cd8a-405a-aceb-f8868af0edab",
        "playRate": 1.0,
        "GameTrigger": "Dialog",
        "gameTriggerArgs": 130222082,
        "personalConfig": 2,
        "ParentID": "183ec535-3a93-439b-ad19-9a79325aaf15",
        "SourceNames": [
            {
                "sourceFileName": "VO_LQ\\VO_alhaitham\\vo_AHLQ003_6_alhaitham_12.wem",
                "rate": 1.0,
                "avatarName": "",
                "emotion": ""
            }
        ]
    },
    "076e78c5-8bbc-489b-a999-f115de7d539d": {
        "Guid": "076e78c5-8bbc-489b-a999-f115de7d539d",
        "playRate": 1.0,
        "GameTrigger": "Dialog",
        "gameTriggerArgs": 130222034,
        "personalConfig": 2,
        "ParentID": "183ec535-3a93-439b-ad19-9a79325aaf15",
        "SourceNames": [
            {
                "sourceFileName": "VO_LQ\\VO_npc\\vo_AHLQ003_6_siraj_10.wem",
                "rate": 1.0,
                "avatarName": "",
                "emotion": ""
            }
        ]
    },
    "0d9633fc-0b6e-46db-83ef-df48112a8a7e": {
        "Guid": "0d9633fc-0b6e-46db-83ef-df48112a8a7e",
        "playRate": 1.0,
        "GameTrigger": "Dialog",
        "gameTriggerArgs": 130222012,
        "personalConfig": 2,
        "ParentID": "183ec535-3a93-439b-ad19-9a79325aaf15",
        "SourceNames": [
            {
                "sourceFileName": "VO_LQ\\VO_npc\\vo_AHLQ003_6_ilyas_09.wem",
                "rate": 1.0,
                "avatarName": "",
                "emotion": ""
            }
        ]
    },
    "0da8b055-b8c9-435e-b80e-ef1b2d3347ee": {
        "Guid": "0da8b055-b8c9-435e-b80e-ef1b2d3347ee",
        "playRate": 1.0,
        "GameTrigger": "Dialog",
        "gameTriggerArgs": 130222021,
        "personalConfig": 2,
        "ParentID": "183ec535-3a93-439b-ad19-9a79325aaf15",
        "SourceNames": [
            {
                "sourceFileName": "VO_LQ\\VO_alhaitham\\vo_AHLQ003_6_alhaitham_03.wem",
                "rate": 1.0,
                "avatarName": "",
                "emotion": ""
            }
        ]
    },
    "1607c889-4c6b-4a58-adb3-f1cd9693a58c": {
        "Guid": "1607c889-4c6b-4a58-adb3-f1cd9693a58c",
        "playRate": 1.0,
        "GameTrigger": "Dialog",
        "gameTriggerArgs": 130222065,
        "personalConfig": 2,
        "AAJIMDDBMLJ": 1,
        "ParentID": "183ec535-3a93-439b-ad19-9a79325aaf15",
        "SourceNames": [
            {
                "sourceFileName": "VO_LQ\\VO_npc\\vo_AHLQ003_6_ilyas_15.wem",
                "rate": 1.0,
                "avatarName": "",
                "emotion": ""
            }
        ]
    },
    "17a8fc59-a891-478c-acc8-0880b77ef5d9": {
        "Guid": "17a8fc59-a891-478c-acc8-0880b77ef5d9",
        "playRate": 1.0,
        "GameTrigger": "Dialog",
        "gameTriggerArgs": 130222037,
        "personalConfig": 2,
        "ParentID": "183ec535-3a93-439b-ad19-9a79325aaf15",
        "SourceNames": [
            {
                "sourceFileName": "VO_LQ\\VO_npc\\vo_AHLQ003_6_siraj_13.wem",
                "rate": 1.0,
                "avatarName": "",
                "emotion": ""
            }
        ]
    },
    "1a441483-ea8e-4ee4-8714-f9598df5aea0": {
        "Guid": "1a441483-ea8e-4ee4-8714-f9598df5aea0",
        "playRate": 1.0,
        "GameTrigger": "Dialog",
        "gameTriggerArgs": 130222048,
        "personalConfig": 2,
        "ParentID": "183ec535-3a93-439b-ad19-9a79325aaf15",
        "SourceNames": [
            {
                "sourceFileName": "VO_LQ\\VO_npc\\vo_AHLQ003_6_ilyas_14.wem",
                "rate": 1.0,
                "avatarName": "",
                "emotion": ""
            }
        ]
    },
    "1cbf97d5-a885-4b6c-93a1-e376af2aeb23": {
        "Guid": "1cbf97d5-a885-4b6c-93a1-e376af2aeb23",
        "playRate": 1.0,
        "GameTrigger": "Dialog",
        "gameTriggerArgs": 130222004,
        "personalConfig": 2,
        "ParentID": "183ec535-3a93-439b-ad19-9a79325aaf15",
        "SourceNames": [
            {
                "sourceFileName": "VO_LQ\\VO_npc\\vo_AHLQ003_6_ilyas_03.wem",
                "rate": 1.0,
                "avatarName": "",
                "emotion": ""
            }
        ]
    },
    "2191f572-daef-4dc3-88b4-27abfe797325": {
        "Guid": "2191f572-daef-4dc3-88b4-27abfe797325",
        "playRate": 1.0,
        "GameTrigger": "Dialog",
        "gameTriggerArgs": 130222038,
        "personalConfig": 2,
        "ParentID": "183ec535-3a93-439b-ad19-9a79325aaf15",
        "SourceNames": [
            {
                "sourceFileName": "VO_LQ\\VO_npc\\vo_AHLQ003_6_siraj_14.wem",
                "rate": 1.0,
                "avatarName": "",
                "emotion": ""
            }
        ]
    },
    "26169f47-e69d-4551-8193-6437ea691108": {
        "Guid": "26169f47-e69d-4551-8193-6437ea691108",
        "playRate": 1.0,
        "GameTrigger": "Dialog",
        "gameTriggerArgs": 130222029,
        "personalConfig": 2,
        "ParentID": "183ec535-3a93-439b-ad19-9a79325aaf15",
        "SourceNames": [
            {
                "sourceFileName": "VO_LQ\\VO_npc\\vo_AHLQ003_6_siraj_06.wem",
                "rate": 1.0,
                "avatarName": "",
                "emotion": ""
            }
        ]
    },
    "29e29cfa-e9e1-4a65-bc77-69f56633873d": {
        "Guid": "29e29cfa-e9e1-4a65-bc77-69f56633873d",
        "playRate": 1.0,
        "GameTrigger": "Dialog",
        "gameTriggerArgs": 130222058,
        "personalConfig": 2,
        "ParentID": "183ec535-3a93-439b-ad19-9a79325aaf15",
        "SourceNames": [
            {
                "sourceFileName": "VO_LQ\\VO_alhaitham\\vo_AHLQ003_6_alhaitham_05.wem",
                "rate": 1.0,
                "avatarName": "",
                "emotion": ""
            }
        ]
    },
    "2c107d43-2e44-4874-a198-d9d8e5143e9e": {
        "Guid": "2c107d43-2e44-4874-a198-d9d8e5143e9e",
        "playRate": 1.0,
        "GameTrigger": "Dialog",
        "gameTriggerArgs": 130222026,
        "personalConfig": 2,
        "ParentID": "183ec535-3a93-439b-ad19-9a79325aaf15",
        "SourceNames": [
            {
                "sourceFileName": "VO_LQ\\VO_npc\\vo_AHLQ003_6_siraj_04.wem",
                "rate": 1.0,
                "avatarName": "",
                "emotion": ""
            }
        ]
    },
    "3146ac85-9d86-4a7f-8c61-455f4b16b88f": {
        "Guid": "3146ac85-9d86-4a7f-8c61-455f4b16b88f",
        "playRate": 1.0,
        "GameTrigger": "Dialog",
        "gameTriggerArgs": 130222055,
        "personalConfig": 2,
        "ParentID": "183ec535-3a93-439b-ad19-9a79325aaf15",
        "SourceNames": [
            {
                "sourceFileName": "VO_LQ\\VO_npc\\vo_AHLQ003_6_siraj_25.wem",
                "rate": 1.0,
                "avatarName": "",
                "emotion": ""
            }
        ]
    },
    "368b9e2a-722e-4988-91fb-73f528f30386": {
        "Guid": "368b9e2a-722e-4988-91fb-73f528f30386",
        "playRate": 1.0,
        "GameTrigger": "Dialog",
        "gameTriggerArgs": 130222022,
        "personalConfig": 2,
        "ParentID": "183ec535-3a93-439b-ad19-9a79325aaf15",
        "SourceNames": [
            {
                "sourceFileName": "VO_LQ\\VO_paimon\\vo_AHLQ003_6_paimon_06.wem",
                "rate": 1.0,
                "avatarName": "",
                "emotion": ""
            }
        ]
    },
    "37cfc36f-b84f-49f4-a27a-1b9de6cc178d": {
        "Guid": "37cfc36f-b84f-49f4-a27a-1b9de6cc178d",
        "playRate": 1.0,
        "GameTrigger": "Dialog",
        "gameTriggerArgs": 130222020,
        "personalConfig": 2,
        "ParentID": "183ec535-3a93-439b-ad19-9a79325aaf15",
        "SourceNames": [
            {
                "sourceFileName": "VO_LQ\\VO_paimon\\vo_AHLQ003_6_paimon_05.wem",
                "rate": 1.0,
                "avatarName": "",
                "emotion": ""
            }
        ]
    },
    "38f74f51-242c-47ee-b2f4-80023ee4166c": {
        "Guid": "38f74f51-242c-47ee-b2f4-80023ee4166c",
        "playRate": 1.0,
        "GameTrigger": "Dialog",
        "gameTriggerArgs": 130222035,
        "personalConfig": 2,
        "ParentID": "183ec535-3a93-439b-ad19-9a79325aaf15",
        "SourceNames": [
            {
                "sourceFileName": "VO_LQ\\VO_npc\\vo_AHLQ003_6_siraj_11.wem",
                "rate": 1.0,
                "avatarName": "",
                "emotion": ""
            }
        ]
    },
    "3d60ed2f-6095-48cb-ab82-daee43a53f90": {
        "Guid": "3d60ed2f-6095-48cb-ab82-daee43a53f90",
        "playRate": 1.0,
        "GameTrigger": "Dialog",
        "gameTriggerArgs": 130222033,
        "personalConfig": 2,
        "ParentID": "183ec535-3a93-439b-ad19-9a79325aaf15",
        "SourceNames": [
            {
                "sourceFileName": "VO_LQ\\VO_npc\\vo_AHLQ003_6_ilyas_13.wem",
                "rate": 1.0,
                "avatarName": "",
                "emotion": ""
            }
        ]
    },
    "3e8e9540-a892-4f05-b173-37c14d79b415": {
        "Guid": "3e8e9540-a892-4f05-b173-37c14d79b415",
        "playRate": 1.0,
        "GameTrigger": "Dialog",
        "gameTriggerArgs": 130222023,
        "personalConfig": 2,
        "ParentID": "183ec535-3a93-439b-ad19-9a79325aaf15",
        "SourceNames": [
            {
                "sourceFileName": "VO_LQ\\VO_npc\\vo_AHLQ003_6_siraj_02.wem",
                "rate": 1.0,
                "avatarName": "",
                "emotion": ""
            }
        ]
    },
    "445326b4-41d0-4896-bab7-ec515369b7e2": {
        "Guid": "445326b4-41d0-4896-bab7-ec515369b7e2",
        "playRate": 1.0,
        "GameTrigger": "Dialog",
        "gameTriggerArgs": 130222061,
        "personalConfig": 2,
        "ParentID": "183ec535-3a93-439b-ad19-9a79325aaf15",
        "SourceNames": [
            {
                "sourceFileName": "VO_LQ\\VO_paimon\\vo_AHLQ003_6_paimon_13.wem",
                "rate": 1.0,
                "avatarName": "",
                "emotion": ""
            }
        ]
    },
    "4612a17b-fbc5-4608-9f5f-248c896a114c": {
        "Guid": "4612a17b-fbc5-4608-9f5f-248c896a114c",
        "playRate": 1.0,
        "GameTrigger": "Dialog",
        "gameTriggerArgs": 130222009,
        "personalConfig": 2,
        "ParentID": "183ec535-3a93-439b-ad19-9a79325aaf15",
        "SourceNames": [
            {
                "sourceFileName": "VO_LQ\\VO_npc\\vo_AHLQ003_6_ilyas_07.wem",
                "rate": 1.0,
                "avatarName": "",
                "emotion": ""
            }
        ]
    },
    "4a39843c-be34-4455-a014-d3713e4fb07d": {
        "Guid": "4a39843c-be34-4455-a014-d3713e4fb07d",
        "playRate": 1.0,
        "GameTrigger": "Dialog",
        "gameTriggerArgs": 130222016,
        "personalConfig": 2,
        "ParentID": "183ec535-3a93-439b-ad19-9a79325aaf15",
        "SourceNames": [
            {
                "sourceFileName": "VO_LQ\\VO_npc\\vo_AHLQ003_6_ilyas_12.wem",
                "rate": 1.0,
                "avatarName": "",
                "emotion": ""
            }
        ]
    },
    "4ae0da79-b339-4a7d-8409-e6c444199d76": {
        "Guid": "4ae0da79-b339-4a7d-8409-e6c444199d76",
        "playRate": 1.0,
        "GameTrigger": "Dialog",
        "gameTriggerArgs": 130222057,
        "personalConfig": 2,
        "ParentID": "183ec535-3a93-439b-ad19-9a79325aaf15",
        "SourceNames": [
            {
                "sourceFileName": "VO_LQ\\VO_npc\\vo_AHLQ003_6_siraj_27.wem",
                "rate": 1.0,
                "avatarName": "",
                "emotion": ""
            }
        ]
    },
    "4bcf9cd0-d88a-4090-96c5-02877f5319ef": {
        "Guid": "4bcf9cd0-d88a-4090-96c5-02877f5319ef",
        "playRate": 1.0,
        "GameTrigger": "Dialog",
        "gameTriggerArgs": 130222077,
        "personalConfig": 2,
        "ParentID": "183ec535-3a93-439b-ad19-9a79325aaf15",
        "SourceNames": [
            {
                "sourceFileName": "VO_LQ\\VO_npc\\vo_AHLQ003_6_siraj_32.wem",
                "rate": 1.0,
                "avatarName": "",
                "emotion": ""
            }
        ]
    },
    "4ca7f046-142f-4aba-8835-bd056d61f440": {
        "Guid": "4ca7f046-142f-4aba-8835-bd056d61f440",
        "playRate": 1.0,
        "GameTrigger": "Dialog",
        "gameTriggerArgs": 130222006,
        "personalConfig": 2,
        "ParentID": "183ec535-3a93-439b-ad19-9a79325aaf15",
        "SourceNames": [
            {
                "sourceFileName": "VO_LQ\\VO_paimon\\vo_AHLQ003_6_paimon_02.wem",
                "rate": 1.0,
                "avatarName": "",
                "emotion": ""
            }
        ]
    },
    "4d914416-bf8b-44d3-a95c-10377fb07a66": {
        "Guid": "4d914416-bf8b-44d3-a95c-10377fb07a66",
        "playRate": 1.0,
        "GameTrigger": "Dialog",
        "gameTriggerArgs": 130222010,
        "personalConfig": 2,
        "ParentID": "183ec535-3a93-439b-ad19-9a79325aaf15",
        "SourceNames": [
            {
                "sourceFileName": "VO_LQ\\VO_alhaitham\\vo_AHLQ003_6_alhaitham_01.wem",
                "rate": 1.0,
                "avatarName": "",
                "emotion": ""
            }
        ]
    },
    "580881c1-a004-489c-82ba-d380cff7b43a": {
        "Guid": "580881c1-a004-489c-82ba-d380cff7b43a",
        "playRate": 1.0,
        "GameTrigger": "Dialog",
        "gameTriggerArgs": 130222042,
        "personalConfig": 2,
        "ParentID": "183ec535-3a93-439b-ad19-9a79325aaf15",
        "SourceNames": [
            {
                "sourceFileName": "VO_LQ\\VO_npc\\vo_AHLQ003_6_siraj_17.wem",
                "rate": 1.0,
                "avatarName": "",
                "emotion": ""
            }
        ]
    },
    "5b8ea93d-70af-42d4-8002-bcba7bdb7f69": {
        "Guid": "5b8ea93d-70af-42d4-8002-bcba7bdb7f69",
        "playRate": 1.0,
        "GameTrigger": "Dialog",
        "gameTriggerArgs": 130222001,
        "personalConfig": 2,
        "ParentID": "183ec535-3a93-439b-ad19-9a79325aaf15",
        "SourceNames": [
            {
                "sourceFileName": "VO_LQ\\VO_paimon\\vo_AHLQ003_6_paimon_01.wem",
                "rate": 1.0,
                "avatarName": "",
                "emotion": ""
            }
        ]
    },
    "5c2abaa0-8c6a-4519-b4e9-40643358f7c3": {
        "Guid": "5c2abaa0-8c6a-4519-b4e9-40643358f7c3",
        "playRate": 1.0,
        "GameTrigger": "Dialog",
        "gameTriggerArgs": 130222028,
        "personalConfig": 2,
        "ParentID": "183ec535-3a93-439b-ad19-9a79325aaf15",
        "SourceNames": [
            {
                "sourceFileName": "VO_LQ\\VO_paimon\\vo_AHLQ003_6_paimon_08.wem",
                "rate": 1.0,
                "avatarName": "",
                "emotion": ""
            }
        ]
    },
    "5f4736ce-d924-4eea-9b0e-b2118980825c": {
        "Guid": "5f4736ce-d924-4eea-9b0e-b2118980825c",
        "playRate": 1.0,
        "GameTrigger": "Dialog",
        "gameTriggerArgs": 130222040,
        "personalConfig": 2,
        "ParentID": "183ec535-3a93-439b-ad19-9a79325aaf15",
        "SourceNames": [
            {
                "sourceFileName": "VO_LQ\\VO_npc\\vo_AHLQ003_6_siraj_15.wem",
                "rate": 1.0,
                "avatarName": "",
                "emotion": ""
            }
        ]
    },
    "61322d09-da15-4e7e-80a6-dc2ac73e7b7e": {
        "Guid": "61322d09-da15-4e7e-80a6-dc2ac73e7b7e",
        "playRate": 1.0,
        "GameTrigger": "Dialog",
        "gameTriggerArgs": 130222036,
        "personalConfig": 2,
        "ParentID": "183ec535-3a93-439b-ad19-9a79325aaf15",
        "SourceNames": [
            {
                "sourceFileName": "VO_LQ\\VO_npc\\vo_AHLQ003_6_siraj_12.wem",
                "rate": 1.0,
                "avatarName": "",
                "emotion": ""
            }
        ]
    },
    "62c1d694-8bcf-4255-8f05-20b2b1046dfc": {
        "Guid": "62c1d694-8bcf-4255-8f05-20b2b1046dfc",
        "playRate": 1.0,
        "GameTrigger": "Dialog",
        "gameTriggerArgs": 130222063,
        "personalConfig": 2,
        "ParentID": "183ec535-3a93-439b-ad19-9a79325aaf15",
        "SourceNames": [
            {
                "sourceFileName": "VO_LQ\\VO_alhaitham\\vo_AHLQ003_6_alhaitham_08.wem",
                "rate": 1.0,
                "avatarName": "",
                "emotion": ""
            }
        ]
    },
    "656f2fb8-6689-4e81-952d-1ff228f5e442": {
        "Guid": "656f2fb8-6689-4e81-952d-1ff228f5e442",
        "playRate": 1.0,
        "GameTrigger": "Dialog",
        "gameTriggerArgs": 130222005,
        "personalConfig": 2,
        "ParentID": "183ec535-3a93-439b-ad19-9a79325aaf15",
        "SourceNames": [
            {
                "sourceFileName": "VO_LQ\\VO_npc\\vo_AHLQ003_6_ilyas_04.wem",
                "rate": 1.0,
                "avatarName": "",
                "emotion": ""
            }
        ]
    },
    "656faed0-bdc1-41bd-bec7-ffa34c3f262a": {
        "Guid": "656faed0-bdc1-41bd-bec7-ffa34c3f262a",
        "playRate": 1.0,
        "GameTrigger": "Dialog",
        "gameTriggerArgs": 130222041,
        "personalConfig": 2,
        "ParentID": "183ec535-3a93-439b-ad19-9a79325aaf15",
        "SourceNames": [
            {
                "sourceFileName": "VO_LQ\\VO_npc\\vo_AHLQ003_6_siraj_16.wem",
                "rate": 1.0,
                "avatarName": "",
                "emotion": ""
            }
        ]
    },
    "693f6972-2779-490c-96f9-fef0f2b28638": {
        "Guid": "693f6972-2779-490c-96f9-fef0f2b28638",
        "playRate": 1.0,
        "GameTrigger": "Dialog",
        "gameTriggerArgs": 130222044,
        "personalConfig": 2,
        "ParentID": "183ec535-3a93-439b-ad19-9a79325aaf15",
        "SourceNames": [
            {
                "sourceFileName": "VO_LQ\\VO_npc\\vo_AHLQ003_6_siraj_19.wem",
                "rate": 1.0,
                "avatarName": "",
                "emotion": ""
            }
        ]
    },
    "69bd7840-4223-415d-84c2-59705926d0a8": {
        "Guid": "69bd7840-4223-415d-84c2-59705926d0a8",
        "playRate": 1.0,
        "GameTrigger": "Dialog",
        "gameTriggerArgs": 130222007,
        "personalConfig": 2,
        "ParentID": "183ec535-3a93-439b-ad19-9a79325aaf15",
        "SourceNames": [
            {
                "sourceFileName": "VO_LQ\\VO_npc\\vo_AHLQ003_6_ilyas_05.wem",
                "rate": 1.0,
                "avatarName": "",
                "emotion": ""
            }
        ]
    },
    "6b5a0067-1e79-4b53-9c25-518f4af4677c": {
        "Guid": "6b5a0067-1e79-4b53-9c25-518f4af4677c",
        "playRate": 1.0,
        "GameTrigger": "Dialog",
        "gameTriggerArgs": 130222070,
        "personalConfig": 2,
        "ParentID": "183ec535-3a93-439b-ad19-9a79325aaf15",
        "SourceNames": [
            {
                "sourceFileName": "VO_LQ\\VO_paimon\\vo_AHLQ003_6_paimon_16.wem",
                "rate": 1.0,
                "avatarName": "",
                "emotion": ""
            }
        ]
    },
    "7ca02e18-2eb0-4ba2-b2a9-1ae8925c549f": {
        "Guid": "7ca02e18-2eb0-4ba2-b2a9-1ae8925c549f",
        "playRate": 1.0,
        "GameTrigger": "Dialog",
        "gameTriggerArgs": 130222015,
        "personalConfig": 2,
        "ParentID": "183ec535-3a93-439b-ad19-9a79325aaf15",
        "SourceNames": [
            {
                "sourceFileName": "VO_LQ\\VO_alhaitham\\vo_AHLQ003_6_alhaitham_02.wem",
                "rate": 1.0,
                "avatarName": "",
                "emotion": ""
            }
        ]
    },
    "7d5b38b9-74aa-4aa4-ba6e-c5a2ecf06c44": {
        "Guid": "7d5b38b9-74aa-4aa4-ba6e-c5a2ecf06c44",
        "playRate": 1.0,
        "GameTrigger": "Dialog",
        "gameTriggerArgs": 130222066,
        "personalConfig": 2,
        "AAJIMDDBMLJ": 1,
        "ParentID": "183ec535-3a93-439b-ad19-9a79325aaf15",
        "SourceNames": [
            {
                "sourceFileName": "VO_LQ\\VO_npc\\vo_AHLQ003_6_ilyas_16.wem",
                "rate": 1.0,
                "avatarName": "",
                "emotion": ""
            }
        ]
    },
    "8563f378-3ad3-42d7-ba86-81d681c594c8": {
        "Guid": "8563f378-3ad3-42d7-ba86-81d681c594c8",
        "playRate": 1.0,
        "GameTrigger": "Dialog",
        "gameTriggerArgs": 130222050,
        "personalConfig": 2,
        "ParentID": "183ec535-3a93-439b-ad19-9a79325aaf15",
        "SourceNames": [
            {
                "sourceFileName": "VO_LQ\\VO_paimon\\vo_AHLQ003_6_paimon_11.wem",
                "rate": 1.0,
                "avatarName": "",
                "emotion": ""
            }
        ]
    },
    "896838b3-d9eb-44fa-a9b5-bca53ab5e1e9": {
        "Guid": "896838b3-d9eb-44fa-a9b5-bca53ab5e1e9",
        "playRate": 1.0,
        "GameTrigger": "Dialog",
        "gameTriggerArgs": 130222017,
        "personalConfig": 2,
        "ParentID": "183ec535-3a93-439b-ad19-9a79325aaf15",
        "SourceNames": [
            {
                "sourceFileName": "VO_LQ\\VO_paimon\\vo_AHLQ003_6_paimon_03.wem",
                "rate": 1.0,
                "avatarName": "",
                "emotion": ""
            }
        ]
    },
    "8a85bb01-ae6a-4c24-b8b5-53ec5160aad8": {
        "Guid": "8a85bb01-ae6a-4c24-b8b5-53ec5160aad8",
        "playRate": 1.0,
        "GameTrigger": "Dialog",
        "gameTriggerArgs": 130222032,
        "personalConfig": 2,
        "ParentID": "183ec535-3a93-439b-ad19-9a79325aaf15",
        "SourceNames": [
            {
                "sourceFileName": "VO_LQ\\VO_npc\\vo_AHLQ003_6_siraj_09.wem",
                "rate": 1.0,
                "avatarName": "",
                "emotion": ""
            }
        ]
    },
    "8ec021b0-300e-4a12-8dfd-0016d6127153": {
        "Guid": "8ec021b0-300e-4a12-8dfd-0016d6127153",
        "playRate": 1.0,
        "GameTrigger": "Dialog",
        "gameTriggerArgs": 130222052,
        "personalConfig": 2,
        "ParentID": "183ec535-3a93-439b-ad19-9a79325aaf15",
        "SourceNames": [
            {
                "sourceFileName": "VO_LQ\\VO_npc\\vo_AHLQ003_6_siraj_23.wem",
                "rate": 1.0,
                "avatarName": "",
                "emotion": ""
            }
        ]
    },
    "9114126d-63ba-416f-a9a0-6680d1509c6f": {
        "Guid": "9114126d-63ba-416f-a9a0-6680d1509c6f",
        "playRate": 1.0,
        "GameTrigger": "Dialog",
        "gameTriggerArgs": 130222081,
        "personalConfig": 2,
        "ParentID": "183ec535-3a93-439b-ad19-9a79325aaf15",
        "SourceNames": [
            {
                "sourceFileName": "VO_LQ\\VO_alhaitham\\vo_AHLQ003_6_alhaitham_11.wem",
                "rate": 1.0,
                "avatarName": "",
                "emotion": ""
            }
        ]
    },
    "91615061-0bcf-4df6-8e08-e37cd03040b3": {
        "Guid": "91615061-0bcf-4df6-8e08-e37cd03040b3",
        "playRate": 1.0,
        "GameTrigger": "Dialog",
        "gameTriggerArgs": 130222069,
        "personalConfig": 2,
        "ParentID": "183ec535-3a93-439b-ad19-9a79325aaf15",
        "SourceNames": [
            {
                "sourceFileName": "VO_LQ\\VO_paimon\\vo_AHLQ003_6_paimon_15.wem",
                "rate": 1.0,
                "avatarName": "",
                "emotion": ""
            }
        ]
    },
    "91a38070-6102-41ba-83ec-553e25a98827": {
        "Guid": "91a38070-6102-41ba-83ec-553e25a98827",
        "playRate": 1.0,
        "GameTrigger": "Dialog",
        "gameTriggerArgs": 130222024,
        "personalConfig": 2,
        "ParentID": "183ec535-3a93-439b-ad19-9a79325aaf15",
        "SourceNames": [
            {
                "sourceFileName": "VO_LQ\\VO_paimon\\vo_AHLQ003_6_paimon_07.wem",
                "rate": 1.0,
                "avatarName": "",
                "emotion": ""
            }
        ]
    },
    "9b536715-5e5d-4b43-af75-6e0975819032": {
        "Guid": "9b536715-5e5d-4b43-af75-6e0975819032",
        "playRate": 1.0,
        "GameTrigger": "Dialog",
        "gameTriggerArgs": 130222003,
        "personalConfig": 2,
        "ParentID": "183ec535-3a93-439b-ad19-9a79325aaf15",
        "SourceNames": [
            {
                "sourceFileName": "VO_LQ\\VO_npc\\vo_AHLQ003_6_ilyas_02.wem",
                "rate": 1.0,
                "avatarName": "",
                "emotion": ""
            }
        ]
    },
    "9be30669-76cc-4bb5-b0bb-0731794f7389": {
        "Guid": "9be30669-76cc-4bb5-b0bb-0731794f7389",
        "playRate": 1.0,
        "GameTrigger": "Dialog",
        "gameTriggerArgs": 130222030,
        "personalConfig": 2,
        "ParentID": "183ec535-3a93-439b-ad19-9a79325aaf15",
        "SourceNames": [
            {
                "sourceFileName": "VO_LQ\\VO_npc\\vo_AHLQ003_6_siraj_07.wem",
                "rate": 1.0,
                "avatarName": "",
                "emotion": ""
            }
        ]
    },
    "a0f50442-cbdc-4c18-bef7-62a8fead3dad": {
        "Guid": "a0f50442-cbdc-4c18-bef7-62a8fead3dad",
        "playRate": 1.0,
        "GameTrigger": "Dialog",
        "gameTriggerArgs": 130222013,
        "personalConfig": 2,
        "ParentID": "183ec535-3a93-439b-ad19-9a79325aaf15",
        "SourceNames": [
            {
                "sourceFileName": "VO_LQ\\VO_npc\\vo_AHLQ003_6_ilyas_10.wem",
                "rate": 1.0,
                "avatarName": "",
                "emotion": ""
            }
        ]
    },
    "a5f59b3d-9c9a-4dbb-b29b-e758c31dc772": {
        "Guid": "a5f59b3d-9c9a-4dbb-b29b-e758c31dc772",
        "playRate": 1.0,
        "GameTrigger": "Dialog",
        "gameTriggerArgs": 130222027,
        "personalConfig": 2,
        "ParentID": "183ec535-3a93-439b-ad19-9a79325aaf15",
        "SourceNames": [
            {
                "sourceFileName": "VO_LQ\\VO_npc\\vo_AHLQ003_6_siraj_05.wem",
                "rate": 1.0,
                "avatarName": "",
                "emotion": ""
            }
        ]
    },
    "a8407d3b-de2e-4733-b99c-a3976e972047": {
        "Guid": "a8407d3b-de2e-4733-b99c-a3976e972047",
        "playRate": 1.0,
        "GameTrigger": "Dialog",
        "gameTriggerArgs": 130222046,
        "personalConfig": 2,
        "ParentID": "183ec535-3a93-439b-ad19-9a79325aaf15",
        "SourceNames": [
            {
                "sourceFileName": "VO_LQ\\VO_npc\\vo_AHLQ003_6_siraj_20.wem",
                "rate": 1.0,
                "avatarName": "",
                "emotion": ""
            }
        ]
    },
    "a88f57c8-7599-4327-a57e-d239b97d5496": {
        "Guid": "a88f57c8-7599-4327-a57e-d239b97d5496",
        "playRate": 1.0,
        "GameTrigger": "Dialog",
        "gameTriggerArgs": 130222075,
        "personalConfig": 2,
        "ParentID": "183ec535-3a93-439b-ad19-9a79325aaf15",
        "SourceNames": [
            {
                "sourceFileName": "VO_LQ\\VO_paimon\\vo_AHLQ003_6_paimon_18.wem",
                "rate": 1.0,
                "avatarName": "",
                "emotion": ""
            }
        ]
    },
    "ac13dcb5-83fc-4849-87c5-0ad3c023c781": {
        "Guid": "ac13dcb5-83fc-4849-87c5-0ad3c023c781",
        "playRate": 1.0,
        "GameTrigger": "Dialog",
        "gameTriggerArgs": 130222072,
        "personalConfig": 2,
        "ParentID": "183ec535-3a93-439b-ad19-9a79325aaf15",
        "SourceNames": [
            {
                "sourceFileName": "VO_LQ\\VO_npc\\vo_AHLQ003_6_siraj_29.wem",
                "rate": 1.0,
                "avatarName": "",
                "emotion": ""
            }
        ]
    },
    "b3dca764-c791-47cb-83e8-bc20bbd5af0f": {
        "Guid": "b3dca764-c791-47cb-83e8-bc20bbd5af0f",
        "playRate": 1.0,
        "GameTrigger": "Dialog",
        "gameTriggerArgs": 130222008,
        "personalConfig": 2,
        "ParentID": "183ec535-3a93-439b-ad19-9a79325aaf15",
        "SourceNames": [
            {
                "sourceFileName": "VO_LQ\\VO_npc\\vo_AHLQ003_6_ilyas_06.wem",
                "rate": 1.0,
                "avatarName": "",
                "emotion": ""
            }
        ]
    },
    "b7f67a27-ada3-41ac-8379-3a63a3e4e66d": {
        "Guid": "b7f67a27-ada3-41ac-8379-3a63a3e4e66d",
        "playRate": 1.0,
        "GameTrigger": "Dialog",
        "gameTriggerArgs": 130222080,
        "personalConfig": 2,
        "ParentID": "183ec535-3a93-439b-ad19-9a79325aaf15",
        "SourceNames": [
            {
                "sourceFileName": "VO_LQ\\VO_paimon\\vo_AHLQ003_6_paimon_20.wem",
                "rate": 1.0,
                "avatarName": "",
                "emotion": ""
            }
        ]
    },
    "baf35113-713e-4e88-88e7-945d26612b12": {
        "Guid": "baf35113-713e-4e88-88e7-945d26612b12",
        "playRate": 1.0,
        "GameTrigger": "Dialog",
        "gameTriggerArgs": 130222031,
        "personalConfig": 2,
        "ParentID": "183ec535-3a93-439b-ad19-9a79325aaf15",
        "SourceNames": [
            {
                "sourceFileName": "VO_LQ\\VO_npc\\vo_AHLQ003_6_siraj_08.wem",
                "rate": 1.0,
                "avatarName": "",
                "emotion": ""
            }
        ]
    },
    "bc28b3cd-5009-44eb-b529-67dab85f0320": {
        "Guid": "bc28b3cd-5009-44eb-b529-67dab85f0320",
        "playRate": 1.0,
        "GameTrigger": "Dialog",
        "gameTriggerArgs": 130222011,
        "personalConfig": 2,
        "ParentID": "183ec535-3a93-439b-ad19-9a79325aaf15",
        "SourceNames": [
            {
                "sourceFileName": "VO_LQ\\VO_npc\\vo_AHLQ003_6_ilyas_08.wem",
                "rate": 1.0,
                "avatarName": "",
                "emotion": ""
            }
        ]
    },
    "bd472fda-81b4-4350-bf39-85be8d6b9a94": {
        "Guid": "bd472fda-81b4-4350-bf39-85be8d6b9a94",
        "playRate": 1.0,
        "GameTrigger": "Dialog",
        "gameTriggerArgs": 130222068,
        "personalConfig": 2,
        "ParentID": "183ec535-3a93-439b-ad19-9a79325aaf15",
        "SourceNames": [
            {
                "sourceFileName": "VO_LQ\\VO_paimon\\vo_AHLQ003_6_paimon_14.wem",
                "rate": 1.0,
                "avatarName": "",
                "emotion": ""
            }
        ]
    },
    "beb9dfff-3df7-4bd8-b0c8-4fba21cda047": {
        "Guid": "beb9dfff-3df7-4bd8-b0c8-4fba21cda047",
        "playRate": 1.0,
        "GameTrigger": "Dialog",
        "gameTriggerArgs": 130222043,
        "personalConfig": 2,
        "ParentID": "183ec535-3a93-439b-ad19-9a79325aaf15",
        "SourceNames": [
            {
                "sourceFileName": "VO_LQ\\VO_npc\\vo_AHLQ003_6_siraj_18.wem",
                "rate": 1.0,
                "avatarName": "",
                "emotion": ""
            }
        ]
    },
    "c3295942-9faa-4295-97a7-353324de40ea": {
        "Guid": "c3295942-9faa-4295-97a7-353324de40ea",
        "playRate": 1.0,
        "GameTrigger": "Dialog",
        "gameTriggerArgs": 130222049,
        "personalConfig": 2,
        "ParentID": "183ec535-3a93-439b-ad19-9a79325aaf15",
        "SourceNames": [
            {
                "sourceFileName": "VO_LQ\\VO_paimon\\vo_AHLQ003_6_paimon_10.wem",
                "rate": 1.0,
                "avatarName": "",
                "emotion": ""
            }
        ]
    },
    "c335d8ad-e7ea-46db-a75e-0efa54365fee": {
        "Guid": "c335d8ad-e7ea-46db-a75e-0efa54365fee",
        "playRate": 1.0,
        "GameTrigger": "Dialog",
        "gameTriggerArgs": 130222051,
        "personalConfig": 2,
        "ParentID": "183ec535-3a93-439b-ad19-9a79325aaf15",
        "SourceNames": [
            {
                "sourceFileName": "VO_LQ\\VO_npc\\vo_AHLQ003_6_siraj_22.wem",
                "rate": 1.0,
                "avatarName": "",
                "emotion": ""
            }
        ]
    },
    "c48555b3-85d8-4567-86f7-660182e9e80e": {
        "Guid": "c48555b3-85d8-4567-86f7-660182e9e80e",
        "playRate": 1.0,
        "GameTrigger": "Dialog",
        "gameTriggerArgs": 130222064,
        "personalConfig": 2,
        "ParentID": "183ec535-3a93-439b-ad19-9a79325aaf15",
        "SourceNames": [
            {
                "sourceFileName": "VO_LQ\\VO_alhaitham\\vo_AHLQ003_6_alhaitham_09.wem",
                "rate": 1.0,
                "avatarName": "",
                "emotion": ""
            }
        ]
    },
    "c5cee07c-e1df-4eda-9b75-c809404f578f": {
        "Guid": "c5cee07c-e1df-4eda-9b75-c809404f578f",
        "playRate": 1.0,
        "GameTrigger": "Dialog",
        "gameTriggerArgs": 130222073,
        "personalConfig": 2,
        "ParentID": "183ec535-3a93-439b-ad19-9a79325aaf15",
        "SourceNames": [
            {
                "sourceFileName": "VO_LQ\\VO_npc\\vo_AHLQ003_6_siraj_30.wem",
                "rate": 1.0,
                "avatarName": "",
                "emotion": ""
            }
        ]
    },
    "c8aac322-360b-4f89-a795-69293274b8c9": {
        "Guid": "c8aac322-360b-4f89-a795-69293274b8c9",
        "playRate": 1.0,
        "GameTrigger": "Dialog",
        "gameTriggerArgs": 130222039,
        "personalConfig": 2,
        "ParentID": "183ec535-3a93-439b-ad19-9a79325aaf15",
        "SourceNames": [
            {
                "sourceFileName": "VO_LQ\\VO_alhaitham\\vo_AHLQ003_6_alhaitham_04.wem",
                "rate": 1.0,
                "avatarName": "",
                "emotion": ""
            }
        ]
    },
    "ca04403f-7974-45ed-84e5-4ba4742c16d4": {
        "Guid": "ca04403f-7974-45ed-84e5-4ba4742c16d4",
        "playRate": 1.0,
        "GameTrigger": "Dialog",
        "gameTriggerArgs": 130222047,
        "personalConfig": 2,
        "ParentID": "183ec535-3a93-439b-ad19-9a79325aaf15",
        "SourceNames": [
            {
                "sourceFileName": "VO_LQ\\VO_npc\\vo_AHLQ003_6_siraj_21.wem",
                "rate": 1.0,
                "avatarName": "",
                "emotion": ""
            }
        ]
    },
    "d2751d52-0c50-48bf-ba0c-8e2c00d403d0": {
        "Guid": "d2751d52-0c50-48bf-ba0c-8e2c00d403d0",
        "playRate": 1.0,
        "GameTrigger": "Dialog",
        "gameTriggerArgs": 130222019,
        "personalConfig": 2,
        "ParentID": "183ec535-3a93-439b-ad19-9a79325aaf15",
        "SourceNames": [
            {
                "sourceFileName": "VO_LQ\\VO_npc\\vo_AHLQ003_6_siraj_01.wem",
                "rate": 1.0,
                "avatarName": "",
                "emotion": ""
            }
        ]
    },
    "d57b94a7-d2d7-440d-ae07-69452ccd2457": {
        "Guid": "d57b94a7-d2d7-440d-ae07-69452ccd2457",
        "playRate": 1.0,
        "GameTrigger": "Dialog",
        "gameTriggerArgs": 130222059,
        "personalConfig": 2,
        "ParentID": "183ec535-3a93-439b-ad19-9a79325aaf15",
        "SourceNames": [
            {
                "sourceFileName": "VO_LQ\\VO_alhaitham\\vo_AHLQ003_6_alhaitham_06.wem",
                "rate": 1.0,
                "avatarName": "",
                "emotion": ""
            }
        ]
    },
    "d63fe3ea-1379-4e59-a634-a9de4635af70": {
        "Guid": "d63fe3ea-1379-4e59-a634-a9de4635af70",
        "playRate": 1.0,
        "GameTrigger": "Dialog",
        "gameTriggerArgs": 130222060,
        "personalConfig": 2,
        "ParentID": "183ec535-3a93-439b-ad19-9a79325aaf15",
        "SourceNames": [
            {
                "sourceFileName": "VO_LQ\\VO_npc\\vo_AHLQ003_6_siraj_28.wem",
                "rate": 1.0,
                "avatarName": "",
                "emotion": ""
            }
        ]
    },
    "d89db655-3eca-4366-97b3-1bbb682d89aa": {
        "Guid": "d89db655-3eca-4366-97b3-1bbb682d89aa",
        "playRate": 1.0,
        "GameTrigger": "Dialog",
        "gameTriggerArgs": 130222056,
        "personalConfig": 2,
        "ParentID": "183ec535-3a93-439b-ad19-9a79325aaf15",
        "SourceNames": [
            {
                "sourceFileName": "VO_LQ\\VO_npc\\vo_AHLQ003_6_siraj_26.wem",
                "rate": 1.0,
                "avatarName": "",
                "emotion": ""
            }
        ]
    },
    "dbc6750c-69a6-4ac2-840e-df73559be327": {
        "Guid": "dbc6750c-69a6-4ac2-840e-df73559be327",
        "playRate": 1.0,
        "GameTrigger": "Dialog",
        "gameTriggerArgs": 130222078,
        "personalConfig": 2,
        "ParentID": "183ec535-3a93-439b-ad19-9a79325aaf15",
        "SourceNames": [
            {
                "sourceFileName": "VO_LQ\\VO_npc\\vo_AHLQ003_6_siraj_33.wem",
                "rate": 1.0,
                "avatarName": "",
                "emotion": ""
            }
        ]
    },
    "dc492f27-7a38-4f3a-82fb-8ae02aaea7cc": {
        "Guid": "dc492f27-7a38-4f3a-82fb-8ae02aaea7cc",
        "playRate": 1.0,
        "GameTrigger": "Dialog",
        "gameTriggerArgs": 130222067,
        "personalConfig": 2,
        "ParentID": "183ec535-3a93-439b-ad19-9a79325aaf15",
        "SourceNames": [
            {
                "sourceFileName": "VO_LQ\\VO_alhaitham\\vo_AHLQ003_6_alhaitham_10.wem",
                "rate": 1.0,
                "avatarName": "",
                "emotion": ""
            }
        ]
    },
    "e2ec6bf1-9af6-4b83-891f-e5cddcb05464": {
        "Guid": "e2ec6bf1-9af6-4b83-891f-e5cddcb05464",
        "playRate": 1.0,
        "GameTrigger": "Dialog",
        "gameTriggerArgs": 130222071,
        "personalConfig": 2,
        "ParentID": "183ec535-3a93-439b-ad19-9a79325aaf15",
        "SourceNames": [
            {
                "sourceFileName": "VO_LQ\\VO_paimon\\vo_AHLQ003_6_paimon_17.wem",
                "rate": 1.0,
                "avatarName": "",
                "emotion": ""
            }
        ]
    },
    "e3f03f77-1c77-4b38-a3c3-92fbb33f84e7": {
        "Guid": "e3f03f77-1c77-4b38-a3c3-92fbb33f84e7",
        "playRate": 1.0,
        "GameTrigger": "Dialog",
        "gameTriggerArgs": 130222083,
        "personalConfig": 2,
        "ParentID": "183ec535-3a93-439b-ad19-9a79325aaf15",
        "SourceNames": [
            {
                "sourceFileName": "VO_LQ\\VO_paimon\\vo_AHLQ003_6_paimon_21.wem",
                "rate": 1.0,
                "avatarName": "",
                "emotion": ""
            }
        ]
    },
    "e614a75c-781d-426b-a469-d58caf12430f": {
        "Guid": "e614a75c-781d-426b-a469-d58caf12430f",
        "playRate": 1.0,
        "GameTrigger": "Dialog",
        "gameTriggerArgs": 130222062,
        "personalConfig": 2,
        "ParentID": "183ec535-3a93-439b-ad19-9a79325aaf15",
        "SourceNames": [
            {
                "sourceFileName": "VO_LQ\\VO_alhaitham\\vo_AHLQ003_6_alhaitham_07.wem",
                "rate": 1.0,
                "avatarName": "",
                "emotion": ""
            }
        ]
    },
    "e7830d64-af1d-4de3-8c2e-022941723fe4": {
        "Guid": "e7830d64-af1d-4de3-8c2e-022941723fe4",
        "playRate": 1.0,
        "GameTrigger": "Dialog",
        "gameTriggerArgs": 130222014,
        "personalConfig": 2,
        "ParentID": "183ec535-3a93-439b-ad19-9a79325aaf15",
        "SourceNames": [
            {
                "sourceFileName": "VO_LQ\\VO_npc\\vo_AHLQ003_6_ilyas_11.wem",
                "rate": 1.0,
                "avatarName": "",
                "emotion": ""
            }
        ]
    },
    "ef1b9bd3-8843-41ea-90e0-9501abd615df": {
        "Guid": "ef1b9bd3-8843-41ea-90e0-9501abd615df",
        "playRate": 1.0,
        "GameTrigger": "Dialog",
        "gameTriggerArgs": 130222025,
        "personalConfig": 2,
        "ParentID": "183ec535-3a93-439b-ad19-9a79325aaf15",
        "SourceNames": [
            {
                "sourceFileName": "VO_LQ\\VO_npc\\vo_AHLQ003_6_siraj_03.wem",
                "rate": 1.0,
                "avatarName": "",
                "emotion": ""
            }
        ]
    },
    "f206e5a8-eaa0-48c9-b336-1430b36115b4": {
        "Guid": "f206e5a8-eaa0-48c9-b336-1430b36115b4",
        "playRate": 1.0,
        "GameTrigger": "Dialog",
        "gameTriggerArgs": 130222079,
        "personalConfig": 2,
        "ParentID": "183ec535-3a93-439b-ad19-9a79325aaf15",
        "SourceNames": [
            {
                "sourceFileName": "VO_LQ\\VO_npc\\vo_AHLQ003_6_siraj_34.wem",
                "rate": 1.0,
                "avatarName": "",
                "emotion": ""
            }
        ]
    },
    "f7eb5272-75c7-4bd5-8342-5b607e210aac": {
        "Guid": "f7eb5272-75c7-4bd5-8342-5b607e210aac",
        "playRate": 1.0,
        "GameTrigger": "Dialog",
        "gameTriggerArgs": 130222002,
        "personalConfig": 2,
        "ParentID": "183ec535-3a93-439b-ad19-9a79325aaf15",
        "SourceNames": [
            {
                "sourceFileName": "VO_LQ\\VO_npc\\vo_AHLQ003_6_ilyas_01.wem",
                "rate": 1.0,
                "avatarName": "",
                "emotion": ""
            }
        ]
    },
    "f86fcfb3-7fb8-4f58-8e99-ade140018b62": {
        "Guid": "f86fcfb3-7fb8-4f58-8e99-ade140018b62",
        "playRate": 1.0,
        "GameTrigger": "Dialog",
        "gameTriggerArgs": 130222054,
        "personalConfig": 2,
        "ParentID": "183ec535-3a93-439b-ad19-9a79325aaf15",
        "SourceNames": [
            {
                "sourceFileName": "VO_LQ\\VO_npc\\vo_AHLQ003_6_siraj_24.wem",
                "rate": 1.0,
                "avatarName": "",
                "emotion": ""
            }
        ]
    },
    "fa8d3b1f-f31b-4ea3-aa52-1186bb65eab3": {
        "Guid": "fa8d3b1f-f31b-4ea3-aa52-1186bb65eab3",
        "playRate": 1.0,
        "GameTrigger": "Dialog",
        "gameTriggerArgs": 130222076,
        "personalConfig": 2,
        "ParentID": "183ec535-3a93-439b-ad19-9a79325aaf15",
        "SourceNames": [
            {
                "sourceFileName": "VO_LQ\\VO_paimon\\vo_AHLQ003_6_paimon_19.wem",
                "rate": 1.0,
                "avatarName": "",
                "emotion": ""
            }
        ]
    },
    "fcf711f4-f601-47df-8263-2333d2379974": {
        "Guid": "fcf711f4-f601-47df-8263-2333d2379974",
        "playRate": 1.0,
        "GameTrigger": "Dialog",
        "gameTriggerArgs": 130222053,
        "personalConfig": 2,
        "ParentID": "183ec535-3a93-439b-ad19-9a79325aaf15",
        "SourceNames": [
            {
                "sourceFileName": "VO_LQ\\VO_paimon\\vo_AHLQ003_6_paimon_12.wem",
                "rate": 1.0,
                "avatarName": "",
                "emotion": ""
            }
        ]
    },
    "ffeefc37-529d-40d5-a48d-078f08a4a2b1": {
        "Guid": "ffeefc37-529d-40d5-a48d-078f08a4a2b1",
        "playRate": 1.0,
        "GameTrigger": "Dialog",
        "gameTriggerArgs": 130222018,
        "personalConfig": 2,
        "ParentID": "183ec535-3a93-439b-ad19-9a79325aaf15",
        "SourceNames": [
            {
                "sourceFileName": "VO_LQ\\VO_paimon\\vo_AHLQ003_6_paimon_04.wem",
                "rate": 1.0,
                "avatarName": "",
                "emotion": ""
            }
        ]
    }
}