{
    "003c4c61-355b-44fb-9c1e-23ddc48cbeed": {
        "Guid": "003c4c61-355b-44fb-9c1e-23ddc48cbeed",
        "playRate": 1.0,
        "GameTrigger": "Dialog",
        "gameTriggerArgs": 40021201,
        "personalConfig": 2,
        "ParentID": "7e3a2bd7-2ddf-42bb-8ac8-6da1974ce2a9",
        "SourceNames": [
            {
                "sourceFileName": "VO_AQ\\VO_paimon\\vo_FDAQ006_13_paimon_01.wem",
                "rate": 1.0,
                "avatarName": "",
                "emotion": ""
            }
        ]
    },
    "01c9567a-47b5-4d21-828d-0caf6f051df3": {
        "Guid": "01c9567a-47b5-4d21-828d-0caf6f051df3",
        "playRate": 1.0,
        "GameTrigger": "Dialog",
        "gameTriggerArgs": 40021205,
        "personalConfig": 2,
        "ParentID": "7e3a2bd7-2ddf-42bb-8ac8-6da1974ce2a9",
        "SourceNames": [
            {
                "sourceFileName": "VO_AQ\\VO_NPC\\vo_FDAQ006_13_marcillac_01.wem",
                "rate": 1.0,
                "avatarName": "",
                "emotion": ""
            }
        ]
    },
    "0802dded-6505-4d97-8164-4411b86d6d54": {
        "Guid": "0802dded-6505-4d97-8164-4411b86d6d54",
        "playRate": 1.0,
        "GameTrigger": "Dialog",
        "gameTriggerArgs": 40021241,
        "personalConfig": 2,
        "ParentID": "7e3a2bd7-2ddf-42bb-8ac8-6da1974ce2a9",
        "SourceNames": [
            {
                "sourceFileName": "VO_AQ\\VO_paimon\\vo_FDAQ006_13_paimon_11.wem",
                "rate": 1.0,
                "avatarName": "",
                "emotion": ""
            }
        ]
    },
    "0b8d2863-219e-4b41-adb7-c0090fd86654": {
        "Guid": "0b8d2863-219e-4b41-adb7-c0090fd86654",
        "playRate": 1.0,
        "GameTrigger": "Dialog",
        "gameTriggerArgs": 40021220,
        "personalConfig": 2,
        "ParentID": "7e3a2bd7-2ddf-42bb-8ac8-6da1974ce2a9",
        "SourceNames": [
            {
                "sourceFileName": "VO_AQ\\VO_navia\\vo_FDAQ006_13_navia_09.wem",
                "rate": 1.0,
                "avatarName": "",
                "emotion": ""
            }
        ]
    },
    "10479c85-49c6-42bf-9fc0-3bc5ef1714c1": {
        "Guid": "10479c85-49c6-42bf-9fc0-3bc5ef1714c1",
        "playRate": 1.0,
        "GameTrigger": "Dialog",
        "gameTriggerArgs": 40021217,
        "personalConfig": 2,
        "ParentID": "7e3a2bd7-2ddf-42bb-8ac8-6da1974ce2a9",
        "SourceNames": [
            {
                "sourceFileName": "VO_AQ\\VO_navia\\vo_FDAQ006_13_navia_07.wem",
                "rate": 1.0,
                "avatarName": "",
                "emotion": ""
            }
        ]
    },
    "110066fa-e514-4e4e-aa36-23f7b4b1fabd": {
        "Guid": "110066fa-e514-4e4e-aa36-23f7b4b1fabd",
        "playRate": 1.0,
        "GameTrigger": "Dialog",
        "gameTriggerArgs": 40021219,
        "personalConfig": 2,
        "ParentID": "7e3a2bd7-2ddf-42bb-8ac8-6da1974ce2a9",
        "SourceNames": [
            {
                "sourceFileName": "VO_AQ\\VO_paimon\\vo_FDAQ006_13_paimon_05.wem",
                "rate": 1.0,
                "avatarName": "",
                "emotion": ""
            }
        ]
    },
    "171f0ffa-84c0-4968-b087-e182d14fc38b": {
        "Guid": "171f0ffa-84c0-4968-b087-e182d14fc38b",
        "playRate": 1.0,
        "GameTrigger": "Dialog",
        "gameTriggerArgs": 40021236,
        "personalConfig": 2,
        "ParentID": "7e3a2bd7-2ddf-42bb-8ac8-6da1974ce2a9",
        "SourceNames": [
            {
                "sourceFileName": "VO_AQ\\VO_navia\\vo_FDAQ006_13_navia_20.wem",
                "rate": 1.0,
                "avatarName": "",
                "emotion": ""
            }
        ]
    },
    "1dc2feb2-c0ed-4d64-951f-582b54c13417": {
        "Guid": "1dc2feb2-c0ed-4d64-951f-582b54c13417",
        "playRate": 1.0,
        "GameTrigger": "Dialog",
        "gameTriggerArgs": 40021215,
        "personalConfig": 2,
        "ParentID": "7e3a2bd7-2ddf-42bb-8ac8-6da1974ce2a9",
        "SourceNames": [
            {
                "sourceFileName": "VO_AQ\\VO_navia\\vo_FDAQ006_13_navia_06.wem",
                "rate": 1.0,
                "avatarName": "",
                "emotion": ""
            }
        ]
    },
    "2b5ef245-3e50-4ac5-9256-0d44906c6b1f": {
        "Guid": "2b5ef245-3e50-4ac5-9256-0d44906c6b1f",
        "playRate": 1.0,
        "GameTrigger": "Dialog",
        "gameTriggerArgs": 40021235,
        "personalConfig": 2,
        "ParentID": "7e3a2bd7-2ddf-42bb-8ac8-6da1974ce2a9",
        "SourceNames": [
            {
                "sourceFileName": "VO_AQ\\VO_navia\\vo_FDAQ006_13_navia_19.wem",
                "rate": 1.0,
                "avatarName": "",
                "emotion": ""
            }
        ]
    },
    "2d55ac30-5873-44db-b0ff-77b96c60c956": {
        "Guid": "2d55ac30-5873-44db-b0ff-77b96c60c956",
        "playRate": 1.0,
        "GameTrigger": "Dialog",
        "gameTriggerArgs": 40021209,
        "personalConfig": 2,
        "ParentID": "7e3a2bd7-2ddf-42bb-8ac8-6da1974ce2a9",
        "SourceNames": [
            {
                "sourceFileName": "VO_AQ\\VO_paimon\\vo_FDAQ006_13_paimon_03.wem",
                "rate": 1.0,
                "avatarName": "",
                "emotion": ""
            }
        ]
    },
    "3115d5c2-abd8-4587-8ead-44214e463954": {
        "Guid": "3115d5c2-abd8-4587-8ead-44214e463954",
        "playRate": 1.0,
        "GameTrigger": "Dialog",
        "gameTriggerArgs": 40021233,
        "personalConfig": 2,
        "ParentID": "7e3a2bd7-2ddf-42bb-8ac8-6da1974ce2a9",
        "SourceNames": [
            {
                "sourceFileName": "VO_AQ\\VO_navia\\vo_FDAQ006_13_navia_18.wem",
                "rate": 1.0,
                "avatarName": "",
                "emotion": ""
            }
        ]
    },
    "36791e71-d6a4-4408-b281-0d086c07dd52": {
        "Guid": "36791e71-d6a4-4408-b281-0d086c07dd52",
        "playRate": 1.0,
        "GameTrigger": "Dialog",
        "gameTriggerArgs": 40021221,
        "personalConfig": 2,
        "ParentID": "7e3a2bd7-2ddf-42bb-8ac8-6da1974ce2a9",
        "SourceNames": [
            {
                "sourceFileName": "VO_AQ\\VO_navia\\vo_FDAQ006_13_navia_10.wem",
                "rate": 1.0,
                "avatarName": "",
                "emotion": ""
            }
        ]
    },
    "3a515b2b-1636-426d-9eca-4971e4445e14": {
        "Guid": "3a515b2b-1636-426d-9eca-4971e4445e14",
        "playRate": 1.0,
        "GameTrigger": "Dialog",
        "gameTriggerArgs": 40021244,
        "personalConfig": 2,
        "ParentID": "7e3a2bd7-2ddf-42bb-8ac8-6da1974ce2a9",
        "SourceNames": [
            {
                "sourceFileName": "VO_AQ\\VO_navia\\vo_FDAQ006_13_navia_23.wem",
                "rate": 1.0,
                "avatarName": "",
                "emotion": ""
            }
        ]
    },
    "3cde9eeb-a66d-4415-8a16-b0653ace2e68": {
        "Guid": "3cde9eeb-a66d-4415-8a16-b0653ace2e68",
        "playRate": 1.0,
        "GameTrigger": "Dialog",
        "gameTriggerArgs": 40021207,
        "personalConfig": 2,
        "ParentID": "7e3a2bd7-2ddf-42bb-8ac8-6da1974ce2a9",
        "SourceNames": [
            {
                "sourceFileName": "VO_AQ\\VO_paimon\\vo_FDAQ006_13_paimon_02.wem",
                "rate": 1.0,
                "avatarName": "",
                "emotion": ""
            }
        ]
    },
    "49e841b4-67c6-49b2-953a-8ef06f41a857": {
        "Guid": "49e841b4-67c6-49b2-953a-8ef06f41a857",
        "playRate": 1.0,
        "GameTrigger": "Dialog",
        "gameTriggerArgs": 40021227,
        "personalConfig": 2,
        "ParentID": "7e3a2bd7-2ddf-42bb-8ac8-6da1974ce2a9",
        "SourceNames": [
            {
                "sourceFileName": "VO_AQ\\VO_navia\\vo_FDAQ006_13_navia_14.wem",
                "rate": 1.0,
                "avatarName": "",
                "emotion": ""
            }
        ]
    },
    "4e199cff-5fb0-4ca8-8794-3b6b76f3572c": {
        "Guid": "4e199cff-5fb0-4ca8-8794-3b6b76f3572c",
        "playRate": 1.0,
        "GameTrigger": "Dialog",
        "gameTriggerArgs": 40021223,
        "personalConfig": 2,
        "ParentID": "7e3a2bd7-2ddf-42bb-8ac8-6da1974ce2a9",
        "SourceNames": [
            {
                "sourceFileName": "VO_AQ\\VO_navia\\vo_FDAQ006_13_navia_12.wem",
                "rate": 1.0,
                "avatarName": "",
                "emotion": ""
            }
        ]
    },
    "4f4a2f9c-79a1-4d0c-bf92-a3716cbb0e16": {
        "Guid": "4f4a2f9c-79a1-4d0c-bf92-a3716cbb0e16",
        "playRate": 1.0,
        "GameTrigger": "Dialog",
        "gameTriggerArgs": 40021206,
        "personalConfig": 2,
        "ParentID": "7e3a2bd7-2ddf-42bb-8ac8-6da1974ce2a9",
        "SourceNames": [
            {
                "sourceFileName": "VO_AQ\\VO_NPC\\vo_FDAQ006_13_silver_01.wem",
                "rate": 1.0,
                "avatarName": "",
                "emotion": ""
            }
        ]
    },
    "55eea681-f87e-43c7-8201-030c69316f2b": {
        "Guid": "55eea681-f87e-43c7-8201-030c69316f2b",
        "playRate": 1.0,
        "GameTrigger": "Dialog",
        "gameTriggerArgs": 40021222,
        "personalConfig": 2,
        "ParentID": "7e3a2bd7-2ddf-42bb-8ac8-6da1974ce2a9",
        "SourceNames": [
            {
                "sourceFileName": "VO_AQ\\VO_navia\\vo_FDAQ006_13_navia_11.wem",
                "rate": 1.0,
                "avatarName": "",
                "emotion": ""
            }
        ]
    },
    "64026b16-9773-4230-9100-b00753d566d8": {
        "Guid": "64026b16-9773-4230-9100-b00753d566d8",
        "playRate": 1.0,
        "GameTrigger": "Dialog",
        "gameTriggerArgs": 40021230,
        "personalConfig": 2,
        "ParentID": "7e3a2bd7-2ddf-42bb-8ac8-6da1974ce2a9",
        "SourceNames": [
            {
                "sourceFileName": "VO_AQ\\VO_navia\\vo_FDAQ006_13_navia_16.wem",
                "rate": 1.0,
                "avatarName": "",
                "emotion": ""
            }
        ]
    },
    "6c1e4c91-a558-4f5a-a4e5-6111d7445e49": {
        "Guid": "6c1e4c91-a558-4f5a-a4e5-6111d7445e49",
        "playRate": 1.0,
        "GameTrigger": "Dialog",
        "gameTriggerArgs": 40021224,
        "personalConfig": 2,
        "ParentID": "7e3a2bd7-2ddf-42bb-8ac8-6da1974ce2a9",
        "SourceNames": [
            {
                "sourceFileName": "VO_AQ\\VO_paimon\\vo_FDAQ006_13_paimon_06.wem",
                "rate": 1.0,
                "avatarName": "",
                "emotion": ""
            }
        ]
    },
    "7608fe19-4a62-4a4c-9992-b5478406d569": {
        "Guid": "7608fe19-4a62-4a4c-9992-b5478406d569",
        "playRate": 1.0,
        "GameTrigger": "Dialog",
        "gameTriggerArgs": 40021213,
        "personalConfig": 2,
        "ParentID": "7e3a2bd7-2ddf-42bb-8ac8-6da1974ce2a9",
        "SourceNames": [
            {
                "sourceFileName": "VO_AQ\\VO_paimon\\vo_FDAQ006_13_paimon_04.wem",
                "rate": 1.0,
                "avatarName": "",
                "emotion": ""
            }
        ]
    },
    "7a65d9db-9e65-4f1f-80fa-6696539fcfe6": {
        "Guid": "7a65d9db-9e65-4f1f-80fa-6696539fcfe6",
        "playRate": 1.0,
        "GameTrigger": "Dialog",
        "gameTriggerArgs": 40021234,
        "personalConfig": 2,
        "ParentID": "7e3a2bd7-2ddf-42bb-8ac8-6da1974ce2a9",
        "SourceNames": [
            {
                "sourceFileName": "VO_AQ\\VO_paimon\\vo_FDAQ006_13_paimon_10.wem",
                "rate": 1.0,
                "avatarName": "",
                "emotion": ""
            }
        ]
    },
    "7ded6785-8ee2-4182-bfdb-66692c73cfd9": {
        "Guid": "7ded6785-8ee2-4182-bfdb-66692c73cfd9",
        "playRate": 1.0,
        "GameTrigger": "Dialog",
        "gameTriggerArgs": 40021237,
        "personalConfig": 2,
        "ParentID": "7e3a2bd7-2ddf-42bb-8ac8-6da1974ce2a9",
        "SourceNames": [
            {
                "sourceFileName": "VO_AQ\\VO_navia\\vo_FDAQ006_13_navia_21.wem",
                "rate": 1.0,
                "avatarName": "",
                "emotion": ""
            }
        ]
    },
    "99389881-306f-4a7b-a6f7-df28809f667a": {
        "Guid": "99389881-306f-4a7b-a6f7-df28809f667a",
        "playRate": 1.0,
        "GameTrigger": "Dialog",
        "gameTriggerArgs": 40021239,
        "personalConfig": 2,
        "ParentID": "7e3a2bd7-2ddf-42bb-8ac8-6da1974ce2a9",
        "SourceNames": [
            {
                "sourceFileName": "VO_AQ\\VO_NPC\\vo_FDAQ006_13_marcillac_03.wem",
                "rate": 1.0,
                "avatarName": "",
                "emotion": ""
            }
        ]
    },
    "9ea2f272-879f-49d4-abb6-42efb7ac5406": {
        "Guid": "9ea2f272-879f-49d4-abb6-42efb7ac5406",
        "playRate": 1.0,
        "GameTrigger": "Dialog",
        "gameTriggerArgs": 40021228,
        "personalConfig": 2,
        "ParentID": "7e3a2bd7-2ddf-42bb-8ac8-6da1974ce2a9",
        "SourceNames": [
            {
                "sourceFileName": "VO_AQ\\VO_paimon\\vo_FDAQ006_13_paimon_08.wem",
                "rate": 1.0,
                "avatarName": "",
                "emotion": ""
            }
        ]
    },
    "a17b35fb-3857-4bf7-9356-4318786f35e4": {
        "Guid": "a17b35fb-3857-4bf7-9356-4318786f35e4",
        "playRate": 1.0,
        "GameTrigger": "Dialog",
        "gameTriggerArgs": 40021214,
        "personalConfig": 2,
        "ParentID": "7e3a2bd7-2ddf-42bb-8ac8-6da1974ce2a9",
        "SourceNames": [
            {
                "sourceFileName": "VO_AQ\\VO_NPC\\vo_FDAQ006_13_marcillac_02.wem",
                "rate": 1.0,
                "avatarName": "",
                "emotion": ""
            }
        ]
    },
    "a3dc5e5c-15bd-4cd2-a92c-30be182df97e": {
        "Guid": "a3dc5e5c-15bd-4cd2-a92c-30be182df97e",
        "playRate": 1.0,
        "GameTrigger": "Dialog",
        "gameTriggerArgs": 40021208,
        "personalConfig": 2,
        "ParentID": "7e3a2bd7-2ddf-42bb-8ac8-6da1974ce2a9",
        "SourceNames": [
            {
                "sourceFileName": "VO_AQ\\VO_navia\\vo_FDAQ006_13_navia_02.wem",
                "rate": 1.0,
                "avatarName": "",
                "emotion": ""
            }
        ]
    },
    "a8c56ae0-cf68-4b42-a3f1-ce69859f7b09": {
        "Guid": "a8c56ae0-cf68-4b42-a3f1-ce69859f7b09",
        "playRate": 1.0,
        "GameTrigger": "Dialog",
        "gameTriggerArgs": 40021225,
        "personalConfig": 2,
        "ParentID": "7e3a2bd7-2ddf-42bb-8ac8-6da1974ce2a9",
        "SourceNames": [
            {
                "sourceFileName": "VO_AQ\\VO_navia\\vo_FDAQ006_13_navia_13.wem",
                "rate": 1.0,
                "avatarName": "",
                "emotion": ""
            }
        ]
    },
    "b3083273-4eaa-49a9-96fc-4e7600b38072": {
        "Guid": "b3083273-4eaa-49a9-96fc-4e7600b38072",
        "playRate": 1.0,
        "GameTrigger": "Dialog",
        "gameTriggerArgs": 40021242,
        "personalConfig": 2,
        "ParentID": "7e3a2bd7-2ddf-42bb-8ac8-6da1974ce2a9",
        "SourceNames": [
            {
                "sourceFileName": "VO_AQ\\VO_navia\\vo_FDAQ006_13_navia_22.wem",
                "rate": 1.0,
                "avatarName": "",
                "emotion": ""
            }
        ]
    },
    "b8d2adec-e856-4bb5-8e76-b5f5dc41e4e1": {
        "Guid": "b8d2adec-e856-4bb5-8e76-b5f5dc41e4e1",
        "playRate": 1.0,
        "GameTrigger": "Dialog",
        "gameTriggerArgs": 40021243,
        "personalConfig": 2,
        "ParentID": "7e3a2bd7-2ddf-42bb-8ac8-6da1974ce2a9",
        "SourceNames": [
            {
                "sourceFileName": "VO_AQ\\VO_NPC\\vo_FDAQ006_13_marcillac_04.wem",
                "rate": 1.0,
                "avatarName": "",
                "emotion": ""
            }
        ]
    },
    "be82d7f1-9476-4fb5-94d9-33ba126f9a02": {
        "Guid": "be82d7f1-9476-4fb5-94d9-33ba126f9a02",
        "playRate": 1.0,
        "GameTrigger": "Dialog",
        "gameTriggerArgs": 40021232,
        "personalConfig": 2,
        "ParentID": "7e3a2bd7-2ddf-42bb-8ac8-6da1974ce2a9",
        "SourceNames": [
            {
                "sourceFileName": "VO_AQ\\VO_navia\\vo_FDAQ006_13_navia_17.wem",
                "rate": 1.0,
                "avatarName": "",
                "emotion": ""
            }
        ]
    },
    "cd42e892-0fc5-420b-8b04-838e3572d527": {
        "Guid": "cd42e892-0fc5-420b-8b04-838e3572d527",
        "playRate": 1.0,
        "GameTrigger": "Dialog",
        "gameTriggerArgs": 40021210,
        "personalConfig": 2,
        "ParentID": "7e3a2bd7-2ddf-42bb-8ac8-6da1974ce2a9",
        "SourceNames": [
            {
                "sourceFileName": "VO_AQ\\VO_navia\\vo_FDAQ006_13_navia_03.wem",
                "rate": 1.0,
                "avatarName": "",
                "emotion": ""
            }
        ]
    },
    "db2b3af9-2496-4a3e-9ce3-44689c547bcb": {
        "Guid": "db2b3af9-2496-4a3e-9ce3-44689c547bcb",
        "playRate": 1.0,
        "GameTrigger": "Dialog",
        "gameTriggerArgs": 40021229,
        "personalConfig": 2,
        "ParentID": "7e3a2bd7-2ddf-42bb-8ac8-6da1974ce2a9",
        "SourceNames": [
            {
                "sourceFileName": "VO_AQ\\VO_navia\\vo_FDAQ006_13_navia_15.wem",
                "rate": 1.0,
                "avatarName": "",
                "emotion": ""
            }
        ]
    },
    "deeb3689-7886-4e39-a36a-c4ad7886d2ed": {
        "Guid": "deeb3689-7886-4e39-a36a-c4ad7886d2ed",
        "playRate": 1.0,
        "GameTrigger": "Dialog",
        "gameTriggerArgs": 40021211,
        "personalConfig": 2,
        "ParentID": "7e3a2bd7-2ddf-42bb-8ac8-6da1974ce2a9",
        "SourceNames": [
            {
                "sourceFileName": "VO_AQ\\VO_navia\\vo_FDAQ006_13_navia_04.wem",
                "rate": 1.0,
                "avatarName": "",
                "emotion": ""
            }
        ]
    },
    "e2cbcaab-2681-42c0-8482-b97655e05c59": {
        "Guid": "e2cbcaab-2681-42c0-8482-b97655e05c59",
        "playRate": 1.0,
        "GameTrigger": "Dialog",
        "gameTriggerArgs": 40021238,
        "personalConfig": 2,
        "ParentID": "7e3a2bd7-2ddf-42bb-8ac8-6da1974ce2a9",
        "SourceNames": [
            {
                "sourceFileName": "VO_AQ\\VO_NPC\\vo_FDAQ006_13_silver_02.wem",
                "rate": 1.0,
                "avatarName": "",
                "emotion": ""
            }
        ]
    },
    "e723deef-abd7-4979-aa70-ed23693a934d": {
        "Guid": "e723deef-abd7-4979-aa70-ed23693a934d",
        "playRate": 1.0,
        "GameTrigger": "Dialog",
        "gameTriggerArgs": 40021231,
        "personalConfig": 2,
        "ParentID": "7e3a2bd7-2ddf-42bb-8ac8-6da1974ce2a9",
        "SourceNames": [
            {
                "sourceFileName": "VO_AQ\\VO_paimon\\vo_FDAQ006_13_paimon_09.wem",
                "rate": 1.0,
                "avatarName": "",
                "emotion": ""
            }
        ]
    },
    "e9504cdc-8781-4c8e-8785-531c4247a405": {
        "Guid": "e9504cdc-8781-4c8e-8785-531c4247a405",
        "playRate": 1.0,
        "GameTrigger": "Dialog",
        "gameTriggerArgs": 40021212,
        "personalConfig": 2,
        "ParentID": "7e3a2bd7-2ddf-42bb-8ac8-6da1974ce2a9",
        "SourceNames": [
            {
                "sourceFileName": "VO_AQ\\VO_navia\\vo_FDAQ006_13_navia_05.wem",
                "rate": 1.0,
                "avatarName": "",
                "emotion": ""
            }
        ]
    },
    "f1ccccce-693f-4666-95ae-e5769211360b": {
        "Guid": "f1ccccce-693f-4666-95ae-e5769211360b",
        "playRate": 1.0,
        "GameTrigger": "Dialog",
        "gameTriggerArgs": 40021226,
        "personalConfig": 2,
        "ParentID": "7e3a2bd7-2ddf-42bb-8ac8-6da1974ce2a9",
        "SourceNames": [
            {
                "sourceFileName": "VO_AQ\\VO_paimon\\vo_FDAQ006_13_paimon_07.wem",
                "rate": 1.0,
                "avatarName": "",
                "emotion": ""
            }
        ]
    },
    "f650cc4c-b3d5-40e8-808a-6b64fad58133": {
        "Guid": "f650cc4c-b3d5-40e8-808a-6b64fad58133",
        "playRate": 1.0,
        "GameTrigger": "Dialog",
        "gameTriggerArgs": 40021204,
        "personalConfig": 2,
        "ParentID": "7e3a2bd7-2ddf-42bb-8ac8-6da1974ce2a9",
        "SourceNames": [
            {
                "sourceFileName": "VO_AQ\\VO_navia\\vo_FDAQ006_13_navia_01.wem",
                "rate": 1.0,
                "avatarName": "",
                "emotion": ""
            }
        ]
    },
    "f74aa4a8-391b-4c9b-9aa9-108ed93c6793": {
        "Guid": "f74aa4a8-391b-4c9b-9aa9-108ed93c6793",
        "playRate": 1.0,
        "GameTrigger": "Dialog",
        "gameTriggerArgs": 40021218,
        "personalConfig": 2,
        "ParentID": "7e3a2bd7-2ddf-42bb-8ac8-6da1974ce2a9",
        "SourceNames": [
            {
                "sourceFileName": "VO_AQ\\VO_navia\\vo_FDAQ006_13_navia_08.wem",
                "rate": 1.0,
                "avatarName": "",
                "emotion": ""
            }
        ]
    }
}