{
    "2c762318-6d2b-40a0-aec0-40c519abbb15": {
        "Guid": "2c762318-6d2b-40a0-aec0-40c519abbb15",
        "playRate": 1.0,
        "GameTrigger": "DungeonReminder",
        "gameTriggerArgs": 478020301,
        "personalConfig": 2,
        "ParentID": "3e23d5c8-69e2-435b-98c3-6d63d78026e2",
        "SourceNames": [
            {
                "sourceFileName": "VO_EQ\\VO_paimon\\vo_RPEQ003_5_paimon_03.wem",
                "rate": 1.0,
                "avatarName": "",
                "emotion": ""
            }
        ]
    },
    "72365570-1aa9-4886-93bb-64bebd13fcdb": {
        "Guid": "72365570-1aa9-4886-93bb-64bebd13fcdb",
        "playRate": 1.0,
        "GameTrigger": "DungeonReminder",
        "gameTriggerArgs": 478020202,
        "personalConfig": 2,
        "ParentID": "3e23d5c8-69e2-435b-98c3-6d63d78026e2",
        "SourceNames": [
            {
                "sourceFileName": "VO_EQ\\VO_paimon\\vo_RPEQ003_5_paimon_02.wem",
                "rate": 1.0,
                "avatarName": "",
                "emotion": ""
            }
        ]
    },
    "ab73acad-032d-4e9c-b57e-bc57ead64691": {
        "Guid": "ab73acad-032d-4e9c-b57e-bc57ead64691",
        "playRate": 1.0,
        "GameTrigger": "DungeonReminder",
        "gameTriggerArgs": 478020101,
        "personalConfig": 2,
        "ParentID": "3e23d5c8-69e2-435b-98c3-6d63d78026e2",
        "SourceNames": [
            {
                "sourceFileName": "VO_EQ\\VO_paimon\\vo_RPEQ003_5_paimon_01.wem",
                "rate": 1.0,
                "avatarName": "",
                "emotion": ""
            }
        ]
    },
    "f5c22fab-b82b-4d90-823f-f51cbee18028": {
        "Guid": "f5c22fab-b82b-4d90-823f-f51cbee18028",
        "playRate": 1.0,
        "GameTrigger": "DungeonReminder",
        "gameTriggerArgs": 478020201,
        "personalConfig": 2,
        "ParentID": "3e23d5c8-69e2-435b-98c3-6d63d78026e2",
        "SourceNames": [
            {
                "sourceFileName": "VO_EQ\\VO_freminet\\vo_RPEQ003_5_freminet_01.wem",
                "rate": 1.0,
                "avatarName": "",
                "emotion": ""
            }
        ]
    }
}