{
    "2ec4291d-b692-45bd-89f0-e417795c0f78": {
        "Guid": "2ec4291d-b692-45bd-89f0-e417795c0f78",
        "playRate": 1.0,
        "GameTrigger": "Dialog",
        "gameTriggerArgs": 40021011,
        "personalConfig": 2,
        "ParentID": "94a75ff9-3293-4c8e-b816-f5baf80a8b09",
        "SourceNames": [
            {
                "sourceFileName": "VO_AQ\\VO_paimon\\vo_FDAQ006_11_paimon_03.wem",
                "rate": 1.0,
                "avatarName": "",
                "emotion": ""
            }
        ]
    },
    "5583895c-0a46-4e59-a1bb-0787929c7ae4": {
        "Guid": "5583895c-0a46-4e59-a1bb-0787929c7ae4",
        "playRate": 1.0,
        "GameTrigger": "Dialog",
        "gameTriggerArgs": 40021010,
        "personalConfig": 2,
        "ParentID": "94a75ff9-3293-4c8e-b816-f5baf80a8b09",
        "SourceNames": [
            {
                "sourceFileName": "VO_AQ\\VO_NPC\\vo_FDAQ006_11_marcelle_04.wem",
                "rate": 1.0,
                "avatarName": "",
                "emotion": ""
            }
        ]
    },
    "74fc6edc-6dab-4009-9f2f-76baf4d062b8": {
        "Guid": "74fc6edc-6dab-4009-9f2f-76baf4d062b8",
        "playRate": 1.0,
        "GameTrigger": "Dialog",
        "gameTriggerArgs": 40021007,
        "personalConfig": 2,
        "ParentID": "94a75ff9-3293-4c8e-b816-f5baf80a8b09",
        "SourceNames": [
            {
                "sourceFileName": "VO_AQ\\VO_paimon\\vo_FDAQ006_11_paimon_02.wem",
                "rate": 1.0,
                "avatarName": "",
                "emotion": ""
            }
        ]
    },
    "967da527-29e8-4073-9092-193a5442a838": {
        "Guid": "967da527-29e8-4073-9092-193a5442a838",
        "playRate": 1.0,
        "GameTrigger": "Dialog",
        "gameTriggerArgs": 40021008,
        "personalConfig": 2,
        "ParentID": "94a75ff9-3293-4c8e-b816-f5baf80a8b09",
        "SourceNames": [
            {
                "sourceFileName": "VO_AQ\\VO_NPC\\vo_FDAQ006_11_marcelle_03.wem",
                "rate": 1.0,
                "avatarName": "",
                "emotion": ""
            }
        ]
    },
    "b8382294-afed-4a26-9b4a-791b38a3b9ff": {
        "Guid": "b8382294-afed-4a26-9b4a-791b38a3b9ff",
        "playRate": 1.0,
        "GameTrigger": "Dialog",
        "gameTriggerArgs": 40021009,
        "personalConfig": 2,
        "ParentID": "94a75ff9-3293-4c8e-b816-f5baf80a8b09",
        "SourceNames": [
            {
                "sourceFileName": "VO_AQ\\VO_NPC\\vo_FDAQ006_11_vigneire_02.wem",
                "rate": 1.0,
                "avatarName": "",
                "emotion": ""
            }
        ]
    },
    "c1b07cc9-af9a-44bf-ba8d-f06a37592060": {
        "Guid": "c1b07cc9-af9a-44bf-ba8d-f06a37592060",
        "playRate": 1.0,
        "GameTrigger": "Dialog",
        "gameTriggerArgs": 40021001,
        "personalConfig": 2,
        "ParentID": "94a75ff9-3293-4c8e-b816-f5baf80a8b09",
        "SourceNames": [
            {
                "sourceFileName": "VO_AQ\\VO_NPC\\vo_FDAQ006_11_marcelle_01.wem",
                "rate": 1.0,
                "avatarName": "",
                "emotion": ""
            }
        ]
    },
    "c1f70d74-38b8-4322-b0aa-d9211163fc4a": {
        "Guid": "c1f70d74-38b8-4322-b0aa-d9211163fc4a",
        "playRate": 1.0,
        "GameTrigger": "Dialog",
        "gameTriggerArgs": 40021004,
        "personalConfig": 2,
        "ParentID": "94a75ff9-3293-4c8e-b816-f5baf80a8b09",
        "SourceNames": [
            {
                "sourceFileName": "VO_AQ\\VO_paimon\\vo_FDAQ006_11_paimon_01.wem",
                "rate": 1.0,
                "avatarName": "",
                "emotion": ""
            }
        ]
    },
    "ea2e9ae2-fbe1-4c80-8277-0ebdf45a82eb": {
        "Guid": "ea2e9ae2-fbe1-4c80-8277-0ebdf45a82eb",
        "playRate": 1.0,
        "GameTrigger": "Dialog",
        "gameTriggerArgs": 40021005,
        "personalConfig": 2,
        "ParentID": "94a75ff9-3293-4c8e-b816-f5baf80a8b09",
        "SourceNames": [
            {
                "sourceFileName": "VO_AQ\\VO_NPC\\vo_FDAQ006_11_vigneire_01.wem",
                "rate": 1.0,
                "avatarName": "",
                "emotion": ""
            }
        ]
    },
    "ede678d9-e39f-416b-9a90-fef12427e37e": {
        "Guid": "ede678d9-e39f-416b-9a90-fef12427e37e",
        "playRate": 1.0,
        "GameTrigger": "Dialog",
        "gameTriggerArgs": 40021006,
        "personalConfig": 2,
        "ParentID": "94a75ff9-3293-4c8e-b816-f5baf80a8b09",
        "SourceNames": [
            {
                "sourceFileName": "VO_AQ\\VO_NPC\\vo_FDAQ006_11_marcelle_02.wem",
                "rate": 1.0,
                "avatarName": "",
                "emotion": ""
            }
        ]
    }
}