{
    "08edce99-5a7c-4445-9f6c-e823367c9bb5": {
        "Guid": "08edce99-5a7c-4445-9f6c-e823367c9bb5",
        "playRate": 1.0,
        "GameTrigger": "Dialog",
        "gameTriggerArgs": 40000811,
        "personalConfig": 2,
        "ParentID": "26b6cc1f-95a8-45a6-971d-169ad726b4f4",
        "SourceNames": [
            {
                "sourceFileName": "VO_AQ\\VO_paimon\\vo_FDAQ004_2_paimon_04.wem",
                "rate": 1.0,
                "avatarName": "",
                "emotion": ""
            }
        ]
    },
    "10511f61-c89f-4b57-b0ff-7f1c0e577707": {
        "Guid": "10511f61-c89f-4b57-b0ff-7f1c0e577707",
        "playRate": 1.0,
        "GameTrigger": "Dialog",
        "gameTriggerArgs": 40000805,
        "personalConfig": 2,
        "ParentID": "26b6cc1f-95a8-45a6-971d-169ad726b4f4",
        "SourceNames": [
            {
                "sourceFileName": "VO_AQ\\VO_paimon\\vo_FDAQ004_2_paimon_02b_1.wem",
                "rate": 1.0,
                "avatarName": "",
                "emotion": ""
            }
        ]
    },
    "5157d97c-088c-4f60-869c-36ca2e8806af": {
        "Guid": "5157d97c-088c-4f60-869c-36ca2e8806af",
        "playRate": 1.0,
        "GameTrigger": "Dialog",
        "gameTriggerArgs": 40000812,
        "personalConfig": 2,
        "ParentID": "26b6cc1f-95a8-45a6-971d-169ad726b4f4",
        "SourceNames": [
            {
                "sourceFileName": "VO_AQ\\VO_navia\\vo_FDAQ004_2_navia_03.wem",
                "rate": 1.0,
                "avatarName": "",
                "emotion": ""
            }
        ]
    },
    "59e8480b-ebe9-4494-a42f-3b5e2b31b68f": {
        "Guid": "59e8480b-ebe9-4494-a42f-3b5e2b31b68f",
        "playRate": 1.0,
        "GameTrigger": "Dialog",
        "gameTriggerArgs": 40000806,
        "personalConfig": 2,
        "ParentID": "26b6cc1f-95a8-45a6-971d-169ad726b4f4",
        "SourceNames": [
            {
                "sourceFileName": "VO_AQ\\VO_navia\\vo_FDAQ004_2_navia_01.wem",
                "rate": 1.0,
                "avatarName": "",
                "emotion": ""
            }
        ]
    },
    "8255408a-06bd-40d2-8cea-a00130b44315": {
        "Guid": "8255408a-06bd-40d2-8cea-a00130b44315",
        "playRate": 1.0,
        "GameTrigger": "Dialog",
        "gameTriggerArgs": 40000814,
        "personalConfig": 2,
        "ParentID": "26b6cc1f-95a8-45a6-971d-169ad726b4f4",
        "SourceNames": [
            {
                "sourceFileName": "VO_AQ\\VO_paimon\\vo_FDAQ004_2_paimon_05.wem",
                "rate": 1.0,
                "avatarName": "",
                "emotion": ""
            }
        ]
    },
    "8744c99c-f0b2-4236-ad03-87121672136f": {
        "Guid": "8744c99c-f0b2-4236-ad03-87121672136f",
        "playRate": 1.0,
        "GameTrigger": "Dialog",
        "gameTriggerArgs": 40000803,
        "personalConfig": 2,
        "ParentID": "26b6cc1f-95a8-45a6-971d-169ad726b4f4",
        "SourceNames": [
            {
                "sourceFileName": "VO_AQ\\VO_paimon\\vo_FDAQ004_2_paimon_02a_1.wem",
                "rate": 1.0,
                "avatarName": "",
                "emotion": ""
            }
        ]
    },
    "c2ed0324-0bf8-4599-904d-43ec43aa552c": {
        "Guid": "c2ed0324-0bf8-4599-904d-43ec43aa552c",
        "playRate": 1.0,
        "GameTrigger": "Dialog",
        "gameTriggerArgs": 40000801,
        "personalConfig": 2,
        "ParentID": "26b6cc1f-95a8-45a6-971d-169ad726b4f4",
        "SourceNames": [
            {
                "sourceFileName": "VO_AQ\\VO_paimon\\vo_FDAQ004_2_paimon_01.wem",
                "rate": 1.0,
                "avatarName": "",
                "emotion": ""
            }
        ]
    },
    "df15726c-d81a-4ecc-8088-ec27f898fcd7": {
        "Guid": "df15726c-d81a-4ecc-8088-ec27f898fcd7",
        "playRate": 1.0,
        "GameTrigger": "Dialog",
        "gameTriggerArgs": 40000813,
        "personalConfig": 2,
        "ParentID": "26b6cc1f-95a8-45a6-971d-169ad726b4f4",
        "SourceNames": [
            {
                "sourceFileName": "VO_AQ\\VO_navia\\vo_FDAQ004_2_navia_04.wem",
                "rate": 1.0,
                "avatarName": "",
                "emotion": ""
            }
        ]
    },
    "eaed8cae-6355-4428-a017-aae9afb788a4": {
        "Guid": "eaed8cae-6355-4428-a017-aae9afb788a4",
        "playRate": 1.0,
        "GameTrigger": "Dialog",
        "gameTriggerArgs": 40000808,
        "personalConfig": 2,
        "ParentID": "26b6cc1f-95a8-45a6-971d-169ad726b4f4",
        "SourceNames": [
            {
                "sourceFileName": "VO_AQ\\VO_navia\\vo_FDAQ004_2_navia_02.wem",
                "rate": 1.0,
                "avatarName": "",
                "emotion": ""
            }
        ]
    },
    "fbe1c50b-6859-4478-bb83-fbee9b8044dd": {
        "Guid": "fbe1c50b-6859-4478-bb83-fbee9b8044dd",
        "playRate": 1.0,
        "GameTrigger": "Dialog",
        "gameTriggerArgs": 40000807,
        "personalConfig": 2,
        "ParentID": "26b6cc1f-95a8-45a6-971d-169ad726b4f4",
        "SourceNames": [
            {
                "sourceFileName": "VO_AQ\\VO_paimon\\vo_FDAQ004_2_paimon_03.wem",
                "rate": 1.0,
                "avatarName": "",
                "emotion": ""
            }
        ]
    }
}