{
    "0a5b584f-6147-4fd1-9950-515b33cf675b": {
        "Guid": "0a5b584f-6147-4fd1-9950-515b33cf675b",
        "playRate": 1.0,
        "GameTrigger": "Dialog",
        "gameTriggerArgs": 140125401,
        "personalConfig": 2,
        "ParentID": "b40ebd8a-0110-472b-a6d7-2073b70a99ea",
        "SourceNames": [
            {
                "sourceFileName": "VO_freetalk\\VO_neuvillette\\vo_dialog_FNNLQ003_neuvillette_01.wem",
                "rate": 1.0,
                "avatarName": "",
                "emotion": ""
            }
        ]
    },
    "1388eec1-3b17-4e3e-bcc3-def22e1ed606": {
        "Guid": "1388eec1-3b17-4e3e-bcc3-def22e1ed606",
        "playRate": 1.0,
        "GameTrigger": "Dialog",
        "gameTriggerArgs": 140092302,
        "personalConfig": 2,
        "ParentID": "b40ebd8a-0110-472b-a6d7-2073b70a99ea",
        "SourceNames": [
            {
                "sourceFileName": "VO_freetalk\\VO_neuvillette\\vo_dialog_SLLQ003_neuvillette_03.wem",
                "rate": 1.0,
                "avatarName": "",
                "emotion": ""
            }
        ]
    },
    "1561c79d-2413-4501-a03f-72b05b37eb55": {
        "Guid": "1561c79d-2413-4501-a03f-72b05b37eb55",
        "playRate": 1.0,
        "GameTrigger": "Dialog",
        "gameTriggerArgs": 40111001,
        "personalConfig": 2,
        "ParentID": "b40ebd8a-0110-472b-a6d7-2073b70a99ea",
        "SourceNames": [
            {
                "sourceFileName": "VO_freetalk\\VO_neuvillette\\vo_dialog_FDAQ101_neuvillette_01.wem",
                "rate": 1.0,
                "avatarName": "",
                "emotion": ""
            }
        ]
    },
    "1a07e11d-d97b-4f09-b94f-00eb03daf852": {
        "Guid": "1a07e11d-d97b-4f09-b94f-00eb03daf852",
        "playRate": 1.0,
        "GameTrigger": "Dialog",
        "gameTriggerArgs": 140071201,
        "personalConfig": 2,
        "ParentID": "b40ebd8a-0110-472b-a6d7-2073b70a99ea",
        "SourceNames": [
            {
                "sourceFileName": "VO_freetalk\\VO_neuvillette\\vo_dialog_SLLQ001_neuvillette_01.wem",
                "rate": 1.0,
                "avatarName": "",
                "emotion": ""
            }
        ]
    },
    "289dc424-0000-425f-afff-48f1644c6cdb": {
        "Guid": "289dc424-0000-425f-afff-48f1644c6cdb",
        "playRate": 1.0,
        "GameTrigger": "Dialog",
        "gameTriggerArgs": 140125402,
        "personalConfig": 2,
        "ParentID": "b40ebd8a-0110-472b-a6d7-2073b70a99ea",
        "SourceNames": [
            {
                "sourceFileName": "VO_freetalk\\VO_neuvillette\\vo_dialog_FNNLQ003_neuvillette_02.wem",
                "rate": 1.0,
                "avatarName": "",
                "emotion": ""
            }
        ]
    },
    "3816ce4b-c9bb-4b39-aded-ee843f53a9ac": {
        "Guid": "3816ce4b-c9bb-4b39-aded-ee843f53a9ac",
        "playRate": 1.0,
        "GameTrigger": "Dialog",
        "gameTriggerArgs": 140092602,
        "personalConfig": 2,
        "ParentID": "b40ebd8a-0110-472b-a6d7-2073b70a99ea",
        "SourceNames": [
            {
                "sourceFileName": "VO_freetalk\\VO_neuvillette\\vo_dialog_SLLQ001_neuvillette_03.wem",
                "rate": 1.0,
                "avatarName": "",
                "emotion": ""
            }
        ]
    },
    "4ed72a3f-f3bc-4d49-8162-28640b463723": {
        "Guid": "4ed72a3f-f3bc-4d49-8162-28640b463723",
        "playRate": 1.0,
        "GameTrigger": "Dialog",
        "gameTriggerArgs": 140090701,
        "personalConfig": 2,
        "ParentID": "b40ebd8a-0110-472b-a6d7-2073b70a99ea",
        "SourceNames": [
            {
                "sourceFileName": "VO_freetalk\\VO_neuvillette\\vo_dialog_SLLQ003_neuvillette_01.wem",
                "rate": 1.0,
                "avatarName": "",
                "emotion": ""
            }
        ]
    },
    "6ab9f19f-294a-42cb-8a53-68e67b5a7604": {
        "Guid": "6ab9f19f-294a-42cb-8a53-68e67b5a7604",
        "playRate": 1.0,
        "GameTrigger": "Dialog",
        "gameTriggerArgs": 40025002,
        "personalConfig": 2,
        "ParentID": "b40ebd8a-0110-472b-a6d7-2073b70a99ea",
        "SourceNames": [
            {
                "sourceFileName": "VO_freetalk\\VO_neuvillette\\vo_dialog_FDAQ006_neuvillette_01.wem",
                "rate": 1.0,
                "avatarName": "",
                "emotion": ""
            },
            {
                "sourceFileName": "VO_freetalk\\VO_neuvillette\\vo_dialog_FDAQ006_neuvillette_01.wem",
                "rate": 1.0,
                "avatarName": "",
                "emotion": ""
            }
        ]
    },
    "8ca5a67e-a1a1-4a30-a871-ba5fdb833ad4": {
        "Guid": "8ca5a67e-a1a1-4a30-a871-ba5fdb833ad4",
        "playRate": 1.0,
        "GameTrigger": "Dialog",
        "gameTriggerArgs": 140092301,
        "personalConfig": 2,
        "ParentID": "b40ebd8a-0110-472b-a6d7-2073b70a99ea",
        "SourceNames": [
            {
                "sourceFileName": "VO_freetalk\\VO_neuvillette\\vo_dialog_SLLQ003_neuvillette_02.wem",
                "rate": 1.0,
                "avatarName": "",
                "emotion": ""
            }
        ]
    },
    "9aad72bd-c1fa-4273-bc2a-c6d43e5552c1": {
        "Guid": "9aad72bd-c1fa-4273-bc2a-c6d43e5552c1",
        "playRate": 1.0,
        "GameTrigger": "Dialog",
        "gameTriggerArgs": 140092604,
        "personalConfig": 2,
        "ParentID": "b40ebd8a-0110-472b-a6d7-2073b70a99ea",
        "SourceNames": [
            {
                "sourceFileName": "VO_freetalk\\VO_neuvillette\\vo_dialog_SLLQ001_neuvillette_05.wem",
                "rate": 1.0,
                "avatarName": "",
                "emotion": ""
            }
        ]
    },
    "a273e45f-7b61-4e62-a49a-ca1036908113": {
        "Guid": "a273e45f-7b61-4e62-a49a-ca1036908113",
        "playRate": 1.0,
        "GameTrigger": "Dialog",
        "gameTriggerArgs": 140092601,
        "personalConfig": 2,
        "ParentID": "b40ebd8a-0110-472b-a6d7-2073b70a99ea",
        "SourceNames": [
            {
                "sourceFileName": "VO_freetalk\\VO_neuvillette\\vo_dialog_SLLQ001_neuvillette_02.wem",
                "rate": 1.0,
                "avatarName": "",
                "emotion": ""
            }
        ]
    },
    "d0d74dc5-5270-4c76-888d-c328329a4011": {
        "Guid": "d0d74dc5-5270-4c76-888d-c328329a4011",
        "playRate": 1.0,
        "GameTrigger": "Dialog",
        "gameTriggerArgs": 140092603,
        "personalConfig": 2,
        "ParentID": "b40ebd8a-0110-472b-a6d7-2073b70a99ea",
        "SourceNames": [
            {
                "sourceFileName": "VO_freetalk\\VO_neuvillette\\vo_dialog_SLLQ001_neuvillette_04.wem",
                "rate": 1.0,
                "avatarName": "",
                "emotion": ""
            }
        ]
    }
}