{
    "00f8e7b0-27bc-4528-be80-ea2d12a3ae16": {
        "Guid": "00f8e7b0-27bc-4528-be80-ea2d12a3ae16",
        "playRate": 1.0,
        "GameTrigger": "Dialog",
        "gameTriggerArgs": 40100922,
        "personalConfig": 2,
        "ParentID": "12b9d42e-b0cf-4297-b7f5-48dc9d93525d",
        "SourceNames": [
            {
                "sourceFileName": "VO_AQ\\VO_furina\\vo_FDAQ108_10_furina_08.wem",
                "rate": 1.0,
                "avatarName": "",
                "emotion": ""
            }
        ]
    },
    "0a7db1e2-5dc3-4f27-ba52-ae91a7dd1bc8": {
        "Guid": "0a7db1e2-5dc3-4f27-ba52-ae91a7dd1bc8",
        "playRate": 1.0,
        "GameTrigger": "Dialog",
        "gameTriggerArgs": 40100937,
        "personalConfig": 2,
        "ParentID": "12b9d42e-b0cf-4297-b7f5-48dc9d93525d",
        "SourceNames": [
            {
                "sourceFileName": "VO_AQ\\VO_arlecchino\\vo_FDAQ108_10_arlecchino_22.wem",
                "rate": 1.0,
                "avatarName": "",
                "emotion": ""
            }
        ]
    },
    "10284fc7-23ba-468a-a92d-d932bb23f919": {
        "Guid": "10284fc7-23ba-468a-a92d-d932bb23f919",
        "playRate": 1.0,
        "GameTrigger": "Dialog",
        "gameTriggerArgs": 40100905,
        "personalConfig": 2,
        "ParentID": "12b9d42e-b0cf-4297-b7f5-48dc9d93525d",
        "SourceNames": [
            {
                "sourceFileName": "VO_AQ\\VO_arlecchino\\vo_FDAQ108_10_arlecchino_04.wem",
                "rate": 1.0,
                "avatarName": "",
                "emotion": ""
            }
        ]
    },
    "124cee36-6205-47f0-9ad8-2a6194d02987": {
        "Guid": "124cee36-6205-47f0-9ad8-2a6194d02987",
        "playRate": 1.0,
        "GameTrigger": "Dialog",
        "gameTriggerArgs": 40100932,
        "personalConfig": 2,
        "ParentID": "12b9d42e-b0cf-4297-b7f5-48dc9d93525d",
        "SourceNames": [
            {
                "sourceFileName": "VO_AQ\\VO_arlecchino\\vo_FDAQ108_10_arlecchino_20.wem",
                "rate": 1.0,
                "avatarName": "",
                "emotion": ""
            }
        ]
    },
    "14d4d451-218f-45ef-b9b9-60888e683653": {
        "Guid": "14d4d451-218f-45ef-b9b9-60888e683653",
        "playRate": 1.0,
        "GameTrigger": "Dialog",
        "gameTriggerArgs": 40100911,
        "personalConfig": 2,
        "ParentID": "12b9d42e-b0cf-4297-b7f5-48dc9d93525d",
        "SourceNames": [
            {
                "sourceFileName": "VO_AQ\\VO_furina\\vo_FDAQ108_10_furina_03.wem",
                "rate": 1.0,
                "avatarName": "",
                "emotion": ""
            }
        ]
    },
    "188de24c-c9b7-4e06-b2ac-67dc40ab30b9": {
        "Guid": "188de24c-c9b7-4e06-b2ac-67dc40ab30b9",
        "playRate": 1.0,
        "GameTrigger": "Dialog",
        "gameTriggerArgs": 40100912,
        "personalConfig": 2,
        "ParentID": "12b9d42e-b0cf-4297-b7f5-48dc9d93525d",
        "SourceNames": [
            {
                "sourceFileName": "VO_AQ\\VO_furina\\vo_FDAQ108_10_furina_04.wem",
                "rate": 1.0,
                "avatarName": "",
                "emotion": ""
            }
        ]
    },
    "1b9caa01-cad6-4c2e-bd31-b0e8762ac4f8": {
        "Guid": "1b9caa01-cad6-4c2e-bd31-b0e8762ac4f8",
        "playRate": 1.0,
        "GameTrigger": "Dialog",
        "gameTriggerArgs": 40100936,
        "personalConfig": 2,
        "ParentID": "12b9d42e-b0cf-4297-b7f5-48dc9d93525d",
        "SourceNames": [
            {
                "sourceFileName": "VO_AQ\\VO_arlecchino\\vo_FDAQ108_10_arlecchino_21.wem",
                "rate": 1.0,
                "avatarName": "",
                "emotion": ""
            }
        ]
    },
    "1f3218b2-0898-4c43-b8df-e819f7c0f713": {
        "Guid": "1f3218b2-0898-4c43-b8df-e819f7c0f713",
        "playRate": 1.0,
        "GameTrigger": "Dialog",
        "gameTriggerArgs": 40100943,
        "personalConfig": 2,
        "ParentID": "12b9d42e-b0cf-4297-b7f5-48dc9d93525d",
        "SourceNames": [
            {
                "sourceFileName": "VO_AQ\\VO_arlecchino\\vo_FDAQ108_10_arlecchino_24.wem",
                "rate": 1.0,
                "avatarName": "",
                "emotion": ""
            }
        ]
    },
    "1ffc12b4-d540-43ca-862a-69cac5b0e044": {
        "Guid": "1ffc12b4-d540-43ca-862a-69cac5b0e044",
        "playRate": 1.0,
        "GameTrigger": "Dialog",
        "gameTriggerArgs": 40100907,
        "personalConfig": 2,
        "ParentID": "12b9d42e-b0cf-4297-b7f5-48dc9d93525d",
        "SourceNames": [
            {
                "sourceFileName": "VO_AQ\\VO_arlecchino\\vo_FDAQ108_10_arlecchino_06.wem",
                "rate": 1.0,
                "avatarName": "",
                "emotion": ""
            }
        ]
    },
    "24da0b17-5a53-4b61-9e80-65928c3de632": {
        "Guid": "24da0b17-5a53-4b61-9e80-65928c3de632",
        "playRate": 1.0,
        "GameTrigger": "Dialog",
        "gameTriggerArgs": 40100947,
        "personalConfig": 2,
        "ParentID": "12b9d42e-b0cf-4297-b7f5-48dc9d93525d",
        "SourceNames": [
            {
                "sourceFileName": "VO_AQ\\VO_paimon\\vo_FDAQ108_10_paimon_03.wem",
                "rate": 1.0,
                "avatarName": "",
                "emotion": ""
            }
        ]
    },
    "2e692197-7575-4967-82f2-39c0e7dd770d": {
        "Guid": "2e692197-7575-4967-82f2-39c0e7dd770d",
        "playRate": 1.0,
        "GameTrigger": "Dialog",
        "gameTriggerArgs": 40100938,
        "personalConfig": 2,
        "ParentID": "12b9d42e-b0cf-4297-b7f5-48dc9d93525d",
        "SourceNames": [
            {
                "sourceFileName": "VO_AQ\\VO_paimon\\vo_FDAQ108_10_paimon_01.wem",
                "rate": 1.0,
                "avatarName": "",
                "emotion": ""
            }
        ]
    },
    "4727bca2-3d3a-4699-ba58-b9ba947d25b5": {
        "Guid": "4727bca2-3d3a-4699-ba58-b9ba947d25b5",
        "playRate": 1.0,
        "GameTrigger": "Dialog",
        "gameTriggerArgs": 40100923,
        "personalConfig": 2,
        "ParentID": "12b9d42e-b0cf-4297-b7f5-48dc9d93525d",
        "SourceNames": [
            {
                "sourceFileName": "VO_AQ\\VO_arlecchino\\vo_FDAQ108_10_arlecchino_13.wem",
                "rate": 1.0,
                "avatarName": "",
                "emotion": ""
            }
        ]
    },
    "49f4a8f5-5abf-49af-bdc3-ce9a0eaf66e3": {
        "Guid": "49f4a8f5-5abf-49af-bdc3-ce9a0eaf66e3",
        "playRate": 1.0,
        "GameTrigger": "Dialog",
        "gameTriggerArgs": 40100917,
        "personalConfig": 2,
        "ParentID": "12b9d42e-b0cf-4297-b7f5-48dc9d93525d",
        "SourceNames": [
            {
                "sourceFileName": "VO_AQ\\VO_furina\\vo_FDAQ108_10_furina_06.wem",
                "rate": 1.0,
                "avatarName": "",
                "emotion": ""
            }
        ]
    },
    "4aa1c5b8-456f-4ac8-889c-3ccffc022eeb": {
        "Guid": "4aa1c5b8-456f-4ac8-889c-3ccffc022eeb",
        "playRate": 1.0,
        "GameTrigger": "Dialog",
        "gameTriggerArgs": 40100940,
        "personalConfig": 2,
        "ParentID": "12b9d42e-b0cf-4297-b7f5-48dc9d93525d",
        "SourceNames": [
            {
                "sourceFileName": "VO_AQ\\VO_paimon\\vo_FDAQ108_10_paimon_02.wem",
                "rate": 1.0,
                "avatarName": "",
                "emotion": ""
            }
        ]
    },
    "4b472ced-d8c0-4242-8046-4a942e8fe11c": {
        "Guid": "4b472ced-d8c0-4242-8046-4a942e8fe11c",
        "playRate": 1.0,
        "GameTrigger": "Dialog",
        "gameTriggerArgs": 40100908,
        "personalConfig": 2,
        "ParentID": "12b9d42e-b0cf-4297-b7f5-48dc9d93525d",
        "SourceNames": [
            {
                "sourceFileName": "VO_AQ\\VO_furina\\vo_FDAQ108_10_furina_02.wem",
                "rate": 1.0,
                "avatarName": "",
                "emotion": ""
            }
        ]
    },
    "4c6ef6a1-561c-4389-86a0-5ceb009a1177": {
        "Guid": "4c6ef6a1-561c-4389-86a0-5ceb009a1177",
        "playRate": 1.0,
        "GameTrigger": "Dialog",
        "gameTriggerArgs": 40100904,
        "personalConfig": 2,
        "ParentID": "12b9d42e-b0cf-4297-b7f5-48dc9d93525d",
        "SourceNames": [
            {
                "sourceFileName": "VO_AQ\\VO_arlecchino\\vo_FDAQ108_10_arlecchino_03.wem",
                "rate": 1.0,
                "avatarName": "",
                "emotion": ""
            }
        ]
    },
    "4e946272-84a9-4e96-af48-8259b2d8ee10": {
        "Guid": "4e946272-84a9-4e96-af48-8259b2d8ee10",
        "playRate": 1.0,
        "GameTrigger": "Dialog",
        "gameTriggerArgs": 40100915,
        "personalConfig": 2,
        "ParentID": "12b9d42e-b0cf-4297-b7f5-48dc9d93525d",
        "SourceNames": [
            {
                "sourceFileName": "VO_AQ\\VO_furina\\vo_FDAQ108_10_furina_05.wem",
                "rate": 1.0,
                "avatarName": "",
                "emotion": ""
            }
        ]
    },
    "616a565e-c016-4911-a2b4-f5f1fb8f6ebf": {
        "Guid": "616a565e-c016-4911-a2b4-f5f1fb8f6ebf",
        "playRate": 1.0,
        "GameTrigger": "Dialog",
        "gameTriggerArgs": 40100906,
        "personalConfig": 2,
        "ParentID": "12b9d42e-b0cf-4297-b7f5-48dc9d93525d",
        "SourceNames": [
            {
                "sourceFileName": "VO_AQ\\VO_arlecchino\\vo_FDAQ108_10_arlecchino_05.wem",
                "rate": 1.0,
                "avatarName": "",
                "emotion": ""
            }
        ]
    },
    "6fe1462e-2f99-42e1-9111-d87486a512ea": {
        "Guid": "6fe1462e-2f99-42e1-9111-d87486a512ea",
        "playRate": 1.0,
        "GameTrigger": "Dialog",
        "gameTriggerArgs": 40100919,
        "personalConfig": 2,
        "ParentID": "12b9d42e-b0cf-4297-b7f5-48dc9d93525d",
        "SourceNames": [
            {
                "sourceFileName": "VO_AQ\\VO_arlecchino\\vo_FDAQ108_10_arlecchino_11.wem",
                "rate": 1.0,
                "avatarName": "",
                "emotion": ""
            }
        ]
    },
    "71a78b29-e0f5-4e58-b4b0-03faaf3a78b7": {
        "Guid": "71a78b29-e0f5-4e58-b4b0-03faaf3a78b7",
        "playRate": 1.0,
        "GameTrigger": "Dialog",
        "gameTriggerArgs": 40100944,
        "personalConfig": 2,
        "ParentID": "12b9d42e-b0cf-4297-b7f5-48dc9d93525d",
        "SourceNames": [
            {
                "sourceFileName": "VO_AQ\\VO_furina\\vo_FDAQ108_10_furina_12.wem",
                "rate": 1.0,
                "avatarName": "",
                "emotion": ""
            }
        ]
    },
    "995f3c6a-7729-47ba-840c-c5d2c73ac462": {
        "Guid": "995f3c6a-7729-47ba-840c-c5d2c73ac462",
        "playRate": 1.0,
        "GameTrigger": "Dialog",
        "gameTriggerArgs": 40100926,
        "personalConfig": 2,
        "ParentID": "12b9d42e-b0cf-4297-b7f5-48dc9d93525d",
        "SourceNames": [
            {
                "sourceFileName": "VO_AQ\\VO_arlecchino\\vo_FDAQ108_10_arlecchino_15.wem",
                "rate": 1.0,
                "avatarName": "",
                "emotion": ""
            }
        ]
    },
    "9ace22e1-7394-4d16-ba39-1c9d9ba11751": {
        "Guid": "9ace22e1-7394-4d16-ba39-1c9d9ba11751",
        "playRate": 1.0,
        "GameTrigger": "Dialog",
        "gameTriggerArgs": 40100941,
        "personalConfig": 2,
        "ParentID": "12b9d42e-b0cf-4297-b7f5-48dc9d93525d",
        "SourceNames": [
            {
                "sourceFileName": "VO_AQ\\VO_furina\\vo_FDAQ108_10_furina_11.wem",
                "rate": 1.0,
                "avatarName": "",
                "emotion": ""
            }
        ]
    },
    "a083d13b-ba11-476d-a0ba-85d5c16e6686": {
        "Guid": "a083d13b-ba11-476d-a0ba-85d5c16e6686",
        "playRate": 1.0,
        "GameTrigger": "Dialog",
        "gameTriggerArgs": 40100920,
        "personalConfig": 2,
        "ParentID": "12b9d42e-b0cf-4297-b7f5-48dc9d93525d",
        "SourceNames": [
            {
                "sourceFileName": "VO_AQ\\VO_furina\\vo_FDAQ108_10_furina_07.wem",
                "rate": 1.0,
                "avatarName": "",
                "emotion": ""
            }
        ]
    },
    "a3148937-879b-48a9-ad99-281c0823b719": {
        "Guid": "a3148937-879b-48a9-ad99-281c0823b719",
        "playRate": 1.0,
        "GameTrigger": "Dialog",
        "gameTriggerArgs": 40100902,
        "personalConfig": 2,
        "ParentID": "12b9d42e-b0cf-4297-b7f5-48dc9d93525d",
        "SourceNames": [
            {
                "sourceFileName": "VO_AQ\\VO_arlecchino\\vo_FDAQ108_10_arlecchino_02.wem",
                "rate": 1.0,
                "avatarName": "",
                "emotion": ""
            }
        ]
    },
    "a7a54026-24b8-459c-965e-b253263652fd": {
        "Guid": "a7a54026-24b8-459c-965e-b253263652fd",
        "playRate": 1.0,
        "GameTrigger": "Dialog",
        "gameTriggerArgs": 40100931,
        "personalConfig": 2,
        "ParentID": "12b9d42e-b0cf-4297-b7f5-48dc9d93525d",
        "SourceNames": [
            {
                "sourceFileName": "VO_AQ\\VO_arlecchino\\vo_FDAQ108_10_arlecchino_19.wem",
                "rate": 1.0,
                "avatarName": "",
                "emotion": ""
            }
        ]
    },
    "b187db59-22ad-4620-b13a-8fdde5123315": {
        "Guid": "b187db59-22ad-4620-b13a-8fdde5123315",
        "playRate": 1.0,
        "GameTrigger": "Dialog",
        "gameTriggerArgs": 40100903,
        "personalConfig": 2,
        "ParentID": "12b9d42e-b0cf-4297-b7f5-48dc9d93525d",
        "SourceNames": [
            {
                "sourceFileName": "VO_AQ\\VO_furina\\vo_FDAQ108_10_furina_01.wem",
                "rate": 1.0,
                "avatarName": "",
                "emotion": ""
            }
        ]
    },
    "b62d0566-eba5-4ee8-9d8e-6bf18c745320": {
        "Guid": "b62d0566-eba5-4ee8-9d8e-6bf18c745320",
        "playRate": 1.0,
        "GameTrigger": "Dialog",
        "gameTriggerArgs": 40100930,
        "personalConfig": 2,
        "ParentID": "12b9d42e-b0cf-4297-b7f5-48dc9d93525d",
        "SourceNames": [
            {
                "sourceFileName": "VO_AQ\\VO_furina\\vo_FDAQ108_10_furina_10.wem",
                "rate": 1.0,
                "avatarName": "",
                "emotion": ""
            }
        ]
    },
    "bb8a179a-c5a4-4a46-8c4b-eec83ecfb5b8": {
        "Guid": "bb8a179a-c5a4-4a46-8c4b-eec83ecfb5b8",
        "playRate": 1.0,
        "GameTrigger": "Dialog",
        "gameTriggerArgs": 40100918,
        "personalConfig": 2,
        "ParentID": "12b9d42e-b0cf-4297-b7f5-48dc9d93525d",
        "SourceNames": [
            {
                "sourceFileName": "VO_AQ\\VO_arlecchino\\vo_FDAQ108_10_arlecchino_10.wem",
                "rate": 1.0,
                "avatarName": "",
                "emotion": ""
            }
        ]
    },
    "bc722a6a-441b-4476-a3e2-c8006798d74f": {
        "Guid": "bc722a6a-441b-4476-a3e2-c8006798d74f",
        "playRate": 1.0,
        "GameTrigger": "Dialog",
        "gameTriggerArgs": 40100921,
        "personalConfig": 2,
        "ParentID": "12b9d42e-b0cf-4297-b7f5-48dc9d93525d",
        "SourceNames": [
            {
                "sourceFileName": "VO_AQ\\VO_arlecchino\\vo_FDAQ108_10_arlecchino_12.wem",
                "rate": 1.0,
                "avatarName": "",
                "emotion": ""
            }
        ]
    },
    "bd273326-9806-4d47-acdf-9963ff45536d": {
        "Guid": "bd273326-9806-4d47-acdf-9963ff45536d",
        "playRate": 1.0,
        "GameTrigger": "Dialog",
        "gameTriggerArgs": 40100928,
        "personalConfig": 2,
        "ParentID": "12b9d42e-b0cf-4297-b7f5-48dc9d93525d",
        "SourceNames": [
            {
                "sourceFileName": "VO_AQ\\VO_arlecchino\\vo_FDAQ108_10_arlecchino_17.wem",
                "rate": 1.0,
                "avatarName": "",
                "emotion": ""
            }
        ]
    },
    "bec32d0e-63e2-433c-a370-4b960335c7b1": {
        "Guid": "bec32d0e-63e2-433c-a370-4b960335c7b1",
        "playRate": 1.0,
        "GameTrigger": "Dialog",
        "gameTriggerArgs": 40100910,
        "personalConfig": 2,
        "ParentID": "12b9d42e-b0cf-4297-b7f5-48dc9d93525d",
        "SourceNames": [
            {
                "sourceFileName": "VO_AQ\\VO_arlecchino\\vo_FDAQ108_10_arlecchino_08.wem",
                "rate": 1.0,
                "avatarName": "",
                "emotion": ""
            }
        ]
    },
    "c1db417c-a622-48c0-937f-023878f224bf": {
        "Guid": "c1db417c-a622-48c0-937f-023878f224bf",
        "playRate": 1.0,
        "GameTrigger": "Dialog",
        "gameTriggerArgs": 40100925,
        "personalConfig": 2,
        "ParentID": "12b9d42e-b0cf-4297-b7f5-48dc9d93525d",
        "SourceNames": [
            {
                "sourceFileName": "VO_AQ\\VO_furina\\vo_FDAQ108_10_furina_09.wem",
                "rate": 1.0,
                "avatarName": "",
                "emotion": ""
            }
        ]
    },
    "c3de3453-c16e-4c89-8439-fa3503ee02e3": {
        "Guid": "c3de3453-c16e-4c89-8439-fa3503ee02e3",
        "playRate": 1.0,
        "GameTrigger": "Dialog",
        "gameTriggerArgs": 40100929,
        "personalConfig": 2,
        "ParentID": "12b9d42e-b0cf-4297-b7f5-48dc9d93525d",
        "SourceNames": [
            {
                "sourceFileName": "VO_AQ\\VO_arlecchino\\vo_FDAQ108_10_arlecchino_18.wem",
                "rate": 1.0,
                "avatarName": "",
                "emotion": ""
            }
        ]
    },
    "ccb61dd1-6704-46f2-bf00-7ccc7177d5dc": {
        "Guid": "ccb61dd1-6704-46f2-bf00-7ccc7177d5dc",
        "playRate": 1.0,
        "GameTrigger": "Dialog",
        "gameTriggerArgs": 40100942,
        "personalConfig": 2,
        "ParentID": "12b9d42e-b0cf-4297-b7f5-48dc9d93525d",
        "SourceNames": [
            {
                "sourceFileName": "VO_AQ\\VO_arlecchino\\vo_FDAQ108_10_arlecchino_23.wem",
                "rate": 1.0,
                "avatarName": "",
                "emotion": ""
            }
        ]
    },
    "d15924f3-9639-4362-843b-b765ee6f1a49": {
        "Guid": "d15924f3-9639-4362-843b-b765ee6f1a49",
        "playRate": 1.0,
        "GameTrigger": "Dialog",
        "gameTriggerArgs": 40100945,
        "personalConfig": 2,
        "ParentID": "12b9d42e-b0cf-4297-b7f5-48dc9d93525d",
        "SourceNames": [
            {
                "sourceFileName": "VO_AQ\\VO_arlecchino\\vo_FDAQ108_10_arlecchino_25.wem",
                "rate": 1.0,
                "avatarName": "",
                "emotion": ""
            }
        ]
    },
    "dc6c2361-7001-4a48-a4ba-c057ff94f9ee": {
        "Guid": "dc6c2361-7001-4a48-a4ba-c057ff94f9ee",
        "playRate": 1.0,
        "GameTrigger": "Dialog",
        "gameTriggerArgs": 40100927,
        "personalConfig": 2,
        "ParentID": "12b9d42e-b0cf-4297-b7f5-48dc9d93525d",
        "SourceNames": [
            {
                "sourceFileName": "VO_AQ\\VO_arlecchino\\vo_FDAQ108_10_arlecchino_16.wem",
                "rate": 1.0,
                "avatarName": "",
                "emotion": ""
            }
        ]
    },
    "ef3a2137-2a49-449b-b673-7085e9dc8ddf": {
        "Guid": "ef3a2137-2a49-449b-b673-7085e9dc8ddf",
        "playRate": 1.0,
        "GameTrigger": "Dialog",
        "gameTriggerArgs": 40100924,
        "personalConfig": 2,
        "ParentID": "12b9d42e-b0cf-4297-b7f5-48dc9d93525d",
        "SourceNames": [
            {
                "sourceFileName": "VO_AQ\\VO_arlecchino\\vo_FDAQ108_10_arlecchino_14.wem",
                "rate": 1.0,
                "avatarName": "",
                "emotion": ""
            }
        ]
    },
    "f698df64-9d89-48f1-adcc-9b74068064af": {
        "Guid": "f698df64-9d89-48f1-adcc-9b74068064af",
        "playRate": 1.0,
        "GameTrigger": "Dialog",
        "gameTriggerArgs": 40100909,
        "personalConfig": 2,
        "ParentID": "12b9d42e-b0cf-4297-b7f5-48dc9d93525d",
        "SourceNames": [
            {
                "sourceFileName": "VO_AQ\\VO_arlecchino\\vo_FDAQ108_10_arlecchino_07.wem",
                "rate": 1.0,
                "avatarName": "",
                "emotion": ""
            }
        ]
    },
    "fa93b229-0713-4003-bab7-9841c0841ff7": {
        "Guid": "fa93b229-0713-4003-bab7-9841c0841ff7",
        "playRate": 1.0,
        "GameTrigger": "Dialog",
        "gameTriggerArgs": 40100914,
        "personalConfig": 2,
        "ParentID": "12b9d42e-b0cf-4297-b7f5-48dc9d93525d",
        "SourceNames": [
            {
                "sourceFileName": "VO_AQ\\VO_arlecchino\\vo_FDAQ108_10_arlecchino_09.wem",
                "rate": 1.0,
                "avatarName": "",
                "emotion": ""
            }
        ]
    },
    "fb052f9c-d293-46ee-9a66-8e54461e9451": {
        "Guid": "fb052f9c-d293-46ee-9a66-8e54461e9451",
        "playRate": 1.0,
        "GameTrigger": "Dialog",
        "gameTriggerArgs": 40100901,
        "personalConfig": 2,
        "ParentID": "12b9d42e-b0cf-4297-b7f5-48dc9d93525d",
        "SourceNames": [
            {
                "sourceFileName": "VO_AQ\\VO_arlecchino\\vo_FDAQ108_10_arlecchino_01.wem",
                "rate": 1.0,
                "avatarName": "",
                "emotion": ""
            }
        ]
    }
}