{
    "02d5aa43-071c-4c9e-923e-3c5537841258": {
        "Guid": "02d5aa43-071c-4c9e-923e-3c5537841258",
        "playRate": 1.0,
        "GameTrigger": "Dialog",
        "gameTriggerArgs": 40250539,
        "personalConfig": 2,
        "ParentID": "6f773add-7100-4496-bfdf-a926747aaabb",
        "SourceNames": [
            {
                "sourceFileName": "VO_AQ\\VO_wriothesley\\vo_FDAQ307_3_wriothesley_12.wem",
                "rate": 1.0,
                "avatarName": "",
                "emotion": ""
            }
        ]
    },
    "084f928f-4182-4246-9555-b1b8627e22cf": {
        "Guid": "084f928f-4182-4246-9555-b1b8627e22cf",
        "playRate": 1.0,
        "GameTrigger": "Dialog",
        "gameTriggerArgs": 40250547,
        "personalConfig": 2,
        "ParentID": "6f773add-7100-4496-bfdf-a926747aaabb",
        "SourceNames": [
            {
                "sourceFileName": "VO_AQ\\VO_charlotte\\vo_FDAQ307_3_charlotte_10.wem",
                "rate": 1.0,
                "avatarName": "",
                "emotion": ""
            }
        ]
    },
    "0bec29f5-2929-464f-92ab-658e53c0a925": {
        "Guid": "0bec29f5-2929-464f-92ab-658e53c0a925",
        "playRate": 1.0,
        "GameTrigger": "Dialog",
        "gameTriggerArgs": 40250503,
        "personalConfig": 2,
        "ParentID": "6f773add-7100-4496-bfdf-a926747aaabb",
        "SourceNames": [
            {
                "sourceFileName": "VO_AQ\\VO_paimon\\vo_FDAQ307_3_paimon_02.wem",
                "rate": 1.0,
                "avatarName": "",
                "emotion": ""
            }
        ]
    },
    "0df50ab3-d04a-4145-ac4c-111c08a267aa": {
        "Guid": "0df50ab3-d04a-4145-ac4c-111c08a267aa",
        "playRate": 1.0,
        "GameTrigger": "Dialog",
        "gameTriggerArgs": 40250542,
        "personalConfig": 2,
        "ParentID": "6f773add-7100-4496-bfdf-a926747aaabb",
        "SourceNames": [
            {
                "sourceFileName": "VO_AQ\\VO_paimon\\vo_FDAQ307_3_paimon_06.wem",
                "rate": 1.0,
                "avatarName": "",
                "emotion": ""
            }
        ]
    },
    "100ef055-79ba-4b3a-8273-39eacfb22b69": {
        "Guid": "100ef055-79ba-4b3a-8273-39eacfb22b69",
        "playRate": 1.0,
        "GameTrigger": "Dialog",
        "gameTriggerArgs": 40250524,
        "personalConfig": 2,
        "ParentID": "6f773add-7100-4496-bfdf-a926747aaabb",
        "SourceNames": [
            {
                "sourceFileName": "VO_AQ\\VO_wriothesley\\vo_FDAQ307_3_wriothesley_08.wem",
                "rate": 1.0,
                "avatarName": "",
                "emotion": ""
            }
        ]
    },
    "16dcaf7c-4f07-4d0f-8042-5e800aefe41f": {
        "Guid": "16dcaf7c-4f07-4d0f-8042-5e800aefe41f",
        "playRate": 1.0,
        "GameTrigger": "Dialog",
        "gameTriggerArgs": 40251104,
        "personalConfig": 2,
        "ParentID": "6f773add-7100-4496-bfdf-a926747aaabb",
        "SourceNames": [
            {
                "sourceFileName": "VO_AQ\\VO_wriothesley\\vo_FDAQ307_3_wriothesley_20.wem",
                "rate": 1.0,
                "avatarName": "",
                "emotion": ""
            }
        ]
    },
    "257b5b67-7af4-483a-ba46-ec6723b16e0b": {
        "Guid": "257b5b67-7af4-483a-ba46-ec6723b16e0b",
        "playRate": 1.0,
        "GameTrigger": "Dialog",
        "gameTriggerArgs": 40250532,
        "personalConfig": 2,
        "ParentID": "6f773add-7100-4496-bfdf-a926747aaabb",
        "SourceNames": [
            {
                "sourceFileName": "VO_AQ\\VO_charlotte\\vo_FDAQ307_3_charlotte_09.wem",
                "rate": 1.0,
                "avatarName": "",
                "emotion": ""
            }
        ]
    },
    "28702472-53dc-4df4-84ed-793c1cafb27a": {
        "Guid": "28702472-53dc-4df4-84ed-793c1cafb27a",
        "playRate": 1.0,
        "GameTrigger": "Dialog",
        "gameTriggerArgs": 40250538,
        "personalConfig": 2,
        "ParentID": "6f773add-7100-4496-bfdf-a926747aaabb",
        "SourceNames": [
            {
                "sourceFileName": "VO_AQ\\VO_NPC\\vo_FDAQ307_3_lourvine_05.wem",
                "rate": 1.0,
                "avatarName": "",
                "emotion": ""
            }
        ]
    },
    "2a9a7c5d-5816-4e3b-aae6-51ab37082cc4": {
        "Guid": "2a9a7c5d-5816-4e3b-aae6-51ab37082cc4",
        "playRate": 1.0,
        "GameTrigger": "Dialog",
        "gameTriggerArgs": 40250535,
        "personalConfig": 2,
        "ParentID": "6f773add-7100-4496-bfdf-a926747aaabb",
        "SourceNames": [
            {
                "sourceFileName": "VO_AQ\\VO_wriothesley\\vo_FDAQ307_3_wriothesley_10.wem",
                "rate": 1.0,
                "avatarName": "",
                "emotion": ""
            }
        ]
    },
    "2c6de014-a315-4035-95a2-c8b219e88b0a": {
        "Guid": "2c6de014-a315-4035-95a2-c8b219e88b0a",
        "playRate": 1.0,
        "GameTrigger": "Dialog",
        "gameTriggerArgs": 40250518,
        "personalConfig": 2,
        "ParentID": "6f773add-7100-4496-bfdf-a926747aaabb",
        "SourceNames": [
            {
                "sourceFileName": "VO_AQ\\VO_charlotte\\vo_FDAQ307_3_charlotte_05.wem",
                "rate": 1.0,
                "avatarName": "",
                "emotion": ""
            }
        ]
    },
    "2eecccc3-3212-445d-8a10-b6f9542cceef": {
        "Guid": "2eecccc3-3212-445d-8a10-b6f9542cceef",
        "playRate": 1.0,
        "GameTrigger": "Dialog",
        "gameTriggerArgs": 40250533,
        "personalConfig": 2,
        "ParentID": "6f773add-7100-4496-bfdf-a926747aaabb",
        "SourceNames": [
            {
                "sourceFileName": "VO_AQ\\VO_sigewinne\\vo_FDAQ307_3_sigewinne_02.wem",
                "rate": 1.0,
                "avatarName": "",
                "emotion": ""
            }
        ]
    },
    "32d46278-cd31-45e5-801e-640db398821c": {
        "Guid": "32d46278-cd31-45e5-801e-640db398821c",
        "playRate": 1.0,
        "GameTrigger": "Dialog",
        "gameTriggerArgs": 40250528,
        "personalConfig": 2,
        "ParentID": "6f773add-7100-4496-bfdf-a926747aaabb",
        "SourceNames": [
            {
                "sourceFileName": "VO_AQ\\VO_paimon\\vo_FDAQ307_3_paimon_04.wem",
                "rate": 1.0,
                "avatarName": "",
                "emotion": ""
            }
        ]
    },
    "378aec14-642f-4ee7-b27d-67ef325e95f0": {
        "Guid": "378aec14-642f-4ee7-b27d-67ef325e95f0",
        "playRate": 1.0,
        "GameTrigger": "Dialog",
        "gameTriggerArgs": 40250512,
        "personalConfig": 2,
        "ParentID": "6f773add-7100-4496-bfdf-a926747aaabb",
        "SourceNames": [
            {
                "sourceFileName": "VO_AQ\\VO_NPC\\vo_FDAQ307_3_lourvine_02.wem",
                "rate": 1.0,
                "avatarName": "",
                "emotion": ""
            }
        ]
    },
    "392f62d6-d1f3-42a4-9999-e3cf9136bd1f": {
        "Guid": "392f62d6-d1f3-42a4-9999-e3cf9136bd1f",
        "playRate": 1.0,
        "GameTrigger": "Dialog",
        "gameTriggerArgs": 40250537,
        "personalConfig": 2,
        "ParentID": "6f773add-7100-4496-bfdf-a926747aaabb",
        "SourceNames": [
            {
                "sourceFileName": "VO_AQ\\VO_wriothesley\\vo_FDAQ307_3_wriothesley_11.wem",
                "rate": 1.0,
                "avatarName": "",
                "emotion": ""
            }
        ]
    },
    "3989df6b-4d86-4b54-b516-bd92b2da0ad9": {
        "Guid": "3989df6b-4d86-4b54-b516-bd92b2da0ad9",
        "playRate": 1.0,
        "GameTrigger": "Dialog",
        "gameTriggerArgs": 40250502,
        "personalConfig": 2,
        "ParentID": "6f773add-7100-4496-bfdf-a926747aaabb",
        "SourceNames": [
            {
                "sourceFileName": "VO_AQ\\VO_wriothesley\\vo_FDAQ307_3_wriothesley_01.wem",
                "rate": 1.0,
                "avatarName": "",
                "emotion": ""
            }
        ]
    },
    "3b3899a6-9a42-4349-ada2-589652fd71ed": {
        "Guid": "3b3899a6-9a42-4349-ada2-589652fd71ed",
        "playRate": 1.0,
        "GameTrigger": "Dialog",
        "gameTriggerArgs": 40251001,
        "personalConfig": 2,
        "ParentID": "6f773add-7100-4496-bfdf-a926747aaabb",
        "SourceNames": [
            {
                "sourceFileName": "VO_AQ\\VO_NPC\\vo_FDAQ307_3_jurieu_06.wem",
                "rate": 1.0,
                "avatarName": "",
                "emotion": ""
            }
        ]
    },
    "3c3e69da-42cd-43f5-88e5-c0f212d74d68": {
        "Guid": "3c3e69da-42cd-43f5-88e5-c0f212d74d68",
        "playRate": 1.0,
        "GameTrigger": "Dialog",
        "gameTriggerArgs": 40250530,
        "personalConfig": 2,
        "ParentID": "6f773add-7100-4496-bfdf-a926747aaabb",
        "SourceNames": [
            {
                "sourceFileName": "VO_AQ\\VO_wriothesley\\vo_FDAQ307_3_wriothesley_09.wem",
                "rate": 1.0,
                "avatarName": "",
                "emotion": ""
            }
        ]
    },
    "3cc5d172-ca5e-4167-97e8-8baf585541cf": {
        "Guid": "3cc5d172-ca5e-4167-97e8-8baf585541cf",
        "playRate": 1.0,
        "GameTrigger": "Dialog",
        "gameTriggerArgs": 40250501,
        "personalConfig": 2,
        "ParentID": "6f773add-7100-4496-bfdf-a926747aaabb",
        "SourceNames": [
            {
                "sourceFileName": "VO_AQ\\VO_paimon\\vo_FDAQ307_3_paimon_01.wem",
                "rate": 1.0,
                "avatarName": "",
                "emotion": ""
            }
        ]
    },
    "3fe43cd1-80ce-4e17-93d4-5cb4a6a6057e": {
        "Guid": "3fe43cd1-80ce-4e17-93d4-5cb4a6a6057e",
        "playRate": 1.0,
        "GameTrigger": "Dialog",
        "gameTriggerArgs": 40250543,
        "personalConfig": 2,
        "ParentID": "6f773add-7100-4496-bfdf-a926747aaabb",
        "SourceNames": [
            {
                "sourceFileName": "VO_AQ\\VO_wriothesley\\vo_FDAQ307_3_wriothesley_14.wem",
                "rate": 1.0,
                "avatarName": "",
                "emotion": ""
            }
        ]
    },
    "41a5da7f-bbf5-43af-86df-f0d3a4f8195c": {
        "Guid": "41a5da7f-bbf5-43af-86df-f0d3a4f8195c",
        "playRate": 1.0,
        "GameTrigger": "Dialog",
        "gameTriggerArgs": 40250517,
        "personalConfig": 2,
        "ParentID": "6f773add-7100-4496-bfdf-a926747aaabb",
        "SourceNames": [
            {
                "sourceFileName": "VO_AQ\\VO_charlotte\\vo_FDAQ307_3_charlotte_04.wem",
                "rate": 1.0,
                "avatarName": "",
                "emotion": ""
            }
        ]
    },
    "431b6f64-4806-4370-ac7a-64569f894ef0": {
        "Guid": "431b6f64-4806-4370-ac7a-64569f894ef0",
        "playRate": 1.0,
        "GameTrigger": "Dialog",
        "gameTriggerArgs": 40251008,
        "personalConfig": 2,
        "ParentID": "6f773add-7100-4496-bfdf-a926747aaabb",
        "SourceNames": [
            {
                "sourceFileName": "VO_AQ\\VO_NPC\\vo_FDAQ307_3_jurieu_10.wem",
                "rate": 1.0,
                "avatarName": "",
                "emotion": ""
            }
        ]
    },
    "5eb21d08-e9d4-473f-ad73-9dc3fffd2b07": {
        "Guid": "5eb21d08-e9d4-473f-ad73-9dc3fffd2b07",
        "playRate": 1.0,
        "GameTrigger": "Dialog",
        "gameTriggerArgs": 40251105,
        "personalConfig": 2,
        "ParentID": "6f773add-7100-4496-bfdf-a926747aaabb",
        "SourceNames": [
            {
                "sourceFileName": "VO_AQ\\VO_sigewinne\\vo_FDAQ307_3_sigewinne_05.wem",
                "rate": 1.0,
                "avatarName": "",
                "emotion": ""
            }
        ]
    },
    "64b96257-2dfa-4a46-8437-4ffcd5e4a46c": {
        "Guid": "64b96257-2dfa-4a46-8437-4ffcd5e4a46c",
        "playRate": 1.0,
        "GameTrigger": "Dialog",
        "gameTriggerArgs": 40251004,
        "personalConfig": 2,
        "ParentID": "6f773add-7100-4496-bfdf-a926747aaabb",
        "SourceNames": [
            {
                "sourceFileName": "VO_AQ\\VO_NPC\\vo_FDAQ307_3_jurieu_08.wem",
                "rate": 1.0,
                "avatarName": "",
                "emotion": ""
            }
        ]
    },
    "691a7bbd-2230-48ea-b8c2-172466b61b9c": {
        "Guid": "691a7bbd-2230-48ea-b8c2-172466b61b9c",
        "playRate": 1.0,
        "GameTrigger": "Dialog",
        "gameTriggerArgs": 40251005,
        "personalConfig": 2,
        "ParentID": "6f773add-7100-4496-bfdf-a926747aaabb",
        "SourceNames": [
            {
                "sourceFileName": "VO_AQ\\VO_NPC\\vo_FDAQ307_3_lourvine_07.wem",
                "rate": 1.0,
                "avatarName": "",
                "emotion": ""
            }
        ]
    },
    "6b6b00af-1a6b-4db8-ac51-c1dc72bebefc": {
        "Guid": "6b6b00af-1a6b-4db8-ac51-c1dc72bebefc",
        "playRate": 1.0,
        "GameTrigger": "Dialog",
        "gameTriggerArgs": 40251007,
        "personalConfig": 2,
        "ParentID": "6f773add-7100-4496-bfdf-a926747aaabb",
        "SourceNames": [
            {
                "sourceFileName": "VO_AQ\\VO_NPC\\vo_FDAQ307_3_lourvine_08.wem",
                "rate": 1.0,
                "avatarName": "",
                "emotion": ""
            }
        ]
    },
    "6dd6364b-439f-433c-97b2-f6b72bd7547a": {
        "Guid": "6dd6364b-439f-433c-97b2-f6b72bd7547a",
        "playRate": 1.0,
        "GameTrigger": "Dialog",
        "gameTriggerArgs": 40250509,
        "personalConfig": 2,
        "ParentID": "6f773add-7100-4496-bfdf-a926747aaabb",
        "SourceNames": [
            {
                "sourceFileName": "VO_AQ\\VO_NPC\\vo_FDAQ307_3_jurieu_01.wem",
                "rate": 1.0,
                "avatarName": "",
                "emotion": ""
            }
        ]
    },
    "7992313f-28a2-4b83-b39f-92acaecf5835": {
        "Guid": "7992313f-28a2-4b83-b39f-92acaecf5835",
        "playRate": 1.0,
        "GameTrigger": "Dialog",
        "gameTriggerArgs": 40250520,
        "personalConfig": 2,
        "ParentID": "6f773add-7100-4496-bfdf-a926747aaabb",
        "SourceNames": [
            {
                "sourceFileName": "VO_AQ\\VO_paimon\\vo_FDAQ307_3_paimon_03.wem",
                "rate": 1.0,
                "avatarName": "",
                "emotion": ""
            }
        ]
    },
    "7abfbca5-1b2c-4275-a4ef-84d83a86d4f0": {
        "Guid": "7abfbca5-1b2c-4275-a4ef-84d83a86d4f0",
        "playRate": 1.0,
        "GameTrigger": "Dialog",
        "gameTriggerArgs": 40250531,
        "personalConfig": 2,
        "ParentID": "6f773add-7100-4496-bfdf-a926747aaabb",
        "SourceNames": [
            {
                "sourceFileName": "VO_AQ\\VO_NPC\\vo_FDAQ307_3_lourvine_04.wem",
                "rate": 1.0,
                "avatarName": "",
                "emotion": ""
            }
        ]
    },
    "7d0ffa62-f524-42da-bae7-3efcc1f11acc": {
        "Guid": "7d0ffa62-f524-42da-bae7-3efcc1f11acc",
        "playRate": 1.0,
        "GameTrigger": "Dialog",
        "gameTriggerArgs": 40251002,
        "personalConfig": 2,
        "ParentID": "6f773add-7100-4496-bfdf-a926747aaabb",
        "SourceNames": [
            {
                "sourceFileName": "VO_AQ\\VO_NPC\\vo_FDAQ307_3_jurieu_07.wem",
                "rate": 1.0,
                "avatarName": "",
                "emotion": ""
            }
        ]
    },
    "7d67dfcc-7e79-49bc-a6ae-481ce90816ec": {
        "Guid": "7d67dfcc-7e79-49bc-a6ae-481ce90816ec",
        "playRate": 1.0,
        "GameTrigger": "Dialog",
        "gameTriggerArgs": 40251009,
        "personalConfig": 2,
        "ParentID": "6f773add-7100-4496-bfdf-a926747aaabb",
        "SourceNames": [
            {
                "sourceFileName": "VO_AQ\\VO_NPC\\vo_FDAQ307_3_lourvine_09.wem",
                "rate": 1.0,
                "avatarName": "",
                "emotion": ""
            }
        ]
    },
    "827b5d75-0f52-4485-9d30-64923142d033": {
        "Guid": "827b5d75-0f52-4485-9d30-64923142d033",
        "playRate": 1.0,
        "GameTrigger": "Dialog",
        "gameTriggerArgs": 40250511,
        "personalConfig": 2,
        "ParentID": "6f773add-7100-4496-bfdf-a926747aaabb",
        "SourceNames": [
            {
                "sourceFileName": "VO_AQ\\VO_charlotte\\vo_FDAQ307_3_charlotte_03.wem",
                "rate": 1.0,
                "avatarName": "",
                "emotion": ""
            }
        ]
    },
    "86523d7e-8e3b-4d57-9f22-63bd3629be69": {
        "Guid": "86523d7e-8e3b-4d57-9f22-63bd3629be69",
        "playRate": 1.0,
        "GameTrigger": "Dialog",
        "gameTriggerArgs": 40250527,
        "personalConfig": 2,
        "ParentID": "6f773add-7100-4496-bfdf-a926747aaabb",
        "SourceNames": [
            {
                "sourceFileName": "VO_AQ\\VO_NPC\\vo_FDAQ307_3_jurieu_04.wem",
                "rate": 1.0,
                "avatarName": "",
                "emotion": ""
            }
        ]
    },
    "90066ce3-bbad-4bfc-8300-d690a4ca3aef": {
        "Guid": "90066ce3-bbad-4bfc-8300-d690a4ca3aef",
        "playRate": 1.0,
        "GameTrigger": "Dialog",
        "gameTriggerArgs": 40250519,
        "personalConfig": 2,
        "ParentID": "6f773add-7100-4496-bfdf-a926747aaabb",
        "SourceNames": [
            {
                "sourceFileName": "VO_AQ\\VO_charlotte\\vo_FDAQ307_3_charlotte_06.wem",
                "rate": 1.0,
                "avatarName": "",
                "emotion": ""
            }
        ]
    },
    "9e60c668-e039-43a8-b230-73595fdf44c3": {
        "Guid": "9e60c668-e039-43a8-b230-73595fdf44c3",
        "playRate": 1.0,
        "GameTrigger": "Dialog",
        "gameTriggerArgs": 40250513,
        "personalConfig": 2,
        "ParentID": "6f773add-7100-4496-bfdf-a926747aaabb",
        "SourceNames": [
            {
                "sourceFileName": "VO_AQ\\VO_wriothesley\\vo_FDAQ307_3_wriothesley_05.wem",
                "rate": 1.0,
                "avatarName": "",
                "emotion": ""
            }
        ]
    },
    "a2817a83-69c7-4b11-99d7-fca24b4034c9": {
        "Guid": "a2817a83-69c7-4b11-99d7-fca24b4034c9",
        "playRate": 1.0,
        "GameTrigger": "Dialog",
        "gameTriggerArgs": 40250536,
        "personalConfig": 2,
        "ParentID": "6f773add-7100-4496-bfdf-a926747aaabb",
        "SourceNames": [
            {
                "sourceFileName": "VO_AQ\\VO_NPC\\vo_FDAQ307_3_jurieu_05.wem",
                "rate": 1.0,
                "avatarName": "",
                "emotion": ""
            }
        ]
    },
    "a4a60483-cbca-4251-b05c-2699e311fe10": {
        "Guid": "a4a60483-cbca-4251-b05c-2699e311fe10",
        "playRate": 1.0,
        "GameTrigger": "Dialog",
        "gameTriggerArgs": 40250551,
        "personalConfig": 2,
        "ParentID": "6f773add-7100-4496-bfdf-a926747aaabb",
        "SourceNames": [
            {
                "sourceFileName": "VO_AQ\\VO_charlotte\\vo_FDAQ307_3_charlotte_12.wem",
                "rate": 1.0,
                "avatarName": "",
                "emotion": ""
            }
        ]
    },
    "aa6cf9cd-eebf-45c8-afe9-2151f493546a": {
        "Guid": "aa6cf9cd-eebf-45c8-afe9-2151f493546a",
        "playRate": 1.0,
        "GameTrigger": "Dialog",
        "gameTriggerArgs": 40250514,
        "personalConfig": 2,
        "ParentID": "6f773add-7100-4496-bfdf-a926747aaabb",
        "SourceNames": [
            {
                "sourceFileName": "VO_AQ\\VO_NPC\\vo_FDAQ307_3_jurieu_02.wem",
                "rate": 1.0,
                "avatarName": "",
                "emotion": ""
            }
        ]
    },
    "ac19605c-4aa4-489f-935c-0b4d562856e8": {
        "Guid": "ac19605c-4aa4-489f-935c-0b4d562856e8",
        "playRate": 1.0,
        "GameTrigger": "Dialog",
        "gameTriggerArgs": 40250541,
        "personalConfig": 2,
        "ParentID": "6f773add-7100-4496-bfdf-a926747aaabb",
        "SourceNames": [
            {
                "sourceFileName": "VO_AQ\\VO_wriothesley\\vo_FDAQ307_3_wriothesley_13.wem",
                "rate": 1.0,
                "avatarName": "",
                "emotion": ""
            }
        ]
    },
    "af8f5a83-17ad-4660-8cb4-4325a7a2e95a": {
        "Guid": "af8f5a83-17ad-4660-8cb4-4325a7a2e95a",
        "playRate": 1.0,
        "GameTrigger": "Dialog",
        "gameTriggerArgs": 40250526,
        "personalConfig": 2,
        "ParentID": "6f773add-7100-4496-bfdf-a926747aaabb",
        "SourceNames": [
            {
                "sourceFileName": "VO_AQ\\VO_charlotte\\vo_FDAQ307_3_charlotte_08.wem",
                "rate": 1.0,
                "avatarName": "",
                "emotion": ""
            }
        ]
    },
    "b125665e-5689-4770-abe9-ac1f1c5297db": {
        "Guid": "b125665e-5689-4770-abe9-ac1f1c5297db",
        "playRate": 1.0,
        "GameTrigger": "Dialog",
        "gameTriggerArgs": 40250508,
        "personalConfig": 2,
        "ParentID": "6f773add-7100-4496-bfdf-a926747aaabb",
        "SourceNames": [
            {
                "sourceFileName": "VO_AQ\\VO_wriothesley\\vo_FDAQ307_3_wriothesley_04.wem",
                "rate": 1.0,
                "avatarName": "",
                "emotion": ""
            }
        ]
    },
    "b3a4729e-0950-4eec-b402-52415207e386": {
        "Guid": "b3a4729e-0950-4eec-b402-52415207e386",
        "playRate": 1.0,
        "GameTrigger": "Dialog",
        "gameTriggerArgs": 40250529,
        "personalConfig": 2,
        "ParentID": "6f773add-7100-4496-bfdf-a926747aaabb",
        "SourceNames": [
            {
                "sourceFileName": "VO_AQ\\VO_sigewinne\\vo_FDAQ307_3_sigewinne_01.wem",
                "rate": 1.0,
                "avatarName": "",
                "emotion": ""
            }
        ]
    },
    "b3b11100-f795-442d-8b0c-c1d6e12e3330": {
        "Guid": "b3b11100-f795-442d-8b0c-c1d6e12e3330",
        "playRate": 1.0,
        "GameTrigger": "Dialog",
        "gameTriggerArgs": 40251003,
        "personalConfig": 2,
        "ParentID": "6f773add-7100-4496-bfdf-a926747aaabb",
        "SourceNames": [
            {
                "sourceFileName": "VO_AQ\\VO_NPC\\vo_FDAQ307_3_lourvine_06.wem",
                "rate": 1.0,
                "avatarName": "",
                "emotion": ""
            }
        ]
    },
    "b411980b-c042-4763-aaf0-e59e99d1555b": {
        "Guid": "b411980b-c042-4763-aaf0-e59e99d1555b",
        "playRate": 1.0,
        "GameTrigger": "Dialog",
        "gameTriggerArgs": 40251101,
        "personalConfig": 2,
        "ParentID": "6f773add-7100-4496-bfdf-a926747aaabb",
        "SourceNames": [
            {
                "sourceFileName": "VO_AQ\\VO_sigewinne\\vo_FDAQ307_3_sigewinne_03.wem",
                "rate": 1.0,
                "avatarName": "",
                "emotion": ""
            }
        ]
    },
    "b8fcc375-1a79-4cab-8317-13ef0b6ef950": {
        "Guid": "b8fcc375-1a79-4cab-8317-13ef0b6ef950",
        "playRate": 1.0,
        "GameTrigger": "Dialog",
        "gameTriggerArgs": 40250504,
        "personalConfig": 2,
        "ParentID": "6f773add-7100-4496-bfdf-a926747aaabb",
        "SourceNames": [
            {
                "sourceFileName": "VO_AQ\\VO_wriothesley\\vo_FDAQ307_3_wriothesley_02.wem",
                "rate": 1.0,
                "avatarName": "",
                "emotion": ""
            }
        ]
    },
    "bbccef30-61ac-4d9a-9557-ac4a52c87bc0": {
        "Guid": "bbccef30-61ac-4d9a-9557-ac4a52c87bc0",
        "playRate": 1.0,
        "GameTrigger": "Dialog",
        "gameTriggerArgs": 40250550,
        "personalConfig": 2,
        "ParentID": "6f773add-7100-4496-bfdf-a926747aaabb",
        "SourceNames": [
            {
                "sourceFileName": "VO_AQ\\VO_wriothesley\\vo_FDAQ307_3_wriothesley_18.wem",
                "rate": 1.0,
                "avatarName": "",
                "emotion": ""
            }
        ]
    },
    "bc378a57-ddd4-4627-918a-5e582ff8e6e3": {
        "Guid": "bc378a57-ddd4-4627-918a-5e582ff8e6e3",
        "playRate": 1.0,
        "GameTrigger": "Dialog",
        "gameTriggerArgs": 40250505,
        "personalConfig": 2,
        "ParentID": "6f773add-7100-4496-bfdf-a926747aaabb",
        "SourceNames": [
            {
                "sourceFileName": "VO_AQ\\VO_charlotte\\vo_FDAQ307_3_charlotte_01.wem",
                "rate": 1.0,
                "avatarName": "",
                "emotion": ""
            }
        ]
    },
    "c123aa74-48d3-490a-a377-179976798253": {
        "Guid": "c123aa74-48d3-490a-a377-179976798253",
        "playRate": 1.0,
        "GameTrigger": "Dialog",
        "gameTriggerArgs": 40250515,
        "personalConfig": 2,
        "ParentID": "6f773add-7100-4496-bfdf-a926747aaabb",
        "SourceNames": [
            {
                "sourceFileName": "VO_AQ\\VO_wriothesley\\vo_FDAQ307_3_wriothesley_06.wem",
                "rate": 1.0,
                "avatarName": "",
                "emotion": ""
            }
        ]
    },
    "c1d692b3-54aa-4004-b500-38f9c668d1df": {
        "Guid": "c1d692b3-54aa-4004-b500-38f9c668d1df",
        "playRate": 1.0,
        "GameTrigger": "Dialog",
        "gameTriggerArgs": 40250516,
        "personalConfig": 2,
        "ParentID": "6f773add-7100-4496-bfdf-a926747aaabb",
        "SourceNames": [
            {
                "sourceFileName": "VO_AQ\\VO_NPC\\vo_FDAQ307_3_jurieu_03.wem",
                "rate": 1.0,
                "avatarName": "",
                "emotion": ""
            }
        ]
    },
    "cef88047-9b5a-4cda-a938-0d08f58555f1": {
        "Guid": "cef88047-9b5a-4cda-a938-0d08f58555f1",
        "playRate": 1.0,
        "GameTrigger": "Dialog",
        "gameTriggerArgs": 40251103,
        "personalConfig": 2,
        "ParentID": "6f773add-7100-4496-bfdf-a926747aaabb",
        "SourceNames": [
            {
                "sourceFileName": "VO_AQ\\VO_sigewinne\\vo_FDAQ307_3_sigewinne_04.wem",
                "rate": 1.0,
                "avatarName": "",
                "emotion": ""
            }
        ]
    },
    "d18c6580-bd1e-47b7-b4f2-4d145665125b": {
        "Guid": "d18c6580-bd1e-47b7-b4f2-4d145665125b",
        "playRate": 1.0,
        "GameTrigger": "Dialog",
        "gameTriggerArgs": 40250522,
        "personalConfig": 2,
        "ParentID": "6f773add-7100-4496-bfdf-a926747aaabb",
        "SourceNames": [
            {
                "sourceFileName": "VO_AQ\\VO_charlotte\\vo_FDAQ307_3_charlotte_07.wem",
                "rate": 1.0,
                "avatarName": "",
                "emotion": ""
            }
        ]
    },
    "d435e3de-36f8-4e9c-8a9b-f3688865f916": {
        "Guid": "d435e3de-36f8-4e9c-8a9b-f3688865f916",
        "playRate": 1.0,
        "GameTrigger": "Dialog",
        "gameTriggerArgs": 40250544,
        "personalConfig": 2,
        "ParentID": "6f773add-7100-4496-bfdf-a926747aaabb",
        "SourceNames": [
            {
                "sourceFileName": "VO_AQ\\VO_paimon\\vo_FDAQ307_3_paimon_07.wem",
                "rate": 1.0,
                "avatarName": "",
                "emotion": ""
            }
        ]
    },
    "d58929a5-6ea8-4c1f-ad6e-bc42018f3c90": {
        "Guid": "d58929a5-6ea8-4c1f-ad6e-bc42018f3c90",
        "playRate": 1.0,
        "GameTrigger": "Dialog",
        "gameTriggerArgs": 40250546,
        "personalConfig": 2,
        "ParentID": "6f773add-7100-4496-bfdf-a926747aaabb",
        "SourceNames": [
            {
                "sourceFileName": "VO_AQ\\VO_wriothesley\\vo_FDAQ307_3_wriothesley_16.wem",
                "rate": 1.0,
                "avatarName": "",
                "emotion": ""
            }
        ]
    },
    "d687eb4f-30ea-4358-a451-23323110bd2b": {
        "Guid": "d687eb4f-30ea-4358-a451-23323110bd2b",
        "playRate": 1.0,
        "GameTrigger": "Dialog",
        "gameTriggerArgs": 40250507,
        "personalConfig": 2,
        "ParentID": "6f773add-7100-4496-bfdf-a926747aaabb",
        "SourceNames": [
            {
                "sourceFileName": "VO_AQ\\VO_charlotte\\vo_FDAQ307_3_charlotte_02.wem",
                "rate": 1.0,
                "avatarName": "",
                "emotion": ""
            }
        ]
    },
    "dae68997-c949-4eb3-b67f-6cec1b57ba71": {
        "Guid": "dae68997-c949-4eb3-b67f-6cec1b57ba71",
        "playRate": 1.0,
        "GameTrigger": "Dialog",
        "gameTriggerArgs": 40251106,
        "personalConfig": 2,
        "ParentID": "6f773add-7100-4496-bfdf-a926747aaabb",
        "SourceNames": [
            {
                "sourceFileName": "VO_AQ\\VO_wriothesley\\vo_FDAQ307_3_wriothesley_21.wem",
                "rate": 1.0,
                "avatarName": "",
                "emotion": ""
            }
        ]
    },
    "e258a47c-a6ad-406e-846e-3dfa27a854e6": {
        "Guid": "e258a47c-a6ad-406e-846e-3dfa27a854e6",
        "playRate": 1.0,
        "GameTrigger": "Dialog",
        "gameTriggerArgs": 40251006,
        "personalConfig": 2,
        "ParentID": "6f773add-7100-4496-bfdf-a926747aaabb",
        "SourceNames": [
            {
                "sourceFileName": "VO_AQ\\VO_NPC\\vo_FDAQ307_3_jurieu_09.wem",
                "rate": 1.0,
                "avatarName": "",
                "emotion": ""
            }
        ]
    },
    "e3048cec-6417-4ac7-a624-65d7d4a5381b": {
        "Guid": "e3048cec-6417-4ac7-a624-65d7d4a5381b",
        "playRate": 1.0,
        "GameTrigger": "Dialog",
        "gameTriggerArgs": 40250525,
        "personalConfig": 2,
        "ParentID": "6f773add-7100-4496-bfdf-a926747aaabb",
        "SourceNames": [
            {
                "sourceFileName": "VO_AQ\\VO_NPC\\vo_FDAQ307_3_lourvine_03.wem",
                "rate": 1.0,
                "avatarName": "",
                "emotion": ""
            }
        ]
    },
    "e56cb725-151a-4bf1-8da2-4960f4cd9fd3": {
        "Guid": "e56cb725-151a-4bf1-8da2-4960f4cd9fd3",
        "playRate": 1.0,
        "GameTrigger": "Dialog",
        "gameTriggerArgs": 40250549,
        "personalConfig": 2,
        "ParentID": "6f773add-7100-4496-bfdf-a926747aaabb",
        "SourceNames": [
            {
                "sourceFileName": "VO_AQ\\VO_charlotte\\vo_FDAQ307_3_charlotte_11.wem",
                "rate": 1.0,
                "avatarName": "",
                "emotion": ""
            }
        ]
    },
    "e58cb737-e409-4565-bea7-e30917877b0f": {
        "Guid": "e58cb737-e409-4565-bea7-e30917877b0f",
        "playRate": 1.0,
        "GameTrigger": "Dialog",
        "gameTriggerArgs": 40250545,
        "personalConfig": 2,
        "ParentID": "6f773add-7100-4496-bfdf-a926747aaabb",
        "SourceNames": [
            {
                "sourceFileName": "VO_AQ\\VO_wriothesley\\vo_FDAQ307_3_wriothesley_15.wem",
                "rate": 1.0,
                "avatarName": "",
                "emotion": ""
            }
        ]
    },
    "ec537658-9182-47f9-9ad0-30ccd15b24f6": {
        "Guid": "ec537658-9182-47f9-9ad0-30ccd15b24f6",
        "playRate": 1.0,
        "GameTrigger": "Dialog",
        "gameTriggerArgs": 40250521,
        "personalConfig": 2,
        "ParentID": "6f773add-7100-4496-bfdf-a926747aaabb",
        "SourceNames": [
            {
                "sourceFileName": "VO_AQ\\VO_wriothesley\\vo_FDAQ307_3_wriothesley_07.wem",
                "rate": 1.0,
                "avatarName": "",
                "emotion": ""
            }
        ]
    },
    "f03c461f-2cff-413c-87d1-6531c29e1e45": {
        "Guid": "f03c461f-2cff-413c-87d1-6531c29e1e45",
        "playRate": 1.0,
        "GameTrigger": "Dialog",
        "gameTriggerArgs": 40250548,
        "personalConfig": 2,
        "ParentID": "6f773add-7100-4496-bfdf-a926747aaabb",
        "SourceNames": [
            {
                "sourceFileName": "VO_AQ\\VO_wriothesley\\vo_FDAQ307_3_wriothesley_17.wem",
                "rate": 1.0,
                "avatarName": "",
                "emotion": ""
            }
        ]
    },
    "f2cc2a5a-c65d-4096-a5f7-e4a86ceea1fe": {
        "Guid": "f2cc2a5a-c65d-4096-a5f7-e4a86ceea1fe",
        "playRate": 1.0,
        "GameTrigger": "Dialog",
        "gameTriggerArgs": 40251102,
        "personalConfig": 2,
        "ParentID": "6f773add-7100-4496-bfdf-a926747aaabb",
        "SourceNames": [
            {
                "sourceFileName": "VO_AQ\\VO_wriothesley\\vo_FDAQ307_3_wriothesley_19.wem",
                "rate": 1.0,
                "avatarName": "",
                "emotion": ""
            }
        ]
    },
    "f65eaeab-df90-4266-9524-efb61905dfe1": {
        "Guid": "f65eaeab-df90-4266-9524-efb61905dfe1",
        "playRate": 1.0,
        "GameTrigger": "Dialog",
        "gameTriggerArgs": 40250534,
        "personalConfig": 2,
        "ParentID": "6f773add-7100-4496-bfdf-a926747aaabb",
        "SourceNames": [
            {
                "sourceFileName": "VO_AQ\\VO_paimon\\vo_FDAQ307_3_paimon_05.wem",
                "rate": 1.0,
                "avatarName": "",
                "emotion": ""
            }
        ]
    },
    "faa80d69-cd79-442f-886f-9945b88e2e3d": {
        "Guid": "faa80d69-cd79-442f-886f-9945b88e2e3d",
        "playRate": 1.0,
        "GameTrigger": "Dialog",
        "gameTriggerArgs": 40250510,
        "personalConfig": 2,
        "ParentID": "6f773add-7100-4496-bfdf-a926747aaabb",
        "SourceNames": [
            {
                "sourceFileName": "VO_AQ\\VO_NPC\\vo_FDAQ307_3_lourvine_01.wem",
                "rate": 1.0,
                "avatarName": "",
                "emotion": ""
            }
        ]
    },
    "ff904a7f-6318-4e17-be46-d94f3a6fb984": {
        "Guid": "ff904a7f-6318-4e17-be46-d94f3a6fb984",
        "playRate": 1.0,
        "GameTrigger": "Dialog",
        "gameTriggerArgs": 40250506,
        "personalConfig": 2,
        "ParentID": "6f773add-7100-4496-bfdf-a926747aaabb",
        "SourceNames": [
            {
                "sourceFileName": "VO_AQ\\VO_wriothesley\\vo_FDAQ307_3_wriothesley_03.wem",
                "rate": 1.0,
                "avatarName": "",
                "emotion": ""
            }
        ]
    }
}