{
    "2b7dbb93-e6de-4e7e-b933-d2895fdc6033": {
        "Guid": "2b7dbb93-e6de-4e7e-b933-d2895fdc6033",
        "playRate": 1.0,
        "GameTrigger": "Dialog",
        "gameTriggerArgs": 401290601,
        "personalConfig": 2,
        "ParentID": "ab864040-89e8-424e-807a-521fa17ba74a",
        "SourceNames": [
            {
                "sourceFileName": "VO_EQ\\VO_paimon\\vo_RPEQ002_6_paimon_01.wem",
                "rate": 1.0,
                "avatarName": "",
                "emotion": ""
            }
        ]
    },
    "2d32e35d-9149-4c20-b1d1-af3a7891d7be": {
        "Guid": "2d32e35d-9149-4c20-b1d1-af3a7891d7be",
        "playRate": 1.0,
        "GameTrigger": "Dialog",
        "gameTriggerArgs": 401290610,
        "personalConfig": 2,
        "ParentID": "ab864040-89e8-424e-807a-521fa17ba74a",
        "SourceNames": [
            {
                "sourceFileName": "VO_EQ\\VO_NPC\\vo_RPEQ002_6_zuria-destree_04.wem",
                "rate": 1.0,
                "avatarName": "",
                "emotion": ""
            }
        ]
    },
    "354c97f2-3aca-49ab-bfb6-9e5262a0fa5d": {
        "Guid": "354c97f2-3aca-49ab-bfb6-9e5262a0fa5d",
        "playRate": 1.0,
        "GameTrigger": "Dialog",
        "gameTriggerArgs": 401290604,
        "personalConfig": 2,
        "ParentID": "ab864040-89e8-424e-807a-521fa17ba74a",
        "SourceNames": [
            {
                "sourceFileName": "VO_EQ\\VO_paimon\\vo_RPEQ002_6_paimon_02.wem",
                "rate": 1.0,
                "avatarName": "",
                "emotion": ""
            }
        ]
    },
    "5a053608-0b18-40bb-8c15-3e97ea8c268a": {
        "Guid": "5a053608-0b18-40bb-8c15-3e97ea8c268a",
        "playRate": 1.0,
        "GameTrigger": "Dialog",
        "gameTriggerArgs": 401290606,
        "personalConfig": 2,
        "ParentID": "ab864040-89e8-424e-807a-521fa17ba74a",
        "SourceNames": [
            {
                "sourceFileName": "VO_EQ\\VO_NPC\\vo_RPEQ002_6_zuria-destree_03.wem",
                "rate": 1.0,
                "avatarName": "",
                "emotion": ""
            }
        ]
    },
    "62abed1e-e358-476c-8c56-fa5dd2d9a341": {
        "Guid": "62abed1e-e358-476c-8c56-fa5dd2d9a341",
        "playRate": 1.0,
        "GameTrigger": "Dialog",
        "gameTriggerArgs": 401290612,
        "personalConfig": 2,
        "ParentID": "ab864040-89e8-424e-807a-521fa17ba74a",
        "SourceNames": [
            {
                "sourceFileName": "VO_EQ\\VO_paimon\\vo_RPEQ002_6_paimon_04.wem",
                "rate": 1.0,
                "avatarName": "",
                "emotion": ""
            }
        ]
    },
    "7229f8c4-fe1a-4ab9-bbbd-bda7f2950ec9": {
        "Guid": "7229f8c4-fe1a-4ab9-bbbd-bda7f2950ec9",
        "playRate": 1.0,
        "GameTrigger": "Dialog",
        "gameTriggerArgs": 401290605,
        "personalConfig": 2,
        "ParentID": "ab864040-89e8-424e-807a-521fa17ba74a",
        "SourceNames": [
            {
                "sourceFileName": "VO_EQ\\VO_freminet\\vo_RPEQ002_6_freminet_01.wem",
                "rate": 1.0,
                "avatarName": "",
                "emotion": ""
            }
        ]
    },
    "7c9575eb-30d4-489e-bf53-4f8f398aecc4": {
        "Guid": "7c9575eb-30d4-489e-bf53-4f8f398aecc4",
        "playRate": 1.0,
        "GameTrigger": "Dialog",
        "gameTriggerArgs": 401290608,
        "personalConfig": 2,
        "ParentID": "ab864040-89e8-424e-807a-521fa17ba74a",
        "SourceNames": [
            {
                "sourceFileName": "VO_EQ\\VO_paimon\\vo_RPEQ002_6_paimon_03.wem",
                "rate": 1.0,
                "avatarName": "",
                "emotion": ""
            }
        ]
    },
    "9798ea1a-b207-4433-92be-b1c8f5531625": {
        "Guid": "9798ea1a-b207-4433-92be-b1c8f5531625",
        "playRate": 1.0,
        "GameTrigger": "Dialog",
        "gameTriggerArgs": 401290609,
        "personalConfig": 2,
        "ParentID": "ab864040-89e8-424e-807a-521fa17ba74a",
        "SourceNames": [
            {
                "sourceFileName": "VO_EQ\\VO_freminet\\vo_RPEQ002_6_freminet_02.wem",
                "rate": 1.0,
                "avatarName": "",
                "emotion": ""
            }
        ]
    },
    "98f2916b-1e28-48a5-ba9f-84a8da7e14b0": {
        "Guid": "98f2916b-1e28-48a5-ba9f-84a8da7e14b0",
        "playRate": 1.0,
        "GameTrigger": "Dialog",
        "gameTriggerArgs": 401290602,
        "personalConfig": 2,
        "ParentID": "ab864040-89e8-424e-807a-521fa17ba74a",
        "SourceNames": [
            {
                "sourceFileName": "VO_EQ\\VO_NPC\\vo_RPEQ002_6_zuria-destree_01.wem",
                "rate": 1.0,
                "avatarName": "",
                "emotion": ""
            }
        ]
    },
    "a5e9b030-1bc7-4bbb-9426-0a9ca70821a2": {
        "Guid": "a5e9b030-1bc7-4bbb-9426-0a9ca70821a2",
        "playRate": 1.0,
        "GameTrigger": "Dialog",
        "gameTriggerArgs": 401290611,
        "personalConfig": 2,
        "ParentID": "ab864040-89e8-424e-807a-521fa17ba74a",
        "SourceNames": [
            {
                "sourceFileName": "VO_EQ\\VO_freminet\\vo_RPEQ002_6_freminet_03.wem",
                "rate": 1.0,
                "avatarName": "",
                "emotion": ""
            }
        ]
    },
    "c058d3c0-1717-4e84-8375-0f2ef87df050": {
        "Guid": "c058d3c0-1717-4e84-8375-0f2ef87df050",
        "playRate": 1.0,
        "GameTrigger": "Dialog",
        "gameTriggerArgs": 401290603,
        "personalConfig": 2,
        "ParentID": "ab864040-89e8-424e-807a-521fa17ba74a",
        "SourceNames": [
            {
                "sourceFileName": "VO_EQ\\VO_NPC\\vo_RPEQ002_6_zuria-destree_02.wem",
                "rate": 1.0,
                "avatarName": "",
                "emotion": ""
            }
        ]
    }
}