{
    "104e0547-803e-4bf8-8707-829b65a8cd37": {
        "Guid": "104e0547-803e-4bf8-8707-829b65a8cd37",
        "playRate": 1.0,
        "GameTrigger": "DungeonReminder",
        "gameTriggerArgs": 1000590017,
        "personalConfig": 2,
        "ParentID": "b9786e56-3790-4bab-a01e-8a8001ada7e2",
        "SourceNames": [
            {
                "sourceFileName": "VO_LQ\\VO_paimon\\vo_DYZLQ003_14_paimon_05.wem",
                "rate": 1.0,
                "avatarName": "",
                "emotion": ""
            }
        ]
    },
    "231d8da8-9c54-4e12-bd45-5d1a067e4ac9": {
        "Guid": "231d8da8-9c54-4e12-bd45-5d1a067e4ac9",
        "playRate": 1.0,
        "GameTrigger": "DungeonReminder",
        "gameTriggerArgs": 1000590013,
        "personalConfig": 2,
        "ParentID": "b9786e56-3790-4bab-a01e-8a8001ada7e2",
        "SourceNames": [
            {
                "sourceFileName": "VO_LQ\\VO_paimon\\vo_DYZLQ003_14_paimon_03.wem",
                "rate": 1.0,
                "avatarName": "",
                "emotion": ""
            }
        ]
    },
    "252e129d-c643-4a08-ad7f-18082df0335c": {
        "Guid": "252e129d-c643-4a08-ad7f-18082df0335c",
        "playRate": 1.0,
        "GameTrigger": "DungeonReminder",
        "gameTriggerArgs": 1000590021,
        "personalConfig": 2,
        "ParentID": "b9786e56-3790-4bab-a01e-8a8001ada7e2",
        "SourceNames": [
            {
                "sourceFileName": "VO_LQ\\VO_paimon\\vo_DYZLQ003_14_paimon_08.wem",
                "rate": 1.0,
                "avatarName": "",
                "emotion": ""
            }
        ]
    },
    "2f1a8d16-866a-4d2f-a4ba-082a546350e7": {
        "Guid": "2f1a8d16-866a-4d2f-a4ba-082a546350e7",
        "playRate": 1.0,
        "GameTrigger": "DungeonReminder",
        "gameTriggerArgs": 1000590014,
        "personalConfig": 2,
        "ParentID": "b9786e56-3790-4bab-a01e-8a8001ada7e2",
        "SourceNames": [
            {
                "sourceFileName": "VO_LQ\\VO_wriothesley\\vo_DYZLQ003_14_wriothesley_01.wem",
                "rate": 1.0,
                "avatarName": "",
                "emotion": ""
            }
        ]
    },
    "34eacbef-a40c-488a-8275-a8a9d5bcd1ff": {
        "Guid": "34eacbef-a40c-488a-8275-a8a9d5bcd1ff",
        "playRate": 1.0,
        "GameTrigger": "DungeonReminder",
        "gameTriggerArgs": 1000590011,
        "personalConfig": 2,
        "ParentID": "b9786e56-3790-4bab-a01e-8a8001ada7e2",
        "SourceNames": [
            {
                "sourceFileName": "VO_LQ\\VO_paimon\\vo_DYZLQ003_14_paimon_01.wem",
                "rate": 1.0,
                "avatarName": "",
                "emotion": ""
            }
        ]
    },
    "443ec930-8c3f-472b-9002-485eb143399a": {
        "Guid": "443ec930-8c3f-472b-9002-485eb143399a",
        "playRate": 1.0,
        "GameTrigger": "DungeonReminder",
        "gameTriggerArgs": 1000590016,
        "personalConfig": 2,
        "ParentID": "b9786e56-3790-4bab-a01e-8a8001ada7e2",
        "SourceNames": [
            {
                "sourceFileName": "VO_LQ\\VO_paimon\\vo_DYZLQ003_14_paimon_04.wem",
                "rate": 1.0,
                "avatarName": "",
                "emotion": ""
            }
        ]
    },
    "4af5bc54-d5b8-485b-92dc-632a0f9785ef": {
        "Guid": "4af5bc54-d5b8-485b-92dc-632a0f9785ef",
        "playRate": 1.0,
        "GameTrigger": "DungeonReminder",
        "gameTriggerArgs": 1000590012,
        "personalConfig": 2,
        "ParentID": "b9786e56-3790-4bab-a01e-8a8001ada7e2",
        "SourceNames": [
            {
                "sourceFileName": "VO_LQ\\VO_paimon\\vo_DYZLQ003_14_paimon_02.wem",
                "rate": 1.0,
                "avatarName": "",
                "emotion": ""
            }
        ]
    },
    "73f813d2-0161-4601-a829-cffd0d21fdc3": {
        "Guid": "73f813d2-0161-4601-a829-cffd0d21fdc3",
        "playRate": 1.0,
        "GameTrigger": "DungeonReminder",
        "gameTriggerArgs": 1000590020,
        "personalConfig": 2,
        "ParentID": "b9786e56-3790-4bab-a01e-8a8001ada7e2",
        "SourceNames": [
            {
                "sourceFileName": "VO_LQ\\VO_paimon\\vo_DYZLQ003_14_paimon_07.wem",
                "rate": 1.0,
                "avatarName": "",
                "emotion": ""
            }
        ]
    },
    "b1f96921-9bcc-4417-b8f9-753b892f7b69": {
        "Guid": "b1f96921-9bcc-4417-b8f9-753b892f7b69",
        "playRate": 1.0,
        "GameTrigger": "DungeonReminder",
        "gameTriggerArgs": 1000590018,
        "personalConfig": 2,
        "ParentID": "b9786e56-3790-4bab-a01e-8a8001ada7e2",
        "SourceNames": [
            {
                "sourceFileName": "VO_LQ\\VO_paimon\\vo_DYZLQ003_14_paimon_06.wem",
                "rate": 1.0,
                "avatarName": "",
                "emotion": ""
            }
        ]
    }
}