{
    "dc88786e-585f-43ed-8607-0eeb4c71e4bc": {
        "Guid": "dc88786e-585f-43ed-8607-0eeb4c71e4bc",
        "playRate": 1.0,
        "GameTrigger": "Dialog",
        "gameTriggerArgs": 140059902,
        "personalConfig": 2,
        "IsPlayOnTeam": true,
        "ParentID": "01d06342-f591-4eb7-8044-3a21db7f7432",
        "SourceNames": [
            {
                "sourceFileName": "VO_LQ\\VO_paimon\\vo_DYZLQ002_8_paimon_02.wem",
                "rate": 1.0,
                "avatarName": "",
                "emotion": ""
            }
        ]
    },
    "eefbf69f-6ece-4f1b-93a6-82db9f45b941": {
        "Guid": "eefbf69f-6ece-4f1b-93a6-82db9f45b941",
        "playRate": 1.0,
        "GameTrigger": "Dialog",
        "gameTriggerArgs": 140059901,
        "personalConfig": 2,
        "IsPlayOnTeam": true,
        "ParentID": "01d06342-f591-4eb7-8044-3a21db7f7432",
        "SourceNames": [
            {
                "sourceFileName": "VO_LQ\\VO_paimon\\vo_DYZLQ002_8_paimon_01.wem",
                "rate": 1.0,
                "avatarName": "",
                "emotion": ""
            }
        ]
    }
}