[
    {
        "Default": {
            "$type": "ConfigAbility",
            "abilityName": "Eremite_TurnState_AnimatorSteer",
            "abilityMixins": [
                {
                    "$type": "SteerAttackMixin",
                    "steerStateIDs": [
                        "Turn"
                    ],
                    "endNormalizedTime": 100.0,
                    "angularSpeed": 250.0,
                    "attackTrigger": ""
                }
            ]
        }
    },
    {
        "Default": {
            "$type": "ConfigAbility",
            "abilityName": "Eremite_Universal_Alert",
            "onAbilityStart": [
                {
                    "$type": "SetPoseInt",
                    "intID": "FreePoseMark"
                }
            ]
        }
    },
    {
        "Default": {
            "$type": "ConfigAbility",
            "abilityName": "Eremite_ReturnToBorn",
            "abilityMixins": [
                {
                    "$type": "AttachToPoseIDMixin",
                    "poseIDs": [
                        901
                    ],
                    "modifierName": "ReturnToBorn_Start"
                }
            ],
            "modifiers": {
                "ReturnToBorn_Start": {
                    "modifierName": "",
                    "bonusCriticalHurt": 100.0,
                    "onAdded": [
                        {
                            "$type": "SetAnimatorTrigger",
                            "triggerID": "SheathWeaponTrigger"
                        }
                    ]
                }
            }
        }
    },
    {
        "Default": {
            "$type": "ConfigAbility",
            "abilityName": "Eremite_Equip_Delay_Destory",
            "modifiers": {
                "Weapon_Delay_Disappear": {
                    "modifierName": "",
                    "bonusCriticalHurt": 100.0,
                    "onAdded": [
                        {
                            "$type": "KillSelf"
                        },
                        {
                            "$type": "HideUIBillBoard",
                            "hide": true
                        }
                    ]
                }
            },
            "onDetach": [
                {
                    "$type": "ApplyModifier",
                    "modifierName": "Weapon_Delay_Disappear"
                }
            ]
        }
    },
    {
        "Default": {
            "$type": "ConfigAbility",
            "abilityName": "Eremite_Equip_Display_Manager",
            "abilityMixins": [
                {
                    "$type": "AttachModifierToSelfGlobalValueMixin",
                    "globalValueKey": "_EREMITE_SHEATHWEAPON_",
                    "defaultGlobalValueOnCreate": 1.0,
                    "valueSteps": [
                        -0.5,
                        0.5,
                        1.5
                    ],
                    "modifierNameSteps": [
                        "UNIQUE_Eremite_ShowWeapon",
                        "UNIQUE_Eremite_SheathWeapon"
                    ]
                },
                {
                    "$type": "AttachToStateIDMixin",
                    "stateIDs": [
                        "Struggle"
                    ],
                    "modifierName": "UNIQUE_Eremite_HideWeapon"
                },
                {
                    "$type": "DoActionByPoseIDMixin",
                    "poseIDs": [
                        1
                    ],
                    "enterActions": [
                        {
                            "$type": "SetGlobalValue",
                            "ratio": 1.0,
                            "key": "_EREMITE_SHEATHWEAPON_",
                            "maxValue": 0.0,
                            "minValue": 0.0
                        }
                    ]
                }
            ],
            "modifiers": {
                "UNIQUE_Eremite_SheathWeapon": {
                    "modifierName": "",
                    "isUnique": true,
                    "bonusCriticalHurt": 100.0,
                    "onAdded": [
                        {
                            "$type": "SetWeaponAttachPointRealName",
                            "canBeHandledOnRecover": true,
                            "partName": "equip01",
                            "realName": "WeaponSheathPoint"
                        },
                        {
                            "$type": "SetPoseBool",
                            "canBeHandledOnRecover": true,
                            "boolID": "WeaponInHand"
                        }
                    ],
                    "onReconnect": [
                        {
                            "$type": "SetWeaponAttachPointRealName",
                            "partName": "equip01",
                            "realName": "WeaponSheathPoint"
                        },
                        {
                            "$type": "SetPoseBool",
                            "boolID": "WeaponInHand"
                        }
                    ],
                    "onChangeAuthority": [
                        {
                            "$type": "SetWeaponAttachPointRealName",
                            "partName": "equip01",
                            "realName": "WeaponSheathPoint"
                        },
                        {
                            "$type": "SetPoseBool",
                            "boolID": "WeaponInHand"
                        }
                    ]
                },
                "UNIQUE_Eremite_ShowWeapon": {
                    "modifierName": "",
                    "isUnique": true,
                    "bonusCriticalHurt": 100.0,
                    "onAdded": [
                        {
                            "$type": "SetWeaponAttachPointRealName",
                            "partName": "equip01",
                            "realName": ""
                        },
                        {
                            "$type": "SetPoseBool",
                            "boolID": "WeaponInHand",
                            "ratio": true
                        }
                    ]
                },
                "UNIQUE_Eremite_HideWeapon": {
                    "modifierName": "",
                    "isUnique": true,
                    "bonusCriticalHurt": 100.0,
                    "onAdded": [
                        {
                            "$type": "TriggerHideWeapon",
                            "canBeHandledOnRecover": true,
                            "partNames": [
                                "equip01"
                            ],
                            "modifyAnotherValue": true
                        }
                    ],
                    "onRemoved": [
                        {
                            "$type": "TriggerHideWeapon",
                            "visible": true,
                            "partNames": [
                                "equip01"
                            ],
                            "modifyAnotherValue": true
                        }
                    ],
                    "onReconnect": [
                        {
                            "$type": "TriggerHideWeapon",
                            "partNames": [
                                "equip01"
                            ],
                            "modifyAnotherValue": true
                        }
                    ],
                    "onChangeAuthority": [
                        {
                            "$type": "TriggerHideWeapon",
                            "partNames": [
                                "equip01"
                            ],
                            "modifyAnotherValue": true
                        }
                    ]
                }
            },
            "onAdded": [
                {
                    "$type": "SetGlobalValue",
                    "canBeHandledOnRecover": true,
                    "ratio": 1.0,
                    "key": "_EREMITE_SHEATHWEAPON_",
                    "maxValue": 0.0,
                    "minValue": 0.0
                }
            ],
            "onAbilityStart": [
                {
                    "$type": "SetGlobalValue",
                    "ratio": 0.0,
                    "key": "_EREMITE_SHEATHWEAPON_",
                    "maxValue": 0.0,
                    "minValue": 0.0
                }
            ]
        }
    },
    {
        "Default": {
            "$type": "ConfigAbility",
            "abilityName": "Eremite_Equip_SheathWeapon",
            "onAbilityStart": [
                {
                    "$type": "SetGlobalValue",
                    "ratio": 1.0,
                    "key": "_EREMITE_SHEATHWEAPON_",
                    "maxValue": 0.0,
                    "minValue": 0.0
                }
            ]
        }
    },
    {
        "Default": {
            "$type": "ConfigAbility",
            "abilityName": "Eremite_Endure_Enhanced",
            "modifiers": {
                "Eremite_Endure_Enhanced": {
                    "modifierName": "",
                    "bonusCriticalHurt": 100.0,
                    "properties": {
                        "Actor_EndureDelta": 0.44999998807907104
                    }
                }
            },
            "onAdded": [
                {
                    "$type": "ApplyModifier",
                    "modifierName": "Eremite_Endure_Enhanced"
                }
            ]
        }
    },
    {
        "Default": {
            "$type": "ConfigAbility",
            "abilityName": "Eremite_Gambling_Logic",
            "abilityMixins": [
                {
                    "$type": "DoActionByPoseIDMixin",
                    "poseIDs": [
                        9512
                    ],
                    "enterActions": [
                        {
                            "$type": "SetGlobalValue",
                            "ratio": 1.0,
                            "key": "_EREMITE_GAMBLING_RESULT_RECEIVER_",
                            "maxValue": 0.0,
                            "minValue": 0.0
                        },
                        {
                            "$type": "SetAnimatorBool",
                            "boolID": "GamblingBanker"
                        }
                    ],
                    "exitActions": [
                        {
                            "$type": "ClearGlobalValue",
                            "key": "_EREMITE_GAMBLING_RESULT_RECEIVER_"
                        },
                        {
                            "$type": "SetAnimatorBool",
                            "boolID": "GamblingBanker",
                            "ratio": true
                        }
                    ]
                },
                {
                    "$type": "DoActionByAnimatorStateIDMixin",
                    "stateIDs": [
                        "Crossleg_Gambling_Bet_Skill"
                    ],
                    "enterActions": [
                        {
                            "$type": "ApplyModifier",
                            "otherTargets": {
                                "$type": "BDNDDIJPGPJ",
                                "topLimit": 1,
                                "sortType": "Nearest",
                                "shapeName": "CircleR6",
                                "campTargetType": "Alliance",
                                "MCEMHHIAMGG": 1.0
                            },
                            "predicates": [
                                {
                                    "$type": "GNCFFIEOGKB",
                                    "key": "_EREMITE_GAMBLING_RESULT_RECEIVER_",
                                    "ratio": 1.0
                                }
                            ],
                            "modifierName": "Eremite_Gambling_Trigger_GamblingBet"
                        }
                    ]
                }
            ],
            "modifiers": {
                "Eremite_Gambling_Trigger_GamblingBet": {
                    "modifierName": "",
                    "duration": 5.0,
                    "bonusCriticalHurt": 100.0,
                    "onAdded": [
                        {
                            "$type": "SetAnimatorTrigger",
                            "triggerID": "GamblingBet"
                        }
                    ]
                },
                "Eremite_Gambling_Trigger_GamblingLose": {
                    "modifierName": "",
                    "duration": 5.0,
                    "bonusCriticalHurt": 100.0,
                    "onAdded": [
                        {
                            "$type": "SetAnimatorTrigger",
                            "triggerID": "GamblingLose"
                        }
                    ]
                },
                "Eremite_Gambling_Trigger_GamblingWin": {
                    "modifierName": "",
                    "duration": 5.0,
                    "bonusCriticalHurt": 100.0,
                    "onAdded": [
                        {
                            "$type": "SetAnimatorTrigger",
                            "triggerID": "GamblingWin"
                        }
                    ]
                }
            },
            "onAbilityStart": [
                {
                    "$type": "Randomed",
                    "chance": 0.5,
                    "successActions": [
                        {
                            "$type": "SetAnimatorBool",
                            "boolID": "GamblingResult",
                            "ratio": true
                        },
                        {
                            "$type": "ApplyModifier",
                            "otherTargets": {
                                "$type": "BDNDDIJPGPJ",
                                "topLimit": 1,
                                "sortType": "Nearest",
                                "shapeName": "CircleR6",
                                "campTargetType": "Alliance",
                                "MCEMHHIAMGG": 1.0
                            },
                            "predicates": [
                                {
                                    "$type": "GNCFFIEOGKB",
                                    "key": "_EREMITE_GAMBLING_RESULT_RECEIVER_",
                                    "ratio": 1.0
                                }
                            ],
                            "modifierName": "Eremite_Gambling_Trigger_GamblingLose"
                        }
                    ],
                    "failActions": [
                        {
                            "$type": "SetAnimatorBool",
                            "boolID": "GamblingResult"
                        },
                        {
                            "$type": "ApplyModifier",
                            "otherTargets": {
                                "$type": "BDNDDIJPGPJ",
                                "topLimit": 1,
                                "sortType": "Nearest",
                                "shapeName": "CircleR6",
                                "campTargetType": "Alliance",
                                "MCEMHHIAMGG": 1.0
                            },
                            "predicates": [
                                {
                                    "$type": "GNCFFIEOGKB",
                                    "key": "_EREMITE_GAMBLING_RESULT_RECEIVER_",
                                    "ratio": 1.0
                                }
                            ],
                            "modifierName": "Eremite_Gambling_Trigger_GamblingWin"
                        }
                    ]
                }
            ]
        }
    },
    {
        "Default": {
            "$type": "ConfigAbility",
            "abilityName": "Eremite_FreePose_Display_Manager",
            "abilityMixins": [
                {
                    "$type": "AttachToAnimatorStateIDMixin",
                    "stateIDs": [
                        "Crossleg_OudIdle",
                        "Crossleg_PlayOud_BS",
                        "Crossleg_PlayOud_Loop",
                        "Crossleg_PlayOud_AS"
                    ],
                    "modifierName": "FreePose_Display_Oud"
                },
                {
                    "$type": "AttachToAnimatorStateIDMixin",
                    "stateIDs": [
                        "Crossleg_PlayDaff_Idle"
                    ],
                    "modifierName": "FreePose_Display_Daff"
                },
                {
                    "$type": "DoActionByPoseIDMixin",
                    "poseIDs": [
                        9555
                    ],
                    "enterActions": [
                        {
                            "$type": "SetPoseBool",
                            "boolID": "StopPlayOud"
                        }
                    ]
                },
                {
                    "$type": "DoActionByAnimatorStateIDMixin",
                    "stateIDs": [
                        "Crossleg_PlayOud_Loop"
                    ],
                    "exitActions": [
                        {
                            "$type": "SetPoseBool",
                            "boolID": "StopPlayOud",
                            "ratio": true
                        }
                    ]
                }
            ],
            "modifiers": {
                "FreePose_Display_Oud": {
                    "modifierName": "",
                    "bonusCriticalHurt": 100.0,
                    "onAdded": [
                        {
                            "$type": "AttachEffect",
                            "HMGKAKGAJLE": "Eff_Monster_Eremite_Freepose_Oud",
                            "effectTempleteID": -1.0
                        }
                    ],
                    "onRemoved": [
                        {
                            "$type": "FireEffect",
                            "HMGKAKGAJLE": "Eff_Monster_Eremite_Weapon_Disappear",
                            "born": {
                                "$type": "PELLOJMAAMM",
                                "offset": {
                                    "CLBCHJICOKH": 0.2680000066757202
                                },
                                "attachPointName": "WeaponR"
                            },
                            "effectTempleteID": -1.0
                        }
                    ]
                },
                "FreePose_Display_Daff": {
                    "modifierName": "",
                    "bonusCriticalHurt": 100.0,
                    "onAdded": [
                        {
                            "$type": "AttachEffect",
                            "HMGKAKGAJLE": "Eff_Monster_Eremite_Freepose_Daff",
                            "effectTempleteID": -1.0
                        }
                    ],
                    "onRemoved": [
                        {
                            "$type": "FireEffect",
                            "HMGKAKGAJLE": "Eff_Monster_Eremite_Weapon_Disappear",
                            "born": {
                                "$type": "PELLOJMAAMM",
                                "offset": {
                                    "GNGDNIIPPNL": -0.16300000250339508,
                                    "CLBCHJICOKH": 0.10599999874830246
                                },
                                "attachPointName": "WeaponL"
                            },
                            "effectTempleteID": -1.0
                        }
                    ]
                }
            }
        }
    },
    {
        "Default": {
            "$type": "ConfigAbility",
            "abilityName": "Eremite_FreePose_Male_Drinking_Display_Manager",
            "abilityMixins": [
                {
                    "$type": "AttachToAnimatorStateIDMixin",
                    "stateIDs": [
                        "Crossleg_Drink_Skill_02",
                        "Crossleg_Drink_Skill_04"
                    ],
                    "modifierName": "EremiteDrinkingMark_Plugged"
                },
                {
                    "$type": "AttachToAnimatorStateIDMixin",
                    "stateIDs": [
                        "Crossleg_Drink_Skill_03"
                    ],
                    "modifierName": "EremiteDrinkingMark_Opened"
                }
            ],
            "modifiers": {
                "EremiteDrinkingMark_Opened": {
                    "modifierName": "",
                    "bonusCriticalHurt": 100.0,
                    "onAdded": [
                        {
                            "$type": "AttachEffect",
                            "HMGKAKGAJLE": "Eff_Monster_Eremite_Freepose_WaterSkin",
                            "effectTempleteID": -1.0
                        }
                    ]
                },
                "EremiteDrinkingMark_Plugged": {
                    "modifierName": "",
                    "bonusCriticalHurt": 100.0,
                    "onAdded": [
                        {
                            "$type": "AttachEffect",
                            "HMGKAKGAJLE": "Eff_Monster_Eremite_Freepose_WaterSkin_Plugged",
                            "effectTempleteID": -1.0
                        }
                    ]
                },
                "EremiteDrinkingMark_Plugged_After": {
                    "modifierName": "",
                    "bonusCriticalHurt": 100.0,
                    "onAdded": [
                        {
                            "$type": "AttachEffect",
                            "HMGKAKGAJLE": "Eff_Monster_Eremite_Freepose_WaterSkin_Plugged",
                            "effectTempleteID": -1.0
                        }
                    ]
                }
            }
        }
    },
    {
        "Default": {
            "$type": "ConfigAbility",
            "abilityName": "Eremite_FreePose_MuscleMan_Drinking_Display_Manager",
            "abilityMixins": [
                {
                    "$type": "AttachToAnimatorStateIDMixin",
                    "stateIDs": [
                        "Crossleg_Drink_Skill_02",
                        "Crossleg_Drink_Skill_04"
                    ],
                    "modifierName": "EremiteDrinkingMark_Plugged"
                },
                {
                    "$type": "AttachToAnimatorStateIDMixin",
                    "stateIDs": [
                        "Crossleg_Drink_Skill_03"
                    ],
                    "modifierName": "EremiteDrinkingMark_Opened"
                }
            ],
            "modifiers": {
                "EremiteDrinkingMark_Opened": {
                    "modifierName": "",
                    "bonusCriticalHurt": 100.0,
                    "onAdded": [
                        {
                            "$type": "AttachEffect",
                            "HMGKAKGAJLE": "Eff_Monster_Eremite_Freepose_WaterSkin",
                            "effectTempleteID": -1.0
                        }
                    ]
                },
                "EremiteDrinkingMark_Plugged": {
                    "modifierName": "",
                    "bonusCriticalHurt": 100.0,
                    "onAdded": [
                        {
                            "$type": "AttachEffect",
                            "HMGKAKGAJLE": "Eff_Monster_Eremite_Freepose_WaterSkin_Plugged",
                            "effectTempleteID": -1.0
                        }
                    ]
                }
            }
        }
    },
    {
        "Default": {
            "$type": "ConfigAbility",
            "abilityName": "Eremite_FatuiMaranaWell_GlobalValue_Mark",
            "modifiers": {
                "SetGlobalValue_FatuiMaranaWell": {
                    "modifierName": "",
                    "bonusCriticalHurt": 100.0,
                    "onAdded": [
                        {
                            "$type": "SetGlobalValue",
                            "ratio": 1.0,
                            "key": "FatuiMaranaWell",
                            "maxValue": 0.0,
                            "minValue": 0.0
                        }
                    ]
                }
            },
            "onAdded": [
                {
                    "$type": "ApplyModifier",
                    "modifierName": "SetGlobalValue_FatuiMaranaWell"
                }
            ]
        }
    },
    {
        "Default": {
            "$type": "ConfigAbility",
            "abilityName": "Eremite_MainWorld_ResetThreatBroadcastRange",
            "modifiers": {
                "Affix_ResetAIThreatBroadcastRange": {
                    "modifierName": "",
                    "bonusCriticalHurt": 100.0,
                    "onAdded": [
                        {
                            "$type": "ResetAIThreatBroadcastRange",
                            "range": 0.0
                        }
                    ]
                }
            },
            "onAdded": [
                {
                    "$type": "ApplyModifier",
                    "modifierName": "Affix_ResetAIThreatBroadcastRange"
                }
            ]
        }
    },
    {
        "Default": {
            "$type": "ConfigAbility",
            "abilityName": "Monster_Eremite_CommonEquip_UnhideWeapon_Logic",
            "abilityMixins": [
                {
                    "$type": "AttachModifierToGlobalValueMixin",
                    "globalValueTarget": "Owner",
                    "globalValueKey": "_MONSTER_EREMITE_HIDE_WEAPON",
                    "valueSteps": [
                        -0.5,
                        0.5,
                        1.5
                    ],
                    "modifierNameSteps": [
                        "UNIQUE_UnhideWeapon",
                        "UNIQUE_HideWeapon"
                    ]
                }
            ],
            "modifiers": {
                "UNIQUE_UnhideWeapon": {
                    "stacking": "Unique",
                    "modifierName": "",
                    "isUnique": true,
                    "bonusCriticalHurt": 100.0,
                    "onAdded": [
                        {
                            "$type": "RemoveUniqueModifier",
                            "modifierName": "UNIQUE_HideWeapon"
                        },
                        {
                            "$type": "TriggerSetVisible",
                            "canBeHandledOnRecover": true,
                            "visible": true
                        }
                    ]
                },
                "UNIQUE_HideWeapon": {
                    "stacking": "Unique",
                    "modifierName": "",
                    "isUnique": true,
                    "bonusCriticalHurt": 100.0,
                    "onAdded": [
                        {
                            "$type": "RemoveUniqueModifier",
                            "modifierName": "UNIQUE_UnhideWeapon"
                        },
                        {
                            "$type": "TriggerSetVisible",
                            "canBeHandledOnRecover": true
                        }
                    ]
                }
            }
        }
    }
]