[
    {
        "Default": {
            "$type": "ConfigAbility",
            "abilityName": "Monster_Oceanid_StageControl",
            "abilityMixins": [
                {
                    "$type": "AttachModifierToSelfGlobalValueMixin",
                    "globalValueKey": "_STAGE_",
                    "defaultGlobalValueOnCreate": 0.0,
                    "valueSteps": [
                        -0.5,
                        0.5,
                        1.5,
                        2.5,
                        3.5,
                        4.5,
                        5.5
                    ],
                    "modifierNameSteps": [
                        "UNIQUE_Stage1",
                        "UNIQUE_Stage2",
                        "UNIQUE_Stage3",
                        "UNIQUE_Stage4",
                        "UNIQUE_Stage5",
                        "UNIQUE_StageEnd"
                    ]
                },
                {
                    "$type": "AttachToStateIDMixin",
                    "stateIDs": [
                        "Alert"
                    ],
                    "modifierName": "Born_Reminder"
                },
                {
                    "$type": "AttachToPoseIDMixin",
                    "poseIDs": [
                        902
                    ],
                    "modifierName": "Oceanid_ReturnToBorn"
                },
                {
                    "$type": "AttachToStateIDMixin",
                    "stateIDs": [
                        "ReturnToBorn"
                    ],
                    "modifierName": "Oceanid_ReturnToBornEnd"
                },
                {
                    "$type": "AttachToPoseIDMixin",
                    "poseIDs": [
                        901,
                        902
                    ],
                    "modifierName": "Oceanid_ReturnToBorn_ServerluaCall"
                }
            ],
            "modifiers": {
                "UNIQUE_Stage1": {
                    "modifierName": "",
                    "isUnique": true,
                    "bonusCritical": 100.0,
                    "onAdded": [
                        {
                            "$type": "SetPoseBool",
                            "boolID": "Stage1",
                            "ratio": true
                        },
                        {
                            "$type": "ReTriggerAISkillInitialCD",
                            "skillIDs": [
                                301
                            ]
                        }
                    ],
                    "onRemoved": [
                        {
                            "$type": "SetPoseBool",
                            "boolID": "Stage1"
                        }
                    ]
                },
                "UNIQUE_Stage2": {
                    "modifierName": "",
                    "isUnique": true,
                    "bonusCritical": 100.0,
                    "onAdded": [
                        {
                            "$type": "SetPoseBool",
                            "boolID": "Stage2",
                            "ratio": true
                        },
                        {
                            "$type": "LoseHP",
                            "GGLMMJHNGMO": 0.125,
                            "amountByCasterMaxHPRatio": ""
                        },
                        {
                            "$type": "ReTriggerAISkillInitialCD",
                            "skillIDs": [
                                302
                            ]
                        }
                    ],
                    "onRemoved": [
                        {
                            "$type": "SetPoseBool",
                            "boolID": "Stage2"
                        }
                    ]
                },
                "UNIQUE_Stage3": {
                    "modifierName": "",
                    "isUnique": true,
                    "bonusCritical": 100.0,
                    "onAdded": [
                        {
                            "$type": "SetPoseBool",
                            "boolID": "Stage3",
                            "ratio": true
                        },
                        {
                            "$type": "LoseHP",
                            "GGLMMJHNGMO": 0.125,
                            "amountByCasterMaxHPRatio": ""
                        },
                        {
                            "$type": "ReTriggerAISkillInitialCD",
                            "skillIDs": [
                                303
                            ]
                        }
                    ],
                    "onRemoved": [
                        {
                            "$type": "SetPoseBool",
                            "boolID": "Stage3"
                        }
                    ]
                },
                "UNIQUE_Stage4": {
                    "modifierName": "",
                    "isUnique": true,
                    "bonusCritical": 100.0,
                    "onAdded": [
                        {
                            "$type": "SetPoseBool",
                            "boolID": "Stage4",
                            "ratio": true
                        },
                        {
                            "$type": "LoseHP",
                            "GGLMMJHNGMO": 0.25,
                            "amountByCasterMaxHPRatio": ""
                        },
                        {
                            "$type": "ReTriggerAISkillInitialCD",
                            "skillIDs": [
                                304
                            ]
                        }
                    ],
                    "onRemoved": [
                        {
                            "$type": "SetPoseBool",
                            "boolID": "Stage4"
                        }
                    ]
                },
                "UNIQUE_Stage5": {
                    "modifierName": "",
                    "isUnique": true,
                    "bonusCritical": 100.0,
                    "onAdded": [
                        {
                            "$type": "SetPoseBool",
                            "boolID": "Stage5",
                            "ratio": true
                        },
                        {
                            "$type": "LoseHP",
                            "GGLMMJHNGMO": 0.25,
                            "amountByCasterMaxHPRatio": ""
                        },
                        {
                            "$type": "ReTriggerAISkillInitialCD",
                            "skillIDs": [
                                305
                            ]
                        }
                    ],
                    "onRemoved": [
                        {
                            "$type": "SetPoseBool",
                            "boolID": "Stage5"
                        }
                    ]
                },
                "UNIQUE_StageEnd": {
                    "modifierName": "",
                    "isUnique": true,
                    "bonusCritical": 100.0,
                    "onAdded": [
                        {
                            "$type": "SetPoseBool",
                            "boolID": "StageEnd",
                            "ratio": true
                        },
                        {
                            "$type": "LoseHP",
                            "GGLMMJHNGMO": 0.25999999046325684,
                            "amountByCasterMaxHPRatio": ""
                        }
                    ],
                    "onRemoved": [
                        {
                            "$type": "SetPoseBool",
                            "boolID": "StageEnd"
                        }
                    ]
                },
                "Born_Reminder": {
                    "modifierName": "",
                    "bonusCritical": 100.0,
                    "onAdded": [
                        {
                            "$type": "ShowReminder",
                            "predicates": [
                                {
                                    "$type": "GDCNLCKIJBG",
                                    "target": "Self",
                                    "key": "_BORNREMINDERSHOWED_",
                                    "ratio": 0.0,
                                    "AMOLMKMMOME": "NoneOrEqual"
                                }
                            ],
                            "id": 31020001
                        },
                        {
                            "$type": "AddGlobalValue",
                            "ratio": 1.0,
                            "key": "_BORNREMINDERSHOWED_",
                            "useLimitRange": true,
                            "maxValue": 1.0,
                            "minValue": 1.0
                        }
                    ]
                },
                "Oceanid_ReturnToBorn": {
                    "modifierName": "",
                    "bonusCritical": 100.0,
                    "onAdded": [
                        {
                            "$type": "SetAnimatorTrigger",
                            "triggerID": "ReturnToBorn",
                            "MPTriggerOnRemote": true
                        }
                    ]
                },
                "Oceanid_ReturnToBornState": {
                    "modifierName": "",
                    "bonusCritical": 100.0,
                    "onAdded": [
                        {
                            "$type": "TriggerSetVisible"
                        },
                        {
                            "$type": "EnableHitBoxByName",
                            "hitBoxNames": [
                                "HitBox"
                            ]
                        }
                    ],
                    "onRemoved": [
                        {
                            "$type": "TriggerSetVisible",
                            "visible": true
                        },
                        {
                            "$type": "EnableHitBoxByName",
                            "hitBoxNames": [
                                "HitBox"
                            ],
                            "setEnable": true
                        }
                    ]
                },
                "Oceanid_ReturnToBornEnd": {
                    "modifierName": "",
                    "bonusCritical": 100.0,
                    "onRemoved": [
                        {
                            "$type": "RemoveModifier",
                            "modifierName": "Oceanid_ReturnToBornState"
                        }
                    ]
                },
                "Oceanid_ReturnToBorn_ServerluaCall": {
                    "modifierName": "",
                    "bonusCritical": 100.0,
                    "onRemoved": [
                        {
                            "$type": "ServerLuaCall",
                            "luaCallType": "FromGroup",
                            "funcName": "SLC_OCEANID_ESCAPE",
                            "FDPBPIHKEGH": 0.0,
                            "FJCBPCIDMGJ": 0.0,
                            "NDCPJDDPIMD": 0.0
                        }
                    ]
                }
            },
            "onAdded": [
                {
                    "$type": "AddGlobalValue",
                    "ratio": 0.0,
                    "key": "_STAGE_",
                    "useLimitRange": true,
                    "maxValue": 0.0,
                    "minValue": 0.0
                },
                {
                    "$type": "AddGlobalValue",
                    "ratio": 1.0,
                    "key": "_ISOCEANID_",
                    "useLimitRange": true,
                    "maxValue": 1.0,
                    "minValue": 1.0
                }
            ],
            "onAbilityStart": [
                {
                    "$type": "ApplyModifier",
                    "modifierName": "Oceanid_ReturnToBornState"
                }
            ],
            "onKill": [
                {
                    "$type": "ShowReminder",
                    "id": 31020010
                },
                {
                    "$type": "DoWatcherSystemAction",
                    "predicates": [
                        {
                            "$type": "GDCNLCKIJBG",
                            "target": "Self",
                            "key": "_OCEANID_DEATHEXPLODED_",
                            "ratio": 0.0,
                            "AMOLMKMMOME": "NoneOrEqual"
                        }
                    ],
                    "watcherId": 82054,
                    "inThreatListOnly": true
                }
            ]
        }
    },
    {
        "Default": {
            "$type": "ConfigAbility",
            "abilityName": "Monster_Oceanid_HpDetect",
            "modifiers": {
                "Oceanid_LockHp": {
                    "modifierName": "",
                    "bonusCritical": 100.0,
                    "state": "LockHP",
                    "onAdded": [
                        {
                            "$type": "AttachAbilityStateResistance",
                            "resistanceListID": 11001
                        }
                    ],
                    "onBeingHit": [
                        {
                            "$type": "Predicated",
                            "target": "Target",
                            "targetPredicates": [
                                {
                                    "$type": "HDOFEAAHAKF",
                                    "entityTypes": [
                                        "Avatar"
                                    ]
                                }
                            ],
                            "successActions": [
                                {
                                    "$type": "SetGlobalDir",
                                    "target": "Target",
                                    "key": "_OCEANID_BEINGHIT_DIR_",
                                    "born": {
                                        "$type": "KDEPFKAAHCG",
                                        "GDHMBIJKMEF": {
                                            "$type": "NIFFDEMABPO"
                                        }
                                    },
                                    "setTarget": false
                                }
                            ],
                            "failActions": [
                                {
                                    "$type": "SetGlobalDir",
                                    "target": "TargetOriginOwner",
                                    "key": "_OCEANID_BEINGHIT_DIR_",
                                    "born": {
                                        "$type": "KDEPFKAAHCG",
                                        "GDHMBIJKMEF": {
                                            "$type": "NIFFDEMABPO"
                                        }
                                    },
                                    "setTarget": false
                                }
                            ]
                        },
                        {
                            "$type": "FireEffect",
                            "healLimitedByCasterMaxHPRatio": "Eff_Monster_Oceanid_BeHit",
                            "born": {
                                "$type": "IJCOFPNPJPK",
                                "GDHMBIJKMEF": {
                                    "$type": "KFDGCDGDJMH",
                                    "IDGILJNLJGN": "_OCEANID_BEINGHIT_DIR_"
                                },
                                "attachPointName": "RootNode",
                                "BKOJLOPLKJE": "Self"
                            },
                            "JAOICKHDAKL": -1.0
                        }
                    ]
                }
            },
            "onAdded": [
                {
                    "$type": "ApplyModifier",
                    "modifierName": "Oceanid_LockHp"
                }
            ]
        }
    },
    {
        "Default": {
            "$type": "ConfigAbility",
            "abilityName": "Oceanid_HpController_Stage",
            "abilityMixins": [
                {
                    "$type": "AttachToGadgetStateMixin",
                    "gadgetState": 203,
                    "modifierName": "HpController_Stage1"
                },
                {
                    "$type": "AttachToGadgetStateMixin",
                    "gadgetState": 204,
                    "modifierName": "HpController_Stage2"
                },
                {
                    "$type": "AttachToGadgetStateMixin",
                    "gadgetState": 901,
                    "modifierName": "HpController_Stage3"
                },
                {
                    "$type": "AttachToGadgetStateMixin",
                    "gadgetState": 902,
                    "modifierName": "HpController_Stage4"
                },
                {
                    "$type": "AttachToGadgetStateMixin",
                    "gadgetState": 903,
                    "modifierName": "HpController_Stage5"
                }
            ],
            "modifiers": {
                "HpController_Stage1": {
                    "modifierName": "",
                    "bonusCritical": 100.0,
                    "onAdded": [
                        {
                            "$type": "ApplyModifier",
                            "otherTargets": {
                                "$type": "HPGJGOCGONM",
                                "operation": "XOR",
                                "value": 26
                            },
                            "modifierName": "Oceanid_Stage1"
                        },
                        {
                            "$type": "ApplyModifier",
                            "modifierName": "ForceSet_Oceanid_Stage1"
                        }
                    ]
                },
                "HpController_Stage2": {
                    "modifierName": "",
                    "bonusCritical": 100.0,
                    "onAdded": [
                        {
                            "$type": "ApplyModifier",
                            "otherTargets": {
                                "$type": "HPGJGOCGONM",
                                "operation": "XOR",
                                "value": 26
                            },
                            "modifierName": "Oceanid_Stage2"
                        },
                        {
                            "$type": "ApplyModifier",
                            "modifierName": "ForceSet_Oceanid_Stage2"
                        }
                    ]
                },
                "HpController_Stage3": {
                    "modifierName": "",
                    "bonusCritical": 100.0,
                    "onAdded": [
                        {
                            "$type": "ApplyModifier",
                            "otherTargets": {
                                "$type": "HPGJGOCGONM",
                                "operation": "XOR",
                                "value": 26
                            },
                            "modifierName": "Oceanid_Stage3"
                        },
                        {
                            "$type": "ApplyModifier",
                            "modifierName": "ForceSet_Oceanid_Stage3"
                        }
                    ]
                },
                "HpController_Stage4": {
                    "modifierName": "",
                    "bonusCritical": 100.0,
                    "onAdded": [
                        {
                            "$type": "ApplyModifier",
                            "otherTargets": {
                                "$type": "HPGJGOCGONM",
                                "operation": "XOR",
                                "value": 26
                            },
                            "modifierName": "Oceanid_Stage4"
                        },
                        {
                            "$type": "ApplyModifier",
                            "modifierName": "ForceSet_Oceanid_Stage4"
                        }
                    ]
                },
                "HpController_Stage5": {
                    "modifierName": "",
                    "bonusCritical": 100.0,
                    "onAdded": [
                        {
                            "$type": "ApplyModifier",
                            "otherTargets": {
                                "$type": "HPGJGOCGONM",
                                "operation": "XOR",
                                "value": 26
                            },
                            "modifierName": "Oceanid_Stage5"
                        },
                        {
                            "$type": "ApplyModifier",
                            "modifierName": "ForceSet_Oceanid_Stage5"
                        }
                    ]
                },
                "Avatar_Checker": {
                    "modifierName": "",
                    "bonusCritical": 100.0
                },
                "Oceanid_Stage1": {
                    "modifierName": "",
                    "duration": 0.10000000149011612,
                    "bonusCritical": 100.0,
                    "onRemoved": [
                        {
                            "$type": "AddGlobalValue",
                            "ratio": 1.0,
                            "key": "_STAGE_",
                            "useLimitRange": true,
                            "maxValue": 1.0,
                            "minValue": 1.0
                        }
                    ]
                },
                "Oceanid_Stage2": {
                    "modifierName": "",
                    "duration": 0.10000000149011612,
                    "bonusCritical": 100.0,
                    "onRemoved": [
                        {
                            "$type": "AddGlobalValue",
                            "ratio": 2.0,
                            "key": "_STAGE_",
                            "useLimitRange": true,
                            "maxValue": 2.0,
                            "minValue": 2.0
                        }
                    ]
                },
                "Oceanid_Stage3": {
                    "modifierName": "",
                    "duration": 0.10000000149011612,
                    "bonusCritical": 100.0,
                    "onRemoved": [
                        {
                            "$type": "AddGlobalValue",
                            "ratio": 3.0,
                            "key": "_STAGE_",
                            "useLimitRange": true,
                            "maxValue": 3.0,
                            "minValue": 3.0
                        }
                    ]
                },
                "Oceanid_Stage4": {
                    "modifierName": "",
                    "duration": 0.10000000149011612,
                    "bonusCritical": 100.0,
                    "onRemoved": [
                        {
                            "$type": "AddGlobalValue",
                            "ratio": 4.0,
                            "key": "_STAGE_",
                            "useLimitRange": true,
                            "maxValue": 4.0,
                            "minValue": 4.0
                        }
                    ]
                },
                "Oceanid_Stage5": {
                    "modifierName": "",
                    "duration": 0.10000000149011612,
                    "bonusCritical": 100.0,
                    "onRemoved": [
                        {
                            "$type": "AddGlobalValue",
                            "ratio": 5.0,
                            "key": "_STAGE_",
                            "useLimitRange": true,
                            "maxValue": 5.0,
                            "minValue": 5.0
                        }
                    ]
                },
                "ForceSet_Oceanid_Stage1": {
                    "modifierName": "",
                    "duration": 0.699999988079071,
                    "bonusCritical": 100.0,
                    "onRemoved": [
                        {
                            "$type": "AddGlobalValue",
                            "otherTargets": {
                                "$type": "HPGJGOCGONM",
                                "operation": "XOR",
                                "value": 26
                            },
                            "ratio": 1.0,
                            "key": "_STAGE_",
                            "useLimitRange": true,
                            "maxValue": 1.0,
                            "minValue": 1.0
                        }
                    ]
                },
                "ForceSet_Oceanid_Stage2": {
                    "modifierName": "",
                    "duration": 0.699999988079071,
                    "bonusCritical": 100.0,
                    "onRemoved": [
                        {
                            "$type": "AddGlobalValue",
                            "otherTargets": {
                                "$type": "HPGJGOCGONM",
                                "operation": "XOR",
                                "value": 26
                            },
                            "ratio": 2.0,
                            "key": "_STAGE_",
                            "useLimitRange": true,
                            "maxValue": 2.0,
                            "minValue": 2.0
                        }
                    ]
                },
                "ForceSet_Oceanid_Stage3": {
                    "modifierName": "",
                    "duration": 0.699999988079071,
                    "bonusCritical": 100.0,
                    "onRemoved": [
                        {
                            "$type": "AddGlobalValue",
                            "otherTargets": {
                                "$type": "HPGJGOCGONM",
                                "operation": "XOR",
                                "value": 26
                            },
                            "ratio": 3.0,
                            "key": "_STAGE_",
                            "useLimitRange": true,
                            "maxValue": 3.0,
                            "minValue": 3.0
                        }
                    ]
                },
                "ForceSet_Oceanid_Stage4": {
                    "modifierName": "",
                    "duration": 0.699999988079071,
                    "bonusCritical": 100.0,
                    "onRemoved": [
                        {
                            "$type": "AddGlobalValue",
                            "otherTargets": {
                                "$type": "HPGJGOCGONM",
                                "operation": "XOR",
                                "value": 26
                            },
                            "ratio": 4.0,
                            "key": "_STAGE_",
                            "useLimitRange": true,
                            "maxValue": 4.0,
                            "minValue": 4.0
                        }
                    ]
                },
                "ForceSet_Oceanid_Stage5": {
                    "modifierName": "",
                    "duration": 0.699999988079071,
                    "bonusCritical": 100.0,
                    "onRemoved": [
                        {
                            "$type": "AddGlobalValue",
                            "otherTargets": {
                                "$type": "HPGJGOCGONM",
                                "operation": "XOR",
                                "value": 26
                            },
                            "ratio": 5.0,
                            "key": "_STAGE_",
                            "useLimitRange": true,
                            "maxValue": 5.0,
                            "minValue": 5.0
                        }
                    ]
                }
            },
            "onAdded": [
                {
                    "$type": "ApplyModifier",
                    "modifierName": "Avatar_Checker"
                }
            ]
        }
    },
    {
        "Default": {
            "$type": "ConfigAbility",
            "abilityName": "Monster_Oceanid_Surround",
            "abilityMixins": [
                {
                    "$type": "AttachToAIAlertnessMixin",
                    "alertness": [
                        1,
                        2
                    ],
                    "modifierName": "MovePose"
                },
                {
                    "$type": "AttachToAnimatorStateIDMixin",
                    "stateIDs": [
                        "Born",
                        "Walk",
                        "WalkToStandby",
                        "Die",
                        "PlatformControl01",
                        "PlatformControl02",
                        "Summon_BS",
                        "PlatformControl_Appear",
                        "ReturnToBorn"
                    ],
                    "modifierName": "MoveEffect"
                },
                {
                    "$type": "AttachToAnimatorStateIDMixin",
                    "stateIDs": [
                        "Standby",
                        "Alert",
                        "Summon_Standby",
                        "Summon_AS",
                        "PlatformControl_Standby",
                        "OverTimeAtk_Standby",
                        "OverTimeAtk_AS"
                    ],
                    "modifierName": "StandbyEffect"
                }
            ],
            "modifiers": {
                "MovePose": {
                    "modifierName": "",
                    "bonusCritical": 100.0,
                    "onAdded": [
                        {
                            "$type": "SetSurroundAnchor",
                            "canBeHandledOnRecover": true,
                            "actionPointType": "OceanidMovePoint"
                        }
                    ],
                    "onRemoved": [
                        {
                            "$type": "SetSurroundAnchor",
                            "setPoint": false,
                            "actionPointType": "OceanidMovePoint"
                        }
                    ]
                },
                "MoveEffect": {
                    "modifierName": "",
                    "bonusCritical": 100.0,
                    "onAdded": [
                        {
                            "$type": "AttachEffect",
                            "healLimitedByCasterMaxHPRatio": "Eff_Monster_Oceanid_WalkLoop",
                            "JAOICKHDAKL": -1.0
                        },
                        {
                            "$type": "AttachEffect",
                            "healLimitedByCasterMaxHPRatio": "Eff_Monster_Oceanid_WalkLoop_Trail_Bone_L_Finger_02",
                            "JAOICKHDAKL": -1.0
                        },
                        {
                            "$type": "AttachEffect",
                            "healLimitedByCasterMaxHPRatio": "Eff_Monster_Oceanid_WalkLoop_Trail_Bone_R_Finger_02",
                            "JAOICKHDAKL": -1.0
                        }
                    ]
                },
                "StandbyEffect": {
                    "modifierName": "",
                    "bonusCritical": 100.0,
                    "onAdded": [
                        {
                            "$type": "AttachEffect",
                            "healLimitedByCasterMaxHPRatio": "Eff_Monster_Oceanid_StandbyLoop_LHand",
                            "JAOICKHDAKL": -1.0
                        },
                        {
                            "$type": "AttachEffect",
                            "healLimitedByCasterMaxHPRatio": "Eff_Monster_Oceanid_StandbyLoop_RHand",
                            "JAOICKHDAKL": -1.0
                        }
                    ]
                }
            }
        }
    },
    {
        "Default": {
            "$type": "ConfigAbility",
            "abilityName": "Monster_Oceanid_FireSummonBullet",
            "abilityMixins": [
                {
                    "$type": "AttachToStateIDMixin",
                    "stateIDs": [
                        "Summon_BS"
                    ],
                    "modifierName": "SummonEffect"
                },
                {
                    "$type": "AttachToStateIDMixin",
                    "stateIDs": [
                        "Summon_Standby"
                    ],
                    "modifierName": "Summon_SelectPlatform"
                }
            ],
            "modifiers": {
                "SummonEffect": {
                    "modifierName": "",
                    "bonusCritical": 100.0,
                    "onAdded": [
                        {
                            "$type": "AttachEffect",
                            "healLimitedByCasterMaxHPRatio": "Eff_Monster_Oceanid_SummonBS",
                            "born": {
                                "$type": "IJCOFPNPJPK",
                                "offset": {
                                    "HMHIOILIGBF": 0.0,
                                    "DPPJGBOHAAL": 0.0,
                                    "DDOAGBLBCEF": 0.0
                                },
                                "attachPointName": "BulletAttachPoint",
                                "BKOJLOPLKJE": "Self"
                            },
                            "JAOICKHDAKL": -1.0
                        }
                    ]
                },
                "SummonBullet": {
                    "modifierName": "",
                    "duration": 2.0,
                    "bonusCritical": 100.0,
                    "onAdded": [
                        {
                            "$type": "Predicated",
                            "otherTargets": {
                                "$type": "HPGJGOCGONM",
                                "operation": "XOR",
                                "value": 25,
                                "AMOLMKMMOME": "LesserOrEqual"
                            },
                            "targetPredicates": [
                                {
                                    "$type": "LKEPNCLNFHK",
                                    "gadgetState": 901
                                }
                            ],
                            "successActions": [
                                {
                                    "$type": "TriggerBullet",
                                    "target": "Target",
                                    "bulletID": 42005008,
                                    "born": {
                                        "$type": "IJCOFPNPJPK",
                                        "offset": {
                                            "HMHIOILIGBF": 0.0,
                                            "DPPJGBOHAAL": 0.0,
                                            "DDOAGBLBCEF": 0.0
                                        },
                                        "GDHMBIJKMEF": {
                                            "$type": "CDPGFBADOIA",
                                            "PKNBBHPAKCG": {
                                                "HMHIOILIGBF": 0.0,
                                                "DPPJGBOHAAL": 0.0,
                                                "DDOAGBLBCEF": 0.0
                                            },
                                            "JCHDCLMGGGA": 15.0,
                                            "LLMANEFGMJE": 15.0
                                        },
                                        "attachPointName": "BulletAttachPoint",
                                        "BKOJLOPLKJE": "Self"
                                    },
                                    "trackTarget": "Target"
                                }
                            ]
                        }
                    ]
                },
                "Summon_SelectPlatform": {
                    "modifierName": "",
                    "bonusCritical": 100.0,
                    "onAdded": [
                        {
                            "$type": "Predicated",
                            "otherTargets": {
                                "$type": "HPGJGOCGONM",
                                "operation": "XOR",
                                "value": 25,
                                "AMOLMKMMOME": "LesserOrEqual"
                            },
                            "targetPredicates": [
                                {
                                    "$type": "LKEPNCLNFHK",
                                    "gadgetState": 901
                                }
                            ],
                            "successActions": [
                                {
                                    "$type": "ApplyModifier",
                                    "target": "Target",
                                    "modifierName": "Platform_SummonMonster"
                                }
                            ]
                        },
                        {
                            "$type": "ShowReminder",
                            "predicates": [
                                {
                                    "$type": "GDCNLCKIJBG",
                                    "target": "Self",
                                    "key": "_STAGE_",
                                    "ratio": 1.0
                                }
                            ],
                            "id": 31020004
                        },
                        {
                            "$type": "ShowReminder",
                            "predicates": [
                                {
                                    "$type": "GDCNLCKIJBG",
                                    "target": "Self",
                                    "key": "_STAGE_",
                                    "ratio": 2.0
                                }
                            ],
                            "id": 31020004
                        },
                        {
                            "$type": "ShowReminder",
                            "predicates": [
                                {
                                    "$type": "GDCNLCKIJBG",
                                    "target": "Self",
                                    "key": "_STAGE_",
                                    "ratio": 3.0
                                }
                            ],
                            "id": 31020005
                        },
                        {
                            "$type": "ShowReminder",
                            "predicates": [
                                {
                                    "$type": "GDCNLCKIJBG",
                                    "target": "Self",
                                    "key": "_STAGE_",
                                    "ratio": 4.0
                                }
                            ],
                            "id": 31020004
                        }
                    ]
                },
                "Platform_SummonMonster": {
                    "modifierName": "",
                    "duration": 1.0,
                    "bonusCritical": 100.0,
                    "onAdded": [
                        {
                            "$type": "TriggerAbility",
                            "abilityName": "Oceanid_Platform_SummonMonster"
                        }
                    ]
                }
            },
            "onAbilityStart": [
                {
                    "$type": "ApplyModifier",
                    "modifierName": "SummonBullet"
                }
            ]
        }
    },
    {
        "Default": {
            "$type": "ConfigAbility",
            "abilityName": "Oceanid_SummonBullet_Explode",
            "modifiers": {
                "EffectModifier": {
                    "modifierName": "",
                    "bonusCritical": 100.0,
                    "onAdded": [
                        {
                            "$type": "AttachEffect",
                            "healLimitedByCasterMaxHPRatio": "Eff_Monster_Oceanid_Summon_BulletLoop",
                            "JAOICKHDAKL": -1.0
                        }
                    ]
                }
            },
            "onAdded": [
                {
                    "$type": "AttachModifier",
                    "modifierName": "EffectModifier"
                }
            ],
            "onAbilityStart": [
                {
                    "$type": "Predicated",
                    "target": "Target",
                    "targetPredicates": [
                        {
                            "$type": "GDCNLCKIJBG",
                            "key": "_ISOCEANIDPLATFORM_",
                            "ratio": 1.0
                        },
                        {
                            "$type": "LKEPNCLNFHK",
                            "gadgetState": 901
                        }
                    ],
                    "successActions": [
                        {
                            "$type": "RemoveUniqueModifier",
                            "target": "Target",
                            "modifierName": "UNIQUE_SummonMonsterHandler"
                        },
                        {
                            "$type": "FireEffect",
                            "healLimitedByCasterMaxHPRatio": "Eff_Monster_Oceanid_Summon_BulletAS",
                            "born": {
                                "$type": "KDEPFKAAHCG"
                            },
                            "JAOICKHDAKL": -1.0
                        },
                        {
                            "$type": "ShowReminder",
                            "target": "Owner",
                            "id": 31020012
                        },
                        {
                            "$type": "KillSelf"
                        }
                    ]
                }
            ]
        }
    },
    {
        "Default": {
            "$type": "ConfigAbility",
            "abilityName": "Monster_Oceanid_PlatformControl_SelectPlatform",
            "abilityMixins": [
                {
                    "$type": "AttachToStateIDMixin",
                    "stateIDs": [
                        "PlatformControl_Standby"
                    ],
                    "modifierName": "PlatformControl_Reminder"
                }
            ],
            "modifiers": {
                "PlatformControl_Reminder": {
                    "modifierName": "",
                    "bonusCritical": 100.0,
                    "onAdded": [
                        {
                            "$type": "ShowReminder",
                            "predicates": [
                                {
                                    "$type": "GDCNLCKIJBG",
                                    "key": "_STAGE_",
                                    "ratio": 2.0
                                }
                            ],
                            "id": 31020007
                        },
                        {
                            "$type": "ShowReminder",
                            "predicates": [
                                {
                                    "$type": "GDCNLCKIJBG",
                                    "key": "_STAGE_",
                                    "ratio": 4.0
                                }
                            ],
                            "id": 31020008
                        }
                    ]
                }
            },
            "onAbilityStart": [
                {
                    "$type": "SetAnimatorBool",
                    "boolID": "SecondPlatformControl"
                },
                {
                    "$type": "SetAnimatorBool",
                    "boolID": "PlatformControlAppear"
                },
                {
                    "$type": "Predicated",
                    "otherTargets": {
                        "$type": "HPGJGOCGONM",
                        "operation": "XOR",
                        "value": 25,
                        "AMOLMKMMOME": "LesserOrEqual"
                    },
                    "targetPredicates": [
                        {
                            "$type": "LKEPNCLNFHK",
                            "gadgetState": 201
                        }
                    ],
                    "successActions": [
                        {
                            "$type": "SetSelfAttackTarget",
                            "target": "Target",
                            "turnToTargetImmediately": true
                        },
                        {
                            "$type": "SetGlobalPos",
                            "target": "Target",
                            "key": "_RUSHMOVEPOS_",
                            "born": {
                                "$type": "IJCOFPNPJPK",
                                "attachPointName": "RootNode"
                            },
                            "setTarget": false
                        },
                        {
                            "$type": "FixedMonsterRushMove",
                            "toPos": {
                                "$type": "LBFHLMJGELJ",
                                "LDPAKEFHAOK": "_RUSHMOVEPOS_",
                                "IDGILJNLJGN": ""
                            },
                            "timeRange": 1.600000023841858,
                            "animatorStateIDs": [
                                "PlatformControl01",
                                "PlatformControl02"
                            ],
                            "overrideMoveCollider": "",
                            "isInAir": true
                        }
                    ]
                }
            ]
        }
    },
    {
        "Default": {
            "$type": "ConfigAbility",
            "abilityName": "Monster_Oceanid_PlatformControl_JumpToPlatform",
            "onAbilityStart": [
                {
                    "$type": "Predicated",
                    "otherTargets": {
                        "$type": "HPGJGOCGONM",
                        "operation": "XOR",
                        "value": 25,
                        "AMOLMKMMOME": "LesserOrEqual"
                    },
                    "targetPredicates": [
                        {
                            "$type": "LKEPNCLNFHK",
                            "gadgetState": 201
                        }
                    ],
                    "successActions": [
                        {
                            "$type": "FireEffect",
                            "target": "Target",
                            "healLimitedByCasterMaxHPRatio": "Eff_Monster_Oceanid_PlatformControlAS",
                            "born": {
                                "$type": "IJCOFPNPJPK",
                                "attachPointName": "RootNode"
                            },
                            "JAOICKHDAKL": -1.0
                        },
                        {
                            "$type": "DamageByAttackValue",
                            "otherTargets": {
                                "$type": "OOMOJBAELMP",
                                "shapeName": "CircleR5",
                                "campTargetType": "Enemy",
                                "MAHBNNIIMMA": 1.0
                            },
                            "attackInfo": {
                                "attackTag": "",
                                "attenuationTag": "",
                                "attenuationGroup": "default",
                                "attackProperty": {
                                    "PCFAAPMOCGJ": 0.5,
                                    "LCCBNOKMNFG": 0.0,
                                    "elementType": "Water",
                                    "bonusCritical": 25.0,
                                    "enBreak": 10000.0,
                                    "FKGFPFNOJMN": 0.0
                                },
                                "hitPattern": {
                                    "onHitEffectName": "default",
                                    "hitImpulseType": "LV5",
                                    "retreatType": "ByHitDirection",
                                    "hitHaltTimeScale": 0.05000000074505806
                                },
                                "forceCameraShake": true,
                                "cameraShake": {
                                    "shakeType": "CustomVector",
                                    "shakeRange": 1.0,
                                    "shakeTime": 0.30000001192092896,
                                    "shakeDistance": 30.0
                                }
                            }
                        },
                        {
                            "$type": "SetGlobalPos",
                            "target": "Target",
                            "key": "_JUMPPOS_",
                            "born": {
                                "$type": "IJCOFPNPJPK",
                                "GDHMBIJKMEF": {
                                    "$type": "CAMHJDKCEOP",
                                    "attachPointName": "RootNode"
                                },
                                "attachPointName": "RootNode"
                            },
                            "setTarget": false
                        },
                        {
                            "$type": "ShowReminder",
                            "id": 31020013
                        }
                    ]
                }
            ]
        }
    },
    {
        "Default": {
            "$type": "ConfigAbility",
            "abilityName": "Monster_Oceanid_PlatformControl_SinkPlatform",
            "modifiers": {
                "PlatformSink": {
                    "modifierName": "",
                    "duration": 1.0,
                    "bonusCritical": 100.0,
                    "onAdded": [
                        {
                            "$type": "FireEffect",
                            "healLimitedByCasterMaxHPRatio": "Eff_Monster_Oceanid_PlatformSink",
                            "born": {
                                "$type": "IJCOFPNPJPK",
                                "attachPointName": "RootNode",
                                "BKOJLOPLKJE": "Self"
                            },
                            "JAOICKHDAKL": -1.0
                        }
                    ],
                    "onRemoved": [
                        {
                            "$type": "ExecuteGadgetLua",
                            "param1": 202
                        },
                        {
                            "$type": "AddGlobalValue",
                            "target": "Caster",
                            "ratio": 1.0,
                            "key": "_PLATFORMSINKED_",
                            "useLimitRange": true,
                            "maxValue": 1.0,
                            "minValue": 1.0
                        },
                        {
                            "$type": "AddGlobalValue",
                            "ratio": 1.0,
                            "key": "_SINKED_",
                            "useLimitRange": true,
                            "maxValue": 1.0,
                            "minValue": 1.0
                        }
                    ]
                }
            },
            "onAbilityStart": [
                {
                    "$type": "AddGlobalValue",
                    "ratio": 0.0,
                    "key": "_PLATFORMSINKED_",
                    "useLimitRange": true,
                    "maxValue": 0.0,
                    "minValue": 0.0
                },
                {
                    "$type": "Predicated",
                    "otherTargets": {
                        "$type": "HPGJGOCGONM",
                        "operation": "XOR",
                        "value": 25,
                        "AMOLMKMMOME": "LesserOrEqual"
                    },
                    "targetPredicates": [
                        {
                            "$type": "LKEPNCLNFHK",
                            "gadgetState": 201
                        }
                    ],
                    "successActions": [
                        {
                            "$type": "ApplyModifier",
                            "target": "Target",
                            "modifierName": "PlatformSink"
                        }
                    ]
                }
            ]
        }
    },
    {
        "Default": {
            "$type": "ConfigAbility",
            "abilityName": "Monster_Oceanid_PlatformControl_UnderWater",
            "abilityMixins": [
                {
                    "$type": "AttachToAnimatorStateIDMixin",
                    "stateIDs": [
                        "PlatformControl01_AS"
                    ],
                    "modifierName": "FirstJump_UnderWater"
                },
                {
                    "$type": "AttachToAnimatorStateIDMixin",
                    "stateIDs": [
                        "PlatformControl02_AS"
                    ],
                    "modifierName": "SecondJump_UnderWater"
                },
                {
                    "$type": "AttachToAnimatorStateIDMixin",
                    "stateIDs": [
                        "PlatformControl_Appear"
                    ],
                    "modifierName": "PlatformControl_Appear"
                },
                {
                    "$type": "AttachToAnimatorStateIDMixin",
                    "stateIDs": [
                        "Born",
                        "Standby_Free"
                    ],
                    "modifierName": "Born_UnderWater"
                }
            ],
            "modifiers": {
                "FirstJump_UnderWater": {
                    "modifierName": "",
                    "bonusCritical": 100.0,
                    "onAdded": [
                        {
                            "$type": "ResetAIAttackTarget"
                        },
                        {
                            "$type": "TriggerSetVisible"
                        },
                        {
                            "$type": "EnableHitBoxByName",
                            "hitBoxNames": [
                                "HitBox"
                            ]
                        },
                        {
                            "$type": "SetAnimatorBool",
                            "boolID": "SecondPlatformControl"
                        },
                        {
                            "$type": "SetAnimatorBool",
                            "boolID": "PlatformControlAppear"
                        },
                        {
                            "$type": "ApplyModifier",
                            "modifierName": "FirstJump_UnderWater_Timer"
                        }
                    ],
                    "onRemoved": [
                        {
                            "$type": "EnableHitBoxByName",
                            "hitBoxNames": [
                                "HitBox"
                            ],
                            "setEnable": true
                        },
                        {
                            "$type": "TriggerSetVisible",
                            "visible": true
                        },
                        {
                            "$type": "Predicated",
                            "otherTargets": {
                                "$type": "HPGJGOCGONM",
                                "operation": "XOR",
                                "value": 25,
                                "AMOLMKMMOME": "LesserOrEqual"
                            },
                            "targetPredicates": [
                                {
                                    "$type": "LKEPNCLNFHK",
                                    "gadgetState": 201
                                },
                                {
                                    "$type": "GDCNLCKIJBG",
                                    "target": "Self",
                                    "key": "_PLATFORMSINKED_",
                                    "ratio": 0.0,
                                    "AMOLMKMMOME": "NoneOrEqual"
                                }
                            ],
                            "successActions": [
                                {
                                    "$type": "ExecuteGadgetLua",
                                    "target": "Target",
                                    "param1": 202
                                },
                                {
                                    "$type": "AddGlobalValue",
                                    "ratio": 1.0,
                                    "key": "_PLATFORMSINKED_",
                                    "useLimitRange": true,
                                    "maxValue": 1.0,
                                    "minValue": 1.0
                                }
                            ]
                        },
                        {
                            "$type": "FireEffect",
                            "healLimitedByCasterMaxHPRatio": "Eff_Monster_Oceanid_BornAS",
                            "born": {
                                "$type": "LBFHLMJGELJ",
                                "offset": {
                                    "HMHIOILIGBF": 0.0,
                                    "DPPJGBOHAAL": 0.0,
                                    "DDOAGBLBCEF": 0.0
                                },
                                "GDHMBIJKMEF": {
                                    "$type": "KFDGCDGDJMH",
                                    "PKNBBHPAKCG": {
                                        "HMHIOILIGBF": 0.0,
                                        "DPPJGBOHAAL": 0.0,
                                        "DDOAGBLBCEF": 0.0
                                    },
                                    "IDGILJNLJGN": "_JUMPPOS_"
                                },
                                "LDPAKEFHAOK": "_JUMPPOS_",
                                "IDGILJNLJGN": ""
                            },
                            "JAOICKHDAKL": -1.0
                        }
                    ]
                },
                "SecondJump_UnderWater": {
                    "modifierName": "",
                    "bonusCritical": 100.0,
                    "onAdded": [
                        {
                            "$type": "ResetAIAttackTarget"
                        },
                        {
                            "$type": "EnableHitBoxByName",
                            "hitBoxNames": [
                                "HitBox"
                            ]
                        },
                        {
                            "$type": "SetAnimatorBool",
                            "boolID": "SecondPlatformControl"
                        },
                        {
                            "$type": "SetAnimatorBool",
                            "boolID": "PlatformControlAppear"
                        },
                        {
                            "$type": "TriggerSetVisible"
                        },
                        {
                            "$type": "ApplyModifier",
                            "modifierName": "SecondJump_UnderWater_Timer"
                        }
                    ],
                    "onRemoved": [
                        {
                            "$type": "EnableHitBoxByName",
                            "hitBoxNames": [
                                "HitBox"
                            ],
                            "setEnable": true
                        },
                        {
                            "$type": "TriggerSetVisible",
                            "visible": true
                        },
                        {
                            "$type": "Predicated",
                            "otherTargets": {
                                "$type": "HPGJGOCGONM",
                                "operation": "XOR",
                                "value": 25,
                                "AMOLMKMMOME": "LesserOrEqual"
                            },
                            "targetPredicates": [
                                {
                                    "$type": "LKEPNCLNFHK",
                                    "gadgetState": 201
                                },
                                {
                                    "$type": "GDCNLCKIJBG",
                                    "target": "Self",
                                    "key": "_PLATFORMSINKED_",
                                    "ratio": 0.0,
                                    "AMOLMKMMOME": "NoneOrEqual"
                                }
                            ],
                            "successActions": [
                                {
                                    "$type": "ExecuteGadgetLua",
                                    "target": "Target",
                                    "param1": 202
                                },
                                {
                                    "$type": "AddGlobalValue",
                                    "ratio": 1.0,
                                    "key": "_PLATFORMSINKED_",
                                    "useLimitRange": true,
                                    "maxValue": 1.0,
                                    "minValue": 1.0
                                }
                            ]
                        },
                        {
                            "$type": "FireEffect",
                            "healLimitedByCasterMaxHPRatio": "Eff_Monster_Oceanid_BornAS",
                            "born": {
                                "$type": "LBFHLMJGELJ",
                                "offset": {
                                    "HMHIOILIGBF": 0.0,
                                    "DPPJGBOHAAL": 0.0,
                                    "DDOAGBLBCEF": 0.0
                                },
                                "GDHMBIJKMEF": {
                                    "$type": "KFDGCDGDJMH",
                                    "PKNBBHPAKCG": {
                                        "HMHIOILIGBF": 0.0,
                                        "DPPJGBOHAAL": 0.0,
                                        "DDOAGBLBCEF": 0.0
                                    },
                                    "IDGILJNLJGN": "_JUMPPOS_"
                                },
                                "LDPAKEFHAOK": "_JUMPPOS_",
                                "IDGILJNLJGN": ""
                            },
                            "JAOICKHDAKL": -1.0
                        }
                    ]
                },
                "FirstJump_UnderWater_Timer": {
                    "modifierName": "",
                    "duration": 3.0,
                    "bonusCritical": 100.0,
                    "onRemoved": [
                        {
                            "$type": "SetAnimatorBool",
                            "boolID": "SecondPlatformControl",
                            "ratio": true
                        }
                    ]
                },
                "SecondJump_UnderWater_Timer": {
                    "modifierName": "",
                    "duration": 3.0,
                    "bonusCritical": 100.0,
                    "onRemoved": [
                        {
                            "$type": "SetAnimatorBool",
                            "boolID": "PlatformControlAppear",
                            "ratio": true
                        }
                    ]
                },
                "PlatformControl_Appear": {
                    "modifierName": "",
                    "bonusCritical": 100.0,
                    "onAdded": [
                        {
                            "$type": "SetSelfAttackTarget",
                            "target": "CurLocalAvatar",
                            "turnToTargetImmediately": true
                        }
                    ],
                    "onRemoved": [
                        {
                            "$type": "ResetAIAttackTarget"
                        }
                    ]
                },
                "Born_UnderWater": {
                    "modifierName": "",
                    "bonusCritical": 100.0,
                    "onAdded": [
                        {
                            "$type": "EnableHitBoxByName",
                            "hitBoxNames": [
                                "HitBox"
                            ]
                        },
                        {
                            "$type": "TriggerSetVisible"
                        }
                    ],
                    "onRemoved": [
                        {
                            "$type": "EnableHitBoxByName",
                            "hitBoxNames": [
                                "HitBox"
                            ],
                            "setEnable": true
                        },
                        {
                            "$type": "TriggerSetVisible",
                            "visible": true
                        }
                    ]
                }
            }
        }
    },
    {
        "Default": {
            "$type": "ConfigAbility",
            "abilityName": "Monster_Oceanid_PlatformControl_OverTimeAtk",
            "abilityMixins": [
                {
                    "$type": "AttachToStateIDMixin",
                    "stateIDs": [
                        "OverTimeAtk_BS"
                    ],
                    "modifierName": "OverTimeAtk_Reminder"
                }
            ],
            "modifiers": {
                "OverTimeAtk_DamageHandler": {
                    "modifierName": "",
                    "duration": 3.0,
                    "bonusCritical": 100.0,
                    "modifierMixins": [
                        {
                            "$type": "CurLocalAvatarMixin",
                            "modifierName": "OverTimeAtk_Damage"
                        }
                    ]
                },
                "OverTimeAtk_Damage": {
                    "stacking": "Unique",
                    "modifierName": "",
                    "bonusCritical": 100.0,
                    "thinkInterval": 0.5,
                    "onAdded": [
                        {
                            "$type": "AttachEffect",
                            "healLimitedByCasterMaxHPRatio": "Eff_Monster_Oceanid_WaterWaveLoop",
                            "JAOICKHDAKL": -1.0
                        }
                    ],
                    "onRemoved": [
                        {
                            "$type": "DamageByAttackValue",
                            "attackInfo": {
                                "attackTag": "",
                                "attenuationTag": "",
                                "attenuationGroup": "default",
                                "attackProperty": {
                                    "PCFAAPMOCGJ": 2.0,
                                    "LCCBNOKMNFG": 0.0,
                                    "elementType": "Water",
                                    "bonusCritical": 50.0,
                                    "enBreak": 100.0,
                                    "FKGFPFNOJMN": 0.0
                                },
                                "hitPattern": {
                                    "onHitEffectName": "default",
                                    "hitImpulseType": "LV5",
                                    "retreatType": "ByHitDirection",
                                    "hitHaltTimeScale": 0.05000000074505806
                                },
                                "forceCameraShake": true,
                                "cameraShake": {
                                    "shakeType": "CustomVector",
                                    "shakeRange": 1.0,
                                    "shakeTime": 0.30000001192092896,
                                    "shakeDistance": 30.0,
                                    "shakeDir": {
                                        "y": 1.0,
                                        "z": 1.0
                                    }
                                }
                            }
                        },
                        {
                            "$type": "FireEffect",
                            "healLimitedByCasterMaxHPRatio": "Eff_Monster_Oceanid_WaterWaveAS",
                            "JAOICKHDAKL": -1.0
                        }
                    ],
                    "onThinkInterval": [
                        {
                            "$type": "DamageByAttackValue",
                            "attackInfo": {
                                "attackTag": "",
                                "attenuationTag": "",
                                "attenuationGroup": "default",
                                "attackProperty": {
                                    "PCFAAPMOCGJ": 0.5,
                                    "LCCBNOKMNFG": 0.0,
                                    "elementType": "Water",
                                    "bonusCritical": 25.0,
                                    "enBreak": 1.0,
                                    "FKGFPFNOJMN": 0.0
                                },
                                "hitPattern": {
                                    "onHitEffectName": "default",
                                    "hitImpulseType": "LV1",
                                    "retreatType": "ByHitDirection",
                                    "hitHaltTimeScale": 0.05000000074505806
                                }
                            }
                        }
                    ]
                },
                "OverTimeAtk_Reminder": {
                    "modifierName": "",
                    "bonusCritical": 100.0,
                    "onAdded": [
                        {
                            "$type": "ShowReminder",
                            "id": 31020014
                        }
                    ]
                }
            },
            "onAbilityStart": [
                {
                    "$type": "ApplyModifier",
                    "target": "AllPlayerAvatars",
                    "modifierName": "OverTimeAtk_DamageHandler"
                },
                {
                    "$type": "ShowReminder",
                    "id": 31020009
                }
            ]
        }
    },
    {
        "Default": {
            "$type": "ConfigAbility",
            "abilityName": "Oceanid_Platform_SwitchHitBox",
            "abilityMixins": [
                {
                    "$type": "AttachToGadgetStateMixin",
                    "gadgetState": 202,
                    "modifierName": "GadgetState_202"
                },
                {
                    "$type": "AttachToGadgetStateMixin",
                    "gadgetState": 201,
                    "modifierName": "GadgetState_201"
                },
                {
                    "$type": "AttachToGadgetStateMixin",
                    "gadgetState": 901,
                    "modifierName": "GadgetState_901"
                },
                {
                    "$type": "AttachToGadgetStateMixin",
                    "modifierName": "GadgetState_0"
                }
            ],
            "modifiers": {
                "GadgetState_202": {
                    "modifierName": "",
                    "bonusCritical": 100.0,
                    "onAdded": [
                        {
                            "$type": "AddGlobalValue",
                            "ratio": 202.0,
                            "key": "_GADGETSTATE_",
                            "useLimitRange": true,
                            "maxValue": 202.0,
                            "minValue": 202.0
                        }
                    ]
                },
                "GadgetState_201": {
                    "modifierName": "",
                    "bonusCritical": 100.0,
                    "onAdded": [
                        {
                            "$type": "AddGlobalValue",
                            "ratio": 201.0,
                            "key": "_GADGETSTATE_",
                            "useLimitRange": true,
                            "maxValue": 201.0,
                            "minValue": 201.0
                        }
                    ]
                },
                "GadgetState_901": {
                    "modifierName": "",
                    "bonusCritical": 100.0,
                    "onAdded": [
                        {
                            "$type": "AddGlobalValue",
                            "ratio": 901.0,
                            "key": "_GADGETSTATE_",
                            "useLimitRange": true,
                            "maxValue": 901.0,
                            "minValue": 901.0
                        }
                    ]
                },
                "GadgetState_0": {
                    "modifierName": "",
                    "bonusCritical": 100.0,
                    "onAdded": [
                        {
                            "$type": "AddGlobalValue",
                            "ratio": 0.0,
                            "key": "_GADGETSTATE_",
                            "useLimitRange": true,
                            "maxValue": 0.0,
                            "minValue": 0.0
                        }
                    ]
                }
            },
            "onAdded": [
                {
                    "$type": "AddGlobalValue",
                    "ratio": 1.0,
                    "key": "_ISOCEANIDPLATFORM_",
                    "useLimitRange": true,
                    "maxValue": 1.0,
                    "minValue": 1.0
                },
                {
                    "$type": "EnableHitBoxByName",
                    "hitBoxNames": [
                        "HitBox2"
                    ]
                }
            ]
        }
    },
    {
        "Default": {
            "$type": "ConfigAbility",
            "abilityName": "Oceanid_Platform_SummonMonster",
            "modifiers": {
                "UNIQUE_SummonMonsterHandler": {
                    "modifierName": "",
                    "isUnique": true,
                    "duration": 15.0,
                    "bonusCritical": 100.0,
                    "onRemoved": [
                        {
                            "$type": "ApplyModifier",
                            "modifierName": "UNIQUE_SummonMonster"
                        }
                    ]
                },
                "UNIQUE_SummonMonster": {
                    "modifierName": "",
                    "isUnique": true,
                    "duration": 1.0,
                    "bonusCritical": 100.0,
                    "onAdded": [
                        {
                            "$type": "FireEffect",
                            "healLimitedByCasterMaxHPRatio": "Eff_Monster_Oceanid_Summon_PlatfromAS",
                            "born": {
                                "$type": "IJCOFPNPJPK",
                                "attachPointName": "RootNode",
                                "BKOJLOPLKJE": "Self"
                            },
                            "JAOICKHDAKL": -1.0
                        }
                    ],
                    "onRemoved": [
                        {
                            "$type": "ExecuteGadgetLua",
                            "param1": 1
                        }
                    ]
                }
            },
            "onAbilityStart": [
                {
                    "$type": "ApplyModifier",
                    "modifierName": "UNIQUE_SummonMonsterHandler"
                }
            ]
        }
    },
    {
        "Default": {
            "$type": "ConfigAbility",
            "abilityName": "Oceanid_BornAnchor_State",
            "onAdded": [
                {
                    "$type": "AttachEffect",
                    "healLimitedByCasterMaxHPRatio": "Eff_Monster_Oceanid_BornBS",
                    "JAOICKHDAKL": -1.0
                }
            ]
        }
    },
    {
        "Default": {
            "$type": "ConfigAbility",
            "abilityName": "Monster_Oceanid_Steer",
            "abilityMixins": [
                {
                    "$type": "SteerAttackMixin",
                    "steerStateIDs": [
                        "NormalIdle"
                    ],
                    "angularSpeed": 180.0,
                    "attackTrigger": "",
                    "attackDistance": 1.5
                },
                {
                    "$type": "SteerAttackMixin",
                    "steerStateIDs": [
                        "Summon_Standby",
                        "Summon_AS"
                    ],
                    "angularSpeed": 120.0,
                    "attackTrigger": "",
                    "attackDistance": 1.5
                },
                {
                    "$type": "SteerAttackMixin",
                    "steerStateIDs": [
                        "OverTimeAtk_Standby",
                        "OverTimeAtk_AS"
                    ],
                    "angularSpeed": 120.0,
                    "attackTrigger": "",
                    "attackDistance": 1.5
                },
                {
                    "$type": "SteerAttackMixin",
                    "steerStateIDs": [
                        "PlatformControl_Standby"
                    ],
                    "angularSpeed": 120.0,
                    "attackTrigger": "",
                    "attackDistance": 1.5
                }
            ]
        }
    }
]