[
    {
        "Default": {
            "$type": "ConfigAbility",
            "abilityName": "Monster_ForlornVessel_Strong_Chargebow_Pose",
            "abilityMixins": [
                {
                    "$type": "AttachModifierToSelfGlobalValueMixin",
                    "globalValueKey": "_FORLORNVESSEL_CHARGEBOW_POSE_TAG_",
                    "defaultGlobalValueOnCreate": 0.0,
                    "valueSteps": [
                        -0.5,
                        0.5,
                        1.5
                    ],
                    "modifierNameSteps": [
                        "Pose_None",
                        "Pose_Shield"
                    ]
                },
                {
                    "$type": "AttachToStateIDMixin",
                    "stateIDs": [
                        "BeHit",
                        "BeHitThrow"
                    ],
                    "modifierName": "ForlornVessel_Chargebow_HitRemoveShield"
                }
            ],
            "modifiers": {
                "Pose_None": {
                    "modifierName": "",
                    "bonusCritical": 100.0,
                    "onAdded": [
                        {
                            "$type": "SetPoseBool",
                            "boolID": "ShieldTag"
                        },
                        {
                            "$type": "SetGlobalValue",
                            "otherTargets": {
                                "$type": "MCCNELOFLIF",
                                "CJBGNDOGCHI": [
                                    "equip02"
                                ]
                            },
                            "ratio": 0.0,
                            "key": "ForlornVessel_Chargebow_WeaponTag",
                            "maxValue": 0.0,
                            "minValue": 0.0
                        },
                        {
                            "$type": "EnablePushColliderName",
                            "pushColliderNames": [
                                "PushCollider"
                            ],
                            "setEnable": true
                        },
                        {
                            "$type": "EnablePushColliderName",
                            "pushColliderNames": [
                                "PushCollider_Shield"
                            ]
                        }
                    ]
                },
                "Pose_Shield": {
                    "modifierName": "",
                    "bonusCritical": 100.0,
                    "modifierMixins": [
                        {
                            "$type": "MonsterDefendMixin",
                            "stateIDs": [
                                "NormalIdle",
                                "NormalMove",
                                "Turn",
                                "BeHit",
                                "BeHitThrow",
                                "NormalAtk_BS",
                                "NormalAtk_Loop",
                                "NormalAtk_AS1",
                                "NormalAtk_AS2",
                                "SpecialAtk"
                            ],
                            "defendTriggerID": "",
                            "defendAngle": 90.0,
                            "defendProbability": 1.0,
                            "defendProbabilityDelta": 0.0,
                            "CGGHOPFIDKM": 0.0,
                            "CMLCDGHHPLD": 0,
                            "NBGEKDBAIJP": true,
                            "onDefendSucceded": [
                                {
                                    "$type": "FireEffect",
                                    "healLimitedByCasterMaxHPRatio": "Eff_Monster_Brute_None_Shield_Defend",
                                    "born": {
                                        "$type": "EOGLEDIIGHF",
                                        "offset": {
                                            "HMHIOILIGBF": 0.0,
                                            "DPPJGBOHAAL": 1.5,
                                            "DDOAGBLBCEF": 1.2000000476837158
                                        }
                                    },
                                    "JAOICKHDAKL": -1.0
                                }
                            ],
                            "defendCountInterval": true
                        }
                    ],
                    "properties": {
                        "Actor_EndureDelta": 0.5
                    },
                    "onAdded": [
                        {
                            "$type": "SetPoseBool",
                            "boolID": "ShieldTag",
                            "ratio": true
                        },
                        {
                            "$type": "SetGlobalValue",
                            "otherTargets": {
                                "$type": "MCCNELOFLIF",
                                "CJBGNDOGCHI": [
                                    "equip02"
                                ]
                            },
                            "ratio": 1.0,
                            "key": "ForlornVessel_Chargebow_WeaponTag",
                            "maxValue": 0.0,
                            "minValue": 0.0
                        },
                        {
                            "$type": "EnablePushColliderName",
                            "pushColliderNames": [
                                "PushCollider"
                            ]
                        },
                        {
                            "$type": "EnablePushColliderName",
                            "pushColliderNames": [
                                "PushCollider_Shield"
                            ],
                            "setEnable": true
                        }
                    ],
                    "onKill": [
                        {
                            "$type": "SendEffectTrigger",
                            "otherTargets": {
                                "$type": "MCCNELOFLIF",
                                "CJBGNDOGCHI": [
                                    "equip02"
                                ]
                            },
                            "canBeHandledOnRecover": true,
                            "parameter": "ShieldDie",
                            "IIKEHINGEME": "",
                            "value": 1,
                            "healLimitedByCasterMaxHPRatio": "Eff_Monster_ForlornVessel_Strong_Chargebow_Shield"
                        }
                    ]
                },
                "ForlornVessel_Chargebow_HitRemoveShield": {
                    "modifierName": "",
                    "bonusCritical": 100.0,
                    "onAdded": [
                        {
                            "$type": "SetGlobalValue",
                            "ratio": 0.0,
                            "key": "_FORLORNVESSEL_CHARGEBOW_POSE_TAG_",
                            "maxValue": 0.0,
                            "minValue": 0.0
                        },
                        {
                            "$type": "RemoveUniqueModifier",
                            "modifierName": "UNIQUE_ForlornVessel_Chargebow_ShieldHandler"
                        },
                        {
                            "$type": "RemoveUniqueModifier",
                            "modifierName": "UNIQUE_ForlornVessel_Chargebow_AttackEnhance"
                        }
                    ]
                }
            }
        }
    },
    {
        "Default": {
            "$type": "ConfigAbility",
            "abilityName": "Monster_ForlornVessel_Strong_Chargebow_HitShield",
            "abilitySpecials": {
                "ForlornVessel_Chargebow_AttackEnhance": 0.0
            },
            "modifiers": {
                "ForlornVessel_Chargebow_HitShield_Detect": {
                    "modifierName": "",
                    "bonusCritical": 100.0,
                    "onAttackLanded": [
                        {
                            "$type": "Predicated",
                            "target": "Target",
                            "targetPredicates": [
                                {
                                    "$type": "KIIJDDBPNOE",
                                    "type": "All"
                                },
                                {
                                    "$type": "KAGNELIEMKD",
                                    "attackTags": [
                                        "Monster_ForlornVessel_Attack",
                                        "Monster_ForlornVessel_Lance_ChargeAtk"
                                    ]
                                },
                                {
                                    "$type": "HDOFEAAHAKF",
                                    "entityTypes": [
                                        "Avatar"
                                    ]
                                }
                            ],
                            "successActions": [
                                {
                                    "$type": "ApplyModifier",
                                    "target": "Caster",
                                    "modifierName": "UNIQUE_ForlornVessel_Chargebow_HitShield_Succ"
                                }
                            ]
                        }
                    ]
                },
                "UNIQUE_ForlornVessel_Chargebow_HitShield_Succ": {
                    "stacking": "Unique",
                    "modifierName": "",
                    "isUnique": true,
                    "duration": 2.0,
                    "bonusCritical": 100.0,
                    "onAdded": [
                        {
                            "$type": "RemoveUniqueModifier",
                            "modifierName": "UNIQUE_ForlornVessel_Chargebow_AttackEnhance"
                        },
                        {
                            "$type": "ApplyModifier",
                            "modifierName": "UNIQUE_ForlornVessel_Chargebow_ShieldHandler"
                        },
                        {
                            "$type": "LoseHP",
                            "target": "Caster",
                            "LNFMOCKIAGK": 0.0,
                            "PGPHIJIKLBG": 0.15000000596046448,
                            "lethal": false,
                            "enableInvincible": true,
                            "enableLockHP": true,
                            "amountByCasterMaxHPRatio": ""
                        },
                        {
                            "$type": "AddGlobalValue",
                            "ratio": 1.0,
                            "key": "_FORLORNVESSEL_CHARGEBOW_ATTACKENHANCE_",
                            "useLimitRange": true,
                            "maxValue": 5.0,
                            "minValue": 0.0
                        },
                        {
                            "$type": "SetGlobalValueToOverrideMap",
                            "globalValueKey": "_FORLORNVESSEL_CHARGEBOW_ATTACKENHANCE_",
                            "overrideMapKey": "ForlornVessel_Chargebow_AttackEnhance"
                        },
                        {
                            "$type": "ApplyModifier",
                            "modifierName": "UNIQUE_ForlornVessel_Chargebow_AttackEnhance"
                        }
                    ]
                },
                "UNIQUE_ForlornVessel_Chargebow_ShieldHandler": {
                    "modifierName": "",
                    "isUnique": true,
                    "duration": 30.0,
                    "bonusCritical": 100.0,
                    "onAdded": [
                        {
                            "$type": "SetGlobalValue",
                            "ratio": 1.0,
                            "key": "_FORLORNVESSEL_CHARGEBOW_POSE_TAG_",
                            "maxValue": 0.0,
                            "minValue": 0.0
                        }
                    ],
                    "onRemoved": [
                        {
                            "$type": "SetGlobalValue",
                            "ratio": 0.0,
                            "key": "_FORLORNVESSEL_CHARGEBOW_POSE_TAG_",
                            "maxValue": 0.0,
                            "minValue": 0.0
                        },
                        {
                            "$type": "RemoveUniqueModifier",
                            "modifierName": "UNIQUE_ForlornVessel_Chargebow_AttackEnhance"
                        }
                    ]
                },
                "UNIQUE_ForlornVessel_Chargebow_AttackEnhance": {
                    "stacking": "Unique",
                    "modifierName": "",
                    "isUnique": true,
                    "bonusCritical": 100.0,
                    "properties": {
                        "Actor_AttackRatio": [
                            0.15000000596046448,
                            "ForlornVessel_Chargebow_AttackEnhance",
                            "MUL"
                        ]
                    }
                }
            },
            "onAdded": [
                {
                    "$type": "ApplyModifier",
                    "modifierName": "ForlornVessel_Chargebow_HitShield_Detect"
                },
                {
                    "$type": "SetGlobalValue",
                    "ratio": 0.0,
                    "key": "_FORLORNVESSEL_CHARGEBOW_ATTACKENHANCE_",
                    "maxValue": 0.0,
                    "minValue": 0.0
                }
            ]
        }
    },
    {
        "Default": {
            "$type": "ConfigAbility",
            "abilityName": "MonEquip_ForlornVessel_Chargebow_Effect",
            "abilityMixins": [
                {
                    "$type": "AttachModifierToSelfGlobalValueMixin",
                    "globalValueKey": "ForlornVessel_Chargebow_WeaponTag",
                    "defaultGlobalValueOnCreate": 0.0,
                    "valueSteps": [
                        -0.5,
                        0.5,
                        1.5
                    ],
                    "modifierNameSteps": [
                        "ForlornVessel_Chargebow_ShieldOff",
                        "ForlornVessel_Chargebow_ShieldOn"
                    ]
                }
            ],
            "modifiers": {
                "ForlornVessel_Chargebow_Effect": {
                    "modifierName": "",
                    "bonusCritical": 100.0,
                    "onAdded": [
                        {
                            "$type": "AttachEffect",
                            "healLimitedByCasterMaxHPRatio": "Eff_Monster_ForlornVessel_Strong_Chargebow_Shield",
                            "JAOICKHDAKL": -1.0
                        }
                    ]
                },
                "ForlornVessel_Chargebow_ShieldOff": {
                    "modifierName": "",
                    "bonusCritical": 100.0,
                    "onAdded": [
                        {
                            "$type": "SendEffectTrigger",
                            "canBeHandledOnRecover": true,
                            "parameter": "ShieldTag",
                            "IIKEHINGEME": "",
                            "type": "Bool",
                            "healLimitedByCasterMaxHPRatio": "Eff_Monster_ForlornVessel_Strong_Chargebow_Shield"
                        }
                    ],
                    "onChangeAuthority": [
                        {
                            "$type": "SendEffectTrigger",
                            "canBeHandledOnRecover": true,
                            "parameter": "ShieldTag",
                            "IIKEHINGEME": "",
                            "type": "Bool",
                            "healLimitedByCasterMaxHPRatio": "Eff_Monster_ForlornVessel_Strong_Chargebow_Shield"
                        }
                    ]
                },
                "ForlornVessel_Chargebow_ShieldOn": {
                    "modifierName": "",
                    "bonusCritical": 100.0,
                    "onAdded": [
                        {
                            "$type": "SendEffectTrigger",
                            "canBeHandledOnRecover": true,
                            "parameter": "ShieldTag",
                            "IIKEHINGEME": "",
                            "type": "Bool",
                            "value": 1,
                            "healLimitedByCasterMaxHPRatio": "Eff_Monster_ForlornVessel_Strong_Chargebow_Shield"
                        }
                    ],
                    "onChangeAuthority": [
                        {
                            "$type": "SendEffectTrigger",
                            "canBeHandledOnRecover": true,
                            "parameter": "ShieldTag",
                            "IIKEHINGEME": "",
                            "type": "Bool",
                            "value": 1,
                            "healLimitedByCasterMaxHPRatio": "Eff_Monster_ForlornVessel_Strong_Chargebow_Shield"
                        }
                    ]
                }
            },
            "onAdded": [
                {
                    "$type": "AttachModifier",
                    "modifierName": "ForlornVessel_Chargebow_Effect"
                }
            ]
        }
    },
    {
        "Default": {
            "$type": "ConfigAbility",
            "abilityName": "MonEquip_ForlornVessel_Chargebow_NormalAtk_EffectAdd",
            "modifiers": {
                "UNIQUE_MonEquip_ForlornVessel_Chargebow_NormalAtk_Storage": {
                    "modifierName": "",
                    "isUnique": true,
                    "bonusCritical": 100.0,
                    "onAdded": [
                        {
                            "$type": "AttachEffect",
                            "healLimitedByCasterMaxHPRatio": "Eff_Monster_ForlornVessel_Strong_Chargebow_NormalAtk_Storage",
                            "JAOICKHDAKL": -1.0
                        }
                    ]
                }
            },
            "onAbilityStart": [
                {
                    "$type": "ApplyModifier",
                    "modifierName": "UNIQUE_MonEquip_ForlornVessel_Chargebow_NormalAtk_Storage"
                }
            ]
        }
    },
    {
        "Default": {
            "$type": "ConfigAbility",
            "abilityName": "MonEquip_ForlornVessel_Chargebow_NormalAtk_EffectRemove",
            "onAbilityStart": [
                {
                    "$type": "RemoveUniqueModifier",
                    "modifierName": "UNIQUE_MonEquip_ForlornVessel_Chargebow_NormalAtk_Storage"
                }
            ]
        }
    },
    {
        "Default": {
            "$type": "ConfigAbility",
            "abilityName": "Monster_ForlornVessel_Strong_Chargebow_Steer",
            "abilityMixins": [
                {
                    "$type": "SteerAttackMixin",
                    "steerStateIDs": [
                        "Turn"
                    ],
                    "angularSpeed": 180.0,
                    "attackTrigger": ""
                },
                {
                    "$type": "SteerAttackMixin",
                    "steerStateIDs": [
                        "NormalAtk_BS"
                    ],
                    "endNormalizedTime": 0.14000000059604645,
                    "angularSpeed": 270.0,
                    "attackTrigger": ""
                },
                {
                    "$type": "SteerAttackMixin",
                    "steerStateIDs": [
                        "SpecialAtk"
                    ],
                    "endNormalizedTime": 0.18000000715255737,
                    "angularSpeed": 180.0,
                    "attackTrigger": ""
                }
            ]
        }
    },
    {
        "Default": {
            "$type": "ConfigAbility",
            "abilityName": "Monster_ForlornVessel_Strong_Chargebow_EndureDelta",
            "abilityMixins": [
                {
                    "$type": "AttachToStateIDMixin",
                    "stateIDs": [
                        "NormalAtk_BS",
                        "NormalAtk_Loop",
                        "NormalAtk_AS1"
                    ],
                    "modifierName": "ForlornVessel_Strong_Chargebow_EndureDelta"
                },
                {
                    "$type": "AttachToNormalizedTimeMixin",
                    "stateID": "SpecialAtk",
                    "modifierName": "ForlornVessel_Strong_Chargebow_EndureDelta",
                    "normalizeEnd": 0.5
                }
            ],
            "modifiers": {
                "ForlornVessel_Strong_Chargebow_EndureDelta": {
                    "stacking": "Unique",
                    "modifierName": "",
                    "bonusCritical": 100.0,
                    "onAdded": [
                        {
                            "$type": "TriggerAbility",
                            "abilityName": "Monster_ForlornVessel_EndureDelta_Add"
                        }
                    ],
                    "onRemoved": [
                        {
                            "$type": "TriggerAbility",
                            "abilityName": "Monster_ForlornVessel_EndureDelta_Remove"
                        }
                    ]
                }
            }
        }
    },
    {
        "Default": {
            "$type": "ConfigAbility",
            "abilityName": "Monster_ForlornVessel_Strong_Chargebow_NormalAtk_Storage",
            "abilityMixins": [
                {
                    "$type": "AttachToStateIDMixin",
                    "stateIDs": [
                        "NormalAtk_BS",
                        "NormalAtk_Loop",
                        "NormalAtk_AS1"
                    ],
                    "modifierName": "Chargebow_NormalAtk_Storage_Effect"
                }
            ],
            "modifiers": {
                "Chargebow_NormalAtk_Storage_Effect": {
                    "modifierName": "",
                    "bonusCritical": 100.0,
                    "modifierMixins": [
                        {
                            "$type": "SetAnimationPauseByAbilityStateMixin",
                            "abilityStates": [
                                "ElementFrozen",
                                "ElementPetrifaction"
                            ]
                        }
                    ],
                    "onAdded": [
                        {
                            "$type": "TriggerAbility",
                            "otherTargets": {
                                "$type": "MCCNELOFLIF",
                                "CJBGNDOGCHI": [
                                    "equip02"
                                ]
                            },
                            "abilityName": "MonEquip_ForlornVessel_Chargebow_NormalAtk_EffectAdd"
                        }
                    ],
                    "onRemoved": [
                        {
                            "$type": "TriggerAbility",
                            "otherTargets": {
                                "$type": "MCCNELOFLIF",
                                "CJBGNDOGCHI": [
                                    "equip02"
                                ]
                            },
                            "abilityName": "MonEquip_ForlornVessel_Chargebow_NormalAtk_EffectRemove"
                        }
                    ]
                }
            },
            "onKill": [
                {
                    "$type": "RemoveUniqueModifier",
                    "otherTargets": {
                        "$type": "MCCNELOFLIF",
                        "CJBGNDOGCHI": [
                            "equip02"
                        ]
                    },
                    "modifierName": "UNIQUE_MonEquip_ForlornVessel_Chargebow_NormalAtk_Storage"
                }
            ]
        }
    },
    {
        "Default": {
            "$type": "ConfigAbility",
            "abilityName": "Monster_ForlornVessel_Strong_Chargebow_NormalAtk_Launch",
            "onAbilityStart": [
                {
                    "$type": "TriggerBullet",
                    "otherTargets": {
                        "$type": "MCCNELOFLIF",
                        "CJBGNDOGCHI": [
                            "equip02"
                        ]
                    },
                    "bulletID": 42207021,
                    "born": {
                        "$type": "EOGLEDIIGHF",
                        "offset": {
                            "HMHIOILIGBF": 0.0,
                            "DPPJGBOHAAL": 0.0,
                            "DDOAGBLBCEF": 0.0
                        },
                        "GDHMBIJKMEF": {
                            "$type": "MDFHAFBFOAD",
                            "maxAngle": 15.0,
                            "NNGJPPABGNH": ""
                        }
                    }
                }
            ]
        }
    },
    {
        "Default": {
            "$type": "ConfigAbility",
            "abilityName": "ForlornVessel_Strong_Chargebow_NormalAtk_Launch",
            "modifiers": {
                "NormalAtk_Action": {
                    "modifierName": "",
                    "bonusCritical": 100.0,
                    "properties": {
                        "Animator_OverallSpeedRatioMultiplied": 0.009999999776482582
                    },
                    "onAdded": [
                        {
                            "$type": "TriggerAbility",
                            "otherTargets": {
                                "$type": "JKGKIIOOINI",
                                "configID": 42207022
                            },
                            "abilityName": "ForlornVessel_Strong_Chargebow_NormalAtk_Damage_Kill"
                        },
                        {
                            "$type": "FireHitEffect",
                            "hitEntity": "",
                            "hitScene": {
                                "defaultEffect": "Eff_Monster_ForlornVessel_Strong_Chargebow_NormalAtk_Hit"
                            }
                        },
                        {
                            "$type": "TriggerAttackEvent",
                            "attackEvent": {
                                "attackPattern": {
                                    "$type": "KKMHAMBPOBM",
                                    "triggerType": "TriggerNoRepeat",
                                    "MMLJIFPBPOD": "Both",
                                    "born": {
                                        "$type": "GBFINJHCBPI"
                                    },
                                    "DFMMIGEMOHH": 0.800000011920929
                                },
                                "attackInfo": {
                                    "attackTag": "Monster_ForlornVessel_Attack",
                                    "attenuationTag": "Monster_ForlornVessel_Chargebow_NormalAtk",
                                    "attenuationGroup": "Monster_ForlornVessel_Chargebow_NormalAtk",
                                    "attackProperty": {
                                        "PCFAAPMOCGJ": 1.0,
                                        "LCCBNOKMNFG": 0.0,
                                        "elementType": "Ice",
                                        "bonusCritical": 50.0,
                                        "strikeType": "Default",
                                        "enBreak": 100.0,
                                        "FKGFPFNOJMN": 0.0
                                    },
                                    "hitPattern": {
                                        "onHitEffectName": "default",
                                        "hitImpulseType": "LV3",
                                        "hitHaltTimeScale": 0.009999999776482582
                                    },
                                    "canBeModifiedBy": "OriginOwner"
                                }
                            },
                            "targetType": "Enemy"
                        },
                        {
                            "$type": "EnableBulletCollisionPluginTrigger"
                        },
                        {
                            "$type": "RemoveModifier",
                            "modifierName": "NormalAtk_Eff"
                        },
                        {
                            "$type": "KillSelf",
                            "duration": 0.20000000298023224
                        }
                    ]
                },
                "NormalAtk_Eff": {
                    "modifierName": "",
                    "bonusCritical": 100.0,
                    "onAdded": [
                        {
                            "$type": "AttachEffect",
                            "healLimitedByCasterMaxHPRatio": "Eff_Monster_ForlornVessel_Strong_Chargebow_NormalAtk_Loop",
                            "JAOICKHDAKL": -1.0
                        },
                        {
                            "$type": "AttachEffect",
                            "healLimitedByCasterMaxHPRatio": "Eff_Monster_ForlornVessel_Strong_Chargebow_NormalAtk_Trail",
                            "JAOICKHDAKL": -1.0
                        }
                    ]
                },
                "NormalAtk_DamageBullet": {
                    "modifierName": "",
                    "bonusCritical": 100.0,
                    "onAdded": [
                        {
                            "$type": "TriggerBullet",
                            "bulletID": 42207022,
                            "born": {
                                "$type": "KDEPFKAAHCG"
                            },
                            "trackTarget": "Self",
                            "BNCFPGNKKPA": true
                        }
                    ]
                }
            },
            "onAdded": [
                {
                    "$type": "AttachModifier",
                    "modifierName": "NormalAtk_Eff"
                },
                {
                    "$type": "AttachModifier",
                    "modifierName": "NormalAtk_DamageBullet"
                }
            ],
            "onAbilityStart": [
                {
                    "$type": "ApplyModifier",
                    "modifierName": "NormalAtk_Action"
                }
            ]
        }
    },
    {
        "Default": {
            "$type": "ConfigAbility",
            "abilityName": "ForlornVessel_Strong_Chargebow_NormalAtk_Launch_Kill",
            "onAbilityStart": [
                {
                    "$type": "KillSelf"
                }
            ]
        }
    },
    {
        "Default": {
            "$type": "ConfigAbility",
            "abilityName": "ForlornVessel_Strong_Chargebow_NormalAtk_Damage",
            "onAbilityStart": [
                {
                    "$type": "TriggerAttackEvent",
                    "attackEvent": {
                        "attackPattern": {
                            "$type": "KKMHAMBPOBM",
                            "triggerType": "TriggerNoRepeat",
                            "MMLJIFPBPOD": "Both",
                            "born": {
                                "$type": "GBFINJHCBPI"
                            },
                            "DFMMIGEMOHH": 0.800000011920929
                        },
                        "attackInfo": {
                            "attackTag": "Monster_ForlornVessel_Attack",
                            "attenuationTag": "Monster_ForlornVessel_Chargebow_NormalAtk",
                            "attenuationGroup": "Monster_ForlornVessel_Chargebow_NormalAtk",
                            "attackProperty": {
                                "PCFAAPMOCGJ": 1.0,
                                "LCCBNOKMNFG": 0.0,
                                "elementType": "Ice",
                                "bonusCritical": 50.0,
                                "strikeType": "Default",
                                "enBreak": 100.0,
                                "FKGFPFNOJMN": 0.0
                            },
                            "hitPattern": {
                                "onHitEffectName": "default",
                                "hitImpulseType": "LV3",
                                "hitHaltTimeScale": 0.009999999776482582
                            },
                            "canBeModifiedBy": "OriginOwner"
                        }
                    },
                    "targetType": "Enemy"
                },
                {
                    "$type": "EnableBulletCollisionPluginTrigger"
                },
                {
                    "$type": "FireEffect",
                    "healLimitedByCasterMaxHPRatio": "Eff_Monster_ForlornVessel_Strong_Chargebow_NormalAtk_Hit",
                    "born": {
                        "$type": "GBFINJHCBPI"
                    },
                    "JAOICKHDAKL": -1.0
                },
                {
                    "$type": "TriggerAbility",
                    "target": "Owner",
                    "abilityName": "ForlornVessel_Strong_Chargebow_NormalAtk_Launch_Kill"
                },
                {
                    "$type": "KillSelf"
                }
            ]
        }
    },
    {
        "Default": {
            "$type": "ConfigAbility",
            "abilityName": "ForlornVessel_Strong_Chargebow_NormalAtk_Damage_Kill",
            "onAbilityStart": [
                {
                    "$type": "KillSelf"
                }
            ]
        }
    },
    {
        "Default": {
            "$type": "ConfigAbility",
            "abilityName": "Monster_ForlornVessel_Strong_Chargebow_SpecialAtk_Alert",
            "abilityMixins": [
                {
                    "$type": "AttachToStateIDMixin",
                    "stateIDs": [
                        "SpecialAtk"
                    ],
                    "modifierName": "ForlornVessel_Strong_Chargebow_SpecialAtk_GadgetHandler"
                }
            ],
            "modifiers": {
                "ForlornVessel_Strong_Chargebow_SpecialAtk_GadgetHandler": {
                    "modifierName": "",
                    "bonusCritical": 100.0,
                    "onRemoved": [
                        {
                            "$type": "KillSelf",
                            "otherTargets": {
                                "$type": "JKGKIIOOINI",
                                "configID": 42207023
                            }
                        }
                    ]
                }
            },
            "onAbilityStart": [
                {
                    "$type": "Predicated",
                    "target": "SelfAttackTarget",
                    "targetPredicates": [
                        {
                            "$type": "JOLJOHDJLNF",
                            "logic": "LesserOrEqual",
                            "ratio": 5.0
                        }
                    ],
                    "successActions": [
                        {
                            "$type": "CreateGadget",
                            "born": {
                                "$type": "KDEPFKAAHCG",
                                "offset": {
                                    "HMHIOILIGBF": 0.0,
                                    "DPPJGBOHAAL": 0.0,
                                    "DDOAGBLBCEF": 5.0
                                },
                                "CJKCLAIPMHH": true,
                                "JNDJNDJCGGC": true
                            },
                            "gadgetID": 42207023,
                            "campID": 4001,
                            "campTargetType": "Enemy"
                        }
                    ],
                    "failActions": [
                        {
                            "$type": "CreateGadget",
                            "target": "SelfAttackTarget",
                            "born": {
                                "$type": "EOGLEDIIGHF",
                                "offset": {
                                    "HMHIOILIGBF": 0.0,
                                    "DPPJGBOHAAL": 0.0,
                                    "DDOAGBLBCEF": 1.0
                                },
                                "CJKCLAIPMHH": true,
                                "GDHMBIJKMEF": {
                                    "$type": "CAMHJDKCEOP",
                                    "attachPointName": "RootNode",
                                    "BKOJLOPLKJE": "Self"
                                },
                                "JNDJNDJCGGC": true
                            },
                            "gadgetID": 42207023,
                            "campID": 4001,
                            "campTargetType": "Enemy"
                        }
                    ]
                }
            ]
        }
    },
    {
        "Default": {
            "$type": "ConfigAbility",
            "abilityName": "Monster_ForlornVessel_Strong_Chargebow_SpecialAtk_Damage",
            "onAbilityStart": [
                {
                    "$type": "RemoveUniqueModifier",
                    "modifierName": "UNIQUE_ForlornVessel_Strong_Chargebow_SpecialAtk_Effect"
                },
                {
                    "$type": "FireEffect",
                    "healLimitedByCasterMaxHPRatio": "Eff_Monster_ForlornVessel_Strong_Chargebow_SpecialAtk_Launch",
                    "JAOICKHDAKL": -1.0
                },
                {
                    "$type": "TriggerAbility",
                    "otherTargets": {
                        "$type": "JKGKIIOOINI",
                        "configID": 42207023
                    },
                    "abilityName": "ForlornVessel_Strong_Chargebow_SpecialAtk_DamageArea"
                }
            ]
        }
    },
    {
        "Default": {
            "$type": "ConfigAbility",
            "abilityName": "Monster_ForlornVessel_Strong_Chargebow_SpecialAtk_Effect",
            "abilityMixins": [
                {
                    "$type": "AttachToStateIDMixin",
                    "stateIDs": [
                        "SpecialAtk"
                    ],
                    "modifierName": "ForlornVessel_Strong_Chargebow_SpecialAtk_EffectHandler"
                }
            ],
            "modifiers": {
                "ForlornVessel_Strong_Chargebow_SpecialAtk_EffectHandler": {
                    "modifierName": "",
                    "bonusCritical": 100.0,
                    "onRemoved": [
                        {
                            "$type": "RemoveUniqueModifier",
                            "modifierName": "UNIQUE_ForlornVessel_Strong_Chargebow_SpecialAtk_Effect"
                        }
                    ]
                },
                "UNIQUE_ForlornVessel_Strong_Chargebow_SpecialAtk_Effect": {
                    "modifierName": "",
                    "isUnique": true,
                    "bonusCritical": 100.0,
                    "onAdded": [
                        {
                            "$type": "AttachEffect",
                            "healLimitedByCasterMaxHPRatio": "Eff_Monster_ForlornVessel_Strong_Chargebow_SpecialAtk_BS",
                            "JAOICKHDAKL": -1.0
                        }
                    ]
                }
            },
            "onAbilityStart": [
                {
                    "$type": "ApplyModifier",
                    "modifierName": "UNIQUE_ForlornVessel_Strong_Chargebow_SpecialAtk_Effect"
                }
            ]
        }
    },
    {
        "Default": {
            "$type": "ConfigAbility",
            "abilityName": "ForlornVessel_Strong_Chargebow_SpecialAtk_DamageArea",
            "modifiers": {
                "ForlornVessel_Chargebow_SpecialAtk_Alert": {
                    "modifierName": "",
                    "bonusCritical": 100.0,
                    "onAdded": [
                        {
                            "$type": "AttachEffect",
                            "healLimitedByCasterMaxHPRatio": "Eff_Monster_ForlornVessel_Strong_Chargebow_SpecialAtk_Alert",
                            "born": {
                                "$type": "KDEPFKAAHCG",
                                "CJKCLAIPMHH": true,
                                "JNDJNDJCGGC": true
                            },
                            "JAOICKHDAKL": -1.0
                        }
                    ]
                },
                "ForlornVessel_Chargebow_SpecialAtk_Damage": {
                    "modifierName": "",
                    "duration": 0.6000000238418579,
                    "bonusCritical": 100.0,
                    "onRemoved": [
                        {
                            "$type": "TriggerAttackEvent",
                            "attackEvent": {
                                "attackPattern": {
                                    "$type": "HBFCINNBDFD",
                                    "triggerType": "TriggerNoRepeat",
                                    "born": {
                                        "$type": "KDEPFKAAHCG",
                                        "offset": {
                                            "HMHIOILIGBF": 0.0,
                                            "DPPJGBOHAAL": -2.5,
                                            "DDOAGBLBCEF": 0.0
                                        }
                                    },
                                    "height": 4.900000095367432,
                                    "DFMMIGEMOHH": 4.0
                                },
                                "attackInfo": {
                                    "attackTag": "Monster_ForlornVessel_Attack",
                                    "attenuationTag": "",
                                    "attenuationGroup": "default",
                                    "attackProperty": {
                                        "PCFAAPMOCGJ": 1.0,
                                        "LCCBNOKMNFG": 0.0,
                                        "elementType": "Ice",
                                        "bonusCritical": 50.0,
                                        "strikeType": "Default",
                                        "enBreak": 100.0,
                                        "FKGFPFNOJMN": 0.0
                                    },
                                    "hitPattern": {
                                        "onHitEffectName": "default",
                                        "hitImpulseType": "LV4",
                                        "hitHaltTimeScale": 0.009999999776482582
                                    },
                                    "canBeModifiedBy": "OriginOwner"
                                }
                            },
                            "targetType": "Enemy"
                        },
                        {
                            "$type": "FireEffect",
                            "healLimitedByCasterMaxHPRatio": "Eff_Monster_ForlornVessel_Strong_Chargebow_SpecialAtk_Attack",
                            "born": {
                                "$type": "KDEPFKAAHCG",
                                "CJKCLAIPMHH": true,
                                "GDHMBIJKMEF": {
                                    "$type": "CDPGFBADOIA",
                                    "PKNBBHPAKCG": {
                                        "HMHIOILIGBF": 0.0,
                                        "DPPJGBOHAAL": 180.0,
                                        "DDOAGBLBCEF": 0.0
                                    }
                                },
                                "JNDJNDJCGGC": true
                            },
                            "JAOICKHDAKL": -1.0
                        },
                        {
                            "$type": "RemoveModifier",
                            "modifierName": "ForlornVessel_Chargebow_SpecialAtk_Alert"
                        },
                        {
                            "$type": "KillSelf",
                            "duration": 0.20000000298023224
                        }
                    ]
                }
            },
            "onAdded": [
                {
                    "$type": "ApplyModifier",
                    "modifierName": "ForlornVessel_Chargebow_SpecialAtk_Alert"
                },
                {
                    "$type": "TriggerAbility",
                    "abilityName": "ForlornVessel_Strong_Chargebow_SpecialAtk_LifeHandler"
                }
            ],
            "onAbilityStart": [
                {
                    "$type": "ApplyModifier",
                    "modifierName": "ForlornVessel_Chargebow_SpecialAtk_Damage"
                }
            ]
        }
    },
    {
        "Default": {
            "$type": "ConfigAbility",
            "abilityName": "ForlornVessel_Strong_Chargebow_SpecialAtk_LifeHandler",
            "modifiers": {
                "ForlornVessel_Chargebow_SpecialAtk_LifeHandler": {
                    "modifierName": "",
                    "duration": 5.0,
                    "bonusCritical": 100.0,
                    "onRemoved": [
                        {
                            "$type": "KillSelf"
                        }
                    ]
                }
            },
            "onAbilityStart": [
                {
                    "$type": "ApplyModifier",
                    "modifierName": "ForlornVessel_Chargebow_SpecialAtk_LifeHandler"
                }
            ]
        }
    },
    {
        "Default": {
            "$type": "ConfigAbility",
            "abilityName": "Monster_ForlornVessel_Strong_Chargebow_ExitBattle",
            "abilityMixins": [
                {
                    "$type": "AttachToAIAlertnessMixin",
                    "alertness": [
                        0
                    ],
                    "modifierName": "ExitBattle"
                }
            ],
            "modifiers": {
                "ExitBattle": {
                    "modifierName": "",
                    "bonusCritical": 100.0,
                    "onAdded": [
                        {
                            "$type": "SetGlobalValue",
                            "ratio": 0.0,
                            "key": "_FORLORNVESSEL_CHARGEBOW_POSE_TAG_",
                            "maxValue": 0.0,
                            "minValue": 0.0
                        },
                        {
                            "$type": "SetGlobalValue",
                            "ratio": 0.0,
                            "key": "_FORLORNVESSEL_CHARGEBOW_ATTACKENHANCE_",
                            "maxValue": 0.0,
                            "minValue": 0.0
                        },
                        {
                            "$type": "RemoveUniqueModifier",
                            "modifierName": "UNIQUE_ForlornVessel_Warbanner_ElementShield_ShieldHandler"
                        },
                        {
                            "$type": "RemoveUniqueModifier",
                            "modifierName": "UNIQUE_ForlornVessel_Chargebow_HitShield_Succ"
                        },
                        {
                            "$type": "RemoveUniqueModifier",
                            "modifierName": "UNIQUE_ForlornVessel_Chargebow_ShieldHandler"
                        },
                        {
                            "$type": "RemoveUniqueModifier",
                            "modifierName": "UNIQUE_ForlornVessel_Chargebow_AttackEnhance"
                        }
                    ]
                }
            }
        }
    },
    {
        "Default": {
            "$type": "ConfigAbility",
            "abilityName": "Monster_ForlornVessel_Strong_Chargebow_Alert",
            "abilityMixins": [
                {
                    "$type": "AttachToAIAlertnessMixin",
                    "alertness": [
                        0,
                        1
                    ],
                    "modifierName": "ForlornVessel_Strong_Chargebow_AlertHandler"
                }
            ],
            "modifiers": {
                "ForlornVessel_Strong_Chargebow_AlertHandler": {
                    "modifierName": "",
                    "bonusCritical": 100.0,
                    "onRemoved": [
                        {
                            "$type": "SetPoseBool",
                            "boolID": "Leisure"
                        },
                        {
                            "$type": "SetPoseBool",
                            "boolID": "Patrol"
                        },
                        {
                            "$type": "SetPoseBool",
                            "boolID": "Rest"
                        }
                    ]
                }
            }
        }
    },
    {
        "Default": {
            "$type": "ConfigAbility",
            "abilityName": "Monster_ForlornVessel_Strong_Chargebow_WeaponSpecialElementState",
            "abilityMixins": [
                {
                    "$type": "AttachToAbilityStateMixin",
                    "abilityStates": [
                        "ElementFreeze"
                    ],
                    "modifierName": "WeaponElementFreezeHandler"
                },
                {
                    "$type": "AttachToAbilityStateMixin",
                    "abilityStates": [
                        "ElementPetrifaction"
                    ],
                    "modifierName": "WeaponElementPetrifactionHandler"
                }
            ],
            "modifiers": {
                "WeaponElementFreezeHandler": {
                    "modifierName": "",
                    "bonusCritical": 100.0,
                    "onAdded": [
                        {
                            "$type": "AttachModifier",
                            "otherTargets": {
                                "$type": "MCCNELOFLIF",
                                "CJBGNDOGCHI": [
                                    "equip01",
                                    "equip02"
                                ]
                            },
                            "modifierName": "WeaponElementFreeze"
                        },
                        {
                            "$type": "TriggerAbility",
                            "otherTargets": {
                                "$type": "JKGKIIOOINI",
                                "configID": 42207023
                            },
                            "abilityName": "ForlornVessel_Strong_Chargebow_SpecialAtk_LifeHandler"
                        }
                    ]
                },
                "WeaponElementPetrifactionHandler": {
                    "modifierName": "",
                    "bonusCritical": 100.0,
                    "onAdded": [
                        {
                            "$type": "AttachModifier",
                            "otherTargets": {
                                "$type": "MCCNELOFLIF",
                                "CJBGNDOGCHI": [
                                    "equip01",
                                    "equip02"
                                ]
                            },
                            "modifierName": "WeaponElementPetrifaction"
                        },
                        {
                            "$type": "TriggerAbility",
                            "otherTargets": {
                                "$type": "JKGKIIOOINI",
                                "configID": 42207023
                            },
                            "abilityName": "ForlornVessel_Strong_Chargebow_SpecialAtk_LifeHandler"
                        }
                    ]
                },
                "WeaponElementFreeze": {
                    "modifierName": "",
                    "bonusCritical": 100.0,
                    "state": "ElementFreeze",
                    "onAdded": [
                        {
                            "$type": "SendEffectTrigger",
                            "canBeHandledOnRecover": true,
                            "parameter": "ShieldFreeze",
                            "IIKEHINGEME": "",
                            "type": "Bool",
                            "value": 1,
                            "healLimitedByCasterMaxHPRatio": "Eff_Monster_ForlornVessel_Strong_Chargebow_Shield"
                        }
                    ],
                    "onRemoved": [
                        {
                            "$type": "SendEffectTrigger",
                            "canBeHandledOnRecover": true,
                            "parameter": "ShieldFreeze",
                            "IIKEHINGEME": "",
                            "type": "Bool",
                            "healLimitedByCasterMaxHPRatio": "Eff_Monster_ForlornVessel_Strong_Chargebow_Shield"
                        }
                    ]
                },
                "WeaponElementPetrifaction": {
                    "modifierName": "",
                    "bonusCritical": 100.0,
                    "state": "ElementPetrifaction",
                    "onAdded": [
                        {
                            "$type": "SendEffectTrigger",
                            "canBeHandledOnRecover": true,
                            "parameter": "ShieldPetrifaction",
                            "IIKEHINGEME": "",
                            "type": "Bool",
                            "value": 1,
                            "healLimitedByCasterMaxHPRatio": "Eff_Monster_ForlornVessel_Strong_Chargebow_Shield"
                        }
                    ],
                    "onRemoved": [
                        {
                            "$type": "SendEffectTrigger",
                            "canBeHandledOnRecover": true,
                            "parameter": "ShieldPetrifaction",
                            "IIKEHINGEME": "",
                            "type": "Bool",
                            "healLimitedByCasterMaxHPRatio": "Eff_Monster_ForlornVessel_Strong_Chargebow_Shield"
                        }
                    ]
                }
            }
        }
    }
]