[
    {
        "Default": {
            "$type": "ConfigAbility",
            "abilityName": "MonsterAffix_Monster_Vulture_Sacred_FirstSkillJumpAttack",
            "abilityMixins": [
                {
                    "$type": "AttachToAIAlertnessMixin",
                    "alertness": [
                        2
                    ],
                    "modifierName": "FirstSkillJumpAttack"
                },
                {
                    "$type": "AttachToStateIDMixin",
                    "stateIDs": [
                        "Sacred_Attack02_BS",
                        "Sacred_Attack02_Loop",
                        "Sacred_Attack02_AS"
                    ],
                    "modifierName": "JumpAttackTokenUsed"
                }
            ],
            "modifiers": {
                "FirstSkillJumpAttack": {
                    "modifierName": "",
                    "bonusCritical": 100.0,
                    "onAdded": [
                        {
                            "$type": "SetGlobalValue",
                            "ratio": 1.0,
                            "key": "_Vulture_JumpAttack_",
                            "maxValue": 0.0,
                            "minValue": 0.0
                        }
                    ]
                },
                "JumpAttackTokenUsed": {
                    "modifierName": "",
                    "bonusCritical": 100.0,
                    "onRemoved": [
                        {
                            "$type": "SetGlobalValue",
                            "ratio": 0.0,
                            "key": "_Vulture_JumpAttack_",
                            "maxValue": 0.0,
                            "minValue": 0.0
                        }
                    ]
                }
            },
            "isDynamicAbility": true
        }
    },
    {
        "Default": {
            "$type": "ConfigAbility",
            "abilityName": "Monster_Vulture_Sacred_InAirTag",
            "abilityMixins": [
                {
                    "$type": "AttachToNormalizedTimeMixin",
                    "stateID": "Sacred_Attack05",
                    "modifierName": "InAirTag",
                    "normalizeStart": 0.28999999165534973,
                    "normalizeEnd": 0.5600000023841858
                },
                {
                    "$type": "AttachToStateIDMixin",
                    "stateIDs": [
                        "Sacred_Attack04_Loop",
                        "Sacred_Attack04_Loop_Extra"
                    ],
                    "modifierName": "InAirTag"
                }
            ],
            "modifiers": {
                "InAirTag": {
                    "modifierName": "",
                    "bonusCritical": 100.0,
                    "onAdded": [
                        {
                            "$type": "SetAnimatorBool",
                            "boolID": "InAir",
                            "ratio": true
                        }
                    ],
                    "onRemoved": [
                        {
                            "$type": "SetAnimatorBool",
                            "boolID": "InAir"
                        }
                    ]
                }
            }
        }
    },
    {
        "Default": {
            "$type": "ConfigAbility",
            "abilityName": "Monster_Vulture_Sacred_SteerAttack",
            "abilityMixins": [
                {
                    "$type": "SteerAttackMixin",
                    "steerStateIDs": [
                        "Turn"
                    ],
                    "startNormalizedTime": 0.23000000417232513,
                    "endNormalizedTime": 0.5,
                    "angularSpeed": 180.0,
                    "attackTrigger": ""
                },
                {
                    "$type": "SteerAttackMixin",
                    "steerStateIDs": [
                        "Sacred_Turn"
                    ],
                    "startNormalizedTime": 0.23000000417232513,
                    "endNormalizedTime": 0.5,
                    "angularSpeed": 180.0,
                    "attackTrigger": ""
                },
                {
                    "$type": "SteerAttackMixin",
                    "steerStateIDs": [
                        "Sacred_Attack01"
                    ],
                    "startNormalizedTime": 0.07000000029802322,
                    "endNormalizedTime": 0.11999999731779099,
                    "angularSpeed": 120.0,
                    "attackTrigger": ""
                },
                {
                    "$type": "SteerAttackMixin",
                    "steerStateIDs": [
                        "Sacred_Attack01"
                    ],
                    "startNormalizedTime": 0.17000000178813934,
                    "endNormalizedTime": 0.23999999463558197,
                    "angularSpeed": 120.0,
                    "attackTrigger": ""
                },
                {
                    "$type": "SteerAttackMixin",
                    "steerStateIDs": [
                        "Sacred_Attack01"
                    ],
                    "startNormalizedTime": 0.33000001311302185,
                    "endNormalizedTime": 0.3700000047683716,
                    "angularSpeed": 120.0,
                    "attackTrigger": ""
                },
                {
                    "$type": "SteerAttackMixin",
                    "steerStateIDs": [
                        "Sacred_Attack01"
                    ],
                    "startNormalizedTime": 0.5,
                    "endNormalizedTime": 0.6200000047683716,
                    "angularSpeed": 120.0,
                    "attackTrigger": ""
                },
                {
                    "$type": "SteerAttackMixin",
                    "steerStateIDs": [
                        "Sacred_Attack02_BS"
                    ],
                    "startNormalizedTime": 0.03999999910593033,
                    "endNormalizedTime": 0.15000000596046448,
                    "angularSpeed": 120.0,
                    "attackTrigger": ""
                },
                {
                    "$type": "SteerAttackMixin",
                    "steerStateIDs": [
                        "Sacred_Attack02_BS"
                    ],
                    "startNormalizedTime": 0.6800000071525574,
                    "angularSpeed": 120.0,
                    "attackTrigger": ""
                },
                {
                    "$type": "SteerAttackMixin",
                    "steerStateIDs": [
                        "Sacred_Attack02_BS"
                    ],
                    "startNormalizedTime": 0.03999999910593033,
                    "endNormalizedTime": 0.15000000596046448,
                    "angularSpeed": 120.0,
                    "attackTrigger": ""
                },
                {
                    "$type": "SteerAttackMixin",
                    "steerStateIDs": [
                        "Sacred_Attack02_AS"
                    ],
                    "endNormalizedTime": 0.05000000074505806,
                    "angularSpeed": 360.0,
                    "attackTrigger": ""
                },
                {
                    "$type": "SteerAttackMixin",
                    "steerStateIDs": [
                        "Sacred_Attack03"
                    ],
                    "startNormalizedTime": 0.019999999552965164,
                    "endNormalizedTime": 0.05000000074505806,
                    "angularSpeed": 120.0,
                    "attackTrigger": ""
                },
                {
                    "$type": "SteerAttackMixin",
                    "steerStateIDs": [
                        "Sacred_Attack03"
                    ],
                    "startNormalizedTime": 0.11999999731779099,
                    "endNormalizedTime": 0.23000000417232513,
                    "angularSpeed": 120.0,
                    "attackTrigger": ""
                },
                {
                    "$type": "SteerAttackMixin",
                    "steerStateIDs": [
                        "Sacred_Attack03"
                    ],
                    "startNormalizedTime": 0.2800000011920929,
                    "endNormalizedTime": 0.3700000047683716,
                    "angularSpeed": 120.0,
                    "attackTrigger": ""
                },
                {
                    "$type": "SteerAttackMixin",
                    "steerStateIDs": [
                        "Sacred_Attack03"
                    ],
                    "startNormalizedTime": 0.47999998927116394,
                    "endNormalizedTime": 0.6000000238418579,
                    "angularSpeed": 120.0,
                    "attackTrigger": ""
                },
                {
                    "$type": "SteerAttackMixin",
                    "steerStateIDs": [
                        "Sacred_Attack04_BS"
                    ],
                    "startNormalizedTime": 0.05000000074505806,
                    "endNormalizedTime": 0.12999999523162842,
                    "angularSpeed": 120.0,
                    "attackTrigger": ""
                },
                {
                    "$type": "SteerAttackMixin",
                    "steerStateIDs": [
                        "Sacred_Attack04_BS"
                    ],
                    "startNormalizedTime": 0.18000000715255737,
                    "endNormalizedTime": 0.25,
                    "angularSpeed": 120.0,
                    "attackTrigger": ""
                },
                {
                    "$type": "SteerAttackMixin",
                    "steerStateIDs": [
                        "Sacred_Attack04_BS"
                    ],
                    "startNormalizedTime": 0.7099999785423279,
                    "angularSpeed": 240.0,
                    "attackTrigger": ""
                },
                {
                    "$type": "SteerAttackMixin",
                    "steerStateIDs": [
                        "Sacred_Attack04_Loop"
                    ],
                    "endNormalizedTime": 10.0,
                    "angularSpeed": 10.0,
                    "attackAngle": 90.0,
                    "attackTrigger": "LoopFlyTurn",
                    "attackDistance": 100.0
                },
                {
                    "$type": "SteerAttackMixin",
                    "steerStateIDs": [
                        "Sacred_Attack04_AS"
                    ],
                    "endNormalizedTime": 0.23000000417232513,
                    "angularSpeed": 240.0,
                    "attackTrigger": ""
                },
                {
                    "$type": "SteerAttackMixin",
                    "steerStateIDs": [
                        "Sacred_Attack05"
                    ],
                    "startNormalizedTime": 0.17000000178813934,
                    "endNormalizedTime": 0.44999998807907104,
                    "angularSpeed": 120.0,
                    "attackTrigger": ""
                }
            ],
            "onAdded": [
                {
                    "$type": "SetGlobalValue",
                    "ratio": 1.0,
                    "key": "Monster_Vulture_Sacred",
                    "maxValue": 0.0,
                    "minValue": 0.0
                }
            ]
        }
    },
    {
        "Default": {
            "$type": "ConfigAbility",
            "abilityName": "Monster_Vulture_Sacred_Attack03",
            "abilityMixins": [
                {
                    "$type": "AttachToStateIDMixin",
                    "stateIDs": [
                        "Sacred_Attack03"
                    ],
                    "modifierName": "SacredAttack03EndCheck"
                }
            ],
            "modifiers": {
                "SacredAttack03EndCheck": {
                    "modifierName": "",
                    "bonusCritical": 100.0,
                    "thinkInterval": 0.10000000149011612,
                    "onThinkInterval": [
                        {
                            "$type": "Predicated",
                            "target": "SelfAttackTarget",
                            "targetPredicates": [
                                {
                                    "$type": "JOLJOHDJLNF",
                                    "ratio": 8.0
                                }
                            ],
                            "successActions": [
                                {
                                    "$type": "SetAnimatorBool",
                                    "boolID": "SacredAttack03End",
                                    "ratio": true
                                }
                            ],
                            "failActions": [
                                {
                                    "$type": "SetAnimatorBool",
                                    "boolID": "SacredAttack03End"
                                }
                            ]
                        }
                    ]
                }
            }
        }
    },
    {
        "Default": {
            "$type": "ConfigAbility",
            "abilityName": "Monster_Vulture_Sacred_Attack02_Collider",
            "abilityMixins": [
                {
                    "$type": "AttachToStateIDMixin",
                    "stateIDs": [
                        "Sacred_Attack02_Loop"
                    ],
                    "modifierName": "LoopRushMove"
                }
            ],
            "modifiers": {
                "LoopRushMove": {
                    "modifierName": "",
                    "duration": 0.5,
                    "bonusCritical": 100.0,
                    "onAdded": [
                        {
                            "$type": "FixedMonsterRushMove",
                            "target": "SelfAttackTarget",
                            "toPos": {
                                "$type": "EOGLEDIIGHF",
                                "offset": {
                                    "HMHIOILIGBF": 0.0,
                                    "DPPJGBOHAAL": 0.0,
                                    "DDOAGBLBCEF": 0.0
                                },
                                "EIHGKLFJFDH": {
                                    "$type": "NEDBFINNHHP",
                                    "MONOAFEICPP": 0.05000000074505806,
                                    "LEGMDANKMPK": 0.15000000596046448
                                }
                            },
                            "timeRange": 0.30000001192092896,
                            "animatorStateIDs": [
                                "Sacred_Attack02_Loop"
                            ],
                            "overrideMoveCollider": ""
                        }
                    ]
                },
                "StateControl": {
                    "modifierName": "",
                    "duration": 1.215999960899353,
                    "bonusCritical": 100.0,
                    "modifierMixins": [
                        {
                            "$type": "AttachActionToModifierMixin",
                            "onAdded": [
                                {
                                    "$type": "HideUIBillBoard",
                                    "hide": true
                                },
                                {
                                    "$type": "ApplyModifier",
                                    "modifierName": "UnderGround_Invincible"
                                },
                                {
                                    "$type": "ApplyModifier",
                                    "modifierName": "UnderGround_DenyLockOn"
                                },
                                {
                                    "$type": "EnablePushColliderName",
                                    "pushColliderNames": [
                                        "PushCollider"
                                    ]
                                }
                            ],
                            "onRemoved": [
                                {
                                    "$type": "HideUIBillBoard"
                                },
                                {
                                    "$type": "RemoveModifier",
                                    "modifierName": "UnderGround_Invincible"
                                },
                                {
                                    "$type": "RemoveModifier",
                                    "modifierName": "UnderGround_DenyLockOn"
                                },
                                {
                                    "$type": "EnablePushColliderName",
                                    "pushColliderNames": [
                                        "PushCollider"
                                    ],
                                    "setEnable": true
                                }
                            ]
                        }
                    ]
                },
                "UnderGround_Invincible": {
                    "modifierName": "",
                    "bonusCritical": 100.0,
                    "state": "Invincible"
                },
                "UnderGround_DenyLockOn": {
                    "modifierName": "",
                    "bonusCritical": 100.0,
                    "state": "DenyLockOn"
                }
            },
            "onAbilityStart": [
                {
                    "$type": "ApplyModifier",
                    "modifierName": "StateControl"
                }
            ]
        }
    },
    {
        "Default": {
            "$type": "ConfigAbility",
            "abilityName": "Monster_Vulture_Sacred_Attack02_Find",
            "onAbilityStart": [
                {
                    "$type": "TryFindBlinkPointByBorn",
                    "target": "SelfAttackTarget",
                    "born": {
                        "$type": "EOGLEDIIGHF",
                        "offset": {
                            "HMHIOILIGBF": 0.0,
                            "DPPJGBOHAAL": 0.0,
                            "DDOAGBLBCEF": 0.0
                        },
                        "EIHGKLFJFDH": {
                            "$type": "NEDBFINNHHP",
                            "MONOAFEICPP": 0.05000000074505806,
                            "LEGMDANKMPK": 0.15000000596046448
                        }
                    },
                    "hitSceneTest": false,
                    "hitSceneType": "BlinkHitSceneTestByThreeSegments",
                    "limitY": 50.0
                },
                {
                    "$type": "FireEffect",
                    "healLimitedByCasterMaxHPRatio": "Eff_Monster_Vulture_Sacred_SacredAttack02_Warning",
                    "born": {
                        "$type": "BILMKOMKBEL",
                        "CJKCLAIPMHH": true
                    },
                    "JAOICKHDAKL": -1.0
                }
            ]
        }
    },
    {
        "Default": {
            "$type": "ConfigAbility",
            "abilityName": "Monster_Vulture_Sacred_Attack02_Blink",
            "modifiers": {
                "Kill_Summon_Gadget": {
                    "modifierName": "",
                    "bonusCritical": 100.0,
                    "onAdded": [
                        {
                            "$type": "KillSelf"
                        }
                    ]
                }
            },
            "onAbilityStart": [
                {
                    "$type": "DoBlink"
                },
                {
                    "$type": "Predicated",
                    "otherTargets": {
                        "$type": "OOMOJBAELMP",
                        "shapeName": "CircleR3",
                        "campTargetType": "Enemy",
                        "MAHBNNIIMMA": 1.0
                    },
                    "targetPredicates": [
                        {
                            "$type": "GDCNLCKIJBG",
                            "key": "_COMMON_GADGET_ISSUMMON",
                            "ratio": 0.0,
                            "AMOLMKMMOME": "MoreThan"
                        }
                    ],
                    "successActions": [
                        {
                            "$type": "ApplyModifier",
                            "target": "Target",
                            "modifierName": "Kill_Summon_Gadget"
                        }
                    ]
                }
            ]
        }
    },
    {
        "Default": {
            "$type": "ConfigAbility",
            "abilityName": "Monster_Vulture_Sacred_Attack04",
            "abilityMixins": [
                {
                    "$type": "AttachToStateIDMixin",
                    "stateIDs": [
                        "Sacred_Attack04_Loop",
                        "Sacred_Attack04_Loop_Extra"
                    ],
                    "modifierName": "BulletShoot"
                },
                {
                    "$type": "AttachToStateIDMixin",
                    "stateIDs": [
                        "Sacred_Attack04_Loop",
                        "Sacred_Attack04_Loop_Extra"
                    ],
                    "modifierName": "LoopEffect"
                },
                {
                    "$type": "AttachToStateIDMixin",
                    "stateIDs": [
                        "Sacred_Attack04_AS",
                        "Sacred_Attack04_BS"
                    ],
                    "modifierName": "ParamReset"
                }
            ],
            "abilitySpecials": {
                "MultiFactor": -1.0,
                "WingFactor": 1.0
            },
            "modifiers": {
                "LoopEffect": {
                    "modifierName": "",
                    "bonusCritical": 100.0,
                    "onAdded": [
                        {
                            "$type": "AttachEffect",
                            "healLimitedByCasterMaxHPRatio": "Eff_Monster_Vulture_Sacred_SacredAttack04_Loop",
                            "JAOICKHDAKL": -1.0
                        },
                        {
                            "$type": "AttachEffect",
                            "healLimitedByCasterMaxHPRatio": "Eff_Monster_Vulture_Sacred_SacredAttack04_Loop_WingL",
                            "JAOICKHDAKL": -1.0
                        },
                        {
                            "$type": "AttachEffect",
                            "healLimitedByCasterMaxHPRatio": "Eff_Monster_Vulture_Sacred_SacredAttack04_Loop_WingR",
                            "JAOICKHDAKL": -1.0
                        }
                    ]
                },
                "BulletShoot": {
                    "modifierName": "",
                    "bonusCritical": 100.0,
                    "thinkInterval": 0.30000001192092896,
                    "modifierMixins": [
                        {
                            "$type": "AttachActionToModifierMixin",
                            "onAdded": [
                                {
                                    "$type": "EnablePushColliderName",
                                    "pushColliderNames": [
                                        "PushCollider"
                                    ]
                                }
                            ],
                            "onRemoved": [
                                {
                                    "$type": "EnablePushColliderName",
                                    "pushColliderNames": [
                                        "PushCollider"
                                    ],
                                    "setEnable": true
                                }
                            ]
                        }
                    ],
                    "onThinkInterval": [
                        {
                            "$type": "TriggerBullet",
                            "bulletID": 42610017,
                            "born": {
                                "$type": "KDEPFKAAHCG",
                                "offset": {
                                    "HMHIOILIGBF": [
                                        0.0,
                                        2.5,
                                        "WingFactor",
                                        "MUL",
                                        "SUB"
                                    ],
                                    "DPPJGBOHAAL": 3.5999999046325684,
                                    "DDOAGBLBCEF": 1.5
                                },
                                "GDHMBIJKMEF": {
                                    "$type": "DFEHJKCDGHN",
                                    "PKNBBHPAKCG": {
                                        "HMHIOILIGBF": 90.0,
                                        "DPPJGBOHAAL": 0.0,
                                        "DDOAGBLBCEF": 0.0
                                    }
                                },
                                "FIOMHONCCNM": true
                            }
                        },
                        {
                            "$type": "SetOverrideMapValue",
                            "ratio": [
                                "WingFactor",
                                "MultiFactor",
                                "MUL"
                            ],
                            "overrideMapKey": "WingFactor"
                        }
                    ]
                },
                "ParamReset": {
                    "modifierName": "",
                    "duration": 0.5,
                    "bonusCritical": 100.0,
                    "onRemoved": [
                        {
                            "$type": "ResetAnimatorTrigger",
                            "triggerID": "LoopFlyTurn"
                        }
                    ]
                }
            }
        }
    },
    {
        "Default": {
            "$type": "ConfigAbility",
            "abilityName": "Monster_Vulture_Sacred_Attack04_Bullet",
            "modifiers": {
                "Attack04_Bullet": {
                    "modifierName": "",
                    "bonusCritical": 100.0,
                    "onAdded": [
                        {
                            "$type": "AttachEffect",
                            "healLimitedByCasterMaxHPRatio": "Eff_Monster_Vulture_Sacred_SacredAttack04_Bullet",
                            "JAOICKHDAKL": -1.0
                        },
                        {
                            "$type": "AttachEffect",
                            "healLimitedByCasterMaxHPRatio": "Eff_Monster_Vulture_Sacred_SacredAttack04_Bullet_Trail",
                            "JAOICKHDAKL": -1.0
                        }
                    ]
                }
            },
            "onAdded": [
                {
                    "$type": "AttachModifier",
                    "modifierName": "Attack04_Bullet"
                }
            ],
            "onAbilityStart": [
                {
                    "$type": "RemoveModifier",
                    "modifierName": "Attack04_Bullet"
                },
                {
                    "$type": "FireEffect",
                    "healLimitedByCasterMaxHPRatio": "Eff_Monster_Vulture_Sacred_SacredAttack04_BulletExplode",
                    "born": {
                        "$type": "GBFINJHCBPI"
                    },
                    "JAOICKHDAKL": -1.0
                },
                {
                    "$type": "TriggerAttackEvent",
                    "attackEvent": {
                        "attackPattern": {
                            "$type": "KKMHAMBPOBM",
                            "triggerType": "TriggerNoRepeat",
                            "born": {
                                "$type": "GBFINJHCBPI"
                            },
                            "DFMMIGEMOHH": 3.0
                        },
                        "attackInfo": {
                            "attackTag": "",
                            "attenuationTag": "",
                            "attenuationGroup": "default",
                            "attackProperty": {
                                "PCFAAPMOCGJ": 0.800000011920929,
                                "LCCBNOKMNFG": 0.0,
                                "elementType": "Fire",
                                "bonusCritical": 30.0,
                                "strikeType": "Blunt",
                                "enBreak": 200.0,
                                "attackType": "Range",
                                "FKGFPFNOJMN": 0.0
                            },
                            "hitPattern": {
                                "onHitEffectName": "default",
                                "hitImpulseType": "LV5"
                            },
                            "canBeModifiedBy": "OriginOwner"
                        }
                    },
                    "targetType": "Enemy"
                }
            ]
        }
    },
    {
        "Default": {
            "$type": "ConfigAbility",
            "abilityName": "Monster_Vulture_Sacred_Attack05_Bullet",
            "onAbilityStart": [
                {
                    "$type": "TriggerBullet",
                    "bulletID": 42610018,
                    "born": {
                        "$type": "IJCOFPNPJPK",
                        "offset": {
                            "HMHIOILIGBF": 0.0,
                            "DPPJGBOHAAL": 0.0,
                            "DDOAGBLBCEF": 0.0
                        },
                        "FIOMHONCCNM": true,
                        "attachPointName": "Root"
                    }
                }
            ]
        }
    },
    {
        "Default": {
            "$type": "ConfigAbility",
            "abilityName": "Monster_Vulture_Sacred_Attack05_BulletExplode",
            "onAbilityStart": [
                {
                    "$type": "TriggerAttackEvent",
                    "attackEvent": {
                        "attackPattern": {
                            "$type": "KKMHAMBPOBM",
                            "triggerType": "TriggerNoRepeat",
                            "born": {
                                "$type": "GBFINJHCBPI"
                            },
                            "DFMMIGEMOHH": 2.0
                        },
                        "attackInfo": {
                            "attackTag": "",
                            "attenuationTag": "Vulture_Sacred_Attack05",
                            "attenuationGroup": "Vulture_Sacred_Attack05",
                            "attackProperty": {
                                "PCFAAPMOCGJ": 0.5,
                                "LCCBNOKMNFG": 0.0,
                                "elementType": "Fire",
                                "bonusCritical": 50.0,
                                "strikeType": "Default",
                                "enBreak": 50.0,
                                "FKGFPFNOJMN": 0.0
                            },
                            "hitPattern": {
                                "onHitEffectName": "default",
                                "hitImpulseType": "LV3",
                                "hitHaltTimeScale": 0.009999999776482582
                            },
                            "canBeModifiedBy": "OriginOwner"
                        }
                    },
                    "targetType": "Enemy"
                },
                {
                    "$type": "FireSubEmitterEffect",
                    "healLimitedByCasterMaxHPRatio": "Eff_Monster_Vulture_Sacred_SacredAttack05_BulletExplode",
                    "born": {
                        "$type": "GBFINJHCBPI"
                    }
                }
            ]
        }
    },
    {
        "Default": {
            "$type": "ConfigAbility",
            "abilityName": "Monster_Vulture_Sacred_SacredEnergy_Accum"
        }
    },
    {
        "Default": {
            "$type": "ConfigAbility",
            "abilityName": "Monster_Vulture_Sacred_SacredEnergy_Detect",
            "onAbilityStart": [
                {
                    "$type": "SetGlobalPos",
                    "key": "_Sacred_SacredEnergy_Pos",
                    "born": {
                        "$type": "KDEPFKAAHCG",
                        "offset": {
                            "HMHIOILIGBF": 0.0,
                            "DPPJGBOHAAL": 0.0,
                            "DDOAGBLBCEF": 3.0
                        },
                        "FIOMHONCCNM": true
                    }
                },
                {
                    "$type": "TriggerBullet",
                    "bulletID": 42610021,
                    "born": {
                        "$type": "KDEPFKAAHCG",
                        "offset": {
                            "HMHIOILIGBF": 0.0,
                            "DPPJGBOHAAL": 1.0,
                            "DDOAGBLBCEF": 2.0
                        },
                        "FIOMHONCCNM": true
                    },
                    "BNCFPGNKKPA": true
                }
            ]
        }
    },
    {
        "Default": {
            "$type": "ConfigAbility",
            "abilityName": "Monster_Vulture_Sacred_SacredEnergy_Create",
            "modifiers": {
                "CreateSacredEnergy": {
                    "modifierName": "",
                    "duration": 0.10000000149011612,
                    "bonusCritical": 100.0,
                    "onAdded": [
                        {
                            "$type": "CopyGlobalValue",
                            "target": "Applier",
                            "dstTarget": "Self",
                            "srcKey": "_Sacred_SacredEnergy_Pos_0",
                            "dstKey": "_Sacred_SacredEnergy_Pos_0"
                        },
                        {
                            "$type": "CopyGlobalValue",
                            "target": "Applier",
                            "dstTarget": "Self",
                            "srcKey": "_Sacred_SacredEnergy_Pos_1",
                            "dstKey": "_Sacred_SacredEnergy_Pos_1"
                        },
                        {
                            "$type": "CopyGlobalValue",
                            "target": "Applier",
                            "dstTarget": "Self",
                            "srcKey": "_Sacred_SacredEnergy_Pos_2",
                            "dstKey": "_Sacred_SacredEnergy_Pos_2"
                        }
                    ],
                    "onRemoved": [
                        {
                            "$type": "CreateGadget",
                            "born": {
                                "$type": "LBFHLMJGELJ",
                                "LDPAKEFHAOK": "_Sacred_SacredEnergy_Pos",
                                "IDGILJNLJGN": ""
                            },
                            "sightGroupWithOwner": true,
                            "BNCFPGNKKPA": true,
                            "gadgetID": 42610019,
                            "campID": 4001,
                            "byServer": true
                        }
                    ]
                }
            },
            "onAbilityStart": [
                {
                    "$type": "SetGlobalPos",
                    "key": "_Sacred_SacredEnergy_Pos",
                    "born": {
                        "$type": "GBFINJHCBPI",
                        "CJKCLAIPMHH": true,
                        "JNDJNDJCGGC": true
                    }
                },
                {
                    "$type": "ApplyModifier",
                    "target": "OriginOwner",
                    "modifierName": "CreateSacredEnergy"
                },
                {
                    "$type": "KillSelf"
                }
            ]
        }
    },
    {
        "Default": {
            "$type": "ConfigAbility",
            "abilityName": "Monster_Vulture_Sacred_SacredEnergy_CreateO",
            "modifiers": {
                "CreateSacredEnergy": {
                    "modifierName": "",
                    "duration": 0.10000000149011612,
                    "bonusCritical": 100.0,
                    "onAdded": [
                        {
                            "$type": "CopyGlobalValue",
                            "target": "Applier",
                            "dstTarget": "Self",
                            "srcKey": "_Sacred_SacredEnergy_Pos_0",
                            "dstKey": "_Sacred_SacredEnergy_Pos_0"
                        },
                        {
                            "$type": "CopyGlobalValue",
                            "target": "Applier",
                            "dstTarget": "Self",
                            "srcKey": "_Sacred_SacredEnergy_Pos_1",
                            "dstKey": "_Sacred_SacredEnergy_Pos_1"
                        },
                        {
                            "$type": "CopyGlobalValue",
                            "target": "Applier",
                            "dstTarget": "Self",
                            "srcKey": "_Sacred_SacredEnergy_Pos_2",
                            "dstKey": "_Sacred_SacredEnergy_Pos_2"
                        }
                    ],
                    "onRemoved": [
                        {
                            "$type": "CreateGadget",
                            "born": {
                                "$type": "LBFHLMJGELJ",
                                "LDPAKEFHAOK": "_Sacred_SacredEnergy_Pos",
                                "IDGILJNLJGN": ""
                            },
                            "sightGroupWithOwner": true,
                            "BNCFPGNKKPA": true,
                            "gadgetID": 42610019,
                            "campID": 4001,
                            "byServer": true
                        }
                    ]
                }
            },
            "onAbilityStart": [
                {
                    "$type": "SetGlobalPos",
                    "key": "_Sacred_SacredEnergy_Pos",
                    "born": {
                        "$type": "KDEPFKAAHCG",
                        "CJKCLAIPMHH": true,
                        "JNDJNDJCGGC": true,
                        "FIOMHONCCNM": true
                    }
                },
                {
                    "$type": "ApplyModifier",
                    "target": "OriginOwner",
                    "modifierName": "CreateSacredEnergy"
                },
                {
                    "$type": "KillSelf"
                }
            ]
        }
    },
    {
        "Default": {
            "$type": "ConfigAbility",
            "abilityName": "Monster_Vulture_Sacred_SacredEnergy_Gadget",
            "modifiers": {
                "Create_Accum_Bullet": {
                    "modifierName": "",
                    "duration": 0.800000011920929,
                    "bonusCritical": 100.0,
                    "onAdded": [
                        {
                            "$type": "FireEffect",
                            "healLimitedByCasterMaxHPRatio": "Eff_Monster_Vulture_Sacred_SacredAttack05_SacredEnergy",
                            "JAOICKHDAKL": -1.0
                        }
                    ],
                    "onRemoved": [
                        {
                            "$type": "SetSelfAttackTarget",
                            "otherTargets": {
                                "$type": "JKGKIIOOINI",
                                "topLimit": 1,
                                "entityTypePriority": [
                                    "Gadget"
                                ],
                                "configID": 42610019
                            }
                        },
                        {
                            "$type": "TriggerBullet",
                            "target": "SelfAttackTarget",
                            "bulletID": 42610022,
                            "born": {
                                "$type": "KDEPFKAAHCG",
                                "FIOMHONCCNM": true
                            },
                            "BNCFPGNKKPA": true
                        },
                        {
                            "$type": "ResetAIAttackTarget"
                        }
                    ]
                },
                "DarkHoundGadget_DelayHandler_Effect": {
                    "modifierName": "",
                    "duration": 1.9500000476837158,
                    "bonusCritical": 100.0,
                    "onRemoved": [
                        {
                            "$type": "FireEffect",
                            "healLimitedByCasterMaxHPRatio": "Eff_Monster_Vulture_Sacred_SacredAttack05_SacredEnergy_Hit",
                            "JAOICKHDAKL": -1.0
                        }
                    ]
                },
                "DarkHoundGadget_DelayHandler": {
                    "modifierName": "",
                    "duration": 2.0,
                    "bonusCritical": 100.0,
                    "onRemoved": [
                        {
                            "$type": "ApplyModifier",
                            "modifierName": "DarkHoundGadget_ChargeState"
                        },
                        {
                            "$type": "EnablePushColliderName",
                            "pushColliderNames": [
                                "PushCollider"
                            ],
                            "setEnable": true
                        }
                    ]
                },
                "DarkHoundGadget_ChargeState": {
                    "modifierName": "",
                    "duration": 6.0,
                    "bonusCritical": 100.0,
                    "modifierMixins": [
                        {
                            "$type": "ChargeBarMixin",
                            "OOMFDJNACKP": "Fire",
                            "MEOGPHDFDGH": 0.0,
                            "maxValue": 10.0
                        },
                        {
                            "$type": "AttachModifierToSelfGlobalValueMixin",
                            "globalValueKey": "_CHARGEBAR_VALUE",
                            "defaultGlobalValueOnCreate": 0.0,
                            "valueSteps": [
                                9.5,
                                10.5
                            ],
                            "modifierNameSteps": [
                                "DarkHoundGadget_ChargeEnd"
                            ]
                        }
                    ],
                    "onAdded": [
                        {
                            "$type": "AttachEffect",
                            "healLimitedByCasterMaxHPRatio": "Eff_Monster_Vulture_Sacred_SacredEnergy",
                            "JAOICKHDAKL": -1.0
                        }
                    ],
                    "onRemoved": [
                        {
                            "$type": "EnableHitBoxByName",
                            "hitBoxNames": [
                                "HitBox"
                            ]
                        },
                        {
                            "$type": "EnablePushColliderName",
                            "pushColliderNames": [
                                "PushCollider_Occluder"
                            ]
                        },
                        {
                            "$type": "EnablePushColliderName",
                            "pushColliderNames": [
                                "PushCollider"
                            ]
                        },
                        {
                            "$type": "FireEffect",
                            "predicates": [
                                {
                                    "$type": "GDCNLCKIJBG",
                                    "target": "Self",
                                    "key": "_CHARGEBAR_VALUE",
                                    "ratio": 9.0,
                                    "AMOLMKMMOME": "LessAndEqual"
                                }
                            ],
                            "healLimitedByCasterMaxHPRatio": "Eff_Monster_Vulture_Sacred_SacredEnergyDisappear",
                            "JAOICKHDAKL": -1.0
                        },
                        {
                            "$type": "TriggerBullet",
                            "target": "OriginOwner",
                            "predicates": [
                                {
                                    "$type": "GDCNLCKIJBG",
                                    "target": "Self",
                                    "key": "_CHARGEBAR_VALUE",
                                    "ratio": 9.0,
                                    "AMOLMKMMOME": "LessAndEqual"
                                }
                            ],
                            "bulletID": 42610023,
                            "born": {
                                "$type": "IJCOFPNPJPK",
                                "offset": {
                                    "HMHIOILIGBF": 0.0,
                                    "DPPJGBOHAAL": 0.0,
                                    "DDOAGBLBCEF": 0.0
                                },
                                "GDHMBIJKMEF": {
                                    "$type": "CAMHJDKCEOP",
                                    "PKNBBHPAKCG": {
                                        "HMHIOILIGBF": 0.0,
                                        "DPPJGBOHAAL": 0.0,
                                        "DDOAGBLBCEF": 0.0
                                    },
                                    "attachPointName": "RootNode",
                                    "BKOJLOPLKJE": "Self"
                                },
                                "FIOMHONCCNM": true,
                                "attachPointName": "RootNode",
                                "BKOJLOPLKJE": "Self"
                            },
                            "trackTarget": "Target",
                            "BNCFPGNKKPA": true
                        },
                        {
                            "$type": "TriggerSetVisible"
                        },
                        {
                            "$type": "ApplyModifier",
                            "modifierName": "Gadget_Invincible"
                        },
                        {
                            "$type": "ApplyModifier",
                            "modifierName": "Gadget_DenyLockOn"
                        },
                        {
                            "$type": "ApplyModifier",
                            "modifierName": "Gadget_IsGhostToEnemy"
                        },
                        {
                            "$type": "ApplyModifier",
                            "modifierName": "Gadget_IsGhostToAllied"
                        }
                    ],
                    "onBeingHit": [
                        {
                            "$type": "SetSelfAttackTarget",
                            "target": "Target"
                        },
                        {
                            "$type": "FireEffect",
                            "healLimitedByCasterMaxHPRatio": "Eff_Monster_Vulture_Sacred_SacredEnergyBeHit",
                            "JAOICKHDAKL": -1.0
                        },
                        {
                            "$type": "AddChargeBarValue",
                            "predicates": [
                                {
                                    "$type": "CJHEKFGHCHC",
                                    "predicates": [
                                        {
                                            "$type": "KGMIBMPKJHG",
                                            "CLGGFMFPHJE": "Fire"
                                        }
                                    ]
                                }
                            ],
                            "ratio": 10.0,
                            "maxValue": 0.0,
                            "minValue": 0.0
                        },
                        {
                            "$type": "AddChargeBarValue",
                            "predicates": [
                                {
                                    "$type": "CJHEKFGHCHC",
                                    "predicates": [
                                        {
                                            "$type": "KGMIBMPKJHG",
                                            "CLGGFMFPHJE": "Wind"
                                        },
                                        {
                                            "$type": "KGMIBMPKJHG",
                                            "CLGGFMFPHJE": "Water"
                                        },
                                        {
                                            "$type": "KGMIBMPKJHG",
                                            "CLGGFMFPHJE": "Ice"
                                        },
                                        {
                                            "$type": "KGMIBMPKJHG",
                                            "CLGGFMFPHJE": "Electric"
                                        },
                                        {
                                            "$type": "KGMIBMPKJHG",
                                            "CLGGFMFPHJE": "Grass"
                                        },
                                        {
                                            "$type": "KGMIBMPKJHG",
                                            "CLGGFMFPHJE": "Rock"
                                        }
                                    ]
                                }
                            ],
                            "ratio": 1.6699999570846558,
                            "maxValue": 0.0,
                            "minValue": 0.0
                        }
                    ]
                },
                "Gadget_Invincible": {
                    "modifierName": "",
                    "bonusCritical": 100.0,
                    "state": "Invincible"
                },
                "Gadget_DenyLockOn": {
                    "modifierName": "",
                    "bonusCritical": 100.0,
                    "state": "DenyLockOn"
                },
                "Gadget_IsGhostToEnemy": {
                    "modifierName": "",
                    "bonusCritical": 100.0,
                    "state": "IsGhostToEnemy"
                },
                "Gadget_IsGhostToAllied": {
                    "modifierName": "",
                    "bonusCritical": 100.0,
                    "state": "IsGhostToAllied"
                },
                "DarkHoundGadget_ChargeEnd": {
                    "modifierName": "",
                    "bonusCritical": 100.0,
                    "onAdded": [
                        {
                            "$type": "ApplyModifier",
                            "modifierName": "FireHolyHound_Timer"
                        },
                        {
                            "$type": "EnableHitBoxByName",
                            "hitBoxNames": [
                                "HitBox"
                            ]
                        },
                        {
                            "$type": "RemoveModifier",
                            "modifierName": "DarkHoundGadget_ChargeState"
                        }
                    ]
                },
                "FireHolyHound_Timer": {
                    "modifierName": "",
                    "duration": 0.6499999761581421,
                    "bonusCritical": 100.0,
                    "onAdded": [
                        {
                            "$type": "Predicated",
                            "target": "Other",
                            "otherTargets": {
                                "$type": "OOMOJBAELMP",
                                "topLimit": 1,
                                "entityTypePriority": [
                                    "Avatar"
                                ],
                                "sortType": "Nearest",
                                "shapeName": "CircleR50",
                                "campTargetType": "Enemy",
                                "MAHBNNIIMMA": 1.0
                            },
                            "successActions": [
                                {
                                    "$type": "ApplyModifier",
                                    "target": "TargetTeam",
                                    "modifierName": "UNIQUE_Vulture_SacredEnergy_TargetTeam"
                                },
                                {
                                    "$type": "TriggerBullet",
                                    "target": "Target",
                                    "bulletID": 42610020,
                                    "born": {
                                        "$type": "IJCOFPNPJPK",
                                        "offset": {
                                            "HMHIOILIGBF": 0.0,
                                            "DPPJGBOHAAL": 0.0,
                                            "DDOAGBLBCEF": 0.0
                                        },
                                        "GDHMBIJKMEF": {
                                            "$type": "CAMHJDKCEOP",
                                            "PKNBBHPAKCG": {
                                                "HMHIOILIGBF": 0.0,
                                                "DPPJGBOHAAL": 0.0,
                                                "DDOAGBLBCEF": 0.0
                                            },
                                            "attachPointName": "RootNode",
                                            "BKOJLOPLKJE": "Self"
                                        },
                                        "FIOMHONCCNM": true,
                                        "attachPointName": "RootNode",
                                        "BKOJLOPLKJE": "Self"
                                    },
                                    "trackTarget": "Target",
                                    "BNCFPGNKKPA": true
                                }
                            ]
                        }
                    ]
                },
                "UNIQUE_Vulture_SacredEnergy_TargetTeam": {
                    "stacking": "Unique",
                    "modifierName": "",
                    "isUnique": true,
                    "duration": 10.0,
                    "bonusCritical": 100.0,
                    "modifierMixins": [
                        {
                            "$type": "CurLocalAvatarMixinV2",
                            "modifierName": "Vulture_SacredEnergy_Target"
                        }
                    ]
                },
                "Vulture_SacredEnergy_Target": {
                    "modifierName": "",
                    "bonusCritical": 100.0,
                    "onAdded": [
                        {
                            "$type": "SetGlobalValue",
                            "ratio": 1.0,
                            "key": "SacredEnergy_Target_Vulture",
                            "maxValue": 0.0,
                            "minValue": 0.0
                        }
                    ],
                    "onRemoved": [
                        {
                            "$type": "SetGlobalValue",
                            "ratio": 0.0,
                            "key": "SacredEnergy_Target_Vulture",
                            "maxValue": 0.0,
                            "minValue": 0.0
                        }
                    ]
                }
            },
            "onAdded": [
                {
                    "$type": "SetGlobalValue",
                    "ratio": 1.0,
                    "key": "Vulture_SacredEnergy_Gadget",
                    "maxValue": 0.0,
                    "minValue": 0.0
                },
                {
                    "$type": "ApplyModifier",
                    "target": "OriginOwner",
                    "modifierName": "Create_Accum_Bullet"
                },
                {
                    "$type": "ApplyModifier",
                    "modifierName": "DarkHoundGadget_DelayHandler"
                },
                {
                    "$type": "ApplyModifier",
                    "modifierName": "DarkHoundGadget_DelayHandler_Effect"
                },
                {
                    "$type": "SetGlobalValue",
                    "ratio": 0.0,
                    "key": "_CHARGEBAR_VALUE",
                    "maxValue": 0.0,
                    "minValue": 0.0
                },
                {
                    "$type": "EnablePushColliderName",
                    "pushColliderNames": [
                        "PushCollider_Occluder"
                    ],
                    "setEnable": true
                },
                {
                    "$type": "EnablePushColliderName",
                    "pushColliderNames": [
                        "PushCollider"
                    ]
                }
            ]
        }
    },
    {
        "Default": {
            "$type": "ConfigAbility",
            "abilityName": "Monster_Vulture_Sacred_SacredEnergy_BridgeToMonster",
            "modifiers": {
                "UNIQUE_Have_Vulture_SacredEnergy_Team": {
                    "timeScale": "Level",
                    "stacking": "Unique",
                    "modifierName": "",
                    "isUnique": true,
                    "duration": 10.0,
                    "bonusCritical": 100.0,
                    "thinkInterval": 1.0,
                    "modifierMixins": [
                        {
                            "$type": "CurLocalAvatarMixinV2",
                            "modifierName": "Have_Vulture_SacredEnergy"
                        },
                        {
                            "$type": "AttachModifierToGlobalValueMixin",
                            "globalValueTarget": "Applier",
                            "globalValueKey": "SacredEntityDie",
                            "valueSteps": [
                                0.5,
                                1.5
                            ],
                            "modifierNameSteps": [
                                "ClearSacredBuff_Vulture"
                            ]
                        }
                    ],
                    "state": "UnlockFrequencyLimit",
                    "onAdded": [
                        {
                            "$type": "RemoveUniqueModifier",
                            "target": "Team",
                            "modifierName": "UNIQUE_Vulture_SacredEnergy_TargetTeam"
                        }
                    ],
                    "onThinkInterval": [
                        {
                            "$type": "LoseHP",
                            "target": "CurTeamAvatars",
                            "cdDelta": true,
                            "predicates": [
                                {
                                    "$type": "ENGOLHMOGBK"
                                },
                                {
                                    "$type": "KHIEIPGNOHJ",
                                    "predicates": [
                                        {
                                            "$type": "ADDEFHJEEOH"
                                        }
                                    ]
                                }
                            ],
                            "GGLMMJHNGMO": 0.019999999552965164,
                            "lethal": false,
                            "enableInvincible": true,
                            "enableLockHP": true,
                            "disableWhenLoading": true,
                            "amountByTargetCurrentHPRatio": true,
                            "amountByCasterMaxHPRatio": ""
                        },
                        {
                            "$type": "RemoveUniqueModifier",
                            "predicates": [
                                {
                                    "$type": "KHIEIPGNOHJ",
                                    "predicates": [
                                        {
                                            "$type": "HKHCENMGHLH",
                                            "target": "Applier"
                                        }
                                    ]
                                }
                            ],
                            "modifierName": "UNIQUE_Have_Vulture_SacredEnergy_Team"
                        }
                    ],
                    "OLIDLOMEEFB": true,
                    "IDPPMICCHAI": [
                        "Corruption"
                    ]
                },
                "ClearSacredBuff_Vulture": {
                    "modifierName": "",
                    "duration": 1.0,
                    "bonusCritical": 100.0,
                    "onAdded": [
                        {
                            "$type": "RemoveUniqueModifier",
                            "target": "Team",
                            "modifierName": "UNIQUE_Vulture_SacredEnergy_TargetTeam"
                        },
                        {
                            "$type": "RemoveUniqueModifier",
                            "target": "Team",
                            "modifierName": "UNIQUE_Have_Vulture_SacredEnergy_Team"
                        }
                    ],
                    "onRemoved": [
                        {
                            "$type": "RemoveUniqueModifier",
                            "target": "Team",
                            "modifierName": "UNIQUE_Vulture_SacredEnergy_TargetTeam"
                        },
                        {
                            "$type": "RemoveUniqueModifier",
                            "target": "Team",
                            "modifierName": "UNIQUE_Have_Vulture_SacredEnergy_Team"
                        }
                    ]
                },
                "Have_Vulture_SacredEnergy": {
                    "modifierName": "",
                    "bonusCritical": 100.0,
                    "onAdded": [
                        {
                            "$type": "SetGlobalValue",
                            "ratio": 1.0,
                            "key": "SacredEnergy_Vulture",
                            "maxValue": 0.0,
                            "minValue": 0.0
                        },
                        {
                            "$type": "AttachEffect",
                            "healLimitedByCasterMaxHPRatio": "Eff_Monster_Vulture_Sacred_SacredEnergyOnPlayer",
                            "JAOICKHDAKL": -1.0
                        }
                    ],
                    "onRemoved": [
                        {
                            "$type": "SetGlobalValue",
                            "ratio": 0.0,
                            "key": "SacredEnergy_Vulture",
                            "maxValue": 0.0,
                            "minValue": 0.0
                        }
                    ],
                    "onAttackLanded": [
                        {
                            "$type": "Predicated",
                            "target": "Other",
                            "targetPredicates": [
                                {
                                    "$type": "GDCNLCKIJBG",
                                    "key": "Monster_Vulture_Sacred",
                                    "ratio": 1.0
                                },
                                {
                                    "$type": "HDOFEAAHAKF",
                                    "entityTypes": [
                                        "Monster"
                                    ]
                                },
                                {
                                    "$type": "KAGNELIEMKD",
                                    "attackTags": [
                                        "NormalAttack_01",
                                        "NormalAttack_02",
                                        "NormalAttack_03",
                                        "NormalAttack_04",
                                        "NormalAttack_05",
                                        "NormalAttack_06",
                                        "ExtraAttack",
                                        "FallingAttack",
                                        "Elemental_Art",
                                        "Elemental_Art_Hold",
                                        "Elemental_Art_Extra",
                                        "Elemental_Burst"
                                    ]
                                },
                                {
                                    "$type": "GDCNLCKIJBG",
                                    "target": "Self",
                                    "key": "SacredEnergy_Vulture",
                                    "ratio": 1.0
                                }
                            ],
                            "successActions": [
                                {
                                    "$type": "DoWatcherSystemStageAction",
                                    "watcherId": 82162,
                                    "authorityOnly": true,
                                    "stage": 2
                                },
                                {
                                    "$type": "ApplyModifier",
                                    "target": "Other",
                                    "modifierName": "UNIQUE_SacredBeHit_Vulture"
                                },
                                {
                                    "$type": "RemoveUniqueModifier",
                                    "target": "Team",
                                    "modifierName": "UNIQUE_Have_Vulture_SacredEnergy_Team"
                                }
                            ]
                        }
                    ]
                },
                "UNIQUE_SacredBeHit_Vulture": {
                    "stacking": "Unique",
                    "modifierName": "",
                    "isUnique": true,
                    "duration": 0.20000000298023224,
                    "bonusCritical": 100.0,
                    "onAdded": [
                        {
                            "$type": "SetAnimatorTrigger",
                            "predicates": [
                                {
                                    "$type": "KHIEIPGNOHJ",
                                    "predicates": [
                                        {
                                            "$type": "BBHMIIEHHMO",
                                            "target": "Self",
                                            "logic": "Equal",
                                            "ratio": 203.0,
                                            "parameter": "PoseID"
                                        }
                                    ]
                                }
                            ],
                            "triggerID": "WeakTrigger",
                            "MPTriggerOnRemote": true
                        },
                        {
                            "$type": "FireEffect",
                            "healLimitedByCasterMaxHPRatio": "Eff_Monster_Vulture_Sacred_ScaredBeHit",
                            "JAOICKHDAKL": -1.0
                        },
                        {
                            "$type": "LoseHP",
                            "GGLMMJHNGMO": 0.15000000596046448,
                            "amountByCasterMaxHPRatio": ""
                        }
                    ]
                }
            },
            "onAbilityStart": [
                {
                    "$type": "Predicated",
                    "otherTargets": {
                        "$type": "OOMOJBAELMP",
                        "topLimit": 1,
                        "entityTypePriority": [
                            "Avatar"
                        ],
                        "sortType": "Nearest",
                        "shapeName": "CircleR100",
                        "campTargetType": "Enemy",
                        "MAHBNNIIMMA": 1.0
                    },
                    "predicates": [
                        {
                            "$type": "GDCNLCKIJBG",
                            "key": "SacredEnergy_Target_Vulture",
                            "ratio": 1.0
                        }
                    ],
                    "successActions": [
                        {
                            "$type": "ApplyModifier",
                            "target": "TargetTeam",
                            "modifierName": "UNIQUE_Have_Vulture_SacredEnergy_Team"
                        }
                    ]
                }
            ]
        }
    },
    {
        "Default": {
            "$type": "ConfigAbility",
            "abilityName": "Monster_Vulture_Sacred_SacredEnergy_Bullet",
            "modifiers": {
                "HolyHoundBullet_Effect": {
                    "modifierName": "",
                    "bonusCritical": 100.0,
                    "onAdded": [
                        {
                            "$type": "AttachEffect",
                            "healLimitedByCasterMaxHPRatio": "Eff_Monster_Vulture_Sacred_SacredEnergyBullet",
                            "JAOICKHDAKL": -1.0
                        }
                    ]
                },
                "TriggerLogicSacredEnergy": {
                    "stacking": "Unique",
                    "modifierName": "",
                    "duration": 1.0,
                    "bonusCritical": 100.0,
                    "onAdded": [
                        {
                            "$type": "TriggerAbility",
                            "abilityName": "Monster_Vulture_Sacred_SacredEnergy_BridgeToMonster"
                        }
                    ]
                }
            },
            "onAdded": [
                {
                    "$type": "ApplyModifier",
                    "modifierName": "HolyHoundBullet_Effect"
                }
            ],
            "onAbilityStart": [
                {
                    "$type": "Predicated",
                    "target": "Target",
                    "targetPredicates": [
                        {
                            "$type": "GDCNLCKIJBG",
                            "key": "SacredEnergy_Target_Vulture",
                            "ratio": 1.0
                        }
                    ],
                    "successActions": [
                        {
                            "$type": "ApplyModifier",
                            "target": "OriginOwner",
                            "modifierName": "TriggerLogicSacredEnergy"
                        },
                        {
                            "$type": "FireEffect",
                            "target": "Target",
                            "predicates": [
                                {
                                    "$type": "HKHCENMGHLH"
                                }
                            ],
                            "healLimitedByCasterMaxHPRatio": "Eff_Monster_Vulture_Sacred_SacredEnergyHitPlayer",
                            "born": {
                                "$type": "EOGLEDIIGHF",
                                "FIOMHONCCNM": true
                            },
                            "JAOICKHDAKL": -1.0
                        },
                        {
                            "$type": "RemoveModifier",
                            "modifierName": "HolyHoundBullet_Effect"
                        },
                        {
                            "$type": "KillSelf"
                        }
                    ]
                }
            ]
        }
    },
    {
        "Default": {
            "$type": "ConfigAbility",
            "abilityName": "Monster_Vulture_Sacred_SacredEnergy_Bullet_ToMonster",
            "modifiers": {
                "SacredEnergyRecoverLabel": {
                    "modifierName": "",
                    "duration": 0.20000000298023224,
                    "bonusCritical": 100.0,
                    "onAdded": [
                        {
                            "$type": "SetGlobalValue",
                            "predicates": [
                                {
                                    "$type": "CJHEKFGHCHC",
                                    "predicates": [
                                        {
                                            "$type": "BBHMIIEHHMO",
                                            "target": "Self",
                                            "logic": "Equal",
                                            "ratio": 201.0,
                                            "parameter": "PoseID"
                                        },
                                        {
                                            "$type": "BBHMIIEHHMO",
                                            "target": "Self",
                                            "logic": "Equal",
                                            "ratio": 203.0,
                                            "parameter": "PoseID"
                                        }
                                    ]
                                }
                            ],
                            "ratio": 1.0,
                            "key": "SacredEnergy_Recover_Vulture",
                            "maxValue": 0.0,
                            "minValue": 0.0
                        }
                    ]
                },
                "HolyHoundBullet_Effect": {
                    "modifierName": "",
                    "bonusCritical": 100.0,
                    "onAdded": [
                        {
                            "$type": "AttachEffect",
                            "healLimitedByCasterMaxHPRatio": "Eff_Monster_Vulture_Sacred_SacredEnergyBullet",
                            "JAOICKHDAKL": -1.0
                        }
                    ]
                }
            },
            "onAdded": [
                {
                    "$type": "ApplyModifier",
                    "modifierName": "HolyHoundBullet_Effect"
                }
            ],
            "onAbilityStart": [
                {
                    "$type": "Predicated",
                    "target": "Target",
                    "targetPredicates": [
                        {
                            "$type": "GDCNLCKIJBG",
                            "key": "Monster_Vulture_Sacred",
                            "ratio": 1.0
                        },
                        {
                            "$type": "GDCNLCKIJBG",
                            "key": "_SACRED_ENTITY_ALERTNESS_TAG_",
                            "ratio": 1.0
                        }
                    ],
                    "successActions": [
                        {
                            "$type": "ApplyModifier",
                            "target": "Target",
                            "modifierName": "SacredEnergyRecoverLabel"
                        },
                        {
                            "$type": "FireEffect",
                            "target": "Target",
                            "healLimitedByCasterMaxHPRatio": "Eff_Monster_Vulture_Sacred_SacredEnergyHitMonster",
                            "JAOICKHDAKL": -1.0
                        },
                        {
                            "$type": "KillSelf"
                        }
                    ]
                },
                {
                    "$type": "Predicated",
                    "target": "Target",
                    "targetPredicates": [
                        {
                            "$type": "GDCNLCKIJBG",
                            "key": "Monster_Vulture_Sacred",
                            "ratio": 1.0
                        },
                        {
                            "$type": "GDCNLCKIJBG",
                            "key": "_SACRED_ENTITY_ALERTNESS_TAG_",
                            "ratio": 0.0,
                            "AMOLMKMMOME": "NoneOrEqual"
                        }
                    ],
                    "successActions": [
                        {
                            "$type": "KillSelf"
                        }
                    ]
                }
            ]
        }
    },
    {
        "Default": {
            "$type": "ConfigAbility",
            "abilityName": "Monster_Vulture_Sacred_EnhanceDefence",
            "abilityMixins": [
                {
                    "$type": "AttachToPoseIDMixin",
                    "poseIDs": [
                        202
                    ],
                    "modifierName": "Vulture_Sacred_EnhanceDefence"
                }
            ],
            "modifiers": {
                "Vulture_Sacred_FrozenResistance": {
                    "modifierName": "",
                    "bonusCritical": 100.0,
                    "onAdded": [
                        {
                            "$type": "AttachAbilityStateResistance",
                            "resistanceListID": 14002,
                            "durationRatio": 0.5
                        }
                    ]
                },
                "Vulture_Sacred_EnhanceDefence": {
                    "modifierName": "",
                    "bonusCritical": 100.0,
                    "properties": {
                        "Actor_PhysicalSubHurtDelta": 0.30000001192092896,
                        "Actor_FireSubHurtDelta": 0.6000000238418579,
                        "Actor_ElecSubHurtDelta": 0.30000001192092896,
                        "Actor_WaterSubHurtDelta": 0.30000001192092896,
                        "Actor_GrassSubHurtDelta": 0.30000001192092896,
                        "Actor_WindSubHurtDelta": 0.30000001192092896,
                        "Actor_IceSubHurtDelta": 0.30000001192092896,
                        "Actor_RockSubHurtDelta": 0.30000001192092896
                    }
                }
            },
            "onAdded": [
                {
                    "$type": "AttachModifier",
                    "modifierName": "Vulture_Sacred_FrozenResistance"
                }
            ]
        }
    }
]