{
    "luaDataPath": "",
    "startBlackKeepTime": 1.0,
    "entityBan": "",
    "disableNpcLod": true,
    "startFade": {
        "startFadeInDuration": 0.30000001192092896,
        "startFadeOutDuration": 0.5
    },
    "endFade": {
        "startFadeOutDuration": 0.0
    },
    "actors": [
        {
            "alias": "Avatar",
            "visible": true,
            "bornPointName": "Q19045Player1",
            "relativePosNpcAlias": "",
            "bindMovingTargetKey": ""
        },
        {
            "configID": 1024,
            "alias": "1024",
            "visible": true,
            "bornPointName": "Q19045Bennett1",
            "relativePosNpcAlias": "",
            "bindMovingTargetKey": ""
        }
    ],
    "group": [
        [
            {
                "$type": "MoleMole.Config.ConfigEmotionTemplateAction",
                "type": "EMOTION_TEMPLATE",
                "aliasList": [
                    "1024"
                ],
                "emoTemplateID": 10100
            },
            {
                "$type": "IBPNIIGAIPF",
                "type": "LOOK_AT",
                "aliasList": [
                    "1024"
                ],
                "KIPMIDIKECP": "",
                "AHLPNEGAKGG": "CAMERA",
                "HJJAFGPMJNJ": "",
                "AOFBAGFCGPJ": ""
            },
            {
                "$type": "MoleMole.Config.ConfigTimeProtectAction",
                "type": "TIME_PROTECT",
                "duration": 0.30000001192092896
            },
            {
                "$type": "MoleMole.Config.ConfigSimpleBlackScreenAction",
                "type": "SIMPLE_BLACK_SCREEN",
                "duration": 1.2000000476837158,
                "durationToBlack": 0.30000001192092896,
                "durationKeepBlack": 0.5,
                "durationFromBlack": 0.30000001192092896,
                "textMapID": ""
            },
            {
                "$type": "CCEEIGNAILH",
                "type": "DIALOG_CLEAR",
                "delayTime": 0.30000001192092896
            },
            {
                "$type": "BCJBNCJOPCE",
                "type": "CAMERA_MOVE",
                "delayTime": 0.30000001192092896,
                "KNAICGCGOHN": "RELATIVE_TO_TARGET_ENTITY",
                "KOPGEAIDOOE": "RELATIVE_TO_TARGET_ENTITY",
                "LIGHLBKBDEI": 30.0,
                "GFIOJGJJGCN": 6,
                "ABAEPHOGOFF": "EaseInOutCubic",
                "KFDBMBFFANN": {},
                "KIPMIDIKECP": "1024",
                "BDLGHOJPJHD": "",
                "LCOJGFEOLCK": "",
                "BBBGAEDCJEL": ""
            },
            {
                "$type": "MoleMole.Config.ConfigVisibleInterAction",
                "type": "VISIBLE",
                "delayTime": 0.5249999761581421,
                "aliasList": [
                    "Avatar"
                ],
                "extraParam": ""
            }
        ],
        [
            {
                "$type": "MoleMole.Config.ConfigEmotionTemplateAction",
                "type": "EMOTION_TEMPLATE",
                "aliasList": [
                    "1024"
                ],
                "emoTemplateID": 10100
            },
            {
                "$type": "DNAEECJNBFB",
                "type": "EMO_SYNC",
                "aliasList": [
                    "1024"
                ],
                "EOGJDJKPPGE": "Cs_Emo_Avatar_Simple_Common_Set/Cs_Emo_Avatar_Talk/Cs_Emo_Coop_Common/Cs_Emo_Coop_Bennett_01/Cs_Emo_1904501101",
                "IHCBGPABDLE": "",
                "CIKPDMODFPL": "",
                "HDIAHFFHNGE": "",
                "BOAAGJEEFDD": "",
                "PFDPJKHPADE": "",
                "DALINBJAHOC": [
                    135050162799850425,
                    16570434316894631431,
                    4551927032807726039,
                    16454845508194035173
                ]
            },
            {
                "$type": "BCJBNCJOPCE",
                "type": "CAMERA_MOVE",
                "duration": 1.0,
                "KNAICGCGOHN": "RELATIVE_TO_TARGET_ENTITY",
                "KOPGEAIDOOE": "RELATIVE_TO_TARGET_ENTITY",
                "LIGHLBKBDEI": 30.0,
                "GFIOJGJJGCN": 6,
                "ABAEPHOGOFF": "EaseInOutCubic",
                "KFDBMBFFANN": {},
                "KIPMIDIKECP": "1024",
                "BDLGHOJPJHD": "",
                "LCOJGFEOLCK": "",
                "BBBGAEDCJEL": ""
            },
            {
                "$type": "CCEEIGNAILH",
                "type": "DIALOG",
                "aliasList": [
                    "1024"
                ],
                "KICBIOMGHIN": 1904501101
            }
        ],
        [
            {
                "$type": "DNAEECJNBFB",
                "type": "EMO_SYNC",
                "aliasList": [
                    "1024"
                ],
                "EOGJDJKPPGE": "Cs_Emo_Avatar_Simple_Common_Set/Cs_Emo_Avatar_Talk/Cs_Emo_Coop_Common/Cs_Emo_Coop_Bennett_01/Cs_Emo_1904501102",
                "IHCBGPABDLE": "",
                "CIKPDMODFPL": "",
                "HDIAHFFHNGE": "",
                "BOAAGJEEFDD": "",
                "PFDPJKHPADE": "",
                "DALINBJAHOC": [
                    1363550452251318631,
                    1778157163009915505,
                    8128702173877446817,
                    15409865849694427247
                ]
            },
            {
                "$type": "MoleMole.Config.ConfigEmotionTemplateAction",
                "type": "EMOTION_TEMPLATE",
                "aliasList": [
                    "1024"
                ],
                "emoTemplateID": 10101
            },
            {
                "$type": "CCEEIGNAILH",
                "type": "DIALOG",
                "aliasList": [
                    "1024"
                ],
                "KICBIOMGHIN": 1904501102
            }
        ],
        [
            {
                "$type": "DNAEECJNBFB",
                "type": "EMO_SYNC",
                "aliasList": [
                    "1024"
                ],
                "EOGJDJKPPGE": "Cs_Emo_Avatar_Simple_Common_Set/Cs_Emo_Avatar_Talk/Cs_Emo_Coop_Common/Cs_Emo_Coop_Bennett_01/Cs_Emo_1904501103",
                "IHCBGPABDLE": "",
                "CIKPDMODFPL": "",
                "HDIAHFFHNGE": "",
                "BOAAGJEEFDD": "",
                "PFDPJKHPADE": "",
                "DALINBJAHOC": [
                    10994192264751602869,
                    11024662373318907171,
                    7235684997098846155,
                    3383045531128508468
                ]
            },
            {
                "$type": "MoleMole.Config.ConfigEmotionTemplateAction",
                "type": "EMOTION_TEMPLATE",
                "aliasList": [
                    "1024"
                ],
                "emoTemplateID": 10100
            },
            {
                "$type": "CCEEIGNAILH",
                "type": "DIALOG",
                "aliasList": [
                    "1024"
                ],
                "KICBIOMGHIN": 1904501103
            }
        ],
        [
            {
                "$type": "MoleMole.Config.ConfigTimeProtectAction",
                "type": "TIME_PROTECT",
                "duration": 0.10000000149011612
            },
            {
                "$type": "MoleMole.Config.ConfigSimpleBlackScreenAction",
                "type": "SIMPLE_BLACK_SCREEN",
                "durationToBlack": 0.5,
                "durationKeepBlack": 1.0,
                "durationFromBlack": 0.5,
                "textMapID": ""
            },
            {
                "$type": "MoleMole.Config.ConfigVisibleInterAction",
                "type": "VISIBLE",
                "delayTime": 0.2669999897480011,
                "aliasList": [
                    "Avatar"
                ],
                "isVisible": true,
                "extraParam": ""
            },
            {
                "$type": "CNBNGFNKLGP",
                "type": "STEER_TO",
                "delayTime": 0.30000001192092896,
                "DEMFHGAIELL": "ABSOLUTE",
                "COJBPJMLIFM": true,
                "NLIKMFJCLBP": true,
                "KIPMIDIKECP": "",
                "AOFBAGFCGPJ": ""
            },
            {
                "$type": "MoleMole.Config.ConfigVisibleInterAction",
                "type": "VISIBLE",
                "delayTime": 0.30000001192092896,
                "isVisible": true,
                "extraParam": ""
            }
        ]
    ],
    "groupId": [
        {
            "grpId": 886561217,
            "nextGrpId": 886561218
        },
        {
            "index": 1,
            "grpId": 886561218,
            "nextGrpId": 886561219
        },
        {
            "index": 2,
            "grpId": 886561219,
            "nextGrpId": 886561220
        },
        {
            "index": 3,
            "grpId": 886561220,
            "nextGrpId": 886561221
        },
        {
            "index": 4,
            "grpId": 886561221,
            "nextGrpId": 886561222
        }
    ],
    "freeStyleDic": {
        "1024": [
            10100,
            10101
        ]
    }
}