{
    "luaDataPath": "",
    "startBlackKeepTime": 1.0,
    "entityBan": "",
    "disableNpcLod": true,
    "startFade": {
        "startFadeInDuration": 0.5,
        "startFadeOutDuration": 0.5
    },
    "endFade": {
        "startFadeOutDuration": 0.0
    },
    "actors": [
        {
            "alias": "Avatar",
            "visible": true,
            "bornPointName": "WQ-7227401",
            "relativePosNpcAlias": "",
            "bindMovingTargetKey": ""
        },
        {
            "configID": 10324,
            "alias": "10324",
            "visible": true,
            "bornPointName": "",
            "relativePosNpcAlias": "",
            "bindMovingTargetKey": ""
        },
        {
            "configID": 12212,
            "alias": "12212",
            "visible": true,
            "bornPointName": "",
            "relativePosNpcAlias": "",
            "bindMovingTargetKey": ""
        },
        {
            "configID": 1005,
            "alias": "1005",
            "visible": true,
            "bornPointName": "",
            "useRelativePos": true,
            "relativePos": {
                "x": -0.5,
                "z": 0.5
            },
            "removeActorType": "REMOVE_WITH_DISAPPEAR",
            "relativePosNpcAlias": "",
            "bindMovingTargetKey": ""
        }
    ],
    "group": [
        [
            {
                "$type": "IBPNIIGAIPF",
                "type": "LOOK_AT",
                "aliasList": [
                    "Avatar"
                ],
                "GGIENKFBOGL": true,
                "useTargetPos": true,
                "GCOONJBHNIM": true,
                "JHNJNNOPJKG": {
                    "x": 12.055000305175781,
                    "y": 72.65399932861328,
                    "z": -89.56500244140625
                },
                "NDOMJCOFKDJ": 0.5,
                "KIPMIDIKECP": "",
                "AHLPNEGAKGG": "NONE",
                "HJJAFGPMJNJ": "",
                "AOFBAGFCGPJ": ""
            },
            {
                "$type": "MoleMole.Config.ConfigTeleportToAction",
                "type": "TELEPORT_TO",
                "aliasList": [
                    "1005"
                ],
                "position": {
                    "x": 11.270999908447266,
                    "y": 71.27999877929688,
                    "z": -90.6760025024414
                },
                "forward": {
                    "x": 1.184000015258789,
                    "z": 1.9490000009536743
                },
                "openLongDisTeleport": true,
                "posBindMovingTargetKey": "",
                "forwardBindMovingTargetKey": ""
            },
            {
                "$type": "IBPNIIGAIPF",
                "type": "LOOK_AT",
                "aliasList": [
                    "1005"
                ],
                "GGIENKFBOGL": true,
                "useTargetPos": true,
                "GCOONJBHNIM": true,
                "JHNJNNOPJKG": {
                    "x": 12.055000305175781,
                    "y": 72.65399932861328,
                    "z": -89.56500244140625
                },
                "NDOMJCOFKDJ": 0.5,
                "KIPMIDIKECP": "",
                "AHLPNEGAKGG": "NONE",
                "HJJAFGPMJNJ": "",
                "AOFBAGFCGPJ": ""
            },
            {
                "$type": "MoleMole.Config.ConfigTimeProtectAction",
                "type": "TIME_PROTECT",
                "duration": 0.10000000149011612
            },
            {
                "$type": "MoleMole.Config.ConfigBlackScreenAction",
                "type": "BLACK_SCREEN",
                "blackScreenType": "KEEP_BLACK",
                "durationKeepBlack": 0.5,
                "inteePos": "",
                "textMapID": "",
                "useTextFade": true
            },
            {
                "$type": "MoleMole.Config.ConfigTeleportToAction",
                "type": "TELEPORT_TO",
                "aliasList": [
                    "Avatar"
                ],
                "position": {
                    "x": 12.166000366210938,
                    "y": 71.27999877929688,
                    "z": -90.79499816894531
                },
                "forward": {
                    "x": -0.41200000047683716,
                    "z": 2.0179998874664307
                },
                "openLongDisTeleport": true,
                "posBindMovingTargetKey": "",
                "forwardBindMovingTargetKey": ""
            }
        ],
        [
            {
                "$type": "MoleMole.Config.ConfigBlackScreenAction",
                "type": "BLACK_SCREEN",
                "blackScreenType": "FROM_BLACK",
                "durationFromBlack": 0.5,
                "inteePos": "",
                "textMapID": "",
                "useTextFade": true
            },
            {
                "$type": "CCEEIGNAILH",
                "type": "DIALOG",
                "aliasList": [
                    "1005"
                ],
                "KICBIOMGHIN": 722740110,
                "PNCCODDABKI": 2.0
            },
            {
                "$type": "BCJBNCJOPCE",
                "type": "CAMERA_MOVE",
                "duration": 0.10000000149011612,
                "AKFGKKEOEFA": {
                    "x": 17.48200035095215,
                    "y": 75.69999694824219,
                    "z": -84.27899932861328
                },
                "NGEBMAEFFGJ": {
                    "x": 16.80500030517578,
                    "y": 75.22699737548828,
                    "z": -84.84200286865234
                },
                "GFIOJGJJGCN": 6,
                "ABAEPHOGOFF": "EaseInOutCubic",
                "KFDBMBFFANN": {},
                "IEJBKHHEJEN": true,
                "CEDHIBLHMKP": false,
                "KIPMIDIKECP": "",
                "ANFHNPOCMNI": true,
                "BDLGHOJPJHD": "",
                "LCOJGFEOLCK": "",
                "BBBGAEDCJEL": ""
            },
            {
                "$type": "BCJBNCJOPCE",
                "type": "CAMERA_MOVE",
                "delayTime": 0.03700000047683716,
                "duration": 8.11299991607666,
                "AKFGKKEOEFA": {
                    "x": 18.006000518798828,
                    "y": 75.05000305175781,
                    "z": -84.68299865722656
                },
                "NGEBMAEFFGJ": {
                    "x": 17.26099967956543,
                    "y": 74.64199829101562,
                    "z": -85.20999908447266
                },
                "ABAEPHOGOFF": "EaseOutQuad",
                "KFDBMBFFANN": {},
                "IEJBKHHEJEN": true,
                "CEDHIBLHMKP": false,
                "KIPMIDIKECP": "",
                "ANFHNPOCMNI": true,
                "BDLGHOJPJHD": "",
                "LCOJGFEOLCK": "",
                "BBBGAEDCJEL": ""
            },
            {
                "$type": "IBPNIIGAIPF",
                "type": "LOOK_AT",
                "delayTime": 1.1059999465942383,
                "aliasList": [
                    "1005"
                ],
                "GGIENKFBOGL": true,
                "useTargetPos": true,
                "GCOONJBHNIM": true,
                "JHNJNNOPJKG": {
                    "x": 11.071000099182129,
                    "y": 73.14199829101562,
                    "z": -88.83599853515625
                },
                "NDOMJCOFKDJ": 0.4000000059604645,
                "KIPMIDIKECP": "",
                "AHLPNEGAKGG": "NONE",
                "HJJAFGPMJNJ": "",
                "AOFBAGFCGPJ": ""
            },
            {
                "$type": "IBPNIIGAIPF",
                "type": "LOOK_AT",
                "delayTime": 2.507999897003174,
                "aliasList": [
                    "Avatar"
                ],
                "GGIENKFBOGL": true,
                "useTargetPos": true,
                "GCOONJBHNIM": true,
                "JHNJNNOPJKG": {
                    "x": 13.237000465393066,
                    "y": 73.2300033569336,
                    "z": -88.4530029296875
                },
                "NDOMJCOFKDJ": 0.4000000059604645,
                "KIPMIDIKECP": "",
                "AHLPNEGAKGG": "NONE",
                "HJJAFGPMJNJ": "",
                "AOFBAGFCGPJ": ""
            },
            {
                "$type": "IBPNIIGAIPF",
                "type": "LOOK_AT",
                "delayTime": 3.184999942779541,
                "aliasList": [
                    "1005"
                ],
                "GGIENKFBOGL": true,
                "useTargetPos": true,
                "GCOONJBHNIM": true,
                "JHNJNNOPJKG": {
                    "x": 11.866999626159668,
                    "y": 73.14199829101562,
                    "z": -90.02999877929688
                },
                "NDOMJCOFKDJ": 0.4000000059604645,
                "KIPMIDIKECP": "",
                "AHLPNEGAKGG": "NONE",
                "HJJAFGPMJNJ": "",
                "AOFBAGFCGPJ": ""
            },
            {
                "$type": "IBPNIIGAIPF",
                "type": "LOOK_AT",
                "delayTime": 4.59499979019165,
                "aliasList": [
                    "Avatar"
                ],
                "GGIENKFBOGL": true,
                "useTargetPos": true,
                "GCOONJBHNIM": true,
                "JHNJNNOPJKG": {
                    "x": 10.996999740600586,
                    "y": 73.14199829101562,
                    "z": -89.05000305175781
                },
                "NDOMJCOFKDJ": 0.4000000059604645,
                "KIPMIDIKECP": "",
                "AHLPNEGAKGG": "NONE",
                "HJJAFGPMJNJ": "",
                "AOFBAGFCGPJ": ""
            },
            {
                "$type": "IBPNIIGAIPF",
                "type": "LOOK_AT",
                "delayTime": 5.374000072479248,
                "aliasList": [
                    "1005"
                ],
                "GGIENKFBOGL": true,
                "useTargetPos": true,
                "GCOONJBHNIM": true,
                "JHNJNNOPJKG": {
                    "x": 11.630999565124512,
                    "y": 72.8010025024414,
                    "z": -88.59200286865234
                },
                "NDOMJCOFKDJ": 0.4000000059604645,
                "KIPMIDIKECP": "",
                "AHLPNEGAKGG": "NONE",
                "HJJAFGPMJNJ": "",
                "AOFBAGFCGPJ": ""
            },
            {
                "$type": "IBPNIIGAIPF",
                "type": "LOOK_AT",
                "delayTime": 6.74399995803833,
                "aliasList": [
                    "Avatar"
                ],
                "GGIENKFBOGL": true,
                "useTargetPos": true,
                "GCOONJBHNIM": true,
                "JHNJNNOPJKG": {
                    "x": 12.593999862670898,
                    "y": 72.8010025024414,
                    "z": -88.3270034790039
                },
                "NDOMJCOFKDJ": 0.4000000059604645,
                "KIPMIDIKECP": "",
                "AHLPNEGAKGG": "NONE",
                "HJJAFGPMJNJ": "",
                "AOFBAGFCGPJ": ""
            },
            {
                "$type": "IBPNIIGAIPF",
                "type": "LOOK_AT",
                "delayTime": 7.561999797821045,
                "aliasList": [
                    "1005"
                ],
                "GGIENKFBOGL": true,
                "useTargetPos": true,
                "GCOONJBHNIM": true,
                "JHNJNNOPJKG": {
                    "x": 11.071000099182129,
                    "y": 72.08599853515625,
                    "z": -88.83599853515625
                },
                "NDOMJCOFKDJ": 0.4000000059604645,
                "KIPMIDIKECP": "",
                "AHLPNEGAKGG": "NONE",
                "HJJAFGPMJNJ": "",
                "AOFBAGFCGPJ": ""
            },
            {
                "$type": "IBPNIIGAIPF",
                "type": "LOOK_AT",
                "delayTime": 9.260000228881836,
                "aliasList": [
                    "Avatar"
                ],
                "GGIENKFBOGL": true,
                "useTargetPos": true,
                "GCOONJBHNIM": true,
                "JHNJNNOPJKG": {
                    "x": 11.178999900817871,
                    "y": 73.58000183105469,
                    "z": -89.14600372314453
                },
                "NDOMJCOFKDJ": 0.4000000059604645,
                "KIPMIDIKECP": "",
                "AHLPNEGAKGG": "NONE",
                "HJJAFGPMJNJ": "",
                "AOFBAGFCGPJ": ""
            },
            {
                "$type": "IBPNIIGAIPF",
                "type": "LOOK_AT",
                "delayTime": 10.420000076293945,
                "aliasList": [
                    "1005"
                ],
                "GGIENKFBOGL": true,
                "useTargetPos": true,
                "GCOONJBHNIM": true,
                "JHNJNNOPJKG": {
                    "x": 11.98900032043457,
                    "y": 72.08599853515625,
                    "z": -89.75299835205078
                },
                "NDOMJCOFKDJ": 0.4000000059604645,
                "KIPMIDIKECP": "",
                "AHLPNEGAKGG": "NONE",
                "HJJAFGPMJNJ": "",
                "AOFBAGFCGPJ": ""
            },
            {
                "$type": "IBPNIIGAIPF",
                "type": "LOOK_AT",
                "delayTime": 11.503000259399414,
                "aliasList": [
                    "Avatar"
                ],
                "GGIENKFBOGL": true,
                "useTargetPos": true,
                "GCOONJBHNIM": true,
                "JHNJNNOPJKG": {
                    "x": 12.871999740600586,
                    "y": 73.2959976196289,
                    "z": -87.7040023803711
                },
                "NDOMJCOFKDJ": 0.4000000059604645,
                "KIPMIDIKECP": "",
                "AHLPNEGAKGG": "NONE",
                "HJJAFGPMJNJ": "",
                "AOFBAGFCGPJ": ""
            },
            {
                "$type": "IBPNIIGAIPF",
                "type": "LOOK_AT",
                "delayTime": 12.718000411987305,
                "aliasList": [
                    "1005"
                ],
                "GGIENKFBOGL": true,
                "useTargetPos": true,
                "GCOONJBHNIM": true,
                "JHNJNNOPJKG": {
                    "x": 11.630999565124512,
                    "y": 72.8010025024414,
                    "z": -88.59200286865234
                },
                "NDOMJCOFKDJ": 0.4000000059604645,
                "KIPMIDIKECP": "",
                "AHLPNEGAKGG": "NONE",
                "HJJAFGPMJNJ": "",
                "AOFBAGFCGPJ": ""
            }
        ],
        [
            {
                "$type": "CNBNGFNKLGP",
                "type": "STEER_TO",
                "duration": 0.800000011920929,
                "aliasList": [
                    "1005"
                ],
                "DEMFHGAIELL": "ABSOLUTE",
                "KDKLEJFHDJG": {
                    "x": 12.37399959564209,
                    "y": 71.27999877929688,
                    "z": -90.38300323486328
                },
                "BBNLLCHBKAI": true,
                "KIPMIDIKECP": "",
                "AOFBAGFCGPJ": ""
            },
            {
                "$type": "CCEEIGNAILH",
                "type": "DIALOG",
                "aliasList": [
                    "1005"
                ],
                "KICBIOMGHIN": 722740111,
                "PNCCODDABKI": 3.0
            },
            {
                "$type": "BCJBNCJOPCE",
                "type": "CAMERA_MOVE",
                "duration": 0.10000000149011612,
                "AKFGKKEOEFA": {
                    "x": 12.975000381469727,
                    "y": 72.75800323486328,
                    "z": -90.13300323486328
                },
                "NGEBMAEFFGJ": {
                    "x": 12.093999862670898,
                    "y": 72.62899780273438,
                    "z": -90.58899688720703
                },
                "LIGHLBKBDEI": 30.0,
                "GFIOJGJJGCN": 6,
                "ABAEPHOGOFF": "EaseInOutCubic",
                "KFDBMBFFANN": {},
                "IEJBKHHEJEN": true,
                "CEDHIBLHMKP": false,
                "KIPMIDIKECP": "",
                "ANFHNPOCMNI": true,
                "BDLGHOJPJHD": "",
                "LCOJGFEOLCK": "",
                "BBBGAEDCJEL": ""
            },
            {
                "$type": "IBPNIIGAIPF",
                "type": "LOOK_AT",
                "aliasList": [
                    "1005"
                ],
                "GGIENKFBOGL": true,
                "JHNJNNOPJKG": {
                    "x": 12.055000305175781,
                    "y": 72.65399932861328,
                    "z": -89.56500244140625
                },
                "NDOMJCOFKDJ": 0.5,
                "KIPMIDIKECP": "Avatar",
                "HJJAFGPMJNJ": "",
                "AOFBAGFCGPJ": ""
            },
            {
                "$type": "IBPNIIGAIPF",
                "type": "LOOK_AT",
                "delayTime": 0.21799999475479126,
                "aliasList": [
                    "Avatar"
                ],
                "GGIENKFBOGL": true,
                "JHNJNNOPJKG": {
                    "x": 12.055000305175781,
                    "y": 72.65399932861328,
                    "z": -89.56500244140625
                },
                "NDOMJCOFKDJ": 0.5,
                "KIPMIDIKECP": "1005",
                "HJJAFGPMJNJ": "",
                "AOFBAGFCGPJ": ""
            },
            {
                "$type": "IBPNIIGAIPF",
                "type": "LOOK_AT",
                "delayTime": 1.8070000410079956,
                "aliasList": [
                    "1005"
                ],
                "GGIENKFBOGL": true,
                "useTargetPos": true,
                "GCOONJBHNIM": true,
                "JHNJNNOPJKG": {
                    "x": 13.904000282287598,
                    "y": 72.48799896240234,
                    "z": -89.21900177001953
                },
                "NDOMJCOFKDJ": 0.5,
                "KIPMIDIKECP": "Avatar",
                "AHLPNEGAKGG": "NONE",
                "HJJAFGPMJNJ": "",
                "AOFBAGFCGPJ": ""
            },
            {
                "$type": "IBPNIIGAIPF",
                "type": "LOOK_AT",
                "delayTime": 2.055999994277954,
                "aliasList": [
                    "Avatar"
                ],
                "GGIENKFBOGL": true,
                "useTargetPos": true,
                "GCOONJBHNIM": true,
                "JHNJNNOPJKG": {
                    "x": 13.904000282287598,
                    "y": 72.48799896240234,
                    "z": -89.21900177001953
                },
                "NDOMJCOFKDJ": 0.5,
                "KIPMIDIKECP": "Avatar",
                "AHLPNEGAKGG": "NONE",
                "HJJAFGPMJNJ": "",
                "AOFBAGFCGPJ": ""
            },
            {
                "$type": "BCJBNCJOPCE",
                "type": "CAMERA_MOVE",
                "delayTime": 2.125999927520752,
                "duration": 0.10000000149011612,
                "AKFGKKEOEFA": {
                    "x": 11.340999603271484,
                    "y": 72.73999786376953,
                    "z": -90.38099670410156
                },
                "NGEBMAEFFGJ": {
                    "x": 12.258999824523926,
                    "y": 72.60199737548828,
                    "z": -90.75199890136719
                },
                "LIGHLBKBDEI": 30.0,
                "GFIOJGJJGCN": 6,
                "ABAEPHOGOFF": "EaseInOutCubic",
                "KFDBMBFFANN": {},
                "IEJBKHHEJEN": true,
                "CEDHIBLHMKP": false,
                "KIPMIDIKECP": "",
                "ANFHNPOCMNI": true,
                "BDLGHOJPJHD": "",
                "LCOJGFEOLCK": "",
                "BBBGAEDCJEL": ""
            },
            {
                "$type": "BCJBNCJOPCE",
                "type": "CAMERA_MOVE",
                "delayTime": 2.196000099182129,
                "duration": 1.4780000448226929,
                "AKFGKKEOEFA": {
                    "x": 11.4350004196167,
                    "y": 73.01000213623047,
                    "z": -90.21199798583984
                },
                "NGEBMAEFFGJ": {
                    "x": 12.348999977111816,
                    "y": 72.63800048828125,
                    "z": -90.05400085449219
                },
                "LIGHLBKBDEI": 30.0,
                "ABAEPHOGOFF": "EaseOutQuad",
                "KFDBMBFFANN": {},
                "IEJBKHHEJEN": true,
                "CEDHIBLHMKP": false,
                "KIPMIDIKECP": "",
                "ANFHNPOCMNI": true,
                "BDLGHOJPJHD": "",
                "LCOJGFEOLCK": "",
                "BBBGAEDCJEL": ""
            },
            {
                "$type": "BCJBNCJOPCE",
                "type": "CAMERA_MOVE",
                "delayTime": 3.2090001106262207,
                "duration": 2.809999942779541,
                "AKFGKKEOEFA": {
                    "x": 11.4350004196167,
                    "y": 73.01000213623047,
                    "z": -90.21199798583984
                },
                "NGEBMAEFFGJ": {
                    "x": 12.347999572753906,
                    "y": 72.63700103759766,
                    "z": -90.0469970703125
                },
                "LIGHLBKBDEI": 30.0,
                "ABAEPHOGOFF": "EaseOutQuad",
                "KFDBMBFFANN": {},
                "IEJBKHHEJEN": true,
                "GDHBGCNKHDE": 359.8389892578125,
                "CEDHIBLHMKP": false,
                "KIPMIDIKECP": "",
                "ANFHNPOCMNI": true,
                "BDLGHOJPJHD": "",
                "LCOJGFEOLCK": "",
                "BBBGAEDCJEL": ""
            }
        ],
        [
            {
                "$type": "CCEEIGNAILH",
                "type": "DIALOG",
                "aliasList": [
                    "10324"
                ],
                "KICBIOMGHIN": 722740101,
                "PNCCODDABKI": 0.5
            },
            {
                "$type": "BCJBNCJOPCE",
                "type": "CAMERA_MOVE",
                "duration": 0.10000000149011612,
                "AKFGKKEOEFA": {
                    "x": 20.631999969482422,
                    "y": 70.3949966430664,
                    "z": -87.49199676513672
                },
                "NGEBMAEFFGJ": {
                    "x": 21.493999481201172,
                    "y": 69.89099884033203,
                    "z": -87.43499755859375
                },
                "LIGHLBKBDEI": 30.0,
                "GFIOJGJJGCN": 6,
                "ABAEPHOGOFF": "EaseInOutCubic",
                "KFDBMBFFANN": {},
                "IEJBKHHEJEN": true,
                "CEDHIBLHMKP": false,
                "KIPMIDIKECP": "",
                "ANFHNPOCMNI": true,
                "BDLGHOJPJHD": "",
                "LCOJGFEOLCK": "",
                "BBBGAEDCJEL": ""
            },
            {
                "$type": "BCJBNCJOPCE",
                "type": "CAMERA_MOVE",
                "delayTime": 0.04699999839067459,
                "duration": 4.991000175476074,
                "AKFGKKEOEFA": {
                    "x": 20.89299964904785,
                    "y": 70.24199676513672,
                    "z": -87.4739990234375
                },
                "NGEBMAEFFGJ": {
                    "x": 21.7549991607666,
                    "y": 69.73799896240234,
                    "z": -87.41699981689453
                },
                "LIGHLBKBDEI": 30.0,
                "ABAEPHOGOFF": "EaseOutQuad",
                "KFDBMBFFANN": {},
                "IEJBKHHEJEN": true,
                "CEDHIBLHMKP": false,
                "KIPMIDIKECP": "",
                "ANFHNPOCMNI": true,
                "BDLGHOJPJHD": "",
                "LCOJGFEOLCK": "",
                "BBBGAEDCJEL": ""
            }
        ],
        [
            {
                "$type": "CCEEIGNAILH",
                "type": "DIALOG",
                "aliasList": [
                    "12212"
                ],
                "KICBIOMGHIN": 722740102,
                "PNCCODDABKI": 0.5
            },
            {
                "$type": "BCJBNCJOPCE",
                "type": "CAMERA_MOVE",
                "duration": 0.10000000149011612,
                "AKFGKKEOEFA": {
                    "x": 26.451000213623047,
                    "y": 67.68399810791016,
                    "z": -83.16400146484375
                },
                "NGEBMAEFFGJ": {
                    "x": 26.354000091552734,
                    "y": 67.6500015258789,
                    "z": -84.15899658203125
                },
                "LIGHLBKBDEI": 30.0,
                "GFIOJGJJGCN": 6,
                "ABAEPHOGOFF": "EaseInOutCubic",
                "KFDBMBFFANN": {},
                "IEJBKHHEJEN": true,
                "CEDHIBLHMKP": false,
                "KIPMIDIKECP": "",
                "ANFHNPOCMNI": true,
                "BDLGHOJPJHD": "",
                "LCOJGFEOLCK": "",
                "BBBGAEDCJEL": ""
            }
        ],
        [
            {
                "$type": "CCEEIGNAILH",
                "type": "DIALOG",
                "aliasList": [
                    "10324"
                ],
                "KICBIOMGHIN": 722740103,
                "PNCCODDABKI": 0.5
            },
            {
                "$type": "BCJBNCJOPCE",
                "type": "CAMERA_MOVE",
                "duration": 0.10000000149011612,
                "AKFGKKEOEFA": {
                    "x": 24.886999130249023,
                    "y": 67.83599853515625,
                    "z": -85.68000030517578
                },
                "NGEBMAEFFGJ": {
                    "x": 25.87299919128418,
                    "y": 67.87699890136719,
                    "z": -85.84400177001953
                },
                "LIGHLBKBDEI": 30.0,
                "GFIOJGJJGCN": 6,
                "ABAEPHOGOFF": "EaseInOutCubic",
                "KFDBMBFFANN": {},
                "IEJBKHHEJEN": true,
                "CEDHIBLHMKP": false,
                "KIPMIDIKECP": "",
                "ANFHNPOCMNI": true,
                "BDLGHOJPJHD": "",
                "LCOJGFEOLCK": "",
                "BBBGAEDCJEL": ""
            }
        ],
        [
            {
                "$type": "CCEEIGNAILH",
                "type": "DIALOG",
                "aliasList": [
                    "12212"
                ],
                "KICBIOMGHIN": 722740104,
                "PNCCODDABKI": 0.5
            },
            {
                "$type": "BCJBNCJOPCE",
                "type": "CAMERA_MOVE",
                "duration": 0.10000000149011612,
                "AKFGKKEOEFA": {
                    "x": 21.270000457763672,
                    "y": 66.46800231933594,
                    "z": -82.6050033569336
                },
                "NGEBMAEFFGJ": {
                    "x": 22.000999450683594,
                    "y": 66.55699920654297,
                    "z": -83.28199768066406
                },
                "LIGHLBKBDEI": 30.0,
                "GFIOJGJJGCN": 6,
                "ABAEPHOGOFF": "EaseInOutCubic",
                "KFDBMBFFANN": {},
                "IEJBKHHEJEN": true,
                "CEDHIBLHMKP": false,
                "KIPMIDIKECP": "",
                "ANFHNPOCMNI": true,
                "BDLGHOJPJHD": "",
                "LCOJGFEOLCK": "",
                "BBBGAEDCJEL": ""
            },
            {
                "$type": "BCJBNCJOPCE",
                "type": "CAMERA_MOVE",
                "delayTime": 0.054999999701976776,
                "duration": 9.095000267028809,
                "AKFGKKEOEFA": {
                    "x": 20.809999465942383,
                    "y": 66.4489974975586,
                    "z": -83.16400146484375
                },
                "NGEBMAEFFGJ": {
                    "x": 21.613000869750977,
                    "y": 66.54100036621094,
                    "z": -83.75299835205078
                },
                "LIGHLBKBDEI": 30.0,
                "ABAEPHOGOFF": "EaseOutQuad",
                "KFDBMBFFANN": {},
                "IEJBKHHEJEN": true,
                "CEDHIBLHMKP": false,
                "KIPMIDIKECP": "",
                "ANFHNPOCMNI": true,
                "BDLGHOJPJHD": "",
                "LCOJGFEOLCK": "",
                "BBBGAEDCJEL": ""
            }
        ],
        [
            {
                "$type": "CCEEIGNAILH",
                "type": "DIALOG",
                "aliasList": [
                    "10324"
                ],
                "KICBIOMGHIN": 722740105,
                "PNCCODDABKI": 0.5
            }
        ],
        [
            {
                "$type": "CCEEIGNAILH",
                "type": "DIALOG",
                "aliasList": [
                    "10324"
                ],
                "KICBIOMGHIN": 722740106,
                "PNCCODDABKI": 0.5
            },
            {
                "$type": "BCJBNCJOPCE",
                "type": "CAMERA_MOVE",
                "duration": 0.10000000149011612,
                "AKFGKKEOEFA": {
                    "x": 22.492000579833984,
                    "y": 67.51200103759766,
                    "z": -88.4000015258789
                },
                "NGEBMAEFFGJ": {
                    "x": 23.422000885009766,
                    "y": 67.52300262451172,
                    "z": -88.03399658203125
                },
                "LIGHLBKBDEI": 30.0,
                "GFIOJGJJGCN": 6,
                "ABAEPHOGOFF": "EaseInOutCubic",
                "KFDBMBFFANN": {},
                "IEJBKHHEJEN": true,
                "CEDHIBLHMKP": false,
                "KIPMIDIKECP": "",
                "ANFHNPOCMNI": true,
                "BDLGHOJPJHD": "",
                "LCOJGFEOLCK": "",
                "BBBGAEDCJEL": ""
            }
        ],
        [
            {
                "$type": "CCEEIGNAILH",
                "type": "DIALOG",
                "aliasList": [
                    "12212"
                ],
                "KICBIOMGHIN": 722740107,
                "PNCCODDABKI": 0.5
            },
            {
                "$type": "MoleMole.Config.ConfigTeleportToAction",
                "type": "TELEPORT_TO",
                "aliasList": [
                    "1005"
                ],
                "position": {
                    "x": 13.345999717712402,
                    "y": 71.27999877929688,
                    "z": -89.21900177001953
                },
                "forward": {
                    "x": 1.9539999961853027,
                    "z": -0.33500000834465027
                },
                "openLongDisTeleport": true,
                "posBindMovingTargetKey": "",
                "forwardBindMovingTargetKey": ""
            },
            {
                "$type": "IBPNIIGAIPF",
                "type": "LOOK_AT",
                "aliasList": [
                    "1005"
                ],
                "GGIENKFBOGL": true,
                "useTargetPos": true,
                "GCOONJBHNIM": true,
                "JHNJNNOPJKG": {
                    "x": 15.734999656677246,
                    "y": 71.82499694824219,
                    "z": -88.802001953125
                },
                "NDOMJCOFKDJ": 0.5,
                "KIPMIDIKECP": "",
                "AHLPNEGAKGG": "NONE",
                "HJJAFGPMJNJ": "",
                "AOFBAGFCGPJ": ""
            },
            {
                "$type": "BCJBNCJOPCE",
                "type": "CAMERA_MOVE",
                "duration": 0.10000000149011612,
                "AKFGKKEOEFA": {
                    "x": 24.448999404907227,
                    "y": 67.46099853515625,
                    "z": -86.49700164794922
                },
                "NGEBMAEFFGJ": {
                    "x": 24.812999725341797,
                    "y": 67.61599731445312,
                    "z": -87.41600036621094
                },
                "LIGHLBKBDEI": 30.0,
                "GFIOJGJJGCN": 6,
                "ABAEPHOGOFF": "EaseInOutCubic",
                "KFDBMBFFANN": {},
                "IEJBKHHEJEN": true,
                "CEDHIBLHMKP": false,
                "KIPMIDIKECP": "",
                "ANFHNPOCMNI": true,
                "BDLGHOJPJHD": "",
                "LCOJGFEOLCK": "",
                "BBBGAEDCJEL": ""
            },
            {
                "$type": "MoleMole.Config.ConfigTeleportToAction",
                "type": "TELEPORT_TO",
                "aliasList": [
                    "Avatar"
                ],
                "position": {
                    "x": 13.449999809265137,
                    "y": 71.27999877929688,
                    "z": -89.86599731445312
                },
                "forward": {
                    "x": 1.840999960899353,
                    "z": 0.6690000295639038
                },
                "openLongDisTeleport": true,
                "posBindMovingTargetKey": "",
                "forwardBindMovingTargetKey": ""
            },
            {
                "$type": "IBPNIIGAIPF",
                "type": "LOOK_AT",
                "aliasList": [
                    "Avatar"
                ],
                "GGIENKFBOGL": true,
                "useTargetPos": true,
                "GCOONJBHNIM": true,
                "JHNJNNOPJKG": {
                    "x": 14.661999702453613,
                    "y": 72.25399780273438,
                    "z": -89.58300018310547
                },
                "NDOMJCOFKDJ": 0.5,
                "KIPMIDIKECP": "",
                "AHLPNEGAKGG": "NONE",
                "HJJAFGPMJNJ": "",
                "AOFBAGFCGPJ": ""
            }
        ],
        [
            {
                "$type": "CCEEIGNAILH",
                "type": "DIALOG",
                "aliasList": [
                    "10324"
                ],
                "KICBIOMGHIN": 722740108,
                "PNCCODDABKI": 0.5
            },
            {
                "$type": "BCJBNCJOPCE",
                "type": "CAMERA_MOVE",
                "duration": 0.10000000149011612,
                "AKFGKKEOEFA": {
                    "x": 12.755999565124512,
                    "y": 73.25,
                    "z": -89.63999938964844
                },
                "NGEBMAEFFGJ": {
                    "x": 13.635000228881836,
                    "y": 72.78199768066406,
                    "z": -89.55000305175781
                },
                "LIGHLBKBDEI": 30.0,
                "GFIOJGJJGCN": 6,
                "ABAEPHOGOFF": "EaseInOutCubic",
                "KFDBMBFFANN": {},
                "IEJBKHHEJEN": true,
                "CEDHIBLHMKP": false,
                "KIPMIDIKECP": "",
                "ANFHNPOCMNI": true,
                "BDLGHOJPJHD": "",
                "LCOJGFEOLCK": "",
                "BBBGAEDCJEL": ""
            },
            {
                "$type": "BCJBNCJOPCE",
                "type": "CAMERA_MOVE",
                "delayTime": 0.04699999839067459,
                "duration": 8.597000122070312,
                "AKFGKKEOEFA": {
                    "x": 12.62600040435791,
                    "y": 73.12000274658203,
                    "z": -89.65899658203125
                },
                "NGEBMAEFFGJ": {
                    "x": 13.505000114440918,
                    "y": 72.6520004272461,
                    "z": -89.56900024414062
                },
                "LIGHLBKBDEI": 30.0,
                "ABAEPHOGOFF": "EaseOutQuad",
                "KFDBMBFFANN": {},
                "IEJBKHHEJEN": true,
                "CEDHIBLHMKP": false,
                "KIPMIDIKECP": "",
                "ANFHNPOCMNI": true,
                "BDLGHOJPJHD": "",
                "LCOJGFEOLCK": "",
                "BBBGAEDCJEL": ""
            }
        ],
        [
            {
                "$type": "IBPNIIGAIPF",
                "type": "LOOK_AT",
                "aliasList": [
                    "1005"
                ],
                "GGIENKFBOGL": true,
                "useTargetPos": true,
                "GCOONJBHNIM": true,
                "JHNJNNOPJKG": {
                    "x": 13.635000228881836,
                    "y": 72.66100311279297,
                    "z": -89.62000274658203
                },
                "NDOMJCOFKDJ": 0.5,
                "KIPMIDIKECP": "",
                "AHLPNEGAKGG": "NONE",
                "HJJAFGPMJNJ": "",
                "AOFBAGFCGPJ": ""
            },
            {
                "$type": "KCBOGFFHPBD",
                "type": "BODY_LANG",
                "aliasList": [
                    "1005"
                ],
                "GPIEDGOMCGL": 1170,
                "FHLAMNNHMFA": true,
                "KCEHDJLKIAL": false,
                "AOFEDPBOOIE": ""
            },
            {
                "$type": "CCEEIGNAILH",
                "type": "DIALOG",
                "aliasList": [
                    "1005"
                ],
                "KICBIOMGHIN": 722740109,
                "PNCCODDABKI": 0.5
            },
            {
                "$type": "BCJBNCJOPCE",
                "type": "CAMERA_MOVE",
                "duration": 0.10000000149011612,
                "AKFGKKEOEFA": {
                    "x": 15.119000434875488,
                    "y": 72.52799987792969,
                    "z": -89.55599975585938
                },
                "NGEBMAEFFGJ": {
                    "x": 14.119999885559082,
                    "y": 72.5479965209961,
                    "z": -89.58100128173828
                },
                "LIGHLBKBDEI": 30.0,
                "GFIOJGJJGCN": 6,
                "ABAEPHOGOFF": "EaseInOutCubic",
                "KFDBMBFFANN": {},
                "IEJBKHHEJEN": true,
                "CEDHIBLHMKP": false,
                "KIPMIDIKECP": "",
                "ANFHNPOCMNI": true,
                "BDLGHOJPJHD": "",
                "LCOJGFEOLCK": "",
                "BBBGAEDCJEL": ""
            },
            {
                "$type": "IBPNIIGAIPF",
                "type": "LOOK_AT",
                "delayTime": 0.2879999876022339,
                "aliasList": [
                    "Avatar"
                ],
                "GGIENKFBOGL": true,
                "useTargetPos": true,
                "GCOONJBHNIM": true,
                "JHNJNNOPJKG": {
                    "x": 13.60200023651123,
                    "y": 72.56900024414062,
                    "z": -89.53600311279297
                },
                "NDOMJCOFKDJ": 0.5,
                "KIPMIDIKECP": "",
                "AHLPNEGAKGG": "NONE",
                "HJJAFGPMJNJ": "",
                "AOFBAGFCGPJ": ""
            },
            {
                "$type": "KCBOGFFHPBD",
                "type": "BODY_LANG",
                "delayTime": 1.6410000324249268,
                "aliasList": [
                    "1005"
                ],
                "GPIEDGOMCGL": 1180,
                "FHLAMNNHMFA": true,
                "KCEHDJLKIAL": false,
                "AOFEDPBOOIE": ""
            },
            {
                "$type": "KCBOGFFHPBD",
                "type": "BODY_LANG",
                "delayTime": 3.203000068664551,
                "aliasList": [
                    "1005"
                ],
                "GPIEDGOMCGL": 1090,
                "FHLAMNNHMFA": true,
                "KCEHDJLKIAL": false,
                "AOFEDPBOOIE": ""
            }
        ],
        [
            {
                "$type": "MoleMole.Config.ConfigTimeProtectAction",
                "type": "TIME_PROTECT",
                "duration": 0.699999988079071
            },
            {
                "$type": "MoleMole.Config.ConfigSimpleBlackScreenAction",
                "type": "SIMPLE_BLACK_SCREEN",
                "durationToBlack": 0.5,
                "durationKeepBlack": 1.0,
                "durationFromBlack": 0.5,
                "textMapID": ""
            },
            {
                "$type": "MoleMole.Config.ConfigVisibleInterAction",
                "type": "VISIBLE",
                "delayTime": 0.6000000238418579,
                "aliasList": [
                    "12212"
                ],
                "extraParam": ""
            },
            {
                "$type": "MoleMole.Config.ConfigVisibleInterAction",
                "type": "VISIBLE",
                "delayTime": 0.6000000238418579,
                "aliasList": [
                    "10324"
                ],
                "extraParam": ""
            },
            {
                "$type": "BCJBNCJOPCE",
                "type": "CAMERA_MOVE",
                "delayTime": 0.6000000238418579,
                "duration": 0.10000000149011612,
                "AKFGKKEOEFA": {
                    "x": 11.668999671936035,
                    "y": 73.28199768066406,
                    "z": -90.88999938964844
                },
                "NGEBMAEFFGJ": {
                    "x": 12.458000183105469,
                    "y": 72.85199737548828,
                    "z": -90.45099639892578
                },
                "GFIOJGJJGCN": 6,
                "ABAEPHOGOFF": "EaseInOutCubic",
                "KFDBMBFFANN": {},
                "IEJBKHHEJEN": true,
                "CEDHIBLHMKP": false,
                "KIPMIDIKECP": "",
                "ANFHNPOCMNI": true,
                "BDLGHOJPJHD": "",
                "LCOJGFEOLCK": "",
                "BBBGAEDCJEL": ""
            }
        ]
    ],
    "groupId": [
        {
            "grpId": 2482955506,
            "nextGrpId": 2482955507
        },
        {
            "index": 1,
            "grpId": 2482955507,
            "nextGrpId": 2482955508
        },
        {
            "index": 2,
            "grpId": 2482955508,
            "nextGrpId": 2482955509
        },
        {
            "index": 3,
            "grpId": 2482955509,
            "nextGrpId": 2482955510
        },
        {
            "index": 4,
            "grpId": 2482955510,
            "nextGrpId": 2482955511
        },
        {
            "index": 5,
            "grpId": 2482955511,
            "nextGrpId": 2482955512
        },
        {
            "index": 6,
            "grpId": 2482955512,
            "nextGrpId": 2482955513
        },
        {
            "index": 7,
            "grpId": 2482955513,
            "nextGrpId": 2482955514
        },
        {
            "index": 8,
            "grpId": 2482955514,
            "nextGrpId": 3957176702
        },
        {
            "index": 9,
            "grpId": 3957176702,
            "nextGrpId": 3957176703
        },
        {
            "index": 10,
            "grpId": 3957176703,
            "nextGrpId": 3957176704
        },
        {
            "index": 11,
            "grpId": 3957176704,
            "nextGrpId": 3957176705
        },
        {
            "index": 12,
            "grpId": 3957176705,
            "nextGrpId": 3957176706
        }
    ]
}