{
    "common": {
        "effectAttachShape": {
            "$type": "DPGKNHENGLM",
            "DDDEJPIFECG": "EffectMesh"
        },
        "mass": 10.0
    },
    "headControl": {
        "$type": "NJIKCGBDNDF",
        "useHeadControl": true,
        "OGCMKPPOFLM": false
    },
    "equipController": {
        "sheathPoint": "WeaponBackPut",
        "dissolveSheathFadeDelay": 0.07500000298023224,
        "dissolveSheathFadeTime": 0.30000001192092896,
        "attachPoints": {
            "equip01": "WeaponR",
            "equip02": "WeaponL",
            "equip00": "WeaponBackPut"
        }
    },
    "stateLayers": {
        "defaultLayer": {
            "$type": "EPAPJJAGHKG",
            "ACOCIAFGIAD": "",
            "stateIDs": {
                "ShowWeapon_BS": {
                    "$type": "BDINDCNIAIN",
                    "DLOHGBDFFGB": {
                        "ShowWeapon_BS": [
                            "Girl_Sword_ShowWeapon_BS"
                        ]
                    },
                    "PBAOEAEEBNB": [
                        {
                            "name": "&GotoAnyState"
                        }
                    ],
                    "IDCGNGBPDHO": "",
                    "EJCGPJGMOCP": true
                },
                "ShowRelic_BS": {
                    "$type": "BDINDCNIAIN",
                    "DLOHGBDFFGB": {
                        "ShowRelic_BS": [
                            "Emo_Avatar_Common_Manekin_RelicShowBS"
                        ]
                    },
                    "PBAOEAEEBNB": [
                        {
                            "name": "&GotoAnyState"
                        }
                    ],
                    "IDCGNGBPDHO": "",
                    "EJCGPJGMOCP": true
                },
                "ShowWeapon": {
                    "$type": "BDINDCNIAIN",
                    "DLOHGBDFFGB": {
                        "ShowWeapon": [],
                        "ShowWeapon_AS": [
                            "Girl_Sword_ShowWeapon_AS"
                        ]
                    },
                    "IDCGNGBPDHO": "",
                    "PAHDNIDEPIJ": true
                },
                "ShowRelic": {
                    "$type": "BDINDCNIAIN",
                    "DLOHGBDFFGB": {
                        "ShowRelic": [
                            "Emo_Avatar_Common_Manekin_RelicShowLoop"
                        ],
                        "ShowRelic_AS": [
                            "Emo_Avatar_Common_Manekin_RelicShowAS"
                        ]
                    },
                    "IDCGNGBPDHO": "",
                    "EJCGPJGMOCP": true
                },
                "ShowCharacter": {
                    "$type": "BDINDCNIAIN",
                    "DLOHGBDFFGB": {
                        "ShowCharacter": [],
                        "Show01": [],
                        "Show02": []
                    },
                    "PBAOEAEEBNB": [
                        {
                            "name": "&GotoAnyState"
                        }
                    ],
                    "IDCGNGBPDHO": "",
                    "EJCGPJGMOCP": true
                },
                "Skill_BS": {
                    "$type": "BDINDCNIAIN",
                    "DLOHGBDFFGB": {
                        "Skill_BS": []
                    },
                    "PBAOEAEEBNB": [
                        {
                            "name": "&GotoAnyState"
                        }
                    ],
                    "IDCGNGBPDHO": "",
                    "EJCGPJGMOCP": true
                },
                "Skill": {
                    "$type": "BDINDCNIAIN",
                    "DLOHGBDFFGB": {
                        "Skill": []
                    },
                    "IDCGNGBPDHO": ""
                },
                "Skill_AS": {
                    "$type": "BDINDCNIAIN",
                    "DLOHGBDFFGB": {
                        "Skill_AS": []
                    },
                    "IDCGNGBPDHO": ""
                },
                "Story": {
                    "$type": "BDINDCNIAIN",
                    "DLOHGBDFFGB": {
                        "Story": []
                    },
                    "PBAOEAEEBNB": [
                        {
                            "name": "&GotoAnyState"
                        }
                    ],
                    "IDCGNGBPDHO": "",
                    "EJCGPJGMOCP": true
                },
                "ShowFlycloak": {
                    "$type": "BDINDCNIAIN",
                    "DLOHGBDFFGB": {
                        "ShowFlycloak": []
                    },
                    "IDCGNGBPDHO": "",
                    "EJCGPJGMOCP": true
                }
            }
        }
    },
    "audio": {
        "KEEAIACIJBN": "",
        "animAudio": {
            "onTransitionIn": [
                {
                    "currentStateName": "ShowWeapon_BS",
                    "audioEvent": {
                        "text": "Play_ui_menu_weapon_show_heroine"
                    }
                },
                {
                    "currentStateName": "ShowRelic_BS",
                    "audioEvent": {
                        "text": "Play_ui_menu_relic_show"
                    }
                }
            ],
            "onTransitionOut": [
                {
                    "currentStateName": "ShowWeapon_BS",
                    "audioEvent": {
                        "text": "Stop_ui_menu_weapon_show_putAway_appear_short"
                    }
                },
                {
                    "currentStateName": "Show01",
                    "audioEvent": {
                        "text": "Stop_sfx_standbyShow_hero_blink"
                    }
                }
            ]
        },
        "listenerLiftup": 1.5,
        "surfaceProberLiftup": 1.5
    }
}