{
    "common": {
        "effectAttachShape": {
            "$type": "DPGKNHENGLM",
            "DDDEJPIFECG": "EffectMesh"
        },
        "mass": 10.0,
        "height": 1.5485999584197998,
        "modelHeight": 1.5299999713897705,
        "affectedByWorld": true,
        "checkInSurface": true
    },
    "headControl": {
        "$type": "NJIKCGBDNDF",
        "useHeadControl": true,
        "FDPCOFKGCHG": [
            "NormalStandby",
            "NormalMove/WalkToRun",
            "NormalMove/Walk",
            "NormalMove/RunToWalk",
            "NormalMove/Run",
            "NormalMove/RunToIdle",
            "NormalMove/WalkToIdle",
            "NormalMove/RunningTurn",
            "NormalMove/SprintToRun",
            "NormalMove/SprintToIdle",
            "Sprint",
            "Climb/ClimbIdle",
            "Ladder/LadderIdle",
            "Swim/SwimIdle",
            "NormalStandbyWeapon",
            "NormalMoveWeapon/WalkToRunWeapon",
            "NormalMoveWeapon/WalkWeapon",
            "NormalMoveWeapon/RunToWalkWeapon",
            "NormalMoveWeapon/RunWeapon",
            "NormalMoveWeapon/RunToIdleWeapon",
            "NormalMoveWeapon/WalkToIdleWeapon",
            "NormalMoveWeapon/RunningTurnWeapon"
        ]
    },
    "combat": {
        "property": {
            "endureType": "Avatar_Sword",
            "weight": 75.0
        },
        "beHit": {
            "hitBloodEffect": ""
        },
        "die": {
            "hasAnimatorDie": true,
            "dieEndTime": 1.5,
            "dieForceDisappearTime": 2.5,
            "dieDisappearEffect": "Eff_Death_Avatar_Common",
            "dieShaderData": "AvatarDie",
            "useRagDoll": true,
            "ragDollDieEndTimeDelay": 0.4000000059604645
        }
    },
    "equipController": {
        "sheathPoint": "WeaponBackPut",
        "dissolveSheathFadeDelay": 0.07500000298023224,
        "dissolveSheathFadeTime": 2.0999999046325684,
        "attachPoints": {
            "equip01": "WeaponR",
            "equip02": "WeaponL",
            "equip03": "WeaponL"
        }
    },
    "stateLayers": {
        "defaultLayer": {
            "$type": "EPAPJJAGHKG",
            "ACOCIAFGIAD": "",
            "stateIDs": {
                "NormalStandby": {
                    "$type": "BDINDCNIAIN",
                    "DLOHGBDFFGB": {
                        "Standby": [
                            "Avatar_ResetFreeStyle"
                        ]
                    },
                    "POLKCLOHPOO": true,
                    "NKBIEPDEJAO": 100.0,
                    "PBAOEAEEBNB": [
                        {
                            "name": "&CanUseSkill"
                        }
                    ],
                    "AKLHLMPMHGO": [
                        {}
                    ],
                    "IDCGNGBPDHO": "",
                    "EJCGPJGMOCP": true
                },
                "NormalMove": {
                    "$type": "BDINDCNIAIN",
                    "DLOHGBDFFGB": {
                        "ShowUp": [
                            "Audio_Girl_Showup"
                        ],
                        "WalkToRun": [
                            "Audio_Girl_WalkToRun"
                        ],
                        "Walk": [
                            "Ani_WalkSprint01",
                            "Audio_Girl_Walk",
                            "WalkStepOnWater"
                        ],
                        "RunToWalk": [
                            "Audio_Girl_RunToWalk"
                        ],
                        "Run": [
                            "Ani_Run01",
                            "Audio_Girl_Run"
                        ],
                        "RunToIdle": [
                            "Audio_Girl_RunToIdle"
                        ],
                        "WalkToIdle": [
                            "Audio_Girl_WalkToIdle"
                        ],
                        "RunningTurn": [],
                        "SprintToRun": [
                            "Audio_Girl_SprintToRun"
                        ],
                        "SprintToIdle": [
                            "Audio_Girl_SprintToIdle",
                            "Emo_Girl_Sprint_AS"
                        ],
                        "FallOnGround": [
                            "Audio_Girl_FallOnGround"
                        ],
                        "FallOnGroundLit": [
                            "Audio_Girl_FallOnGroundLit"
                        ],
                        "FallToGroundRun": [
                            "Audio_Girl_FallToGroundRun"
                        ],
                        "FallToGroundRunHard": [
                            "Audio_Girl_FallToGroundRunHard"
                        ],
                        "FallToGroundSprint": [
                            "Audio_Girl_FallToGroundSprint"
                        ]
                    },
                    "POLKCLOHPOO": true,
                    "NKBIEPDEJAO": 1.0,
                    "PBAOEAEEBNB": [
                        {
                            "name": "&CanUseSkill"
                        }
                    ],
                    "AKLHLMPMHGO": [
                        {}
                    ],
                    "IDCGNGBPDHO": "",
                    "EJCGPJGMOCP": true
                },
                "SprintBS": {
                    "$type": "BDINDCNIAIN",
                    "DLOHGBDFFGB": {
                        "SprintBS": [
                            "Audio_Girl_RunToSprint",
                            "SprintBS_Invincible",
                            "Emo_Girl_Sprint_BS"
                        ]
                    },
                    "POLKCLOHPOO": true,
                    "AJBLILDCLBO": [
                        "DoSkill",
                        "AimEnd"
                    ],
                    "PBAOEAEEBNB": [
                        {
                            "name": "&CanUseSkill",
                            "normalizeStart": 0.25999999046325684
                        }
                    ],
                    "AKLHLMPMHGO": [
                        {
                            "normalizeStart": 0.25999999046325684
                        }
                    ],
                    "IDCGNGBPDHO": "",
                    "EJCGPJGMOCP": true
                },
                "Sprint": {
                    "$type": "BDINDCNIAIN",
                    "DLOHGBDFFGB": {
                        "Sprint": [
                            "Ani_WalkSprint01",
                            "Audio_Girl_Sprint",
                            "Emo_Girl_Sprint_Loop"
                        ]
                    },
                    "POLKCLOHPOO": true,
                    "NKBIEPDEJAO": 1.0,
                    "PBAOEAEEBNB": [
                        {
                            "name": "&CanUseSkill"
                        }
                    ],
                    "AKLHLMPMHGO": [
                        {}
                    ],
                    "IDCGNGBPDHO": "",
                    "EJCGPJGMOCP": true
                },
                "Crouch": {
                    "$type": "BDINDCNIAIN",
                    "DLOHGBDFFGB": {
                        "CrouchIdle": [],
                        "CrouchMove": [
                            "Audio_Girl_CrouchMove"
                        ],
                        "CrouchRoll": [
                            "Audio_Girl_CrouchRoll"
                        ]
                    },
                    "POLKCLOHPOO": true,
                    "NKBIEPDEJAO": 1.0,
                    "PBAOEAEEBNB": [
                        {
                            "name": "&CanUseSkill"
                        }
                    ],
                    "AKLHLMPMHGO": [
                        {}
                    ],
                    "JDNGFIFMEML": "Squat",
                    "IDCGNGBPDHO": "",
                    "EJCGPJGMOCP": true
                },
                "CrouchToStandby": {
                    "$type": "BDINDCNIAIN",
                    "DLOHGBDFFGB": {
                        "CrouchToStandby": [
                            "Audio_Girl_CrouchToStandby"
                        ]
                    },
                    "AJBLILDCLBO": [
                        "DoSkill"
                    ],
                    "IDCGNGBPDHO": "",
                    "EJCGPJGMOCP": true
                },
                "SkiffNormal": {
                    "$type": "BDINDCNIAIN",
                    "DLOHGBDFFGB": {
                        "SkiffNormal": []
                    },
                    "NKBIEPDEJAO": 100.0,
                    "DLAOMOCMANL": [
                        "BeHit",
                        "DoSkill",
                        "Jump"
                    ],
                    "IDCGNGBPDHO": "",
                    "EJCGPJGMOCP": true
                },
                "Climb": {
                    "$type": "BDINDCNIAIN",
                    "DLOHGBDFFGB": {
                        "ClimbMove0": [
                            "ClimbStep",
                            "Audio_Girl_Climb"
                        ],
                        "ClimbMove1": [
                            "ClimbStep",
                            "Audio_Girl_Climb"
                        ],
                        "ClimbIdle": [],
                        "ClimbJump": [
                            "Audio_Girl_ClimbDash"
                        ],
                        "JumpUpWallForStandby": [
                            "Audio_Girl_JumpUpWallStandby"
                        ],
                        "Standby2ClimbB": [
                            "Audio_Girl_Standby2ClimbB"
                        ]
                    },
                    "AJBLILDCLBO": [
                        "DoSkill"
                    ],
                    "JDNGFIFMEML": "Climb",
                    "IDCGNGBPDHO": "",
                    "EJCGPJGMOCP": true
                },
                "ClimbTransient": {
                    "$type": "BDINDCNIAIN",
                    "DLOHGBDFFGB": {
                        "JumpWallReady": [],
                        "Standby2ClimbA": [
                            "Audio_Girl_Standby2ClimbA"
                        ]
                    },
                    "AJBLILDCLBO": [
                        "DoSkill"
                    ],
                    "IDCGNGBPDHO": "",
                    "EJCGPJGMOCP": true
                },
                "Upstairs": {
                    "$type": "BDINDCNIAIN",
                    "DLOHGBDFFGB": {
                        "Upstairs": [
                            "Audio_Girl_Upstairs"
                        ]
                    },
                    "AJBLILDCLBO": [
                        "DoSkill"
                    ],
                    "PBAOEAEEBNB": [
                        {
                            "name": "&CanUseSkill"
                        }
                    ],
                    "IDCGNGBPDHO": "",
                    "EJCGPJGMOCP": true
                },
                "Slip": {
                    "$type": "BDINDCNIAIN",
                    "DLOHGBDFFGB": {
                        "SlipFaceWall": [],
                        "SlipBackWall": []
                    },
                    "AJBLILDCLBO": [
                        "DoSkill"
                    ],
                    "IDCGNGBPDHO": "",
                    "EJCGPJGMOCP": true
                },
                "Swim": {
                    "$type": "BDINDCNIAIN",
                    "DLOHGBDFFGB": {
                        "SwimIdle": [
                            "Audio_Girl_SwimIdle"
                        ],
                        "SwimMove": [
                            "SwimStep",
                            "Audio_Girl_SwimMove"
                        ],
                        "SwimDash": [
                            "Audio_Girl_SwimDash",
                            "Avatar_Girl_SwimDash_Hand_Effect"
                        ],
                        "SwimJumpToWater": [
                            "Audio_Girl_SwimJumpToWater"
                        ]
                    },
                    "AJBLILDCLBO": [
                        "DoSkill"
                    ],
                    "JDNGFIFMEML": "Swim",
                    "IDCGNGBPDHO": "",
                    "EJCGPJGMOCP": true
                },
                "Fly": {
                    "$type": "BDINDCNIAIN",
                    "DLOHGBDFFGB": {
                        "Fly": [
                            "Audio_Girl_Fly"
                        ],
                        "FlyStart": [
                            "Audio_Girl_FlyStart",
                            "FlyStart_Weapon"
                        ]
                    },
                    "POLKCLOHPOO": true,
                    "AJBLILDCLBO": [
                        "DoSkill"
                    ],
                    "PBAOEAEEBNB": [
                        {
                            "name": "&CanUseAirSkill"
                        }
                    ],
                    "JDNGFIFMEML": "Fly",
                    "IDCGNGBPDHO": "",
                    "EJCGPJGMOCP": true
                },
                "Jump": {
                    "$type": "BDINDCNIAIN",
                    "DLOHGBDFFGB": {
                        "Jump": [
                            "Audio_Girl_Jump"
                        ],
                        "JumpForRun": [
                            "Audio_Girl_Jump"
                        ],
                        "JumpForWalk": [
                            "Audio_Girl_Jump"
                        ],
                        "JumpForSprint": [
                            "Audio_Girl_Jump"
                        ]
                    },
                    "POLKCLOHPOO": true,
                    "AJBLILDCLBO": [
                        "DoSkill",
                        "AimEnd"
                    ],
                    "PBAOEAEEBNB": [
                        {
                            "name": "&CanUseAirSkill"
                        }
                    ],
                    "JDNGFIFMEML": "Jump",
                    "IDCGNGBPDHO": "",
                    "EJCGPJGMOCP": true
                },
                "Fall": {
                    "$type": "BDINDCNIAIN",
                    "DLOHGBDFFGB": {
                        "JumpOffWall": [
                            "Audio_Girl_Jump"
                        ],
                        "SwimJump": [
                            "Audio_Girl_SwimJump"
                        ],
                        "SwimJumpDrop": [],
                        "DropDown": [
                            "Audio_Girl_DropDown"
                        ],
                        "DropDownLit": [],
                        "WalkDropDownLit": []
                    },
                    "POLKCLOHPOO": true,
                    "AJBLILDCLBO": [
                        "DoSkill"
                    ],
                    "PBAOEAEEBNB": [
                        {
                            "name": "&CanUseAirSkill"
                        }
                    ],
                    "IDCGNGBPDHO": "",
                    "EJCGPJGMOCP": true
                },
                "NormalStandbyWeapon": {
                    "$type": "BDINDCNIAIN",
                    "DLOHGBDFFGB": {
                        "StandbyWeapon": []
                    },
                    "POLKCLOHPOO": true,
                    "NKBIEPDEJAO": 100.0,
                    "PBAOEAEEBNB": [
                        {
                            "name": "&CanUseSkill"
                        }
                    ],
                    "AKLHLMPMHGO": [
                        {}
                    ],
                    "IDCGNGBPDHO": "",
                    "PAHDNIDEPIJ": true
                },
                "NormalMoveWeapon": {
                    "$type": "BDINDCNIAIN",
                    "DLOHGBDFFGB": {
                        "WalkToRunWeapon": [
                            "Audio_Girl_WalkToRun"
                        ],
                        "WalkWeapon": [
                            "Audio_Girl_Walk"
                        ],
                        "RunToWalkWeapon": [],
                        "RunWeapon": [
                            "Audio_Girl_Run"
                        ],
                        "RunToIdleWeapon": [],
                        "WalkToIdleWeapon": [],
                        "RunningTurnWeapon": [],
                        "FallOnGroundWeapon": [
                            "Audio_Girl_FallOnGround"
                        ],
                        "FallOnGroundLitWeapon": [
                            "Audio_Girl_FallOnGroundLit"
                        ],
                        "FallOnGroundMiddleWeapon": [
                            "Audio_Girl_FallOnGroundMiddle"
                        ],
                        "FallToGroundRunWeapon": [
                            "Audio_Girl_FallToGroundRun"
                        ],
                        "FallToGroundRunHardWeapon": [
                            "Audio_Girl_FallToGroundRunHard"
                        ]
                    },
                    "POLKCLOHPOO": true,
                    "NKBIEPDEJAO": 2.0,
                    "PBAOEAEEBNB": [
                        {
                            "name": "&CanUseSkill"
                        }
                    ],
                    "AKLHLMPMHGO": [
                        {}
                    ],
                    "IDCGNGBPDHO": "",
                    "PAHDNIDEPIJ": true
                },
                "NormalMoveWeaponPutaway": {
                    "$type": "BDINDCNIAIN",
                    "DLOHGBDFFGB": {
                        "StandbyPutaway": [
                            "Girl_Bow_Putaway_Standby",
                            "Audio_Girl_Crossbow_StandbyPutAway"
                        ],
                        "WalkPutaway": [
                            "Girl_Sword_Putaway_Walk",
                            "Audio_Girl_Crossbow_WalkPutAway"
                        ],
                        "RunPutaway": [
                            "Girl_Sword_Putaway_Run",
                            "Audio_Girl_Crossbow_RunPutAway"
                        ],
                        "RunToSprintWeapon": [
                            "Girl_Sword_Putaway_Sprint",
                            "Audio_Girl_Crossbow_RunToSprintWeapon"
                        ]
                    },
                    "POLKCLOHPOO": true,
                    "NKBIEPDEJAO": 2.0,
                    "PBAOEAEEBNB": [
                        {
                            "name": "&CanUseSkill"
                        }
                    ],
                    "AKLHLMPMHGO": [
                        {}
                    ],
                    "IDCGNGBPDHO": "",
                    "PAHDNIDEPIJ": true
                },
                "NormalMoveWeaponOver": {
                    "$type": "BDINDCNIAIN",
                    "DLOHGBDFFGB": {
                        "StandbyPutawayOver": [],
                        "WalkPutawayOver": [
                            "Audio_Girl_Sword_WalkPutAwayOver"
                        ],
                        "RunPutawayOver": [
                            "Audio_Girl_Sword_RunPutAwayOver"
                        ],
                        "RunToSprintWeaponOver": [
                            "Audio_Girl_Sword_RunToSprintWeaponOver"
                        ]
                    },
                    "POLKCLOHPOO": true,
                    "NKBIEPDEJAO": 2.0,
                    "PBAOEAEEBNB": [
                        {
                            "name": "&CanUseSkill"
                        }
                    ],
                    "AKLHLMPMHGO": [
                        {}
                    ],
                    "IDCGNGBPDHO": "",
                    "EJCGPJGMOCP": true
                },
                "JumpWeapon": {
                    "$type": "BDINDCNIAIN",
                    "DLOHGBDFFGB": {
                        "JumpWeapon": [
                            "Audio_Girl_Jump"
                        ],
                        "JumpForRunWeapon": [
                            "Audio_Girl_Jump"
                        ],
                        "JumpForWalkWeapon": [
                            "Audio_Girl_Jump"
                        ]
                    },
                    "POLKCLOHPOO": true,
                    "AJBLILDCLBO": [
                        "DoSkill"
                    ],
                    "PBAOEAEEBNB": [
                        {
                            "name": "&CanUseAirSkill"
                        }
                    ],
                    "AKLHLMPMHGO": [
                        {}
                    ],
                    "JDNGFIFMEML": "Jump",
                    "IDCGNGBPDHO": "",
                    "PAHDNIDEPIJ": true
                },
                "FallWeapon": {
                    "$type": "BDINDCNIAIN",
                    "DLOHGBDFFGB": {
                        "DropDownWeapon": [
                            "Audio_Girl_DropDown"
                        ],
                        "DropDownLitWeapon": [],
                        "WalkDropDownLitWeapon": []
                    },
                    "POLKCLOHPOO": true,
                    "AJBLILDCLBO": [
                        "DoSkill"
                    ],
                    "PBAOEAEEBNB": [
                        {
                            "name": "&CanUseAirSkill"
                        }
                    ],
                    "IDCGNGBPDHO": "",
                    "PAHDNIDEPIJ": true
                },
                "BeHit": {
                    "$type": "BDINDCNIAIN",
                    "DLOHGBDFFGB": {
                        "Hit_L": [
                            "Audio_Girl_Hit_L"
                        ],
                        "Hit_H": [
                            "Audio_Girl_Hit_H"
                        ]
                    },
                    "DDELPBCPLMD": "combatMove",
                    "AJBLILDCLBO": [
                        "BeHit",
                        "HitAir2HitDrop"
                    ],
                    "DLAOMOCMANL": [
                        "DoSkill"
                    ],
                    "FPFDCFPIONL": "combatBeHit",
                    "NFOHCOJFAKG": 0.0,
                    "IDCGNGBPDHO": "",
                    "PAHDNIDEPIJ": true
                },
                "HitThrow": {
                    "$type": "BDINDCNIAIN",
                    "DLOHGBDFFGB": {
                        "Hit_Throw_Ground": [
                            "BeHitAir_Weapon"
                        ]
                    },
                    "DDELPBCPLMD": "combatMove",
                    "AJBLILDCLBO": [
                        "BeHit",
                        "HitAir2HitDrop"
                    ],
                    "DLAOMOCMANL": [
                        "DoSkill"
                    ],
                    "PBAOEAEEBNB": [
                        {
                            "name": "&CanUseLiquid"
                        }
                    ],
                    "FPFDCFPIONL": "combatBeHit",
                    "NFOHCOJFAKG": 0.0,
                    "IDCGNGBPDHO": "",
                    "EJCGPJGMOCP": true
                },
                "BeHitAir": {
                    "$type": "BDINDCNIAIN",
                    "DLOHGBDFFGB": {
                        "Hit_Throw": [
                            "Audio_Girl_Hit_Throw",
                            "BeHitAir_Weapon"
                        ],
                        "Hit_ThrowAir": [
                            "Audio_Girl_Hit_ThrowAir",
                            "BeHitAir_Weapon"
                        ],
                        "Struggle": [
                            "BeHitAir_Weapon"
                        ]
                    },
                    "DDELPBCPLMD": "combatAir",
                    "AJBLILDCLBO": [
                        "BeHit"
                    ],
                    "DLAOMOCMANL": [
                        "DoSkill"
                    ],
                    "FPFDCFPIONL": "combatBeHit",
                    "JDNGFIFMEML": "CombatAir",
                    "NFOHCOJFAKG": 0.0,
                    "IDCGNGBPDHO": "",
                    "EJCGPJGMOCP": true
                },
                "Die": {
                    "$type": "BDINDCNIAIN",
                    "DLOHGBDFFGB": {
                        "FallDie": [
                            "Audio_Girl_Death"
                        ],
                        "NormalDie": [
                            "Die",
                            "Audio_Girl_Death"
                        ],
                        "SwimDie": [
                            "Swim_Die",
                            "Audio_Girl_SwimDie"
                        ],
                        "HitGroundDie": [
                            "Die",
                            "Audio_Girl_Death"
                        ]
                    },
                    "IDCGNGBPDHO": ""
                },
                "Die_RagDoll": {
                    "$type": "BDINDCNIAIN",
                    "DLOHGBDFFGB": {
                        "FallDie_AS": []
                    },
                    "CPOLOGIELCD": true,
                    "IDCGNGBPDHO": ""
                },
                "ShootBS": {
                    "$type": "BDINDCNIAIN",
                    "DLOHGBDFFGB": {
                        "ShootStandbyBS": [
                            "Ambor_ShootBS",
                            "Emo_Avatar_Ambor_Fight_AimBS"
                        ],
                        "ShootRunBS": [
                            "Ambor_ShootBS",
                            "Emo_Avatar_Ambor_Fight_AimBS"
                        ]
                    },
                    "DDELPBCPLMD": "combatMove",
                    "POLKCLOHPOO": true,
                    "DLAOMOCMANL": [
                        "BeHit",
                        "DoSkill",
                        "Jump"
                    ],
                    "PBAOEAEEBNB": [
                        {
                            "name": "&CanCancelSkill"
                        }
                    ],
                    "AKLHLMPMHGO": [
                        {}
                    ],
                    "IDCGNGBPDHO": "",
                    "PAHDNIDEPIJ": true
                },
                "Shoot": {
                    "$type": "BDINDCNIAIN",
                    "DLOHGBDFFGB": {
                        "Attack01": [
                            "Ambor_Attack01",
                            "Audio_Girl_Bow_Attack01",
                            "Emo_Girl_Bow_Ambor_NormalAttack01",
                            "SetComboCount1",
                            "Interaction_Bad"
                        ],
                        "Attack02": [
                            "Ambor_Attack02",
                            "Audio_Girl_Bow_Attack02",
                            "Emo_Girl_Bow_Ambor_NormalAttack02",
                            "SetComboCount2",
                            "Interaction_Bad"
                        ],
                        "Attack03": [
                            "Ambor_Attack03",
                            "Audio_Girl_Bow_Attack03",
                            "Emo_Girl_Bow_Ambor_NormalAttack03",
                            "SetComboCount3",
                            "Interaction_Bad"
                        ],
                        "Attack04": [
                            "Ambor_Attack04",
                            "Audio_Girl_Bow_Attack04",
                            "Emo_Girl_Bow_Ambor_NormalAttack04",
                            "SetComboCount4",
                            "Interaction_Bad"
                        ],
                        "Attack05": [
                            "Ambor_Attack05",
                            "Audio_Girl_Bow_Attack05",
                            "Emo_Girl_Bow_Ambor_NormalAttack05",
                            "SetComboCount5",
                            "Interaction_Bad"
                        ]
                    },
                    "DDELPBCPLMD": "combatMove",
                    "POLKCLOHPOO": true,
                    "DLAOMOCMANL": [
                        "BeHit",
                        "DoSkill",
                        "Jump"
                    ],
                    "PBAOEAEEBNB": [
                        {
                            "name": "&CanCancelSkill"
                        }
                    ],
                    "FPFDCFPIONL": "combatNormal",
                    "DCMKGOFGOBB": {
                        "JGPPKCCHJCK": 2.0
                    },
                    "AKLHLMPMHGO": [
                        {}
                    ],
                    "IDCGNGBPDHO": "",
                    "PAHDNIDEPIJ": true
                },
                "Aim": {
                    "$type": "BDINDCNIAIN",
                    "priority": -2,
                    "DLOHGBDFFGB": {
                        "AimLoop": [
                            "Audio_Girl_Crossbow_Aim_Loop",
                            "Emo_Avatar_Ambor_Fight_Aim"
                        ]
                    },
                    "DDELPBCPLMD": "combatMove",
                    "POLKCLOHPOO": true,
                    "DLAOMOCMANL": [
                        "BeHit",
                        "DoSkill",
                        "Jump"
                    ],
                    "JLCBIHAHPEO": true,
                    "JDNGFIFMEML": "Aim",
                    "IDCGNGBPDHO": "",
                    "PAHDNIDEPIJ": true
                },
                "FastAim": {
                    "$type": "BDINDCNIAIN",
                    "priority": -2,
                    "DLOHGBDFFGB": {
                        "FastAimLoop": [
                            "Audio_Girl_Crossbow_Aim_Loop",
                            "Emo_Avatar_Ambor_Fight_Aim"
                        ]
                    },
                    "DDELPBCPLMD": "combatMove",
                    "POLKCLOHPOO": true,
                    "DLAOMOCMANL": [
                        "BeHit",
                        "DoSkill",
                        "Jump"
                    ],
                    "JLCBIHAHPEO": true,
                    "JDNGFIFMEML": "FastAim",
                    "IDCGNGBPDHO": "",
                    "PAHDNIDEPIJ": true
                },
                "Sit": {
                    "$type": "BDINDCNIAIN",
                    "DLOHGBDFFGB": {
                        "SitDown": [
                            "Audio_Girl_SitDown"
                        ],
                        "SitLoop": [],
                        "SitUp": [
                            "Audio_Girl_SitDown"
                        ]
                    },
                    "DDELPBCPLMD": "performMove",
                    "NKBIEPDEJAO": 100.0,
                    "JDNGFIFMEML": "Perform",
                    "IDCGNGBPDHO": "",
                    "EJCGPJGMOCP": true
                },
                "SitB": {
                    "$type": "BDINDCNIAIN",
                    "DLOHGBDFFGB": {
                        "SitBDown": [
                            "Audio_Girl_SitDown"
                        ],
                        "SitBLoop": [],
                        "SitBUp": [
                            "Audio_Girl_SitDown"
                        ]
                    },
                    "DDELPBCPLMD": "performMove",
                    "NKBIEPDEJAO": 100.0,
                    "JDNGFIFMEML": "Perform",
                    "IDCGNGBPDHO": "",
                    "EJCGPJGMOCP": true
                },
                "TakePhotos": {
                    "$type": "BDINDCNIAIN",
                    "DLOHGBDFFGB": {
                        "Think01BS": [],
                        "Akimbo02BS": [],
                        "Think01Loop": [],
                        "Akimbo02Loop": [],
                        "Think01AS": [],
                        "Akimbo02AS": []
                    },
                    "IDCGNGBPDHO": ""
                },
                "Channel_BS": {
                    "$type": "BDINDCNIAIN",
                    "DLOHGBDFFGB": {
                        "ChannelBS": [
                            "Emo_Avatar_Common_Manekin_Default"
                        ]
                    },
                    "DDELPBCPLMD": "combatMove",
                    "POLKCLOHPOO": true,
                    "NKBIEPDEJAO": 100.0,
                    "DLAOMOCMANL": [
                        "BeHit",
                        "DoSkill",
                        "Jump"
                    ],
                    "PBAOEAEEBNB": [
                        {
                            "name": "&CanUseSkill"
                        }
                    ],
                    "AKLHLMPMHGO": [
                        {}
                    ],
                    "IDCGNGBPDHO": "",
                    "EJCGPJGMOCP": true
                },
                "Channel_Loop": {
                    "$type": "BDINDCNIAIN",
                    "DLOHGBDFFGB": {
                        "ChannelLoop": []
                    },
                    "DDELPBCPLMD": "combatMove",
                    "POLKCLOHPOO": true,
                    "NKBIEPDEJAO": 100.0,
                    "DLAOMOCMANL": [
                        "BeHit",
                        "DoSkill",
                        "Jump"
                    ],
                    "PBAOEAEEBNB": [
                        {
                            "name": "&CanUseSkill"
                        }
                    ],
                    "AKLHLMPMHGO": [
                        {}
                    ],
                    "IDCGNGBPDHO": "",
                    "EJCGPJGMOCP": true
                },
                "Channel_AS": {
                    "$type": "BDINDCNIAIN",
                    "DLOHGBDFFGB": {
                        "ChannelAS": []
                    },
                    "DDELPBCPLMD": "combatMove",
                    "POLKCLOHPOO": true,
                    "NKBIEPDEJAO": 100.0,
                    "DLAOMOCMANL": [
                        "BeHit",
                        "DoSkill",
                        "Jump"
                    ],
                    "PBAOEAEEBNB": [
                        {
                            "name": "&CanUseSkill"
                        }
                    ],
                    "AKLHLMPMHGO": [
                        {}
                    ],
                    "IDCGNGBPDHO": "",
                    "EJCGPJGMOCP": true
                },
                "PlayMusic_Lyre": {
                    "$type": "BDINDCNIAIN",
                    "DLOHGBDFFGB": {
                        "PlayMusic_Lyre_BS": [
                            "PlayMusic_Lyre_Girl"
                        ],
                        "PlayMusic_Lyre_Loop": []
                    },
                    "DDELPBCPLMD": "combatMove",
                    "NKBIEPDEJAO": 100.0,
                    "DLAOMOCMANL": [
                        "BeHit",
                        "DoSkill",
                        "Jump"
                    ],
                    "IDCGNGBPDHO": "",
                    "EJCGPJGMOCP": true
                },
                "PlayMusic_Lyre_AS": {
                    "$type": "BDINDCNIAIN",
                    "DLOHGBDFFGB": {
                        "PlayMusic_Lyre_AS": [
                            "PlayMusic_Lyre_Girl_AS"
                        ]
                    },
                    "DDELPBCPLMD": "combatMove",
                    "POLKCLOHPOO": true,
                    "NKBIEPDEJAO": 100.0,
                    "DLAOMOCMANL": [
                        "BeHit",
                        "DoSkill",
                        "Jump"
                    ],
                    "PBAOEAEEBNB": [
                        {
                            "name": "&CanUseSkill"
                        }
                    ],
                    "AKLHLMPMHGO": [
                        {}
                    ],
                    "IDCGNGBPDHO": "",
                    "EJCGPJGMOCP": true
                },
                "PlayMusic_Qin": {
                    "$type": "BDINDCNIAIN",
                    "DLOHGBDFFGB": {
                        "PlayMusic_Qin_BS": [
                            "PlayMusic_Qin_Girl"
                        ],
                        "PlayMusic_Qin_Loop": []
                    },
                    "DDELPBCPLMD": "combatMove",
                    "NKBIEPDEJAO": 100.0,
                    "DLAOMOCMANL": [
                        "BeHit",
                        "DoSkill",
                        "Jump"
                    ],
                    "IDCGNGBPDHO": "",
                    "EJCGPJGMOCP": true
                },
                "PlayMusic_Qin_AS": {
                    "$type": "BDINDCNIAIN",
                    "DLOHGBDFFGB": {
                        "PlayMusic_Qin_AS": [
                            "PlayMusic_Qin_Girl_AS"
                        ]
                    },
                    "DDELPBCPLMD": "combatMove",
                    "POLKCLOHPOO": true,
                    "NKBIEPDEJAO": 100.0,
                    "DLAOMOCMANL": [
                        "BeHit",
                        "DoSkill",
                        "Jump"
                    ],
                    "PBAOEAEEBNB": [
                        {
                            "name": "&CanUseSkill"
                        }
                    ],
                    "AKLHLMPMHGO": [
                        {}
                    ],
                    "IDCGNGBPDHO": "",
                    "EJCGPJGMOCP": true
                },
                "PlayMusic_Drum": {
                    "$type": "BDINDCNIAIN",
                    "DLOHGBDFFGB": {
                        "PlayMusic_Drum_BS": [
                            "PlayMusic_Drum_Girl"
                        ],
                        "PlayMusic_Drum_Loop": []
                    },
                    "DDELPBCPLMD": "combatMove",
                    "NKBIEPDEJAO": 100.0,
                    "DLAOMOCMANL": [
                        "BeHit",
                        "DoSkill",
                        "Jump"
                    ],
                    "IDCGNGBPDHO": "",
                    "EJCGPJGMOCP": true
                },
                "PlayMusic_Drum_AS": {
                    "$type": "BDINDCNIAIN",
                    "DLOHGBDFFGB": {
                        "PlayMusic_Drum_AS": [
                            "PlayMusic_Drum_Girl_AS"
                        ]
                    },
                    "DDELPBCPLMD": "combatMove",
                    "POLKCLOHPOO": true,
                    "NKBIEPDEJAO": 100.0,
                    "DLAOMOCMANL": [
                        "BeHit",
                        "DoSkill",
                        "Jump"
                    ],
                    "PBAOEAEEBNB": [
                        {
                            "name": "&CanUseSkill"
                        }
                    ],
                    "AKLHLMPMHGO": [
                        {}
                    ],
                    "IDCGNGBPDHO": "",
                    "EJCGPJGMOCP": true
                },
                "ActivitySkill_ElectricCoreFly": {
                    "$type": "BDINDCNIAIN",
                    "DLOHGBDFFGB": {
                        "ActivitySkill_ElectricCoreFly": []
                    },
                    "DDELPBCPLMD": "combatAir",
                    "NKBIEPDEJAO": 100.0,
                    "AJBLILDCLBO": [
                        "ElectricCoreFly_End"
                    ],
                    "DLAOMOCMANL": [
                        "BeHit",
                        "DoSkill",
                        "Jump",
                        "ElectricCoreFly_End"
                    ],
                    "IDCGNGBPDHO": "",
                    "EJCGPJGMOCP": true
                },
                "ActivitySkill_GrapplingHook": {
                    "$type": "BDINDCNIAIN",
                    "DLOHGBDFFGB": {
                        "ActivitySkill_GrapplingHook": []
                    },
                    "DDELPBCPLMD": "combatAir",
                    "NKBIEPDEJAO": 100.0,
                    "AJBLILDCLBO": [
                        "GrapplingHook_Drop"
                    ],
                    "DLAOMOCMANL": [
                        "BeHit",
                        "DoSkill",
                        "Jump",
                        "GrapplingHook_Drop"
                    ],
                    "IDCGNGBPDHO": "",
                    "EJCGPJGMOCP": true
                }
            }
        }
    },
    "audio": {
        "KEEAIACIJBN": "",
        "animAudio": {
            "onTransitionOut": [
                {
                    "currentStateName": "StandbyPutaway",
                    "audioEvent": {
                        "text": "Stop_sfx_weapon_1HSword_lady_putAwayStandby"
                    }
                },
                {
                    "currentStateName": "WalkPutaway",
                    "audioEvent": {
                        "text": "Stop_sfx_weapon_1HSword_lady_putAwayStandby"
                    }
                },
                {
                    "currentStateName": "RunPutaway",
                    "audioEvent": {
                        "text": "Stop_sfx_weapon_1HSword_lady_putAwayStandby"
                    }
                },
                {
                    "currentStateName": "SwimJumpDrop",
                    "audioEvent": {
                        "text": "Stop_sfx_char_swim_drop"
                    }
                },
                {
                    "currentStateName": "SwimJump",
                    "audioEvent": {
                        "text": "Stop_sfx_char_swim_drop"
                    },
                    "otherStateNames": [
                        "SwimJumpDrop"
                    ],
                    "usage": "Except"
                },
                {
                    "currentStateName": "Fly",
                    "audioEvent": {
                        "text": "Play_sfx_char_land_climb"
                    },
                    "otherStateNames": [
                        "ClimbIdle",
                        "ClimbMove0",
                        "ClimbMove1",
                        "ClimbJump"
                    ],
                    "usage": "InSet"
                },
                {
                    "currentStateName": "FlyStart",
                    "audioEvent": {
                        "text": "Play_sfx_char_land_climb"
                    },
                    "otherStateNames": [
                        "ClimbIdle",
                        "ClimbMove0",
                        "ClimbMove1",
                        "ClimbJump"
                    ],
                    "usage": "InSet"
                },
                {
                    "currentStateName": "DropDownLit",
                    "audioEvent": {
                        "text": "Play_sfx_char_land_climb"
                    },
                    "otherStateNames": [
                        "ClimbIdle",
                        "ClimbMove0",
                        "ClimbMove1",
                        "ClimbJump"
                    ],
                    "usage": "InSet"
                },
                {
                    "currentStateName": "DropDown",
                    "audioEvent": {
                        "text": "Play_sfx_char_land_climb"
                    },
                    "otherStateNames": [
                        "ClimbIdle",
                        "ClimbMove0",
                        "ClimbMove1",
                        "ClimbJump"
                    ],
                    "usage": "InSet"
                },
                {
                    "currentStateName": "WalkDropDownLit",
                    "audioEvent": {
                        "text": "Play_sfx_char_land_climb"
                    },
                    "otherStateNames": [
                        "ClimbIdle",
                        "ClimbMove0",
                        "ClimbMove1",
                        "ClimbJump"
                    ],
                    "usage": "InSet"
                },
                {
                    "currentStateName": "Jump",
                    "audioEvent": {
                        "text": "Play_sfx_char_land_climb"
                    },
                    "otherStateNames": [
                        "ClimbIdle",
                        "ClimbMove0",
                        "ClimbMove1",
                        "ClimbJump"
                    ],
                    "usage": "InSet"
                },
                {
                    "currentStateName": "JumpForWalk",
                    "audioEvent": {
                        "text": "Play_sfx_char_land_climb"
                    },
                    "otherStateNames": [
                        "ClimbIdle",
                        "ClimbMove0",
                        "ClimbMove1",
                        "ClimbJump"
                    ],
                    "usage": "InSet"
                },
                {
                    "currentStateName": "JumpForRun",
                    "audioEvent": {
                        "text": "Play_sfx_char_land_climb"
                    },
                    "otherStateNames": [
                        "ClimbIdle",
                        "ClimbMove0",
                        "ClimbMove1",
                        "ClimbJump"
                    ],
                    "usage": "InSet"
                },
                {
                    "currentStateName": "JumpForSprint",
                    "audioEvent": {
                        "text": "Play_sfx_char_land_climb"
                    },
                    "otherStateNames": [
                        "ClimbIdle",
                        "ClimbMove0",
                        "ClimbMove1",
                        "ClimbJump"
                    ],
                    "usage": "InSet"
                },
                {
                    "currentStateName": "JumpWeapon",
                    "audioEvent": {
                        "text": "Play_sfx_char_land_climb"
                    },
                    "otherStateNames": [
                        "ClimbIdle",
                        "ClimbMove0",
                        "ClimbMove1",
                        "ClimbJump"
                    ],
                    "usage": "InSet"
                },
                {
                    "currentStateName": "JumpForWalkWeapon",
                    "audioEvent": {
                        "text": "Play_sfx_char_land_climb"
                    },
                    "otherStateNames": [
                        "ClimbIdle",
                        "ClimbMove0",
                        "ClimbMove1",
                        "ClimbJump"
                    ],
                    "usage": "InSet"
                },
                {
                    "currentStateName": "JumpForRunWeapon",
                    "audioEvent": {
                        "text": "Play_sfx_char_land_climb"
                    },
                    "otherStateNames": [
                        "ClimbIdle",
                        "ClimbMove0",
                        "ClimbMove1",
                        "ClimbJump"
                    ],
                    "usage": "InSet"
                },
                {
                    "currentStateName": "DropDownWeapon",
                    "audioEvent": {
                        "text": "Play_sfx_char_land_climb"
                    },
                    "otherStateNames": [
                        "ClimbIdle",
                        "ClimbMove0",
                        "ClimbMove1",
                        "ClimbJump"
                    ],
                    "usage": "InSet"
                },
                {
                    "currentStateName": "DropDownLitWeapon",
                    "audioEvent": {
                        "text": "Play_sfx_char_land_climb"
                    },
                    "otherStateNames": [
                        "ClimbIdle",
                        "ClimbMove0",
                        "ClimbMove1",
                        "ClimbJump"
                    ],
                    "usage": "InSet"
                },
                {
                    "currentStateName": "SwimMove",
                    "audioEvent": {
                        "text": "Stop_sfx_char_swim"
                    }
                }
            ],
            "recurrentSpeeches": {
                "Standby": {
                    "start": {
                        "upper": 28.0,
                        "lower": 23.0
                    },
                    "interval": {
                        "upper": 40.0,
                        "lower": 34.0
                    },
                    "eventName": {
                        "text": "Play_vo_char_explore_idle"
                    }
                },
                "Walk": {
                    "start": {
                        "upper": 16.0,
                        "lower": 13.0
                    },
                    "interval": {
                        "upper": 14.0,
                        "lower": 10.0
                    },
                    "eventName": {
                        "text": ""
                    }
                },
                "Run": {
                    "start": {
                        "upper": 13.0,
                        "lower": 9.0
                    },
                    "interval": {
                        "upper": 11.0,
                        "lower": 8.0
                    },
                    "eventName": {
                        "text": ""
                    }
                },
                "Sprint": {
                    "start": {
                        "upper": 12.0,
                        "lower": 7.0
                    },
                    "interval": {
                        "upper": 9.0,
                        "lower": 6.0
                    },
                    "eventName": {
                        "text": ""
                    }
                }
            }
        },
        "moveStateAudio": {
            "onStateBegin": [
                {
                    "currentStateName": "Fly",
                    "audioEvent": {
                        "text": "Play_sfx_char_fly"
                    }
                }
            ],
            "onStateEnd": [
                {
                    "currentStateName": "Fly",
                    "audioEvent": {
                        "text": "Stop_sfx_char_fly"
                    },
                    "otherStateNames": [
                        "Air"
                    ],
                    "usage": "Except"
                },
                {
                    "currentStateName": "Air",
                    "audioEvent": {
                        "text": "Stop_sfx_char_fly"
                    },
                    "otherStateNames": [
                        "Fly"
                    ],
                    "usage": "Except"
                }
            ]
        },
        "voiceSwitch": {
            "text": "Switch_RuoxinTest"
        },
        "bodyTypeSwitch": {
            "text": "Switch_Girl"
        },
        "listenerLiftup": 1.5,
        "surfaceProberLiftup": 1.5
    },
    "moveStateEffect": {
        "footprint": {
            "defaultEffectPatternName": "",
            "specialSurfaces": {
                "Snow": {
                    "all": {
                        "effect": "Eff_Character_Snow_Footprint",
                        "deformation": ""
                    },
                    "PCNoTessellation": {
                        "effect": "Eff_Character_Snow_Footprint",
                        "deformation": ""
                    },
                    "pc": {
                        "effect": "Eff_Character_Snow_Footprint_PCPS4",
                        "deformation": "Snow_Footprint"
                    },
                    "ps4": {
                        "effect": "Eff_Character_Snow_Footprint_PCPS4",
                        "deformation": "Snow_Footprint"
                    }
                },
                "SnowRock": {
                    "all": {
                        "effect": "Eff_Character_Snow_Footprint",
                        "deformation": ""
                    },
                    "PCNoTessellation": {
                        "effect": "Eff_Character_Snow_Footprint",
                        "deformation": ""
                    },
                    "pc": {
                        "effect": "Eff_Character_Snow_Footprint_PCPS4",
                        "deformation": "Snow_Footprint"
                    },
                    "ps4": {
                        "effect": "Eff_Character_Snow_Footprint_PCPS4",
                        "deformation": "Snow_Footprint"
                    }
                },
                "Dirt": {
                    "all": {
                        "effect": "Eff_Chacter_Footprint",
                        "deformation": ""
                    }
                },
                "Sand": {
                    "all": {
                        "effect": "Eff_Chacter_Footprint",
                        "deformation": ""
                    }
                },
                "Cloud": {
                    "all": {
                        "effect": "Eff_FootGround_Cloud_01",
                        "deformation": ""
                    }
                }
            }
        }
    }
}