{
    "sceneId": 9,
    "gadgets": [
        {
            "groupId": 199002020,
            "mapInstId": 20020,
            "followMoveAttachPoint": "",
            "uiIndicator": {
                "templateName": "ChestUnlock_Icon"
            },
            "rotateCoreCityName": ""
        },
        {
            "groupId": 199002025,
            "mapInstId": 25009,
            "followMoveAttachPoint": "",
            "uiIndicator": {
                "templateName": "ChestUnlock_Icon"
            },
            "rotateCoreCityName": ""
        },
        {
            "groupId": 199002025,
            "mapInstId": 25011,
            "followMoveAttachPoint": "",
            "uiIndicator": {
                "templateName": "Normal_Chest_Icon"
            },
            "rotateCoreCityName": ""
        },
        {
            "groupId": 199002026,
            "mapInstId": 26010,
            "followMoveAttachPoint": "",
            "uiIndicator": {
                "templateName": "Normal_Chest_Icon"
            },
            "rotateCoreCityName": ""
        },
        {
            "groupId": 199002027,
            "mapInstId": 27014,
            "followMoveAttachPoint": "",
            "uiIndicator": {
                "templateName": "Normal_Chest_Icon"
            },
            "rotateCoreCityName": ""
        },
        {
            "groupId": 199002028,
            "mapInstId": 28018,
            "followMoveAttachPoint": "",
            "uiIndicator": {
                "templateName": "Normal_Chest_Icon"
            },
            "rotateCoreCityName": ""
        },
        {
            "groupId": 199002029,
            "mapInstId": 29012,
            "followMoveAttachPoint": "",
            "uiIndicator": {
                "templateName": "Normal_Chest_Icon"
            },
            "rotateCoreCityName": ""
        },
        {
            "groupId": 199002030,
            "mapInstId": 30012,
            "followMoveAttachPoint": "",
            "uiIndicator": {
                "templateName": "Normal_Chest_Icon"
            },
            "rotateCoreCityName": ""
        },
        {
            "groupId": 199002034,
            "mapInstId": 34032,
            "followMoveAttachPoint": "",
            "uiIndicator": {
                "templateName": "ChestUnlock_Icon"
            },
            "rotateCoreCityName": ""
        },
        {
            "groupId": 199002036,
            "mapInstId": 36031,
            "followMoveAttachPoint": "",
            "uiIndicator": {
                "templateName": "ChestUnlock_Icon"
            },
            "rotateCoreCityName": ""
        },
        {
            "groupId": 199002037,
            "mapInstId": 37025,
            "followMoveAttachPoint": "",
            "uiIndicator": {
                "templateName": "ChestUnlock_Icon"
            },
            "rotateCoreCityName": ""
        },
        {
            "groupId": 199002039,
            "mapInstId": 39023,
            "followMoveAttachPoint": "",
            "uiIndicator": {
                "templateName": "ChestUnlock_Icon"
            },
            "rotateCoreCityName": ""
        },
        {
            "groupId": 199002040,
            "mapInstId": 40026,
            "followMoveAttachPoint": "",
            "uiIndicator": {
                "templateName": "ChestUnlock_Icon"
            },
            "rotateCoreCityName": ""
        },
        {
            "groupId": 199002042,
            "mapInstId": 42024,
            "followMoveAttachPoint": "",
            "uiIndicator": {
                "templateName": "ChestUnlock_Icon"
            },
            "rotateCoreCityName": ""
        },
        {
            "groupId": 199002043,
            "mapInstId": 43036,
            "followMoveAttachPoint": "",
            "uiIndicator": {
                "templateName": "ChestUnlock_Icon"
            },
            "rotateCoreCityName": ""
        },
        {
            "groupId": 199002044,
            "mapInstId": 44023,
            "followMoveAttachPoint": "",
            "uiIndicator": {
                "templateName": "ChestUnlock_Icon"
            },
            "rotateCoreCityName": ""
        },
        {
            "groupId": 199002045,
            "mapInstId": 45028,
            "followMoveAttachPoint": "",
            "uiIndicator": {
                "templateName": "ChestUnlock_Icon"
            },
            "rotateCoreCityName": ""
        },
        {
            "groupId": 199002065,
            "mapInstId": 65010,
            "followMoveAttachPoint": "",
            "uiIndicator": {
                "templateName": "SocialActivity_Target_Icon"
            },
            "rotateCoreCityName": ""
        },
        {
            "groupId": 199002065,
            "mapInstId": 65012,
            "followMoveAttachPoint": "",
            "uiIndicator": {
                "templateName": "SocialActivity_Target_Icon"
            },
            "rotateCoreCityName": ""
        },
        {
            "groupId": 199002065,
            "mapInstId": 65015,
            "followMoveAttachPoint": "",
            "uiIndicator": {
                "templateName": "SocialActivity_Target_Icon"
            },
            "rotateCoreCityName": ""
        },
        {
            "groupId": 199002065,
            "mapInstId": 65032,
            "followMoveAttachPoint": "",
            "uiIndicator": {
                "templateName": "SocialActivity_Target_Icon"
            },
            "rotateCoreCityName": ""
        },
        {
            "groupId": 199002065,
            "mapInstId": 65034,
            "followMoveAttachPoint": "",
            "uiIndicator": {
                "templateName": "SocialActivity_Target_Icon"
            },
            "rotateCoreCityName": ""
        },
        {
            "groupId": 199002065,
            "mapInstId": 65036,
            "followMoveAttachPoint": "",
            "uiIndicator": {
                "templateName": "SocialActivity_Target_Icon"
            },
            "rotateCoreCityName": ""
        },
        {
            "groupId": 199002065,
            "mapInstId": 65038,
            "followMoveAttachPoint": "",
            "uiIndicator": {
                "templateName": "SocialActivity_Target_Icon"
            },
            "rotateCoreCityName": ""
        },
        {
            "groupId": 199002065,
            "mapInstId": 65040,
            "followMoveAttachPoint": "",
            "uiIndicator": {
                "templateName": "SocialActivity_Target_Icon"
            },
            "rotateCoreCityName": ""
        },
        {
            "groupId": 199002065,
            "mapInstId": 65065,
            "followMoveAttachPoint": "",
            "uiIndicator": {
                "templateName": "SocialActivity_Target_Icon"
            },
            "rotateCoreCityName": ""
        },
        {
            "groupId": 199002065,
            "mapInstId": 65066,
            "followMoveAttachPoint": "",
            "uiIndicator": {
                "templateName": "SocialActivity_Target_Icon"
            },
            "rotateCoreCityName": ""
        },
        {
            "groupId": 199002065,
            "mapInstId": 65155,
            "followMoveAttachPoint": "",
            "uiIndicator": {
                "templateName": "SocialActivity_Target_Icon"
            },
            "rotateCoreCityName": ""
        },
        {
            "groupId": 199002065,
            "mapInstId": 65189,
            "followMoveAttachPoint": "",
            "uiIndicator": {
                "templateName": "SocialActivity_Target_Icon"
            },
            "rotateCoreCityName": ""
        },
        {
            "groupId": 199002065,
            "mapInstId": 65318,
            "followMoveAttachPoint": "",
            "uiIndicator": {
                "templateName": "SocialActivity_Target_Icon"
            },
            "rotateCoreCityName": ""
        },
        {
            "groupId": 199002065,
            "mapInstId": 65319,
            "followMoveAttachPoint": "",
            "uiIndicator": {
                "templateName": "SocialActivity_Target_Icon"
            },
            "rotateCoreCityName": ""
        },
        {
            "groupId": 199002065,
            "mapInstId": 65320,
            "followMoveAttachPoint": "",
            "uiIndicator": {
                "templateName": "SocialActivity_Target_Icon"
            },
            "rotateCoreCityName": ""
        },
        {
            "groupId": 199002065,
            "mapInstId": 65324,
            "followMoveAttachPoint": "",
            "uiIndicator": {
                "templateName": "SocialActivity_Target_Icon"
            },
            "rotateCoreCityName": ""
        },
        {
            "groupId": 199002065,
            "mapInstId": 65408,
            "followMoveAttachPoint": "",
            "uiIndicator": {
                "templateName": "SocialActivity_Target_Icon"
            },
            "rotateCoreCityName": ""
        },
        {
            "groupId": 199002065,
            "mapInstId": 65414,
            "followMoveAttachPoint": "",
            "uiIndicator": {
                "templateName": "SocialActivity_Target_Icon"
            },
            "rotateCoreCityName": ""
        },
        {
            "groupId": 199002065,
            "mapInstId": 65415,
            "followMoveAttachPoint": "",
            "uiIndicator": {
                "templateName": "SocialActivity_Target_Icon"
            },
            "rotateCoreCityName": ""
        },
        {
            "groupId": 199002065,
            "mapInstId": 65416,
            "followMoveAttachPoint": "",
            "uiIndicator": {
                "templateName": "SocialActivity_Target_Icon"
            },
            "rotateCoreCityName": ""
        },
        {
            "groupId": 199002065,
            "mapInstId": 65417,
            "followMoveAttachPoint": "",
            "uiIndicator": {
                "templateName": "SocialActivity_Target_Icon"
            },
            "rotateCoreCityName": ""
        },
        {
            "groupId": 199002065,
            "mapInstId": 65418,
            "followMoveAttachPoint": "",
            "uiIndicator": {
                "templateName": "SocialActivity_Target_Icon"
            },
            "rotateCoreCityName": ""
        },
        {
            "groupId": 199002079,
            "mapInstId": 79002,
            "followMoveAttachPoint": "",
            "uiIndicator": {
                "templateName": "SummerTimeV2_Race_Icon"
            },
            "rotateCoreCityName": ""
        },
        {
            "groupId": 199002079,
            "mapInstId": 79003,
            "followMoveAttachPoint": "",
            "uiIndicator": {
                "templateName": "SocialActivity_Target_Icon"
            },
            "rotateCoreCityName": ""
        },
        {
            "groupId": 199002079,
            "mapInstId": 79037,
            "followMoveAttachPoint": "",
            "uiIndicator": {
                "templateName": "SocialActivity_Target_Icon"
            },
            "rotateCoreCityName": ""
        },
        {
            "groupId": 199002079,
            "mapInstId": 79053,
            "followMoveAttachPoint": "",
            "uiIndicator": {
                "templateName": "SocialActivity_Target_Icon"
            },
            "rotateCoreCityName": ""
        },
        {
            "groupId": 199002079,
            "mapInstId": 79072,
            "followMoveAttachPoint": "",
            "uiIndicator": {
                "templateName": "SocialActivity_Target_Icon"
            },
            "rotateCoreCityName": ""
        },
        {
            "groupId": 199002079,
            "mapInstId": 79086,
            "followMoveAttachPoint": "",
            "uiIndicator": {
                "templateName": "SocialActivity_Target_Icon"
            },
            "rotateCoreCityName": ""
        },
        {
            "groupId": 199002079,
            "mapInstId": 79092,
            "followMoveAttachPoint": "",
            "uiIndicator": {
                "templateName": "SocialActivity_Target_Icon"
            },
            "rotateCoreCityName": ""
        },
        {
            "groupId": 199002079,
            "mapInstId": 79093,
            "followMoveAttachPoint": "",
            "uiIndicator": {
                "templateName": "SocialActivity_Target_Icon"
            },
            "rotateCoreCityName": ""
        },
        {
            "groupId": 199002079,
            "mapInstId": 79106,
            "followMoveAttachPoint": "",
            "uiIndicator": {
                "templateName": "SocialActivity_Target_Icon"
            },
            "rotateCoreCityName": ""
        },
        {
            "groupId": 199002090,
            "mapInstId": 90004,
            "followMoveAttachPoint": "",
            "uiIndicator": {
                "templateName": "Normal_Chest_Icon"
            },
            "rotateCoreCityName": ""
        },
        {
            "groupId": 199002091,
            "mapInstId": 91004,
            "followMoveAttachPoint": "",
            "uiIndicator": {
                "templateName": "Normal_Chest_Icon"
            },
            "rotateCoreCityName": ""
        },
        {
            "groupId": 199002093,
            "mapInstId": 93004,
            "followMoveAttachPoint": "",
            "uiIndicator": {
                "templateName": "Normal_Chest_Icon"
            },
            "rotateCoreCityName": ""
        },
        {
            "groupId": 199002095,
            "mapInstId": 95004,
            "followMoveAttachPoint": "",
            "uiIndicator": {
                "templateName": "Normal_Chest_Icon"
            },
            "rotateCoreCityName": ""
        },
        {
            "groupId": 199002103,
            "mapInstId": 103003,
            "followMoveAttachPoint": "",
            "uiIndicator": {
                "templateName": "Normal_Chest_Icon"
            },
            "rotateCoreCityName": ""
        },
        {
            "groupId": 199002108,
            "mapInstId": 108002,
            "followMoveAttachPoint": "",
            "uiIndicator": {
                "templateName": "Normal_Chest_Icon"
            },
            "rotateCoreCityName": ""
        },
        {
            "groupId": 199002118,
            "mapInstId": 118023,
            "followMoveAttachPoint": "",
            "uiIndicator": {
                "templateName": "Normal_Chest_Icon"
            },
            "rotateCoreCityName": ""
        },
        {
            "groupId": 199002122,
            "mapInstId": 122168,
            "followMoveAttachPoint": "",
            "uiIndicator": {
                "templateName": "SocialActivity_Target_Icon"
            },
            "rotateCoreCityName": ""
        },
        {
            "groupId": 199002122,
            "mapInstId": 122169,
            "followMoveAttachPoint": "",
            "uiIndicator": {
                "templateName": "SocialActivity_Target_Icon"
            },
            "rotateCoreCityName": ""
        },
        {
            "groupId": 199002122,
            "mapInstId": 122202,
            "followMoveAttachPoint": "",
            "uiIndicator": {
                "templateName": "SocialActivity_Target_Icon"
            },
            "rotateCoreCityName": ""
        },
        {
            "groupId": 199002122,
            "mapInstId": 122203,
            "followMoveAttachPoint": "",
            "uiIndicator": {
                "templateName": "SocialActivity_Target_Icon"
            },
            "rotateCoreCityName": ""
        },
        {
            "groupId": 199002122,
            "mapInstId": 122205,
            "followMoveAttachPoint": "",
            "uiIndicator": {
                "templateName": "SocialActivity_Target_Icon"
            },
            "rotateCoreCityName": ""
        },
        {
            "groupId": 199002122,
            "mapInstId": 122206,
            "followMoveAttachPoint": "",
            "uiIndicator": {
                "templateName": "SocialActivity_Target_Icon"
            },
            "rotateCoreCityName": ""
        },
        {
            "groupId": 199002122,
            "mapInstId": 122209,
            "followMoveAttachPoint": "",
            "uiIndicator": {
                "templateName": "SocialActivity_Target_Icon"
            },
            "rotateCoreCityName": ""
        },
        {
            "groupId": 199002122,
            "mapInstId": 122210,
            "followMoveAttachPoint": "",
            "uiIndicator": {
                "templateName": "SocialActivity_Target_Icon"
            },
            "rotateCoreCityName": ""
        },
        {
            "groupId": 199002122,
            "mapInstId": 122211,
            "followMoveAttachPoint": "",
            "uiIndicator": {
                "templateName": "SocialActivity_Target_Icon"
            },
            "rotateCoreCityName": ""
        },
        {
            "groupId": 199002122,
            "mapInstId": 122212,
            "followMoveAttachPoint": "",
            "uiIndicator": {
                "templateName": "SocialActivity_Target_Icon"
            },
            "rotateCoreCityName": ""
        },
        {
            "groupId": 199002122,
            "mapInstId": 122281,
            "followMoveAttachPoint": "",
            "uiIndicator": {
                "templateName": "Blossom_Chest_Icon"
            },
            "rotateCoreCityName": ""
        },
        {
            "groupId": 199002126,
            "mapInstId": 126002,
            "followMoveAttachPoint": "",
            "uiIndicator": {
                "templateName": "Normal_Chest_Icon"
            },
            "rotateCoreCityName": ""
        },
        {
            "groupId": 199002134,
            "mapInstId": 134002,
            "followMoveAttachPoint": "",
            "uiIndicator": {
                "templateName": "Normal_Chest_Icon"
            },
            "rotateCoreCityName": ""
        },
        {
            "groupId": 199002135,
            "mapInstId": 135002,
            "followMoveAttachPoint": "",
            "uiIndicator": {
                "templateName": "Normal_Chest_Icon"
            },
            "rotateCoreCityName": ""
        },
        {
            "groupId": 199002141,
            "mapInstId": 141004,
            "followMoveAttachPoint": "",
            "uiIndicator": {
                "templateName": "Normal_Chest_Icon"
            },
            "rotateCoreCityName": ""
        },
        {
            "groupId": 199002142,
            "mapInstId": 142002,
            "followMoveAttachPoint": "",
            "uiIndicator": {
                "templateName": "Normal_Chest_Icon"
            },
            "rotateCoreCityName": ""
        },
        {
            "groupId": 199002144,
            "mapInstId": 144013,
            "followMoveAttachPoint": "",
            "uiIndicator": {
                "templateName": "Normal_Chest_Icon"
            },
            "rotateCoreCityName": ""
        },
        {
            "groupId": 199002145,
            "mapInstId": 145002,
            "followMoveAttachPoint": "",
            "uiIndicator": {
                "templateName": "Normal_Chest_Icon"
            },
            "rotateCoreCityName": ""
        },
        {
            "groupId": 199002148,
            "mapInstId": 148140,
            "followMoveAttachPoint": "",
            "uiIndicator": {
                "templateName": "Normal_Chest_Icon"
            },
            "rotateCoreCityName": ""
        },
        {
            "groupId": 199002151,
            "mapInstId": 151005,
            "followMoveAttachPoint": "",
            "uiIndicator": {
                "templateName": "Normal_Chest_Icon"
            },
            "rotateCoreCityName": ""
        },
        {
            "groupId": 199002155,
            "mapInstId": 155008,
            "followMoveAttachPoint": "",
            "uiIndicator": {
                "templateName": "Normal_Chest_Icon"
            },
            "rotateCoreCityName": ""
        },
        {
            "groupId": 199002169,
            "mapInstId": 169003,
            "followMoveAttachPoint": "",
            "uiIndicator": {
                "templateName": "Normal_Chest_Icon"
            },
            "rotateCoreCityName": ""
        },
        {
            "groupId": 199002171,
            "mapInstId": 171011,
            "followMoveAttachPoint": "",
            "uiIndicator": {
                "templateName": "Normal_Chest_Icon"
            },
            "rotateCoreCityName": ""
        },
        {
            "groupId": 199002173,
            "mapInstId": 173009,
            "followMoveAttachPoint": "",
            "uiIndicator": {
                "templateName": "Normal_Chest_Icon"
            },
            "rotateCoreCityName": ""
        },
        {
            "groupId": 199002194,
            "mapInstId": 194005,
            "followMoveAttachPoint": "",
            "uiIndicator": {
                "templateName": "Normal_Chest_Icon"
            },
            "rotateCoreCityName": ""
        }
    ]
}