{
    "sceneId": 3,
    "gadgets": [
        {
            "groupId": 133212003,
            "mapInstId": 3002,
            "followMoveAttachPoint": "",
            "uiIndicator": {
                "templateName": "Normal_Chest_Icon"
            },
            "rotateCoreCityName": ""
        },
        {
            "groupId": 133212005,
            "mapInstId": 5002,
            "followMoveAttachPoint": "",
            "uiIndicator": {
                "templateName": "Normal_Chest_Icon"
            },
            "rotateCoreCityName": ""
        },
        {
            "groupId": 133212006,
            "mapInstId": 6002,
            "followMoveAttachPoint": "",
            "uiIndicator": {
                "templateName": "Normal_Chest_Icon"
            },
            "rotateCoreCityName": ""
        },
        {
            "groupId": 133212010,
            "mapInstId": 10005,
            "followMoveAttachPoint": "",
            "uiIndicator": {
                "templateName": "Normal_Chest_Icon"
            },
            "rotateCoreCityName": ""
        },
        {
            "groupId": 133212014,
            "mapInstId": 14005,
            "followMoveAttachPoint": "",
            "uiIndicator": {
                "templateName": "Normal_Chest_Icon"
            },
            "rotateCoreCityName": ""
        },
        {
            "groupId": 133212019,
            "mapInstId": 19001,
            "followMoveAttachPoint": "",
            "uiIndicator": {
                "templateName": "Normal_Chest_Icon"
            },
            "rotateCoreCityName": ""
        },
        {
            "groupId": 133212020,
            "mapInstId": 20002,
            "followMoveAttachPoint": "",
            "uiIndicator": {
                "templateName": "Normal_Chest_Icon"
            },
            "rotateCoreCityName": ""
        },
        {
            "groupId": 133212030,
            "mapInstId": 30002,
            "followMoveAttachPoint": "",
            "uiIndicator": {
                "templateName": "Normal_Chest_Icon"
            },
            "rotateCoreCityName": ""
        },
        {
            "groupId": 133212032,
            "mapInstId": 32004,
            "followMoveAttachPoint": "",
            "uiIndicator": {
                "templateName": "Normal_Chest_Icon"
            },
            "rotateCoreCityName": ""
        },
        {
            "groupId": 133212033,
            "mapInstId": 33015,
            "followMoveAttachPoint": "",
            "uiIndicator": {
                "templateName": "BlitzRush01_Icon"
            },
            "rotateCoreCityName": ""
        },
        {
            "groupId": 133212033,
            "mapInstId": 33035,
            "followMoveAttachPoint": "",
            "uiIndicator": {
                "templateName": "Normal_WorldTask_Icon_Platform"
            },
            "rotateCoreCityName": ""
        },
        {
            "groupId": 133212033,
            "mapInstId": 33036,
            "followMoveAttachPoint": "",
            "uiIndicator": {
                "templateName": "Normal_WorldTask_Icon_Platform"
            },
            "rotateCoreCityName": ""
        },
        {
            "groupId": 133212033,
            "mapInstId": 33037,
            "followMoveAttachPoint": "",
            "uiIndicator": {
                "templateName": "Normal_WorldTask_Icon_Platform"
            },
            "rotateCoreCityName": ""
        },
        {
            "groupId": 133212033,
            "mapInstId": 33051,
            "followMoveAttachPoint": "",
            "uiIndicator": {
                "templateName": "Normal_WorldTask_Icon_Platform"
            },
            "rotateCoreCityName": ""
        },
        {
            "groupId": 133212033,
            "mapInstId": 33059,
            "followMoveAttachPoint": "",
            "uiIndicator": {
                "templateName": "Normal_WorldTask_Icon_Platform"
            },
            "rotateCoreCityName": ""
        },
        {
            "groupId": 133212035,
            "mapInstId": 35002,
            "followMoveAttachPoint": "",
            "uiIndicator": {
                "templateName": "Normal_Chest_Icon"
            },
            "rotateCoreCityName": ""
        },
        {
            "groupId": 133212038,
            "mapInstId": 38002,
            "followMoveAttachPoint": "",
            "uiIndicator": {
                "templateName": "Normal_Chest_Icon"
            },
            "rotateCoreCityName": ""
        },
        {
            "groupId": 133212040,
            "mapInstId": 40002,
            "followMoveAttachPoint": "",
            "uiIndicator": {
                "templateName": "Normal_Chest_Icon"
            },
            "rotateCoreCityName": ""
        },
        {
            "groupId": 133212042,
            "mapInstId": 42006,
            "followMoveAttachPoint": "",
            "uiIndicator": {
                "templateName": "Normal_Chest_Icon"
            },
            "rotateCoreCityName": ""
        },
        {
            "groupId": 133212081,
            "mapInstId": 81009,
            "followMoveAttachPoint": "",
            "uiIndicator": {
                "templateName": "Blossom_Chest_Icon"
            },
            "rotateCoreCityName": ""
        },
        {
            "groupId": 133212082,
            "mapInstId": 82009,
            "followMoveAttachPoint": "",
            "uiIndicator": {
                "templateName": "Blossom_Chest_Icon"
            },
            "rotateCoreCityName": ""
        },
        {
            "groupId": 133212083,
            "mapInstId": 83009,
            "followMoveAttachPoint": "",
            "uiIndicator": {
                "templateName": "Blossom_Chest_Icon"
            },
            "rotateCoreCityName": ""
        },
        {
            "groupId": 133212091,
            "mapInstId": 91009,
            "followMoveAttachPoint": "",
            "uiIndicator": {
                "templateName": "Blossom_Chest_Icon"
            },
            "rotateCoreCityName": ""
        },
        {
            "groupId": 133212108,
            "mapInstId": 108002,
            "followMoveAttachPoint": "",
            "uiIndicator": {
                "templateName": "Normal_Chest_Icon"
            },
            "rotateCoreCityName": ""
        },
        {
            "groupId": 133212109,
            "mapInstId": 109001,
            "followMoveAttachPoint": "",
            "uiIndicator": {
                "templateName": "Normal_Chest_Icon"
            },
            "rotateCoreCityName": ""
        },
        {
            "groupId": 133212126,
            "mapInstId": 126002,
            "followMoveAttachPoint": "",
            "uiIndicator": {
                "templateName": "Normal_Chest_Icon"
            },
            "rotateCoreCityName": ""
        },
        {
            "groupId": 133212131,
            "mapInstId": 131001,
            "followMoveAttachPoint": "",
            "uiIndicator": {
                "templateName": "Normal_Chest_Icon"
            },
            "rotateCoreCityName": ""
        },
        {
            "groupId": 133212156,
            "mapInstId": 156008,
            "followMoveAttachPoint": "",
            "billboardShowUIBarDis": 39.0,
            "billboardHideUIBarDis": 40.0,
            "uiIndicator": {
                "templateName": "Normal_DailyTask_Icon_HillCart"
            },
            "rotateCoreCityName": ""
        },
        {
            "groupId": 133212171,
            "mapInstId": 171017,
            "followMoveAttachPoint": "",
            "uiIndicator": {
                "templateName": "Normal_DailyTask_Icon_StateChange"
            },
            "rotateCoreCityName": ""
        },
        {
            "groupId": 133212173,
            "mapInstId": 173017,
            "followMoveAttachPoint": "",
            "uiIndicator": {
                "templateName": "Normal_DailyTask_Icon_StateChange"
            },
            "rotateCoreCityName": ""
        },
        {
            "groupId": 133212175,
            "mapInstId": 175011,
            "followMoveAttachPoint": "",
            "uiIndicator": {
                "templateName": "Normal_DailyTask_Icon_GuidePoint"
            },
            "rotateCoreCityName": ""
        },
        {
            "groupId": 133212176,
            "mapInstId": 176009,
            "followMoveAttachPoint": "",
            "uiIndicator": {
                "templateName": "Normal_DailyTask_Icon_GuidePoint"
            },
            "rotateCoreCityName": ""
        },
        {
            "groupId": 133212177,
            "mapInstId": 177009,
            "followMoveAttachPoint": "",
            "uiIndicator": {
                "templateName": "Normal_DailyTask_Icon_GuidePoint"
            },
            "rotateCoreCityName": ""
        },
        {
            "groupId": 133212178,
            "mapInstId": 178009,
            "followMoveAttachPoint": "",
            "uiIndicator": {
                "templateName": "Normal_DailyTask_Icon_GuidePoint"
            },
            "rotateCoreCityName": ""
        },
        {
            "groupId": 133212181,
            "mapInstId": 181009,
            "followMoveAttachPoint": "",
            "uiIndicator": {
                "templateName": "Normal_DailyTask_Icon",
                "paramDatas": {
                    "TaskDummy": "EVENT_31082"
                }
            },
            "rotateCoreCityName": ""
        },
        {
            "groupId": 133212181,
            "mapInstId": 181010,
            "followMoveAttachPoint": "",
            "uiIndicator": {
                "templateName": "Normal_DailyTask_Icon",
                "paramDatas": {
                    "TaskDummy": "EVENT_31082"
                }
            },
            "rotateCoreCityName": ""
        },
        {
            "groupId": 133212183,
            "mapInstId": 183001,
            "followMoveAttachPoint": "",
            "uiIndicator": {
                "templateName": "BlitzRush01_Icon"
            },
            "rotateCoreCityName": ""
        },
        {
            "groupId": 133212183,
            "mapInstId": 183039,
            "followMoveAttachPoint": "",
            "uiIndicator": {
                "templateName": "Normal_WorldTask_Icon_Platform"
            },
            "rotateCoreCityName": ""
        },
        {
            "groupId": 133212183,
            "mapInstId": 183040,
            "followMoveAttachPoint": "",
            "uiIndicator": {
                "templateName": "Normal_WorldTask_Icon_Platform"
            },
            "rotateCoreCityName": ""
        },
        {
            "groupId": 133212183,
            "mapInstId": 183041,
            "followMoveAttachPoint": "",
            "uiIndicator": {
                "templateName": "Normal_WorldTask_Icon_Platform"
            },
            "rotateCoreCityName": ""
        },
        {
            "groupId": 133212185,
            "mapInstId": 185007,
            "followMoveAttachPoint": "",
            "uiIndicator": {
                "templateName": "BlitzRush01_Icon"
            },
            "rotateCoreCityName": ""
        },
        {
            "groupId": 133212185,
            "mapInstId": 185009,
            "followMoveAttachPoint": "",
            "uiIndicator": {
                "templateName": "Normal_Quest_Icon_GuidePoint"
            },
            "rotateCoreCityName": ""
        },
        {
            "groupId": 133212185,
            "mapInstId": 185011,
            "followMoveAttachPoint": "",
            "uiIndicator": {
                "templateName": "Normal_Quest_Icon_GuidePoint"
            },
            "rotateCoreCityName": ""
        },
        {
            "groupId": 133212185,
            "mapInstId": 185013,
            "followMoveAttachPoint": "",
            "uiIndicator": {
                "templateName": "Normal_Quest_Icon_GuidePoint"
            },
            "rotateCoreCityName": ""
        },
        {
            "groupId": 133212185,
            "mapInstId": 185081,
            "followMoveAttachPoint": "",
            "uiIndicator": {
                "templateName": "Normal_Quest_Icon_GuidePoint"
            },
            "rotateCoreCityName": ""
        },
        {
            "groupId": 133212186,
            "mapInstId": 186004,
            "followMoveAttachPoint": "",
            "billboardHasUIBar": true,
            "billboardShowUIBarDis": 39.0,
            "billboardHideUIBarDis": 40.0,
            "uiIndicator": {
                "templateName": "Normal_DailyTask_Icon_Platform"
            },
            "rotateCoreCityName": ""
        },
        {
            "groupId": 133212188,
            "mapInstId": 188009,
            "followMoveAttachPoint": "",
            "uiIndicator": {
                "templateName": "Normal_DailyTask_Icon_GuidePoint"
            },
            "rotateCoreCityName": ""
        },
        {
            "groupId": 133212188,
            "mapInstId": 188011,
            "followMoveAttachPoint": "",
            "uiIndicator": {
                "templateName": "Normal_DailyTask_Icon_GuidePoint"
            },
            "rotateCoreCityName": ""
        },
        {
            "groupId": 133212188,
            "mapInstId": 188013,
            "followMoveAttachPoint": "",
            "uiIndicator": {
                "templateName": "Normal_DailyTask_Icon_GuidePoint"
            },
            "rotateCoreCityName": ""
        },
        {
            "groupId": 133212188,
            "mapInstId": 188015,
            "followMoveAttachPoint": "",
            "uiIndicator": {
                "templateName": "Normal_DailyTask_Icon_GuidePoint"
            },
            "rotateCoreCityName": ""
        },
        {
            "groupId": 133212188,
            "mapInstId": 188016,
            "followMoveAttachPoint": "",
            "uiIndicator": {
                "templateName": "Normal_DailyTask_Icon_GravityBoard"
            },
            "rotateCoreCityName": ""
        },
        {
            "groupId": 133212190,
            "mapInstId": 190002,
            "followMoveAttachPoint": "",
            "uiIndicator": {
                "templateName": "Normal_DailyTask_Icon_GuidePoint"
            },
            "rotateCoreCityName": ""
        },
        {
            "groupId": 133212190,
            "mapInstId": 190005,
            "followMoveAttachPoint": "",
            "uiIndicator": {
                "templateName": "Normal_DailyTask_Icon_GuidePoint"
            },
            "rotateCoreCityName": ""
        },
        {
            "groupId": 133212190,
            "mapInstId": 190006,
            "followMoveAttachPoint": "",
            "uiIndicator": {
                "templateName": "Normal_DailyTask_Icon_GravityBoard"
            },
            "rotateCoreCityName": ""
        },
        {
            "groupId": 133212190,
            "mapInstId": 190008,
            "followMoveAttachPoint": "",
            "uiIndicator": {
                "templateName": "Normal_DailyTask_Icon_GuidePoint"
            },
            "rotateCoreCityName": ""
        },
        {
            "groupId": 133212190,
            "mapInstId": 190014,
            "followMoveAttachPoint": "",
            "uiIndicator": {
                "templateName": "Normal_DailyTask_Icon_GuidePoint"
            },
            "rotateCoreCityName": ""
        },
        {
            "groupId": 133212193,
            "mapInstId": 193013,
            "followMoveAttachPoint": "",
            "uiIndicator": {
                "templateName": "BlitzRush03_Icon"
            },
            "rotateCoreCityName": ""
        },
        {
            "groupId": 133212195,
            "mapInstId": 195009,
            "followMoveAttachPoint": "",
            "uiIndicator": {
                "templateName": "BlitzRush02_Icon"
            },
            "rotateCoreCityName": ""
        },
        {
            "groupId": 133212204,
            "mapInstId": 204002,
            "followMoveAttachPoint": "",
            "uiIndicator": {
                "templateName": "Normal_Chest_Icon"
            },
            "rotateCoreCityName": ""
        },
        {
            "groupId": 133212205,
            "mapInstId": 205002,
            "followMoveAttachPoint": "",
            "uiIndicator": {
                "templateName": "Normal_Chest_Icon"
            },
            "rotateCoreCityName": ""
        },
        {
            "groupId": 133212209,
            "mapInstId": 209014,
            "followMoveAttachPoint": "",
            "uiIndicator": {
                "templateName": "Normal_Chest_Icon"
            },
            "rotateCoreCityName": ""
        },
        {
            "groupId": 133212222,
            "mapInstId": 222003,
            "followMoveAttachPoint": "",
            "uiIndicator": {
                "templateName": "Normal_Chest_Icon"
            },
            "rotateCoreCityName": ""
        },
        {
            "groupId": 133212224,
            "mapInstId": 224006,
            "followMoveAttachPoint": "",
            "uiIndicator": {
                "templateName": "Normal_Chest_Icon"
            },
            "rotateCoreCityName": ""
        },
        {
            "groupId": 133212225,
            "mapInstId": 225001,
            "followMoveAttachPoint": "",
            "uiIndicator": {
                "templateName": "GadgetCreate_Icon"
            },
            "rotateCoreCityName": ""
        },
        {
            "groupId": 133212225,
            "mapInstId": 225003,
            "followMoveAttachPoint": "",
            "uiIndicator": {
                "templateName": "Normal_Chest_Icon"
            },
            "rotateCoreCityName": ""
        },
        {
            "groupId": 133212225,
            "mapInstId": 225004,
            "followMoveAttachPoint": "",
            "uiIndicator": {
                "templateName": "GadgetCreate_Icon"
            },
            "rotateCoreCityName": ""
        },
        {
            "groupId": 133212225,
            "mapInstId": 225012,
            "followMoveAttachPoint": "",
            "uiIndicator": {
                "templateName": "GadgetCreate_Icon"
            },
            "rotateCoreCityName": ""
        },
        {
            "groupId": 133212225,
            "mapInstId": 225013,
            "followMoveAttachPoint": "",
            "uiIndicator": {
                "templateName": "GadgetCreate_Icon"
            },
            "rotateCoreCityName": ""
        },
        {
            "groupId": 133212225,
            "mapInstId": 225014,
            "followMoveAttachPoint": "",
            "uiIndicator": {
                "templateName": "GadgetCreate_Icon"
            },
            "rotateCoreCityName": ""
        },
        {
            "groupId": 133212248,
            "mapInstId": 248010,
            "followMoveAttachPoint": "",
            "uiIndicator": {
                "templateName": "Normal_Chest_Icon"
            },
            "rotateCoreCityName": ""
        },
        {
            "groupId": 133212252,
            "mapInstId": 252003,
            "followMoveAttachPoint": "",
            "uiIndicator": {
                "templateName": "Normal_Chest_Icon"
            },
            "rotateCoreCityName": ""
        },
        {
            "groupId": 133212254,
            "mapInstId": 254006,
            "followMoveAttachPoint": "",
            "uiIndicator": {
                "templateName": "Normal_Chest_Icon"
            },
            "rotateCoreCityName": ""
        },
        {
            "groupId": 133212258,
            "mapInstId": 258001,
            "followMoveAttachPoint": "",
            "uiIndicator": {
                "templateName": "Normal_Chest_Icon"
            },
            "rotateCoreCityName": ""
        },
        {
            "groupId": 133212259,
            "mapInstId": 259001,
            "followMoveAttachPoint": "",
            "uiIndicator": {
                "templateName": "Normal_Chest_Icon"
            },
            "rotateCoreCityName": ""
        },
        {
            "groupId": 133212260,
            "mapInstId": 260003,
            "followMoveAttachPoint": "",
            "uiIndicator": {
                "templateName": "Normal_Chest_Icon"
            },
            "rotateCoreCityName": ""
        },
        {
            "groupId": 133212261,
            "mapInstId": 261006,
            "followMoveAttachPoint": "",
            "uiIndicator": {
                "templateName": "Normal_Chest_Icon"
            },
            "rotateCoreCityName": ""
        },
        {
            "groupId": 133212265,
            "mapInstId": 265002,
            "followMoveAttachPoint": "",
            "uiIndicator": {
                "templateName": "Normal_Chest_Icon"
            },
            "rotateCoreCityName": ""
        },
        {
            "groupId": 133212266,
            "mapInstId": 266002,
            "followMoveAttachPoint": "",
            "uiIndicator": {
                "templateName": "Normal_Chest_Icon"
            },
            "rotateCoreCityName": ""
        },
        {
            "groupId": 133212268,
            "mapInstId": 268002,
            "followMoveAttachPoint": "",
            "uiIndicator": {
                "templateName": "Normal_Chest_Icon"
            },
            "rotateCoreCityName": ""
        },
        {
            "groupId": 133212287,
            "mapInstId": 287001,
            "followMoveAttachPoint": "",
            "uiIndicator": {
                "templateName": "Normal_Chest_Icon"
            },
            "rotateCoreCityName": ""
        },
        {
            "groupId": 133212308,
            "mapInstId": 308001,
            "followMoveAttachPoint": "",
            "uiIndicator": {
                "templateName": "Normal_Chest_Icon"
            },
            "rotateCoreCityName": ""
        },
        {
            "groupId": 133212309,
            "mapInstId": 309001,
            "followMoveAttachPoint": "",
            "uiIndicator": {
                "templateName": "Normal_Chest_Icon"
            },
            "rotateCoreCityName": ""
        },
        {
            "groupId": 133212310,
            "mapInstId": 310004,
            "followMoveAttachPoint": "",
            "uiIndicator": {
                "templateName": "Normal_Chest_Icon"
            },
            "rotateCoreCityName": ""
        },
        {
            "groupId": 133212313,
            "mapInstId": 313002,
            "followMoveAttachPoint": "",
            "uiIndicator": {
                "templateName": "Normal_Chest_Icon"
            },
            "rotateCoreCityName": ""
        },
        {
            "groupId": 133212314,
            "mapInstId": 314001,
            "followMoveAttachPoint": "",
            "uiIndicator": {
                "templateName": "Normal_Chest_Icon"
            },
            "rotateCoreCityName": ""
        },
        {
            "groupId": 133212340,
            "mapInstId": 340005,
            "followMoveAttachPoint": "",
            "uiIndicator": {
                "templateName": "Normal_Chest_Icon"
            },
            "rotateCoreCityName": ""
        },
        {
            "groupId": 133212354,
            "mapInstId": 354003,
            "followMoveAttachPoint": "",
            "uiIndicator": {
                "templateName": "Normal_Chest_Icon"
            },
            "rotateCoreCityName": ""
        },
        {
            "groupId": 133212358,
            "mapInstId": 358003,
            "followMoveAttachPoint": "",
            "uiIndicator": {
                "templateName": "Normal_Chest_Icon"
            },
            "rotateCoreCityName": ""
        },
        {
            "groupId": 133212361,
            "mapInstId": 361013,
            "followMoveAttachPoint": "",
            "uiIndicator": {
                "templateName": "BlitzRush01_Icon"
            },
            "rotateCoreCityName": ""
        },
        {
            "groupId": 133212361,
            "mapInstId": 361033,
            "followMoveAttachPoint": "",
            "uiIndicator": {
                "templateName": "Normal_Quest_Icon_GuidePoint"
            },
            "rotateCoreCityName": ""
        },
        {
            "groupId": 133212361,
            "mapInstId": 361034,
            "followMoveAttachPoint": "",
            "uiIndicator": {
                "templateName": "Normal_Quest_Icon_GuidePoint"
            },
            "rotateCoreCityName": ""
        },
        {
            "groupId": 133212361,
            "mapInstId": 361035,
            "followMoveAttachPoint": "",
            "uiIndicator": {
                "templateName": "Normal_Quest_Icon_GuidePoint"
            },
            "rotateCoreCityName": ""
        },
        {
            "groupId": 133212365,
            "mapInstId": 365002,
            "followMoveAttachPoint": "",
            "uiIndicator": {
                "templateName": "Normal_Chest_Icon"
            },
            "rotateCoreCityName": ""
        },
        {
            "groupId": 133212366,
            "mapInstId": 366002,
            "followMoveAttachPoint": "",
            "uiIndicator": {
                "templateName": "Normal_Chest_Icon"
            },
            "rotateCoreCityName": ""
        },
        {
            "groupId": 133212370,
            "mapInstId": 370001,
            "followMoveAttachPoint": "",
            "uiIndicator": {
                "templateName": "GadgetCreate_Icon"
            },
            "rotateCoreCityName": ""
        },
        {
            "groupId": 133212370,
            "mapInstId": 370003,
            "followMoveAttachPoint": "",
            "uiIndicator": {
                "templateName": "Normal_Chest_Icon"
            },
            "rotateCoreCityName": ""
        },
        {
            "groupId": 133212370,
            "mapInstId": 370004,
            "followMoveAttachPoint": "",
            "uiIndicator": {
                "templateName": "GadgetCreate_Icon"
            },
            "rotateCoreCityName": ""
        },
        {
            "groupId": 133212370,
            "mapInstId": 370012,
            "followMoveAttachPoint": "",
            "uiIndicator": {
                "templateName": "GadgetCreate_Icon"
            },
            "rotateCoreCityName": ""
        },
        {
            "groupId": 133212370,
            "mapInstId": 370013,
            "followMoveAttachPoint": "",
            "uiIndicator": {
                "templateName": "GadgetCreate_Icon"
            },
            "rotateCoreCityName": ""
        },
        {
            "groupId": 133212371,
            "mapInstId": 371001,
            "followMoveAttachPoint": "",
            "uiIndicator": {
                "templateName": "Normal_Chest_Icon"
            },
            "rotateCoreCityName": ""
        },
        {
            "groupId": 133212373,
            "mapInstId": 373002,
            "followMoveAttachPoint": "",
            "uiIndicator": {
                "templateName": "Normal_Chest_Icon"
            },
            "rotateCoreCityName": ""
        },
        {
            "groupId": 133212375,
            "mapInstId": 375002,
            "followMoveAttachPoint": "",
            "uiIndicator": {
                "templateName": "Normal_Chest_Icon"
            },
            "rotateCoreCityName": ""
        },
        {
            "groupId": 133212376,
            "mapInstId": 376004,
            "followMoveAttachPoint": "",
            "uiIndicator": {
                "templateName": "Normal_Chest_Icon"
            },
            "rotateCoreCityName": ""
        },
        {
            "groupId": 133212378,
            "mapInstId": 378002,
            "followMoveAttachPoint": "",
            "uiIndicator": {
                "templateName": "Normal_Chest_Icon"
            },
            "rotateCoreCityName": ""
        },
        {
            "groupId": 133212381,
            "mapInstId": 381003,
            "followMoveAttachPoint": "",
            "uiIndicator": {
                "templateName": "Normal_Chest_Icon"
            },
            "rotateCoreCityName": ""
        },
        {
            "groupId": 133212382,
            "mapInstId": 382005,
            "followMoveAttachPoint": "",
            "uiIndicator": {
                "templateName": "Normal_Chest_Icon"
            },
            "rotateCoreCityName": ""
        },
        {
            "groupId": 133212392,
            "mapInstId": 392005,
            "followMoveAttachPoint": "",
            "uiIndicator": {
                "templateName": "Normal_Chest_Icon"
            },
            "rotateCoreCityName": ""
        },
        {
            "groupId": 133212448,
            "mapInstId": 448005,
            "followMoveAttachPoint": "",
            "uiIndicator": {
                "templateName": "Normal_Chest_Icon"
            },
            "rotateCoreCityName": ""
        },
        {
            "groupId": 133212450,
            "mapInstId": 450004,
            "followMoveAttachPoint": "",
            "uiIndicator": {
                "templateName": "Normal_Chest_Icon"
            },
            "rotateCoreCityName": ""
        },
        {
            "groupId": 133212488,
            "mapInstId": 488002,
            "followMoveAttachPoint": "",
            "uiIndicator": {
                "templateName": "Normal_Chest_Icon"
            },
            "rotateCoreCityName": ""
        },
        {
            "groupId": 133212515,
            "mapInstId": 515002,
            "followMoveAttachPoint": "",
            "uiIndicator": {
                "templateName": "Normal_Chest_Icon"
            },
            "rotateCoreCityName": ""
        },
        {
            "groupId": 133212519,
            "mapInstId": 519004,
            "followMoveAttachPoint": "",
            "uiIndicator": {
                "templateName": "Normal_Chest_Icon"
            },
            "rotateCoreCityName": ""
        },
        {
            "groupId": 133212520,
            "mapInstId": 520026,
            "followMoveAttachPoint": "",
            "uiIndicator": {
                "templateName": "Normal_Chest_Icon"
            },
            "rotateCoreCityName": ""
        },
        {
            "groupId": 133212522,
            "mapInstId": 522002,
            "followMoveAttachPoint": "",
            "uiIndicator": {
                "templateName": "Normal_Chest_Icon"
            },
            "rotateCoreCityName": ""
        },
        {
            "groupId": 133212533,
            "mapInstId": 533004,
            "followMoveAttachPoint": "",
            "uiIndicator": {
                "templateName": "Normal_Chest_Icon"
            },
            "rotateCoreCityName": ""
        },
        {
            "groupId": 133212542,
            "mapInstId": 542002,
            "followMoveAttachPoint": "",
            "uiIndicator": {
                "templateName": "Normal_Chest_Icon"
            },
            "rotateCoreCityName": ""
        },
        {
            "groupId": 133212543,
            "mapInstId": 543002,
            "followMoveAttachPoint": "",
            "uiIndicator": {
                "templateName": "Normal_Chest_Icon"
            },
            "rotateCoreCityName": ""
        },
        {
            "groupId": 133212544,
            "mapInstId": 544002,
            "followMoveAttachPoint": "",
            "uiIndicator": {
                "templateName": "Normal_Chest_Icon"
            },
            "rotateCoreCityName": ""
        },
        {
            "groupId": 133212545,
            "mapInstId": 545002,
            "followMoveAttachPoint": "",
            "uiIndicator": {
                "templateName": "Normal_Chest_Icon"
            },
            "rotateCoreCityName": ""
        },
        {
            "groupId": 133212546,
            "mapInstId": 546002,
            "followMoveAttachPoint": "",
            "uiIndicator": {
                "templateName": "Normal_Chest_Icon"
            },
            "rotateCoreCityName": ""
        },
        {
            "groupId": 133212547,
            "mapInstId": 547010,
            "followMoveAttachPoint": "",
            "uiIndicator": {
                "templateName": "Normal_Chest_Icon"
            },
            "rotateCoreCityName": ""
        },
        {
            "groupId": 133212548,
            "mapInstId": 548002,
            "followMoveAttachPoint": "",
            "uiIndicator": {
                "templateName": "Normal_Chest_Icon"
            },
            "rotateCoreCityName": ""
        },
        {
            "groupId": 133212549,
            "mapInstId": 549002,
            "followMoveAttachPoint": "",
            "uiIndicator": {
                "templateName": "Normal_Chest_Icon"
            },
            "rotateCoreCityName": ""
        },
        {
            "groupId": 133212551,
            "mapInstId": 551004,
            "followMoveAttachPoint": "",
            "uiIndicator": {
                "templateName": "Normal_Chest_Icon"
            },
            "rotateCoreCityName": ""
        },
        {
            "groupId": 133212554,
            "mapInstId": 554006,
            "followMoveAttachPoint": "",
            "uiIndicator": {
                "templateName": "Normal_Chest_Icon"
            },
            "rotateCoreCityName": ""
        },
        {
            "groupId": 133212557,
            "mapInstId": 557002,
            "followMoveAttachPoint": "",
            "uiIndicator": {
                "templateName": "Normal_Chest_Icon"
            },
            "rotateCoreCityName": ""
        },
        {
            "groupId": 133212558,
            "mapInstId": 558002,
            "followMoveAttachPoint": "",
            "uiIndicator": {
                "templateName": "Normal_Chest_Icon"
            },
            "rotateCoreCityName": ""
        },
        {
            "groupId": 133212559,
            "mapInstId": 559002,
            "followMoveAttachPoint": "",
            "uiIndicator": {
                "templateName": "Normal_Chest_Icon"
            },
            "rotateCoreCityName": ""
        },
        {
            "groupId": 133212576,
            "mapInstId": 576010,
            "followMoveAttachPoint": "",
            "uiIndicator": {
                "templateName": "Normal_Chest_Icon"
            },
            "rotateCoreCityName": ""
        },
        {
            "groupId": 133212585,
            "mapInstId": 585001,
            "followMoveAttachPoint": "",
            "uiIndicator": {
                "templateName": "ExplorationMark_Icon"
            },
            "rotateCoreCityName": ""
        },
        {
            "groupId": 133212585,
            "mapInstId": 585005,
            "followMoveAttachPoint": "",
            "billboardHasUIBar": true,
            "billboardShowUIBarDis": 99.0,
            "billboardHpBarStyle": "Friendly",
            "uiIndicator": {
                "templateName": "Exploration01_Icon"
            },
            "billboardMultiBarSortId": 1,
            "billboardMultiBarNum": 3,
            "rotateCoreCityName": ""
        },
        {
            "groupId": 133212585,
            "mapInstId": 585006,
            "followMoveAttachPoint": "",
            "billboardHasUIBar": true,
            "billboardShowUIBarDis": 99.0,
            "billboardHpBarStyle": "Friendly",
            "uiIndicator": {
                "templateName": "Exploration02_Icon"
            },
            "billboardMultiBarSortId": 2,
            "billboardMultiBarNum": 3,
            "rotateCoreCityName": ""
        },
        {
            "groupId": 133212585,
            "mapInstId": 585007,
            "followMoveAttachPoint": "",
            "billboardHasUIBar": true,
            "billboardShowUIBarDis": 99.0,
            "billboardHpBarStyle": "Friendly",
            "uiIndicator": {
                "templateName": "Exploration03_Icon"
            },
            "billboardMultiBarSortId": 3,
            "billboardMultiBarNum": 3,
            "rotateCoreCityName": ""
        },
        {
            "groupId": 133212590,
            "mapInstId": 590040,
            "followMoveAttachPoint": "",
            "uiIndicator": {
                "templateName": "HachiSneak_Icon"
            },
            "rotateCoreCityName": ""
        }
    ]
}