{
    "sceneId": 20134,
    "gadgets": [
        {
            "groupId": 220134002,
            "mapInstId": 2011,
            "followMoveAttachPoint": "",
            "uiIndicator": {
                "templateName": "Normal_Chest_Icon"
            },
            "rotateCoreCityName": ""
        },
        {
            "groupId": 220134010,
            "mapInstId": 10011,
            "followMoveAttachPoint": "",
            "uiIndicator": {
                "templateName": "Normal_Chest_Icon"
            },
            "rotateCoreCityName": ""
        },
        {
            "groupId": 220134011,
            "mapInstId": 11011,
            "followMoveAttachPoint": "",
            "uiIndicator": {
                "templateName": "Normal_Chest_Icon"
            },
            "rotateCoreCityName": ""
        },
        {
            "groupId": 220134013,
            "mapInstId": 13011,
            "followMoveAttachPoint": "",
            "uiIndicator": {
                "templateName": "Normal_Chest_Icon"
            },
            "rotateCoreCityName": ""
        },
        {
            "groupId": 220134015,
            "mapInstId": 15002,
            "followMoveAttachPoint": "",
            "uiIndicator": {
                "templateName": "SocialActivity_Target_Icon"
            },
            "rotateCoreCityName": ""
        },
        {
            "groupId": 220134041,
            "mapInstId": 41011,
            "followMoveAttachPoint": "",
            "uiIndicator": {
                "templateName": "Normal_Chest_Icon"
            },
            "rotateCoreCityName": ""
        },
        {
            "groupId": 220134043,
            "mapInstId": 43007,
            "followMoveAttachPoint": "",
            "uiIndicator": {
                "templateName": "Normal_Chest_Icon"
            },
            "rotateCoreCityName": ""
        },
        {
            "groupId": 220134044,
            "mapInstId": 44004,
            "followMoveAttachPoint": "",
            "uiIndicator": {
                "templateName": "Normal_Chest_Icon"
            },
            "rotateCoreCityName": ""
        },
        {
            "groupId": 220134045,
            "mapInstId": 45011,
            "followMoveAttachPoint": "",
            "uiIndicator": {
                "templateName": "Normal_Chest_Icon"
            },
            "rotateCoreCityName": ""
        },
        {
            "groupId": 220134046,
            "mapInstId": 46011,
            "followMoveAttachPoint": "",
            "uiIndicator": {
                "templateName": "Normal_Chest_Icon"
            },
            "rotateCoreCityName": ""
        },
        {
            "groupId": 220134061,
            "mapInstId": 61011,
            "followMoveAttachPoint": "",
            "uiIndicator": {
                "templateName": "Normal_Chest_Icon"
            },
            "rotateCoreCityName": ""
        },
        {
            "groupId": 220134062,
            "mapInstId": 62036,
            "followMoveAttachPoint": "",
            "uiIndicator": {
                "templateName": "Normal_Chest_Icon"
            },
            "rotateCoreCityName": ""
        },
        {
            "groupId": 220134064,
            "mapInstId": 64011,
            "followMoveAttachPoint": "",
            "uiIndicator": {
                "templateName": "Normal_Chest_Icon"
            },
            "rotateCoreCityName": ""
        },
        {
            "groupId": 220134089,
            "mapInstId": 89001,
            "followMoveAttachPoint": "",
            "uiIndicator": {
                "templateName": "Normal_Chest_Icon"
            },
            "rotateCoreCityName": ""
        },
        {
            "groupId": 220134090,
            "mapInstId": 90001,
            "followMoveAttachPoint": "",
            "uiIndicator": {
                "templateName": "Normal_Chest_Icon"
            },
            "rotateCoreCityName": ""
        }
    ]
}