{
    "sceneId": 3,
    "gadgets": [
        {
            "groupId": 133108001,
            "mapInstId": 1002,
            "followMoveAttachPoint": "",
            "uiIndicator": {
                "templateName": "Normal_Chest_Icon"
            },
            "rotateCoreCityName": ""
        },
        {
            "groupId": 133108018,
            "mapInstId": 18001,
            "followMoveAttachPoint": "",
            "uiIndicator": {
                "templateName": "Normal_Chest_Icon"
            },
            "rotateCoreCityName": ""
        },
        {
            "groupId": 133108019,
            "mapInstId": 19002,
            "followMoveAttachPoint": "",
            "uiIndicator": {
                "templateName": "Normal_Chest_Icon"
            },
            "rotateCoreCityName": ""
        },
        {
            "groupId": 133108020,
            "mapInstId": 20002,
            "followMoveAttachPoint": "",
            "uiIndicator": {
                "templateName": "Normal_Chest_Icon"
            },
            "rotateCoreCityName": ""
        },
        {
            "groupId": 133108023,
            "mapInstId": 23004,
            "followMoveAttachPoint": "",
            "uiIndicator": {
                "templateName": "Normal_Chest_Icon"
            },
            "rotateCoreCityName": ""
        },
        {
            "groupId": 133108027,
            "mapInstId": 27002,
            "followMoveAttachPoint": "",
            "uiIndicator": {
                "templateName": "Normal_Chest_Icon"
            },
            "rotateCoreCityName": ""
        },
        {
            "groupId": 133108029,
            "mapInstId": 29008,
            "followMoveAttachPoint": "",
            "uiIndicator": {
                "templateName": "Normal_Chest_Icon"
            },
            "rotateCoreCityName": ""
        },
        {
            "groupId": 133108033,
            "mapInstId": 33002,
            "followMoveAttachPoint": "",
            "uiIndicator": {
                "templateName": "Normal_Chest_Icon"
            },
            "rotateCoreCityName": ""
        },
        {
            "groupId": 133108036,
            "mapInstId": 36002,
            "followMoveAttachPoint": "",
            "uiIndicator": {
                "templateName": "Normal_Chest_Icon"
            },
            "rotateCoreCityName": ""
        },
        {
            "groupId": 133108037,
            "mapInstId": 37002,
            "followMoveAttachPoint": "",
            "uiIndicator": {
                "templateName": "Normal_Chest_Icon"
            },
            "rotateCoreCityName": ""
        },
        {
            "groupId": 133108039,
            "mapInstId": 39002,
            "followMoveAttachPoint": "",
            "uiIndicator": {
                "templateName": "Normal_Chest_Icon"
            },
            "rotateCoreCityName": ""
        },
        {
            "groupId": 133108042,
            "mapInstId": 42002,
            "followMoveAttachPoint": "",
            "uiIndicator": {
                "templateName": "Normal_Chest_Icon"
            },
            "rotateCoreCityName": ""
        },
        {
            "groupId": 133108043,
            "mapInstId": 43002,
            "followMoveAttachPoint": "",
            "uiIndicator": {
                "templateName": "Normal_Chest_Icon"
            },
            "rotateCoreCityName": ""
        },
        {
            "groupId": 133108044,
            "mapInstId": 44002,
            "followMoveAttachPoint": "",
            "uiIndicator": {
                "templateName": "Normal_Chest_Icon"
            },
            "rotateCoreCityName": ""
        },
        {
            "groupId": 133108045,
            "mapInstId": 45009,
            "followMoveAttachPoint": "",
            "uiIndicator": {
                "templateName": "Normal_Chest_Icon"
            },
            "rotateCoreCityName": ""
        },
        {
            "groupId": 133108048,
            "mapInstId": 48004,
            "followMoveAttachPoint": "",
            "uiIndicator": {
                "templateName": "Normal_Chest_Icon"
            },
            "rotateCoreCityName": ""
        },
        {
            "groupId": 133108050,
            "mapInstId": 50006,
            "followMoveAttachPoint": "",
            "uiIndicator": {
                "templateName": "Normal_Chest_Icon"
            },
            "rotateCoreCityName": ""
        },
        {
            "groupId": 133108051,
            "mapInstId": 51008,
            "followMoveAttachPoint": "",
            "uiIndicator": {
                "templateName": "Normal_Chest_Icon"
            },
            "rotateCoreCityName": ""
        },
        {
            "groupId": 133108053,
            "mapInstId": 53004,
            "followMoveAttachPoint": "",
            "uiIndicator": {
                "templateName": "Normal_Chest_Icon"
            },
            "rotateCoreCityName": ""
        },
        {
            "groupId": 133108055,
            "mapInstId": 55011,
            "followMoveAttachPoint": "",
            "uiIndicator": {
                "templateName": "Normal_Chest_Icon"
            },
            "rotateCoreCityName": ""
        },
        {
            "groupId": 133108058,
            "mapInstId": 58005,
            "followMoveAttachPoint": "",
            "uiIndicator": {
                "templateName": "Normal_Chest_Icon"
            },
            "rotateCoreCityName": ""
        },
        {
            "groupId": 133108061,
            "mapInstId": 61003,
            "followMoveAttachPoint": "",
            "uiIndicator": {
                "templateName": "Normal_Chest_Icon"
            },
            "rotateCoreCityName": ""
        },
        {
            "groupId": 133108063,
            "mapInstId": 63002,
            "followMoveAttachPoint": "",
            "uiIndicator": {
                "templateName": "Normal_Chest_Icon"
            },
            "rotateCoreCityName": ""
        },
        {
            "groupId": 133108068,
            "mapInstId": 68002,
            "followMoveAttachPoint": "",
            "uiIndicator": {
                "templateName": "Normal_Chest_Icon"
            },
            "rotateCoreCityName": ""
        },
        {
            "groupId": 133108074,
            "mapInstId": 74004,
            "followMoveAttachPoint": "",
            "uiIndicator": {
                "templateName": "Normal_Chest_Icon"
            },
            "rotateCoreCityName": ""
        },
        {
            "groupId": 133108085,
            "mapInstId": 85002,
            "followMoveAttachPoint": "",
            "uiIndicator": {
                "templateName": "Normal_Chest_Icon"
            },
            "rotateCoreCityName": ""
        },
        {
            "groupId": 133108090,
            "mapInstId": 90002,
            "followMoveAttachPoint": "",
            "uiIndicator": {
                "templateName": "Normal_Chest_Icon"
            },
            "rotateCoreCityName": ""
        },
        {
            "groupId": 133108093,
            "mapInstId": 93006,
            "followMoveAttachPoint": "",
            "uiIndicator": {
                "templateName": "Normal_DailyTask_Icon_GuidePoint"
            },
            "rotateCoreCityName": ""
        },
        {
            "groupId": 133108093,
            "mapInstId": 93007,
            "followMoveAttachPoint": "",
            "uiIndicator": {
                "templateName": "Normal_DailyTask_Icon_GravityBoard"
            },
            "rotateCoreCityName": ""
        },
        {
            "groupId": 133108094,
            "mapInstId": 94006,
            "followMoveAttachPoint": "",
            "uiIndicator": {
                "templateName": "Normal_DailyTask_Icon_StateChange",
                "paramDatas": {
                    "TaskDummy": "Event_16005",
                    "TaskDummyS": "30"
                }
            },
            "rotateCoreCityName": ""
        },
        {
            "groupId": 133108095,
            "mapInstId": 95006,
            "followMoveAttachPoint": "",
            "uiIndicator": {
                "templateName": "Normal_DailyTask_Icon_StateChange",
                "paramDatas": {
                    "TaskDummy": "Event_16006",
                    "TaskDummyS": "30"
                }
            },
            "rotateCoreCityName": ""
        },
        {
            "groupId": 133108102,
            "mapInstId": 102001,
            "followMoveAttachPoint": "",
            "uiIndicator": {
                "templateName": "Normal_Chest_Icon"
            },
            "rotateCoreCityName": ""
        },
        {
            "groupId": 133108103,
            "mapInstId": 103001,
            "followMoveAttachPoint": "",
            "uiIndicator": {
                "templateName": "Normal_Chest_Icon"
            },
            "rotateCoreCityName": ""
        },
        {
            "groupId": 133108104,
            "mapInstId": 104001,
            "followMoveAttachPoint": "",
            "uiIndicator": {
                "templateName": "Normal_Chest_Icon"
            },
            "rotateCoreCityName": ""
        },
        {
            "groupId": 133108109,
            "mapInstId": 109002,
            "followMoveAttachPoint": "",
            "uiIndicator": {
                "templateName": "Normal_Chest_Icon"
            },
            "rotateCoreCityName": ""
        },
        {
            "groupId": 133108110,
            "mapInstId": 110015,
            "followMoveAttachPoint": "",
            "billboardShowUIBarDis": 39.0,
            "billboardHideUIBarDis": 40.0,
            "uiIndicator": {
                "templateName": "Normal_DailyTask_Icon_HillCart"
            },
            "rotateCoreCityName": ""
        },
        {
            "groupId": 133108112,
            "mapInstId": 112009,
            "followMoveAttachPoint": "",
            "uiIndicator": {
                "templateName": "Normal_DailyTask_Icon_GuidePoint"
            },
            "rotateCoreCityName": ""
        },
        {
            "groupId": 133108112,
            "mapInstId": 112011,
            "followMoveAttachPoint": "",
            "uiIndicator": {
                "templateName": "Normal_DailyTask_Icon_GuidePoint"
            },
            "rotateCoreCityName": ""
        },
        {
            "groupId": 133108112,
            "mapInstId": 112013,
            "followMoveAttachPoint": "",
            "uiIndicator": {
                "templateName": "Normal_DailyTask_Icon_GuidePoint"
            },
            "rotateCoreCityName": ""
        },
        {
            "groupId": 133108112,
            "mapInstId": 112015,
            "followMoveAttachPoint": "",
            "uiIndicator": {
                "templateName": "Normal_DailyTask_Icon_GuidePoint"
            },
            "rotateCoreCityName": ""
        },
        {
            "groupId": 133108112,
            "mapInstId": 112016,
            "followMoveAttachPoint": "",
            "uiIndicator": {
                "templateName": "Normal_DailyTask_Icon_GravityBoard"
            },
            "rotateCoreCityName": ""
        },
        {
            "groupId": 133108112,
            "mapInstId": 112030,
            "followMoveAttachPoint": "",
            "uiIndicator": {
                "templateName": "Normal_DailyTask_Icon_GuidePoint"
            },
            "rotateCoreCityName": ""
        },
        {
            "groupId": 133108112,
            "mapInstId": 112037,
            "followMoveAttachPoint": "",
            "uiIndicator": {
                "templateName": "Normal_DailyTask_Icon_GuidePoint"
            },
            "rotateCoreCityName": ""
        },
        {
            "groupId": 133108124,
            "mapInstId": 124002,
            "followMoveAttachPoint": "",
            "billboardShowUIBarDis": 100.0,
            "billboardHideUIBarDis": 200.0,
            "uiIndicator": {
                "templateName": "Normal_Chest_Icon",
                "paramDatas": {
                    "show_distance": "100"
                }
            },
            "rotateCoreCityName": ""
        },
        {
            "groupId": 133108124,
            "mapInstId": 124003,
            "followMoveAttachPoint": "",
            "uiIndicator": {
                "templateName": "Normal_Chest_Icon"
            },
            "rotateCoreCityName": ""
        },
        {
            "groupId": 133108126,
            "mapInstId": 126011,
            "followMoveAttachPoint": "",
            "uiIndicator": {
                "templateName": "Normal_Chest_Icon"
            },
            "rotateCoreCityName": ""
        },
        {
            "groupId": 133108126,
            "mapInstId": 126018,
            "followMoveAttachPoint": "",
            "billboardShowUIBarDis": 100.0,
            "uiIndicator": {
                "templateName": "Normal_Chest_Icon",
                "paramDatas": {
                    "show_distance": "60"
                }
            },
            "rotateCoreCityName": ""
        },
        {
            "groupId": 133108127,
            "mapInstId": 127006,
            "followMoveAttachPoint": "",
            "uiIndicator": {
                "templateName": "Normal_Chest_Icon"
            },
            "rotateCoreCityName": ""
        },
        {
            "groupId": 133108127,
            "mapInstId": 127013,
            "followMoveAttachPoint": "",
            "billboardShowUIBarDis": 100.0,
            "uiIndicator": {
                "templateName": "Normal_Chest_Icon",
                "paramDatas": {
                    "show_distance": "100"
                }
            },
            "rotateCoreCityName": ""
        },
        {
            "groupId": 133108129,
            "mapInstId": 129011,
            "followMoveAttachPoint": "",
            "uiIndicator": {
                "templateName": "Blossom_Chest_Icon"
            },
            "rotateCoreCityName": ""
        },
        {
            "groupId": 133108130,
            "mapInstId": 130004,
            "followMoveAttachPoint": "",
            "uiIndicator": {
                "templateName": "Blossom_Chest_Icon"
            },
            "rotateCoreCityName": ""
        },
        {
            "groupId": 133108132,
            "mapInstId": 132007,
            "followMoveAttachPoint": "",
            "uiIndicator": {
                "templateName": "Blossom_Chest_Icon"
            },
            "rotateCoreCityName": ""
        },
        {
            "groupId": 133108133,
            "mapInstId": 133011,
            "followMoveAttachPoint": "",
            "uiIndicator": {
                "templateName": "Blossom_Chest_Icon"
            },
            "rotateCoreCityName": ""
        },
        {
            "groupId": 133108134,
            "mapInstId": 134006,
            "followMoveAttachPoint": "",
            "uiIndicator": {
                "templateName": "Blossom_Chest_Icon"
            },
            "rotateCoreCityName": ""
        },
        {
            "groupId": 133108136,
            "mapInstId": 136006,
            "followMoveAttachPoint": "",
            "uiIndicator": {
                "templateName": "Blossom_Chest_Icon"
            },
            "rotateCoreCityName": ""
        },
        {
            "groupId": 133108138,
            "mapInstId": 138006,
            "followMoveAttachPoint": "",
            "uiIndicator": {
                "templateName": "Blossom_Chest_Icon"
            },
            "rotateCoreCityName": ""
        },
        {
            "groupId": 133108140,
            "mapInstId": 140006,
            "followMoveAttachPoint": "",
            "uiIndicator": {
                "templateName": "Blossom_Chest_Icon"
            },
            "rotateCoreCityName": ""
        },
        {
            "groupId": 133108176,
            "mapInstId": 176001,
            "followMoveAttachPoint": "",
            "uiIndicator": {
                "templateName": "ChestUnlock_Icon"
            },
            "rotateCoreCityName": ""
        },
        {
            "groupId": 133108177,
            "mapInstId": 177012,
            "followMoveAttachPoint": "",
            "uiIndicator": {
                "templateName": "ChannellerSlabUnlock_Icon"
            },
            "rotateCoreCityName": ""
        },
        {
            "groupId": 133108178,
            "mapInstId": 178010,
            "followMoveAttachPoint": "",
            "uiIndicator": {
                "templateName": "ChannellerSlabUnlock_Icon"
            },
            "rotateCoreCityName": ""
        },
        {
            "groupId": 133108179,
            "mapInstId": 179007,
            "followMoveAttachPoint": "",
            "uiIndicator": {
                "templateName": "ChannellerSlabUnlock_Icon"
            },
            "rotateCoreCityName": ""
        },
        {
            "groupId": 133108183,
            "mapInstId": 183001,
            "followMoveAttachPoint": "",
            "uiIndicator": {
                "templateName": "UI_NPCTopIcon_Blessing"
            },
            "rotateCoreCityName": ""
        },
        {
            "groupId": 133108187,
            "mapInstId": 187010,
            "followMoveAttachPoint": "",
            "uiIndicator": {
                "templateName": "Normal_Chest_Icon"
            },
            "rotateCoreCityName": ""
        },
        {
            "groupId": 133108188,
            "mapInstId": 188010,
            "followMoveAttachPoint": "",
            "uiIndicator": {
                "templateName": "Normal_Chest_Icon"
            },
            "rotateCoreCityName": ""
        },
        {
            "groupId": 133108189,
            "mapInstId": 189010,
            "followMoveAttachPoint": "",
            "uiIndicator": {
                "templateName": "Normal_Chest_Icon"
            },
            "rotateCoreCityName": ""
        },
        {
            "groupId": 133108194,
            "mapInstId": 194001,
            "followMoveAttachPoint": "",
            "uiIndicator": {
                "templateName": "ExplorationMark_Icon"
            },
            "rotateCoreCityName": ""
        },
        {
            "groupId": 133108194,
            "mapInstId": 194005,
            "followMoveAttachPoint": "",
            "billboardHasUIBar": true,
            "billboardShowUIBarDis": 99.0,
            "billboardHpBarStyle": "Friendly",
            "uiIndicator": {
                "templateName": "Exploration01_Icon"
            },
            "billboardMultiBarSortId": 1,
            "billboardMultiBarNum": 3,
            "rotateCoreCityName": ""
        },
        {
            "groupId": 133108194,
            "mapInstId": 194006,
            "followMoveAttachPoint": "",
            "billboardHasUIBar": true,
            "billboardShowUIBarDis": 99.0,
            "billboardHpBarStyle": "Friendly",
            "uiIndicator": {
                "templateName": "Exploration02_Icon"
            },
            "billboardMultiBarSortId": 2,
            "billboardMultiBarNum": 3,
            "rotateCoreCityName": ""
        },
        {
            "groupId": 133108194,
            "mapInstId": 194007,
            "followMoveAttachPoint": "",
            "billboardHasUIBar": true,
            "billboardShowUIBarDis": 99.0,
            "billboardHpBarStyle": "Friendly",
            "uiIndicator": {
                "templateName": "Exploration03_Icon"
            },
            "billboardMultiBarSortId": 3,
            "billboardMultiBarNum": 3,
            "rotateCoreCityName": ""
        },
        {
            "groupId": 133108201,
            "mapInstId": 201001,
            "followMoveAttachPoint": "",
            "uiIndicator": {
                "templateName": "UI_NPCTopIcon_Ship"
            },
            "rotateCoreCityName": ""
        },
        {
            "groupId": 133108201,
            "mapInstId": 201041,
            "followMoveAttachPoint": "",
            "uiIndicator": {
                "templateName": "Normal_BigWorld_Icon_GuidePoint"
            },
            "rotateCoreCityName": ""
        },
        {
            "groupId": 133108202,
            "mapInstId": 202034,
            "followMoveAttachPoint": "",
            "uiIndicator": {
                "templateName": "UI_NPCTopIcon_Ballon"
            },
            "rotateCoreCityName": ""
        },
        {
            "groupId": 133108203,
            "mapInstId": 203031,
            "followMoveAttachPoint": "",
            "uiIndicator": {
                "templateName": "UI_NPCTopIcon_Ballon"
            },
            "rotateCoreCityName": ""
        },
        {
            "groupId": 133108253,
            "mapInstId": 253018,
            "followMoveAttachPoint": "",
            "uiIndicator": {
                "templateName": "UI_NPCTopIcon_Ship"
            },
            "rotateCoreCityName": ""
        },
        {
            "groupId": 133108253,
            "mapInstId": 253111,
            "followMoveAttachPoint": "",
            "uiIndicator": {
                "templateName": "Normal_BigWorld_Icon_GuidePoint"
            },
            "rotateCoreCityName": ""
        },
        {
            "groupId": 133108901,
            "mapInstId": 901007,
            "followMoveAttachPoint": "",
            "uiIndicator": {
                "templateName": "Normal_Chest_Icon"
            },
            "rotateCoreCityName": ""
        }
    ]
}