{
    "luaDataPath": "",
    "dontUseDefaultFinish": true,
    "entityBan": "",
    "disableNpcLod": true,
    "protectNpcMobileLod": true,
    "MNHFNFDCEFG": 7,
    "startFade": {
        "startFadeOutDuration": 0.0
    },
    "endFade": {
        "startFadeOutDuration": 0.0
    },
    "actors": [
        {
            "alias": "Avatar",
            "visible": true,
            "bornPointName": "",
            "relativePosType": "AVATAR_NEW",
            "relativePosNpcAlias": "",
            "bindMovingTargetKey": ""
        },
        {
            "configID": 9546,
            "alias": "9546",
            "visible": true,
            "bornPointName": "",
            "relativePosType": "AVATAR_NEW",
            "relativePosNpcAlias": "",
            "bindMovingTargetKey": ""
        }
    ],
    "group": [
        [
            {
                "$type": "MoleMole.Config.ConfigTimeProtectAction",
                "type": "TIME_PROTECT",
                "duration": 1.2000000476837158,
                "actionId": 104
            },
            {
                "$type": "MoleMole.Config.ConfigBlackScreenAction",
                "type": "BLACK_SCREEN",
                "duration": 3.0,
                "actionId": 106,
                "durationToBlack": 0.5,
                "durationKeepBlack": 2.0,
                "durationFromBlack": 0.5,
                "inteePos": "",
                "textMapID": "",
                "useTextFade": true
            },
            {
                "$type": "MoleMole.Config.ConfigUITriggerInterAction",
                "type": "UI_TRIGGER",
                "actionId": 110,
                "contextName": "GcgCardGroupName",
                "param": "1"
            },
            {
                "$type": "MoleMole.Config.ConfigRequestMsgAction",
                "type": "REQUEST_MSG",
                "actionId": 111,
                "msgName": "GCGTCInvite",
                "param": ""
            },
            {
                "$type": "MoleMole.Config.ConfigTeleportToAction",
                "type": "TELEPORT_TO",
                "delayTime": 0.5,
                "aliasList": [
                    "Avatar"
                ],
                "actionId": 112,
                "forward": {
                    "z": 1.0
                },
                "openLongDisTeleport": true,
                "posSelectType": "GCG_PLAYER",
                "posBindMovingTargetKey": "",
                "forwardBindMovingTargetKey": ""
            },
            {
                "$type": "MoleMole.Config.ConfigSitOrStandAction",
                "type": "SIT_OR_STAND",
                "delayTime": 1.7999999523162842,
                "aliasList": [
                    "Avatar"
                ],
                "actionId": 113,
                "isSit": true,
                "banResetFreestyle": true
            },
            {
                "$type": "BCJBNCJOPCE",
                "type": "CAMERA_MOVE",
                "delayTime": 2.0,
                "duration": 0.10000000149011612,
                "actionId": 109,
                "KNAICGCGOHN": "RELATIVE_TO_INTEE_ONLY",
                "AKFGKKEOEFA": {
                    "y": 1.4199999570846558,
                    "z": 0.8100000023841858
                },
                "KOPGEAIDOOE": "RELATIVE_TO_INTEE_FORWARD",
                "NGEBMAEFFGJ": {
                    "y": 1.4199999570846558,
                    "z": -0.3799999952316284
                },
                "LIGHLBKBDEI": 30.0,
                "GFIOJGJJGCN": 6,
                "ABAEPHOGOFF": "EaseInOutCubic",
                "KFDBMBFFANN": {},
                "CEDHIBLHMKP": false,
                "KIPMIDIKECP": "",
                "ANFHNPOCMNI": true,
                "BDLGHOJPJHD": "",
                "AIEGOKPKONJ": [
                    8010,
                    8011,
                    8012,
                    8013,
                    8040,
                    8060,
                    8041
                ],
                "GBADBMIGABI": {
                    "y": 0.9800000190734863,
                    "z": 0.6100000143051147
                },
                "HHKDGEAKFDE": {
                    "y": 1.100000023841858,
                    "z": -0.3799999952316284
                },
                "LCOJGFEOLCK": "",
                "BBBGAEDCJEL": ""
            }
        ],
        [
            {
                "$type": "CCEEIGNAILH",
                "type": "DIALOG",
                "aliasList": [
                    "9546"
                ],
                "actionId": 108,
                "KICBIOMGHIN": 695461201,
                "PNCCODDABKI": 0.5
            },
            {
                "$type": "DNAEECJNBFB",
                "type": "EMO_SYNC",
                "aliasList": [
                    "9546"
                ],
                "actionId": 114,
                "flag": 320,
                "EOGJDJKPPGE": "Cs_Emo_Avatar_Simple_Common_Set/Cs_Emo_Avatar_Talk/Cs_Emo_GCG/Cs_Emo_Avatar_Albedo/Cs_Emo_695461201",
                "IHCBGPABDLE": "",
                "CIKPDMODFPL": "",
                "HDIAHFFHNGE": "",
                "BOAAGJEEFDD": "",
                "PFDPJKHPADE": "",
                "DALINBJAHOC": [
                    8484646403829032104,
                    14845417110089350692,
                    16793323673516069262,
                    17204001665087211434
                ]
            },
            {
                "$type": "KCBOGFFHPBD",
                "type": "BODY_LANG",
                "delayTime": 4.8429999351501465,
                "aliasList": [
                    "9546"
                ],
                "actionId": 115,
                "GPIEDGOMCGL": 4030,
                "FHLAMNNHMFA": true,
                "KCEHDJLKIAL": false,
                "KCOLHJBDILK": true,
                "AOFEDPBOOIE": ""
            }
        ],
        [
            {
                "$type": "MoleMole.Config.ConfigTimeProtectAction",
                "type": "TIME_PROTECT",
                "duration": 0.10000000149011612,
                "actionId": 105
            }
        ]
    ],
    "groupId": [
        {
            "grpId": 2297489229,
            "nextGrpId": 2297489230
        },
        {
            "index": 1,
            "grpId": 2297489230,
            "nextGrpId": 2297489231
        },
        {
            "index": 2,
            "grpId": 2297489231,
            "nextGrpId": 2297489232
        }
    ],
    "freeStyleDic": {
        "9546": [
            4030
        ]
    },
    "CKNKEEMIAPG": {
        "9546": [
            "SitChat01AS",
            "SitHoldArm01AS",
            "SitPutArm01AS",
            "SitShrug01AS",
            "SitThink01AS"
        ]
    }
}