{
    "sceneId": 1004,
    "HPIBGAHIJJI": [
        {
            "name": "room_knight_center",
            "PDIPPPGNCAK": {
                "text": "aux_scene_knight_inside_center"
            },
            "EDBLPICKJDB": true,
            "HCJBBMODPDH": [
                {
                    "position": {
                        "z": -5.0
                    },
                    "musicSubStates": {
                        "x": 20.0,
                        "y": 40.0,
                        "z": 50.0
                    }
                }
            ]
        },
        {
            "name": "room_knight_left_office",
            "PDIPPPGNCAK": {
                "text": "aux_scene_knight_inside_left_office"
            },
            "EDBLPICKJDB": true,
            "HCJBBMODPDH": [
                {
                    "position": {
                        "x": 16.0,
                        "y": 3.0,
                        "z": 6.0
                    },
                    "musicSubStates": {
                        "x": 12.0,
                        "y": 10.0,
                        "z": 20.0
                    }
                }
            ]
        },
        {
            "name": "room_knight_right_library",
            "PDIPPPGNCAK": {
                "text": "aux_scene_knight_inside_right_library"
            },
            "EDBLPICKJDB": true,
            "HCJBBMODPDH": [
                {
                    "position": {
                        "x": -25.0
                    },
                    "musicSubStates": {
                        "x": 30.0,
                        "y": 20.0,
                        "z": 50.0
                    }
                }
            ]
        }
    ],
    "IMFGNKDEIFF": [
        {
            "name": "portal_knight_left_office_to_center",
            "position": {
                "x": 10.0,
                "y": 2.0,
                "z": 7.5
            },
            "rotation": {
                "y": 90.0
            },
            "musicSubStates": {
                "x": 2.0,
                "y": 4.0,
                "z": 2.0
            },
            "GBHILCPNGGP": "room_knight_left_office",
            "BBEJGIIANJL": "room_knight_center"
        },
        {
            "name": "portal_center_to_right_library_01",
            "position": {
                "x": -10.0,
                "y": 2.0,
                "z": 7.5
            },
            "rotation": {
                "y": 90.0
            },
            "musicSubStates": {
                "x": 2.0,
                "y": 4.0,
                "z": 2.0
            },
            "GBHILCPNGGP": "room_knight_center",
            "BBEJGIIANJL": "room_knight_right_library"
        },
        {
            "name": "portal_center_to_right_library_02",
            "position": {
                "x": -10.0,
                "y": 2.0,
                "z": -7.5
            },
            "rotation": {
                "y": 90.0
            },
            "musicSubStates": {
                "x": 2.0,
                "y": 4.0,
                "z": 2.0
            },
            "GBHILCPNGGP": "room_knight_center",
            "BBEJGIIANJL": "room_knight_right_library"
        }
    ],
    "GOBPODMEBHE": ""
}