{
    "sceneId": 20010,
    "HPIBGAHIJJI": [
        {
            "name": "room_global",
            "PDIPPPGNCAK": {
                "text": "aux_scene_dungeon_default"
            },
            "EDBLPICKJDB": true
        }
    ],
    "GOBPODMEBHE": "room_global"
}