{
    "sceneId": 31304,
    "HPIBGAHIJJI": [
        {
            "name": "room_global",
            "PDIPPPGNCAK": {
                "text": "aux_scene_tower_default"
            },
            "EDBLPICKJDB": true
        },
        {
            "name": "room_tower_huge_close_room",
            "PDIPPPGNCAK": {
                "text": "aux_scene_tower_close_huge"
            },
            "EDBLPICKJDB": true,
            "HCJBBMODPDH": [
                {
                    "position": {
                        "y": 10.0
                    },
                    "musicSubStates": {
                        "x": 55.0,
                        "y": 40.0,
                        "z": 50.0
                    }
                }
            ]
        }
    ],
    "IMFGNKDEIFF": [
        {
            "name": "portal_tower_huge_close_room_to_outdoor_f",
            "position": {
                "y": 10.0,
                "z": 25.0
            },
            "musicSubStates": {
                "x": 20.0,
                "y": 40.0,
                "z": 10.0
            },
            "GBHILCPNGGP": "room_global",
            "BBEJGIIANJL": "room_tower_huge_close_room"
        },
        {
            "name": "portal_tower_huge_close_room_to_outdoor_b",
            "position": {
                "y": 10.0,
                "z": -25.0
            },
            "musicSubStates": {
                "x": 20.0,
                "y": 40.0,
                "z": 10.0
            },
            "GBHILCPNGGP": "room_tower_huge_close_room",
            "BBEJGIIANJL": "room_global"
        }
    ],
    "GOBPODMEBHE": "room_global"
}