{
    "luaDataPath": "",
    "isSimpleTalk": true,
    "startBlackKeepTime": 1.0,
    "entityBan": "",
    "disableNpcLod": true,
    "startFade": {
        "startFadeInDuration": 0.5,
        "startFadeOutDuration": 0.5
    },
    "endFade": {
        "startFadeOutDuration": 0.0
    },
    "actors": [
        {
            "alias": "Avatar",
            "visible": true,
            "bornPointName": "WQ72212_Player",
            "relativePosNpcAlias": "",
            "bindMovingTargetKey": ""
        },
        {
            "configID": 3189,
            "alias": "3189",
            "visible": true,
            "bornPointName": "WQ72155_Qinzi",
            "relativePosNpcAlias": "",
            "bindMovingTargetKey": ""
        },
        {
            "configID": 3182,
            "alias": "3182",
            "visible": true,
            "bornPointName": "WQ72212_Dadao",
            "removeActorType": "REMOVE_WITH_DISAPPEAR",
            "relativePosNpcAlias": "",
            "bindMovingTargetKey": ""
        },
        {
            "configID": 1005,
            "alias": "1005",
            "visible": true,
            "bornPointName": "WQ72212_Paimon",
            "relativePos": {
                "x": 0.5,
                "z": 0.5
            },
            "removeActorType": "REMOVE_WITH_DISAPPEAR",
            "relativePosNpcAlias": "",
            "bindMovingTargetKey": ""
        }
    ],
    "group": [
        [
            {
                "$type": "BCJBNCJOPCE",
                "type": "CAMERA_FOCUS",
                "delayTime": 0.30000001192092896,
                "duration": 0.10000000149011612,
                "KIPMIDIKECP": "",
                "BDLGHOJPJHD": "",
                "LCOJGFEOLCK": "",
                "BBBGAEDCJEL": ""
            },
            {
                "$type": "MoleMole.Config.ConfigTimeProtectAction",
                "type": "TIME_PROTECT",
                "duration": 0.4000000059604645
            },
            {
                "$type": "MoleMole.Config.ConfigVisibleInterAction",
                "type": "VISIBLE",
                "aliasList": [
                    "3182"
                ],
                "isVisible": true,
                "extraParam": ""
            }
        ],
        [
            {
                "$type": "MEKNGCBGKEJ",
                "type": "DIALOG_SELECT",
                "delayTime": 0.4000000059604645,
                "aliasList": [
                    "Avatar"
                ],
                "MLAABINGLAA": [
                    722120402,
                    722120403
                ],
                "HPBPDBFGKID": [
                    3811589047,
                    3811589047
                ],
                "CFJOJADDHHG": true
            },
            {
                "$type": "CCEEIGNAILH",
                "type": "DIALOG",
                "aliasList": [
                    "3189"
                ],
                "KICBIOMGHIN": 722120401,
                "PNCCODDABKI": 0.5
            }
        ],
        [
            {
                "$type": "CCEEIGNAILH",
                "type": "DIALOG",
                "aliasList": [
                    "3182"
                ],
                "KICBIOMGHIN": 722120404,
                "PNCCODDABKI": 0.5
            }
        ],
        [
            {
                "$type": "MEKNGCBGKEJ",
                "type": "DIALOG_SELECT",
                "delayTime": 0.4000000059604645,
                "aliasList": [
                    "Avatar"
                ],
                "MLAABINGLAA": [
                    722120406,
                    722120407
                ],
                "HPBPDBFGKID": [
                    3811589049,
                    3811589049
                ],
                "CFJOJADDHHG": true
            },
            {
                "$type": "CCEEIGNAILH",
                "type": "DIALOG",
                "aliasList": [
                    "3189"
                ],
                "KICBIOMGHIN": 722120405,
                "PNCCODDABKI": 0.5
            }
        ],
        [
            {
                "$type": "MEKNGCBGKEJ",
                "type": "DIALOG_SELECT",
                "delayTime": 0.4000000059604645,
                "aliasList": [
                    "Avatar"
                ],
                "MLAABINGLAA": [
                    722120409
                ],
                "HPBPDBFGKID": [
                    3811589050
                ],
                "CFJOJADDHHG": true
            },
            {
                "$type": "CCEEIGNAILH",
                "type": "DIALOG",
                "aliasList": [
                    "3182"
                ],
                "KICBIOMGHIN": 722120408,
                "PNCCODDABKI": 0.5
            }
        ],
        [
            {
                "$type": "CCEEIGNAILH",
                "type": "DIALOG",
                "aliasList": [
                    "3182"
                ],
                "KICBIOMGHIN": 722120410,
                "PNCCODDABKI": 0.5
            }
        ],
        [
            {
                "$type": "CCEEIGNAILH",
                "type": "DIALOG",
                "aliasList": [
                    "3189"
                ],
                "KICBIOMGHIN": 722120411,
                "PNCCODDABKI": 0.5
            }
        ],
        [
            {
                "$type": "CCEEIGNAILH",
                "type": "DIALOG",
                "aliasList": [
                    "3189"
                ],
                "KICBIOMGHIN": 722120412,
                "PNCCODDABKI": 0.5
            }
        ],
        [
            {
                "$type": "CCEEIGNAILH",
                "type": "DIALOG",
                "aliasList": [
                    "3182"
                ],
                "KICBIOMGHIN": 722120413,
                "PNCCODDABKI": 0.5
            }
        ],
        [
            {
                "$type": "CCEEIGNAILH",
                "type": "DIALOG",
                "aliasList": [
                    "3182"
                ],
                "KICBIOMGHIN": 722120414,
                "PNCCODDABKI": 0.5
            }
        ],
        [
            {
                "$type": "CCEEIGNAILH",
                "type": "DIALOG",
                "aliasList": [
                    "3189"
                ],
                "KICBIOMGHIN": 722120415,
                "PNCCODDABKI": 0.5
            }
        ],
        [
            {
                "$type": "CCEEIGNAILH",
                "type": "DIALOG",
                "aliasList": [
                    "3182"
                ],
                "KICBIOMGHIN": 722120416,
                "PNCCODDABKI": 0.5
            }
        ],
        [
            {
                "$type": "CCEEIGNAILH",
                "type": "DIALOG",
                "aliasList": [
                    "3182"
                ],
                "KICBIOMGHIN": 722120417,
                "PNCCODDABKI": 0.5
            }
        ],
        [
            {
                "$type": "CCEEIGNAILH",
                "type": "DIALOG",
                "aliasList": [
                    "3182"
                ],
                "KICBIOMGHIN": 722120418,
                "PNCCODDABKI": 0.5
            }
        ],
        [
            {
                "$type": "CCEEIGNAILH",
                "type": "DIALOG",
                "aliasList": [
                    "3189"
                ],
                "KICBIOMGHIN": 722120419,
                "PNCCODDABKI": 0.5
            }
        ],
        [
            {
                "$type": "CCEEIGNAILH",
                "type": "DIALOG",
                "aliasList": [
                    "3189"
                ],
                "KICBIOMGHIN": 722120420,
                "PNCCODDABKI": 0.5
            }
        ],
        [
            {
                "$type": "CCEEIGNAILH",
                "type": "DIALOG",
                "aliasList": [
                    "3182"
                ],
                "KICBIOMGHIN": 722120421,
                "PNCCODDABKI": 0.5
            }
        ],
        [
            {
                "$type": "CCEEIGNAILH",
                "type": "DIALOG",
                "aliasList": [
                    "3189"
                ],
                "KICBIOMGHIN": 722120422,
                "PNCCODDABKI": 0.5
            }
        ],
        [
            {
                "$type": "CCEEIGNAILH",
                "type": "DIALOG",
                "aliasList": [
                    "3182"
                ],
                "KICBIOMGHIN": 722120423,
                "PNCCODDABKI": 0.5
            }
        ],
        [
            {
                "$type": "CCEEIGNAILH",
                "type": "DIALOG",
                "aliasList": [
                    "3182"
                ],
                "KICBIOMGHIN": 722120424,
                "PNCCODDABKI": 0.5
            }
        ],
        [
            {
                "$type": "CCEEIGNAILH",
                "type": "DIALOG",
                "aliasList": [
                    "3182"
                ],
                "KICBIOMGHIN": 722120425,
                "PNCCODDABKI": 0.5
            }
        ],
        [
            {
                "$type": "CCEEIGNAILH",
                "type": "DIALOG",
                "aliasList": [
                    "1005"
                ],
                "KICBIOMGHIN": 722120426,
                "PNCCODDABKI": 0.5
            }
        ],
        [
            {
                "$type": "MoleMole.Config.ConfigTimeProtectAction",
                "type": "TIME_PROTECT",
                "duration": 0.10000000149011612
            },
            {
                "$type": "MoleMole.Config.ConfigBlackScreenAction",
                "type": "BLACK_SCREEN",
                "duration": 1.5,
                "durationToBlack": 0.5,
                "durationKeepBlack": 0.5,
                "durationFromBlack": 0.5,
                "inteePos": "",
                "textMapID": "",
                "useTextFade": true
            },
            {
                "$type": "MoleMole.Config.ConfigVisibleInterAction",
                "type": "VISIBLE",
                "aliasList": [
                    "3182"
                ],
                "extraParam": ""
            }
        ]
    ],
    "groupId": [
        {
            "grpId": 3811589045,
            "nextGrpId": 3811589046
        },
        {
            "index": 1,
            "grpId": 3811589046,
            "nextGrpId": 3811589047
        },
        {
            "index": 2,
            "grpId": 3811589047,
            "nextGrpId": 3811589048
        },
        {
            "index": 3,
            "grpId": 3811589048,
            "nextGrpId": 3811589049
        },
        {
            "index": 4,
            "grpId": 3811589049,
            "nextGrpId": 3811589050
        },
        {
            "index": 5,
            "grpId": 3811589050,
            "nextGrpId": 3811589051
        },
        {
            "index": 6,
            "grpId": 3811589051,
            "nextGrpId": 3811589052
        },
        {
            "index": 7,
            "grpId": 3811589052,
            "nextGrpId": 3811589053
        },
        {
            "index": 8,
            "grpId": 3811589053,
            "nextGrpId": 2195143451
        },
        {
            "index": 9,
            "grpId": 2195143451,
            "nextGrpId": 2195143452
        },
        {
            "index": 10,
            "grpId": 2195143452,
            "nextGrpId": 2195143453
        },
        {
            "index": 11,
            "grpId": 2195143453,
            "nextGrpId": 2195143454
        },
        {
            "index": 12,
            "grpId": 2195143454,
            "nextGrpId": 2195143455
        },
        {
            "index": 13,
            "grpId": 2195143455,
            "nextGrpId": 2195143456
        },
        {
            "index": 14,
            "grpId": 2195143456,
            "nextGrpId": 2195143457
        },
        {
            "index": 15,
            "grpId": 2195143457,
            "nextGrpId": 2195143458
        },
        {
            "index": 16,
            "grpId": 2195143458,
            "nextGrpId": 2195143459
        },
        {
            "index": 17,
            "grpId": 2195143459,
            "nextGrpId": 2195143460
        },
        {
            "index": 18,
            "grpId": 2195143460,
            "nextGrpId": 2195143482
        },
        {
            "index": 19,
            "grpId": 2195143482,
            "nextGrpId": 2195143483
        },
        {
            "index": 20,
            "grpId": 2195143483,
            "nextGrpId": 2195143484
        },
        {
            "index": 21,
            "grpId": 2195143484,
            "nextGrpId": 2195143485
        },
        {
            "index": 22,
            "grpId": 2195143485,
            "nextGrpId": 2195143486
        }
    ],
    "freeStyleDic": {
        "3182": []
    }
}