{
    "luaDataPath": "",
    "isSimpleTalk": true,
    "entityBan": "",
    "disableNpcLod": true,
    "protectNpcMobileLod": true,
    "MNHFNFDCEFG": 7,
    "startFade": {
        "startFadeOutDuration": 0.0
    },
    "endFade": {
        "startFadeOutDuration": 0.0
    },
    "actors": [
        {
            "alias": "Avatar",
            "visible": true,
            "bornPointName": "",
            "relativePosType": "AVATAR_NEW",
            "relativePosNpcAlias": "",
            "bindMovingTargetKey": ""
        },
        {
            "configID": 5120,
            "alias": "5120",
            "visible": true,
            "bornPointName": "",
            "forceCreateDaily": true,
            "relativePosType": "AVATAR_NEW",
            "relativePosNpcAlias": "",
            "bindMovingTargetKey": ""
        },
        {
            "configID": 1005,
            "alias": "1005",
            "visible": true,
            "bornPointName": "",
            "relativePos": {
                "x": -0.5
            },
            "removeActorType": "NEW_REMOVE_WITH_DISAPPEAR",
            "relativePosType": "AVATAR_NEW",
            "relativePosNpcAlias": "",
            "bindMovingTargetKey": ""
        }
    ],
    "group": [
        [
            {
                "$type": "CCEEIGNAILH",
                "type": "DIALOG",
                "aliasList": [
                    "5120"
                ],
                "actionId": 107,
                "KICBIOMGHIN": 680180902,
                "PNCCODDABKI": 0.5
            },
            {
                "$type": "KCBOGFFHPBD",
                "type": "BODY_LANG",
                "aliasList": [
                    "5120"
                ],
                "actionId": 111,
                "GPIEDGOMCGL": 1171,
                "MCLAICMHGJK": false,
                "AOFEDPBOOIE": ""
            }
        ],
        [
            {
                "$type": "MoleMole.Config.ConfigTimeProtectAction",
                "type": "TIME_PROTECT",
                "duration": 0.10000000149011612,
                "actionId": 105
            },
            {
                "$type": "CNBNGFNKLGP",
                "type": "STEER_TO",
                "duration": 1.0,
                "aliasList": [
                    "5120"
                ],
                "actionId": 110,
                "flag": 32,
                "DEMFHGAIELL": "RETURN",
                "BBNLLCHBKAI": true,
                "COJBPJMLIFM": true,
                "NLIKMFJCLBP": true,
                "KIPMIDIKECP": "",
                "IDIIDHLNENJ": true,
                "FDLMFGAMGJK": true,
                "AOFBAGFCGPJ": ""
            }
        ]
    ],
    "groupId": [
        {
            "grpId": 1334428913,
            "nextGrpId": 1334428914
        },
        {
            "index": 1,
            "grpId": 1334428914,
            "nextGrpId": 1334428915
        }
    ],
    "freeStyleDic": {
        "5120": [
            1171
        ]
    }
}