{
    "id": 11005,
    "resId": 2007,
    "series": 2007,
    "type": "LQ",
    "titleTextMapHash": 1914961625,
    "descTextMapHash": 2882995167,
    "luaPath": "Actor/Quest/LQ11005",
    "rewardIdList": [
        111005
    ],
    "chapterId": 2007,
    "subQuests": [
        {
            "subId": 1100501,
            "mainId": 11005,
            "order": 1,
            "descTextMapHash": 1246567190,
            "finishCond": [
                {
                    "type": "QUEST_CONTENT_COMPLETE_TALK",
                    "param": [
                        1100501,
                        0
                    ]
                }
            ],
            "guide": {
                "type": "QUEST_GUIDE_NPC",
                "param": [
                    "163001"
                ],
                "guideScene": 3,
                "guideStyle": "QUEST_GUIDE_STYLE_TARGET",
                "guideLayer": "QUEST_GUIDE_LAYER_SCENE"
            },
            "guideHint": {
                "KPOGPNLFAAE": ""
            },
            "isRewind": true,
            "versionBegin": "",
            "versionEnd": ""
        },
        {
            "subId": 1100502,
            "mainId": 11005,
            "order": 2,
            "descTextMapHash": 3613881214,
            "finishCond": [
                {
                    "type": "QUEST_CONTENT_COMPLETE_TALK",
                    "param": [
                        1100502,
                        0
                    ]
                }
            ],
            "guide": {
                "type": "QUEST_GUIDE_NPC",
                "param": [
                    "1012"
                ],
                "guideScene": 3,
                "guideStyle": "QUEST_GUIDE_STYLE_TARGET",
                "guideLayer": "QUEST_GUIDE_LAYER_SCENE"
            },
            "guideHint": {
                "KPOGPNLFAAE": ""
            },
            "isRewind": true,
            "versionBegin": "",
            "versionEnd": ""
        },
        {
            "subId": 1100503,
            "mainId": 11005,
            "order": 3,
            "descTextMapHash": 319814206,
            "finishCond": [
                {
                    "type": "QUEST_CONTENT_COMPLETE_TALK",
                    "param": [
                        1100503,
                        0
                    ]
                }
            ],
            "guide": {
                "type": "QUEST_GUIDE_NPC",
                "param": [
                    "1012"
                ],
                "guideScene": 3,
                "guideStyle": "QUEST_GUIDE_STYLE_TARGET",
                "guideLayer": "QUEST_GUIDE_LAYER_SCENE"
            },
            "guideHint": {
                "KPOGPNLFAAE": ""
            },
            "isRewind": true,
            "versionBegin": "",
            "versionEnd": ""
        },
        {
            "subId": 1100504,
            "mainId": 11005,
            "order": 14,
            "descTextMapHash": 150745558,
            "showType": "QUEST_HIDDEN",
            "finishCond": [
                {
                    "type": "QUEST_CONTENT_FINISH_PLOT",
                    "param": [
                        1100504,
                        0
                    ]
                }
            ],
            "failCond": [
                {
                    "type": "QUEST_CONTENT_NOT_FINISH_PLOT",
                    "param": [
                        1100504,
                        0
                    ]
                }
            ],
            "guide": {},
            "guideHint": {
                "KPOGPNLFAAE": ""
            },
            "finishExec": [
                {
                    "type": "QUEST_EXEC_ADD_QUEST_PROGRESS",
                    "param": [
                        "1100504",
                        "1"
                    ]
                },
                {
                    "type": "QUEST_EXEC_REFRESH_GROUP_SUITE",
                    "param": [
                        "3",
                        "133002312,1"
                    ]
                },
                {
                    "type": "QUEST_EXEC_DEL_ALL_SPECIFIC_PACK_ITEM",
                    "param": [
                        "100355"
                    ]
                }
            ],
            "failExec": [
                {
                    "type": "QUEST_EXEC_ROLLBACK_QUEST",
                    "param": [
                        "1100503"
                    ]
                },
                {
                    "type": "QUEST_EXEC_REFRESH_GROUP_SUITE",
                    "param": [
                        "3",
                        "133002312,1"
                    ]
                },
                {
                    "type": "QUEST_EXEC_DEL_ALL_SPECIFIC_PACK_ITEM",
                    "param": [
                        "100355"
                    ]
                }
            ],
            "versionBegin": "",
            "versionEnd": ""
        },
        {
            "subId": 1100505,
            "mainId": 11005,
            "order": 4,
            "subIdSet": 1,
            "descTextMapHash": 922816478,
            "finishCond": [
                {
                    "type": "QUEST_CONTENT_OBTAIN_ITEM",
                    "param": [
                        100014,
                        0
                    ],
                    "count": 1
                }
            ],
            "failCond": [
                {
                    "type": "QUEST_CONTENT_ADD_QUEST_PROGRESS",
                    "param": [
                        1100504,
                        0
                    ],
                    "count": 1
                }
            ],
            "guide": {},
            "guideHint": {
                "KPOGPNLFAAE": ""
            },
            "versionBegin": "",
            "versionEnd": ""
        },
        {
            "subId": 1100506,
            "mainId": 11005,
            "order": 5,
            "descTextMapHash": 300114086,
            "finishCond": [
                {
                    "type": "QUEST_CONTENT_INTERACT_GADGET",
                    "param": [
                        70710030,
                        0
                    ]
                }
            ],
            "failCond": [
                {
                    "type": "QUEST_CONTENT_ADD_QUEST_PROGRESS",
                    "param": [
                        1100504,
                        0
                    ],
                    "count": 1
                }
            ],
            "guide": {
                "type": "QUEST_GUIDE_LOCATION",
                "param": [
                    "Q1100506Wash"
                ],
                "guideScene": 3,
                "guideStyle": "QUEST_GUIDE_STYLE_TARGET",
                "guideLayer": "QUEST_GUIDE_LAYER_SCENE"
            },
            "showGuide": "QUEST_GUIDE_ITEM_DISABLE",
            "guideHint": {
                "KPOGPNLFAAE": ""
            },
            "finishExec": [
                {
                    "type": "QUEST_EXEC_DEL_PACK_ITEM",
                    "param": [
                        "100014",
                        "1"
                    ]
                }
            ],
            "versionBegin": "",
            "versionEnd": ""
        },
        {
            "subId": 1100507,
            "mainId": 11005,
            "order": 6,
            "descTextMapHash": 3194857030,
            "showType": "QUEST_HIDDEN",
            "finishCond": [
                {
                    "type": "QUEST_CONTENT_CLEAR_GROUP_MONSTER",
                    "param": [
                        133002312,
                        0
                    ]
                }
            ],
            "failCond": [
                {
                    "type": "QUEST_CONTENT_NOT_FINISH_PLOT",
                    "param": [
                        1100507,
                        0
                    ]
                }
            ],
            "guide": {},
            "guideHint": {
                "KPOGPNLFAAE": ""
            },
            "finishExec": [
                {
                    "type": "QUEST_EXEC_REFRESH_GROUP_SUITE",
                    "param": [
                        "3",
                        "133002312,1"
                    ]
                }
            ],
            "versionBegin": "",
            "versionEnd": ""
        },
        {
            "subId": 1100508,
            "mainId": 11005,
            "order": 7,
            "descTextMapHash": 501638950,
            "finishCond": [
                {
                    "type": "QUEST_CONTENT_COMPLETE_TALK",
                    "param": [
                        1100508,
                        0
                    ]
                }
            ],
            "failCond": [
                {
                    "type": "QUEST_CONTENT_ADD_QUEST_PROGRESS",
                    "param": [
                        1100504,
                        0
                    ],
                    "count": 1
                }
            ],
            "guide": {
                "type": "QUEST_GUIDE_NPC",
                "param": [
                    "1012"
                ],
                "guideScene": 3,
                "guideStyle": "QUEST_GUIDE_STYLE_TARGET",
                "guideLayer": "QUEST_GUIDE_LAYER_SCENE"
            },
            "guideHint": {
                "KPOGPNLFAAE": ""
            },
            "finishExec": [
                {
                    "type": "QUEST_EXEC_DEL_ALL_SPECIFIC_PACK_ITEM",
                    "param": [
                        "100355"
                    ]
                }
            ],
            "versionBegin": "",
            "versionEnd": ""
        },
        {
            "subId": 1100509,
            "mainId": 11005,
            "order": 8,
            "descTextMapHash": 2981205190,
            "finishCond": [
                {
                    "type": "QUEST_CONTENT_INTERACT_GADGET",
                    "param": [
                        70710031,
                        0
                    ]
                },
                {
                    "type": "QUEST_CONTENT_INTERACT_GADGET",
                    "param": [
                        70710032,
                        0
                    ]
                },
                {
                    "type": "QUEST_CONTENT_INTERACT_GADGET",
                    "param": [
                        70710033,
                        0
                    ]
                }
            ],
            "failCond": [
                {
                    "type": "QUEST_CONTENT_NOT_FINISH_PLOT",
                    "param": [
                        1100509,
                        0
                    ]
                }
            ],
            "guide": {},
            "guideHint": {
                "KPOGPNLFAAE": ""
            },
            "versionBegin": "",
            "versionEnd": ""
        },
        {
            "subId": 1100510,
            "mainId": 11005,
            "order": 9,
            "descTextMapHash": 956292086,
            "finishCond": [
                {
                    "type": "QUEST_CONTENT_COMPLETE_TALK",
                    "param": [
                        1100510,
                        0
                    ]
                },
                {
                    "type": "QUEST_CONTENT_COMPLETE_TALK",
                    "param": [
                        1100509,
                        0
                    ]
                }
            ],
            "failCond": [
                {
                    "type": "QUEST_CONTENT_ADD_QUEST_PROGRESS",
                    "param": [
                        1100504,
                        0
                    ],
                    "count": 1
                }
            ],
            "guide": {
                "type": "QUEST_GUIDE_NPC",
                "param": [
                    "1012"
                ],
                "guideScene": 3,
                "guideStyle": "QUEST_GUIDE_STYLE_TARGET",
                "guideLayer": "QUEST_GUIDE_LAYER_SCENE"
            },
            "guideHint": {
                "KPOGPNLFAAE": ""
            },
            "versionBegin": "",
            "versionEnd": ""
        },
        {
            "subId": 1100511,
            "mainId": 11005,
            "order": 10,
            "subIdSet": 2,
            "descTextMapHash": 1137627342,
            "finishCond": [
                {
                    "type": "QUEST_CONTENT_OBTAIN_ITEM",
                    "param": [
                        108013,
                        0
                    ],
                    "count": 1
                }
            ],
            "failCond": [
                {
                    "type": "QUEST_CONTENT_ADD_QUEST_PROGRESS",
                    "param": [
                        1100504,
                        0
                    ],
                    "count": 1
                }
            ],
            "guide": {},
            "guideHint": {
                "KPOGPNLFAAE": ""
            },
            "versionBegin": "",
            "versionEnd": ""
        },
        {
            "subId": 1100512,
            "mainId": 11005,
            "order": 11,
            "descTextMapHash": 348735086,
            "finishCond": [
                {
                    "type": "QUEST_CONTENT_COMPLETE_TALK",
                    "param": [
                        1100512,
                        0
                    ]
                }
            ],
            "failCond": [
                {
                    "type": "QUEST_CONTENT_ADD_QUEST_PROGRESS",
                    "param": [
                        1100504,
                        0
                    ],
                    "count": 1
                }
            ],
            "guide": {
                "type": "QUEST_GUIDE_NPC",
                "param": [
                    "1012"
                ],
                "guideScene": 3,
                "guideStyle": "QUEST_GUIDE_STYLE_TARGET",
                "guideLayer": "QUEST_GUIDE_LAYER_SCENE"
            },
            "guideHint": {
                "KPOGPNLFAAE": ""
            },
            "finishExec": [
                {
                    "type": "QUEST_EXEC_DEL_PACK_ITEM",
                    "param": [
                        "108013",
                        "1"
                    ]
                }
            ],
            "versionBegin": "",
            "versionEnd": ""
        },
        {
            "subId": 1100513,
            "mainId": 11005,
            "order": 12,
            "descTextMapHash": 498922822,
            "finishCond": [
                {
                    "type": "QUEST_CONTENT_FINISH_ITEM_GIVING",
                    "param": [
                        8,
                        0
                    ]
                }
            ],
            "failCond": [
                {
                    "type": "QUEST_CONTENT_ADD_QUEST_PROGRESS",
                    "param": [
                        1100504,
                        0
                    ],
                    "count": 1
                }
            ],
            "guide": {
                "type": "QUEST_GUIDE_NPC",
                "param": [
                    "1012"
                ],
                "guideScene": 3,
                "guideStyle": "QUEST_GUIDE_STYLE_TARGET",
                "guideLayer": "QUEST_GUIDE_LAYER_SCENE"
            },
            "guideHint": {
                "KPOGPNLFAAE": ""
            },
            "versionBegin": "",
            "versionEnd": ""
        },
        {
            "subId": 1100514,
            "mainId": 11005,
            "order": 13,
            "descTextMapHash": 91316878,
            "finishCond": [
                {
                    "type": "QUEST_CONTENT_COMPLETE_TALK",
                    "param": [
                        1100514,
                        0
                    ]
                }
            ],
            "failCond": [
                {
                    "type": "QUEST_CONTENT_ADD_QUEST_PROGRESS",
                    "param": [
                        1100504,
                        0
                    ],
                    "count": 1
                }
            ],
            "guide": {
                "type": "QUEST_GUIDE_NPC",
                "param": [
                    "1012"
                ],
                "guideScene": 3,
                "guideStyle": "QUEST_GUIDE_STYLE_TARGET",
                "guideLayer": "QUEST_GUIDE_LAYER_SCENE"
            },
            "guideHint": {
                "KPOGPNLFAAE": ""
            },
            "versionBegin": "",
            "versionEnd": ""
        },
        {
            "subId": 1100515,
            "mainId": 11005,
            "order": 15,
            "descTextMapHash": 1903539502,
            "finishCond": [
                {
                    "type": "QUEST_CONTENT_COMPLETE_TALK",
                    "param": [
                        1100515,
                        0
                    ]
                }
            ],
            "guide": {
                "type": "QUEST_GUIDE_NPC",
                "param": [
                    "1012"
                ],
                "guideScene": 3,
                "guideStyle": "QUEST_GUIDE_STYLE_TARGET",
                "guideLayer": "QUEST_GUIDE_LAYER_SCENE"
            },
            "guideHint": {
                "KPOGPNLFAAE": ""
            },
            "isRewind": true,
            "versionBegin": "",
            "versionEnd": ""
        },
        {
            "subId": 1100516,
            "mainId": 11005,
            "order": 17,
            "subIdSet": 3,
            "descTextMapHash": 4236009038,
            "finishCond": [
                {
                    "type": "QUEST_CONTENT_OBTAIN_ITEM",
                    "param": [
                        108070,
                        0
                    ],
                    "count": 1
                }
            ],
            "guide": {},
            "guideHint": {
                "KPOGPNLFAAE": ""
            },
            "isRewind": true,
            "versionBegin": "",
            "versionEnd": ""
        },
        {
            "subId": 1100517,
            "mainId": 11005,
            "order": 18,
            "descTextMapHash": 942893382,
            "finishCond": [
                {
                    "type": "QUEST_CONTENT_COMPLETE_TALK",
                    "param": [
                        1100517,
                        0
                    ]
                }
            ],
            "guide": {
                "type": "QUEST_GUIDE_NPC",
                "param": [
                    "1012"
                ],
                "guideScene": 3,
                "guideStyle": "QUEST_GUIDE_STYLE_TARGET",
                "guideLayer": "QUEST_GUIDE_LAYER_SCENE"
            },
            "guideHint": {
                "KPOGPNLFAAE": ""
            },
            "isRewind": true,
            "finishExec": [
                {
                    "type": "QUEST_EXEC_DEL_PACK_ITEM",
                    "param": [
                        "108070",
                        "1"
                    ]
                }
            ],
            "versionBegin": "",
            "versionEnd": ""
        },
        {
            "subId": 1100518,
            "mainId": 11005,
            "order": 19,
            "descTextMapHash": 2415247558,
            "finishCond": [
                {
                    "type": "QUEST_CONTENT_COMPLETE_TALK",
                    "param": [
                        1100518,
                        0
                    ]
                }
            ],
            "guide": {
                "type": "QUEST_GUIDE_NPC",
                "param": [
                    "153701"
                ],
                "guideScene": 3,
                "guideStyle": "QUEST_GUIDE_STYLE_TARGET",
                "guideLayer": "QUEST_GUIDE_LAYER_SCENE"
            },
            "guideHint": {
                "KPOGPNLFAAE": ""
            },
            "isRewind": true,
            "versionBegin": "",
            "versionEnd": ""
        },
        {
            "subId": 1100519,
            "mainId": 11005,
            "order": 20,
            "descTextMapHash": 1523629766,
            "finishCond": [
                {
                    "type": "QUEST_CONTENT_COMPLETE_TALK",
                    "param": [
                        1100519,
                        0
                    ]
                }
            ],
            "guide": {
                "type": "QUEST_GUIDE_NPC",
                "param": [
                    "1012"
                ],
                "guideScene": 3,
                "guideStyle": "QUEST_GUIDE_STYLE_FINISH",
                "guideLayer": "QUEST_GUIDE_LAYER_SCENE"
            },
            "guideHint": {
                "KPOGPNLFAAE": ""
            },
            "finishParent": true,
            "isRewind": true,
            "finishExec": [
                {
                    "type": "QUEST_EXEC_REFRESH_GROUP_SUITE",
                    "param": [
                        "3",
                        "133002308,1"
                    ]
                }
            ],
            "versionBegin": "",
            "versionEnd": ""
        },
        {
            "subId": 1100599,
            "mainId": 11005,
            "order": 16,
            "descTextMapHash": 4053563054,
            "showType": "QUEST_HIDDEN",
            "finishCond": [
                {
                    "type": "QUEST_CONTENT_FINISH_PLOT",
                    "param": [
                        1100599,
                        0
                    ]
                }
            ],
            "guide": {},
            "guideHint": {
                "KPOGPNLFAAE": ""
            },
            "versionBegin": "",
            "versionEnd": ""
        }
    ],
    "talks": [
        {
            "id": 1100501,
            "beginWay": "TALK_BEGIN_MANUAL",
            "beginCond": [
                {
                    "type": "QUEST_COND_STATE_EQUAL",
                    "param": [
                        "1100501",
                        "2"
                    ]
                }
            ],
            "priority": 5,
            "initDialog": 110050101,
            "npcId": [
                163001
            ],
            "performCfg": "QuestDialogue/LQ/Xiangling1_11005/Q1100501",
            "heroTalk": "TALK_HERO_MAIN",
            "questId": 11005,
            "assetIndex": 12400482516543036993,
            "prePerformCfg": ""
        },
        {
            "id": 1100502,
            "beginWay": "TALK_BEGIN_MANUAL",
            "beginCond": [
                {
                    "type": "QUEST_COND_STATE_EQUAL",
                    "param": [
                        "1100502",
                        "2"
                    ]
                }
            ],
            "priority": 5,
            "initDialog": 110050201,
            "npcId": [
                1012
            ],
            "performCfg": "QuestDialogue/LQ/Xiangling1_11005/Q1100502",
            "heroTalk": "TALK_HERO_MAIN",
            "questId": 11005,
            "assetIndex": 9256939569786970943,
            "prePerformCfg": ""
        },
        {
            "id": 1100503,
            "beginWay": "TALK_BEGIN_MANUAL",
            "beginCond": [
                {
                    "type": "QUEST_COND_STATE_EQUAL",
                    "param": [
                        "1100503",
                        "2"
                    ]
                }
            ],
            "priority": 5,
            "initDialog": 110050301,
            "npcId": [
                1012
            ],
            "performCfg": "QuestDialogue/LQ/Xiangling1_11005/Q1100503",
            "heroTalk": "TALK_HERO_MAIN",
            "questId": 11005,
            "assetIndex": 13672007496505396275,
            "prePerformCfg": ""
        },
        {
            "id": 1100508,
            "beginWay": "TALK_BEGIN_MANUAL",
            "beginCond": [
                {
                    "type": "QUEST_COND_STATE_EQUAL",
                    "param": [
                        "1100508",
                        "2"
                    ]
                }
            ],
            "priority": 5,
            "initDialog": 110050801,
            "npcId": [
                1012
            ],
            "performCfg": "QuestDialogue/LQ/Xiangling1_11005/Q1100508",
            "heroTalk": "TALK_HERO_MAIN",
            "questId": 11005,
            "assetIndex": 7590671986747523278,
            "prePerformCfg": ""
        },
        {
            "id": 1100509,
            "beginWay": "TALK_BEGIN_MANUAL",
            "beginCondComb": "LOGIC_AND",
            "beginCond": [
                {
                    "type": "QUEST_COND_STATE_EQUAL",
                    "param": [
                        "1100510",
                        "2"
                    ]
                },
                {
                    "type": "QUEST_COND_STATE_EQUAL",
                    "param": [
                        "1100509",
                        "3"
                    ]
                }
            ],
            "priority": 5,
            "initDialog": 110051001,
            "npcId": [
                1012
            ],
            "performCfg": "QuestDialogue/LQ/Xiangling1_11005/Q1100509",
            "heroTalk": "TALK_HERO_MAIN",
            "questId": 11005,
            "assetIndex": 18340891118875466811,
            "prePerformCfg": ""
        },
        {
            "id": 1100510,
            "beginWay": "TALK_BEGIN_MANUAL",
            "beginCondComb": "LOGIC_AND",
            "beginCond": [
                {
                    "type": "QUEST_COND_STATE_EQUAL",
                    "param": [
                        "1100510",
                        "2"
                    ]
                },
                {
                    "type": "QUEST_COND_STATE_EQUAL",
                    "param": [
                        "1100509",
                        "4"
                    ]
                }
            ],
            "priority": 5,
            "initDialog": 110051002,
            "npcId": [
                1012
            ],
            "performCfg": "QuestDialogue/LQ/Xiangling1_11005/Q1100510",
            "heroTalk": "TALK_HERO_MAIN",
            "questId": 11005,
            "assetIndex": 7140381240518825994,
            "prePerformCfg": ""
        },
        {
            "id": 1100512,
            "beginWay": "TALK_BEGIN_MANUAL",
            "beginCondComb": "LOGIC_AND",
            "beginCond": [
                {
                    "type": "QUEST_COND_STATE_EQUAL",
                    "param": [
                        "1100512",
                        "2"
                    ]
                },
                {
                    "type": "QUEST_COND_PACK_HAVE_ITEM",
                    "param": [
                        "108013",
                        "1"
                    ]
                }
            ],
            "priority": 5,
            "initDialog": 110051201,
            "npcId": [
                1012
            ],
            "performCfg": "QuestDialogue/LQ/Xiangling1_11005/Q1100512",
            "heroTalk": "TALK_HERO_MAIN",
            "questId": 11005,
            "assetIndex": 14103000384464102458,
            "prePerformCfg": ""
        },
        {
            "id": 1100513,
            "beginWay": "TALK_BEGIN_MANUAL",
            "beginCondComb": "LOGIC_AND",
            "beginCond": [
                {
                    "type": "QUEST_COND_ITEM_GIVING_ACTIVED",
                    "param": [
                        "8"
                    ]
                },
                {
                    "type": "QUEST_COND_STATE_EQUAL",
                    "param": [
                        "1100513",
                        "2"
                    ]
                }
            ],
            "priority": 5,
            "initDialog": 110051301,
            "npcId": [
                1012
            ],
            "performCfg": "",
            "heroTalk": "TALK_HERO_MAIN",
            "questId": 11005,
            "assetIndex": 15045030503645508912,
            "prePerformCfg": ""
        },
        {
            "id": 1100514,
            "beginWay": "TALK_BEGIN_MANUAL",
            "beginCond": [
                {
                    "type": "QUEST_COND_STATE_EQUAL",
                    "param": [
                        "1100514",
                        "2"
                    ]
                }
            ],
            "priority": 5,
            "initDialog": 110051401,
            "npcId": [
                1012
            ],
            "performCfg": "QuestDialogue/LQ/Xiangling1_11005/Q1100514",
            "heroTalk": "TALK_HERO_MAIN",
            "questId": 11005,
            "assetIndex": 5736147832586447106,
            "prePerformCfg": ""
        },
        {
            "id": 1100515,
            "beginWay": "TALK_BEGIN_MANUAL",
            "beginCond": [
                {
                    "type": "QUEST_COND_STATE_EQUAL",
                    "param": [
                        "1100515",
                        "2"
                    ]
                }
            ],
            "priority": 5,
            "initDialog": 110051501,
            "npcId": [
                1012
            ],
            "performCfg": "QuestDialogue/LQ/Xiangling1_11005/Q1100515",
            "heroTalk": "TALK_HERO_MAIN",
            "questId": 11005,
            "assetIndex": 12440881236871553231,
            "prePerformCfg": ""
        },
        {
            "id": 1100516,
            "beginWay": "TALK_BEGIN_MANUAL",
            "beginCond": [
                {
                    "type": "QUEST_COND_STATE_EQUAL",
                    "param": [
                        "1100516",
                        "2"
                    ]
                }
            ],
            "priority": 5,
            "initDialog": 110051601,
            "npcId": [
                1012
            ],
            "performCfg": "",
            "heroTalk": "TALK_HERO_MAIN",
            "questId": 11005,
            "assetIndex": 16020466471285663421,
            "prePerformCfg": ""
        },
        {
            "id": 1100517,
            "beginWay": "TALK_BEGIN_MANUAL",
            "beginCondComb": "LOGIC_AND",
            "beginCond": [
                {
                    "type": "QUEST_COND_STATE_EQUAL",
                    "param": [
                        "1100517",
                        "2"
                    ]
                },
                {
                    "type": "QUEST_COND_PACK_HAVE_ITEM",
                    "param": [
                        "108070",
                        "1"
                    ]
                }
            ],
            "priority": 5,
            "initDialog": 110051701,
            "npcId": [
                1012
            ],
            "performCfg": "QuestDialogue/LQ/Xiangling1_11005/Q1100517",
            "heroTalk": "TALK_HERO_MAIN",
            "questId": 11005,
            "assetIndex": 109214797422509774,
            "prePerformCfg": ""
        },
        {
            "id": 1100518,
            "beginWay": "TALK_BEGIN_MANUAL",
            "beginCond": [
                {
                    "type": "QUEST_COND_STATE_EQUAL",
                    "param": [
                        "1100518",
                        "2"
                    ]
                }
            ],
            "priority": 5,
            "initDialog": 110051801,
            "npcId": [
                153701
            ],
            "performCfg": "QuestDialogue/LQ/Xiangling1_11005/Q1100506",
            "heroTalk": "TALK_HERO_MAIN",
            "questId": 11005,
            "assetIndex": 17592503387238245973,
            "prePerformCfg": ""
        },
        {
            "id": 1100519,
            "beginWay": "TALK_BEGIN_MANUAL",
            "beginCond": [
                {
                    "type": "QUEST_COND_STATE_EQUAL",
                    "param": [
                        "1100519",
                        "2"
                    ]
                }
            ],
            "priority": 5,
            "initDialog": 110051901,
            "npcId": [
                1012
            ],
            "performCfg": "QuestDialogue/LQ/Xiangling1_11005/Q1100507",
            "heroTalk": "TALK_HERO_MAIN",
            "questId": 11005,
            "assetIndex": 14323617343527157842,
            "prePerformCfg": ""
        },
        {
            "id": 1100588,
            "beginWay": "TALK_BEGIN_MANUAL",
            "beginCondComb": "LOGIC_OR",
            "beginCond": [
                {
                    "type": "QUEST_COND_STATE_EQUAL",
                    "param": [
                        "1100515",
                        "2"
                    ]
                },
                {
                    "type": "QUEST_COND_STATE_EQUAL",
                    "param": [
                        "1100516",
                        "2"
                    ]
                },
                {
                    "type": "QUEST_COND_STATE_EQUAL",
                    "param": [
                        "1100517",
                        "2"
                    ]
                }
            ],
            "priority": 5,
            "initDialog": 110059805,
            "npcId": [
                163001
            ],
            "performCfg": "",
            "heroTalk": "TALK_HERO_MAIN",
            "questId": 11005,
            "assetIndex": 6933621328290316012,
            "prePerformCfg": ""
        },
        {
            "id": 1100589,
            "beginWay": "TALK_BEGIN_MANUAL",
            "beginCondComb": "LOGIC_OR",
            "beginCond": [
                {
                    "type": "QUEST_COND_STATE_EQUAL",
                    "param": [
                        "1100504",
                        "2"
                    ]
                },
                {
                    "type": "QUEST_COND_STATE_EQUAL",
                    "param": [
                        "1100503",
                        "2"
                    ]
                }
            ],
            "priority": 5,
            "initDialog": 110059805,
            "npcId": [
                163001
            ],
            "performCfg": "",
            "heroTalk": "TALK_HERO_MAIN",
            "questId": 11005,
            "assetIndex": 2735506309827067663,
            "prePerformCfg": ""
        },
        {
            "id": 1100590,
            "beginWay": "TALK_BEGIN_MANUAL",
            "beginCondComb": "LOGIC_OR",
            "beginCond": [
                {
                    "type": "QUEST_COND_STATE_EQUAL",
                    "param": [
                        "1100515",
                        "2"
                    ]
                },
                {
                    "type": "QUEST_COND_STATE_EQUAL",
                    "param": [
                        "1100516",
                        "2"
                    ]
                },
                {
                    "type": "QUEST_COND_STATE_EQUAL",
                    "param": [
                        "1100517",
                        "2"
                    ]
                }
            ],
            "priority": 5,
            "initDialog": 110059803,
            "npcId": [
                163101
            ],
            "performCfg": "",
            "heroTalk": "TALK_HERO_MAIN",
            "questId": 11005,
            "assetIndex": 4974512409780578207,
            "prePerformCfg": ""
        },
        {
            "id": 1100591,
            "beginWay": "TALK_BEGIN_MANUAL",
            "beginCondComb": "LOGIC_OR",
            "beginCond": [
                {
                    "type": "QUEST_COND_STATE_EQUAL",
                    "param": [
                        "1100515",
                        "2"
                    ]
                },
                {
                    "type": "QUEST_COND_STATE_EQUAL",
                    "param": [
                        "1100516",
                        "2"
                    ]
                },
                {
                    "type": "QUEST_COND_STATE_EQUAL",
                    "param": [
                        "1100517",
                        "2"
                    ]
                }
            ],
            "priority": 5,
            "initDialog": 110059801,
            "npcId": [
                154101
            ],
            "performCfg": "",
            "heroTalk": "TALK_HERO_MAIN",
            "questId": 11005,
            "assetIndex": 13158280974222633477,
            "prePerformCfg": ""
        },
        {
            "id": 1100592,
            "beginWay": "TALK_BEGIN_MANUAL",
            "beginCondComb": "LOGIC_OR",
            "beginCond": [
                {
                    "type": "QUEST_COND_STATE_EQUAL",
                    "param": [
                        "1100515",
                        "2"
                    ]
                },
                {
                    "type": "QUEST_COND_STATE_EQUAL",
                    "param": [
                        "1100516",
                        "2"
                    ]
                },
                {
                    "type": "QUEST_COND_STATE_EQUAL",
                    "param": [
                        "1100517",
                        "2"
                    ]
                }
            ],
            "priority": 5,
            "initDialog": 110059901,
            "npcId": [
                153701
            ],
            "performCfg": "",
            "heroTalk": "TALK_HERO_MAIN",
            "questId": 11005,
            "assetIndex": 13563285153780983978,
            "prePerformCfg": ""
        },
        {
            "id": 1100593,
            "beginWay": "TALK_BEGIN_MANUAL",
            "beginCondComb": "LOGIC_AND",
            "beginCond": [
                {
                    "type": "QUEST_COND_STATE_EQUAL",
                    "param": [
                        "1100517",
                        "2"
                    ]
                },
                {
                    "type": "QUEST_COND_ITEM_NUM_LESS_THAN",
                    "param": [
                        "108070",
                        "1"
                    ]
                }
            ],
            "priority": 5,
            "initDialog": 110051601,
            "npcId": [
                1012
            ],
            "performCfg": "",
            "heroTalk": "TALK_HERO_MAIN",
            "questId": 11005,
            "assetIndex": 9126119033877179113,
            "prePerformCfg": ""
        },
        {
            "id": 1100594,
            "beginWay": "TALK_BEGIN_MANUAL",
            "beginCondComb": "LOGIC_OR",
            "beginCond": [
                {
                    "type": "QUEST_COND_STATE_EQUAL",
                    "param": [
                        "1100504",
                        "2"
                    ]
                },
                {
                    "type": "QUEST_COND_STATE_EQUAL",
                    "param": [
                        "1100503",
                        "2"
                    ]
                }
            ],
            "priority": 5,
            "initDialog": 110059803,
            "npcId": [
                163101
            ],
            "performCfg": "",
            "heroTalk": "TALK_HERO_MAIN",
            "questId": 11005,
            "assetIndex": 4558299516786902397,
            "prePerformCfg": ""
        },
        {
            "id": 1100595,
            "beginWay": "TALK_BEGIN_MANUAL",
            "beginCond": [
                {
                    "type": "QUEST_COND_STATE_EQUAL",
                    "param": [
                        "1100511",
                        "2"
                    ]
                }
            ],
            "priority": 5,
            "initDialog": 110059501,
            "npcId": [
                1012
            ],
            "performCfg": "",
            "heroTalk": "TALK_HERO_MAIN",
            "questId": 11005,
            "assetIndex": 3250329854147269573,
            "prePerformCfg": ""
        },
        {
            "id": 1100596,
            "beginWay": "TALK_BEGIN_MANUAL",
            "beginCond": [
                {
                    "type": "QUEST_COND_STATE_EQUAL",
                    "param": [
                        "1100509",
                        "2"
                    ]
                }
            ],
            "priority": 5,
            "initDialog": 110059601,
            "npcId": [
                1012
            ],
            "performCfg": "",
            "heroTalk": "TALK_HERO_MAIN",
            "questId": 11005,
            "assetIndex": 4198965709250365702,
            "prePerformCfg": ""
        },
        {
            "id": 1100597,
            "beginWay": "TALK_BEGIN_MANUAL",
            "beginCondComb": "LOGIC_OR",
            "beginCond": [
                {
                    "type": "QUEST_COND_STATE_EQUAL",
                    "param": [
                        "1100505",
                        "2"
                    ]
                },
                {
                    "type": "QUEST_COND_STATE_EQUAL",
                    "param": [
                        "1100506",
                        "2"
                    ]
                }
            ],
            "priority": 5,
            "initDialog": 110059701,
            "npcId": [
                1012
            ],
            "performCfg": "",
            "heroTalk": "TALK_HERO_MAIN",
            "questId": 11005,
            "assetIndex": 11883363441137955435,
            "prePerformCfg": ""
        },
        {
            "id": 1100598,
            "beginWay": "TALK_BEGIN_MANUAL",
            "beginCondComb": "LOGIC_OR",
            "beginCond": [
                {
                    "type": "QUEST_COND_STATE_EQUAL",
                    "param": [
                        "1100504",
                        "2"
                    ]
                },
                {
                    "type": "QUEST_COND_STATE_EQUAL",
                    "param": [
                        "1100503",
                        "2"
                    ]
                }
            ],
            "priority": 5,
            "initDialog": 110059801,
            "npcId": [
                154101
            ],
            "performCfg": "",
            "heroTalk": "TALK_HERO_MAIN",
            "questId": 11005,
            "assetIndex": 17337656630509636295,
            "prePerformCfg": ""
        },
        {
            "id": 1100599,
            "beginWay": "TALK_BEGIN_MANUAL",
            "beginCondComb": "LOGIC_OR",
            "beginCond": [
                {
                    "type": "QUEST_COND_STATE_EQUAL",
                    "param": [
                        "1100504",
                        "2"
                    ]
                },
                {
                    "type": "QUEST_COND_STATE_EQUAL",
                    "param": [
                        "1100503",
                        "2"
                    ]
                }
            ],
            "priority": 5,
            "initDialog": 110059901,
            "npcId": [
                153701
            ],
            "performCfg": "",
            "heroTalk": "TALK_HERO_MAIN",
            "questId": 11005,
            "assetIndex": 18361120595634355245,
            "prePerformCfg": ""
        }
    ],
    "preloadLuaList": [
        14457059026087496718
    ],
    "freeStyleDic": {
        "1012": [
            1220,
            1190
        ],
        "154101": [
            1230,
            1120,
            1220
        ],
        "163001": [
            1240,
            1190
        ],
        "153701": [
            1220,
            1180,
            1120
        ],
        "163101": [
            1190
        ]
    }
}