{
    "id": 11042,
    "resId": 2017,
    "series": 2017,
    "type": "LQ",
    "titleTextMapHash": 3163597263,
    "descTextMapHash": 1582784478,
    "luaPath": "Actor/Quest/LQ11042",
    "suggestTrackMainQuestList": [
        11044
    ],
    "rewardIdList": [
        111042
    ],
    "chapterId": 2017,
    "subQuests": [
        {
            "subId": 1104201,
            "mainId": 11042,
            "order": 1,
            "isMpBlock": true,
            "descTextMapHash": 4219553372,
            "finishCond": [
                {
                    "type": "QUEST_CONTENT_COMPLETE_TALK",
                    "param": [
                        1104201,
                        0
                    ]
                }
            ],
            "guide": {
                "type": "QUEST_GUIDE_LOCATION",
                "param": [
                    "Q11042Albedo1"
                ],
                "guideScene": 3,
                "guideStyle": "QUEST_GUIDE_STYLE_POINT"
            },
            "guideHint": {
                "KPOGPNLFAAE": ""
            },
            "isRewind": true,
            "versionBegin": "",
            "versionEnd": ""
        },
        {
            "subId": 1104202,
            "mainId": 11042,
            "order": 2,
            "isMpBlock": true,
            "descTextMapHash": 1294603012,
            "finishCond": [
                {
                    "type": "QUEST_CONTENT_LUA_NOTIFY",
                    "param": [
                        0,
                        0
                    ],
                    "count": 1
                }
            ],
            "guide": {
                "type": "QUEST_GUIDE_LOCATION",
                "param": [
                    "Q11042Albedo1",
                    "20"
                ],
                "guideScene": 3,
                "guideStyle": "QUEST_GUIDE_STYLE_POINT"
            },
            "guideHint": {
                "KPOGPNLFAAE": ""
            },
            "isRewind": true,
            "finishExec": [
                {
                    "type": "QUEST_EXEC_UNREGISTER_DYNAMIC_GROUP",
                    "param": [
                        "133001916"
                    ]
                }
            ],
            "versionBegin": "",
            "versionEnd": ""
        },
        {
            "subId": 1104203,
            "mainId": 11042,
            "order": 3,
            "isMpBlock": true,
            "descTextMapHash": 2213235892,
            "finishCond": [
                {
                    "type": "QUEST_CONTENT_COMPLETE_TALK",
                    "param": [
                        1104203,
                        0
                    ]
                }
            ],
            "guide": {
                "type": "QUEST_GUIDE_NPC",
                "param": [
                    "1018"
                ],
                "guideScene": 3,
                "guideStyle": "QUEST_GUIDE_STYLE_TARGET"
            },
            "guideHint": {
                "KPOGPNLFAAE": ""
            },
            "isRewind": true,
            "finishExec": [
                {
                    "type": "QUEST_EXEC_UNREGISTER_DYNAMIC_GROUP",
                    "param": [
                        "133002933"
                    ]
                }
            ],
            "versionBegin": "",
            "versionEnd": ""
        },
        {
            "subId": 1104204,
            "mainId": 11042,
            "order": 4,
            "descTextMapHash": 3092911852,
            "showType": "QUEST_HIDDEN",
            "finishCond": [
                {
                    "type": "QUEST_CONTENT_OBTAIN_ITEM",
                    "param": [
                        100716,
                        0
                    ],
                    "count": 1
                },
                {
                    "type": "QUEST_CONTENT_ADD_QUEST_PROGRESS",
                    "param": [
                        1104211,
                        0
                    ],
                    "count": 1
                }
            ],
            "guide": {},
            "guideHint": {
                "KPOGPNLFAAE": ""
            },
            "isRewind": true,
            "finishExec": [
                {
                    "type": "QUEST_EXEC_ADD_QUEST_PROGRESS",
                    "param": [
                        "1104210",
                        "1"
                    ]
                },
                {
                    "type": "QUEST_EXEC_DEL_ALL_SPECIFIC_PACK_ITEM",
                    "param": [
                        "100716"
                    ]
                },
                {
                    "type": "QUEST_EXEC_NOTIFY_GROUP_LUA",
                    "param": [
                        "3",
                        "133002920"
                    ]
                }
            ],
            "versionBegin": "",
            "versionEnd": ""
        },
        {
            "subId": 1104205,
            "mainId": 11042,
            "order": 13,
            "descTextMapHash": 543756908,
            "finishCond": [
                {
                    "type": "QUEST_CONTENT_COMPLETE_TALK",
                    "param": [
                        1104205,
                        0
                    ]
                }
            ],
            "guide": {
                "type": "QUEST_GUIDE_LOCATION",
                "param": [
                    "Q11042Albedo3"
                ],
                "guideScene": 3,
                "guideStyle": "QUEST_GUIDE_STYLE_POINT"
            },
            "guideHint": {
                "KPOGPNLFAAE": ""
            },
            "isRewind": true,
            "finishExec": [
                {
                    "type": "QUEST_EXEC_DEL_ALL_SPECIFIC_PACK_ITEM",
                    "param": [
                        "100716,100717,100718,100719,100720"
                    ]
                }
            ],
            "versionBegin": "",
            "versionEnd": ""
        },
        {
            "subId": 1104206,
            "mainId": 11042,
            "order": 14,
            "descTextMapHash": 3219976332,
            "finishCond": [
                {
                    "type": "QUEST_CONTENT_INTERACT_GADGET",
                    "param": [
                        70710229,
                        0
                    ]
                }
            ],
            "guide": {
                "type": "QUEST_GUIDE_LOCATION",
                "param": [
                    "Q11042DrugMark"
                ],
                "guideScene": 3,
                "guideStyle": "QUEST_GUIDE_STYLE_TARGET"
            },
            "guideHint": {
                "KPOGPNLFAAE": ""
            },
            "isRewind": true,
            "versionBegin": "",
            "versionEnd": ""
        },
        {
            "subId": 1104207,
            "mainId": 11042,
            "order": 17,
            "descTextMapHash": 352229540,
            "finishCond": [
                {
                    "type": "QUEST_CONTENT_COMPLETE_TALK",
                    "param": [
                        1104207,
                        0
                    ]
                }
            ],
            "guide": {
                "type": "QUEST_GUIDE_NPC",
                "param": [
                    "1018"
                ],
                "guideScene": 3,
                "guideStyle": "QUEST_GUIDE_STYLE_TARGET"
            },
            "guideHint": {
                "KPOGPNLFAAE": ""
            },
            "finishParent": true,
            "isRewind": true,
            "versionBegin": "",
            "versionEnd": ""
        },
        {
            "subId": 1104208,
            "mainId": 11042,
            "order": 5,
            "descTextMapHash": 132829140,
            "showType": "QUEST_HIDDEN",
            "finishCond": [
                {
                    "type": "QUEST_CONTENT_OBTAIN_ITEM",
                    "param": [
                        100717,
                        0
                    ],
                    "count": 1
                },
                {
                    "type": "QUEST_CONTENT_ADD_QUEST_PROGRESS",
                    "param": [
                        1104211,
                        0
                    ],
                    "count": 1
                }
            ],
            "guide": {},
            "guideHint": {
                "KPOGPNLFAAE": ""
            },
            "isRewind": true,
            "finishExec": [
                {
                    "type": "QUEST_EXEC_ADD_QUEST_PROGRESS",
                    "param": [
                        "1104210",
                        "1"
                    ]
                },
                {
                    "type": "QUEST_EXEC_DEL_ALL_SPECIFIC_PACK_ITEM",
                    "param": [
                        "100717"
                    ]
                },
                {
                    "type": "QUEST_EXEC_NOTIFY_GROUP_LUA",
                    "param": [
                        "3",
                        "133002921"
                    ]
                }
            ],
            "versionBegin": "",
            "versionEnd": ""
        },
        {
            "subId": 1104209,
            "mainId": 11042,
            "order": 6,
            "descTextMapHash": 3144481196,
            "showType": "QUEST_HIDDEN",
            "finishCond": [
                {
                    "type": "QUEST_CONTENT_OBTAIN_ITEM",
                    "param": [
                        100718,
                        0
                    ],
                    "count": 1
                },
                {
                    "type": "QUEST_CONTENT_ADD_QUEST_PROGRESS",
                    "param": [
                        1104211,
                        0
                    ],
                    "count": 1
                }
            ],
            "guide": {},
            "guideHint": {
                "KPOGPNLFAAE": ""
            },
            "isRewind": true,
            "finishExec": [
                {
                    "type": "QUEST_EXEC_ADD_QUEST_PROGRESS",
                    "param": [
                        "1104210",
                        "1"
                    ]
                },
                {
                    "type": "QUEST_EXEC_DEL_ALL_SPECIFIC_PACK_ITEM",
                    "param": [
                        "100718"
                    ]
                },
                {
                    "type": "QUEST_EXEC_NOTIFY_GROUP_LUA",
                    "param": [
                        "3",
                        "133002417"
                    ]
                }
            ],
            "versionBegin": "",
            "versionEnd": ""
        },
        {
            "subId": 1104210,
            "mainId": 11042,
            "order": 11,
            "subIdSet": 1,
            "isMpBlock": true,
            "descTextMapHash": 3408597148,
            "finishCond": [
                {
                    "type": "QUEST_CONTENT_ADD_QUEST_PROGRESS",
                    "param": [
                        1104210,
                        0
                    ],
                    "count": 3
                }
            ],
            "guide": {
                "type": "QUEST_GUIDE_LOCATION",
                "param": [
                    "Q11042Gad1",
                    "50"
                ],
                "guideScene": 3
            },
            "guideHint": {
                "KPOGPNLFAAE": ""
            },
            "isRewind": true,
            "finishExec": [
                {
                    "type": "QUEST_EXEC_ADD_QUEST_PROGRESS",
                    "param": [
                        "1104211",
                        "1"
                    ]
                },
                {
                    "type": "QUEST_EXEC_DEL_ALL_SPECIFIC_PACK_ITEM",
                    "param": [
                        "100716,100717,100718,100719,100720"
                    ]
                }
            ],
            "versionBegin": "",
            "versionEnd": ""
        },
        {
            "subId": 1104211,
            "mainId": 11042,
            "order": 12,
            "descTextMapHash": 3925461284,
            "showType": "QUEST_HIDDEN",
            "finishCond": [
                {
                    "type": "QUEST_CONTENT_ADD_QUEST_PROGRESS",
                    "param": [
                        1104211,
                        0
                    ],
                    "count": 1
                }
            ],
            "guide": {},
            "guideHint": {
                "KPOGPNLFAAE": ""
            },
            "isRewind": true,
            "versionBegin": "",
            "versionEnd": ""
        },
        {
            "subId": 1104212,
            "mainId": 11042,
            "order": 7,
            "descTextMapHash": 1856519244,
            "showType": "QUEST_HIDDEN",
            "finishCond": [
                {
                    "type": "QUEST_CONTENT_OBTAIN_ITEM",
                    "param": [
                        100719,
                        0
                    ],
                    "count": 1
                },
                {
                    "type": "QUEST_CONTENT_ADD_QUEST_PROGRESS",
                    "param": [
                        1104211,
                        0
                    ],
                    "count": 1
                }
            ],
            "guide": {},
            "guideHint": {
                "KPOGPNLFAAE": ""
            },
            "isRewind": true,
            "finishExec": [
                {
                    "type": "QUEST_EXEC_ADD_QUEST_PROGRESS",
                    "param": [
                        "1104210",
                        "1"
                    ]
                },
                {
                    "type": "QUEST_EXEC_DEL_ALL_SPECIFIC_PACK_ITEM",
                    "param": [
                        "100719"
                    ]
                },
                {
                    "type": "QUEST_EXEC_NOTIFY_GROUP_LUA",
                    "param": [
                        "3",
                        "133002926"
                    ]
                }
            ],
            "versionBegin": "",
            "versionEnd": ""
        },
        {
            "subId": 1104213,
            "mainId": 11042,
            "order": 8,
            "descTextMapHash": 1733362884,
            "showType": "QUEST_HIDDEN",
            "finishCond": [
                {
                    "type": "QUEST_CONTENT_OBTAIN_ITEM",
                    "param": [
                        100720,
                        0
                    ],
                    "count": 1
                },
                {
                    "type": "QUEST_CONTENT_ADD_QUEST_PROGRESS",
                    "param": [
                        1104211,
                        0
                    ],
                    "count": 1
                }
            ],
            "guide": {},
            "guideHint": {
                "KPOGPNLFAAE": ""
            },
            "isRewind": true,
            "finishExec": [
                {
                    "type": "QUEST_EXEC_ADD_QUEST_PROGRESS",
                    "param": [
                        "1104210",
                        "1"
                    ]
                },
                {
                    "type": "QUEST_EXEC_DEL_ALL_SPECIFIC_PACK_ITEM",
                    "param": [
                        "100720"
                    ]
                },
                {
                    "type": "QUEST_EXEC_NOTIFY_GROUP_LUA",
                    "param": [
                        "3",
                        "133002420"
                    ]
                }
            ],
            "versionBegin": "",
            "versionEnd": ""
        },
        {
            "subId": 1104214,
            "mainId": 11042,
            "order": 9,
            "descTextMapHash": 1318112212,
            "showType": "QUEST_HIDDEN",
            "finishCond": [
                {
                    "type": "QUEST_CONTENT_ADD_QUEST_PROGRESS",
                    "param": [
                        1104210,
                        0
                    ],
                    "count": 1
                }
            ],
            "guide": {},
            "guideHint": {
                "KPOGPNLFAAE": ""
            },
            "isRewind": true,
            "versionBegin": "",
            "versionEnd": ""
        },
        {
            "subId": 1104215,
            "mainId": 11042,
            "order": 10,
            "descTextMapHash": 3449459900,
            "showType": "QUEST_HIDDEN",
            "finishCond": [
                {
                    "type": "QUEST_CONTENT_ADD_QUEST_PROGRESS",
                    "param": [
                        1104210,
                        0
                    ],
                    "count": 2
                }
            ],
            "guide": {},
            "guideHint": {
                "KPOGPNLFAAE": ""
            },
            "isRewind": true,
            "versionBegin": "",
            "versionEnd": ""
        },
        {
            "subId": 1104216,
            "mainId": 11042,
            "order": 15,
            "descTextMapHash": 428855332,
            "guideTipsTextMapHash": 1944970294,
            "finishCond": [
                {
                    "type": "QUEST_CONTENT_USE_ITEM",
                    "param": [
                        100704,
                        0
                    ]
                }
            ],
            "guide": {},
            "guideHint": {
                "KPOGPNLFAAE": ""
            },
            "versionBegin": "",
            "versionEnd": ""
        },
        {
            "subId": 1104217,
            "mainId": 11042,
            "order": 16,
            "descTextMapHash": 1128339580,
            "showType": "QUEST_HIDDEN",
            "finishCond": [
                {
                    "type": "QUEST_CONTENT_FINISH_PLOT",
                    "param": [
                        1104217,
                        0
                    ]
                }
            ],
            "guide": {},
            "guideHint": {
                "KPOGPNLFAAE": ""
            },
            "versionBegin": "",
            "versionEnd": ""
        }
    ],
    "talks": [
        {
            "id": 1104201,
            "beginWay": "TALK_BEGIN_MANUAL",
            "beginCond": [
                {
                    "type": "QUEST_COND_STATE_EQUAL",
                    "param": [
                        "1104201",
                        "2"
                    ]
                }
            ],
            "initDialog": 110420101,
            "npcId": [
                1018
            ],
            "performCfg": "QuestDialogue/LQ/Albedo1_11042/Q1104201",
            "questId": 11042,
            "assetIndex": 6688835000169591041,
            "prePerformCfg": "",
            "lockGameTime": true
        },
        {
            "id": 1104203,
            "beginWay": "TALK_BEGIN_MANUAL",
            "beginCond": [
                {
                    "type": "QUEST_COND_STATE_EQUAL",
                    "param": [
                        "1104203",
                        "2"
                    ]
                }
            ],
            "initDialog": 110420301,
            "npcId": [
                1018
            ],
            "performCfg": "QuestDialogue/LQ/Albedo1_11042/Q1104203",
            "questId": 11042,
            "assetIndex": 13973379547845580466,
            "prePerformCfg": "",
            "lockGameTime": true
        },
        {
            "id": 1104205,
            "beginWay": "TALK_BEGIN_MANUAL",
            "beginCond": [
                {
                    "type": "QUEST_COND_STATE_EQUAL",
                    "param": [
                        "1104205",
                        "2"
                    ]
                }
            ],
            "initDialog": 110420501,
            "npcId": [
                1018
            ],
            "performCfg": "QuestDialogue/LQ/Albedo1_11042/Q1104205",
            "questId": 11042,
            "assetIndex": 4659380829251092808,
            "prePerformCfg": "",
            "lockGameTime": true
        },
        {
            "id": 1104206,
            "beginWay": "TALK_BEGIN_MANUAL",
            "beginCond": [
                {
                    "type": "QUEST_COND_STATE_EQUAL",
                    "param": [
                        "1104206",
                        "2"
                    ]
                }
            ],
            "initDialog": 110420601,
            "npcId": [
                1018
            ],
            "performCfg": "QuestDialogue/LQ/Albedo1_11042/Q1104206",
            "questId": 11042,
            "assetIndex": 6250575797318129656,
            "prePerformCfg": "",
            "lockGameTime": true
        },
        {
            "id": 1104207,
            "beginWay": "TALK_BEGIN_MANUAL",
            "beginCond": [
                {
                    "type": "QUEST_COND_STATE_EQUAL",
                    "param": [
                        "1104207",
                        "2"
                    ]
                }
            ],
            "initDialog": 110420701,
            "npcId": [
                1018
            ],
            "performCfg": "QuestDialogue/LQ/Albedo1_11042/Q1104207",
            "questId": 11042,
            "assetIndex": 10426408719584016997,
            "prePerformCfg": "",
            "lockGameTime": true
        },
        {
            "id": 1104208,
            "beginWay": "TALK_BEGIN_MANUAL",
            "beginCondComb": "LOGIC_OR",
            "beginCond": [
                {
                    "type": "QUEST_COND_STATE_EQUAL",
                    "param": [
                        "1104410",
                        "2"
                    ]
                },
                {
                    "type": "QUEST_COND_STATE_EQUAL",
                    "param": [
                        "1104401",
                        "2"
                    ]
                },
                {
                    "type": "QUEST_COND_STATE_EQUAL",
                    "param": [
                        "1104405",
                        "2"
                    ]
                },
                {
                    "type": "QUEST_COND_STATE_EQUAL",
                    "param": [
                        "1104412",
                        "2"
                    ]
                },
                {
                    "type": "QUEST_COND_STATE_EQUAL",
                    "param": [
                        "1104403",
                        "2"
                    ]
                },
                {
                    "type": "QUEST_COND_STATE_EQUAL",
                    "param": [
                        "1104301",
                        "2"
                    ]
                }
            ],
            "initDialog": 110420801,
            "npcId": [
                158701
            ],
            "performCfg": "QuestDialogue/LQ/Albedo1_11042/Q1104208",
            "questId": 11042,
            "assetIndex": 3625629051877579553,
            "prePerformCfg": "",
            "lockGameTime": true,
            "questIdleTalk": true
        },
        {
            "id": 1104209,
            "beginWay": "TALK_BEGIN_MANUAL",
            "beginCondComb": "LOGIC_OR",
            "beginCond": [
                {
                    "type": "QUEST_COND_STATE_EQUAL",
                    "param": [
                        "1104206",
                        "2"
                    ]
                },
                {
                    "type": "QUEST_COND_STATE_EQUAL",
                    "param": [
                        "1104207",
                        "2"
                    ]
                },
                {
                    "type": "QUEST_COND_STATE_EQUAL",
                    "param": [
                        "1104216",
                        "2"
                    ]
                }
            ],
            "initDialog": 110420901,
            "npcId": [
                158701
            ],
            "performCfg": "QuestDialogue/LQ/Albedo1_11042/Q1104209",
            "questId": 11042,
            "assetIndex": 10304186931382875666,
            "prePerformCfg": "",
            "lockGameTime": true
        },
        {
            "id": 1104210,
            "beginWay": "TALK_BEGIN_MANUAL",
            "beginCondComb": "LOGIC_OR",
            "beginCond": [
                {
                    "type": "QUEST_COND_STATE_EQUAL",
                    "param": [
                        "1104302",
                        "2"
                    ]
                },
                {
                    "type": "QUEST_COND_STATE_EQUAL",
                    "param": [
                        "1104304",
                        "2"
                    ]
                },
                {
                    "type": "QUEST_COND_STATE_EQUAL",
                    "param": [
                        "1104303",
                        "2"
                    ]
                },
                {
                    "type": "QUEST_COND_STATE_EQUAL",
                    "param": [
                        "1104501",
                        "2"
                    ]
                },
                {
                    "type": "QUEST_COND_STATE_EQUAL",
                    "param": [
                        "1104509",
                        "2"
                    ]
                },
                {
                    "type": "QUEST_COND_STATE_EQUAL",
                    "param": [
                        "1104507",
                        "2"
                    ]
                }
            ],
            "initDialog": 110420801,
            "npcId": [
                158701
            ],
            "performCfg": "QuestDialogue/LQ/Albedo1_11042/Q1104208",
            "questId": 11042,
            "assetIndex": 5417528097890665101,
            "prePerformCfg": "",
            "lockGameTime": true,
            "questIdleTalk": true
        },
        {
            "id": 1104211,
            "beginWay": "TALK_BEGIN_MANUAL",
            "beginCondComb": "LOGIC_OR",
            "beginCond": [
                {
                    "type": "QUEST_COND_STATE_EQUAL",
                    "param": [
                        "1104503",
                        "2"
                    ]
                },
                {
                    "type": "QUEST_COND_STATE_EQUAL",
                    "param": [
                        "1104504",
                        "2"
                    ]
                }
            ],
            "initDialog": 110420801,
            "npcId": [
                158701
            ],
            "performCfg": "QuestDialogue/LQ/Albedo1_11042/Q1104208",
            "questId": 11042,
            "assetIndex": 2005229421616311765,
            "prePerformCfg": "",
            "lockGameTime": true,
            "questIdleTalk": true
        }
    ],
    "preloadLuaList": [
        4115890567497996100,
        2240208393916032826
    ],
    "AILPOGENMJB": [
        18228960517335151582
    ]
}