{
    "id": 13021,
    "resId": 2035,
    "series": 13020,
    "type": "LQ",
    "titleTextMapHash": 397615079,
    "descTextMapHash": 1739958830,
    "luaPath": "Actor/Quest/LQ13021",
    "suggestTrackMainQuestList": [
        13022
    ],
    "rewardIdList": [
        113021
    ],
    "chapterId": 2035,
    "subQuests": [
        {
            "subId": 1302101,
            "mainId": 13021,
            "order": 1,
            "descTextMapHash": 2943908292,
            "finishCond": [
                {
                    "type": "QUEST_CONTENT_FINISH_PLOT",
                    "param": [
                        1302101,
                        0
                    ]
                }
            ],
            "guide": {
                "type": "QUEST_GUIDE_NPC",
                "param": [
                    "13007"
                ],
                "guideScene": 1073,
                "guideStyle": "QUEST_GUIDE_STYLE_TARGET"
            },
            "guideHint": {
                "KPOGPNLFAAE": ""
            },
            "isRewind": true,
            "versionBegin": "",
            "versionEnd": ""
        },
        {
            "subId": 1302102,
            "mainId": 13021,
            "order": 2,
            "descTextMapHash": 1830499340,
            "finishCond": [
                {
                    "type": "QUEST_CONTENT_COMPLETE_TALK",
                    "param": [
                        1302102,
                        0
                    ]
                }
            ],
            "guide": {
                "type": "QUEST_GUIDE_NPC",
                "param": [
                    "13007"
                ],
                "guideScene": 1073,
                "guideStyle": "QUEST_GUIDE_STYLE_TARGET"
            },
            "guideHint": {
                "KPOGPNLFAAE": ""
            },
            "versionBegin": "",
            "versionEnd": ""
        },
        {
            "subId": 1302103,
            "mainId": 13021,
            "order": 3,
            "descTextMapHash": 890026972,
            "stepDescTextMapHash": 3108642565,
            "KFCPGKEOMNH": [
                330243
            ],
            "finishCond": [
                {
                    "type": "QUEST_CONTENT_FINISH_PLOT",
                    "param": [
                        1302103,
                        0
                    ]
                }
            ],
            "guide": {
                "type": "QUEST_GUIDE_NPC",
                "param": [
                    "13005"
                ],
                "guideScene": 3,
                "guideStyle": "QUEST_GUIDE_STYLE_TARGET"
            },
            "guideHint": {
                "KPOGPNLFAAE": ""
            },
            "isRewind": true,
            "versionBegin": "",
            "versionEnd": ""
        },
        {
            "subId": 1302104,
            "mainId": 13021,
            "order": 4,
            "descTextMapHash": 2438295852,
            "KFCPGKEOMNH": [
                330243
            ],
            "finishCond": [
                {
                    "type": "QUEST_CONTENT_COMPLETE_TALK",
                    "param": [
                        1302104,
                        0
                    ]
                }
            ],
            "guide": {
                "type": "QUEST_GUIDE_NPC",
                "param": [
                    "13005"
                ],
                "guideScene": 3,
                "guideStyle": "QUEST_GUIDE_STYLE_TARGET"
            },
            "guideHint": {
                "KPOGPNLFAAE": ""
            },
            "versionBegin": "",
            "versionEnd": ""
        },
        {
            "subId": 1302105,
            "mainId": 13021,
            "order": 5,
            "descTextMapHash": 2731320876,
            "stepDescTextMapHash": 203988333,
            "KFCPGKEOMNH": [
                330243
            ],
            "finishCond": [
                {
                    "type": "QUEST_CONTENT_FINISH_PLOT",
                    "param": [
                        1302105,
                        0
                    ]
                }
            ],
            "guide": {
                "type": "QUEST_GUIDE_NPC",
                "param": [
                    "13006"
                ],
                "guideScene": 3,
                "guideStyle": "QUEST_GUIDE_STYLE_TARGET"
            },
            "guideHint": {
                "KPOGPNLFAAE": ""
            },
            "isRewind": true,
            "versionBegin": "",
            "versionEnd": ""
        },
        {
            "subId": 1302106,
            "mainId": 13021,
            "order": 6,
            "descTextMapHash": 1588893700,
            "KFCPGKEOMNH": [
                330243
            ],
            "finishCond": [
                {
                    "type": "QUEST_CONTENT_COMPLETE_TALK",
                    "param": [
                        1302106,
                        0
                    ]
                }
            ],
            "guide": {
                "type": "QUEST_GUIDE_NPC",
                "param": [
                    "13006"
                ],
                "guideScene": 3,
                "guideStyle": "QUEST_GUIDE_STYLE_TARGET"
            },
            "guideHint": {
                "KPOGPNLFAAE": ""
            },
            "versionBegin": "",
            "versionEnd": ""
        },
        {
            "subId": 1302107,
            "mainId": 13021,
            "order": 7,
            "descTextMapHash": 2309100188,
            "stepDescTextMapHash": 2578194269,
            "finishCond": [
                {
                    "type": "QUEST_CONTENT_COMPLETE_TALK",
                    "param": [
                        1302107,
                        0
                    ]
                }
            ],
            "guide": {
                "type": "QUEST_GUIDE_LOCATION",
                "param": [
                    "Q1302107_N1053"
                ],
                "guideScene": 1073,
                "guideStyle": "QUEST_GUIDE_STYLE_POINT"
            },
            "guideHint": {
                "KPOGPNLFAAE": ""
            },
            "isRewind": true,
            "versionBegin": "",
            "versionEnd": ""
        },
        {
            "subId": 1302108,
            "mainId": 13021,
            "order": 8,
            "descTextMapHash": 3959758052,
            "guideTipsTextMapHash": 4170183894,
            "finishCond": [
                {
                    "type": "QUEST_CONTENT_COMPLETE_TALK",
                    "param": [
                        1302108,
                        0
                    ]
                }
            ],
            "guide": {
                "type": "QUEST_GUIDE_NPC",
                "param": [
                    "1053"
                ],
                "guideScene": 1073,
                "guideStyle": "QUEST_GUIDE_STYLE_TARGET"
            },
            "guideHint": {
                "KPOGPNLFAAE": ""
            },
            "isRewind": true,
            "versionBegin": "",
            "versionEnd": ""
        },
        {
            "subId": 1302109,
            "mainId": 13021,
            "order": 9,
            "descTextMapHash": 3908113260,
            "finishCond": [
                {
                    "type": "QUEST_CONTENT_FINISH_PLOT",
                    "param": [
                        1302109,
                        0
                    ]
                },
                {
                    "type": "QUEST_CONTENT_QUEST_STATE_EQUAL",
                    "param": [
                        1302114,
                        3
                    ]
                },
                {
                    "type": "QUEST_CONTENT_LEAVE_SCENE_RANGE",
                    "param": [
                        1073,
                        50
                    ]
                }
            ],
            "failCond": [
                {
                    "type": "QUEST_CONTENT_LEAVE_SCENE",
                    "param": [
                        1073,
                        0
                    ]
                }
            ],
            "guide": {},
            "guideHint": {
                "KPOGPNLFAAE": ""
            },
            "finishExec": [
                {
                    "type": "QUEST_EXEC_UNREGISTER_DYNAMIC_GROUP",
                    "param": [
                        "201073006",
                        "0"
                    ]
                }
            ],
            "failExec": [
                {
                    "type": "QUEST_EXEC_ROLLBACK_QUEST",
                    "param": [
                        "1302108"
                    ]
                }
            ],
            "versionBegin": "",
            "versionEnd": ""
        },
        {
            "subId": 1302110,
            "mainId": 13021,
            "order": 11,
            "descTextMapHash": 2665334588,
            "finishCond": [
                {
                    "type": "QUEST_CONTENT_COMPLETE_TALK",
                    "param": [
                        1302110,
                        0
                    ]
                }
            ],
            "guide": {
                "type": "QUEST_GUIDE_NPC",
                "param": [
                    "1053"
                ],
                "guideScene": 1073,
                "guideStyle": "QUEST_GUIDE_STYLE_TARGET"
            },
            "guideHint": {
                "KPOGPNLFAAE": ""
            },
            "isRewind": true,
            "versionBegin": "",
            "versionEnd": ""
        },
        {
            "subId": 1302111,
            "mainId": 13021,
            "order": 13,
            "descTextMapHash": 1026405532,
            "stepDescTextMapHash": 2982336101,
            "finishCond": [
                {
                    "type": "QUEST_CONTENT_FINISH_PLOT",
                    "param": [
                        1302111,
                        0
                    ]
                }
            ],
            "guide": {
                "type": "QUEST_GUIDE_LOCATION",
                "param": [
                    "Q1302111_Q1302112_N13003_guide"
                ],
                "guideScene": 3,
                "guideStyle": "QUEST_GUIDE_STYLE_POINT"
            },
            "guideHint": {
                "KPOGPNLFAAE": ""
            },
            "isRewind": true,
            "versionBegin": "",
            "versionEnd": ""
        },
        {
            "subId": 1302112,
            "mainId": 13021,
            "order": 14,
            "descTextMapHash": 2653921932,
            "finishCond": [
                {
                    "type": "QUEST_CONTENT_COMPLETE_TALK",
                    "param": [
                        1302112,
                        0
                    ]
                }
            ],
            "guide": {
                "type": "QUEST_GUIDE_NPC",
                "param": [
                    "13003"
                ],
                "guideScene": 3,
                "guideStyle": "QUEST_GUIDE_STYLE_TARGET",
                "guideLayer": "QUEST_GUIDE_LAYER_SCENE"
            },
            "guideHint": {
                "KPOGPNLFAAE": ""
            },
            "finishParent": true,
            "versionBegin": "",
            "versionEnd": ""
        },
        {
            "subId": 1302113,
            "mainId": 13021,
            "order": 12,
            "descTextMapHash": 532344204,
            "finishCond": [
                {
                    "type": "QUEST_CONTENT_COMPLETE_TALK",
                    "param": [
                        1302113,
                        0
                    ]
                }
            ],
            "guide": {
                "type": "QUEST_GUIDE_NPC",
                "param": [
                    "13003"
                ],
                "guideScene": 1073,
                "guideStyle": "QUEST_GUIDE_STYLE_POINT",
                "guideLayer": "QUEST_GUIDE_LAYER_SCENE"
            },
            "guideHint": {
                "KPOGPNLFAAE": ""
            },
            "isRewind": true,
            "finishExec": [
                {
                    "type": "QUEST_EXEC_UNREGISTER_DYNAMIC_GROUP",
                    "param": [
                        "201073007",
                        "0"
                    ]
                }
            ],
            "versionBegin": "",
            "versionEnd": ""
        },
        {
            "subId": 1302114,
            "mainId": 13021,
            "order": 10,
            "descTextMapHash": 4281077876,
            "showType": "QUEST_HIDDEN",
            "finishCond": [
                {
                    "type": "QUEST_CONTENT_COMPLETE_TALK",
                    "param": [
                        1302120,
                        0
                    ]
                },
                {
                    "type": "QUEST_CONTENT_COMPLETE_TALK",
                    "param": [
                        1302121,
                        0
                    ]
                },
                {
                    "type": "QUEST_CONTENT_COMPLETE_TALK",
                    "param": [
                        1302122,
                        0
                    ]
                },
                {
                    "type": "QUEST_CONTENT_COMPLETE_TALK",
                    "param": [
                        1302123,
                        0
                    ]
                }
            ],
            "failCond": [
                {
                    "type": "QUEST_CONTENT_FINISH_PLOT",
                    "param": [
                        1302109,
                        0
                    ]
                }
            ],
            "guide": {},
            "guideHint": {
                "KPOGPNLFAAE": ""
            },
            "versionBegin": "",
            "versionEnd": ""
        }
    ],
    "talks": [
        {
            "id": 1302102,
            "beginWay": "TALK_BEGIN_MANUAL",
            "beginCond": [
                {
                    "type": "QUEST_COND_STATE_EQUAL",
                    "param": [
                        "1302102",
                        "2"
                    ]
                }
            ],
            "priority": 5,
            "initDialog": 130210201,
            "npcId": [
                13007
            ],
            "performCfg": "QuestDialogue/LQ/Alhm_13021/Q1302102",
            "heroTalk": "TALK_HERO_MAIN",
            "questId": 13021,
            "assetIndex": 9422249860892959732,
            "prePerformCfg": ""
        },
        {
            "id": 1302104,
            "beginWay": "TALK_BEGIN_MANUAL",
            "beginCond": [
                {
                    "type": "QUEST_COND_STATE_EQUAL",
                    "param": [
                        "1302104",
                        "2"
                    ]
                }
            ],
            "priority": 5,
            "initDialog": 130210401,
            "npcId": [
                13005
            ],
            "performCfg": "QuestDialogue/LQ/Alhm_13021/Q1302104",
            "heroTalk": "TALK_HERO_MAIN",
            "questId": 13021,
            "assetIndex": 698269894214299900,
            "prePerformCfg": ""
        },
        {
            "id": 1302106,
            "beginWay": "TALK_BEGIN_MANUAL",
            "beginCond": [
                {
                    "type": "QUEST_COND_STATE_EQUAL",
                    "param": [
                        "1302106",
                        "2"
                    ]
                }
            ],
            "priority": 5,
            "initDialog": 130210601,
            "npcId": [
                13006
            ],
            "performCfg": "QuestDialogue/LQ/Alhm_13021/Q1302106",
            "heroTalk": "TALK_HERO_MAIN",
            "questId": 13021,
            "assetIndex": 2137178468640905797,
            "prePerformCfg": ""
        },
        {
            "id": 1302107,
            "beginWay": "TALK_BEGIN_MANUAL",
            "beginCond": [
                {
                    "type": "QUEST_COND_STATE_EQUAL",
                    "param": [
                        "1302107",
                        "2"
                    ]
                }
            ],
            "priority": 5,
            "initDialog": 130210701,
            "npcId": [
                1053
            ],
            "performCfg": "QuestDialogue/LQ/Alhm_13021/Q1302107",
            "heroTalk": "TALK_HERO_MAIN",
            "questId": 13021,
            "assetIndex": 18030228932936698847,
            "prePerformCfg": ""
        },
        {
            "id": 1302108,
            "beginWay": "TALK_BEGIN_MANUAL",
            "beginCond": [
                {
                    "type": "QUEST_COND_STATE_EQUAL",
                    "param": [
                        "1302108",
                        "2"
                    ]
                }
            ],
            "priority": 5,
            "initDialog": 130210801,
            "npcId": [
                1053
            ],
            "performCfg": "QuestDialogue/LQ/Alhm_13021/Q1302108",
            "heroTalk": "TALK_HERO_MAIN",
            "questId": 13021,
            "assetIndex": 8057388652204695296,
            "prePerformCfg": ""
        },
        {
            "id": 1302110,
            "beginWay": "TALK_BEGIN_MANUAL",
            "beginCond": [
                {
                    "type": "QUEST_COND_STATE_EQUAL",
                    "param": [
                        "1302110",
                        "2"
                    ]
                }
            ],
            "priority": 5,
            "initDialog": 130211001,
            "npcId": [
                1053
            ],
            "performCfg": "QuestDialogue/LQ/Alhm_13021/Q1302110",
            "heroTalk": "TALK_HERO_MAIN",
            "questId": 13021,
            "assetIndex": 12325036708366741039,
            "prePerformCfg": ""
        },
        {
            "id": 1302112,
            "beginWay": "TALK_BEGIN_MANUAL",
            "beginCond": [
                {
                    "type": "QUEST_COND_STATE_EQUAL",
                    "param": [
                        "1302112",
                        "2"
                    ]
                }
            ],
            "priority": 5,
            "initDialog": 130211201,
            "npcId": [
                13003
            ],
            "performCfg": "QuestDialogue/LQ/Alhm_13021/Q1302112",
            "heroTalk": "TALK_HERO_MAIN",
            "questId": 13021,
            "assetIndex": 6215549645724450765,
            "prePerformCfg": ""
        },
        {
            "id": 1302113,
            "beginWay": "TALK_BEGIN_MANUAL",
            "beginCond": [
                {
                    "type": "QUEST_COND_STATE_EQUAL",
                    "param": [
                        "1302113",
                        "2"
                    ]
                }
            ],
            "priority": 5,
            "initDialog": 130211301,
            "npcId": [
                13003
            ],
            "performCfg": "QuestDialogue/LQ/Alhm_13021/Q1302113",
            "heroTalk": "TALK_HERO_MAIN",
            "questId": 13021,
            "assetIndex": 11700570396739184324,
            "prePerformCfg": ""
        },
        {
            "id": 1302117,
            "beginWay": "TALK_BEGIN_MANUAL",
            "beginCondComb": "LOGIC_OR",
            "beginCond": [
                {
                    "type": "QUEST_COND_STATE_EQUAL",
                    "param": [
                        "1302103",
                        "2"
                    ]
                },
                {
                    "type": "QUEST_COND_STATE_EQUAL",
                    "param": [
                        "1302104",
                        "2"
                    ]
                }
            ],
            "priority": 5,
            "initDialog": 130211701,
            "npcId": [
                13007
            ],
            "performCfg": "QuestDialogue/LQ/Alhm_13021/Q1302117",
            "heroTalk": "TALK_HERO_MAIN",
            "questId": 13021,
            "assetIndex": 10587387596329201169,
            "prePerformCfg": ""
        },
        {
            "id": 1302118,
            "beginWay": "TALK_BEGIN_MANUAL",
            "beginCond": [
                {
                    "type": "QUEST_COND_STATE_EQUAL",
                    "param": [
                        "1302105",
                        "2"
                    ]
                }
            ],
            "priority": 5,
            "initDialog": 130211801,
            "npcId": [
                13005
            ],
            "performCfg": "QuestDialogue/LQ/Alhm_13021/Q1302118",
            "heroTalk": "TALK_HERO_MAIN",
            "questId": 13021,
            "assetIndex": 13033375854514629939,
            "prePerformCfg": ""
        },
        {
            "id": 1302119,
            "beginWay": "TALK_BEGIN_MANUAL",
            "beginCondComb": "LOGIC_OR",
            "beginCond": [
                {
                    "type": "QUEST_COND_STATE_EQUAL",
                    "param": [
                        "1302108",
                        "2"
                    ]
                },
                {
                    "type": "QUEST_COND_STATE_EQUAL",
                    "param": [
                        "1302109",
                        "2"
                    ]
                }
            ],
            "priority": 5,
            "initDialog": 130211901,
            "npcId": [
                13007,
                13003
            ],
            "performCfg": "QuestDialogue/LQ/Alhm_13021/Q1302119",
            "heroTalk": "TALK_HERO_MAIN",
            "questId": 13021,
            "assetIndex": 10870971908585750908,
            "prePerformCfg": ""
        },
        {
            "id": 1302120,
            "beginWay": "TALK_BEGIN_MANUAL",
            "beginCond": [
                {
                    "type": "QUEST_COND_STATE_EQUAL",
                    "param": [
                        "1302109",
                        "2"
                    ]
                }
            ],
            "priority": 5,
            "initDialog": 130212001,
            "npcId": [
                13094
            ],
            "performCfg": "",
            "heroTalk": "TALK_HERO_MAIN",
            "questId": 13021,
            "assetIndex": 8038743190549689527,
            "prePerformCfg": ""
        },
        {
            "id": 1302121,
            "beginWay": "TALK_BEGIN_MANUAL",
            "beginCond": [
                {
                    "type": "QUEST_COND_STATE_EQUAL",
                    "param": [
                        "1302109",
                        "2"
                    ]
                }
            ],
            "priority": 5,
            "initDialog": 130212101,
            "npcId": [
                13095
            ],
            "performCfg": "",
            "heroTalk": "TALK_HERO_MAIN",
            "questId": 13021,
            "assetIndex": 17545995563339435615,
            "prePerformCfg": ""
        },
        {
            "id": 1302122,
            "beginWay": "TALK_BEGIN_MANUAL",
            "beginCondComb": "LOGIC_AND",
            "beginCond": [
                {
                    "type": "QUEST_COND_STATE_EQUAL",
                    "param": [
                        "1302109",
                        "2"
                    ]
                },
                {
                    "type": "QUEST_COND_QUEST_GLOBAL_VAR_EQUAL",
                    "param": [
                        "13003",
                        "1"
                    ]
                }
            ],
            "priority": 5,
            "initDialog": 130212201,
            "npcId": [
                13096
            ],
            "performCfg": "",
            "heroTalk": "TALK_HERO_MAIN",
            "questId": 13021,
            "assetIndex": 5922782383184704799,
            "prePerformCfg": ""
        },
        {
            "id": 1302123,
            "beginWay": "TALK_BEGIN_MANUAL",
            "beginCondComb": "LOGIC_AND",
            "beginCond": [
                {
                    "type": "QUEST_COND_STATE_EQUAL",
                    "param": [
                        "1302109",
                        "2"
                    ]
                },
                {
                    "type": "QUEST_COND_QUEST_GLOBAL_VAR_EQUAL",
                    "param": [
                        "13003",
                        "0"
                    ]
                }
            ],
            "priority": 5,
            "initDialog": 130212301,
            "npcId": [
                13096
            ],
            "performCfg": "",
            "heroTalk": "TALK_HERO_MAIN",
            "questId": 13021,
            "assetIndex": 7544082431923962559,
            "prePerformCfg": ""
        }
    ],
    "preloadLuaList": [
        10032266145114172747,
        12071256541992221476,
        11660993287529058516,
        3662491930738150906,
        1795084625128829372,
        894826469698624619,
        13719289618311344931
    ],
    "AILPOGENMJB": [
        828946889737456606
    ],
    "freeStyleDic": {
        "1053": [
            1190,
            8066
        ],
        "13005": [
            8010
        ]
    },
    "dialogList": [
        {
            "id": 130219901,
            "talkRole": {
                "type": "TALK_ROLE_NPC",
                "id": "13007"
            },
            "talkContentTextMapHash": 164066842,
            "talkAssetPath": "",
            "talkAssetPathAlter": "",
            "talkAudioName": "",
            "actionBefore": "",
            "actionWhile": "",
            "actionAfter": "",
            "optionIcon": ""
        },
        {
            "id": 130219902,
            "talkRole": {
                "type": "TALK_ROLE_NPC",
                "id": "13005"
            },
            "talkContentTextMapHash": 111703010,
            "talkAssetPath": "",
            "talkAssetPathAlter": "",
            "talkAudioName": "",
            "actionBefore": "",
            "actionWhile": "",
            "actionAfter": "",
            "optionIcon": ""
        },
        {
            "id": 130219903,
            "talkRole": {
                "type": "TALK_ROLE_NPC",
                "id": "13005"
            },
            "talkContentTextMapHash": 3897788298,
            "talkAssetPath": "",
            "talkAssetPathAlter": "",
            "talkAudioName": "",
            "actionBefore": "",
            "actionWhile": "",
            "actionAfter": "",
            "optionIcon": ""
        },
        {
            "id": 130219904,
            "talkRole": {
                "type": "TALK_ROLE_NPC",
                "id": "13003"
            },
            "talkContentTextMapHash": 2233789746,
            "talkAssetPath": "",
            "talkAssetPathAlter": "",
            "talkAudioName": "",
            "actionBefore": "",
            "actionWhile": "",
            "actionAfter": "",
            "optionIcon": ""
        },
        {
            "id": 130219905,
            "talkRole": {
                "type": "TALK_ROLE_NPC",
                "id": "13007"
            },
            "talkContentTextMapHash": 237062578,
            "talkAssetPath": "",
            "talkAssetPathAlter": "",
            "talkAudioName": "",
            "actionBefore": "",
            "actionWhile": "",
            "actionAfter": "",
            "optionIcon": ""
        },
        {
            "id": 130219906,
            "talkRole": {
                "type": "TALK_ROLE_NPC",
                "id": "13007"
            },
            "talkContentTextMapHash": 1578577298,
            "talkAssetPath": "",
            "talkAssetPathAlter": "",
            "talkAudioName": "",
            "actionBefore": "",
            "actionWhile": "",
            "actionAfter": "",
            "optionIcon": ""
        },
        {
            "id": 130219907,
            "talkRole": {
                "type": "TALK_ROLE_NPC",
                "id": "13006"
            },
            "talkContentTextMapHash": 2059281122,
            "talkAssetPath": "",
            "talkAssetPathAlter": "",
            "talkAudioName": "",
            "actionBefore": "",
            "actionWhile": "",
            "actionAfter": "",
            "optionIcon": ""
        }
    ]
}