{
    "id": 19036,
    "resId": 3014,
    "series": 105901,
    "type": "LQ",
    "titleTextMapHash": 545493287,
    "descTextMapHash": 1323669342,
    "luaPath": "Actor/Quest/LQ19036",
    "suggestTrackMainQuestList": [
        19039,
        19056
    ],
    "suggestTrackOutOfOrder": true,
    "chapterId": 105901,
    "subQuests": [
        {
            "subId": 1903601,
            "mainId": 19036,
            "order": 1,
            "descTextMapHash": 1740947388,
            "finishCond": [
                {
                    "type": "QUEST_CONTENT_COMPLETE_TALK",
                    "param": [
                        1903614,
                        0
                    ]
                }
            ],
            "guide": {
                "type": "QUEST_GUIDE_NPC",
                "param": [
                    "3041"
                ],
                "guideScene": 3,
                "guideStyle": "QUEST_GUIDE_STYLE_TARGET",
                "guideLayer": "QUEST_GUIDE_LAYER_SCENE"
            },
            "guideHint": {
                "KPOGPNLFAAE": ""
            },
            "isRewind": true,
            "versionBegin": "",
            "versionEnd": ""
        },
        {
            "subId": 1903602,
            "mainId": 19036,
            "order": 3,
            "descTextMapHash": 1132278348,
            "finishCond": [
                {
                    "type": "QUEST_CONTENT_QUEST_STATE_EQUAL",
                    "param": [
                        1903604,
                        3
                    ]
                },
                {
                    "type": "QUEST_CONTENT_LUA_NOTIFY",
                    "param": [
                        0,
                        0
                    ],
                    "count": 1
                },
                {
                    "type": "QUEST_CONTENT_LUA_NOTIFY",
                    "param": [
                        0,
                        0
                    ],
                    "count": 1
                }
            ],
            "guide": {
                "type": "QUEST_GUIDE_LOCATION",
                "param": [
                    "Q1903605_N511",
                    "30"
                ],
                "guideScene": 3,
                "guideStyle": "QUEST_GUIDE_STYLE_TARGET",
                "guideLayer": "QUEST_GUIDE_LAYER_SCENE"
            },
            "guideHint": {
                "KPOGPNLFAAE": ""
            },
            "isRewind": true,
            "versionBegin": "",
            "versionEnd": ""
        },
        {
            "subId": 1903603,
            "mainId": 19036,
            "order": 4,
            "descTextMapHash": 2352554732,
            "finishCond": [
                {
                    "type": "QUEST_CONTENT_LUA_NOTIFY",
                    "param": [
                        0,
                        0
                    ],
                    "count": 1
                },
                {
                    "type": "QUEST_CONTENT_QUEST_STATE_EQUAL",
                    "param": [
                        1903604,
                        3
                    ]
                }
            ],
            "guide": {
                "type": "QUEST_GUIDE_LOCATION",
                "param": [
                    "Q1903605_N511",
                    "30"
                ],
                "guideScene": 3,
                "guideStyle": "QUEST_GUIDE_STYLE_TARGET",
                "guideLayer": "QUEST_GUIDE_LAYER_SCENE"
            },
            "guideHint": {
                "KPOGPNLFAAE": ""
            },
            "versionBegin": "",
            "versionEnd": ""
        },
        {
            "subId": 1903604,
            "mainId": 19036,
            "order": 5,
            "showType": "QUEST_HIDDEN",
            "finishCond": [
                {
                    "type": "QUEST_CONTENT_LUA_NOTIFY",
                    "param": [
                        0,
                        0
                    ],
                    "count": 1
                }
            ],
            "guide": {},
            "showGuide": "QUEST_GUIDE_ITEM_DISABLE",
            "guideHint": {
                "KPOGPNLFAAE": ""
            },
            "versionBegin": "",
            "versionEnd": ""
        },
        {
            "subId": 1903605,
            "mainId": 19036,
            "order": 7,
            "descTextMapHash": 1299839052,
            "finishCond": [
                {
                    "type": "QUEST_CONTENT_MAIN_COOP_ENTER_SAVE_POINT",
                    "param": [
                        105901,
                        190360601
                    ]
                },
                {
                    "type": "QUEST_CONTENT_MAIN_COOP_ENTER_SAVE_POINT",
                    "param": [
                        105901,
                        190360602
                    ]
                },
                {
                    "type": "QUEST_CONTENT_MAIN_COOP_ENTER_SAVE_POINT",
                    "param": [
                        105901,
                        190360603
                    ]
                },
                {
                    "type": "QUEST_CONTENT_MAIN_COOP_ENTER_SAVE_POINT",
                    "param": [
                        105901,
                        190360604
                    ]
                }
            ],
            "guide": {
                "type": "QUEST_GUIDE_NPC",
                "param": [
                    "511"
                ],
                "guideScene": 3,
                "guideStyle": "QUEST_GUIDE_STYLE_TARGET",
                "guideLayer": "QUEST_GUIDE_LAYER_SCENE"
            },
            "guideHint": {
                "KPOGPNLFAAE": ""
            },
            "finishParent": true,
            "isRewind": true,
            "finishExec": [
                {
                    "type": "QUEST_EXEC_UNREGISTER_DYNAMIC_GROUP",
                    "param": [
                        "133211023",
                        "0"
                    ]
                }
            ],
            "versionBegin": "",
            "versionEnd": ""
        },
        {
            "subId": 1903606,
            "mainId": 19036,
            "order": 2,
            "descTextMapHash": 3274707172,
            "finishCond": [
                {
                    "type": "QUEST_CONTENT_COMPLETE_TALK",
                    "param": [
                        1903617,
                        0
                    ]
                }
            ],
            "guide": {
                "type": "QUEST_GUIDE_NPC",
                "param": [
                    "3142"
                ],
                "guideScene": 3,
                "guideStyle": "QUEST_GUIDE_STYLE_TARGET",
                "guideLayer": "QUEST_GUIDE_LAYER_SCENE"
            },
            "guideHint": {
                "KPOGPNLFAAE": ""
            },
            "isRewind": true,
            "versionBegin": "",
            "versionEnd": ""
        },
        {
            "subId": 1903607,
            "mainId": 19036,
            "order": 6,
            "descTextMapHash": 1190776220,
            "finishCond": [
                {
                    "type": "QUEST_CONTENT_MAIN_COOP_ENTER_SAVE_POINT",
                    "param": [
                        105901,
                        190360501
                    ]
                }
            ],
            "guide": {
                "type": "QUEST_GUIDE_NPC",
                "param": [
                    "511"
                ],
                "guideScene": 3,
                "guideStyle": "QUEST_GUIDE_STYLE_TARGET",
                "guideLayer": "QUEST_GUIDE_LAYER_SCENE"
            },
            "guideHint": {
                "KPOGPNLFAAE": ""
            },
            "isRewind": true,
            "finishExec": [
                {
                    "type": "QUEST_EXEC_UNREGISTER_DYNAMIC_GROUP",
                    "param": [
                        "133211022",
                        "0"
                    ]
                }
            ],
            "versionBegin": "",
            "versionEnd": ""
        }
    ],
    "talks": [
        {
            "id": 1903614,
            "beginWay": "TALK_BEGIN_MANUAL",
            "beginCond": [
                {
                    "type": "QUEST_COND_STATE_EQUAL",
                    "param": [
                        "1903601",
                        "2"
                    ]
                }
            ],
            "priority": 5,
            "initDialog": 190361401,
            "npcId": [
                3042,
                3041
            ],
            "performCfg": "QuestDialogue/COOP/Coop105901SimpleTalk/Q1903614",
            "heroTalk": "TALK_HERO_MAIN",
            "questId": 19036,
            "assetIndex": 11396173929108175453,
            "prePerformCfg": ""
        },
        {
            "id": 1903615,
            "beginWay": "TALK_BEGIN_MANUAL",
            "beginCond": [
                {
                    "type": "QUEST_COND_STATE_EQUAL",
                    "param": [
                        "1903606",
                        "2"
                    ]
                }
            ],
            "priority": 5,
            "initDialog": 190361501,
            "npcId": [
                3042
            ],
            "performCfg": "QuestDialogue/COOP/Coop105901SimpleTalk/Q1903615",
            "heroTalk": "TALK_HERO_MAIN",
            "questId": 19036,
            "assetIndex": 14057105074119448929,
            "prePerformCfg": ""
        },
        {
            "id": 1903616,
            "beginWay": "TALK_BEGIN_MANUAL",
            "beginCond": [
                {
                    "type": "QUEST_COND_STATE_EQUAL",
                    "param": [
                        "1903606",
                        "2"
                    ]
                }
            ],
            "priority": 5,
            "initDialog": 190361601,
            "npcId": [
                3041
            ],
            "performCfg": "QuestDialogue/COOP/Coop105901SimpleTalk/Q1903616",
            "heroTalk": "TALK_HERO_MAIN",
            "questId": 19036,
            "assetIndex": 13499692908723016325,
            "prePerformCfg": ""
        },
        {
            "id": 1903617,
            "beginWay": "TALK_BEGIN_MANUAL",
            "beginCond": [
                {
                    "type": "QUEST_COND_STATE_EQUAL",
                    "param": [
                        "1903606",
                        "2"
                    ]
                }
            ],
            "priority": 5,
            "initDialog": 190361701,
            "npcId": [
                3142
            ],
            "performCfg": "QuestDialogue/COOP/Coop105901SimpleTalk/Q1903617",
            "heroTalk": "TALK_HERO_MAIN",
            "questId": 19036,
            "assetIndex": 205937955770556258,
            "prePerformCfg": ""
        },
        {
            "id": 1903618,
            "beginWay": "TALK_BEGIN_MANUAL",
            "beginCondComb": "LOGIC_OR",
            "beginCond": [
                {
                    "type": "QUEST_COND_STATE_EQUAL",
                    "param": [
                        "1903602",
                        "2"
                    ]
                },
                {
                    "type": "QUEST_COND_STATE_EQUAL",
                    "param": [
                        "1903603",
                        "2"
                    ]
                },
                {
                    "type": "QUEST_COND_STATE_EQUAL",
                    "param": [
                        "1903604",
                        "2"
                    ]
                }
            ],
            "priority": 5,
            "initDialog": 190361801,
            "npcId": [
                3142
            ],
            "performCfg": "QuestDialogue/COOP/Coop105901SimpleTalk/Q1903618",
            "heroTalk": "TALK_HERO_MAIN",
            "questId": 19036,
            "assetIndex": 35376454845009276,
            "prePerformCfg": ""
        },
        {
            "id": 1903619,
            "beginWay": "TALK_BEGIN_MANUAL",
            "beginCondComb": "LOGIC_OR",
            "beginCond": [
                {
                    "type": "QUEST_COND_STATE_EQUAL",
                    "param": [
                        "1903602",
                        "2"
                    ]
                },
                {
                    "type": "QUEST_COND_STATE_EQUAL",
                    "param": [
                        "1903603",
                        "2"
                    ]
                },
                {
                    "type": "QUEST_COND_STATE_EQUAL",
                    "param": [
                        "1903604",
                        "2"
                    ]
                },
                {
                    "type": "QUEST_COND_STATE_EQUAL",
                    "param": [
                        "1903605",
                        "2"
                    ]
                },
                {
                    "type": "QUEST_COND_STATE_EQUAL",
                    "param": [
                        "1903607",
                        "2"
                    ]
                }
            ],
            "priority": 5,
            "initDialog": 190361901,
            "npcId": [
                3041
            ],
            "performCfg": "QuestDialogue/COOP/Coop105901SimpleTalk/Q1903619",
            "heroTalk": "TALK_HERO_MAIN",
            "questId": 19036,
            "assetIndex": 7501555107462011023,
            "prePerformCfg": ""
        }
    ],
    "preloadLuaList": [
        1689150430589445509,
        8096719398939569467
    ],
    "AILPOGENMJB": [
        11762456082098318041
    ],
    "freeStyleDic": {
        "3041": [
            1120,
            1190
        ],
        "3042": [
            1050
        ]
    }
}