{
    "id": 19097,
    "resId": 3017,
    "series": 101501,
    "type": "LQ",
    "titleTextMapHash": 2045918855,
    "descTextMapHash": 3312368782,
    "luaPath": "Actor/Quest/LQ19097",
    "suggestTrackOutOfOrder": true,
    "chapterId": 101501,
    "subQuests": [
        {
            "subId": 1909701,
            "mainId": 19097,
            "order": 2,
            "descTextMapHash": 2206930716,
            "finishCond": [
                {
                    "type": "QUEST_CONTENT_MAIN_COOP_ENTER_SAVE_POINT",
                    "param": [
                        101501,
                        190970101
                    ]
                }
            ],
            "guide": {
                "type": "QUEST_GUIDE_NPC",
                "param": [
                    "516"
                ],
                "guideScene": 3,
                "guideStyle": "QUEST_GUIDE_STYLE_TARGET",
                "guideLayer": "QUEST_GUIDE_LAYER_SCENE"
            },
            "guideHint": {
                "KPOGPNLFAAE": ""
            },
            "isRewind": true,
            "finishExec": [
                {
                    "type": "QUEST_EXEC_SET_GAME_TIME",
                    "param": [
                        "8"
                    ]
                }
            ],
            "versionBegin": "",
            "versionEnd": ""
        },
        {
            "subId": 1909702,
            "mainId": 19097,
            "order": 3,
            "descTextMapHash": 2327666132,
            "finishCond": [
                {
                    "type": "QUEST_CONTENT_MAIN_COOP_ENTER_SAVE_POINT",
                    "param": [
                        101501,
                        190970201
                    ]
                }
            ],
            "guide": {
                "type": "QUEST_GUIDE_NPC",
                "param": [
                    "1527"
                ],
                "guideScene": 1018,
                "guideStyle": "QUEST_GUIDE_STYLE_TARGET",
                "guideLayer": "QUEST_GUIDE_LAYER_SCENE"
            },
            "guideHint": {
                "KPOGPNLFAAE": ""
            },
            "isRewind": true,
            "finishExec": [
                {
                    "type": "QUEST_EXEC_SET_GAME_TIME",
                    "param": [
                        "10"
                    ]
                }
            ],
            "versionBegin": "",
            "versionEnd": ""
        },
        {
            "subId": 1909703,
            "mainId": 19097,
            "order": 4,
            "descTextMapHash": 3990916948,
            "finishCond": [
                {
                    "type": "QUEST_CONTENT_MAIN_COOP_ENTER_SAVE_POINT",
                    "param": [
                        101501,
                        190970301
                    ]
                }
            ],
            "guide": {
                "type": "QUEST_GUIDE_LOCATION",
                "param": [
                    "[3_4365:1776.577,221.863,-385.749,0.000,180.300,0.000]"
                ],
                "guideScene": 3,
                "guideStyle": "QUEST_GUIDE_STYLE_POINT",
                "guideLayer": "QUEST_GUIDE_LAYER_SCENE"
            },
            "guideHint": {
                "KPOGPNLFAAE": ""
            },
            "isRewind": true,
            "finishExec": [
                {
                    "type": "QUEST_EXEC_SET_GAME_TIME",
                    "param": [
                        "13"
                    ]
                }
            ],
            "versionBegin": "",
            "versionEnd": ""
        },
        {
            "subId": 1909705,
            "mainId": 19097,
            "order": 5,
            "descTextMapHash": 1104530228,
            "finishCond": [
                {
                    "type": "QUEST_CONTENT_MAIN_COOP_ENTER_SAVE_POINT",
                    "param": [
                        101501,
                        190970501
                    ]
                }
            ],
            "guide": {
                "type": "QUEST_GUIDE_NPC",
                "param": [
                    "1531"
                ],
                "guideScene": 3,
                "guideStyle": "QUEST_GUIDE_STYLE_TARGET",
                "guideLayer": "QUEST_GUIDE_LAYER_SCENE"
            },
            "guideHint": {
                "KPOGPNLFAAE": ""
            },
            "isRewind": true,
            "finishExec": [
                {
                    "type": "QUEST_EXEC_REFRESH_GROUP_SUITE",
                    "param": [
                        "3",
                        "133002144,1"
                    ]
                },
                {
                    "type": "QUEST_EXEC_SET_GAME_TIME",
                    "param": [
                        "14"
                    ]
                }
            ],
            "versionBegin": "",
            "versionEnd": ""
        },
        {
            "subId": 1909706,
            "mainId": 19097,
            "order": 6,
            "descTextMapHash": 2676453220,
            "finishCond": [
                {
                    "type": "QUEST_CONTENT_MAIN_COOP_ENTER_SAVE_POINT",
                    "param": [
                        101501,
                        190970601
                    ]
                }
            ],
            "guide": {
                "type": "QUEST_GUIDE_NPC",
                "param": [
                    "516"
                ],
                "guideScene": 3,
                "guideStyle": "QUEST_GUIDE_STYLE_TARGET",
                "guideLayer": "QUEST_GUIDE_LAYER_SCENE"
            },
            "guideHint": {
                "KPOGPNLFAAE": ""
            },
            "isRewind": true,
            "finishExec": [
                {
                    "type": "QUEST_EXEC_SET_GAME_TIME",
                    "param": [
                        "16"
                    ]
                }
            ],
            "versionBegin": "",
            "versionEnd": ""
        },
        {
            "subId": 1909707,
            "mainId": 19097,
            "order": 7,
            "descTextMapHash": 470135204,
            "finishCond": [
                {
                    "type": "QUEST_CONTENT_MAIN_COOP_ENTER_SAVE_POINT",
                    "param": [
                        101501,
                        190970701
                    ]
                }
            ],
            "guide": {
                "type": "QUEST_GUIDE_LOCATION",
                "param": [
                    "[1018_86:8.237,0.007,4.504]"
                ],
                "guideScene": 1018,
                "guideStyle": "QUEST_GUIDE_STYLE_POINT",
                "guideLayer": "QUEST_GUIDE_LAYER_SCENE"
            },
            "guideHint": {
                "KPOGPNLFAAE": ""
            },
            "finishParent": true,
            "isRewind": true,
            "finishExec": [
                {
                    "type": "QUEST_EXEC_UNREGISTER_DYNAMIC_GROUP",
                    "param": [
                        "133002142,133002144"
                    ]
                },
                {
                    "type": "QUEST_EXEC_MODIFY_WEATHER_AREA",
                    "param": [
                        "1015",
                        "0"
                    ]
                },
                {
                    "type": "QUEST_EXEC_DEL_PACK_ITEM",
                    "param": [
                        "120382",
                        "1"
                    ]
                }
            ],
            "versionBegin": "",
            "versionEnd": ""
        },
        {
            "subId": 1909708,
            "mainId": 19097,
            "order": 1,
            "descTextMapHash": 4033974404,
            "finishCond": [
                {
                    "type": "QUEST_CONTENT_GAME_TIME_TICK",
                    "param": [
                        2,
                        0
                    ]
                }
            ],
            "guide": {},
            "guideHint": {
                "KPOGPNLFAAE": ""
            },
            "isRewind": true,
            "versionBegin": "",
            "versionEnd": ""
        }
    ],
    "talks": [
        {
            "id": 1909714,
            "beginWay": "TALK_BEGIN_MANUAL",
            "beginCondComb": "LOGIC_AND",
            "beginCond": [
                {
                    "type": "QUEST_COND_STATE_EQUAL",
                    "param": [
                        "1909705",
                        "3"
                    ]
                },
                {
                    "type": "QUEST_COND_STATE_EQUAL",
                    "param": [
                        "1909706",
                        "2"
                    ]
                }
            ],
            "priority": 5,
            "initDialog": 190971401,
            "npcId": [
                1531
            ],
            "performCfg": "QuestDialogue/COOP/CoopKaeya/Q1909714",
            "heroTalk": "TALK_HERO_MAIN",
            "questId": 19097,
            "assetIndex": 4396336146586762930,
            "prePerformCfg": ""
        },
        {
            "id": 1909717,
            "beginWay": "TALK_BEGIN_MANUAL",
            "beginCondComb": "LOGIC_AND",
            "beginCond": [
                {
                    "type": "QUEST_COND_STATE_EQUAL",
                    "param": [
                        "1909705",
                        "2"
                    ]
                }
            ],
            "priority": 1,
            "initDialog": 190971701,
            "npcId": [
                516
            ],
            "performCfg": "QuestDialogue/COOP/CoopKaeya/Q1909717",
            "heroTalk": "TALK_HERO_MAIN",
            "questId": 19097,
            "assetIndex": 2481681372000019887,
            "prePerformCfg": ""
        }
    ],
    "preloadLuaList": [
        5575916732172504491,
        3617037517378107132
    ],
    "AILPOGENMJB": [
        13508206988110681632
    ],
    "freeStyleDic": {
        "1527": [
            1190
        ],
        "516": [
            1230,
            1170
        ]
    }
}