{
    "id": 19152,
    "resId": 3015,
    "series": 107401,
    "type": "LQ",
    "titleTextMapHash": 2076172527,
    "descTextMapHash": 1418664558,
    "luaPath": "Actor/Quest/LQ19152",
    "suggestTrackMainQuestList": [
        19153
    ],
    "suggestTrackOutOfOrder": true,
    "chapterId": 107401,
    "subQuests": [
        {
            "subId": 1915201,
            "mainId": 19152,
            "order": 1,
            "subIdSet": 1,
            "descTextMapHash": 2388228348,
            "finishCond": [
                {
                    "type": "QUEST_CONTENT_MAIN_COOP_ENTER_SAVE_POINT",
                    "param": [
                        107401,
                        191520101
                    ]
                }
            ],
            "guide": {
                "type": "QUEST_GUIDE_NPC",
                "param": [
                    "4385"
                ],
                "guideScene": 1073,
                "guideStyle": "QUEST_GUIDE_STYLE_TARGET",
                "guideLayer": "QUEST_GUIDE_LAYER_SCENE"
            },
            "guideHint": {
                "KPOGPNLFAAE": ""
            },
            "isRewind": true,
            "versionBegin": "",
            "versionEnd": ""
        },
        {
            "subId": 1915202,
            "mainId": 19152,
            "order": 2,
            "subIdSet": 1,
            "descTextMapHash": 258775860,
            "finishCond": [
                {
                    "type": "QUEST_CONTENT_MAIN_COOP_ENTER_SAVE_POINT",
                    "param": [
                        107401,
                        191520201
                    ]
                }
            ],
            "guide": {
                "type": "QUEST_GUIDE_NPC",
                "param": [
                    "4380"
                ],
                "guideScene": 1073,
                "guideStyle": "QUEST_GUIDE_STYLE_TARGET",
                "guideLayer": "QUEST_GUIDE_LAYER_SCENE"
            },
            "guideHint": {
                "KPOGPNLFAAE": ""
            },
            "isRewind": true,
            "versionBegin": "",
            "versionEnd": ""
        },
        {
            "subId": 1915203,
            "mainId": 19152,
            "order": 3,
            "subIdSet": 1,
            "descTextMapHash": 1629044524,
            "finishCond": [
                {
                    "type": "QUEST_CONTENT_MAIN_COOP_ENTER_SAVE_POINT",
                    "param": [
                        107401,
                        191520301
                    ]
                }
            ],
            "guide": {
                "type": "QUEST_GUIDE_NPC",
                "param": [
                    "12908"
                ],
                "guideScene": 1073,
                "guideStyle": "QUEST_GUIDE_STYLE_TARGET",
                "guideLayer": "QUEST_GUIDE_LAYER_SCENE"
            },
            "guideHint": {
                "KPOGPNLFAAE": ""
            },
            "isRewind": true,
            "versionBegin": "",
            "versionEnd": ""
        },
        {
            "subId": 1915204,
            "mainId": 19152,
            "order": 4,
            "showType": "QUEST_HIDDEN",
            "finishCond": [
                {
                    "type": "QUEST_CONTENT_QUEST_STATE_EQUAL",
                    "param": [
                        1915201,
                        3
                    ]
                },
                {
                    "type": "QUEST_CONTENT_QUEST_STATE_EQUAL",
                    "param": [
                        1915202,
                        3
                    ]
                },
                {
                    "type": "QUEST_CONTENT_QUEST_STATE_EQUAL",
                    "param": [
                        1915203,
                        3
                    ]
                }
            ],
            "guide": {},
            "guideHint": {
                "KPOGPNLFAAE": ""
            },
            "finishParent": true,
            "failParentShow": "QUEST_HIDDEN",
            "isRewind": true,
            "versionBegin": "",
            "versionEnd": ""
        }
    ],
    "talks": [
        {
            "id": 1915205,
            "beginWay": "TALK_BEGIN_MANUAL",
            "beginCondComb": "LOGIC_AND",
            "beginCond": [
                {
                    "type": "QUEST_COND_STATE_EQUAL",
                    "param": [
                        "1915201",
                        "3"
                    ]
                },
                {
                    "type": "QUEST_COND_STATE_EQUAL",
                    "param": [
                        "1915204",
                        "2"
                    ]
                }
            ],
            "priority": 5,
            "initDialog": 191520501,
            "npcId": [
                4385
            ],
            "performCfg": "QuestDialogue/COOP/CoopLayla/Q1915205",
            "heroTalk": "TALK_HERO_MAIN",
            "questId": 19152,
            "assetIndex": 4825305142490908936,
            "prePerformCfg": "",
            "lowPriority": true
        },
        {
            "id": 1915206,
            "beginWay": "TALK_BEGIN_MANUAL",
            "beginCondComb": "LOGIC_AND",
            "beginCond": [
                {
                    "type": "QUEST_COND_STATE_EQUAL",
                    "param": [
                        "1915202",
                        "3"
                    ]
                },
                {
                    "type": "QUEST_COND_STATE_EQUAL",
                    "param": [
                        "1915204",
                        "2"
                    ]
                }
            ],
            "priority": 5,
            "initDialog": 191520601,
            "npcId": [
                4380
            ],
            "performCfg": "QuestDialogue/COOP/CoopLayla/Q1915206",
            "heroTalk": "TALK_HERO_MAIN",
            "questId": 19152,
            "assetIndex": 10348819236888920234,
            "prePerformCfg": "",
            "lowPriority": true
        },
        {
            "id": 1915207,
            "beginWay": "TALK_BEGIN_MANUAL",
            "beginCondComb": "LOGIC_AND",
            "beginCond": [
                {
                    "type": "QUEST_COND_STATE_EQUAL",
                    "param": [
                        "1915203",
                        "3"
                    ]
                },
                {
                    "type": "QUEST_COND_STATE_EQUAL",
                    "param": [
                        "1915204",
                        "2"
                    ]
                }
            ],
            "priority": 5,
            "initDialog": 191520701,
            "npcId": [
                12908
            ],
            "performCfg": "QuestDialogue/COOP/CoopLayla/Q1915207",
            "heroTalk": "TALK_HERO_MAIN",
            "questId": 19152,
            "assetIndex": 16505331359466693201,
            "prePerformCfg": "",
            "lowPriority": true
        }
    ],
    "freeStyleDic": {
        "4385": [
            1120
        ],
        "4380": [
            1190
        ],
        "12908": [
            1190
        ]
    },
    "dialogList": [
        {
            "id": 191520401,
            "talkRole": {
                "type": "TALK_ROLE_NPC",
                "id": "512"
            },
            "talkAssetPath": "",
            "talkAssetPathAlter": "",
            "talkAudioName": "",
            "actionBefore": "",
            "actionWhile": "",
            "actionAfter": "",
            "optionIcon": ""
        },
        {
            "id": 191529901,
            "talkRole": {
                "type": "TALK_ROLE_NPC",
                "id": "4385"
            },
            "talkContentTextMapHash": 1721749986,
            "talkAssetPath": "",
            "talkAssetPathAlter": "",
            "talkAudioName": "",
            "actionBefore": "",
            "actionWhile": "",
            "actionAfter": "",
            "optionIcon": ""
        },
        {
            "id": 191529902,
            "talkRole": {
                "type": "TALK_ROLE_NPC",
                "id": "4385"
            },
            "talkContentTextMapHash": 866216770,
            "talkAssetPath": "",
            "talkAssetPathAlter": "",
            "talkAudioName": "",
            "actionBefore": "",
            "actionWhile": "",
            "actionAfter": "",
            "optionIcon": ""
        },
        {
            "id": 191529903,
            "talkRole": {
                "type": "TALK_ROLE_NPC",
                "id": "4380"
            },
            "talkContentTextMapHash": 1587755890,
            "talkAssetPath": "",
            "talkAssetPathAlter": "",
            "talkAudioName": "",
            "actionBefore": "",
            "actionWhile": "",
            "actionAfter": "",
            "optionIcon": ""
        },
        {
            "id": 191529904,
            "talkRole": {
                "type": "TALK_ROLE_NPC",
                "id": "4380"
            },
            "talkContentTextMapHash": 2390865754,
            "talkAssetPath": "",
            "talkAssetPathAlter": "",
            "talkAudioName": "",
            "actionBefore": "",
            "actionWhile": "",
            "actionAfter": "",
            "optionIcon": ""
        },
        {
            "id": 191529905,
            "talkRole": {
                "type": "TALK_ROLE_NPC",
                "id": "12908"
            },
            "talkContentTextMapHash": 1098416618,
            "talkAssetPath": "",
            "talkAssetPathAlter": "",
            "talkAudioName": "",
            "actionBefore": "",
            "actionWhile": "",
            "actionAfter": "",
            "optionIcon": ""
        },
        {
            "id": 191529906,
            "talkRole": {
                "type": "TALK_ROLE_NPC",
                "id": "12908"
            },
            "talkContentTextMapHash": 3431198786,
            "talkAssetPath": "",
            "talkAssetPathAlter": "",
            "talkAudioName": "",
            "actionBefore": "",
            "actionWhile": "",
            "actionAfter": "",
            "optionIcon": ""
        }
    ]
}