{
    "id": 2021,
    "resId": 1011,
    "series": 1210,
    "titleTextMapHash": 3806214671,
    "descTextMapHash": 1196854086,
    "luaPath": "Actor/Quest/AQ2021",
    "rewardIdList": [
        102021
    ],
    "chapterId": 1204,
    "subQuests": [
        {
            "subId": 202101,
            "mainId": 2021,
            "order": 1,
            "descTextMapHash": 1927774476,
            "finishCond": [
                {
                    "type": "QUEST_CONTENT_COMPLETE_TALK",
                    "param": [
                        202101,
                        0
                    ]
                }
            ],
            "guide": {},
            "guideHint": {
                "KPOGPNLFAAE": ""
            },
            "isRewind": true,
            "finishExec": [
                {
                    "type": "QUEST_EXEC_SET_QUEST_GLOBAL_VAR",
                    "param": [
                        "202201",
                        "2"
                    ]
                }
            ],
            "versionBegin": "",
            "versionEnd": ""
        },
        {
            "subId": 202102,
            "mainId": 2021,
            "order": 2,
            "descTextMapHash": 2415517716,
            "finishCond": [
                {
                    "type": "QUEST_CONTENT_COMPLETE_TALK",
                    "param": [
                        202103,
                        0
                    ]
                }
            ],
            "guide": {
                "type": "QUEST_GUIDE_NPC",
                "param": [
                    "1034"
                ],
                "guideScene": 3,
                "guideStyle": "QUEST_GUIDE_STYLE_TARGET",
                "guideLayer": "QUEST_GUIDE_LAYER_SCENE"
            },
            "guideHint": {
                "KPOGPNLFAAE": ""
            },
            "finishParent": true,
            "isRewind": true,
            "finishExec": [
                {
                    "type": "QUEST_EXEC_SET_QUEST_GLOBAL_VAR",
                    "param": [
                        "10014",
                        "1"
                    ]
                },
                {
                    "type": "QUEST_EXEC_UNLOCK_POINT",
                    "param": [
                        "3",
                        "396,416"
                    ]
                },
                {
                    "type": "QUEST_EXEC_DEL_ALL_SPECIFIC_PACK_ITEM",
                    "param": [
                        "101542"
                    ]
                }
            ],
            "versionBegin": "",
            "versionEnd": ""
        }
    ],
    "talks": [
        {
            "id": 202102,
            "beginWay": "TALK_BEGIN_MANUAL",
            "beginCond": [
                {
                    "type": "QUEST_COND_STATE_EQUAL",
                    "param": [
                        "202102",
                        "2"
                    ]
                }
            ],
            "priority": 5,
            "nextTalks": [
                202103
            ],
            "initDialog": 20210201,
            "npcId": [
                1034
            ],
            "performCfg": "QuestDialogue/AQ/Inazuma2_2021/Q202102",
            "heroTalk": "TALK_HERO_MAIN",
            "questId": 2021,
            "assetIndex": 7081856949807757220,
            "prePerformCfg": ""
        },
        {
            "id": 202103,
            "beginCond": [
                {
                    "type": "QUEST_COND_STATE_EQUAL",
                    "param": [
                        "202102",
                        "2"
                    ]
                }
            ],
            "initDialog": 20210243,
            "npcId": [
                1034
            ],
            "performCfg": "QuestDialogue/AQ/Inazuma2_2024/Q202402",
            "heroTalk": "TALK_HERO_MAIN",
            "questId": 2021,
            "assetIndex": 7307372339136771310,
            "prePerformCfg": ""
        }
    ],
    "preloadLuaList": [
        14457059026087496718
    ],
    "freeStyleDic": {
        "1034": [
            1230
        ]
    }
}