{
    "id": 20741,
    "type": "WQ",
    "titleTextMapHash": 2020782983,
    "descTextMapHash": 1913129462,
    "luaPath": "Actor/Quest/WQ20741",
    "rewardIdList": [
        120741
    ],
    "subQuests": [
        {
            "subId": 2074101,
            "mainId": 20741,
            "order": 1,
            "descTextMapHash": 1739387756,
            "stepDescTextMapHash": 3859597141,
            "guide": {
                "type": "QUEST_GUIDE_NPC",
                "param": [
                    "1429"
                ],
                "guideScene": 3,
                "guideStyle": "QUEST_GUIDE_STYLE_START",
                "guideLayer": "QUEST_GUIDE_LAYER_SCENE"
            },
            "guideHint": {
                "KPOGPNLFAAE": ""
            },
            "isRewind": true,
            "versionBegin": "",
            "versionEnd": ""
        },
        {
            "subId": 2074102,
            "mainId": 20741,
            "order": 2,
            "descTextMapHash": 1261871556,
            "stepDescTextMapHash": 3021277381,
            "finishCond": [
                {
                    "type": "QUEST_CONTENT_OBTAIN_ITEM",
                    "param": [
                        100057,
                        0
                    ],
                    "count": 1
                }
            ],
            "guide": {
                "type": "QUEST_GUIDE_NPC",
                "param": [
                    "1429"
                ],
                "guideScene": 3,
                "guideStyle": "QUEST_GUIDE_STYLE_TARGET",
                "guideLayer": "QUEST_GUIDE_LAYER_SCENE"
            },
            "guideHint": {
                "KPOGPNLFAAE": ""
            },
            "isRewind": true,
            "finishExec": [
                {
                    "type": "QUEST_EXEC_REFRESH_GROUP_SUITE",
                    "param": [
                        "3",
                        "133004349,1"
                    ]
                }
            ],
            "versionBegin": "",
            "versionEnd": ""
        },
        {
            "subId": 2074103,
            "mainId": 20741,
            "order": 3,
            "descTextMapHash": 1706010324,
            "stepDescTextMapHash": 805548333,
            "finishCond": [
                {
                    "type": "QUEST_CONTENT_COMPLETE_TALK",
                    "param": [
                        2074110,
                        0
                    ]
                }
            ],
            "guide": {
                "type": "QUEST_GUIDE_NPC",
                "param": [
                    "1429"
                ],
                "guideScene": 3,
                "guideStyle": "QUEST_GUIDE_STYLE_TARGET",
                "guideLayer": "QUEST_GUIDE_LAYER_SCENE"
            },
            "guideHint": {
                "KPOGPNLFAAE": ""
            },
            "isRewind": true,
            "versionBegin": "",
            "versionEnd": ""
        },
        {
            "subId": 2074104,
            "mainId": 20741,
            "order": 4,
            "descTextMapHash": 1293985596,
            "stepDescTextMapHash": 3014397549,
            "finishCond": [
                {
                    "type": "QUEST_CONTENT_INTERACT_GADGET",
                    "param": [
                        70710009,
                        0
                    ]
                }
            ],
            "guide": {
                "type": "QUEST_GUIDE_LOCATION",
                "param": [
                    "Q20741_Target"
                ],
                "guideScene": 3,
                "guideStyle": "QUEST_GUIDE_STYLE_TARGET",
                "guideLayer": "QUEST_GUIDE_LAYER_SCENE"
            },
            "guideHint": {
                "KPOGPNLFAAE": ""
            },
            "isRewind": true,
            "finishExec": [
                {
                    "type": "QUEST_EXEC_REFRESH_GROUP_SUITE",
                    "param": [
                        "3",
                        "133004348,1"
                    ]
                },
                {
                    "type": "QUEST_EXEC_DEL_PACK_ITEM_BATCH",
                    "param": [
                        "100057:1"
                    ]
                }
            ],
            "versionBegin": "",
            "versionEnd": ""
        },
        {
            "subId": 2074105,
            "mainId": 20741,
            "order": 5,
            "descTextMapHash": 3395825620,
            "stepDescTextMapHash": 2324070077,
            "finishCond": [
                {
                    "type": "QUEST_CONTENT_COMPLETE_TALK",
                    "param": [
                        2074120,
                        0
                    ]
                }
            ],
            "guide": {
                "type": "QUEST_GUIDE_NPC",
                "param": [
                    "1429"
                ],
                "guideScene": 3,
                "guideStyle": "QUEST_GUIDE_STYLE_FINISH",
                "guideLayer": "QUEST_GUIDE_LAYER_SCENE"
            },
            "guideHint": {
                "KPOGPNLFAAE": ""
            },
            "finishParent": true,
            "isRewind": true,
            "versionBegin": "",
            "versionEnd": ""
        }
    ],
    "talks": [
        {
            "id": 2074110,
            "beginWay": "TALK_BEGIN_MANUAL",
            "beginCondComb": "LOGIC_AND",
            "beginCond": [
                {
                    "type": "QUEST_COND_STATE_EQUAL",
                    "param": [
                        "2074103",
                        "2"
                    ]
                }
            ],
            "priority": 5,
            "initDialog": 207411001,
            "npcId": [
                1429
            ],
            "performCfg": "",
            "heroTalk": "TALK_HERO_MAIN",
            "questId": 20741,
            "assetIndex": 2166861085537710868,
            "prePerformCfg": ""
        },
        {
            "id": 2074120,
            "beginWay": "TALK_BEGIN_MANUAL",
            "beginCondComb": "LOGIC_AND",
            "beginCond": [
                {
                    "type": "QUEST_COND_STATE_EQUAL",
                    "param": [
                        "2074105",
                        "2"
                    ]
                }
            ],
            "priority": 5,
            "initDialog": 207412001,
            "npcId": [
                1429
            ],
            "performCfg": "",
            "heroTalk": "TALK_HERO_MAIN",
            "questId": 20741,
            "assetIndex": 15495694228094164526,
            "prePerformCfg": ""
        },
        {
            "id": 2074190,
            "beginWay": "TALK_BEGIN_MANUAL",
            "beginCondComb": "LOGIC_OR",
            "beginCond": [
                {
                    "type": "QUEST_COND_STATE_EQUAL",
                    "param": [
                        "2074102",
                        "2"
                    ]
                },
                {
                    "type": "QUEST_COND_STATE_EQUAL",
                    "param": [
                        "2074104",
                        "2"
                    ]
                }
            ],
            "priority": 5,
            "initDialog": 207419001,
            "npcId": [
                1429
            ],
            "performCfg": "",
            "heroTalk": "TALK_HERO_MAIN",
            "questId": 20741,
            "assetIndex": 9522960267738020618,
            "prePerformCfg": ""
        }
    ]
}