{
    "id": 22008,
    "type": "IQ",
    "activeMode": "PLAY_MODE_ALL",
    "titleTextMapHash": 427720129,
    "descTextMapHash": 2592336791,
    "luaPath": "Actor/Quest/IQ22008",
    "repeatable": true,
    "taskID": 27000,
    "subQuests": [
        {
            "subId": 2200801,
            "mainId": 22008,
            "order": 1,
            "descTextMapHash": 1564743410,
            "finishCond": [
                {
                    "type": "QUEST_CONTENT_COMPLETE_TALK",
                    "param": [
                        2200801,
                        0
                    ]
                }
            ],
            "guide": {
                "type": "QUEST_GUIDE_NPC",
                "param": [
                    "2027"
                ],
                "guideScene": 3,
                "guideStyle": "QUEST_GUIDE_STYLE_START",
                "guideLayer": "QUEST_GUIDE_LAYER_SCENE"
            },
            "guideHint": {
                "KPOGPNLFAAE": ""
            },
            "isRewind": true,
            "versionBegin": "",
            "versionEnd": ""
        },
        {
            "subId": 2200802,
            "mainId": 22008,
            "order": 2,
            "descTextMapHash": 2566671338,
            "finishCond": [
                {
                    "type": "QUEST_CONTENT_FINISH_ITEM_GIVING",
                    "param": [
                        2200802,
                        0
                    ]
                }
            ],
            "guide": {
                "type": "QUEST_GUIDE_NPC",
                "param": [
                    "2027"
                ],
                "guideScene": 3,
                "guideStyle": "QUEST_GUIDE_STYLE_TARGET",
                "guideLayer": "QUEST_GUIDE_LAYER_SCENE"
            },
            "guideHint": {
                "KPOGPNLFAAE": ""
            },
            "isRewind": true,
            "versionBegin": "",
            "versionEnd": ""
        },
        {
            "subId": 2200803,
            "mainId": 22008,
            "order": 3,
            "descTextMapHash": 1265774962,
            "finishCond": [
                {
                    "type": "QUEST_CONTENT_COMPLETE_TALK",
                    "param": [
                        2200804,
                        0
                    ]
                }
            ],
            "guide": {
                "type": "QUEST_GUIDE_NPC",
                "param": [
                    "2027"
                ],
                "guideScene": 3,
                "guideStyle": "QUEST_GUIDE_STYLE_FINISH",
                "guideLayer": "QUEST_GUIDE_LAYER_SCENE"
            },
            "guideHint": {
                "KPOGPNLFAAE": ""
            },
            "finishParent": true,
            "isRewind": true,
            "finishExec": [
                {
                    "type": "QUEST_EXEC_NOTIFY_DAILY_TASK",
                    "param": [
                        "27000"
                    ]
                }
            ],
            "versionBegin": "",
            "versionEnd": ""
        }
    ],
    "talks": [
        {
            "id": 2200801,
            "beginWay": "TALK_BEGIN_MANUAL",
            "activeMode": "PLAY_MODE_ALL",
            "beginCond": [
                {
                    "type": "QUEST_COND_STATE_EQUAL",
                    "param": [
                        "2200801",
                        "2"
                    ]
                }
            ],
            "priority": 5,
            "initDialog": 220080101,
            "npcId": [
                2027
            ],
            "performCfg": "",
            "questId": 22008,
            "assetIndex": 9752807355749820380,
            "prePerformCfg": ""
        },
        {
            "id": 2200802,
            "beginWay": "TALK_BEGIN_MANUAL",
            "activeMode": "PLAY_MODE_ALL",
            "beginCond": [
                {
                    "type": "QUEST_COND_STATE_EQUAL",
                    "param": [
                        "2200802",
                        "2"
                    ]
                }
            ],
            "priority": 5,
            "initDialog": 220080201,
            "npcId": [
                2028
            ],
            "performCfg": "",
            "questId": 22008,
            "assetIndex": 13293515861802543601,
            "prePerformCfg": ""
        },
        {
            "id": 2200803,
            "beginWay": "TALK_BEGIN_MANUAL",
            "activeMode": "PLAY_MODE_ALL",
            "beginCondComb": "LOGIC_AND",
            "beginCond": [
                {
                    "type": "QUEST_COND_STATE_EQUAL",
                    "param": [
                        "2200802",
                        "2"
                    ]
                },
                {
                    "type": "QUEST_COND_ITEM_GIVING_ACTIVED",
                    "param": [
                        "2200802"
                    ]
                }
            ],
            "priority": 5,
            "initDialog": 220080301,
            "npcId": [
                2027
            ],
            "performCfg": "",
            "questId": 22008,
            "assetIndex": 7771192157455906445,
            "prePerformCfg": ""
        },
        {
            "id": 2200804,
            "beginWay": "TALK_BEGIN_MANUAL",
            "activeMode": "PLAY_MODE_ALL",
            "beginCond": [
                {
                    "type": "QUEST_COND_STATE_EQUAL",
                    "param": [
                        "2200803",
                        "2"
                    ]
                }
            ],
            "priority": 5,
            "initDialog": 220080401,
            "npcId": [
                2027
            ],
            "performCfg": "",
            "questId": 22008,
            "assetIndex": 6198547650587154874,
            "prePerformCfg": ""
        }
    ]
}