{
    "id": 22701,
    "type": "IQ",
    "activeMode": "PLAY_MODE_ALL",
    "titleTextMapHash": 3646653311,
    "descTextMapHash": 3560580502,
    "luaPath": "Actor/Quest/IQ22701",
    "repeatable": true,
    "rewardIdList": [
        500145
    ],
    "taskID": 28500,
    "subQuests": [
        {
            "subId": 2270101,
            "mainId": 22701,
            "order": 2,
            "descTextMapHash": 1964158204,
            "stepDescTextMapHash": 2372559237,
            "finishCond": [
                {
                    "type": "QUEST_CONTENT_COMPLETE_TALK",
                    "param": [
                        2270102,
                        0
                    ]
                }
            ],
            "guide": {
                "type": "QUEST_GUIDE_NPC",
                "param": [
                    "2400"
                ],
                "guideScene": 3,
                "guideStyle": "QUEST_GUIDE_STYLE_START",
                "guideLayer": "QUEST_GUIDE_LAYER_SCENE"
            },
            "guideHint": {
                "KPOGPNLFAAE": ""
            },
            "isRewind": true,
            "versionBegin": "",
            "versionEnd": ""
        },
        {
            "subId": 2270102,
            "mainId": 22701,
            "order": 3,
            "descTextMapHash": 1227239572,
            "stepDescTextMapHash": 1707860021,
            "finishCond": [
                {
                    "type": "QUEST_CONTENT_FINISH_PLOT",
                    "param": [
                        2270102,
                        0
                    ]
                }
            ],
            "guide": {
                "type": "QUEST_GUIDE_NPC",
                "param": [
                    "2400"
                ],
                "guideScene": 3,
                "guideStyle": "QUEST_GUIDE_STYLE_TARGET",
                "guideLayer": "QUEST_GUIDE_LAYER_SCENE"
            },
            "guideHint": {
                "KPOGPNLFAAE": ""
            },
            "isRewind": true,
            "versionBegin": "",
            "versionEnd": ""
        },
        {
            "subId": 2270103,
            "mainId": 22701,
            "order": 4,
            "descTextMapHash": 3474641148,
            "stepDescTextMapHash": 1486369605,
            "finishCond": [
                {
                    "type": "QUEST_CONTENT_COMPLETE_TALK",
                    "param": [
                        2270104,
                        0
                    ]
                }
            ],
            "guide": {
                "type": "QUEST_GUIDE_NPC",
                "param": [
                    "2400"
                ],
                "guideScene": 3,
                "guideStyle": "QUEST_GUIDE_STYLE_TARGET",
                "guideLayer": "QUEST_GUIDE_LAYER_SCENE"
            },
            "guideHint": {
                "KPOGPNLFAAE": ""
            },
            "isRewind": true,
            "versionBegin": "",
            "versionEnd": ""
        },
        {
            "subId": 2270104,
            "mainId": 22701,
            "order": 7,
            "subIdSet": 1,
            "descTextMapHash": 2121395292,
            "stepDescTextMapHash": 2498280301,
            "finishCond": [
                {
                    "type": "QUEST_CONTENT_OBTAIN_ITEM",
                    "param": [
                        100541,
                        0
                    ],
                    "count": 3
                }
            ],
            "guide": {
                "type": "QUEST_GUIDE_LOCATION",
                "param": [
                    "Q22701_Guide",
                    "8"
                ],
                "guideScene": 3,
                "guideStyle": "QUEST_GUIDE_STYLE_TARGET",
                "guideLayer": "QUEST_GUIDE_LAYER_SCENE"
            },
            "showGuide": "QUEST_GUIDE_ITEM_DISABLE",
            "guideHint": {
                "KPOGPNLFAAE": ""
            },
            "isRewind": true,
            "finishExec": [
                {
                    "type": "QUEST_EXEC_ADD_QUEST_PROGRESS",
                    "param": [
                        "2270109",
                        "1"
                    ]
                }
            ],
            "versionBegin": "",
            "versionEnd": ""
        },
        {
            "subId": 2270105,
            "mainId": 22701,
            "order": 10,
            "descTextMapHash": 4211532156,
            "stepDescTextMapHash": 2956967677,
            "finishCond": [
                {
                    "type": "QUEST_CONTENT_COMPLETE_TALK",
                    "param": [
                        2270106,
                        0
                    ]
                },
                {
                    "type": "QUEST_CONTENT_COMPLETE_TALK",
                    "param": [
                        2270107,
                        0
                    ]
                }
            ],
            "guide": {
                "type": "QUEST_GUIDE_NPC",
                "param": [
                    "2400"
                ],
                "guideScene": 3,
                "guideStyle": "QUEST_GUIDE_STYLE_TARGET",
                "guideLayer": "QUEST_GUIDE_LAYER_SCENE"
            },
            "guideHint": {
                "KPOGPNLFAAE": ""
            },
            "finishParent": true,
            "isRewind": true,
            "finishExec": [
                {
                    "type": "QUEST_EXEC_DEL_ALL_SPECIFIC_PACK_ITEM",
                    "param": [
                        "100541"
                    ]
                },
                {
                    "type": "QUEST_EXEC_REFRESH_GROUP_SUITE",
                    "param": [
                        "3",
                        "133103576,1"
                    ]
                },
                {
                    "type": "QUEST_EXEC_NOTIFY_DAILY_TASK",
                    "param": [
                        "28500"
                    ]
                }
            ],
            "versionBegin": "",
            "versionEnd": ""
        },
        {
            "subId": 2270106,
            "mainId": 22701,
            "order": 1,
            "descTextMapHash": 1020369868,
            "showType": "QUEST_HIDDEN",
            "finishCond": [
                {
                    "type": "QUEST_CONTENT_COMPLETE_TALK",
                    "param": [
                        2270102,
                        0
                    ]
                }
            ],
            "guide": {
                "guideScene": 3,
                "guideLayer": "QUEST_GUIDE_LAYER_SCENE"
            },
            "showGuide": "QUEST_GUIDE_ITEM_DISABLE",
            "guideHint": {
                "KPOGPNLFAAE": ""
            },
            "isRewind": true,
            "versionBegin": "",
            "versionEnd": ""
        },
        {
            "subId": 2270107,
            "mainId": 22701,
            "order": 5,
            "subIdSet": 1,
            "descTextMapHash": 431822468,
            "stepDescTextMapHash": 422271293,
            "finishCond": [
                {
                    "type": "QUEST_CONTENT_OBTAIN_ITEM",
                    "param": [
                        100541,
                        0
                    ],
                    "count": 1
                }
            ],
            "guide": {
                "guideScene": 3,
                "guideLayer": "QUEST_GUIDE_LAYER_SCENE"
            },
            "showGuide": "QUEST_GUIDE_ITEM_DISABLE",
            "guideHint": {
                "KPOGPNLFAAE": ""
            },
            "isRewind": true,
            "finishExec": [
                {
                    "type": "QUEST_EXEC_ADD_QUEST_PROGRESS",
                    "param": [
                        "2270109",
                        "1"
                    ]
                }
            ],
            "versionBegin": "",
            "versionEnd": ""
        },
        {
            "subId": 2270108,
            "mainId": 22701,
            "order": 6,
            "subIdSet": 1,
            "descTextMapHash": 1185939140,
            "stepDescTextMapHash": 2581594101,
            "finishCond": [
                {
                    "type": "QUEST_CONTENT_OBTAIN_ITEM",
                    "param": [
                        100541,
                        0
                    ],
                    "count": 2
                }
            ],
            "guide": {
                "guideScene": 3,
                "guideLayer": "QUEST_GUIDE_LAYER_SCENE"
            },
            "showGuide": "QUEST_GUIDE_ITEM_DISABLE",
            "guideHint": {
                "KPOGPNLFAAE": ""
            },
            "isRewind": true,
            "finishExec": [
                {
                    "type": "QUEST_EXEC_ADD_QUEST_PROGRESS",
                    "param": [
                        "2270109",
                        "1"
                    ]
                }
            ],
            "versionBegin": "",
            "versionEnd": ""
        },
        {
            "subId": 2270109,
            "mainId": 22701,
            "order": 8,
            "descTextMapHash": 2472617972,
            "showType": "QUEST_HIDDEN",
            "finishCond": [
                {
                    "type": "QUEST_CONTENT_ADD_QUEST_PROGRESS",
                    "param": [
                        2270109,
                        0
                    ],
                    "count": 3
                }
            ],
            "guide": {
                "guideScene": 3,
                "guideStyle": "QUEST_GUIDE_STYLE_TARGET",
                "guideLayer": "QUEST_GUIDE_LAYER_SCENE"
            },
            "showGuide": "QUEST_GUIDE_ITEM_DISABLE",
            "guideHint": {
                "KPOGPNLFAAE": ""
            },
            "isRewind": true,
            "finishExec": [
                {
                    "type": "QUEST_EXEC_ADD_QUEST_PROGRESS",
                    "param": [
                        "2270110",
                        "1"
                    ]
                }
            ],
            "versionBegin": "",
            "versionEnd": ""
        },
        {
            "subId": 2270110,
            "mainId": 22701,
            "order": 9,
            "descTextMapHash": 2321465996,
            "showType": "QUEST_HIDDEN",
            "finishCond": [
                {
                    "type": "QUEST_CONTENT_ADD_QUEST_PROGRESS",
                    "param": [
                        2270110,
                        0
                    ],
                    "count": 1
                }
            ],
            "guide": {
                "guideScene": 3,
                "guideStyle": "QUEST_GUIDE_STYLE_TARGET",
                "guideLayer": "QUEST_GUIDE_LAYER_SCENE"
            },
            "showGuide": "QUEST_GUIDE_ITEM_DISABLE",
            "guideHint": {
                "KPOGPNLFAAE": ""
            },
            "isRewind": true,
            "versionBegin": "",
            "versionEnd": ""
        }
    ],
    "talks": [
        {
            "id": 2270101,
            "beginWay": "TALK_BEGIN_MANUAL",
            "activeMode": "PLAY_MODE_ALL",
            "beginCondComb": "LOGIC_AND",
            "beginCond": [
                {
                    "type": "QUEST_COND_STATE_EQUAL",
                    "param": [
                        "2270101",
                        "2"
                    ]
                }
            ],
            "priority": 5,
            "nextTalks": [
                2270102
            ],
            "initDialog": 227010101,
            "npcId": [
                2400,
                2418
            ],
            "performCfg": "",
            "questId": 22701,
            "assetIndex": 11808881313825593878,
            "prePerformCfg": ""
        },
        {
            "id": 2270102,
            "activeMode": "PLAY_MODE_ALL",
            "beginCondComb": "LOGIC_AND",
            "beginCond": [
                {
                    "type": "QUEST_COND_STATE_EQUAL",
                    "param": [
                        "2270101",
                        "2"
                    ]
                }
            ],
            "priority": 5,
            "initDialog": 227010201,
            "npcId": [
                2400
            ],
            "performCfg": "",
            "questId": 22701,
            "assetIndex": 1915015322898220805,
            "prePerformCfg": ""
        },
        {
            "id": 2270103,
            "activeMode": "PLAY_MODE_ALL",
            "beginCondComb": "LOGIC_AND",
            "priority": 5,
            "initDialog": 227010301,
            "npcId": [
                2400,
                2418
            ],
            "performCfg": "",
            "questId": 22701,
            "assetIndex": 2498707758983674503,
            "prePerformCfg": ""
        },
        {
            "id": 2270104,
            "beginWay": "TALK_BEGIN_MANUAL",
            "activeMode": "PLAY_MODE_ALL",
            "beginCondComb": "LOGIC_AND",
            "beginCond": [
                {
                    "type": "QUEST_COND_STATE_EQUAL",
                    "param": [
                        "2270103",
                        "2"
                    ]
                }
            ],
            "priority": 5,
            "initDialog": 227010401,
            "npcId": [
                2400
            ],
            "performCfg": "",
            "questId": 22701,
            "assetIndex": 3465267489946725695,
            "prePerformCfg": ""
        },
        {
            "id": 2270105,
            "beginWay": "TALK_BEGIN_MANUAL",
            "activeMode": "PLAY_MODE_ALL",
            "beginCondComb": "LOGIC_AND",
            "beginCond": [
                {
                    "type": "QUEST_COND_STATE_EQUAL",
                    "param": [
                        "2270105",
                        "2"
                    ]
                }
            ],
            "priority": 5,
            "nextTalks": [
                2270106,
                2270107
            ],
            "initDialog": 227010501,
            "npcId": [
                2400,
                2418
            ],
            "performCfg": "",
            "questId": 22701,
            "assetIndex": 4092564995260225734,
            "prePerformCfg": ""
        },
        {
            "id": 2270106,
            "activeMode": "PLAY_MODE_ALL",
            "beginCondComb": "LOGIC_AND",
            "beginCond": [
                {
                    "type": "QUEST_COND_STATE_EQUAL",
                    "param": [
                        "2270105",
                        "2"
                    ]
                }
            ],
            "priority": 5,
            "initDialog": 227010601,
            "npcId": [
                2400,
                2418
            ],
            "performCfg": "",
            "questId": 22701,
            "assetIndex": 16011154756893440613,
            "prePerformCfg": ""
        },
        {
            "id": 2270107,
            "activeMode": "PLAY_MODE_ALL",
            "beginCondComb": "LOGIC_AND",
            "beginCond": [
                {
                    "type": "QUEST_COND_STATE_EQUAL",
                    "param": [
                        "2270105",
                        "2"
                    ]
                }
            ],
            "priority": 5,
            "initDialog": 227010701,
            "npcId": [
                2400,
                2418
            ],
            "performCfg": "",
            "questId": 22701,
            "assetIndex": 18111312305698283320,
            "prePerformCfg": ""
        },
        {
            "id": 2270108,
            "activeMode": "PLAY_MODE_ALL",
            "beginCondComb": "LOGIC_AND",
            "beginCond": [
                {
                    "type": "QUEST_COND_STATE_EQUAL",
                    "param": [
                        "2270105",
                        "2"
                    ]
                }
            ],
            "priority": 5,
            "initDialog": 227010801,
            "npcId": [
                2400,
                2418
            ],
            "performCfg": "",
            "questId": 22701,
            "assetIndex": 13697806520958757394,
            "prePerformCfg": ""
        },
        {
            "id": 2270109,
            "beginWay": "TALK_BEGIN_MANUAL",
            "activeMode": "PLAY_MODE_ALL",
            "beginCondComb": "LOGIC_AND",
            "beginCond": [
                {
                    "type": "QUEST_COND_STATE_EQUAL",
                    "param": [
                        "2270104",
                        "2"
                    ]
                }
            ],
            "priority": 5,
            "initDialog": 227010901,
            "npcId": [
                2400
            ],
            "performCfg": "",
            "questId": 22701,
            "assetIndex": 8460050590970526486,
            "prePerformCfg": ""
        },
        {
            "id": 2270110,
            "beginWay": "TALK_BEGIN_MANUAL",
            "activeMode": "PLAY_MODE_ALL",
            "beginCondComb": "LOGIC_OR",
            "beginCond": [
                {
                    "type": "QUEST_COND_STATE_EQUAL",
                    "param": [
                        "2270104",
                        "2"
                    ]
                },
                {
                    "type": "QUEST_COND_STATE_EQUAL",
                    "param": [
                        "2270102",
                        "2"
                    ]
                },
                {
                    "type": "QUEST_COND_STATE_EQUAL",
                    "param": [
                        "2270103",
                        "2"
                    ]
                }
            ],
            "priority": 5,
            "initDialog": 227011001,
            "npcId": [
                2418
            ],
            "performCfg": "",
            "questId": 22701,
            "assetIndex": 11706767012629663238,
            "prePerformCfg": ""
        }
    ]
}