{
    "id": 24004,
    "type": "IQ",
    "activeMode": "PLAY_MODE_ALL",
    "titleTextMapHash": 2338428655,
    "descTextMapHash": 138716454,
    "luaPath": "Actor/Quest/IQ24004",
    "repeatable": true,
    "taskID": 43120,
    "subQuests": [
        {
            "subId": 2400401,
            "mainId": 24004,
            "order": 1,
            "descTextMapHash": 797245916,
            "KFCPGKEOMNH": [
                340106
            ],
            "finishCond": [
                {
                    "type": "QUEST_CONTENT_COMPLETE_TALK",
                    "param": [
                        2400401,
                        0
                    ]
                }
            ],
            "guide": {
                "type": "QUEST_GUIDE_NPC",
                "param": [
                    "5062"
                ],
                "guideScene": 3,
                "guideStyle": "QUEST_GUIDE_STYLE_TARGET",
                "guideLayer": "QUEST_GUIDE_LAYER_SCENE"
            },
            "guideHint": {
                "KPOGPNLFAAE": ""
            },
            "isRewind": true,
            "versionBegin": "",
            "versionEnd": ""
        },
        {
            "subId": 2400402,
            "mainId": 24004,
            "order": 2,
            "subIdSet": 1,
            "descTextMapHash": 2757469548,
            "KFCPGKEOMNH": [
                340106
            ],
            "finishCond": [
                {
                    "type": "QUEST_CONTENT_COMPLETE_TALK",
                    "param": [
                        2400402,
                        0
                    ]
                }
            ],
            "guide": {
                "type": "QUEST_GUIDE_LOCATION",
                "param": [
                    "[3_340100240:3601.660,428.202,4583.619]",
                    "25"
                ],
                "guideScene": 3,
                "guideStyle": "QUEST_GUIDE_STYLE_TARGET",
                "guideLayer": "QUEST_GUIDE_LAYER_SCENE"
            },
            "showGuide": "QUEST_GUIDE_ITEM_DISABLE",
            "guideHint": {
                "KPOGPNLFAAE": ""
            },
            "versionBegin": "",
            "versionEnd": ""
        },
        {
            "subId": 2400403,
            "mainId": 24004,
            "order": 3,
            "subIdSet": 1,
            "descTextMapHash": 2960036740,
            "KFCPGKEOMNH": [
                340106
            ],
            "finishCond": [
                {
                    "type": "QUEST_CONTENT_COMPLETE_TALK",
                    "param": [
                        2400403,
                        0
                    ]
                }
            ],
            "guide": {
                "type": "QUEST_GUIDE_LOCATION",
                "param": [
                    "[3_340100240:3601.660,428.202,4583.619]",
                    "25"
                ],
                "guideScene": 3,
                "guideLayer": "QUEST_GUIDE_LAYER_SCENE"
            },
            "showGuide": "QUEST_GUIDE_ITEM_DISABLE",
            "guideHint": {
                "KPOGPNLFAAE": ""
            },
            "versionBegin": "",
            "versionEnd": ""
        },
        {
            "subId": 2400404,
            "mainId": 24004,
            "order": 4,
            "subIdSet": 1,
            "descTextMapHash": 3842600820,
            "KFCPGKEOMNH": [
                340106
            ],
            "finishCond": [
                {
                    "type": "QUEST_CONTENT_COMPLETE_TALK",
                    "param": [
                        2400404,
                        0
                    ]
                },
                {
                    "type": "QUEST_CONTENT_COMPLETE_TALK",
                    "param": [
                        2400406,
                        0
                    ]
                }
            ],
            "guide": {
                "type": "QUEST_GUIDE_LOCATION",
                "param": [
                    "[3_340100240:3601.660,428.202,4583.619]",
                    "25"
                ],
                "guideScene": 3,
                "guideStyle": "QUEST_GUIDE_STYLE_TARGET",
                "guideLayer": "QUEST_GUIDE_LAYER_SCENE"
            },
            "guideHint": {
                "KPOGPNLFAAE": ""
            },
            "versionBegin": "",
            "versionEnd": ""
        },
        {
            "subId": 2400405,
            "mainId": 24004,
            "order": 5,
            "showType": "QUEST_HIDDEN",
            "KFCPGKEOMNH": [
                340106
            ],
            "finishCond": [
                {
                    "type": "QUEST_CONTENT_QUEST_STATE_EQUAL",
                    "param": [
                        2400402,
                        3
                    ]
                },
                {
                    "type": "QUEST_CONTENT_QUEST_STATE_EQUAL",
                    "param": [
                        2400403,
                        3
                    ]
                },
                {
                    "type": "QUEST_CONTENT_QUEST_STATE_EQUAL",
                    "param": [
                        2400404,
                        3
                    ]
                }
            ],
            "guide": {},
            "guideHint": {
                "KPOGPNLFAAE": ""
            },
            "isRewind": true,
            "versionBegin": "",
            "versionEnd": ""
        },
        {
            "subId": 2400406,
            "mainId": 24004,
            "order": 6,
            "descTextMapHash": 3202517156,
            "KFCPGKEOMNH": [
                340106
            ],
            "finishCond": [
                {
                    "type": "QUEST_CONTENT_COMPLETE_TALK",
                    "param": [
                        2400405,
                        0
                    ]
                }
            ],
            "guide": {
                "type": "QUEST_GUIDE_LOCATION",
                "param": [
                    "[3_340100200:3587.600,428.201,4598.626,0.000,54.800,0.000]"
                ],
                "guideScene": 3,
                "guideStyle": "QUEST_GUIDE_STYLE_POINT",
                "guideLayer": "QUEST_GUIDE_LAYER_SCENE"
            },
            "guideHint": {
                "KPOGPNLFAAE": ""
            },
            "finishParent": true,
            "isRewind": true,
            "finishExec": [
                {
                    "type": "QUEST_EXEC_NOTIFY_DAILY_TASK",
                    "param": [
                        "43120"
                    ]
                }
            ],
            "versionBegin": "",
            "versionEnd": ""
        }
    ],
    "talks": [
        {
            "id": 2400401,
            "beginWay": "TALK_BEGIN_MANUAL",
            "activeMode": "PLAY_MODE_HOST",
            "beginCond": [
                {
                    "type": "QUEST_COND_STATE_EQUAL",
                    "param": [
                        "2400401",
                        "2"
                    ]
                }
            ],
            "priority": 5,
            "initDialog": 240040101,
            "npcId": [
                5062,
                5063
            ],
            "performCfg": "QuestDialogue/IQ/Fontaine_24004/Q2400401",
            "heroTalk": "TALK_HERO_MAIN",
            "questId": 24004,
            "assetIndex": 13329314309752639449,
            "prePerformCfg": ""
        },
        {
            "id": 2400402,
            "beginWay": "TALK_BEGIN_MANUAL",
            "activeMode": "PLAY_MODE_HOST",
            "beginCond": [
                {
                    "type": "QUEST_COND_STATE_EQUAL",
                    "param": [
                        "2400402",
                        "2"
                    ]
                }
            ],
            "priority": 5,
            "initDialog": 240040201,
            "npcId": [
                5063
            ],
            "performCfg": "QuestDialogue/IQ/Fontaine_24004/Q2400402",
            "heroTalk": "TALK_HERO_MAIN",
            "questId": 24004,
            "assetIndex": 10946151030204364416,
            "prePerformCfg": ""
        },
        {
            "id": 2400403,
            "beginWay": "TALK_BEGIN_MANUAL",
            "activeMode": "PLAY_MODE_HOST",
            "beginCond": [
                {
                    "type": "QUEST_COND_STATE_EQUAL",
                    "param": [
                        "2400403",
                        "2"
                    ]
                }
            ],
            "priority": 5,
            "initDialog": 240040301,
            "npcId": [
                5062
            ],
            "performCfg": "",
            "heroTalk": "TALK_HERO_MAIN",
            "questId": 24004,
            "assetIndex": 17993491056670370926,
            "prePerformCfg": "",
            "freeStyleList": [
                1171,
                1172,
                1173
            ]
        },
        {
            "id": 2400404,
            "beginWay": "TALK_BEGIN_MANUAL",
            "activeMode": "PLAY_MODE_HOST",
            "beginCondComb": "LOGIC_AND",
            "beginCond": [
                {
                    "type": "QUEST_COND_STATE_EQUAL",
                    "param": [
                        "2400404",
                        "2"
                    ]
                },
                {
                    "type": "QUEST_COND_DAILY_TASK_VAR_EQ",
                    "param": [
                        "43120 ",
                        "1",
                        "0"
                    ]
                }
            ],
            "priority": 5,
            "initDialog": 240040401,
            "npcId": [
                5021
            ],
            "performCfg": "",
            "heroTalk": "TALK_HERO_MAIN",
            "questId": 24004,
            "assetIndex": 376640559651492075,
            "prePerformCfg": "",
            "freeStyleList": [
                1190
            ]
        },
        {
            "id": 2400405,
            "beginWay": "TALK_BEGIN_MANUAL",
            "activeMode": "PLAY_MODE_HOST",
            "beginCond": [
                {
                    "type": "QUEST_COND_STATE_EQUAL",
                    "param": [
                        "2400406",
                        "2"
                    ]
                }
            ],
            "priority": 5,
            "initDialog": 240040501,
            "npcId": [
                5063,
                5062,
                5021
            ],
            "performCfg": "QuestDialogue/IQ/Fontaine_24004/Q2400405",
            "heroTalk": "TALK_HERO_MAIN",
            "questId": 24004,
            "assetIndex": 4418385037333768918,
            "prePerformCfg": "",
            "EIPOLMFCODP": [
                "[3_340100197:3588.966,428.201,4598.902,0.000,296.000,0.000]",
                "[3_340100198:3587.754,428.201,4599.919,0.000,135.500,0.000]",
                "[3_340100199:3588.775,428.201,4599.758,0.000,236.600,0.000]",
                "[3_340100200:3587.600,428.201,4598.626,0.000,54.800,0.000]"
            ]
        },
        {
            "id": 2400406,
            "beginWay": "TALK_BEGIN_MANUAL",
            "activeMode": "PLAY_MODE_HOST",
            "beginCondComb": "LOGIC_AND",
            "beginCond": [
                {
                    "type": "QUEST_COND_STATE_EQUAL",
                    "param": [
                        "2400404",
                        "2"
                    ]
                },
                {
                    "type": "QUEST_COND_DAILY_TASK_VAR_EQ",
                    "param": [
                        "43120 ",
                        "1",
                        "1"
                    ]
                }
            ],
            "priority": 5,
            "initDialog": 240040601,
            "npcId": [
                5021
            ],
            "performCfg": "",
            "heroTalk": "TALK_HERO_MAIN",
            "questId": 24004,
            "assetIndex": 10914464506957736393,
            "prePerformCfg": "",
            "freeStyleList": [
                4030
            ]
        }
    ],
    "preloadLuaList": [
        18074707377234515991,
        14463522358297130447,
        15919090757219070873
    ],
    "AILPOGENMJB": [
        13324069394083890820
    ],
    "freeStyleDic": {
        "5062": [
            5030
        ],
        "5021": [
            1050
        ]
    },
    "dialogList": [
        {
            "id": 240049901,
            "talkRole": {
                "type": "TALK_ROLE_NPC",
                "id": "5063"
            },
            "talkContentTextMapHash": 3510971858,
            "talkAssetPath": "",
            "talkAssetPathAlter": "",
            "talkAudioName": "",
            "actionBefore": "",
            "actionWhile": "",
            "actionAfter": "",
            "optionIcon": ""
        },
        {
            "id": 240049902,
            "talkRole": {
                "type": "TALK_ROLE_NPC",
                "id": "5062"
            },
            "talkContentTextMapHash": 2898927490,
            "talkAssetPath": "",
            "talkAssetPathAlter": "",
            "talkAudioName": "",
            "actionBefore": "",
            "actionWhile": "",
            "actionAfter": "",
            "optionIcon": ""
        },
        {
            "id": 240049903,
            "talkRole": {
                "type": "TALK_ROLE_NPC",
                "id": "5021"
            },
            "talkContentTextMapHash": 1915034002,
            "talkAssetPath": "",
            "talkAssetPathAlter": "",
            "talkAudioName": "",
            "actionBefore": "",
            "actionWhile": "",
            "actionAfter": "",
            "optionIcon": ""
        }
    ]
}