{
    "id": 25004,
    "type": "WQ",
    "titleTextMapHash": 387106497,
    "descTextMapHash": 3321172327,
    "luaPath": "",
    "showType": "QUEST_HIDDEN",
    "subQuests": [
        {
            "subId": 2500401,
            "mainId": 25004,
            "order": 1,
            "descTextMapHash": 2221056863,
            "showType": "QUEST_HIDDEN",
            "finishCond": [
                {
                    "type": "QUEST_CONTENT_PLAYER_LEVEL_UP",
                    "param": [
                        0,
                        0
                    ],
                    "count": 35
                }
            ],
            "guide": {},
            "guideHint": {
                "KPOGPNLFAAE": ""
            },
            "finishParent": true,
            "versionBegin": "",
            "versionEnd": ""
        }
    ]
}