{
    "id": 3022,
    "resId": 1017,
    "series": 1305,
    "titleTextMapHash": 2813062135,
    "descTextMapHash": 2719796718,
    "luaPath": "Actor/Quest/AQ3022",
    "suggestTrackMainQuestList": [
        3028
    ],
    "rewardIdList": [
        103022
    ],
    "chapterId": 1305,
    "subQuests": [
        {
            "subId": 302201,
            "mainId": 3022,
            "order": 1,
            "descTextMapHash": 120740068,
            "finishCond": [
                {
                    "type": "QUEST_CONTENT_GAME_TIME_TICK",
                    "param": [
                        1,
                        0
                    ]
                }
            ],
            "guide": {},
            "guideHint": {
                "KPOGPNLFAAE": ""
            },
            "isRewind": true,
            "versionBegin": "",
            "versionEnd": ""
        },
        {
            "subId": 302202,
            "mainId": 3022,
            "order": 2,
            "descTextMapHash": 980931948,
            "finishCond": [
                {
                    "type": "QUEST_CONTENT_COMPLETE_TALK",
                    "param": [
                        302202,
                        0
                    ]
                }
            ],
            "guide": {
                "type": "QUEST_GUIDE_NPC",
                "param": [
                    "1053"
                ],
                "guideScene": 3,
                "guideStyle": "QUEST_GUIDE_STYLE_TARGET",
                "guideLayer": "QUEST_GUIDE_LAYER_SCENE"
            },
            "guideHint": {
                "KPOGPNLFAAE": ""
            },
            "isRewind": true,
            "versionBegin": "",
            "versionEnd": ""
        },
        {
            "subId": 302203,
            "mainId": 3022,
            "order": 3,
            "descTextMapHash": 3973815876,
            "KFCPGKEOMNH": [
                330235
            ],
            "finishCond": [
                {
                    "type": "QUEST_CONTENT_COMPLETE_TALK",
                    "param": [
                        302203,
                        0
                    ]
                }
            ],
            "guide": {
                "type": "QUEST_GUIDE_LOCATION",
                "param": [
                    "Q302203_guide",
                    "20"
                ],
                "guideScene": 3,
                "guideStyle": "QUEST_GUIDE_STYLE_TARGET",
                "guideLayer": "QUEST_GUIDE_LAYER_SCENE"
            },
            "guideHint": {
                "KPOGPNLFAAE": ""
            },
            "isRewind": true,
            "versionBegin": "",
            "versionEnd": ""
        },
        {
            "subId": 302204,
            "mainId": 3022,
            "order": 4,
            "descTextMapHash": 3505324540,
            "finishCond": [
                {
                    "type": "QUEST_CONTENT_LUA_NOTIFY",
                    "param": [
                        0,
                        0
                    ],
                    "count": 1
                }
            ],
            "guide": {
                "type": "QUEST_GUIDE_LOCATION",
                "param": [
                    "Q302204_guide"
                ],
                "guideScene": 3,
                "guideStyle": "QUEST_GUIDE_STYLE_TARGET",
                "guideLayer": "QUEST_GUIDE_LAYER_SCENE"
            },
            "guideHint": {
                "KPOGPNLFAAE": ""
            },
            "isRewind": true,
            "finishExec": [
                {
                    "type": "QUEST_EXEC_UNREGISTER_DYNAMIC_GROUP",
                    "param": [
                        "133302555"
                    ]
                }
            ],
            "versionBegin": "",
            "versionEnd": ""
        },
        {
            "subId": 302205,
            "mainId": 3022,
            "order": 6,
            "isMpBlock": true,
            "descTextMapHash": 3074855916,
            "finishCond": [
                {
                    "type": "QUEST_CONTENT_COMPLETE_TALK",
                    "param": [
                        302205,
                        0
                    ]
                }
            ],
            "failCond": [
                {
                    "type": "QUEST_CONTENT_LEAVE_SCENE",
                    "param": [
                        20162,
                        0
                    ]
                }
            ],
            "guide": {
                "type": "QUEST_GUIDE_LOCATION",
                "param": [
                    "Q302205_N10000005"
                ],
                "guideScene": 20162,
                "guideStyle": "QUEST_GUIDE_STYLE_TARGET",
                "guideLayer": "QUEST_GUIDE_LAYER_SCENE"
            },
            "guideHint": {
                "KPOGPNLFAAE": ""
            },
            "isRewind": true,
            "failExec": [
                {
                    "type": "QUEST_EXEC_UNLOCK_AVATAR_TEAM"
                },
                {
                    "type": "QUEST_EXEC_ROLLBACK_QUEST",
                    "param": [
                        "302204"
                    ]
                }
            ],
            "versionBegin": "",
            "versionEnd": ""
        },
        {
            "subId": 302206,
            "mainId": 3022,
            "order": 7,
            "isMpBlock": true,
            "descTextMapHash": 2405788916,
            "finishCond": [
                {
                    "type": "QUEST_CONTENT_COMPLETE_TALK",
                    "param": [
                        302206,
                        0
                    ]
                }
            ],
            "failCond": [
                {
                    "type": "QUEST_CONTENT_LEAVE_SCENE",
                    "param": [
                        20162,
                        0
                    ]
                }
            ],
            "guide": {
                "type": "QUEST_GUIDE_LOCATION",
                "param": [
                    "Q302219_N12660"
                ],
                "guideScene": 20162,
                "guideStyle": "QUEST_GUIDE_STYLE_TARGET",
                "guideLayer": "QUEST_GUIDE_LAYER_SCENE"
            },
            "guideHint": {
                "KPOGPNLFAAE": ""
            },
            "isRewind": true,
            "failExec": [
                {
                    "type": "QUEST_EXEC_UNLOCK_AVATAR_TEAM"
                },
                {
                    "type": "QUEST_EXEC_ROLLBACK_QUEST",
                    "param": [
                        "302204"
                    ]
                }
            ],
            "versionBegin": "",
            "versionEnd": ""
        },
        {
            "subId": 302207,
            "mainId": 3022,
            "order": 8,
            "isMpBlock": true,
            "showType": "QUEST_HIDDEN",
            "finishCond": [
                {
                    "type": "QUEST_CONTENT_FINISH_PLOT",
                    "param": [
                        302207,
                        0
                    ]
                }
            ],
            "failCond": [
                {
                    "type": "QUEST_CONTENT_LEAVE_SCENE",
                    "param": [
                        20162,
                        0
                    ]
                }
            ],
            "guide": {},
            "guideHint": {
                "KPOGPNLFAAE": ""
            },
            "isRewind": true,
            "finishExec": [
                {
                    "type": "QUEST_EXEC_SET_QUEST_GLOBAL_VAR",
                    "param": [
                        "3022",
                        "1"
                    ]
                }
            ],
            "failExec": [
                {
                    "type": "QUEST_EXEC_UNLOCK_AVATAR_TEAM"
                },
                {
                    "type": "QUEST_EXEC_ROLLBACK_QUEST",
                    "param": [
                        "302204"
                    ]
                }
            ],
            "versionBegin": "",
            "versionEnd": ""
        },
        {
            "subId": 302208,
            "mainId": 3022,
            "order": 10,
            "isMpBlock": true,
            "descTextMapHash": 1466160108,
            "finishCond": [
                {
                    "type": "QUEST_CONTENT_COMPLETE_TALK",
                    "param": [
                        302208,
                        0
                    ]
                }
            ],
            "failCond": [
                {
                    "type": "QUEST_CONTENT_LEAVE_SCENE",
                    "param": [
                        20162,
                        0
                    ]
                }
            ],
            "guide": {
                "type": "QUEST_GUIDE_LOCATION",
                "param": [
                    "Q302208_N10000005"
                ],
                "guideScene": 20162,
                "guideStyle": "QUEST_GUIDE_STYLE_TARGET",
                "guideLayer": "QUEST_GUIDE_LAYER_SCENE"
            },
            "guideHint": {
                "KPOGPNLFAAE": ""
            },
            "isRewind": true,
            "failExec": [
                {
                    "type": "QUEST_EXEC_UNLOCK_AVATAR_TEAM"
                },
                {
                    "type": "QUEST_EXEC_ROLLBACK_QUEST",
                    "param": [
                        "302204"
                    ]
                },
                {
                    "type": "QUEST_EXEC_REFRESH_GROUP_SUITE",
                    "param": [
                        "20162",
                        "220162005,1"
                    ]
                }
            ],
            "versionBegin": "",
            "versionEnd": ""
        },
        {
            "subId": 302209,
            "mainId": 3022,
            "order": 14,
            "isMpBlock": true,
            "descTextMapHash": 1834913180,
            "guideTipsTextMapHash": 1233814830,
            "finishCond": [
                {
                    "type": "QUEST_CONTENT_LUA_NOTIFY",
                    "param": [
                        0,
                        0
                    ],
                    "count": 1
                }
            ],
            "failCond": [
                {
                    "type": "QUEST_CONTENT_LEAVE_SCENE",
                    "param": [
                        20162,
                        0
                    ]
                }
            ],
            "guide": {},
            "guideHint": {
                "KPOGPNLFAAE": ""
            },
            "isRewind": true,
            "failExec": [
                {
                    "type": "QUEST_EXEC_UNLOCK_AVATAR_TEAM"
                },
                {
                    "type": "QUEST_EXEC_ROLLBACK_QUEST",
                    "param": [
                        "302204"
                    ]
                }
            ],
            "versionBegin": "",
            "versionEnd": ""
        },
        {
            "subId": 302210,
            "mainId": 3022,
            "order": 18,
            "isMpBlock": true,
            "descTextMapHash": 2579854372,
            "finishCond": [
                {
                    "type": "QUEST_CONTENT_COMPLETE_TALK",
                    "param": [
                        302210,
                        0
                    ]
                },
                {
                    "type": "QUEST_CONTENT_COMPLETE_TALK",
                    "param": [
                        302250,
                        0
                    ]
                }
            ],
            "failCond": [
                {
                    "type": "QUEST_CONTENT_LEAVE_SCENE",
                    "param": [
                        20162,
                        0
                    ]
                }
            ],
            "guide": {
                "type": "QUEST_GUIDE_LOCATION",
                "param": [
                    "PlayFind_N10000005",
                    "20"
                ],
                "guideScene": 20162,
                "guideStyle": "QUEST_GUIDE_STYLE_TARGET",
                "guideLayer": "QUEST_GUIDE_LAYER_SCENE"
            },
            "guideHint": {
                "KPOGPNLFAAE": ""
            },
            "isRewind": true,
            "finishExec": [
                {
                    "type": "QUEST_EXEC_SET_QUEST_GLOBAL_VAR",
                    "param": [
                        "3022",
                        "2"
                    ]
                },
                {
                    "type": "QUEST_EXEC_REFRESH_GROUP_SUITE",
                    "param": [
                        "20162",
                        "220162004,1"
                    ]
                },
                {
                    "type": "QUEST_EXEC_REFRESH_GROUP_SUITE",
                    "param": [
                        "20162",
                        "220162002,1"
                    ]
                },
                {
                    "type": "QUEST_EXEC_UNLOCK_AVATAR_TEAM"
                }
            ],
            "failExec": [
                {
                    "type": "QUEST_EXEC_UNLOCK_AVATAR_TEAM"
                },
                {
                    "type": "QUEST_EXEC_ROLLBACK_QUEST",
                    "param": [
                        "302204"
                    ]
                }
            ],
            "versionBegin": "",
            "versionEnd": ""
        },
        {
            "subId": 302211,
            "mainId": 3022,
            "order": 24,
            "isMpBlock": true,
            "descTextMapHash": 3332610932,
            "finishCond": [
                {
                    "type": "QUEST_CONTENT_COMPLETE_TALK",
                    "param": [
                        302211,
                        0
                    ]
                }
            ],
            "failCond": [
                {
                    "type": "QUEST_CONTENT_LEAVE_SCENE",
                    "param": [
                        51007,
                        0
                    ]
                }
            ],
            "guide": {
                "type": "QUEST_GUIDE_LOCATION",
                "param": [
                    "Q302211_N4060"
                ],
                "guideScene": 51007,
                "guideStyle": "QUEST_GUIDE_STYLE_POINT",
                "guideLayer": "QUEST_GUIDE_LAYER_SCENE"
            },
            "guideHint": {
                "KPOGPNLFAAE": ""
            },
            "isRewind": true,
            "failExec": [
                {
                    "type": "QUEST_EXEC_SET_IS_GAME_TIME_LOCKED",
                    "param": [
                        "0"
                    ]
                },
                {
                    "type": "QUEST_EXEC_UNLOCK_AVATAR_TEAM"
                },
                {
                    "type": "QUEST_EXEC_REMOVE_TRIAL_AVATAR",
                    "param": [
                        "54"
                    ]
                },
                {
                    "type": "QUEST_EXEC_ROLLBACK_QUEST",
                    "param": [
                        "302204"
                    ]
                }
            ],
            "versionBegin": "",
            "versionEnd": ""
        },
        {
            "subId": 302212,
            "mainId": 3022,
            "order": 25,
            "isMpBlock": true,
            "descTextMapHash": 2311864732,
            "finishCond": [
                {
                    "type": "QUEST_CONTENT_COMPLETE_TALK",
                    "param": [
                        302212,
                        0
                    ]
                }
            ],
            "failCond": [
                {
                    "type": "QUEST_CONTENT_LEAVE_SCENE",
                    "param": [
                        51007,
                        0
                    ]
                }
            ],
            "guide": {
                "type": "QUEST_GUIDE_LOCATION",
                "param": [
                    "Q302212_guide",
                    "15"
                ],
                "guideScene": 51007,
                "guideStyle": "QUEST_GUIDE_STYLE_TARGET",
                "guideLayer": "QUEST_GUIDE_LAYER_SCENE"
            },
            "guideHint": {
                "KPOGPNLFAAE": ""
            },
            "isRewind": true,
            "failExec": [
                {
                    "type": "QUEST_EXEC_SET_IS_GAME_TIME_LOCKED",
                    "param": [
                        "0"
                    ]
                },
                {
                    "type": "QUEST_EXEC_UNLOCK_AVATAR_TEAM"
                },
                {
                    "type": "QUEST_EXEC_REMOVE_TRIAL_AVATAR",
                    "param": [
                        "54"
                    ]
                },
                {
                    "type": "QUEST_EXEC_ROLLBACK_QUEST",
                    "param": [
                        "302204"
                    ]
                }
            ],
            "versionBegin": "",
            "versionEnd": ""
        },
        {
            "subId": 302213,
            "mainId": 3022,
            "order": 26,
            "isMpBlock": true,
            "descTextMapHash": 3089112988,
            "finishCond": [
                {
                    "type": "QUEST_CONTENT_COMPLETE_TALK",
                    "param": [
                        302213,
                        0
                    ]
                }
            ],
            "failCond": [
                {
                    "type": "QUEST_CONTENT_LEAVE_SCENE",
                    "param": [
                        51007,
                        0
                    ]
                }
            ],
            "guide": {
                "type": "QUEST_GUIDE_LOCATION",
                "param": [
                    "Q302213_guide",
                    "15"
                ],
                "guideScene": 51007,
                "guideStyle": "QUEST_GUIDE_STYLE_TARGET",
                "guideLayer": "QUEST_GUIDE_LAYER_SCENE"
            },
            "guideHint": {
                "KPOGPNLFAAE": ""
            },
            "isRewind": true,
            "failExec": [
                {
                    "type": "QUEST_EXEC_SET_IS_GAME_TIME_LOCKED",
                    "param": [
                        "0"
                    ]
                },
                {
                    "type": "QUEST_EXEC_UNLOCK_AVATAR_TEAM"
                },
                {
                    "type": "QUEST_EXEC_REMOVE_TRIAL_AVATAR",
                    "param": [
                        "54"
                    ]
                },
                {
                    "type": "QUEST_EXEC_ROLLBACK_QUEST",
                    "param": [
                        "302204"
                    ]
                }
            ],
            "versionBegin": "",
            "versionEnd": ""
        },
        {
            "subId": 302214,
            "mainId": 3022,
            "order": 27,
            "isMpBlock": true,
            "showType": "QUEST_HIDDEN",
            "finishCond": [
                {
                    "type": "QUEST_CONTENT_FINISH_PLOT",
                    "param": [
                        302214,
                        0
                    ]
                }
            ],
            "failCond": [
                {
                    "type": "QUEST_CONTENT_LEAVE_SCENE",
                    "param": [
                        51007,
                        0
                    ]
                }
            ],
            "guide": {},
            "guideHint": {
                "KPOGPNLFAAE": ""
            },
            "isRewind": true,
            "finishExec": [
                {
                    "type": "QUEST_EXEC_SET_QUEST_GLOBAL_VAR",
                    "param": [
                        "3022",
                        "3"
                    ]
                },
                {
                    "type": "QUEST_EXEC_UNLOCK_AVATAR_TEAM"
                },
                {
                    "type": "QUEST_EXEC_REMOVE_TRIAL_AVATAR",
                    "param": [
                        "54"
                    ]
                }
            ],
            "failExec": [
                {
                    "type": "QUEST_EXEC_SET_IS_GAME_TIME_LOCKED",
                    "param": [
                        "0"
                    ]
                },
                {
                    "type": "QUEST_EXEC_ROLLBACK_QUEST",
                    "param": [
                        "302204"
                    ]
                },
                {
                    "type": "QUEST_EXEC_REMOVE_TRIAL_AVATAR",
                    "param": [
                        "54"
                    ]
                },
                {
                    "type": "QUEST_EXEC_UNLOCK_AVATAR_TEAM"
                }
            ],
            "versionBegin": "",
            "versionEnd": ""
        },
        {
            "subId": 302215,
            "mainId": 3022,
            "order": 31,
            "isMpBlock": true,
            "descTextMapHash": 653927708,
            "finishCond": [
                {
                    "type": "QUEST_CONTENT_COMPLETE_TALK",
                    "param": [
                        302215,
                        0
                    ]
                },
                {
                    "type": "QUEST_CONTENT_COMPLETE_TALK",
                    "param": [
                        302255,
                        0
                    ]
                }
            ],
            "failCond": [
                {
                    "type": "QUEST_CONTENT_LEAVE_SCENE",
                    "param": [
                        20162,
                        0
                    ]
                }
            ],
            "guide": {
                "type": "QUEST_GUIDE_LOCATION",
                "param": [
                    "Q302221_N1052"
                ],
                "guideScene": 20162,
                "guideStyle": "QUEST_GUIDE_STYLE_TARGET",
                "guideLayer": "QUEST_GUIDE_LAYER_SCENE"
            },
            "guideHint": {
                "KPOGPNLFAAE": ""
            },
            "isRewind": true,
            "finishExec": [
                {
                    "type": "QUEST_EXEC_SET_QUEST_GLOBAL_VAR",
                    "param": [
                        "300012",
                        "1"
                    ]
                },
                {
                    "type": "QUEST_EXEC_SET_QUEST_GLOBAL_VAR",
                    "param": [
                        "3022",
                        "4"
                    ]
                },
                {
                    "type": "QUEST_EXEC_UNLOCK_AVATAR_TEAM"
                }
            ],
            "failExec": [
                {
                    "type": "QUEST_EXEC_UNLOCK_AVATAR_TEAM"
                },
                {
                    "type": "QUEST_EXEC_ROLLBACK_QUEST",
                    "param": [
                        "302204"
                    ]
                },
                {
                    "type": "QUEST_EXEC_REFRESH_GROUP_SUITE",
                    "param": [
                        "20162",
                        "220162005,1"
                    ]
                }
            ],
            "versionBegin": "",
            "versionEnd": ""
        },
        {
            "subId": 302216,
            "mainId": 3022,
            "order": 35,
            "isMpBlock": true,
            "descTextMapHash": 346189652,
            "finishCond": [
                {
                    "type": "QUEST_CONTENT_COMPLETE_TALK",
                    "param": [
                        302216,
                        0
                    ]
                }
            ],
            "failCond": [
                {
                    "type": "QUEST_CONTENT_LEAVE_SCENE",
                    "param": [
                        51007,
                        0
                    ]
                }
            ],
            "guide": {
                "type": "QUEST_GUIDE_LOCATION",
                "param": [
                    "Q302216_N4428"
                ],
                "guideScene": 51007,
                "guideStyle": "QUEST_GUIDE_STYLE_TARGET",
                "guideLayer": "QUEST_GUIDE_LAYER_SCENE"
            },
            "guideHint": {
                "KPOGPNLFAAE": ""
            },
            "isRewind": true,
            "failExec": [
                {
                    "type": "QUEST_EXEC_SET_IS_GAME_TIME_LOCKED",
                    "param": [
                        "0"
                    ]
                },
                {
                    "type": "QUEST_EXEC_ROLLBACK_QUEST",
                    "param": [
                        "302204"
                    ]
                }
            ],
            "versionBegin": "",
            "versionEnd": ""
        },
        {
            "subId": 302217,
            "mainId": 3022,
            "order": 36,
            "isMpBlock": true,
            "descTextMapHash": 4210537284,
            "finishCond": [
                {
                    "type": "QUEST_CONTENT_COMPLETE_TALK",
                    "param": [
                        302217,
                        0
                    ]
                }
            ],
            "failCond": [
                {
                    "type": "QUEST_CONTENT_LEAVE_SCENE",
                    "param": [
                        51007,
                        0
                    ]
                }
            ],
            "guide": {
                "type": "QUEST_GUIDE_LOCATION",
                "param": [
                    "Q302217_N12824",
                    "20"
                ],
                "guideScene": 51007,
                "guideStyle": "QUEST_GUIDE_STYLE_TARGET",
                "guideLayer": "QUEST_GUIDE_LAYER_SCENE"
            },
            "guideHint": {
                "KPOGPNLFAAE": ""
            },
            "isRewind": true,
            "failExec": [
                {
                    "type": "QUEST_EXEC_SET_IS_GAME_TIME_LOCKED",
                    "param": [
                        "0"
                    ]
                },
                {
                    "type": "QUEST_EXEC_ROLLBACK_QUEST",
                    "param": [
                        "302204"
                    ]
                }
            ],
            "versionBegin": "",
            "versionEnd": ""
        },
        {
            "subId": 302218,
            "mainId": 3022,
            "order": 40,
            "isMpBlock": true,
            "descTextMapHash": 1730320788,
            "finishCond": [
                {
                    "type": "QUEST_CONTENT_ENTER_ROOM",
                    "param": [
                        1075,
                        0
                    ]
                },
                {
                    "type": "QUEST_CONTENT_FINISH_PLOT",
                    "param": [
                        302218,
                        0
                    ]
                }
            ],
            "failCond": [
                {
                    "type": "QUEST_CONTENT_ENTER_MY_WORLD",
                    "param": [
                        3,
                        0
                    ]
                }
            ],
            "guide": {},
            "guideHint": {
                "KPOGPNLFAAE": ""
            },
            "isRewind": true,
            "failExec": [
                {
                    "type": "QUEST_EXEC_ROLLBACK_QUEST",
                    "param": [
                        "302204"
                    ]
                }
            ],
            "versionBegin": "",
            "versionEnd": ""
        },
        {
            "subId": 302219,
            "mainId": 3022,
            "order": 39,
            "isMpBlock": true,
            "descTextMapHash": 215321772,
            "finishCond": [
                {
                    "type": "QUEST_CONTENT_COMPLETE_TALK",
                    "param": [
                        302219,
                        0
                    ]
                }
            ],
            "failCond": [
                {
                    "type": "QUEST_CONTENT_LEAVE_SCENE",
                    "param": [
                        20162,
                        0
                    ]
                }
            ],
            "guide": {
                "type": "QUEST_GUIDE_LOCATION",
                "param": [
                    "Q302219_N12660"
                ],
                "guideScene": 20162,
                "guideStyle": "QUEST_GUIDE_STYLE_TARGET",
                "guideLayer": "QUEST_GUIDE_LAYER_SCENE"
            },
            "guideHint": {
                "KPOGPNLFAAE": ""
            },
            "isRewind": true,
            "finishExec": [
                {
                    "type": "QUEST_EXEC_SET_QUEST_GLOBAL_VAR",
                    "param": [
                        "3022",
                        "6"
                    ]
                }
            ],
            "failExec": [
                {
                    "type": "QUEST_EXEC_ROLLBACK_QUEST",
                    "param": [
                        "302204"
                    ]
                }
            ],
            "versionBegin": "",
            "versionEnd": ""
        },
        {
            "subId": 302220,
            "mainId": 3022,
            "order": 41,
            "isMpBlock": true,
            "descTextMapHash": 4009214788,
            "finishCond": [
                {
                    "type": "QUEST_CONTENT_COMPLETE_TALK",
                    "param": [
                        302220,
                        0
                    ]
                }
            ],
            "failCond": [
                {
                    "type": "QUEST_CONTENT_LEAVE_SCENE",
                    "param": [
                        1075,
                        0
                    ]
                }
            ],
            "guide": {
                "type": "QUEST_GUIDE_LOCATION",
                "param": [
                    "Q302222_N1056"
                ],
                "guideScene": 1075,
                "guideStyle": "QUEST_GUIDE_STYLE_TARGET",
                "guideLayer": "QUEST_GUIDE_LAYER_SCENE"
            },
            "guideHint": {
                "KPOGPNLFAAE": ""
            },
            "isRewind": true,
            "finishExec": [
                {
                    "type": "QUEST_EXEC_SET_QUEST_GLOBAL_VAR",
                    "param": [
                        "3022",
                        "7"
                    ]
                }
            ],
            "failExec": [
                {
                    "type": "QUEST_EXEC_ROLLBACK_QUEST",
                    "param": [
                        "302204"
                    ]
                }
            ],
            "versionBegin": "",
            "versionEnd": ""
        },
        {
            "subId": 302221,
            "mainId": 3022,
            "order": 43,
            "isMpBlock": true,
            "descTextMapHash": 1900179484,
            "finishCond": [
                {
                    "type": "QUEST_CONTENT_COMPLETE_TALK",
                    "param": [
                        302221,
                        0
                    ]
                }
            ],
            "failCond": [
                {
                    "type": "QUEST_CONTENT_LEAVE_SCENE",
                    "param": [
                        20162,
                        0
                    ]
                }
            ],
            "guide": {
                "type": "QUEST_GUIDE_LOCATION",
                "param": [
                    "Q302221_N1052"
                ],
                "guideScene": 20162,
                "guideStyle": "QUEST_GUIDE_STYLE_TARGET",
                "guideLayer": "QUEST_GUIDE_LAYER_SCENE"
            },
            "guideHint": {
                "KPOGPNLFAAE": ""
            },
            "isRewind": true,
            "finishExec": [
                {
                    "type": "QUEST_EXEC_SET_QUEST_GLOBAL_VAR",
                    "param": [
                        "3022",
                        "8"
                    ]
                },
                {
                    "type": "QUEST_EXEC_UNLOCK_AVATAR_TEAM"
                }
            ],
            "failExec": [
                {
                    "type": "QUEST_EXEC_UNLOCK_AVATAR_TEAM"
                },
                {
                    "type": "QUEST_EXEC_ROLLBACK_QUEST",
                    "param": [
                        "302204"
                    ]
                }
            ],
            "versionBegin": "",
            "versionEnd": ""
        },
        {
            "subId": 302222,
            "mainId": 3022,
            "order": 46,
            "descTextMapHash": 316625580,
            "finishCond": [
                {
                    "type": "QUEST_CONTENT_ENTER_ROOM",
                    "param": [
                        1075,
                        0
                    ]
                }
            ],
            "guide": {
                "type": "QUEST_GUIDE_LOCATION",
                "param": [
                    "Q302222_N10000005"
                ],
                "guideScene": 1075,
                "guideStyle": "QUEST_GUIDE_STYLE_TARGET",
                "guideLayer": "QUEST_GUIDE_LAYER_SCENE"
            },
            "guideHint": {
                "KPOGPNLFAAE": ""
            },
            "isRewind": true,
            "versionBegin": "",
            "versionEnd": ""
        },
        {
            "subId": 302223,
            "mainId": 3022,
            "order": 47,
            "descTextMapHash": 3536162812,
            "finishCond": [
                {
                    "type": "QUEST_CONTENT_COMPLETE_TALK",
                    "param": [
                        302223,
                        0
                    ]
                }
            ],
            "guide": {
                "type": "QUEST_GUIDE_LOCATION",
                "param": [
                    "Q302222_N1056"
                ],
                "guideScene": 1075,
                "guideStyle": "QUEST_GUIDE_STYLE_TARGET",
                "guideLayer": "QUEST_GUIDE_LAYER_SCENE"
            },
            "guideHint": {
                "KPOGPNLFAAE": ""
            },
            "isRewind": true,
            "finishExec": [
                {
                    "type": "QUEST_EXEC_SET_GAME_TIME",
                    "param": [
                        "15"
                    ]
                }
            ],
            "versionBegin": "",
            "versionEnd": ""
        },
        {
            "subId": 302224,
            "mainId": 3022,
            "order": 37,
            "isMpBlock": true,
            "descTextMapHash": 2390595948,
            "finishCond": [
                {
                    "type": "QUEST_CONTENT_COMPLETE_TALK",
                    "param": [
                        302224,
                        0
                    ]
                }
            ],
            "failCond": [
                {
                    "type": "QUEST_CONTENT_LEAVE_SCENE",
                    "param": [
                        51007,
                        0
                    ]
                }
            ],
            "guide": {
                "type": "QUEST_GUIDE_LOCATION",
                "param": [
                    "Q302224_guide",
                    "20"
                ],
                "guideScene": 51007,
                "guideStyle": "QUEST_GUIDE_STYLE_TARGET",
                "guideLayer": "QUEST_GUIDE_LAYER_SCENE"
            },
            "guideHint": {
                "KPOGPNLFAAE": ""
            },
            "isRewind": true,
            "finishExec": [
                {
                    "type": "QUEST_EXEC_SET_IS_GAME_TIME_LOCKED",
                    "param": [
                        "0"
                    ]
                },
                {
                    "type": "QUEST_EXEC_SET_QUEST_GLOBAL_VAR",
                    "param": [
                        "3022",
                        "5"
                    ]
                }
            ],
            "failExec": [
                {
                    "type": "QUEST_EXEC_SET_IS_GAME_TIME_LOCKED",
                    "param": [
                        "0"
                    ]
                },
                {
                    "type": "QUEST_EXEC_ROLLBACK_QUEST",
                    "param": [
                        "302204"
                    ]
                }
            ],
            "versionBegin": "",
            "versionEnd": ""
        },
        {
            "subId": 302225,
            "mainId": 3022,
            "order": 5,
            "isMpBlock": true,
            "showType": "QUEST_HIDDEN",
            "finishCond": [
                {
                    "type": "QUEST_CONTENT_ENTER_DUNGEON",
                    "param": [
                        1162,
                        678
                    ]
                },
                {
                    "type": "QUEST_CONTENT_ENTER_DUNGEON",
                    "param": [
                        8001,
                        680
                    ]
                },
                {
                    "type": "QUEST_CONTENT_ENTER_ROOM",
                    "param": [
                        1075,
                        0
                    ]
                }
            ],
            "guide": {},
            "guideHint": {
                "KPOGPNLFAAE": ""
            },
            "versionBegin": "",
            "versionEnd": ""
        },
        {
            "subId": 302226,
            "mainId": 3022,
            "order": 23,
            "isMpBlock": true,
            "descTextMapHash": 3393847164,
            "finishCond": [
                {
                    "type": "QUEST_CONTENT_ENTER_DUNGEON",
                    "param": [
                        8001,
                        680
                    ]
                },
                {
                    "type": "QUEST_CONTENT_FINISH_PLOT",
                    "param": [
                        302226,
                        0
                    ]
                }
            ],
            "failCond": [
                {
                    "type": "QUEST_CONTENT_ENTER_MY_WORLD",
                    "param": [
                        3,
                        0
                    ]
                }
            ],
            "guide": {},
            "guideHint": {
                "KPOGPNLFAAE": ""
            },
            "isRewind": true,
            "failExec": [
                {
                    "type": "QUEST_EXEC_ROLLBACK_QUEST",
                    "param": [
                        "302204"
                    ]
                },
                {
                    "type": "QUEST_EXEC_UNLOCK_AVATAR_TEAM"
                },
                {
                    "type": "QUEST_EXEC_REMOVE_TRIAL_AVATAR",
                    "param": [
                        "54"
                    ]
                }
            ],
            "versionBegin": "",
            "versionEnd": ""
        },
        {
            "subId": 302227,
            "mainId": 3022,
            "order": 30,
            "isMpBlock": true,
            "descTextMapHash": 1351250948,
            "finishCond": [
                {
                    "type": "QUEST_CONTENT_ENTER_DUNGEON",
                    "param": [
                        1162,
                        678
                    ]
                },
                {
                    "type": "QUEST_CONTENT_FINISH_PLOT",
                    "param": [
                        302227,
                        0
                    ]
                }
            ],
            "failCond": [
                {
                    "type": "QUEST_CONTENT_ENTER_MY_WORLD",
                    "param": [
                        3,
                        0
                    ]
                }
            ],
            "guide": {},
            "guideHint": {
                "KPOGPNLFAAE": ""
            },
            "isRewind": true,
            "failExec": [
                {
                    "type": "QUEST_EXEC_UNLOCK_AVATAR_TEAM"
                },
                {
                    "type": "QUEST_EXEC_ROLLBACK_QUEST",
                    "param": [
                        "302204"
                    ]
                }
            ],
            "versionBegin": "",
            "versionEnd": ""
        },
        {
            "subId": 302228,
            "mainId": 3022,
            "order": 34,
            "isMpBlock": true,
            "descTextMapHash": 3081333420,
            "finishCond": [
                {
                    "type": "QUEST_CONTENT_ENTER_DUNGEON",
                    "param": [
                        8001,
                        680
                    ]
                },
                {
                    "type": "QUEST_CONTENT_FINISH_PLOT",
                    "param": [
                        302228,
                        0
                    ]
                }
            ],
            "failCond": [
                {
                    "type": "QUEST_CONTENT_ENTER_MY_WORLD",
                    "param": [
                        3,
                        0
                    ]
                }
            ],
            "guide": {},
            "guideHint": {
                "KPOGPNLFAAE": ""
            },
            "isRewind": true,
            "failExec": [
                {
                    "type": "QUEST_EXEC_ROLLBACK_QUEST",
                    "param": [
                        "302204"
                    ]
                }
            ],
            "versionBegin": "",
            "versionEnd": ""
        },
        {
            "subId": 302229,
            "mainId": 3022,
            "order": 38,
            "isMpBlock": true,
            "descTextMapHash": 4098843268,
            "finishCond": [
                {
                    "type": "QUEST_CONTENT_ENTER_DUNGEON",
                    "param": [
                        1162,
                        678
                    ]
                },
                {
                    "type": "QUEST_CONTENT_FINISH_PLOT",
                    "param": [
                        302229,
                        0
                    ]
                }
            ],
            "failCond": [
                {
                    "type": "QUEST_CONTENT_ENTER_MY_WORLD",
                    "param": [
                        3,
                        0
                    ]
                }
            ],
            "guide": {},
            "guideHint": {
                "KPOGPNLFAAE": ""
            },
            "isRewind": true,
            "failExec": [
                {
                    "type": "QUEST_EXEC_ROLLBACK_QUEST",
                    "param": [
                        "302204"
                    ]
                }
            ],
            "versionBegin": "",
            "versionEnd": ""
        },
        {
            "subId": 302230,
            "mainId": 3022,
            "order": 42,
            "isMpBlock": true,
            "descTextMapHash": 3466310036,
            "finishCond": [
                {
                    "type": "QUEST_CONTENT_ENTER_DUNGEON",
                    "param": [
                        1162,
                        678
                    ]
                },
                {
                    "type": "QUEST_CONTENT_FINISH_PLOT",
                    "param": [
                        302230,
                        0
                    ]
                }
            ],
            "failCond": [
                {
                    "type": "QUEST_CONTENT_ENTER_MY_WORLD",
                    "param": [
                        3,
                        0
                    ]
                }
            ],
            "guide": {},
            "guideHint": {
                "KPOGPNLFAAE": ""
            },
            "isRewind": true,
            "failExec": [
                {
                    "type": "QUEST_EXEC_UNLOCK_AVATAR_TEAM"
                },
                {
                    "type": "QUEST_EXEC_ROLLBACK_QUEST",
                    "param": [
                        "302204"
                    ]
                }
            ],
            "versionBegin": "",
            "versionEnd": ""
        },
        {
            "subId": 302231,
            "mainId": 3022,
            "order": 15,
            "descTextMapHash": 2905323188,
            "showType": "QUEST_HIDDEN",
            "finishCond": [
                {
                    "type": "QUEST_CONTENT_LUA_NOTIFY",
                    "param": [
                        0,
                        0
                    ],
                    "count": 1
                }
            ],
            "failCond": [
                {
                    "type": "QUEST_CONTENT_LUA_NOTIFY",
                    "param": [
                        0,
                        0
                    ],
                    "count": 1
                },
                {
                    "type": "QUEST_CONTENT_LEAVE_SCENE",
                    "param": [
                        20162,
                        0
                    ]
                }
            ],
            "guide": {},
            "guideHint": {
                "KPOGPNLFAAE": ""
            },
            "versionBegin": "",
            "versionEnd": ""
        },
        {
            "subId": 302232,
            "mainId": 3022,
            "order": 16,
            "descTextMapHash": 3659360348,
            "showType": "QUEST_HIDDEN",
            "finishCond": [
                {
                    "type": "QUEST_CONTENT_LUA_NOTIFY",
                    "param": [
                        0,
                        0
                    ],
                    "count": 1
                }
            ],
            "failCond": [
                {
                    "type": "QUEST_CONTENT_LUA_NOTIFY",
                    "param": [
                        0,
                        0
                    ],
                    "count": 1
                },
                {
                    "type": "QUEST_CONTENT_LEAVE_SCENE",
                    "param": [
                        20162,
                        0
                    ]
                }
            ],
            "guide": {},
            "guideHint": {
                "KPOGPNLFAAE": ""
            },
            "versionBegin": "",
            "versionEnd": ""
        },
        {
            "subId": 302233,
            "mainId": 3022,
            "order": 9,
            "isMpBlock": true,
            "descTextMapHash": 4007957308,
            "finishCond": [
                {
                    "type": "QUEST_CONTENT_FINISH_PLOT",
                    "param": [
                        302233,
                        0
                    ]
                },
                {
                    "type": "QUEST_CONTENT_ENTER_DUNGEON",
                    "param": [
                        1162,
                        678
                    ]
                }
            ],
            "failCond": [
                {
                    "type": "QUEST_CONTENT_ENTER_MY_WORLD",
                    "param": [
                        3,
                        0
                    ]
                }
            ],
            "guide": {
                "type": "QUEST_GUIDE_LOCATION",
                "param": [
                    "Q302208_N10000005"
                ],
                "guideScene": 20162,
                "guideStyle": "QUEST_GUIDE_STYLE_TARGET",
                "guideLayer": "QUEST_GUIDE_LAYER_SCENE"
            },
            "guideHint": {
                "KPOGPNLFAAE": ""
            },
            "isRewind": true,
            "failExec": [
                {
                    "type": "QUEST_EXEC_UNLOCK_AVATAR_TEAM"
                },
                {
                    "type": "QUEST_EXEC_ROLLBACK_QUEST",
                    "param": [
                        "302204"
                    ]
                }
            ],
            "versionBegin": "",
            "versionEnd": ""
        },
        {
            "subId": 302234,
            "mainId": 3022,
            "order": 44,
            "showType": "QUEST_HIDDEN",
            "finishCond": [
                {
                    "type": "QUEST_CONTENT_FINISH_PLOT",
                    "param": [
                        302234,
                        0
                    ]
                }
            ],
            "guide": {},
            "guideHint": {
                "KPOGPNLFAAE": ""
            },
            "finishExec": [
                {
                    "type": "QUEST_EXEC_NOTIFY_GROUP_LUA",
                    "param": [
                        "20162",
                        "220162003"
                    ]
                }
            ],
            "versionBegin": "",
            "versionEnd": ""
        },
        {
            "subId": 302235,
            "mainId": 3022,
            "order": 19,
            "showType": "QUEST_HIDDEN",
            "finishCond": [
                {
                    "type": "QUEST_CONTENT_FINISH_PLOT",
                    "param": [
                        302235,
                        0
                    ]
                }
            ],
            "guide": {},
            "guideHint": {
                "KPOGPNLFAAE": ""
            },
            "finishExec": [
                {
                    "type": "QUEST_EXEC_NOTIFY_GROUP_LUA",
                    "param": [
                        "20162",
                        "220162004"
                    ]
                }
            ],
            "versionBegin": "",
            "versionEnd": ""
        },
        {
            "subId": 302236,
            "mainId": 3022,
            "order": 28,
            "showType": "QUEST_HIDDEN",
            "finishCond": [
                {
                    "type": "QUEST_CONTENT_FINISH_PLOT",
                    "param": [
                        302214,
                        0
                    ]
                }
            ],
            "failCond": [
                {
                    "type": "QUEST_CONTENT_LEAVE_SCENE_RANGE",
                    "param": [
                        51007,
                        70
                    ]
                }
            ],
            "guide": {},
            "guideHint": {
                "KPOGPNLFAAE": ""
            },
            "finishExec": [
                {
                    "type": "QUEST_EXEC_SET_IS_GAME_TIME_LOCKED",
                    "param": [
                        "0"
                    ]
                }
            ],
            "failExec": [
                {
                    "type": "QUEST_EXEC_SET_IS_GAME_TIME_LOCKED",
                    "param": [
                        "0"
                    ]
                }
            ],
            "versionBegin": "",
            "versionEnd": ""
        },
        {
            "subId": 302237,
            "mainId": 3022,
            "order": 11,
            "showType": "QUEST_HIDDEN",
            "finishCond": [
                {
                    "type": "QUEST_CONTENT_COMPLETE_TALK",
                    "param": [
                        302208,
                        0
                    ]
                }
            ],
            "guide": {},
            "guideHint": {
                "KPOGPNLFAAE": ""
            },
            "finishExec": [
                {
                    "type": "QUEST_EXEC_REFRESH_GROUP_SUITE",
                    "param": [
                        "20162",
                        "220162005,1"
                    ]
                }
            ],
            "versionBegin": "",
            "versionEnd": ""
        },
        {
            "subId": 302238,
            "mainId": 3022,
            "order": 32,
            "showType": "QUEST_HIDDEN",
            "finishCond": [
                {
                    "type": "QUEST_CONTENT_COMPLETE_TALK",
                    "param": [
                        302215,
                        0
                    ]
                }
            ],
            "guide": {},
            "guideHint": {
                "KPOGPNLFAAE": ""
            },
            "finishExec": [
                {
                    "type": "QUEST_EXEC_REFRESH_GROUP_SUITE",
                    "param": [
                        "20162",
                        "220162005,1"
                    ]
                }
            ],
            "versionBegin": "",
            "versionEnd": ""
        },
        {
            "subId": 302239,
            "mainId": 3022,
            "order": 20,
            "showType": "QUEST_HIDDEN",
            "finishCond": [
                {
                    "type": "QUEST_CONTENT_COMPLETE_TALK",
                    "param": [
                        302210,
                        0
                    ]
                }
            ],
            "guide": {},
            "guideHint": {
                "KPOGPNLFAAE": ""
            },
            "finishExec": [
                {
                    "type": "QUEST_EXEC_REFRESH_GROUP_SUITE",
                    "param": [
                        "20162",
                        "220162006,1"
                    ]
                }
            ],
            "versionBegin": "",
            "versionEnd": ""
        },
        {
            "subId": 302240,
            "mainId": 3022,
            "order": 45,
            "showType": "QUEST_HIDDEN",
            "finishCond": [
                {
                    "type": "QUEST_CONTENT_QUEST_STATE_EQUAL",
                    "param": [
                        302221,
                        3
                    ]
                }
            ],
            "guide": {},
            "guideHint": {
                "KPOGPNLFAAE": ""
            },
            "finishExec": [
                {
                    "type": "QUEST_EXEC_SET_GAME_TIME",
                    "param": [
                        "14"
                    ]
                },
                {
                    "type": "QUEST_EXEC_UNLOCK_POINT",
                    "param": [
                        "3",
                        "579,581"
                    ]
                }
            ],
            "versionBegin": "",
            "versionEnd": ""
        },
        {
            "subId": 302241,
            "mainId": 3022,
            "order": 49,
            "isMpBlock": true,
            "descTextMapHash": 2117998388,
            "finishCond": [
                {
                    "type": "QUEST_CONTENT_ENTER_MY_WORLD",
                    "param": [
                        3,
                        0
                    ]
                },
                {
                    "type": "QUEST_CONTENT_FINISH_PLOT",
                    "param": [
                        302241,
                        0
                    ]
                }
            ],
            "guide": {
                "type": "QUEST_GUIDE_LOCATION",
                "param": [
                    "Q302226_guide"
                ],
                "guideScene": 3,
                "guideStyle": "QUEST_GUIDE_STYLE_POINT",
                "guideLayer": "QUEST_GUIDE_LAYER_SCENE"
            },
            "guideHint": {
                "KPOGPNLFAAE": ""
            },
            "finishParent": true,
            "isRewind": true,
            "finishExec": [
                {
                    "type": "QUEST_EXEC_SET_GAME_TIME",
                    "param": [
                        "15"
                    ]
                }
            ],
            "versionBegin": "",
            "versionEnd": ""
        },
        {
            "subId": 302242,
            "mainId": 3022,
            "order": 48,
            "showType": "QUEST_HIDDEN",
            "finishCond": [
                {
                    "type": "QUEST_CONTENT_FINISH_PLOT",
                    "param": [
                        302242,
                        0
                    ]
                },
                {
                    "type": "QUEST_CONTENT_QUEST_STATE_EQUAL",
                    "param": [
                        302223,
                        3
                    ]
                }
            ],
            "guide": {},
            "guideHint": {
                "KPOGPNLFAAE": ""
            },
            "finishExec": [
                {
                    "type": "QUEST_EXEC_DEL_SCENE_TAG",
                    "param": [
                        "1075",
                        "1209"
                    ]
                },
                {
                    "type": "QUEST_EXEC_ADD_SCENE_TAG",
                    "param": [
                        "1075",
                        "1210"
                    ]
                }
            ],
            "versionBegin": "",
            "versionEnd": ""
        },
        {
            "subId": 302243,
            "mainId": 3022,
            "order": 12,
            "showType": "QUEST_HIDDEN",
            "finishCond": [
                {
                    "type": "QUEST_CONTENT_FINISH_PLOT",
                    "param": [
                        302243,
                        0
                    ]
                }
            ],
            "guide": {},
            "guideHint": {
                "KPOGPNLFAAE": ""
            },
            "finishExec": [
                {
                    "type": "QUEST_EXEC_SET_QUEST_GLOBAL_VAR",
                    "param": [
                        "300012",
                        "0"
                    ]
                }
            ],
            "versionBegin": "",
            "versionEnd": ""
        },
        {
            "subId": 302244,
            "mainId": 3022,
            "order": 13,
            "showType": "QUEST_HIDDEN",
            "finishCond": [
                {
                    "type": "QUEST_CONTENT_FINISH_PLOT",
                    "param": [
                        302244,
                        0
                    ]
                }
            ],
            "guide": {},
            "guideHint": {
                "KPOGPNLFAAE": ""
            },
            "finishExec": [
                {
                    "type": "QUEST_EXEC_SET_QUEST_GLOBAL_VAR",
                    "param": [
                        "300012",
                        "1"
                    ]
                }
            ],
            "versionBegin": "",
            "versionEnd": ""
        },
        {
            "subId": 302245,
            "mainId": 3022,
            "order": 33,
            "showType": "QUEST_HIDDEN",
            "finishCond": [
                {
                    "type": "QUEST_CONTENT_FINISH_PLOT",
                    "param": [
                        302245,
                        0
                    ]
                }
            ],
            "guide": {},
            "guideHint": {
                "KPOGPNLFAAE": ""
            },
            "finishExec": [
                {
                    "type": "QUEST_EXEC_SET_QUEST_GLOBAL_VAR",
                    "param": [
                        "300012",
                        "0"
                    ]
                }
            ],
            "versionBegin": "",
            "versionEnd": ""
        },
        {
            "subId": 302246,
            "mainId": 3022,
            "order": 29,
            "showType": "QUEST_HIDDEN",
            "finishCond": [
                {
                    "type": "QUEST_CONTENT_ENTER_MY_WORLD",
                    "param": [
                        3,
                        0
                    ]
                }
            ],
            "guide": {},
            "guideHint": {
                "KPOGPNLFAAE": ""
            },
            "versionBegin": "",
            "versionEnd": ""
        },
        {
            "subId": 302247,
            "mainId": 3022,
            "order": 21,
            "showType": "QUEST_HIDDEN",
            "finishCond": [
                {
                    "type": "QUEST_CONTENT_FINISH_PLOT",
                    "param": [
                        302247,
                        0
                    ]
                }
            ],
            "guide": {},
            "guideHint": {
                "KPOGPNLFAAE": ""
            },
            "finishExec": [
                {
                    "type": "QUEST_EXEC_SET_QUEST_GLOBAL_VAR",
                    "param": [
                        "300012",
                        "0"
                    ]
                }
            ],
            "versionBegin": "",
            "versionEnd": ""
        },
        {
            "subId": 302248,
            "mainId": 3022,
            "order": 22,
            "showType": "QUEST_HIDDEN",
            "finishCond": [
                {
                    "type": "QUEST_CONTENT_FINISH_PLOT",
                    "param": [
                        302248,
                        0
                    ]
                }
            ],
            "guide": {},
            "guideHint": {
                "KPOGPNLFAAE": ""
            },
            "finishExec": [
                {
                    "type": "QUEST_EXEC_SET_QUEST_GLOBAL_VAR",
                    "param": [
                        "300012",
                        "1"
                    ]
                }
            ],
            "versionBegin": "",
            "versionEnd": ""
        },
        {
            "subId": 302249,
            "mainId": 3022,
            "order": 17,
            "descTextMapHash": 3078487636,
            "showType": "QUEST_HIDDEN",
            "finishCond": [
                {
                    "type": "QUEST_CONTENT_LUA_NOTIFY",
                    "param": [
                        0,
                        0
                    ],
                    "count": 1
                }
            ],
            "failCond": [
                {
                    "type": "QUEST_CONTENT_LUA_NOTIFY",
                    "param": [
                        0,
                        0
                    ],
                    "count": 1
                },
                {
                    "type": "QUEST_CONTENT_LEAVE_SCENE",
                    "param": [
                        20162,
                        0
                    ]
                }
            ],
            "guide": {},
            "guideHint": {
                "KPOGPNLFAAE": ""
            },
            "versionBegin": "",
            "versionEnd": ""
        }
    ],
    "talks": [
        {
            "id": 302202,
            "beginWay": "TALK_BEGIN_AUTO",
            "beginCond": [
                {
                    "type": "QUEST_COND_STATE_EQUAL",
                    "param": [
                        "302202",
                        "2"
                    ]
                }
            ],
            "priority": 5,
            "initDialog": 30220201,
            "npcId": [
                1053
            ],
            "performCfg": "QuestDialogue/AQ/Sumeru3_3022/Q302202",
            "heroTalk": "TALK_HERO_MAIN",
            "questId": 3022,
            "assetIndex": 11532084570763512553,
            "prePerformCfg": ""
        },
        {
            "id": 302203,
            "beginWay": "TALK_BEGIN_MANUAL",
            "beginCond": [
                {
                    "type": "QUEST_COND_STATE_EQUAL",
                    "param": [
                        "302203",
                        "2"
                    ]
                }
            ],
            "priority": 5,
            "initDialog": 30220301,
            "npcId": [
                12808
            ],
            "performCfg": "QuestDialogue/AQ/Sumeru3_3022/Q302203",
            "heroTalk": "TALK_HERO_MAIN",
            "questId": 3022,
            "assetIndex": 15370436928429737936,
            "prePerformCfg": "",
            "lockGameTime": true
        },
        {
            "id": 302205,
            "beginWay": "TALK_BEGIN_MANUAL",
            "beginCond": [
                {
                    "type": "QUEST_COND_STATE_EQUAL",
                    "param": [
                        "302205",
                        "2"
                    ]
                }
            ],
            "priority": 5,
            "initDialog": 30220501,
            "npcId": [
                1053
            ],
            "performCfg": "QuestDialogue/AQ/Sumeru3_3022/Q302205",
            "heroTalk": "TALK_HERO_MAIN",
            "questId": 3022,
            "assetIndex": 12027403296015404461,
            "prePerformCfg": "",
            "lockGameTime": true
        },
        {
            "id": 302206,
            "beginWay": "TALK_BEGIN_MANUAL",
            "beginCond": [
                {
                    "type": "QUEST_COND_STATE_EQUAL",
                    "param": [
                        "302206",
                        "2"
                    ]
                }
            ],
            "priority": 5,
            "initDialog": 30220601,
            "npcId": [
                12837
            ],
            "performCfg": "QuestDialogue/AQ/Sumeru3_3022/Q302206",
            "heroTalk": "TALK_HERO_MAIN",
            "questId": 3022,
            "assetIndex": 9708136713334127319,
            "prePerformCfg": ""
        },
        {
            "id": 302208,
            "beginWay": "TALK_BEGIN_MANUAL",
            "beginCond": [
                {
                    "type": "QUEST_COND_STATE_EQUAL",
                    "param": [
                        "302208",
                        "2"
                    ]
                }
            ],
            "priority": 5,
            "initDialog": 30220801,
            "npcId": [
                12837
            ],
            "performCfg": "QuestDialogue/AQ/Sumeru3_3022/Q302208",
            "heroTalk": "TALK_HERO_MAIN",
            "questId": 3022,
            "assetIndex": 14933907129938130533,
            "prePerformCfg": ""
        },
        {
            "id": 302210,
            "beginWay": "TALK_BEGIN_MANUAL",
            "beginCondComb": "LOGIC_AND",
            "beginCond": [
                {
                    "type": "QUEST_COND_STATE_EQUAL",
                    "param": [
                        "302210",
                        "2"
                    ]
                },
                {
                    "type": "QUEST_COND_PLAYER_CHOOSE_MALE",
                    "param": [
                        "1"
                    ]
                }
            ],
            "priority": 5,
            "initDialog": 30221001,
            "npcId": [
                12837
            ],
            "performCfg": "QuestDialogue/AQ/Sumeru3_3022/Q302210",
            "heroTalk": "TALK_HERO_MAIN",
            "questId": 3022,
            "assetIndex": 2187541602692691037,
            "prePerformCfg": ""
        },
        {
            "id": 302211,
            "beginWay": "TALK_BEGIN_MANUAL",
            "beginCond": [
                {
                    "type": "QUEST_COND_STATE_EQUAL",
                    "param": [
                        "302211",
                        "2"
                    ]
                }
            ],
            "priority": 5,
            "initDialog": 30221101,
            "npcId": [
                12837
            ],
            "performCfg": "QuestDialogue/AQ/Sumeru3_3022/Q302211",
            "heroTalk": "TALK_HERO_MAIN",
            "questId": 3022,
            "assetIndex": 9936588170299353550,
            "prePerformCfg": ""
        },
        {
            "id": 302212,
            "beginWay": "TALK_BEGIN_MANUAL",
            "beginCond": [
                {
                    "type": "QUEST_COND_STATE_EQUAL",
                    "param": [
                        "302212",
                        "2"
                    ]
                }
            ],
            "priority": 5,
            "initDialog": 30221201,
            "npcId": [
                4057,
                4059
            ],
            "performCfg": "QuestDialogue/AQ/Sumeru3_3022/Q302212",
            "heroTalk": "TALK_HERO_MAIN",
            "questId": 3022,
            "assetIndex": 9668360930148525987,
            "prePerformCfg": ""
        },
        {
            "id": 302213,
            "beginWay": "TALK_BEGIN_MANUAL",
            "beginCond": [
                {
                    "type": "QUEST_COND_STATE_EQUAL",
                    "param": [
                        "302213",
                        "2"
                    ]
                }
            ],
            "priority": 5,
            "initDialog": 30221301,
            "npcId": [
                12653
            ],
            "performCfg": "QuestDialogue/AQ/Sumeru3_3022/Q302213",
            "heroTalk": "TALK_HERO_MAIN",
            "questId": 3022,
            "assetIndex": 8263600752956676549,
            "prePerformCfg": ""
        },
        {
            "id": 302215,
            "beginWay": "TALK_BEGIN_MANUAL",
            "beginCondComb": "LOGIC_AND",
            "beginCond": [
                {
                    "type": "QUEST_COND_STATE_EQUAL",
                    "param": [
                        "302215",
                        "2"
                    ]
                },
                {
                    "type": "QUEST_COND_PLAYER_CHOOSE_MALE",
                    "param": [
                        "1"
                    ]
                }
            ],
            "priority": 5,
            "initDialog": 30221501,
            "npcId": [
                12837
            ],
            "performCfg": "QuestDialogue/AQ/Sumeru3_3022/Q302215",
            "heroTalk": "TALK_HERO_MAIN",
            "questId": 3022,
            "assetIndex": 4377701234410481670,
            "prePerformCfg": ""
        },
        {
            "id": 302216,
            "beginWay": "TALK_BEGIN_MANUAL",
            "beginCond": [
                {
                    "type": "QUEST_COND_STATE_EQUAL",
                    "param": [
                        "302216",
                        "2"
                    ]
                }
            ],
            "priority": 5,
            "initDialog": 30221601,
            "npcId": [
                12837
            ],
            "performCfg": "QuestDialogue/AQ/Sumeru3_3022/Q302216",
            "heroTalk": "TALK_HERO_MAIN",
            "questId": 3022,
            "assetIndex": 9019513502918760838,
            "prePerformCfg": ""
        },
        {
            "id": 302217,
            "beginWay": "TALK_BEGIN_MANUAL",
            "beginCond": [
                {
                    "type": "QUEST_COND_STATE_EQUAL",
                    "param": [
                        "302217",
                        "2"
                    ]
                }
            ],
            "priority": 5,
            "initDialog": 30221701,
            "npcId": [
                12837
            ],
            "performCfg": "QuestDialogue/AQ/Sumeru3_3022/Q302217",
            "heroTalk": "TALK_HERO_MAIN",
            "questId": 3022,
            "assetIndex": 15031213629321983025,
            "prePerformCfg": ""
        },
        {
            "id": 302219,
            "beginWay": "TALK_BEGIN_MANUAL",
            "beginCond": [
                {
                    "type": "QUEST_COND_STATE_EQUAL",
                    "param": [
                        "302219",
                        "2"
                    ]
                }
            ],
            "priority": 5,
            "initDialog": 30221901,
            "npcId": [
                12837
            ],
            "performCfg": "QuestDialogue/AQ/Sumeru3_3022/Q302219",
            "heroTalk": "TALK_HERO_MAIN",
            "questId": 3022,
            "assetIndex": 10240865874655839444,
            "prePerformCfg": ""
        },
        {
            "id": 302220,
            "beginWay": "TALK_BEGIN_MANUAL",
            "beginCond": [
                {
                    "type": "QUEST_COND_STATE_EQUAL",
                    "param": [
                        "302220",
                        "2"
                    ]
                }
            ],
            "priority": 5,
            "initDialog": 30222001,
            "npcId": [
                12837
            ],
            "performCfg": "QuestDialogue/AQ/Sumeru3_3022/Q302220",
            "heroTalk": "TALK_HERO_MAIN",
            "questId": 3022,
            "assetIndex": 3988448491150729015,
            "prePerformCfg": ""
        },
        {
            "id": 302221,
            "beginWay": "TALK_BEGIN_MANUAL",
            "beginCond": [
                {
                    "type": "QUEST_COND_STATE_EQUAL",
                    "param": [
                        "302221",
                        "2"
                    ]
                }
            ],
            "priority": 5,
            "initDialog": 30222101,
            "npcId": [
                12837
            ],
            "performCfg": "QuestDialogue/AQ/Sumeru3_3022/Q302221",
            "heroTalk": "TALK_HERO_MAIN",
            "questId": 3022,
            "assetIndex": 1873874466451925331,
            "prePerformCfg": ""
        },
        {
            "id": 302223,
            "beginWay": "TALK_BEGIN_MANUAL",
            "beginCond": [
                {
                    "type": "QUEST_COND_STATE_EQUAL",
                    "param": [
                        "302223",
                        "2"
                    ]
                }
            ],
            "priority": 5,
            "initDialog": 30222301,
            "npcId": [
                1056
            ],
            "performCfg": "QuestDialogue/AQ/Sumeru3_3022/Q302223",
            "heroTalk": "TALK_HERO_MAIN",
            "questId": 3022,
            "assetIndex": 7493571668920816688,
            "prePerformCfg": "",
            "lockGameTime": true
        },
        {
            "id": 302224,
            "beginWay": "TALK_BEGIN_MANUAL",
            "beginCond": [
                {
                    "type": "QUEST_COND_STATE_EQUAL",
                    "param": [
                        "302224",
                        "2"
                    ]
                }
            ],
            "priority": 5,
            "initDialog": 30222401,
            "npcId": [
                12837
            ],
            "performCfg": "QuestDialogue/AQ/Sumeru3_3022/Q302224",
            "heroTalk": "TALK_HERO_MAIN",
            "questId": 3022,
            "assetIndex": 991479880478781691,
            "prePerformCfg": ""
        },
        {
            "id": 302231,
            "beginWay": "TALK_BEGIN_MANUAL",
            "beginCond": [
                {
                    "type": "QUEST_COND_STATE_EQUAL",
                    "param": [
                        "302204",
                        "2"
                    ]
                }
            ],
            "priority": 5,
            "initDialog": 30223101,
            "npcId": [
                12877,
                12888
            ],
            "performCfg": "QuestDialogue/AQ/Sumeru3_3022/Q302231",
            "heroTalk": "TALK_HERO_MAIN",
            "questId": 3022,
            "assetIndex": 16201904199239070519,
            "prePerformCfg": "",
            "lockGameTime": true
        },
        {
            "id": 302232,
            "beginWay": "TALK_BEGIN_MANUAL",
            "beginCond": [
                {
                    "type": "QUEST_COND_STATE_EQUAL",
                    "param": [
                        "302204",
                        "2"
                    ]
                }
            ],
            "priority": 5,
            "initDialog": 30223201,
            "npcId": [
                12886,
                12887
            ],
            "performCfg": "QuestDialogue/AQ/Sumeru3_3022/Q302232",
            "heroTalk": "TALK_HERO_MAIN",
            "questId": 3022,
            "assetIndex": 13667395620507390302,
            "prePerformCfg": "",
            "lockGameTime": true
        },
        {
            "id": 302233,
            "beginWay": "TALK_BEGIN_MANUAL",
            "beginCond": [
                {
                    "type": "QUEST_COND_STATE_EQUAL",
                    "param": [
                        "302212",
                        "2"
                    ]
                }
            ],
            "priority": 5,
            "initDialog": 30223301,
            "npcId": [
                4060
            ],
            "performCfg": "QuestDialogue/AQ/Sumeru3_3022/Q302233",
            "questId": 3022,
            "assetIndex": 14950569313778263689,
            "prePerformCfg": ""
        },
        {
            "id": 302234,
            "beginWay": "TALK_BEGIN_MANUAL",
            "beginCond": [
                {
                    "type": "QUEST_COND_STATE_EQUAL",
                    "param": [
                        "302213",
                        "2"
                    ]
                }
            ],
            "priority": 5,
            "initDialog": 30223401,
            "npcId": [
                4057,
                4059
            ],
            "performCfg": "QuestDialogue/AQ/Sumeru3_3022/Q302234",
            "questId": 3022,
            "assetIndex": 17511969927781751288,
            "prePerformCfg": ""
        },
        {
            "id": 302235,
            "beginWay": "TALK_BEGIN_MANUAL",
            "beginCondComb": "LOGIC_OR",
            "beginCond": [
                {
                    "type": "QUEST_COND_STATE_EQUAL",
                    "param": [
                        "302222",
                        "2"
                    ]
                },
                {
                    "type": "QUEST_COND_STATE_EQUAL",
                    "param": [
                        "302223",
                        "2"
                    ]
                }
            ],
            "priority": 5,
            "initDialog": 30285101,
            "npcId": [
                12653
            ],
            "performCfg": "QuestDialogue/AQ/Sumeru3_3028/Q302851",
            "heroTalk": "TALK_HERO_MAIN",
            "questId": 3022,
            "assetIndex": 10818931804808279734,
            "prePerformCfg": "",
            "lockGameTime": true
        },
        {
            "id": 302236,
            "beginWay": "TALK_BEGIN_MANUAL",
            "beginCondComb": "LOGIC_OR",
            "beginCond": [
                {
                    "type": "QUEST_COND_STATE_EQUAL",
                    "param": [
                        "302222",
                        "2"
                    ]
                },
                {
                    "type": "QUEST_COND_STATE_EQUAL",
                    "param": [
                        "302223",
                        "2"
                    ]
                },
                {
                    "type": "QUEST_COND_STATE_EQUAL",
                    "param": [
                        "302242",
                        "2"
                    ]
                },
                {
                    "type": "QUEST_COND_STATE_EQUAL",
                    "param": [
                        "302241",
                        "2"
                    ]
                }
            ],
            "priority": 5,
            "initDialog": 30223601,
            "npcId": [
                12809
            ],
            "performCfg": "QuestDialogue/AQ/Sumeru3_3022/Q302236",
            "heroTalk": "TALK_HERO_MAIN",
            "questId": 3022,
            "assetIndex": 9544184209141968928,
            "prePerformCfg": "",
            "lockGameTime": true
        },
        {
            "id": 302250,
            "beginWay": "TALK_BEGIN_MANUAL",
            "beginCondComb": "LOGIC_AND",
            "beginCond": [
                {
                    "type": "QUEST_COND_STATE_EQUAL",
                    "param": [
                        "302210",
                        "2"
                    ]
                },
                {
                    "type": "QUEST_COND_PLAYER_CHOOSE_MALE",
                    "param": [
                        "0"
                    ]
                }
            ],
            "priority": 5,
            "initDialog": 30221001,
            "npcId": [
                12837
            ],
            "performCfg": "QuestDialogue/AQ/Sumeru3_3022/Q302250",
            "heroTalk": "TALK_HERO_MAIN",
            "questId": 3022,
            "assetIndex": 13870618355509206739,
            "prePerformCfg": "",
            "lockGameTime": true
        },
        {
            "id": 302255,
            "beginWay": "TALK_BEGIN_MANUAL",
            "beginCondComb": "LOGIC_AND",
            "beginCond": [
                {
                    "type": "QUEST_COND_STATE_EQUAL",
                    "param": [
                        "302215",
                        "2"
                    ]
                },
                {
                    "type": "QUEST_COND_PLAYER_CHOOSE_MALE",
                    "param": [
                        "0"
                    ]
                }
            ],
            "priority": 5,
            "initDialog": 30221501,
            "npcId": [
                12837
            ],
            "performCfg": "QuestDialogue/AQ/Sumeru3_3022/Q302255",
            "heroTalk": "TALK_HERO_MAIN",
            "questId": 3022,
            "assetIndex": 14162028999506430733,
            "prePerformCfg": ""
        }
    ],
    "preloadLuaList": [
        13455067608433281959,
        13474112471243192554,
        15342223486921073449,
        3128460311440788847,
        9791882447236511253,
        1210050867846333439,
        3412107163294923207,
        17338375643348255401,
        9692205175805536829,
        10795102738814276588,
        11340223585640935303,
        14829010830224790007,
        2308897356507678878,
        6904408115586260693,
        358417576761282956,
        11486180883921545732,
        5383279199736929531,
        3111294407401673651,
        7004470356027328794
    ],
    "AILPOGENMJB": [
        14114153827355570019
    ],
    "freeStyleDic": {
        "1053": [
            1120
        ],
        "12808": [
            1190
        ],
        "12653": [
            1180
        ]
    },
    "dialogList": [
        {
            "id": 30221017,
            "nextDialogs": [
                30221018
            ],
            "talkRole": {
                "type": "TALK_ROLE_NPC",
                "id": "1056"
            },
            "talkContentTextMapHash": 1140390738,
            "talkAssetPath": "",
            "talkAssetPathAlter": "",
            "talkAudioName": "",
            "actionBefore": "",
            "actionWhile": "",
            "actionAfter": "",
            "optionIcon": ""
        },
        {
            "id": 30221018,
            "nextDialogs": [
                30221019
            ],
            "talkRole": {
                "type": "TALK_ROLE_NPC",
                "id": "1056"
            },
            "talkContentTextMapHash": 977823098,
            "talkAssetPath": "",
            "talkAssetPathAlter": "",
            "talkAudioName": "",
            "actionBefore": "",
            "actionWhile": "",
            "actionAfter": "",
            "optionIcon": ""
        },
        {
            "id": 30221019,
            "nextDialogs": [
                30221020
            ],
            "talkRole": {
                "type": "TALK_ROLE_NPC",
                "id": "1056"
            },
            "talkContentTextMapHash": 1518669682,
            "talkAssetPath": "",
            "talkAssetPathAlter": "",
            "talkAudioName": "",
            "actionBefore": "",
            "actionWhile": "",
            "actionAfter": "",
            "optionIcon": ""
        },
        {
            "id": 30221020,
            "nextDialogs": [
                30221021
            ],
            "talkRole": {
                "type": "TALK_ROLE_NPC",
                "id": "1056"
            },
            "talkContentTextMapHash": 162204026,
            "talkAssetPath": "",
            "talkAssetPathAlter": "",
            "talkAudioName": "",
            "actionBefore": "",
            "actionWhile": "",
            "actionAfter": "",
            "optionIcon": ""
        },
        {
            "id": 30221021,
            "nextDialogs": [
                30221022
            ],
            "talkRole": {
                "type": "TALK_ROLE_NPC",
                "id": "1056"
            },
            "talkContentTextMapHash": 4135095570,
            "talkAssetPath": "",
            "talkAssetPathAlter": "",
            "talkAudioName": "",
            "actionBefore": "",
            "actionWhile": "",
            "actionAfter": "",
            "optionIcon": ""
        },
        {
            "id": 30221022,
            "nextDialogs": [
                30221023
            ],
            "talkRole": {
                "type": "TALK_ROLE_NPC",
                "id": "1056"
            },
            "talkContentTextMapHash": 1616725290,
            "talkAssetPath": "",
            "talkAssetPathAlter": "",
            "talkAudioName": "",
            "actionBefore": "",
            "actionWhile": "",
            "actionAfter": "",
            "optionIcon": ""
        },
        {
            "id": 30221023,
            "nextDialogs": [
                30221024
            ],
            "talkRole": {
                "type": "TALK_ROLE_NPC",
                "id": "1056"
            },
            "talkContentTextMapHash": 155089562,
            "talkAssetPath": "",
            "talkAssetPathAlter": "",
            "talkAudioName": "",
            "actionBefore": "",
            "actionWhile": "",
            "actionAfter": "",
            "optionIcon": ""
        },
        {
            "id": 30221024,
            "nextDialogs": [
                30221025
            ],
            "talkRole": {
                "type": "TALK_ROLE_NPC",
                "id": "1056"
            },
            "talkContentTextMapHash": 3711194074,
            "talkAssetPath": "",
            "talkAssetPathAlter": "",
            "talkAudioName": "",
            "actionBefore": "",
            "actionWhile": "",
            "actionAfter": "",
            "optionIcon": ""
        },
        {
            "id": 30221025,
            "nextDialogs": [
                30221026
            ],
            "talkRole": {
                "type": "TALK_ROLE_NPC",
                "id": "1056"
            },
            "talkContentTextMapHash": 4247143202,
            "talkAssetPath": "",
            "talkAssetPathAlter": "",
            "talkAudioName": "",
            "actionBefore": "",
            "actionWhile": "",
            "actionAfter": "",
            "optionIcon": ""
        },
        {
            "id": 30221026,
            "nextDialogs": [
                30221027
            ],
            "talkRole": {
                "type": "TALK_ROLE_NPC",
                "id": "1056"
            },
            "talkContentTextMapHash": 3711169162,
            "talkAssetPath": "",
            "talkAssetPathAlter": "",
            "talkAudioName": "",
            "actionBefore": "",
            "actionWhile": "",
            "actionAfter": "",
            "optionIcon": ""
        },
        {
            "id": 30221033,
            "nextDialogs": [
                30221034
            ],
            "talkRole": {
                "type": "TALK_ROLE_NPC",
                "id": "1056"
            },
            "talkContentTextMapHash": 708814698,
            "talkAssetPath": "",
            "talkAssetPathAlter": "",
            "talkAudioName": "",
            "actionBefore": "",
            "actionWhile": "",
            "actionAfter": "",
            "optionIcon": ""
        },
        {
            "id": 30221034,
            "nextDialogs": [
                30221035
            ],
            "talkRole": {
                "type": "TALK_ROLE_NPC",
                "id": "1056"
            },
            "talkContentTextMapHash": 193451010,
            "talkAssetPath": "",
            "talkAssetPathAlter": "",
            "talkAudioName": "",
            "actionBefore": "",
            "actionWhile": "",
            "actionAfter": "",
            "optionIcon": ""
        },
        {
            "id": 30221035,
            "nextDialogs": [
                30221036
            ],
            "talkRole": {
                "type": "TALK_ROLE_NPC",
                "id": "1056"
            },
            "talkContentTextMapHash": 1067034410,
            "talkAssetPath": "",
            "talkAssetPathAlter": "",
            "talkAudioName": "",
            "actionBefore": "",
            "actionWhile": "",
            "actionAfter": "",
            "optionIcon": ""
        },
        {
            "id": 30221036,
            "nextDialogs": [
                30221037
            ],
            "talkRole": {
                "type": "TALK_ROLE_NPC",
                "id": "1056"
            },
            "talkContentTextMapHash": 1785905650,
            "talkAssetPath": "",
            "talkAssetPathAlter": "",
            "talkAudioName": "",
            "actionBefore": "",
            "actionWhile": "",
            "actionAfter": "",
            "optionIcon": ""
        },
        {
            "id": 30221037,
            "nextDialogs": [
                30221038
            ],
            "talkRole": {
                "type": "TALK_ROLE_NPC",
                "id": "1056"
            },
            "talkContentTextMapHash": 4133023714,
            "talkAssetPath": "",
            "talkAssetPathAlter": "",
            "talkAudioName": "",
            "actionBefore": "",
            "actionWhile": "",
            "actionAfter": "",
            "optionIcon": ""
        },
        {
            "id": 30221038,
            "nextDialogs": [
                30221039
            ],
            "talkRole": {
                "type": "TALK_ROLE_NPC",
                "id": "1056"
            },
            "talkContentTextMapHash": 3938962810,
            "talkAssetPath": "",
            "talkAssetPathAlter": "",
            "talkAudioName": "",
            "actionBefore": "",
            "actionWhile": "",
            "actionAfter": "",
            "optionIcon": ""
        },
        {
            "id": 30221039,
            "nextDialogs": [
                30221040
            ],
            "talkRole": {
                "type": "TALK_ROLE_NPC",
                "id": "1056"
            },
            "talkContentTextMapHash": 1505322466,
            "talkAssetPath": "",
            "talkAssetPathAlter": "",
            "talkAudioName": "",
            "actionBefore": "",
            "actionWhile": "",
            "actionAfter": "",
            "optionIcon": ""
        },
        {
            "id": 30221040,
            "nextDialogs": [
                30221041
            ],
            "talkRole": {
                "type": "TALK_ROLE_NPC",
                "id": "1056"
            },
            "talkContentTextMapHash": 2879995882,
            "talkAssetPath": "",
            "talkAssetPathAlter": "",
            "talkAudioName": "",
            "actionBefore": "",
            "actionWhile": "",
            "actionAfter": "",
            "optionIcon": ""
        },
        {
            "id": 30221041,
            "nextDialogs": [
                30221042
            ],
            "talkRole": {
                "type": "TALK_ROLE_NPC",
                "id": "1056"
            },
            "talkContentTextMapHash": 750763146,
            "talkAssetPath": "",
            "talkAssetPathAlter": "",
            "talkAudioName": "",
            "actionBefore": "",
            "actionWhile": "",
            "actionAfter": "",
            "optionIcon": ""
        },
        {
            "id": 30221042,
            "nextDialogs": [
                30221043
            ],
            "talkRole": {
                "type": "TALK_ROLE_NPC",
                "id": "12826"
            },
            "talkContentTextMapHash": 1819430498,
            "talkRoleNameTextMapHash": 2536903563,
            "talkAssetPath": "",
            "talkAssetPathAlter": "",
            "talkAudioName": "",
            "actionBefore": "",
            "actionWhile": "",
            "actionAfter": "",
            "optionIcon": ""
        },
        {
            "id": 30221043,
            "nextDialogs": [
                30221044
            ],
            "talkRole": {
                "type": "TALK_ROLE_NPC",
                "id": "12826"
            },
            "talkContentTextMapHash": 1393179018,
            "talkRoleNameTextMapHash": 1072019,
            "talkAssetPath": "",
            "talkAssetPathAlter": "",
            "talkAudioName": "",
            "actionBefore": "",
            "actionWhile": "",
            "actionAfter": "",
            "optionIcon": ""
        },
        {
            "id": 30221044,
            "nextDialogs": [
                30221045
            ],
            "talkRole": {
                "type": "TALK_ROLE_NPC",
                "id": "1056"
            },
            "talkContentTextMapHash": 2825361386,
            "talkAssetPath": "",
            "talkAssetPathAlter": "",
            "talkAudioName": "",
            "actionBefore": "",
            "actionWhile": "",
            "actionAfter": "",
            "optionIcon": ""
        },
        {
            "id": 30221045,
            "nextDialogs": [
                30221046
            ],
            "talkRole": {
                "type": "TALK_ROLE_NPC",
                "id": "12826"
            },
            "talkContentTextMapHash": 4005954,
            "talkRoleNameTextMapHash": 755065211,
            "talkAssetPath": "",
            "talkAssetPathAlter": "",
            "talkAudioName": "",
            "actionBefore": "",
            "actionWhile": "",
            "actionAfter": "",
            "optionIcon": ""
        },
        {
            "id": 30221046,
            "nextDialogs": [
                30221047
            ],
            "talkRole": {
                "type": "TALK_ROLE_NPC",
                "id": "1056"
            },
            "talkContentTextMapHash": 2079843274,
            "talkAssetPath": "",
            "talkAssetPathAlter": "",
            "talkAudioName": "",
            "actionBefore": "",
            "actionWhile": "",
            "actionAfter": "",
            "optionIcon": ""
        },
        {
            "id": 30221047,
            "nextDialogs": [
                30221048
            ],
            "talkRole": {
                "type": "TALK_ROLE_NPC",
                "id": "1056"
            },
            "talkContentTextMapHash": 195267274,
            "talkAssetPath": "",
            "talkAssetPathAlter": "",
            "talkAudioName": "",
            "actionBefore": "",
            "actionWhile": "",
            "actionAfter": "",
            "optionIcon": ""
        },
        {
            "id": 30229934,
            "talkRole": {
                "type": "TALK_ROLE_BLACK_SCREEN",
                "id": ""
            },
            "talkContentTextMapHash": 2618254722,
            "talkAssetPath": "",
            "talkAssetPathAlter": "",
            "talkAudioName": "",
            "actionBefore": "",
            "actionWhile": "",
            "actionAfter": "",
            "optionIcon": ""
        },
        {
            "id": 30229935,
            "talkRole": {
                "type": "TALK_ROLE_BLACK_SCREEN",
                "id": ""
            },
            "talkContentTextMapHash": 1883110570,
            "talkAssetPath": "",
            "talkAssetPathAlter": "",
            "talkAudioName": "",
            "actionBefore": "",
            "actionWhile": "",
            "actionAfter": "",
            "optionIcon": ""
        },
        {
            "id": 30229936,
            "talkRole": {
                "type": "TALK_ROLE_BLACK_SCREEN",
                "id": ""
            },
            "talkContentTextMapHash": 3172455042,
            "talkAssetPath": "",
            "talkAssetPathAlter": "",
            "talkAudioName": "",
            "actionBefore": "",
            "actionWhile": "",
            "actionAfter": "",
            "optionIcon": ""
        },
        {
            "id": 30229937,
            "talkRole": {
                "type": "TALK_ROLE_BLACK_SCREEN",
                "id": ""
            },
            "talkContentTextMapHash": 2489688330,
            "talkAssetPath": "",
            "talkAssetPathAlter": "",
            "talkAudioName": "",
            "actionBefore": "",
            "actionWhile": "",
            "actionAfter": "",
            "optionIcon": ""
        },
        {
            "id": 30229938,
            "talkRole": {
                "type": "TALK_ROLE_BLACK_SCREEN",
                "id": ""
            },
            "talkContentTextMapHash": 1856851634,
            "talkAssetPath": "",
            "talkAssetPathAlter": "",
            "talkAudioName": "",
            "actionBefore": "",
            "actionWhile": "",
            "actionAfter": "",
            "optionIcon": ""
        },
        {
            "id": 30229939,
            "talkRole": {
                "type": "TALK_ROLE_BLACK_SCREEN",
                "id": ""
            },
            "talkContentTextMapHash": 1588628034,
            "talkAssetPath": "",
            "talkAssetPathAlter": "",
            "talkAudioName": "",
            "actionBefore": "",
            "actionWhile": "",
            "actionAfter": "",
            "optionIcon": ""
        },
        {
            "id": 30229940,
            "talkRole": {
                "type": "TALK_ROLE_BLACK_SCREEN",
                "id": ""
            },
            "talkContentTextMapHash": 3090688018,
            "talkAssetPath": "",
            "talkAssetPathAlter": "",
            "talkAudioName": "",
            "actionBefore": "",
            "actionWhile": "",
            "actionAfter": "",
            "optionIcon": ""
        }
    ]
}