{
    "id": 3029,
    "resId": 1018,
    "series": 3029,
    "titleTextMapHash": 861824391,
    "descTextMapHash": 538208046,
    "luaPath": "Actor/Quest/AQ3029",
    "suggestTrackMainQuestList": [
        3030
    ],
    "rewardIdList": [
        103029
    ],
    "specialShowCondIdList": [
        14
    ],
    "specialShowQuestId": 302901,
    "chapterId": 1307,
    "subQuests": [
        {
            "subId": 302901,
            "mainId": 3029,
            "order": 2,
            "descTextMapHash": 3538924500,
            "finishCond": [
                {
                    "type": "QUEST_CONTENT_COMPLETE_TALK",
                    "param": [
                        302901,
                        0
                    ]
                }
            ],
            "guide": {
                "type": "QUEST_GUIDE_LOCATION",
                "param": [
                    "Q302901_guide",
                    "20"
                ],
                "guideScene": 3,
                "guideStyle": "QUEST_GUIDE_STYLE_POINT",
                "guideLayer": "QUEST_GUIDE_LAYER_SCENE"
            },
            "showGuide": "QUEST_GUIDE_ITEM_DISABLE",
            "guideHint": {
                "KPOGPNLFAAE": ""
            },
            "isRewind": true,
            "versionBegin": "",
            "versionEnd": ""
        },
        {
            "subId": 302902,
            "mainId": 3029,
            "order": 3,
            "descTextMapHash": 1165349636,
            "finishCond": [
                {
                    "type": "QUEST_CONTENT_COMPLETE_TALK",
                    "param": [
                        302902,
                        0
                    ]
                }
            ],
            "guide": {
                "type": "QUEST_GUIDE_NPC",
                "param": [
                    "12991"
                ],
                "guideScene": 3,
                "guideStyle": "QUEST_GUIDE_STYLE_TARGET",
                "guideLayer": "QUEST_GUIDE_LAYER_SCENE"
            },
            "guideHint": {
                "KPOGPNLFAAE": ""
            },
            "isRewind": true,
            "versionBegin": "",
            "versionEnd": ""
        },
        {
            "subId": 302903,
            "mainId": 3029,
            "order": 4,
            "descTextMapHash": 3318896908,
            "stepDescTextMapHash": 3395199165,
            "KFCPGKEOMNH": [
                1075
            ],
            "finishCond": [
                {
                    "type": "QUEST_CONTENT_ENTER_ROOM",
                    "param": [
                        1075,
                        0
                    ]
                }
            ],
            "guide": {
                "type": "QUEST_GUIDE_LOCATION",
                "param": [
                    "Q302903_guide"
                ],
                "guideScene": 1075,
                "guideStyle": "QUEST_GUIDE_STYLE_POINT",
                "guideLayer": "QUEST_GUIDE_LAYER_SCENE"
            },
            "guideHint": {
                "KPOGPNLFAAE": ""
            },
            "isRewind": true,
            "versionBegin": "",
            "versionEnd": ""
        },
        {
            "subId": 302904,
            "mainId": 3029,
            "order": 5,
            "descTextMapHash": 2692652604,
            "KFCPGKEOMNH": [
                1075
            ],
            "finishCond": [
                {
                    "type": "QUEST_CONTENT_COMPLETE_TALK",
                    "param": [
                        302904,
                        0
                    ]
                },
                {
                    "type": "QUEST_CONTENT_COMPLETE_TALK",
                    "param": [
                        302921,
                        0
                    ]
                }
            ],
            "guide": {
                "type": "QUEST_GUIDE_NPC",
                "param": [
                    "1056"
                ],
                "guideScene": 1075,
                "guideStyle": "QUEST_GUIDE_STYLE_TARGET",
                "guideLayer": "QUEST_GUIDE_LAYER_SCENE"
            },
            "guideHint": {
                "KPOGPNLFAAE": ""
            },
            "isRewind": true,
            "finishExec": [
                {
                    "type": "QUEST_EXEC_SET_QUEST_VAR",
                    "param": [
                        "0",
                        "1",
                        "3029"
                    ]
                }
            ],
            "versionBegin": "",
            "versionEnd": ""
        },
        {
            "subId": 302905,
            "mainId": 3029,
            "order": 6,
            "isMpBlock": true,
            "descTextMapHash": 3235782892,
            "KFCPGKEOMNH": [
                1075
            ],
            "finishCond": [
                {
                    "type": "QUEST_CONTENT_ENTER_DUNGEON",
                    "param": [
                        1168,
                        11
                    ]
                }
            ],
            "guide": {},
            "guideHint": {
                "KPOGPNLFAAE": ""
            },
            "isRewind": true,
            "versionBegin": "",
            "versionEnd": ""
        },
        {
            "subId": 302906,
            "mainId": 3029,
            "order": 7,
            "isMpBlock": true,
            "descTextMapHash": 4161535148,
            "KFCPGKEOMNH": [
                1075
            ],
            "finishCond": [
                {
                    "type": "QUEST_CONTENT_COMPLETE_TALK",
                    "param": [
                        302906,
                        0
                    ]
                }
            ],
            "failCond": [
                {
                    "type": "QUEST_CONTENT_LEAVE_SCENE",
                    "param": [
                        20166,
                        0
                    ]
                },
                {
                    "type": "QUEST_CONTENT_FAIL_DUNGEON",
                    "param": [
                        1168,
                        0
                    ]
                },
                {
                    "type": "QUEST_CONTENT_ENTER_MY_WORLD",
                    "param": [
                        3,
                        0
                    ]
                },
                {
                    "type": "QUEST_CONTENT_ANY_MANUAL_TRANSPORT",
                    "param": [
                        0,
                        0
                    ]
                }
            ],
            "guide": {},
            "guideHint": {
                "KPOGPNLFAAE": ""
            },
            "isRewind": true,
            "failExec": [
                {
                    "type": "QUEST_EXEC_ROLLBACK_QUEST",
                    "param": [
                        "302904"
                    ]
                },
                {
                    "type": "QUEST_EXEC_UNLOCK_AVATAR_TEAM"
                }
            ],
            "versionBegin": "",
            "versionEnd": ""
        },
        {
            "subId": 302907,
            "mainId": 3029,
            "order": 9,
            "isMpBlock": true,
            "descTextMapHash": 1603918268,
            "KFCPGKEOMNH": [
                1075
            ],
            "finishCond": [
                {
                    "type": "QUEST_CONTENT_COMPLETE_TALK",
                    "param": [
                        302907,
                        0
                    ]
                }
            ],
            "failCond": [
                {
                    "type": "QUEST_CONTENT_LEAVE_SCENE",
                    "param": [
                        20167,
                        0
                    ]
                },
                {
                    "type": "QUEST_CONTENT_FAIL_DUNGEON",
                    "param": [
                        1169,
                        0
                    ]
                },
                {
                    "type": "QUEST_CONTENT_ENTER_MY_WORLD",
                    "param": [
                        3,
                        0
                    ]
                },
                {
                    "type": "QUEST_CONTENT_ANY_MANUAL_TRANSPORT",
                    "param": [
                        0,
                        0
                    ]
                }
            ],
            "guide": {},
            "guideHint": {
                "KPOGPNLFAAE": ""
            },
            "isRewind": true,
            "failExec": [
                {
                    "type": "QUEST_EXEC_ROLLBACK_QUEST",
                    "param": [
                        "302904"
                    ]
                },
                {
                    "type": "QUEST_EXEC_UNLOCK_AVATAR_TEAM"
                }
            ],
            "versionBegin": "",
            "versionEnd": ""
        },
        {
            "subId": 302908,
            "mainId": 3029,
            "order": 12,
            "isMpBlock": true,
            "descTextMapHash": 528874772,
            "KFCPGKEOMNH": [
                1075
            ],
            "finishCond": [
                {
                    "type": "QUEST_CONTENT_FINISH_PLOT",
                    "param": [
                        302908,
                        0
                    ]
                }
            ],
            "failCond": [
                {
                    "type": "QUEST_CONTENT_LEAVE_SCENE",
                    "param": [
                        20167,
                        0
                    ]
                },
                {
                    "type": "QUEST_CONTENT_FAIL_DUNGEON",
                    "param": [
                        1169,
                        0
                    ]
                },
                {
                    "type": "QUEST_CONTENT_ENTER_MY_WORLD",
                    "param": [
                        3,
                        0
                    ]
                },
                {
                    "type": "QUEST_CONTENT_ANY_MANUAL_TRANSPORT",
                    "param": [
                        0,
                        0
                    ]
                }
            ],
            "guide": {},
            "guideHint": {
                "KPOGPNLFAAE": ""
            },
            "isRewind": true,
            "finishExec": [
                {
                    "type": "QUEST_EXEC_NOTIFY_GROUP_LUA",
                    "param": [
                        "20167",
                        "220167001"
                    ]
                },
                {
                    "type": "QUEST_EXEC_NOTIFY_GROUP_LUA",
                    "param": [
                        "20167",
                        "220167003"
                    ]
                }
            ],
            "failExec": [
                {
                    "type": "QUEST_EXEC_ROLLBACK_QUEST",
                    "param": [
                        "302904"
                    ]
                },
                {
                    "type": "QUEST_EXEC_UNLOCK_AVATAR_TEAM"
                }
            ],
            "versionBegin": "",
            "versionEnd": ""
        },
        {
            "subId": 302909,
            "mainId": 3029,
            "order": 19,
            "isMpBlock": true,
            "descTextMapHash": 3815216468,
            "KFCPGKEOMNH": [
                1075
            ],
            "finishCond": [
                {
                    "type": "QUEST_CONTENT_COMPLETE_TALK",
                    "param": [
                        302909,
                        0
                    ]
                }
            ],
            "failCond": [
                {
                    "type": "QUEST_CONTENT_LEAVE_SCENE",
                    "param": [
                        20167,
                        0
                    ]
                },
                {
                    "type": "QUEST_CONTENT_FAIL_DUNGEON",
                    "param": [
                        1169,
                        0
                    ]
                },
                {
                    "type": "QUEST_CONTENT_ENTER_MY_WORLD",
                    "param": [
                        3,
                        0
                    ]
                },
                {
                    "type": "QUEST_CONTENT_ANY_MANUAL_TRANSPORT",
                    "param": [
                        0,
                        0
                    ]
                }
            ],
            "guide": {},
            "guideHint": {
                "KPOGPNLFAAE": ""
            },
            "isRewind": true,
            "failExec": [
                {
                    "type": "QUEST_EXEC_ROLLBACK_QUEST",
                    "param": [
                        "302904"
                    ]
                },
                {
                    "type": "QUEST_EXEC_UNLOCK_AVATAR_TEAM"
                }
            ],
            "versionBegin": "",
            "versionEnd": ""
        },
        {
            "subId": 302910,
            "mainId": 3029,
            "order": 21,
            "isMpBlock": true,
            "descTextMapHash": 849675060,
            "KFCPGKEOMNH": [
                1075
            ],
            "finishCond": [
                {
                    "type": "QUEST_CONTENT_COMPLETE_TALK",
                    "param": [
                        302910,
                        0
                    ]
                }
            ],
            "failCond": [
                {
                    "type": "QUEST_CONTENT_LEAVE_SCENE",
                    "param": [
                        20167,
                        0
                    ]
                },
                {
                    "type": "QUEST_CONTENT_FAIL_DUNGEON",
                    "param": [
                        1169,
                        0
                    ]
                },
                {
                    "type": "QUEST_CONTENT_ENTER_MY_WORLD",
                    "param": [
                        3,
                        0
                    ]
                },
                {
                    "type": "QUEST_CONTENT_ANY_MANUAL_TRANSPORT",
                    "param": [
                        0,
                        0
                    ]
                }
            ],
            "guide": {},
            "guideHint": {
                "KPOGPNLFAAE": ""
            },
            "failExec": [
                {
                    "type": "QUEST_EXEC_ROLLBACK_QUEST",
                    "param": [
                        "302904"
                    ]
                },
                {
                    "type": "QUEST_EXEC_UNLOCK_AVATAR_TEAM"
                }
            ],
            "versionBegin": "",
            "versionEnd": ""
        },
        {
            "subId": 302911,
            "mainId": 3029,
            "order": 24,
            "isMpBlock": true,
            "descTextMapHash": 4237023508,
            "KFCPGKEOMNH": [
                1075
            ],
            "finishCond": [
                {
                    "type": "QUEST_CONTENT_LEAVE_SCENE",
                    "param": [
                        20172,
                        0
                    ]
                },
                {
                    "type": "QUEST_CONTENT_ENTER_MY_WORLD",
                    "param": [
                        3,
                        0
                    ]
                },
                {
                    "type": "QUEST_CONTENT_ENTER_MY_WORLD_SCENE",
                    "param": [
                        1075,
                        0
                    ]
                }
            ],
            "guide": {},
            "guideHint": {
                "KPOGPNLFAAE": ""
            },
            "isRewind": true,
            "finishExec": [
                {
                    "type": "QUEST_EXEC_UNLOCK_AVATAR_TEAM"
                }
            ],
            "versionBegin": "",
            "versionEnd": ""
        },
        {
            "subId": 302912,
            "mainId": 3029,
            "order": 25,
            "descTextMapHash": 509210204,
            "KFCPGKEOMNH": [
                330213
            ],
            "finishCond": [
                {
                    "type": "QUEST_CONTENT_COMPLETE_TALK",
                    "param": [
                        302912,
                        0
                    ]
                }
            ],
            "guide": {
                "type": "QUEST_GUIDE_LOCATION",
                "param": [
                    "Q302912_guide",
                    "15"
                ],
                "guideScene": 3,
                "guideStyle": "QUEST_GUIDE_STYLE_POINT",
                "guideLayer": "QUEST_GUIDE_LAYER_SCENE"
            },
            "guideHint": {
                "KPOGPNLFAAE": ""
            },
            "finishParent": true,
            "isRewind": true,
            "finishExec": [
                {
                    "type": "QUEST_EXEC_SET_QUEST_GLOBAL_VAR",
                    "param": [
                        "302901",
                        "1"
                    ]
                },
                {
                    "type": "QUEST_EXEC_REFRESH_GROUP_SUITE",
                    "param": [
                        "3",
                        "133302726,2"
                    ]
                },
                {
                    "type": "QUEST_EXEC_UNREGISTER_DYNAMIC_GROUP",
                    "param": [
                        "133302726",
                        "1"
                    ]
                }
            ],
            "versionBegin": "",
            "versionEnd": ""
        },
        {
            "subId": 302913,
            "mainId": 3029,
            "order": 14,
            "isMpBlock": true,
            "descTextMapHash": 399406180,
            "KFCPGKEOMNH": [
                1075
            ],
            "finishCond": [
                {
                    "type": "QUEST_CONTENT_FINISH_PLOT",
                    "param": [
                        302913,
                        0
                    ]
                }
            ],
            "failCond": [
                {
                    "type": "QUEST_CONTENT_LEAVE_SCENE",
                    "param": [
                        20167,
                        0
                    ]
                },
                {
                    "type": "QUEST_CONTENT_FAIL_DUNGEON",
                    "param": [
                        1169,
                        0
                    ]
                },
                {
                    "type": "QUEST_CONTENT_ENTER_MY_WORLD",
                    "param": [
                        3,
                        0
                    ]
                },
                {
                    "type": "QUEST_CONTENT_ANY_MANUAL_TRANSPORT",
                    "param": [
                        0,
                        0
                    ]
                }
            ],
            "guide": {},
            "guideHint": {
                "KPOGPNLFAAE": ""
            },
            "isRewind": true,
            "finishExec": [
                {
                    "type": "QUEST_EXEC_NOTIFY_GROUP_LUA",
                    "param": [
                        "20167",
                        "220167003"
                    ]
                },
                {
                    "type": "QUEST_EXEC_NOTIFY_GROUP_LUA",
                    "param": [
                        "20167",
                        "220167001"
                    ]
                }
            ],
            "failExec": [
                {
                    "type": "QUEST_EXEC_ROLLBACK_QUEST",
                    "param": [
                        "302904"
                    ]
                },
                {
                    "type": "QUEST_EXEC_UNLOCK_AVATAR_TEAM"
                }
            ],
            "versionBegin": "",
            "versionEnd": ""
        },
        {
            "subId": 302914,
            "mainId": 3029,
            "order": 17,
            "isMpBlock": true,
            "descTextMapHash": 1368734436,
            "KFCPGKEOMNH": [
                1075
            ],
            "finishCond": [
                {
                    "type": "QUEST_CONTENT_COMPLETE_TALK",
                    "param": [
                        302914,
                        0
                    ]
                }
            ],
            "failCond": [
                {
                    "type": "QUEST_CONTENT_LEAVE_SCENE",
                    "param": [
                        20167,
                        0
                    ]
                },
                {
                    "type": "QUEST_CONTENT_FAIL_DUNGEON",
                    "param": [
                        1169,
                        0
                    ]
                },
                {
                    "type": "QUEST_CONTENT_ENTER_MY_WORLD",
                    "param": [
                        3,
                        0
                    ]
                },
                {
                    "type": "QUEST_CONTENT_ANY_MANUAL_TRANSPORT",
                    "param": [
                        0,
                        0
                    ]
                }
            ],
            "guide": {},
            "guideHint": {
                "KPOGPNLFAAE": ""
            },
            "isRewind": true,
            "finishExec": [
                {
                    "type": "QUEST_EXEC_NOTIFY_GROUP_LUA",
                    "param": [
                        "20167",
                        "220167001"
                    ]
                }
            ],
            "failExec": [
                {
                    "type": "QUEST_EXEC_ROLLBACK_QUEST",
                    "param": [
                        "302904"
                    ]
                },
                {
                    "type": "QUEST_EXEC_UNLOCK_AVATAR_TEAM"
                }
            ],
            "versionBegin": "",
            "versionEnd": ""
        },
        {
            "subId": 302915,
            "mainId": 3029,
            "order": 10,
            "isMpBlock": true,
            "descTextMapHash": 3738047484,
            "KFCPGKEOMNH": [
                1075
            ],
            "finishCond": [
                {
                    "type": "QUEST_CONTENT_FINISH_PLOT",
                    "param": [
                        302915,
                        0
                    ]
                }
            ],
            "failCond": [
                {
                    "type": "QUEST_CONTENT_LEAVE_SCENE",
                    "param": [
                        20167,
                        0
                    ]
                },
                {
                    "type": "QUEST_CONTENT_FAIL_DUNGEON",
                    "param": [
                        1169,
                        0
                    ]
                },
                {
                    "type": "QUEST_CONTENT_ENTER_MY_WORLD",
                    "param": [
                        3,
                        0
                    ]
                },
                {
                    "type": "QUEST_CONTENT_ANY_MANUAL_TRANSPORT",
                    "param": [
                        0,
                        0
                    ]
                }
            ],
            "guide": {},
            "guideHint": {
                "KPOGPNLFAAE": ""
            },
            "finishExec": [
                {
                    "type": "QUEST_EXEC_NOTIFY_GROUP_LUA",
                    "param": [
                        "20167",
                        "220167001"
                    ]
                },
                {
                    "type": "QUEST_EXEC_NOTIFY_GROUP_LUA",
                    "param": [
                        "20167",
                        "220167003"
                    ]
                }
            ],
            "failExec": [
                {
                    "type": "QUEST_EXEC_ROLLBACK_QUEST",
                    "param": [
                        "302904"
                    ]
                },
                {
                    "type": "QUEST_EXEC_UNLOCK_AVATAR_TEAM"
                }
            ],
            "versionBegin": "",
            "versionEnd": ""
        },
        {
            "subId": 302916,
            "mainId": 3029,
            "order": 18,
            "isMpBlock": true,
            "descTextMapHash": 2934050044,
            "KFCPGKEOMNH": [
                1075
            ],
            "finishCond": [
                {
                    "type": "QUEST_CONTENT_COMPLETE_TALK",
                    "param": [
                        302916,
                        0
                    ]
                }
            ],
            "failCond": [
                {
                    "type": "QUEST_CONTENT_LEAVE_SCENE",
                    "param": [
                        20167,
                        0
                    ]
                },
                {
                    "type": "QUEST_CONTENT_FAIL_DUNGEON",
                    "param": [
                        1169,
                        0
                    ]
                },
                {
                    "type": "QUEST_CONTENT_ENTER_MY_WORLD",
                    "param": [
                        3,
                        0
                    ]
                },
                {
                    "type": "QUEST_CONTENT_ANY_MANUAL_TRANSPORT",
                    "param": [
                        0,
                        0
                    ]
                }
            ],
            "guide": {},
            "guideHint": {
                "KPOGPNLFAAE": ""
            },
            "isRewind": true,
            "failExec": [
                {
                    "type": "QUEST_EXEC_ROLLBACK_QUEST",
                    "param": [
                        "302904"
                    ]
                },
                {
                    "type": "QUEST_EXEC_UNLOCK_AVATAR_TEAM"
                }
            ],
            "versionBegin": "",
            "versionEnd": ""
        },
        {
            "subId": 302917,
            "mainId": 3029,
            "order": 8,
            "isMpBlock": true,
            "descTextMapHash": 20299636,
            "KFCPGKEOMNH": [
                1075
            ],
            "finishCond": [
                {
                    "type": "QUEST_CONTENT_ENTER_DUNGEON",
                    "param": [
                        1169,
                        15
                    ]
                }
            ],
            "failCond": [
                {
                    "type": "QUEST_CONTENT_ENTER_MY_WORLD",
                    "param": [
                        3,
                        0
                    ]
                },
                {
                    "type": "QUEST_CONTENT_ENTER_ROOM",
                    "param": [
                        1075,
                        0
                    ]
                }
            ],
            "guide": {},
            "guideHint": {
                "KPOGPNLFAAE": ""
            },
            "isRewind": true,
            "failExec": [
                {
                    "type": "QUEST_EXEC_ROLLBACK_QUEST",
                    "param": [
                        "302904"
                    ]
                },
                {
                    "type": "QUEST_EXEC_UNLOCK_AVATAR_TEAM"
                }
            ],
            "versionBegin": "",
            "versionEnd": ""
        },
        {
            "subId": 302918,
            "mainId": 3029,
            "order": 99,
            "showType": "QUEST_HIDDEN",
            "finishCond": [
                {
                    "type": "QUEST_CONTENT_LUA_NOTIFY",
                    "param": [
                        0,
                        0
                    ],
                    "count": 1
                }
            ],
            "guide": {
                "type": "QUEST_GUIDE_NPC",
                "param": [
                    "1056"
                ],
                "guideScene": 1075,
                "guideStyle": "QUEST_GUIDE_STYLE_TARGET",
                "guideLayer": "QUEST_GUIDE_LAYER_SCENE"
            },
            "guideHint": {
                "KPOGPNLFAAE": ""
            },
            "versionBegin": "",
            "versionEnd": ""
        },
        {
            "subId": 302919,
            "mainId": 3029,
            "order": 23,
            "isMpBlock": true,
            "descTextMapHash": 3968024452,
            "KFCPGKEOMNH": [
                1075
            ],
            "finishCond": [
                {
                    "type": "QUEST_CONTENT_COMPLETE_TALK",
                    "param": [
                        302919,
                        0
                    ]
                }
            ],
            "failCond": [
                {
                    "type": "QUEST_CONTENT_LEAVE_SCENE",
                    "param": [
                        20167,
                        0
                    ]
                },
                {
                    "type": "QUEST_CONTENT_FAIL_DUNGEON",
                    "param": [
                        1169,
                        0
                    ]
                },
                {
                    "type": "QUEST_CONTENT_ENTER_MY_WORLD",
                    "param": [
                        3,
                        0
                    ]
                },
                {
                    "type": "QUEST_CONTENT_ANY_MANUAL_TRANSPORT",
                    "param": [
                        0,
                        0
                    ]
                }
            ],
            "guide": {},
            "guideHint": {
                "KPOGPNLFAAE": ""
            },
            "isRewind": true,
            "failExec": [
                {
                    "type": "QUEST_EXEC_ROLLBACK_QUEST",
                    "param": [
                        "302904"
                    ]
                },
                {
                    "type": "QUEST_EXEC_UNLOCK_AVATAR_TEAM"
                }
            ],
            "versionBegin": "",
            "versionEnd": ""
        },
        {
            "subId": 302920,
            "mainId": 3029,
            "order": 20,
            "isMpBlock": true,
            "descTextMapHash": 1215759788,
            "KFCPGKEOMNH": [
                1075
            ],
            "finishCond": [
                {
                    "type": "QUEST_CONTENT_FINISH_PLOT",
                    "param": [
                        302920,
                        0
                    ]
                }
            ],
            "failCond": [
                {
                    "type": "QUEST_CONTENT_LEAVE_SCENE",
                    "param": [
                        20167,
                        0
                    ]
                },
                {
                    "type": "QUEST_CONTENT_FAIL_DUNGEON",
                    "param": [
                        1169,
                        0
                    ]
                },
                {
                    "type": "QUEST_CONTENT_ENTER_MY_WORLD",
                    "param": [
                        3,
                        0
                    ]
                },
                {
                    "type": "QUEST_CONTENT_ANY_MANUAL_TRANSPORT",
                    "param": [
                        0,
                        0
                    ]
                }
            ],
            "guide": {},
            "guideHint": {
                "KPOGPNLFAAE": ""
            },
            "isRewind": true,
            "finishExec": [
                {
                    "type": "QUEST_EXEC_NOTIFY_GROUP_LUA",
                    "param": [
                        "20167",
                        "220167001"
                    ]
                }
            ],
            "failExec": [
                {
                    "type": "QUEST_EXEC_ROLLBACK_QUEST",
                    "param": [
                        "302904"
                    ]
                },
                {
                    "type": "QUEST_EXEC_UNLOCK_AVATAR_TEAM"
                }
            ],
            "versionBegin": "",
            "versionEnd": ""
        },
        {
            "subId": 302921,
            "mainId": 3029,
            "order": 1,
            "showType": "QUEST_HIDDEN",
            "finishCond": [
                {
                    "type": "QUEST_CONTENT_QUEST_STATE_EQUAL",
                    "param": [
                        302901,
                        2
                    ]
                }
            ],
            "guide": {},
            "guideHint": {
                "KPOGPNLFAAE": ""
            },
            "isRewind": true,
            "versionBegin": "",
            "versionEnd": ""
        },
        {
            "subId": 302922,
            "mainId": 3029,
            "order": 100,
            "isMpBlock": true,
            "descTextMapHash": 1187629292,
            "KFCPGKEOMNH": [
                1075
            ],
            "finishCond": [
                {
                    "type": "QUEST_CONTENT_FINISH_PLOT",
                    "param": [
                        302922,
                        0
                    ]
                },
                {
                    "type": "QUEST_CONTENT_ADD_QUEST_PROGRESS",
                    "param": [
                        30292201,
                        0
                    ],
                    "count": 1
                }
            ],
            "failCond": [
                {
                    "type": "QUEST_CONTENT_LEAVE_SCENE",
                    "param": [
                        20167,
                        0
                    ]
                },
                {
                    "type": "QUEST_CONTENT_FAIL_DUNGEON",
                    "param": [
                        1169,
                        0
                    ]
                },
                {
                    "type": "QUEST_CONTENT_ENTER_MY_WORLD",
                    "param": [
                        3,
                        0
                    ]
                },
                {
                    "type": "QUEST_CONTENT_ANY_MANUAL_TRANSPORT",
                    "param": [
                        0,
                        0
                    ]
                }
            ],
            "guide": {},
            "guideHint": {
                "KPOGPNLFAAE": ""
            },
            "isRewind": true,
            "failExec": [
                {
                    "type": "QUEST_EXEC_UNLOCK_AVATAR_TEAM"
                },
                {
                    "type": "QUEST_EXEC_ROLLBACK_QUEST",
                    "param": [
                        "302904"
                    ]
                }
            ],
            "versionBegin": "",
            "versionEnd": ""
        },
        {
            "subId": 302923,
            "mainId": 3029,
            "order": 11,
            "isMpBlock": true,
            "descTextMapHash": 1741369740,
            "KFCPGKEOMNH": [
                1075
            ],
            "finishCond": [
                {
                    "type": "QUEST_CONTENT_FINISH_PLOT",
                    "param": [
                        302923,
                        0
                    ]
                }
            ],
            "failCond": [
                {
                    "type": "QUEST_CONTENT_LEAVE_SCENE",
                    "param": [
                        20167,
                        0
                    ]
                },
                {
                    "type": "QUEST_CONTENT_FAIL_DUNGEON",
                    "param": [
                        1169,
                        0
                    ]
                },
                {
                    "type": "QUEST_CONTENT_ENTER_MY_WORLD",
                    "param": [
                        3,
                        0
                    ]
                },
                {
                    "type": "QUEST_CONTENT_ANY_MANUAL_TRANSPORT",
                    "param": [
                        0,
                        0
                    ]
                }
            ],
            "guide": {},
            "guideHint": {
                "KPOGPNLFAAE": ""
            },
            "failExec": [
                {
                    "type": "QUEST_EXEC_ROLLBACK_QUEST",
                    "param": [
                        "302904"
                    ]
                },
                {
                    "type": "QUEST_EXEC_UNLOCK_AVATAR_TEAM"
                }
            ],
            "versionBegin": "",
            "versionEnd": ""
        },
        {
            "subId": 302924,
            "mainId": 3029,
            "order": 13,
            "isMpBlock": true,
            "descTextMapHash": 3180012956,
            "KFCPGKEOMNH": [
                1075
            ],
            "finishCond": [
                {
                    "type": "QUEST_CONTENT_FINISH_PLOT",
                    "param": [
                        302924,
                        0
                    ]
                }
            ],
            "failCond": [
                {
                    "type": "QUEST_CONTENT_LEAVE_SCENE",
                    "param": [
                        20167,
                        0
                    ]
                },
                {
                    "type": "QUEST_CONTENT_FAIL_DUNGEON",
                    "param": [
                        1169,
                        0
                    ]
                },
                {
                    "type": "QUEST_CONTENT_ENTER_MY_WORLD",
                    "param": [
                        3,
                        0
                    ]
                },
                {
                    "type": "QUEST_CONTENT_ANY_MANUAL_TRANSPORT",
                    "param": [
                        0,
                        0
                    ]
                }
            ],
            "guide": {},
            "guideHint": {
                "KPOGPNLFAAE": ""
            },
            "failExec": [
                {
                    "type": "QUEST_EXEC_ROLLBACK_QUEST",
                    "param": [
                        "302904"
                    ]
                },
                {
                    "type": "QUEST_EXEC_UNLOCK_AVATAR_TEAM"
                }
            ],
            "versionBegin": "",
            "versionEnd": ""
        },
        {
            "subId": 302925,
            "mainId": 3029,
            "order": 15,
            "isMpBlock": true,
            "descTextMapHash": 538504348,
            "KFCPGKEOMNH": [
                1075
            ],
            "finishCond": [
                {
                    "type": "QUEST_CONTENT_FINISH_PLOT",
                    "param": [
                        302925,
                        0
                    ]
                }
            ],
            "failCond": [
                {
                    "type": "QUEST_CONTENT_LEAVE_SCENE",
                    "param": [
                        20167,
                        0
                    ]
                },
                {
                    "type": "QUEST_CONTENT_FAIL_DUNGEON",
                    "param": [
                        1169,
                        0
                    ]
                },
                {
                    "type": "QUEST_CONTENT_ENTER_MY_WORLD",
                    "param": [
                        3,
                        0
                    ]
                },
                {
                    "type": "QUEST_CONTENT_ANY_MANUAL_TRANSPORT",
                    "param": [
                        0,
                        0
                    ]
                }
            ],
            "guide": {},
            "guideHint": {
                "KPOGPNLFAAE": ""
            },
            "failExec": [
                {
                    "type": "QUEST_EXEC_ROLLBACK_QUEST",
                    "param": [
                        "302904"
                    ]
                },
                {
                    "type": "QUEST_EXEC_UNLOCK_AVATAR_TEAM"
                }
            ],
            "versionBegin": "",
            "versionEnd": ""
        },
        {
            "subId": 302926,
            "mainId": 3029,
            "order": 16,
            "isMpBlock": true,
            "descTextMapHash": 3164857828,
            "KFCPGKEOMNH": [
                1075
            ],
            "finishCond": [
                {
                    "type": "QUEST_CONTENT_FINISH_PLOT",
                    "param": [
                        302926,
                        0
                    ]
                }
            ],
            "failCond": [
                {
                    "type": "QUEST_CONTENT_LEAVE_SCENE",
                    "param": [
                        20167,
                        0
                    ]
                },
                {
                    "type": "QUEST_CONTENT_FAIL_DUNGEON",
                    "param": [
                        1169,
                        0
                    ]
                },
                {
                    "type": "QUEST_CONTENT_ENTER_MY_WORLD",
                    "param": [
                        3,
                        0
                    ]
                },
                {
                    "type": "QUEST_CONTENT_ANY_MANUAL_TRANSPORT",
                    "param": [
                        0,
                        0
                    ]
                }
            ],
            "guide": {},
            "guideHint": {
                "KPOGPNLFAAE": ""
            },
            "isRewind": true,
            "failExec": [
                {
                    "type": "QUEST_EXEC_ROLLBACK_QUEST",
                    "param": [
                        "302904"
                    ]
                },
                {
                    "type": "QUEST_EXEC_UNLOCK_AVATAR_TEAM"
                }
            ],
            "versionBegin": "",
            "versionEnd": ""
        }
    ],
    "talks": [
        {
            "id": 302901,
            "beginWay": "TALK_BEGIN_AUTO",
            "beginCond": [
                {
                    "type": "QUEST_COND_STATE_EQUAL",
                    "param": [
                        "302901",
                        "2"
                    ]
                }
            ],
            "priority": 5,
            "initDialog": 30290101,
            "npcId": [
                12991,
                12992
            ],
            "performCfg": "QuestDialogue/AQ/Sumeru4_3029/Q302901",
            "heroTalk": "TALK_HERO_MAIN",
            "questId": 3029,
            "assetIndex": 18082774799320568797,
            "prePerformCfg": ""
        },
        {
            "id": 302902,
            "beginWay": "TALK_BEGIN_MANUAL",
            "beginCond": [
                {
                    "type": "QUEST_COND_STATE_EQUAL",
                    "param": [
                        "302902",
                        "2"
                    ]
                }
            ],
            "priority": 5,
            "initDialog": 30290201,
            "npcId": [
                12991,
                12992
            ],
            "performCfg": "QuestDialogue/AQ/Sumeru4_3029/Q302902",
            "heroTalk": "TALK_HERO_MAIN",
            "questId": 3029,
            "assetIndex": 269978654324529183,
            "prePerformCfg": ""
        },
        {
            "id": 302904,
            "beginWay": "TALK_BEGIN_MANUAL",
            "beginCondComb": "LOGIC_AND",
            "beginCond": [
                {
                    "type": "QUEST_COND_STATE_EQUAL",
                    "param": [
                        "302904",
                        "2"
                    ]
                },
                {
                    "type": "QUEST_COND_QUEST_VAR_EQUAL",
                    "param": [
                        "0",
                        "0",
                        "3029"
                    ]
                }
            ],
            "priority": 5,
            "initDialog": 30290401,
            "npcId": [
                1056,
                10013
            ],
            "performCfg": "QuestDialogue/AQ/Sumeru4_3029/Q302904",
            "heroTalk": "TALK_HERO_MAIN",
            "questId": 3029,
            "assetIndex": 1531937803276786148,
            "prePerformCfg": ""
        },
        {
            "id": 302906,
            "beginWay": "TALK_BEGIN_MANUAL",
            "beginCond": [
                {
                    "type": "QUEST_COND_STATE_EQUAL",
                    "param": [
                        "302906",
                        "2"
                    ]
                }
            ],
            "priority": 5,
            "initDialog": 30290601,
            "npcId": [
                10013,
                1056
            ],
            "performCfg": "QuestDialogue/AQ/Sumeru4_3029/Q302906",
            "heroTalk": "TALK_HERO_MAIN",
            "questId": 3029,
            "assetIndex": 14745726440451831537,
            "prePerformCfg": ""
        },
        {
            "id": 302907,
            "beginWay": "TALK_BEGIN_MANUAL",
            "beginCond": [
                {
                    "type": "QUEST_COND_STATE_EQUAL",
                    "param": [
                        "302907",
                        "2"
                    ]
                }
            ],
            "priority": 5,
            "initDialog": 30290701,
            "npcId": [
                10013,
                1056
            ],
            "performCfg": "QuestDialogue/AQ/Sumeru4_3029/Q302907",
            "heroTalk": "TALK_HERO_MAIN",
            "questId": 3029,
            "assetIndex": 10986808859562658754,
            "prePerformCfg": ""
        },
        {
            "id": 302909,
            "beginWay": "TALK_BEGIN_MANUAL",
            "beginCond": [
                {
                    "type": "QUEST_COND_STATE_EQUAL",
                    "param": [
                        "302909",
                        "2"
                    ]
                }
            ],
            "priority": 5,
            "initDialog": 30290901,
            "npcId": [
                10013,
                1056
            ],
            "performCfg": "QuestDialogue/AQ/Sumeru4_3029/Q302909",
            "heroTalk": "TALK_HERO_MAIN",
            "questId": 3029,
            "assetIndex": 11088556886453384593,
            "prePerformCfg": ""
        },
        {
            "id": 302910,
            "beginWay": "TALK_BEGIN_MANUAL",
            "beginCond": [
                {
                    "type": "QUEST_COND_STATE_EQUAL",
                    "param": [
                        "302910",
                        "2"
                    ]
                }
            ],
            "priority": 5,
            "initDialog": 30291001,
            "npcId": [
                10013,
                1056
            ],
            "performCfg": "QuestDialogue/AQ/Sumeru4_3029/Q302910",
            "heroTalk": "TALK_HERO_MAIN",
            "questId": 3029,
            "assetIndex": 2595103303538931674,
            "prePerformCfg": ""
        },
        {
            "id": 302912,
            "beginWay": "TALK_BEGIN_MANUAL",
            "beginCond": [
                {
                    "type": "QUEST_COND_STATE_EQUAL",
                    "param": [
                        "302912",
                        "2"
                    ]
                }
            ],
            "priority": 5,
            "initDialog": 30291201,
            "npcId": [
                1056,
                1005
            ],
            "performCfg": "QuestDialogue/AQ/Sumeru4_3029/Q302912",
            "heroTalk": "TALK_HERO_MAIN",
            "questId": 3029,
            "assetIndex": 8297865995266418802,
            "prePerformCfg": "",
            "lockGameTime": true
        },
        {
            "id": 302914,
            "beginWay": "TALK_BEGIN_MANUAL",
            "beginCond": [
                {
                    "type": "QUEST_COND_STATE_EQUAL",
                    "param": [
                        "302914",
                        "2"
                    ]
                }
            ],
            "priority": 5,
            "initDialog": 30291401,
            "npcId": [
                10013,
                1056,
                12987,
                12988
            ],
            "performCfg": "QuestDialogue/AQ/Sumeru4_3029/Q302914",
            "heroTalk": "TALK_HERO_MAIN",
            "questId": 3029,
            "assetIndex": 10313141282891335516,
            "prePerformCfg": ""
        },
        {
            "id": 302916,
            "beginWay": "TALK_BEGIN_MANUAL",
            "beginCond": [
                {
                    "type": "QUEST_COND_STATE_EQUAL",
                    "param": [
                        "302916",
                        "2"
                    ]
                }
            ],
            "priority": 5,
            "initDialog": 30291601,
            "npcId": [
                12987,
                12988,
                12695
            ],
            "performCfg": "QuestDialogue/AQ/Sumeru4_3029/Q302916",
            "heroTalk": "TALK_HERO_MAIN",
            "questId": 3029,
            "assetIndex": 5666478164144606261,
            "prePerformCfg": ""
        },
        {
            "id": 302919,
            "beginWay": "TALK_BEGIN_MANUAL",
            "beginCond": [
                {
                    "type": "QUEST_COND_STATE_EQUAL",
                    "param": [
                        "302919",
                        "2"
                    ]
                }
            ],
            "priority": 5,
            "initDialog": 30291901,
            "npcId": [
                1005
            ],
            "performCfg": "QuestDialogue/AQ/Sumeru4_3029/Q302919",
            "heroTalk": "TALK_HERO_MAIN",
            "questId": 3029,
            "assetIndex": 13330151403686445206,
            "prePerformCfg": ""
        },
        {
            "id": 302920,
            "beginWay": "TALK_BEGIN_MANUAL",
            "beginCond": [
                {
                    "type": "QUEST_COND_STATE_EQUAL",
                    "param": [
                        "302903",
                        "2"
                    ]
                }
            ],
            "priority": 5,
            "initDialog": 30292001,
            "npcId": [
                12992,
                12991
            ],
            "performCfg": "QuestDialogue/AQ/Sumeru4_3029/Q302920",
            "heroTalk": "TALK_HERO_MAIN",
            "questId": 3029,
            "assetIndex": 7761278417844241343,
            "prePerformCfg": ""
        },
        {
            "id": 302921,
            "beginWay": "TALK_BEGIN_MANUAL",
            "beginCondComb": "LOGIC_AND",
            "beginCond": [
                {
                    "type": "QUEST_COND_STATE_EQUAL",
                    "param": [
                        "302904",
                        "2"
                    ]
                },
                {
                    "type": "QUEST_COND_QUEST_VAR_EQUAL",
                    "param": [
                        "0",
                        "1",
                        "3029"
                    ]
                }
            ],
            "priority": 5,
            "initDialog": 30292101,
            "npcId": [
                1056
            ],
            "performCfg": "QuestDialogue/AQ/Sumeru4_3029/Q302921",
            "heroTalk": "TALK_HERO_MAIN",
            "questId": 3029,
            "assetIndex": 12887462977617785360,
            "prePerformCfg": ""
        }
    ],
    "preloadLuaList": [
        14457059026087496718,
        12347876043526689183,
        2138770288737185957,
        18132946195351229069,
        7709319485556283190,
        5169898414137310691,
        9513645609371448544,
        8322167115518479414,
        9146577142010599644,
        17349719455968892443,
        6122150203392481851,
        11990824591942883438,
        3027654808277047116,
        13811299469104622526,
        14744774997354981740,
        1754385402499653581,
        15630614170927955806,
        15240334725548961230,
        14947232926338620284,
        10640851996302091865
    ],
    "AILPOGENMJB": [
        17078356205911134371
    ],
    "freeStyleDic": {
        "10013": [
            1120,
            1240
        ],
        "12991": [
            1170
        ]
    },
    "dialogList": [
        {
            "id": 30299801,
            "talkRole": {
                "type": "TALK_ROLE_NPC",
                "id": "12992"
            },
            "talkContentTextMapHash": 260866266,
            "talkAssetPath": "",
            "talkAssetPathAlter": "",
            "talkAudioName": "",
            "actionBefore": "",
            "actionWhile": "",
            "actionAfter": "",
            "optionIcon": ""
        },
        {
            "id": 30299802,
            "talkRole": {
                "type": "TALK_ROLE_NPC",
                "id": "12991"
            },
            "talkContentTextMapHash": 3413189178,
            "talkAssetPath": "",
            "talkAssetPathAlter": "",
            "talkAudioName": "",
            "actionBefore": "",
            "actionWhile": "",
            "actionAfter": "",
            "optionIcon": ""
        },
        {
            "id": 30299803,
            "talkRole": {
                "type": "TALK_ROLE_NPC",
                "id": "10013"
            },
            "talkContentTextMapHash": 60873970,
            "talkAssetPath": "",
            "talkAssetPathAlter": "",
            "talkAudioName": "",
            "actionBefore": "",
            "actionWhile": "",
            "actionAfter": "",
            "optionIcon": ""
        },
        {
            "id": 30299913,
            "talkRole": {
                "type": "TALK_ROLE_BLACK_SCREEN",
                "id": ""
            },
            "talkContentTextMapHash": 897750242,
            "talkAssetPath": "",
            "talkAssetPathAlter": "",
            "talkAudioName": "",
            "actionBefore": "",
            "actionWhile": "",
            "actionAfter": "",
            "optionIcon": ""
        },
        {
            "id": 30299914,
            "talkRole": {
                "type": "TALK_ROLE_BLACK_SCREEN",
                "id": ""
            },
            "talkContentTextMapHash": 1678473194,
            "talkAssetPath": "",
            "talkAssetPathAlter": "",
            "talkAudioName": "",
            "actionBefore": "",
            "actionWhile": "",
            "actionAfter": "",
            "optionIcon": ""
        },
        {
            "id": 30299915,
            "talkRole": {
                "type": "TALK_ROLE_BLACK_SCREEN",
                "id": ""
            },
            "talkContentTextMapHash": 261667386,
            "talkAssetPath": "",
            "talkAssetPathAlter": "",
            "talkAudioName": "",
            "actionBefore": "",
            "actionWhile": "",
            "actionAfter": "",
            "optionIcon": ""
        }
    ]
}