{
    "id": 311,
    "resId": 1001,
    "series": 1001,
    "titleTextMapHash": 3089746017,
    "descTextMapHash": 14316951,
    "luaPath": "Actor/Quest/AQ311",
    "showType": "QUEST_HIDDEN",
    "chapterId": 1001,
    "subQuests": [
        {
            "subId": 31101,
            "mainId": 311,
            "order": 1,
            "descTextMapHash": 486980247,
            "showType": "QUEST_HIDDEN",
            "finishCond": [
                {
                    "type": "QUEST_CONTENT_COMPLETE_TALK",
                    "param": [
                        30902,
                        0
                    ]
                },
                {
                    "type": "QUEST_CONTENT_COMPLETE_TALK",
                    "param": [
                        30904,
                        0
                    ]
                }
            ],
            "guide": {
                "type": "QUEST_GUIDE_NPC",
                "param": [
                    "1005"
                ],
                "guideScene": 3,
                "guideStyle": "QUEST_GUIDE_STYLE_TARGET",
                "guideLayer": "QUEST_GUIDE_LAYER_SCENE"
            },
            "guideHint": {
                "KPOGPNLFAAE": ""
            },
            "finishParent": true,
            "isRewind": true,
            "versionBegin": "",
            "versionEnd": ""
        }
    ],
    "talks": [
        {
            "id": 30902,
            "beginWay": "TALK_BEGIN_MANUAL",
            "beginCondComb": "LOGIC_AND",
            "beginCond": [
                {
                    "type": "QUEST_COND_STATE_EQUAL",
                    "param": [
                        "31101",
                        "2"
                    ]
                },
                {
                    "type": "QUEST_COND_STATE_EQUAL",
                    "param": [
                        "46904",
                        "2"
                    ]
                }
            ],
            "priority": 5,
            "initDialog": 3090201,
            "npcId": [
                1005
            ],
            "performCfg": "QuestDialogue/AQ/Mengde1_309/Q30902",
            "heroTalk": "TALK_HERO_MAIN",
            "questId": 311,
            "assetIndex": 1487425930710266933,
            "prePerformCfg": ""
        },
        {
            "id": 30904,
            "beginWay": "TALK_BEGIN_MANUAL",
            "beginCondComb": "LOGIC_AND",
            "beginCond": [
                {
                    "type": "QUEST_COND_STATE_EQUAL",
                    "param": [
                        "31101",
                        "2"
                    ]
                },
                {
                    "type": "QUEST_COND_STATE_EQUAL",
                    "param": [
                        "46904",
                        "3"
                    ]
                }
            ],
            "priority": 5,
            "initDialog": 3090401,
            "npcId": [
                1005
            ],
            "performCfg": "QuestDialogue/AQ/Mengde1_309/Q30904",
            "heroTalk": "TALK_HERO_MAIN",
            "questId": 311,
            "assetIndex": 7601860449654579629,
            "prePerformCfg": ""
        }
    ],
    "preloadLuaList": [
        14457059026087496718
    ]
}