{
    "id": 372,
    "resId": 1002,
    "series": 1002,
    "titleTextMapHash": 2546023913,
    "descTextMapHash": 3232682647,
    "luaPath": "Actor/Quest/MQ372",
    "suggestTrackMainQuestList": [
        373
    ],
    "rewardIdList": [
        100372
    ],
    "chapterId": 1002,
    "subQuests": [
        {
            "subId": 37201,
            "mainId": 372,
            "order": 1,
            "isMpBlock": true,
            "descTextMapHash": 359632807,
            "finishCond": [
                {
                    "type": "QUEST_CONTENT_FINISH_PLOT",
                    "param": [
                        37201,
                        0
                    ]
                }
            ],
            "guide": {
                "type": "QUEST_GUIDE_NPC",
                "param": [
                    "1160"
                ],
                "guideScene": 3,
                "guideStyle": "QUEST_GUIDE_STYLE_TARGET",
                "guideLayer": "QUEST_GUIDE_LAYER_UI"
            },
            "guideHint": {
                "KPOGPNLFAAE": ""
            },
            "isRewind": true,
            "versionBegin": "",
            "versionEnd": ""
        },
        {
            "subId": 37202,
            "mainId": 372,
            "order": 2,
            "isMpBlock": true,
            "descTextMapHash": 899249471,
            "finishCond": [
                {
                    "type": "QUEST_CONTENT_FINISH_PLOT",
                    "param": [
                        37202,
                        0
                    ]
                }
            ],
            "guide": {
                "type": "QUEST_GUIDE_NPC",
                "param": [
                    "1160"
                ],
                "guideScene": 3,
                "guideStyle": "QUEST_GUIDE_STYLE_TARGET",
                "guideLayer": "QUEST_GUIDE_LAYER_SCENE"
            },
            "guideHint": {
                "KPOGPNLFAAE": ""
            },
            "isRewind": true,
            "versionBegin": "",
            "versionEnd": ""
        },
        {
            "subId": 37203,
            "mainId": 372,
            "order": 3,
            "isMpBlock": true,
            "descTextMapHash": 1832772295,
            "finishCond": [
                {
                    "type": "QUEST_CONTENT_COMPLETE_TALK",
                    "param": [
                        3720301,
                        0
                    ]
                }
            ],
            "guide": {
                "type": "QUEST_GUIDE_NPC",
                "param": [
                    "1160"
                ],
                "guideScene": 3,
                "guideStyle": "QUEST_GUIDE_STYLE_TARGET",
                "guideLayer": "QUEST_GUIDE_LAYER_SCENE"
            },
            "guideHint": {
                "KPOGPNLFAAE": ""
            },
            "finishParent": true,
            "isRewind": true,
            "finishExec": [
                {
                    "type": "QUEST_EXEC_DEL_PACK_ITEM",
                    "param": [
                        "100135",
                        "1"
                    ]
                }
            ],
            "versionBegin": "",
            "versionEnd": ""
        }
    ],
    "talks": [
        {
            "id": 37201,
            "beginWay": "TALK_BEGIN_MANUAL",
            "beginCond": [
                {
                    "type": "QUEST_COND_STATE_EQUAL",
                    "param": [
                        "37203",
                        "2"
                    ]
                }
            ],
            "nextTalks": [
                37203
            ],
            "npcId": [
                1160
            ],
            "performCfg": "QuestDialogue/AQ/Mengde2_372/Q37201pre",
            "heroTalk": "TALK_HERO_MAIN",
            "questId": 372,
            "assetIndex": 8231347020783444260,
            "prePerformCfg": ""
        },
        {
            "id": 37203,
            "activeMode": "PLAY_MODE_ALL",
            "beginCond": [
                {
                    "type": "QUEST_COND_STATE_EQUAL",
                    "param": [
                        "37203",
                        "2"
                    ]
                }
            ],
            "nextTalks": [
                3720301
            ],
            "initDialog": 3720101,
            "npcId": [
                1160
            ],
            "performCfg": "QuestDialogue/AQ/Mengde2_372/Q37201",
            "heroTalk": "TALK_HERO_MAIN",
            "questId": 372,
            "assetIndex": 12237858317754933478,
            "prePerformCfg": ""
        },
        {
            "id": 3720301,
            "activeMode": "PLAY_MODE_ALL",
            "beginCond": [
                {
                    "type": "QUEST_COND_STATE_EQUAL",
                    "param": [
                        "37203",
                        "2"
                    ]
                }
            ],
            "initDialog": 3720101,
            "npcId": [
                1160
            ],
            "performCfg": "QuestDialogue/AQ/Mengde2_372/Q37205",
            "heroTalk": "TALK_HERO_MAIN",
            "questId": 372,
            "assetIndex": 16483390009200317218,
            "prePerformCfg": ""
        }
    ],
    "preloadLuaList": [
        15505298042890098912,
        8621857572886984428
    ],
    "AILPOGENMJB": [
        3237233862096732578
    ],
    "freeStyleDic": {
        "10038": [
            1120
        ],
        "10039": [
            1120
        ],
        "10040": [
            1120
        ],
        "10041": [
            1120
        ],
        "10042": [
            1120
        ],
        "1160": [
            1120
        ]
    }
}