{
    "id": 376,
    "resId": 1002,
    "series": 1002,
    "titleTextMapHash": 2512702433,
    "descTextMapHash": 2382906927,
    "luaPath": "Actor/Quest/MQ376",
    "suggestTrackMainQuestList": [
        377
    ],
    "rewardIdList": [
        100376
    ],
    "chapterId": 1002,
    "subQuests": [
        {
            "subId": 37601,
            "mainId": 376,
            "order": 1,
            "isMpBlock": true,
            "descTextMapHash": 4056705575,
            "finishCond": [
                {
                    "type": "QUEST_CONTENT_TRIGGER_FIRE",
                    "param": [
                        1031,
                        0
                    ]
                }
            ],
            "guide": {
                "type": "QUEST_GUIDE_LOCATION",
                "param": [
                    "Q375RunStart"
                ],
                "guideScene": 3
            },
            "showGuide": "QUEST_GUIDE_ITEM_DISABLE",
            "guideHint": {
                "KPOGPNLFAAE": ""
            },
            "isRewind": true,
            "finishExec": [
                {
                    "type": "QUEST_EXEC_LOCK_POINT",
                    "param": [
                        "3",
                        "31"
                    ]
                },
                {
                    "type": "QUEST_EXEC_LOCK_POINT",
                    "param": [
                        "3",
                        "32"
                    ]
                }
            ],
            "versionBegin": "",
            "versionEnd": ""
        },
        {
            "subId": 37602,
            "mainId": 376,
            "order": 2,
            "isMpBlock": true,
            "descTextMapHash": 1721371527,
            "banType": "BAN_GROUP_COMMON",
            "finishCond": [
                {
                    "type": "QUEST_CONTENT_TRIGGER_FIRE",
                    "param": [
                        1070,
                        0
                    ]
                }
            ],
            "failCond": [
                {
                    "type": "QUEST_CONTENT_NOT_FINISH_PLOT",
                    "param": [
                        37602,
                        0
                    ]
                },
                {
                    "type": "QUEST_CONTENT_TEAM_DEAD",
                    "param": [
                        0,
                        0
                    ]
                }
            ],
            "guide": {
                "type": "QUEST_GUIDE_LOCATION",
                "param": [
                    "QuestBarUI"
                ],
                "guideScene": 3
            },
            "showGuide": "QUEST_GUIDE_ITEM_DISABLE",
            "guideHint": {
                "KPOGPNLFAAE": ""
            },
            "finishExec": [
                {
                    "type": "QUEST_EXEC_UNLOCK_POINT",
                    "param": [
                        "3",
                        "31"
                    ]
                },
                {
                    "type": "QUEST_EXEC_UNLOCK_POINT",
                    "param": [
                        "3",
                        "32"
                    ]
                }
            ],
            "versionBegin": "",
            "versionEnd": ""
        },
        {
            "subId": 37603,
            "mainId": 376,
            "order": 3,
            "descTextMapHash": 3574689671,
            "showType": "QUEST_HIDDEN",
            "finishCond": [
                {
                    "type": "QUEST_CONTENT_FINISH_PLOT",
                    "param": [
                        0,
                        0
                    ]
                }
            ],
            "guide": {},
            "guideHint": {
                "KPOGPNLFAAE": ""
            },
            "finishExec": [
                {
                    "type": "QUEST_EXEC_ROLLBACK_QUEST",
                    "param": [
                        "37601"
                    ]
                }
            ],
            "versionBegin": "",
            "versionEnd": ""
        },
        {
            "subId": 37604,
            "mainId": 376,
            "order": 4,
            "descTextMapHash": 2005605039,
            "finishCond": [
                {
                    "type": "QUEST_CONTENT_ENTER_ROOM",
                    "param": [
                        1009,
                        0
                    ]
                }
            ],
            "guide": {
                "type": "QUEST_GUIDE_LOCATION",
                "param": [
                    "QuestBarEnter"
                ],
                "guideScene": 3
            },
            "showGuide": "QUEST_GUIDE_ITEM_DISABLE",
            "guideHint": {
                "KPOGPNLFAAE": ""
            },
            "isRewind": true,
            "versionBegin": "",
            "versionEnd": ""
        },
        {
            "subId": 37605,
            "mainId": 376,
            "order": 5,
            "descTextMapHash": 1810506007,
            "finishCond": [
                {
                    "type": "QUEST_CONTENT_COMPLETE_TALK",
                    "param": [
                        37604,
                        0
                    ]
                }
            ],
            "guide": {
                "type": "QUEST_GUIDE_NPC",
                "param": [
                    "1009"
                ],
                "guideScene": 1009,
                "guideStyle": "QUEST_GUIDE_STYLE_TARGET",
                "guideLayer": "QUEST_GUIDE_LAYER_SCENE"
            },
            "guideHint": {
                "KPOGPNLFAAE": ""
            },
            "isRewind": true,
            "versionBegin": "",
            "versionEnd": ""
        },
        {
            "subId": 37606,
            "mainId": 376,
            "order": 6,
            "isMpBlock": true,
            "descTextMapHash": 3333731143,
            "finishCond": [
                {
                    "type": "QUEST_CONTENT_TRIGGER_FIRE",
                    "param": [
                        1034,
                        0
                    ]
                }
            ],
            "guide": {
                "type": "QUEST_GUIDE_LOCATION",
                "param": [
                    "Q376Hide"
                ],
                "guideScene": 1009,
                "guideStyle": "QUEST_GUIDE_STYLE_TARGET",
                "guideLayer": "QUEST_GUIDE_LAYER_UI"
            },
            "guideHint": {
                "KPOGPNLFAAE": ""
            },
            "isRewind": true,
            "versionBegin": "",
            "versionEnd": ""
        },
        {
            "subId": 37607,
            "mainId": 376,
            "order": 7,
            "isMpBlock": true,
            "descTextMapHash": 145332607,
            "showType": "QUEST_HIDDEN",
            "finishCond": [
                {
                    "type": "QUEST_CONTENT_COMPLETE_TALK",
                    "param": [
                        37606,
                        0
                    ]
                }
            ],
            "guide": {
                "type": "QUEST_GUIDE_LOCATION",
                "param": [
                    "Q376Hide"
                ],
                "guideScene": 1009
            },
            "guideHint": {
                "KPOGPNLFAAE": ""
            },
            "isRewind": true,
            "versionBegin": "",
            "versionEnd": ""
        },
        {
            "subId": 37608,
            "mainId": 376,
            "order": 8,
            "isMpBlock": true,
            "descTextMapHash": 4168627359,
            "finishCond": [
                {
                    "type": "QUEST_CONTENT_COMPLETE_TALK",
                    "param": [
                        37607,
                        0
                    ]
                }
            ],
            "guide": {
                "type": "QUEST_GUIDE_NPC",
                "param": [
                    "1009"
                ],
                "guideScene": 1009,
                "guideStyle": "QUEST_GUIDE_STYLE_TARGET",
                "guideLayer": "QUEST_GUIDE_LAYER_SCENE"
            },
            "guideHint": {
                "KPOGPNLFAAE": ""
            },
            "finishParent": true,
            "isRewind": true,
            "versionBegin": "",
            "versionEnd": ""
        }
    ],
    "talks": [
        {
            "id": 37604,
            "beginWay": "TALK_BEGIN_MANUAL",
            "beginCondComb": "LOGIC_AND",
            "beginCond": [
                {
                    "type": "QUEST_COND_STATE_EQUAL",
                    "param": [
                        "37604",
                        "3"
                    ]
                },
                {
                    "type": "QUEST_COND_STATE_EQUAL",
                    "param": [
                        "37605",
                        "2"
                    ]
                }
            ],
            "priority": 1,
            "initDialog": 3760401,
            "npcId": [
                1009
            ],
            "performCfg": "QuestDialogue/AQ/Mengde2_376/Q37604",
            "heroTalk": "TALK_HERO_MAIN",
            "questId": 376,
            "assetIndex": 2337936851598139517,
            "prePerformCfg": ""
        },
        {
            "id": 37605,
            "beginWay": "TALK_BEGIN_MANUAL",
            "beginCond": [
                {
                    "type": "QUEST_COND_STATE_EQUAL",
                    "param": [
                        "37606",
                        "2"
                    ]
                }
            ],
            "priority": 1,
            "initDialog": 3760411,
            "npcId": [
                1009
            ],
            "performCfg": "",
            "heroTalk": "TALK_HERO_MAIN",
            "questId": 376,
            "assetIndex": 7660764157381927480,
            "prePerformCfg": ""
        },
        {
            "id": 37606,
            "beginWay": "TALK_BEGIN_MANUAL",
            "beginCondComb": "LOGIC_AND",
            "beginCond": [
                {
                    "type": "QUEST_COND_STATE_EQUAL",
                    "param": [
                        "37606",
                        "3"
                    ]
                },
                {
                    "type": "QUEST_COND_STATE_EQUAL",
                    "param": [
                        "37607",
                        "2"
                    ]
                }
            ],
            "priority": 1,
            "initDialog": 3760601,
            "npcId": [
                1009
            ],
            "performCfg": "QuestDialogue/AQ/Mengde2_376/Q37606",
            "heroTalk": "TALK_HERO_MAIN",
            "questId": 376,
            "assetIndex": 9373007579709431738,
            "prePerformCfg": ""
        },
        {
            "id": 37607,
            "beginWay": "TALK_BEGIN_AUTO",
            "beginCondComb": "LOGIC_AND",
            "beginCond": [
                {
                    "type": "QUEST_COND_STATE_EQUAL",
                    "param": [
                        "37607",
                        "3"
                    ]
                },
                {
                    "type": "QUEST_COND_STATE_EQUAL",
                    "param": [
                        "37608",
                        "2"
                    ]
                }
            ],
            "priority": 1,
            "initDialog": 3760701,
            "npcId": [
                1009
            ],
            "performCfg": "QuestDialogue/AQ/Mengde2_376/Q37607",
            "heroTalk": "TALK_HERO_MAIN",
            "questId": 376,
            "assetIndex": 835772610102083219,
            "prePerformCfg": ""
        }
    ],
    "preloadLuaList": [
        2268650960672206304,
        10841700135441927722,
        3088369788188086520
    ]
}