{
    "id": 40003,
    "series": 10001,
    "type": "EQ",
    "titleTextMapHash": 937678633,
    "descTextMapHash": 1056995535,
    "luaPath": "Actor/Quest/EQ40003",
    "suggestTrackMainQuestList": [
        40004
    ],
    "chapterId": 10003,
    "subQuests": [
        {
            "subId": 4000301,
            "mainId": 40003,
            "order": 1,
            "descTextMapHash": 2885163886,
            "showType": "QUEST_HIDDEN",
            "finishCond": [
                {
                    "type": "QUEST_CONTENT_FINISH_PLOT",
                    "param": [
                        4000301,
                        0
                    ]
                }
            ],
            "guide": {},
            "guideHint": {
                "KPOGPNLFAAE": ""
            },
            "isRewind": true,
            "versionBegin": "",
            "versionEnd": ""
        },
        {
            "subId": 4000302,
            "mainId": 40003,
            "order": 2,
            "descTextMapHash": 786706294,
            "finishCond": [
                {
                    "type": "QUEST_CONTENT_COMPLETE_TALK",
                    "param": [
                        4000302,
                        0
                    ]
                }
            ],
            "guide": {
                "type": "QUEST_GUIDE_NPC",
                "param": [
                    "2056"
                ],
                "guideScene": 3,
                "guideStyle": "QUEST_GUIDE_STYLE_TARGET",
                "guideLayer": "QUEST_GUIDE_LAYER_SCENE"
            },
            "guideHint": {
                "KPOGPNLFAAE": ""
            },
            "isRewind": true,
            "finishExec": [
                {
                    "type": "QUEST_EXEC_ACTIVE_ACTIVITY_COND_STATE",
                    "param": [
                        "1001",
                        "10019"
                    ]
                }
            ],
            "versionBegin": "",
            "versionEnd": ""
        },
        {
            "subId": 4000303,
            "mainId": 40003,
            "order": 4,
            "isMpBlock": true,
            "descTextMapHash": 4093106382,
            "finishCond": [
                {
                    "type": "QUEST_CONTENT_LUA_NOTIFY",
                    "param": [
                        0,
                        0
                    ],
                    "count": 1
                },
                {
                    "type": "QUEST_CONTENT_LUA_NOTIFY",
                    "param": [
                        0,
                        0
                    ],
                    "count": 1
                }
            ],
            "guide": {
                "type": "QUEST_GUIDE_LOCATION",
                "param": [
                    "Q40003Target1",
                    "40"
                ],
                "guideScene": 3,
                "guideStyle": "QUEST_GUIDE_STYLE_POINT",
                "guideLayer": "QUEST_GUIDE_LAYER_SCENE"
            },
            "guideHint": {
                "KPOGPNLFAAE": ""
            },
            "isRewind": true,
            "versionBegin": "",
            "versionEnd": ""
        },
        {
            "subId": 4000304,
            "mainId": 40003,
            "order": 5,
            "descTextMapHash": 4078059974,
            "finishCond": [
                {
                    "type": "QUEST_CONTENT_COMPLETE_TALK",
                    "param": [
                        4000304,
                        0
                    ]
                }
            ],
            "guide": {
                "type": "QUEST_GUIDE_NPC",
                "param": [
                    "242801"
                ],
                "guideScene": 3,
                "guideStyle": "QUEST_GUIDE_STYLE_TARGET",
                "guideLayer": "QUEST_GUIDE_LAYER_SCENE"
            },
            "guideHint": {
                "KPOGPNLFAAE": ""
            },
            "isRewind": true,
            "finishExec": [
                {
                    "type": "QUEST_EXEC_INACTIVE_ACTIVITY_COND_STATE",
                    "param": [
                        "1001",
                        "10019"
                    ]
                }
            ],
            "versionBegin": "",
            "versionEnd": ""
        },
        {
            "subId": 4000305,
            "mainId": 40003,
            "order": 3,
            "descTextMapHash": 3131649070,
            "finishCond": [
                {
                    "type": "QUEST_CONTENT_FINISH_PLOT",
                    "param": [
                        4000305,
                        0
                    ]
                }
            ],
            "guide": {
                "type": "QUEST_GUIDE_LOCATION",
                "param": [
                    "Q40003Target1",
                    "40"
                ],
                "guideScene": 3,
                "guideStyle": "QUEST_GUIDE_STYLE_POINT",
                "guideLayer": "QUEST_GUIDE_LAYER_SCENE"
            },
            "guideHint": {
                "KPOGPNLFAAE": ""
            },
            "isRewind": true,
            "versionBegin": "",
            "versionEnd": ""
        },
        {
            "subId": 4000306,
            "mainId": 40003,
            "order": 6,
            "descTextMapHash": 893254470,
            "finishCond": [
                {
                    "type": "QUEST_CONTENT_TRIGGER_FIRE",
                    "param": [
                        1158,
                        0
                    ]
                }
            ],
            "guide": {
                "type": "QUEST_GUIDE_LOCATION",
                "param": [
                    "Q40002Target1"
                ],
                "guideScene": 3,
                "guideStyle": "QUEST_GUIDE_STYLE_POINT",
                "guideLayer": "QUEST_GUIDE_LAYER_SCENE"
            },
            "guideHint": {
                "KPOGPNLFAAE": ""
            },
            "isRewind": true,
            "versionBegin": "",
            "versionEnd": ""
        },
        {
            "subId": 4000307,
            "mainId": 40003,
            "order": 7,
            "descTextMapHash": 1816404478,
            "showType": "QUEST_HIDDEN",
            "finishCond": [
                {
                    "type": "QUEST_CONTENT_COMPLETE_TALK",
                    "param": [
                        4000307,
                        0
                    ]
                }
            ],
            "guide": {},
            "guideHint": {
                "KPOGPNLFAAE": ""
            },
            "versionBegin": "",
            "versionEnd": ""
        },
        {
            "subId": 4000308,
            "mainId": 40003,
            "order": 8,
            "descTextMapHash": 773268118,
            "finishCond": [
                {
                    "type": "QUEST_CONTENT_TRIGGER_FIRE",
                    "param": [
                        1161,
                        0
                    ]
                }
            ],
            "guide": {},
            "guideHint": {
                "KPOGPNLFAAE": ""
            },
            "isRewind": true,
            "versionBegin": "",
            "versionEnd": ""
        },
        {
            "subId": 4000309,
            "mainId": 40003,
            "order": 9,
            "descTextMapHash": 3546850766,
            "finishCond": [
                {
                    "type": "QUEST_CONTENT_COMPLETE_TALK",
                    "param": [
                        4000309,
                        0
                    ]
                }
            ],
            "guide": {
                "type": "QUEST_GUIDE_NPC",
                "param": [
                    "10204"
                ],
                "guideScene": 3,
                "guideStyle": "QUEST_GUIDE_STYLE_TARGET",
                "guideLayer": "QUEST_GUIDE_LAYER_SCENE"
            },
            "guideHint": {
                "KPOGPNLFAAE": ""
            },
            "finishParent": true,
            "isRewind": true,
            "versionBegin": "",
            "versionEnd": ""
        }
    ],
    "talks": [
        {
            "id": 4000302,
            "beginWay": "TALK_BEGIN_MANUAL",
            "beginCond": [
                {
                    "type": "QUEST_COND_STATE_EQUAL",
                    "param": [
                        "4000302",
                        "2"
                    ]
                }
            ],
            "priority": 5,
            "initDialog": 400030201,
            "npcId": [
                2056
            ],
            "performCfg": "QuestDialogue/EQ/Sealamp1_40003/Q4000302",
            "questId": 40003,
            "assetIndex": 8220829777237879510,
            "prePerformCfg": ""
        },
        {
            "id": 4000304,
            "beginWay": "TALK_BEGIN_MANUAL",
            "beginCond": [
                {
                    "type": "QUEST_COND_STATE_EQUAL",
                    "param": [
                        "4000304",
                        "2"
                    ]
                }
            ],
            "priority": 5,
            "initDialog": 400030401,
            "npcId": [
                242801
            ],
            "performCfg": "QuestDialogue/EQ/Sealamp1_40003/Q4000304",
            "questId": 40003,
            "assetIndex": 17163285625191011639,
            "prePerformCfg": ""
        },
        {
            "id": 4000307,
            "beginWay": "TALK_BEGIN_AUTO",
            "beginCond": [
                {
                    "type": "QUEST_COND_STATE_EQUAL",
                    "param": [
                        "4000307",
                        "2"
                    ]
                }
            ],
            "priority": 5,
            "initDialog": 400030701,
            "npcId": [
                1005
            ],
            "performCfg": "QuestDialogue/EQ/Sealamp1_40003/Q4000307",
            "questId": 40003,
            "assetIndex": 7548785011474331742,
            "prePerformCfg": ""
        },
        {
            "id": 4000309,
            "beginWay": "TALK_BEGIN_MANUAL",
            "beginCond": [
                {
                    "type": "QUEST_COND_STATE_EQUAL",
                    "param": [
                        "4000309",
                        "2"
                    ]
                }
            ],
            "priority": 5,
            "initDialog": 400030901,
            "npcId": [
                10204
            ],
            "performCfg": "QuestDialogue/EQ/Sealamp1_40003/Q4000309",
            "questId": 40003,
            "assetIndex": 9865286373755690704,
            "prePerformCfg": ""
        }
    ],
    "preloadLuaList": [
        14457059026087496718,
        11529452434626032547
    ],
    "AILPOGENMJB": [
        11741409959316590597
    ],
    "freeStyleDic": {
        "1005": [
            1190
        ],
        "10204": [
            1190
        ],
        "242801": [
            1190
        ]
    }
}