{
    "id": 469,
    "type": "WQ",
    "titleTextMapHash": 3277174689,
    "descTextMapHash": 3160488263,
    "luaPath": "Actor/Quest/IQ469",
    "suggestTrackMainQuestList": [
        100469
    ],
    "showRedPoint": true,
    "subQuests": [
        {
            "subId": 46901,
            "mainId": 469,
            "order": 1,
            "descTextMapHash": 2484957871,
            "showType": "QUEST_HIDDEN",
            "finishCond": [
                {
                    "type": "QUEST_CONTENT_TRIGGER_FIRE",
                    "param": [
                        1096,
                        0
                    ]
                }
            ],
            "guide": {
                "type": "QUEST_GUIDE_LOCATION",
                "param": [
                    "Q469Paimon1"
                ],
                "guideScene": 3
            },
            "showGuide": "QUEST_GUIDE_ITEM_DISABLE",
            "guideHint": {
                "KPOGPNLFAAE": ""
            },
            "versionBegin": "",
            "versionEnd": ""
        },
        {
            "subId": 46902,
            "mainId": 469,
            "order": 2,
            "descTextMapHash": 3357318719,
            "finishCond": [
                {
                    "type": "QUEST_CONTENT_CITY_LEVEL_UP",
                    "param": [
                        1,
                        2
                    ]
                }
            ],
            "guide": {
                "type": "QUEST_GUIDE_LOCATION",
                "param": [
                    "Q469Paimon1"
                ],
                "guideScene": 3
            },
            "showGuide": "QUEST_GUIDE_ITEM_DISABLE",
            "guideHint": {
                "KPOGPNLFAAE": ""
            },
            "finishParent": true,
            "versionBegin": "",
            "versionEnd": ""
        },
        {
            "subId": 46903,
            "mainId": 469,
            "order": 3,
            "descTextMapHash": 106117023,
            "finishCond": [
                {
                    "type": "QUEST_CONTENT_COMPLETE_TALK",
                    "param": [
                        46901,
                        0
                    ]
                },
                {
                    "type": "QUEST_CONTENT_COMPLETE_TALK",
                    "param": [
                        46902,
                        0
                    ]
                }
            ],
            "guide": {
                "type": "QUEST_GUIDE_NPC",
                "param": [
                    "1486"
                ],
                "guideScene": 3,
                "guideStyle": "QUEST_GUIDE_STYLE_TARGET",
                "guideLayer": "QUEST_GUIDE_LAYER_SCENE"
            },
            "guideHint": {
                "KPOGPNLFAAE": ""
            },
            "finishParent": true,
            "isRewind": true,
            "versionBegin": "",
            "versionEnd": ""
        },
        {
            "subId": 46904,
            "mainId": 469,
            "order": 1,
            "descTextMapHash": 3402784999,
            "showType": "QUEST_HIDDEN",
            "finishCond": [
                {
                    "type": "QUEST_CONTENT_OBTAIN_ITEM",
                    "param": [
                        107001,
                        1
                    ]
                }
            ],
            "failCond": [
                {
                    "type": "QUEST_CONTENT_COMPLETE_TALK",
                    "param": [
                        30902,
                        0
                    ]
                }
            ],
            "guide": {},
            "guideHint": {
                "KPOGPNLFAAE": ""
            },
            "versionBegin": "",
            "versionEnd": ""
        }
    ],
    "preloadLuaList": [
        14457059026087496718
    ]
}