{
    "id": 70512,
    "resId": 4014,
    "type": "WQ",
    "mainQuestTag": "MAINQUEST_TAG_GUIDE",
    "titleTextMapHash": 1977000623,
    "descTextMapHash": 726805150,
    "luaPath": "Actor/Quest/WQ70512",
    "rewardIdList": [
        170512
    ],
    "showRedPoint": true,
    "activityId": 5085,
    "subQuests": [
        {
            "subId": 7051201,
            "mainId": 70512,
            "order": 1,
            "descTextMapHash": 2325095828,
            "finishCond": [
                {
                    "type": "QUEST_CONTENT_COMPLETE_TALK",
                    "param": [
                        7051202,
                        0
                    ]
                }
            ],
            "guide": {
                "type": "QUEST_GUIDE_LOCATION",
                "param": [
                    "Q38302Player",
                    "25"
                ],
                "guideScene": 3,
                "guideStyle": "QUEST_GUIDE_STYLE_TARGET",
                "guideLayer": "QUEST_GUIDE_LAYER_SCENE"
            },
            "showGuide": "QUEST_GUIDE_ITEM_DISABLE",
            "guideHint": {
                "KPOGPNLFAAE": ""
            },
            "isRewind": true,
            "versionBegin": "",
            "versionEnd": ""
        },
        {
            "subId": 7051202,
            "mainId": 70512,
            "order": 99,
            "descTextMapHash": 3557165908,
            "finishCond": [
                {
                    "type": "QUEST_CONTENT_FINISH_PLOT",
                    "param": [
                        7051202,
                        0
                    ]
                }
            ],
            "guide": {
                "type": "QUEST_GUIDE_NPC",
                "param": [
                    "1531"
                ],
                "guideScene": 3,
                "guideStyle": "QUEST_GUIDE_STYLE_TARGET",
                "guideLayer": "QUEST_GUIDE_LAYER_SCENE"
            },
            "guideHint": {
                "KPOGPNLFAAE": ""
            },
            "isRewind": true,
            "versionBegin": "",
            "versionEnd": ""
        },
        {
            "subId": 7051203,
            "mainId": 70512,
            "order": 2,
            "descTextMapHash": 2210092572,
            "finishCond": [
                {
                    "type": "QUEST_CONTENT_FINISH_PLOT",
                    "param": [
                        7051203,
                        0
                    ]
                }
            ],
            "guide": {
                "type": "QUEST_GUIDE_LOCATION",
                "param": [
                    "Q7051203_guide",
                    "20"
                ],
                "guideScene": 3,
                "guideStyle": "QUEST_GUIDE_STYLE_TARGET",
                "guideLayer": "QUEST_GUIDE_LAYER_SCENE"
            },
            "showGuide": "QUEST_GUIDE_ITEM_DISABLE",
            "guideHint": {
                "KPOGPNLFAAE": ""
            },
            "isRewind": true,
            "versionBegin": "",
            "versionEnd": ""
        },
        {
            "subId": 7051204,
            "mainId": 70512,
            "order": 3,
            "descTextMapHash": 2351569140,
            "finishCond": [
                {
                    "type": "QUEST_CONTENT_COMPLETE_TALK",
                    "param": [
                        7051204,
                        0
                    ]
                }
            ],
            "guide": {
                "type": "QUEST_GUIDE_LOCATION",
                "param": [
                    "Q7051203_guide2"
                ],
                "guideScene": 3,
                "guideStyle": "QUEST_GUIDE_STYLE_TARGET",
                "guideLayer": "QUEST_GUIDE_LAYER_SCENE"
            },
            "showGuide": "QUEST_GUIDE_ITEM_DISABLE",
            "guideHint": {
                "KPOGPNLFAAE": ""
            },
            "isRewind": true,
            "finishExec": [
                {
                    "type": "QUEST_EXEC_SET_QUEST_GLOBAL_VAR",
                    "param": [
                        "70516",
                        "2"
                    ]
                }
            ],
            "versionBegin": "",
            "versionEnd": ""
        },
        {
            "subId": 7051205,
            "mainId": 70512,
            "order": 4,
            "descTextMapHash": 1016781828,
            "finishCond": [
                {
                    "type": "QUEST_CONTENT_COMPLETE_TALK",
                    "param": [
                        7051205,
                        0
                    ]
                }
            ],
            "guide": {
                "type": "QUEST_GUIDE_LOCATION",
                "param": [
                    "Q7051205_guide",
                    "20"
                ],
                "guideScene": 3,
                "guideStyle": "QUEST_GUIDE_STYLE_TARGET",
                "guideLayer": "QUEST_GUIDE_LAYER_SCENE"
            },
            "showGuide": "QUEST_GUIDE_ITEM_DISABLE",
            "guideHint": {
                "KPOGPNLFAAE": ""
            },
            "isRewind": true,
            "finishExec": [
                {
                    "type": "QUEST_EXEC_GRANT_TRIAL_AVATAR_AND_LOCK_TEAM",
                    "param": [
                        "43",
                        "1"
                    ]
                }
            ],
            "versionBegin": "",
            "versionEnd": ""
        },
        {
            "subId": 7051206,
            "mainId": 70512,
            "order": 5,
            "isMpBlock": true,
            "descTextMapHash": 1888321924,
            "finishCond": [
                {
                    "type": "QUEST_CONTENT_LUA_NOTIFY",
                    "param": [
                        0,
                        0
                    ],
                    "count": 1
                }
            ],
            "failCond": [
                {
                    "type": "QUEST_CONTENT_TEAM_DEAD",
                    "param": [
                        0,
                        0
                    ]
                },
                {
                    "type": "QUEST_CONTENT_LEAVE_SCENE_RANGE",
                    "param": [
                        3,
                        50
                    ]
                },
                {
                    "type": "QUEST_CONTENT_ANY_MANUAL_TRANSPORT",
                    "param": [
                        0,
                        0
                    ]
                }
            ],
            "guide": {
                "type": "QUEST_GUIDE_LOCATION",
                "param": [
                    "Q7051205_guide",
                    "20"
                ],
                "guideScene": 3,
                "guideStyle": "QUEST_GUIDE_STYLE_TARGET",
                "guideLayer": "QUEST_GUIDE_LAYER_SCENE"
            },
            "showGuide": "QUEST_GUIDE_ITEM_DISABLE",
            "guideHint": {
                "KPOGPNLFAAE": ""
            },
            "finishExec": [
                {
                    "type": "QUEST_EXEC_UNREGISTER_DYNAMIC_GROUP",
                    "param": [
                        "133001095"
                    ]
                },
                {
                    "type": "QUEST_EXEC_REMOVE_TRIAL_AVATAR",
                    "param": [
                        "43"
                    ]
                },
                {
                    "type": "QUEST_EXEC_UNLOCK_AVATAR_TEAM"
                }
            ],
            "failExec": [
                {
                    "type": "QUEST_EXEC_ROLLBACK_QUEST",
                    "param": [
                        "7051205"
                    ]
                },
                {
                    "type": "QUEST_EXEC_UNREGISTER_DYNAMIC_GROUP",
                    "param": [
                        "133001095"
                    ]
                },
                {
                    "type": "QUEST_EXEC_REMOVE_TRIAL_AVATAR",
                    "param": [
                        "43"
                    ]
                },
                {
                    "type": "QUEST_EXEC_UNLOCK_AVATAR_TEAM"
                }
            ],
            "versionBegin": "",
            "versionEnd": ""
        },
        {
            "subId": 7051207,
            "mainId": 70512,
            "order": 6,
            "isMpBlock": true,
            "descTextMapHash": 2806017620,
            "finishCond": [
                {
                    "type": "QUEST_CONTENT_COMPLETE_TALK",
                    "param": [
                        7051207,
                        0
                    ]
                }
            ],
            "guide": {
                "type": "QUEST_GUIDE_NPC",
                "param": [
                    "30192"
                ],
                "guideScene": 3,
                "guideStyle": "QUEST_GUIDE_STYLE_TARGET",
                "guideLayer": "QUEST_GUIDE_LAYER_SCENE"
            },
            "guideHint": {
                "KPOGPNLFAAE": ""
            },
            "finishParent": true,
            "isRewind": true,
            "finishExec": [
                {
                    "type": "QUEST_EXEC_SET_QUEST_GLOBAL_VAR",
                    "param": [
                        "70516",
                        "3"
                    ]
                },
                {
                    "type": "QUEST_EXEC_REFRESH_GROUP_SUITE",
                    "param": [
                        "3",
                        "133001093,3"
                    ]
                }
            ],
            "versionBegin": "",
            "versionEnd": ""
        }
    ],
    "talks": [
        {
            "id": 7051202,
            "beginWay": "TALK_BEGIN_MANUAL",
            "beginCond": [
                {
                    "type": "QUEST_COND_STATE_EQUAL",
                    "param": [
                        "7051201",
                        "2"
                    ]
                }
            ],
            "priority": 5,
            "initDialog": 705120201,
            "npcId": [
                1531
            ],
            "performCfg": "QuestDialogue/WQ/Mengde_70512/Q7051202",
            "heroTalk": "TALK_HERO_MAIN",
            "questId": 70512,
            "assetIndex": 5408993774473724691,
            "prePerformCfg": ""
        },
        {
            "id": 7051204,
            "beginWay": "TALK_BEGIN_MANUAL",
            "beginCond": [
                {
                    "type": "QUEST_COND_STATE_EQUAL",
                    "param": [
                        "7051204",
                        "2"
                    ]
                }
            ],
            "priority": 5,
            "initDialog": 705120401,
            "npcId": [
                30192
            ],
            "performCfg": "QuestDialogue/WQ/Mengde_70512/Q7051204",
            "heroTalk": "TALK_HERO_MAIN",
            "questId": 70512,
            "assetIndex": 4877036539434248957,
            "prePerformCfg": ""
        },
        {
            "id": 7051205,
            "beginWay": "TALK_BEGIN_MANUAL",
            "beginCond": [
                {
                    "type": "QUEST_COND_STATE_EQUAL",
                    "param": [
                        "7051205",
                        "2"
                    ]
                }
            ],
            "priority": 5,
            "initDialog": 705120501,
            "npcId": [
                30192
            ],
            "performCfg": "QuestDialogue/WQ/Mengde_70512/Q7051205",
            "heroTalk": "TALK_HERO_MAIN",
            "questId": 70512,
            "assetIndex": 6792271446198104113,
            "prePerformCfg": ""
        },
        {
            "id": 7051207,
            "beginWay": "TALK_BEGIN_MANUAL",
            "beginCond": [
                {
                    "type": "QUEST_COND_STATE_EQUAL",
                    "param": [
                        "7051207",
                        "2"
                    ]
                }
            ],
            "priority": 5,
            "initDialog": 705120701,
            "npcId": [
                30192
            ],
            "performCfg": "QuestDialogue/WQ/Mengde_70512/Q7051207",
            "heroTalk": "TALK_HERO_MAIN",
            "questId": 70512,
            "assetIndex": 344802733704304346,
            "prePerformCfg": ""
        },
        {
            "id": 7051208,
            "beginWay": "TALK_BEGIN_MANUAL",
            "beginCondComb": "LOGIC_OR",
            "beginCond": [
                {
                    "type": "QUEST_COND_STATE_EQUAL",
                    "param": [
                        "7051203",
                        "2"
                    ]
                },
                {
                    "type": "QUEST_COND_STATE_EQUAL",
                    "param": [
                        "7051204",
                        "2"
                    ]
                },
                {
                    "type": "QUEST_COND_STATE_EQUAL",
                    "param": [
                        "7051205",
                        "2"
                    ]
                },
                {
                    "type": "QUEST_COND_STATE_EQUAL",
                    "param": [
                        "7051206",
                        "2"
                    ]
                },
                {
                    "type": "QUEST_COND_STATE_EQUAL",
                    "param": [
                        "7051207",
                        "2"
                    ]
                }
            ],
            "priority": 5,
            "initDialog": 705120801,
            "npcId": [
                1531
            ],
            "performCfg": "QuestDialogue/WQ/Mengde_70512/Q7051208",
            "heroTalk": "TALK_HERO_MAIN",
            "questId": 70512,
            "assetIndex": 4339912938481493718,
            "prePerformCfg": ""
        }
    ],
    "preloadLuaList": [
        18394304264296322854,
        12194507461166837998,
        3706627614822745218
    ],
    "AILPOGENMJB": [
        14341985329879856170
    ]
}