{
    "id": 70532,
    "type": "WQ",
    "mainQuestTag": "MAINQUEST_TAG_GUIDE",
    "titleTextMapHash": 190334695,
    "descTextMapHash": 2714721998,
    "luaPath": "Actor/Quest/WQ70532",
    "suggestTrackOutOfOrder": true,
    "rewardIdList": [
        170532
    ],
    "showRedPoint": true,
    "activityId": 2022,
    "subQuests": [
        {
            "subId": 7053201,
            "mainId": 70532,
            "order": 1,
            "descTextMapHash": 2650574748,
            "finishCond": [
                {
                    "type": "QUEST_CONTENT_COMPLETE_TALK",
                    "param": [
                        7053201,
                        0
                    ]
                }
            ],
            "guide": {
                "type": "QUEST_GUIDE_NPC",
                "param": [
                    "30381"
                ],
                "guideScene": 3
            },
            "guideHint": {
                "KPOGPNLFAAE": ""
            },
            "finishParent": true,
            "isRewind": true,
            "versionBegin": "",
            "versionEnd": ""
        }
    ],
    "talks": [
        {
            "id": 7053201,
            "beginWay": "TALK_BEGIN_MANUAL",
            "beginCond": [
                {
                    "type": "QUEST_COND_STATE_EQUAL",
                    "param": [
                        "7053201",
                        "2"
                    ]
                }
            ],
            "priority": 5,
            "initDialog": 705320101,
            "npcId": [
                30381
            ],
            "performCfg": "",
            "heroTalk": "TALK_HERO_MAIN",
            "questId": 70532,
            "assetIndex": 2800361163818026675,
            "prePerformCfg": ""
        }
    ],
    "dialogList": [
        {
            "id": 705321203,
            "talkRole": {
                "type": "TALK_ROLE_NPC",
                "id": "30382"
            },
            "talkContentTextMapHash": 1966392570,
            "talkAssetPath": "",
            "talkAssetPathAlter": "",
            "talkAudioName": "",
            "actionBefore": "",
            "actionWhile": "",
            "actionAfter": "",
            "optionIcon": ""
        }
    ]
}