{
    "id": 70669,
    "type": "WQ",
    "activeMode": "PLAY_MODE_ALL",
    "titleTextMapHash": 2425651319,
    "descTextMapHash": 2586894918,
    "luaPath": "Actor/Quest/WQ70669",
    "rewardIdList": [
        170669
    ],
    "subQuests": [
        {
            "subId": 7066901,
            "mainId": 70669,
            "order": 1,
            "showType": "QUEST_HIDDEN",
            "finishCond": [
                {
                    "type": "QUEST_CONTENT_LEAVE_SCENE",
                    "param": [
                        79999,
                        0
                    ]
                }
            ],
            "guide": {},
            "showGuide": "QUEST_GUIDE_ITEM_DISABLE",
            "guideHint": {
                "KPOGPNLFAAE": ""
            },
            "isRewind": true,
            "versionBegin": "",
            "versionEnd": ""
        },
        {
            "subId": 7066902,
            "mainId": 70669,
            "order": 2,
            "descTextMapHash": 2484362468,
            "finishCond": [
                {
                    "type": "QUEST_CONTENT_COMPLETE_TALK",
                    "param": [
                        7066901,
                        0
                    ]
                }
            ],
            "guide": {
                "type": "QUEST_GUIDE_NPC",
                "param": [
                    "1713"
                ],
                "guideScene": 1076
            },
            "guideHint": {
                "KPOGPNLFAAE": ""
            },
            "isRewind": true,
            "versionBegin": "",
            "versionEnd": ""
        },
        {
            "subId": 7066903,
            "mainId": 70669,
            "order": 3,
            "descTextMapHash": 3141300492,
            "finishCond": [
                {
                    "type": "QUEST_CONTENT_GCG_LEVEL_WIN",
                    "param": [
                        20004,
                        1
                    ]
                }
            ],
            "guide": {
                "type": "QUEST_GUIDE_NPC",
                "param": [
                    "1713"
                ],
                "guideScene": 1076,
                "guideStyle": "QUEST_GUIDE_STYLE_TARGET",
                "guideLayer": "QUEST_GUIDE_LAYER_SCENE"
            },
            "guideHint": {
                "KPOGPNLFAAE": ""
            },
            "isRewind": true,
            "versionBegin": "",
            "versionEnd": ""
        },
        {
            "subId": 7066904,
            "mainId": 70669,
            "order": 5,
            "descTextMapHash": 3174416428,
            "finishCond": [
                {
                    "type": "QUEST_CONTENT_COMPLETE_TALK",
                    "param": [
                        7066902,
                        0
                    ]
                }
            ],
            "guide": {
                "type": "QUEST_GUIDE_NPC",
                "param": [
                    "1713"
                ],
                "guideScene": 1076
            },
            "guideHint": {
                "KPOGPNLFAAE": ""
            },
            "finishParent": true,
            "isRewind": true,
            "finishExec": [
                {
                    "type": "QUEST_EXEC_DEL_ALL_SPECIFIC_PACK_ITEM",
                    "param": [
                        "339904"
                    ]
                }
            ],
            "versionBegin": "",
            "versionEnd": ""
        },
        {
            "subId": 7066905,
            "mainId": 70669,
            "order": 4,
            "showType": "QUEST_HIDDEN",
            "finishCond": [
                {
                    "type": "QUEST_CONTENT_GCG_LEVEL_WIN",
                    "param": [
                        20004,
                        1
                    ]
                }
            ],
            "failCond": [
                {
                    "type": "QUEST_CONTENT_GCG_LEVEL_WIN",
                    "param": [
                        20004,
                        2
                    ]
                }
            ],
            "guide": {},
            "showGuide": "QUEST_GUIDE_ITEM_DISABLE",
            "guideHint": {
                "KPOGPNLFAAE": ""
            },
            "failExec": [
                {
                    "type": "QUEST_EXEC_ROLLBACK_QUEST",
                    "param": [
                        "7066903"
                    ]
                }
            ],
            "versionBegin": "",
            "versionEnd": ""
        }
    ],
    "talks": [
        {
            "id": 7066901,
            "activeMode": "PLAY_MODE_HOST",
            "beginCondComb": "LOGIC_OR",
            "beginCond": [
                {
                    "type": "QUEST_COND_STATE_EQUAL",
                    "param": [
                        "7066902",
                        "2"
                    ]
                },
                {
                    "type": "QUEST_COND_STATE_EQUAL",
                    "param": [
                        "7066903",
                        "2"
                    ]
                }
            ],
            "priority": 5,
            "initDialog": 706660101,
            "decoratorID": 3,
            "npcId": [
                1713
            ],
            "performCfg": "",
            "questId": 70669,
            "assetIndex": 7775487947300231462,
            "prePerformCfg": ""
        },
        {
            "id": 7066902,
            "beginWay": "TALK_BEGIN_MANUAL",
            "activeMode": "PLAY_MODE_HOST",
            "beginCond": [
                {
                    "type": "QUEST_COND_STATE_EQUAL",
                    "param": [
                        "7066904",
                        "2"
                    ]
                }
            ],
            "priority": 5,
            "initDialog": 706690201,
            "npcId": [
                1713
            ],
            "performCfg": "",
            "questId": 70669,
            "assetIndex": 3543479925538370605,
            "prePerformCfg": ""
        },
        {
            "id": 7066903,
            "beginWay": "TALK_BEGIN_MANUAL",
            "activeMode": "PLAY_MODE_HOST",
            "beginCondComb": "LOGIC_AND",
            "beginCond": [
                {
                    "type": "QUEST_COND_STATE_EQUAL",
                    "param": [
                        "7066904",
                        "0"
                    ]
                },
                {
                    "type": "QUEST_COND_GCG_WORLD_CHALLENGE_RESULT",
                    "param": [
                        "-1"
                    ]
                }
            ],
            "priority": 5,
            "initDialog": 706660301,
            "npcId": [
                1713
            ],
            "performCfg": "",
            "questId": 70669,
            "assetIndex": 2411208378439787620,
            "prePerformCfg": ""
        }
    ],
    "preloadLuaList": [
        1576439787441289,
        9192387700594374215
    ],
    "AILPOGENMJB": [
        10852970329134487064
    ]
}