{
    "id": 70710,
    "type": "WQ",
    "titleTextMapHash": 406866879,
    "descTextMapHash": 3856998486,
    "luaPath": "Actor/Quest/WQ70710",
    "subQuests": [
        {
            "subId": 7071001,
            "mainId": 70710,
            "order": 1,
            "descTextMapHash": 3729881212,
            "finishCond": [
                {
                    "type": "QUEST_CONTENT_FINISH_ITEM_GIVING",
                    "param": [
                        7071001,
                        0
                    ]
                }
            ],
            "guide": {
                "type": "QUEST_GUIDE_NPC",
                "param": [
                    "1656"
                ],
                "guideScene": 3,
                "guideLayer": "QUEST_GUIDE_LAYER_SCENE"
            },
            "guideHint": {
                "KPOGPNLFAAE": ""
            },
            "isRewind": true,
            "versionBegin": "",
            "versionEnd": ""
        },
        {
            "subId": 7071002,
            "mainId": 70710,
            "order": 2,
            "descTextMapHash": 505775236,
            "finishCond": [
                {
                    "type": "QUEST_CONTENT_COMPLETE_TALK",
                    "param": [
                        7071002,
                        0
                    ]
                }
            ],
            "guide": {
                "type": "QUEST_GUIDE_NPC",
                "param": [
                    "1656"
                ],
                "guideScene": 3,
                "guideLayer": "QUEST_GUIDE_LAYER_SCENE"
            },
            "guideHint": {
                "KPOGPNLFAAE": ""
            },
            "finishParent": true,
            "isRewind": true,
            "versionBegin": "",
            "versionEnd": ""
        }
    ],
    "talks": [
        {
            "id": 7071001,
            "beginWay": "TALK_BEGIN_MANUAL",
            "beginCondComb": "LOGIC_AND",
            "beginCond": [
                {
                    "type": "QUEST_COND_STATE_EQUAL",
                    "param": [
                        "7071001",
                        "2"
                    ]
                },
                {
                    "type": "QUEST_COND_ITEM_GIVING_ACTIVED",
                    "param": [
                        "7071001"
                    ]
                }
            ],
            "priority": 1,
            "initDialog": 707100101,
            "npcId": [
                1656
            ],
            "performCfg": "",
            "questId": 70710,
            "assetIndex": 10441975044363103203,
            "dontBlockDaily": true,
            "prePerformCfg": ""
        },
        {
            "id": 7071002,
            "beginWay": "TALK_BEGIN_AUTO",
            "beginCond": [
                {
                    "type": "QUEST_COND_STATE_EQUAL",
                    "param": [
                        "7071002",
                        "2"
                    ]
                }
            ],
            "priority": 1,
            "initDialog": 707100201,
            "npcId": [
                1656
            ],
            "performCfg": "",
            "questId": 70710,
            "assetIndex": 6249658157319575473,
            "prePerformCfg": ""
        }
    ]
}