{
    "id": 70811,
    "type": "WQ",
    "titleTextMapHash": 3560753991,
    "descTextMapHash": 207221958,
    "luaPath": "",
    "showType": "QUEST_HIDDEN",
    "subQuests": [
        {
            "subId": 7081101,
            "mainId": 70811,
            "order": 1,
            "descTextMapHash": 545195268,
            "showType": "QUEST_HIDDEN",
            "guide": {
                "guideScene": 3,
                "guideStyle": "QUEST_GUIDE_STYLE_START",
                "guideLayer": "QUEST_GUIDE_LAYER_SCENE"
            },
            "showGuide": "QUEST_GUIDE_ITEM_DISABLE",
            "guideHint": {
                "KPOGPNLFAAE": ""
            },
            "finishParent": true,
            "isRewind": true,
            "finishExec": [
                {
                    "type": "QUEST_EXEC_REFRESH_GROUP_SUITE",
                    "param": [
                        "3",
                        "133004355,2"
                    ]
                },
                {
                    "type": "QUEST_EXEC_REFRESH_GROUP_SUITE",
                    "param": [
                        "3",
                        "133004356,2"
                    ]
                },
                {
                    "type": "QUEST_EXEC_REFRESH_GROUP_SUITE",
                    "param": [
                        "3",
                        "133004357,2"
                    ]
                },
                {
                    "type": "QUEST_EXEC_REFRESH_GROUP_SUITE",
                    "param": [
                        "3",
                        "133004360,2"
                    ]
                }
            ],
            "versionBegin": "",
            "versionEnd": ""
        }
    ]
}