{
    "id": 70911,
    "type": "WQ",
    "titleTextMapHash": 3900539711,
    "descTextMapHash": 1727182006,
    "luaPath": "",
    "rewardIdList": [
        551006
    ],
    "showType": "QUEST_HIDDEN",
    "subQuests": [
        {
            "subId": 7091101,
            "mainId": 70911,
            "order": 1,
            "showType": "QUEST_HIDDEN",
            "finishCond": [
                {
                    "type": "QUEST_CONTENT_COMPLETE_TALK",
                    "param": [
                        7091101,
                        0
                    ]
                }
            ],
            "guide": {},
            "guideHint": {
                "KPOGPNLFAAE": ""
            },
            "finishParent": true,
            "versionBegin": "",
            "versionEnd": ""
        }
    ]
}