{
    "id": 70921,
    "type": "WQ",
    "titleTextMapHash": 2844150527,
    "descTextMapHash": 3415893550,
    "luaPath": "",
    "rewardIdList": [
        551019
    ],
    "showType": "QUEST_HIDDEN",
    "subQuests": [
        {
            "subId": 7092101,
            "mainId": 70921,
            "order": 1,
            "showType": "QUEST_HIDDEN",
            "finishCond": [
                {
                    "type": "QUEST_CONTENT_COMPLETE_TALK",
                    "param": [
                        7092101,
                        0
                    ]
                }
            ],
            "guide": {},
            "guideHint": {
                "KPOGPNLFAAE": ""
            },
            "finishParent": true,
            "versionBegin": "",
            "versionEnd": ""
        }
    ]
}