{
    "id": 71704,
    "type": "WQ",
    "titleTextMapHash": 3585374927,
    "descTextMapHash": 677890294,
    "luaPath": "Actor/Quest/WQ71704",
    "subQuests": [
        {
            "subId": 7170401,
            "mainId": 71704,
            "order": 1,
            "descTextMapHash": 1662312612,
            "finishCond": [
                {
                    "type": "QUEST_CONTENT_FINISH_ITEM_GIVING",
                    "param": [
                        7170401,
                        0
                    ]
                }
            ],
            "guide": {
                "type": "QUEST_GUIDE_NPC",
                "param": [
                    "2103"
                ],
                "guideScene": 3,
                "guideLayer": "QUEST_GUIDE_LAYER_SCENE"
            },
            "guideHint": {
                "KPOGPNLFAAE": ""
            },
            "isRewind": true,
            "versionBegin": "",
            "versionEnd": ""
        },
        {
            "subId": 7170402,
            "mainId": 71704,
            "order": 2,
            "descTextMapHash": 1297720692,
            "finishCond": [
                {
                    "type": "QUEST_CONTENT_COMPLETE_TALK",
                    "param": [
                        7170402,
                        0
                    ]
                }
            ],
            "guide": {
                "type": "QUEST_GUIDE_NPC",
                "param": [
                    "2103"
                ],
                "guideScene": 3,
                "guideLayer": "QUEST_GUIDE_LAYER_SCENE"
            },
            "guideHint": {
                "KPOGPNLFAAE": ""
            },
            "finishParent": true,
            "isRewind": true,
            "versionBegin": "",
            "versionEnd": ""
        }
    ],
    "talks": [
        {
            "id": 7170401,
            "beginWay": "TALK_BEGIN_MANUAL",
            "beginCondComb": "LOGIC_AND",
            "beginCond": [
                {
                    "type": "QUEST_COND_STATE_EQUAL",
                    "param": [
                        "7170401",
                        "2"
                    ]
                },
                {
                    "type": "QUEST_COND_ITEM_GIVING_ACTIVED",
                    "param": [
                        "7170401"
                    ]
                }
            ],
            "priority": 1,
            "initDialog": 717040101,
            "npcId": [
                2103
            ],
            "performCfg": "",
            "questId": 71704,
            "assetIndex": 11866638256051979979,
            "dontBlockDaily": true,
            "prePerformCfg": ""
        },
        {
            "id": 7170402,
            "beginWay": "TALK_BEGIN_AUTO",
            "beginCond": [
                {
                    "type": "QUEST_COND_STATE_EQUAL",
                    "param": [
                        "7170402",
                        "2"
                    ]
                }
            ],
            "priority": 1,
            "initDialog": 717040201,
            "npcId": [
                2103
            ],
            "performCfg": "",
            "questId": 71704,
            "assetIndex": 16452130737276729395,
            "prePerformCfg": ""
        }
    ]
}