{
    "id": 71832,
    "type": "WQ",
    "titleTextMapHash": 2606024759,
    "descTextMapHash": 1357934422,
    "luaPath": "Actor/Quest/WQ71832",
    "showType": "QUEST_HIDDEN",
    "subQuests": [
        {
            "subId": 7183201,
            "mainId": 71832,
            "order": 1,
            "descTextMapHash": 2025584412,
            "showType": "QUEST_HIDDEN",
            "guide": {},
            "guideHint": {
                "KPOGPNLFAAE": ""
            },
            "finishParent": true,
            "finishExec": [
                {
                    "type": "QUEST_EXEC_UNLOCK_POINT",
                    "param": [
                        "3",
                        "439"
                    ]
                }
            ],
            "versionBegin": "",
            "versionEnd": ""
        }
    ]
}