{
    "id": 71945,
    "type": "WQ",
    "titleTextMapHash": 3998868079,
    "descTextMapHash": 4080894718,
    "luaPath": "",
    "rewardIdList": [
        552053
    ],
    "showType": "QUEST_HIDDEN",
    "subQuests": [
        {
            "subId": 7194501,
            "mainId": 71945,
            "order": 1,
            "showType": "QUEST_HIDDEN",
            "finishCond": [
                {
                    "type": "QUEST_CONTENT_COMPLETE_TALK",
                    "param": [
                        7194501,
                        0
                    ]
                }
            ],
            "guide": {},
            "guideHint": {
                "KPOGPNLFAAE": ""
            },
            "finishParent": true,
            "versionBegin": "",
            "versionEnd": ""
        }
    ]
}