{
    "id": 71952,
    "type": "WQ",
    "titleTextMapHash": 2574920167,
    "descTextMapHash": 1609141406,
    "luaPath": "",
    "rewardIdList": [
        552026
    ],
    "showType": "QUEST_HIDDEN",
    "subQuests": [
        {
            "subId": 7195201,
            "mainId": 71952,
            "order": 1,
            "showType": "QUEST_HIDDEN",
            "finishCond": [
                {
                    "type": "QUEST_CONTENT_COMPLETE_TALK",
                    "param": [
                        7195201,
                        0
                    ]
                }
            ],
            "guide": {},
            "guideHint": {
                "KPOGPNLFAAE": ""
            },
            "finishParent": true,
            "versionBegin": "",
            "versionEnd": ""
        }
    ]
}