{
    "id": 72134,
    "type": "WQ",
    "activeMode": "PLAY_MODE_ALL",
    "titleTextMapHash": 1495501791,
    "descTextMapHash": 1530289486,
    "luaPath": "Actor/Quest/WQ72134",
    "rewardIdList": [
        172134
    ],
    "chapterId": 10037,
    "subQuests": [
        {
            "subId": 7213401,
            "mainId": 72134,
            "order": 1,
            "descTextMapHash": 72438740,
            "stepDescTextMapHash": 3528049365,
            "finishCond": [
                {
                    "type": "QUEST_CONTENT_COMPLETE_TALK",
                    "param": [
                        7213401,
                        0
                    ]
                }
            ],
            "guide": {
                "type": "QUEST_GUIDE_NPC",
                "param": [
                    "20248",
                    "SELECT_NPC_NONE"
                ]
            },
            "guideHint": {
                "KPOGPNLFAAE": ""
            },
            "isRewind": true,
            "versionBegin": "",
            "versionEnd": ""
        },
        {
            "subId": 7213402,
            "mainId": 72134,
            "order": 2,
            "finishCond": [
                {
                    "type": "QUEST_CONTENT_FINISH_PLOT",
                    "param": [
                        7213402,
                        0
                    ]
                }
            ],
            "guide": {},
            "guideHint": {
                "KPOGPNLFAAE": ""
            },
            "finishParent": true,
            "finishExec": [
                {
                    "type": "QUEST_EXEC_ADD_SCENE_TAG",
                    "param": [
                        "3",
                        "111"
                    ]
                }
            ],
            "versionBegin": "",
            "versionEnd": ""
        }
    ],
    "talks": [
        {
            "id": 7213401,
            "beginWay": "TALK_BEGIN_MANUAL",
            "activeMode": "PLAY_MODE_ALL",
            "beginCond": [
                {
                    "type": "QUEST_COND_STATE_EQUAL",
                    "param": [
                        "7213401",
                        "2"
                    ]
                }
            ],
            "priority": 5,
            "initDialog": 721340101,
            "npcId": [
                20248
            ],
            "performCfg": "",
            "questId": 72134,
            "assetIndex": 5394974525145672351,
            "prePerformCfg": "",
            "lockGameTime": true
        }
    ]
}