{
    "id": 72670,
    "series": 5053,
    "type": "WQ",
    "mainQuestTag": "MAINQUEST_TAG_GUIDE",
    "titleTextMapHash": 3034928031,
    "descTextMapHash": 3764260878,
    "luaPath": "Actor/Quest/WQ72670",
    "rewardIdList": [
        172670
    ],
    "specialShowRewardId": [
        172670
    ],
    "showRedPoint": true,
    "activityId": 5053,
    "subQuests": [
        {
            "subId": 7267001,
            "mainId": 72670,
            "order": 1,
            "descTextMapHash": 4096622844,
            "finishCond": [
                {
                    "type": "QUEST_CONTENT_COMPLETE_TALK",
                    "param": [
                        7267001,
                        0
                    ]
                }
            ],
            "guide": {
                "type": "QUEST_GUIDE_NPC",
                "param": [
                    "30084"
                ],
                "guideScene": 3,
                "guideStyle": "QUEST_GUIDE_STYLE_START",
                "guideLayer": "QUEST_GUIDE_LAYER_SCENE"
            },
            "guideHint": {
                "KPOGPNLFAAE": ""
            },
            "isRewind": true,
            "versionBegin": "",
            "versionEnd": ""
        },
        {
            "subId": 7267002,
            "mainId": 72670,
            "order": 2,
            "isMpBlock": true,
            "descTextMapHash": 957823252,
            "finishCond": [
                {
                    "type": "QUEST_CONTENT_LUA_NOTIFY",
                    "param": [
                        0,
                        0
                    ],
                    "count": 1
                }
            ],
            "guide": {
                "type": "QUEST_GUIDE_LOCATION",
                "param": [
                    "Q7267002_310400431",
                    "30"
                ],
                "guideScene": 3,
                "guideStyle": "QUEST_GUIDE_STYLE_POINT",
                "guideLayer": "QUEST_GUIDE_LAYER_SCENE"
            },
            "showGuide": "QUEST_GUIDE_ITEM_DISABLE",
            "guideHint": {
                "KPOGPNLFAAE": ""
            },
            "isRewind": true,
            "versionBegin": "",
            "versionEnd": ""
        },
        {
            "subId": 7267003,
            "mainId": 72670,
            "order": 5,
            "descTextMapHash": 2073001148,
            "finishCond": [
                {
                    "type": "QUEST_CONTENT_COMPLETE_TALK",
                    "param": [
                        7267002,
                        0
                    ]
                }
            ],
            "guide": {
                "type": "QUEST_GUIDE_NPC",
                "param": [
                    "30084"
                ],
                "guideScene": 3,
                "guideStyle": "QUEST_GUIDE_STYLE_TARGET",
                "guideLayer": "QUEST_GUIDE_LAYER_SCENE"
            },
            "guideHint": {
                "KPOGPNLFAAE": ""
            },
            "finishParent": true,
            "isRewind": true,
            "versionBegin": "",
            "versionEnd": ""
        },
        {
            "subId": 7267004,
            "mainId": 72670,
            "order": 3,
            "isMpBlock": true,
            "descTextMapHash": 757685428,
            "finishCond": [
                {
                    "type": "QUEST_CONTENT_LUA_NOTIFY",
                    "param": [
                        0,
                        0
                    ],
                    "count": 1
                }
            ],
            "guide": {
                "type": "QUEST_GUIDE_LOCATION",
                "param": [
                    "Q7267004_310400430",
                    "30"
                ],
                "guideScene": 3,
                "guideStyle": "QUEST_GUIDE_STYLE_POINT",
                "guideLayer": "QUEST_GUIDE_LAYER_SCENE"
            },
            "showGuide": "QUEST_GUIDE_ITEM_DISABLE",
            "guideHint": {
                "KPOGPNLFAAE": ""
            },
            "isRewind": true,
            "versionBegin": "",
            "versionEnd": ""
        },
        {
            "subId": 7267005,
            "mainId": 72670,
            "order": 4,
            "isMpBlock": true,
            "descTextMapHash": 2039920684,
            "finishCond": [
                {
                    "type": "QUEST_CONTENT_LUA_NOTIFY",
                    "param": [
                        0,
                        0
                    ],
                    "count": 1
                }
            ],
            "guide": {
                "type": "QUEST_GUIDE_LOCATION",
                "param": [
                    "Q7267005_310400432",
                    "50"
                ],
                "guideScene": 3,
                "guideStyle": "QUEST_GUIDE_STYLE_POINT",
                "guideLayer": "QUEST_GUIDE_LAYER_SCENE"
            },
            "showGuide": "QUEST_GUIDE_ITEM_DISABLE",
            "guideHint": {
                "KPOGPNLFAAE": ""
            },
            "isRewind": true,
            "versionBegin": "",
            "versionEnd": ""
        },
        {
            "subId": 7267006,
            "mainId": 72670,
            "order": 6,
            "descTextMapHash": 3993049532,
            "stepDescTextMapHash": 3048432965,
            "finishCond": [
                {
                    "type": "QUEST_CONTENT_FINISH_PLOT",
                    "param": [
                        7267006,
                        0
                    ]
                }
            ],
            "guide": {
                "type": "QUEST_GUIDE_NPC",
                "param": [
                    "30084"
                ],
                "guideScene": 3,
                "guideStyle": "QUEST_GUIDE_STYLE_TARGET",
                "guideLayer": "QUEST_GUIDE_LAYER_SCENE"
            },
            "guideHint": {
                "KPOGPNLFAAE": ""
            },
            "finishParent": true,
            "isRewind": true,
            "versionBegin": "",
            "versionEnd": ""
        }
    ],
    "talks": [
        {
            "id": 7267001,
            "beginWay": "TALK_BEGIN_MANUAL",
            "beginCond": [
                {
                    "type": "QUEST_COND_STATE_EQUAL",
                    "param": [
                        "7267001",
                        "2"
                    ]
                }
            ],
            "priority": 5,
            "initDialog": 726700101,
            "npcId": [
                30084
            ],
            "performCfg": "",
            "heroTalk": "TALK_HERO_MAIN",
            "questId": 72670,
            "assetIndex": 1779125672086349649,
            "prePerformCfg": "",
            "freeStyleList": [
                1240,
                1171,
                1172,
                1173,
                1190,
                1150
            ]
        },
        {
            "id": 7267002,
            "beginWay": "TALK_BEGIN_MANUAL",
            "beginCond": [
                {
                    "type": "QUEST_COND_STATE_EQUAL",
                    "param": [
                        "7267003",
                        "2"
                    ]
                }
            ],
            "priority": 5,
            "initDialog": 726700201,
            "npcId": [
                30084
            ],
            "performCfg": "",
            "heroTalk": "TALK_HERO_MAIN",
            "questId": 72670,
            "assetIndex": 4777458496289555906,
            "prePerformCfg": "",
            "freeStyleList": [
                1171,
                1172,
                1173
            ]
        }
    ]
}