{
    "id": 72730,
    "series": 72730,
    "type": "WQ",
    "mainQuestTag": "MAINQUEST_TAG_GUIDE",
    "titleTextMapHash": 186814519,
    "descTextMapHash": 1982180446,
    "luaPath": "Actor/Quest/WQ72730",
    "suggestTrackMainQuestList": [
        72731
    ],
    "rewardIdList": [
        172730
    ],
    "showRedPoint": true,
    "activityId": 5118,
    "subQuests": [
        {
            "subId": 7273001,
            "mainId": 72730,
            "order": 1,
            "descTextMapHash": 1801667724,
            "finishCond": [
                {
                    "type": "QUEST_CONTENT_FINISH_PLOT",
                    "param": [
                        7273001,
                        0
                    ]
                }
            ],
            "guide": {
                "type": "QUEST_GUIDE_LOCATION",
                "param": [
                    "Q7273001_Q7273002_N1044"
                ],
                "guideScene": 3,
                "guideStyle": "QUEST_GUIDE_STYLE_POINT",
                "guideLayer": "QUEST_GUIDE_LAYER_SCENE"
            },
            "showGuide": "QUEST_GUIDE_ITEM_DISABLE",
            "guideHint": {
                "KPOGPNLFAAE": ""
            },
            "isRewind": true,
            "versionBegin": "",
            "versionEnd": ""
        },
        {
            "subId": 7273002,
            "mainId": 72730,
            "order": 2,
            "descTextMapHash": 1728626100,
            "finishCond": [
                {
                    "type": "QUEST_CONTENT_COMPLETE_TALK",
                    "param": [
                        7273002,
                        0
                    ]
                }
            ],
            "guide": {
                "type": "QUEST_GUIDE_NPC",
                "param": [
                    "1044"
                ],
                "guideScene": 3,
                "guideStyle": "QUEST_GUIDE_STYLE_TARGET",
                "guideLayer": "QUEST_GUIDE_LAYER_SCENE"
            },
            "guideHint": {
                "KPOGPNLFAAE": ""
            },
            "versionBegin": "",
            "versionEnd": ""
        },
        {
            "subId": 7273003,
            "mainId": 72730,
            "order": 3,
            "descTextMapHash": 2035883124,
            "finishCond": [
                {
                    "type": "QUEST_CONTENT_FINISH_PLOT",
                    "param": [
                        7273003,
                        0
                    ]
                }
            ],
            "guide": {
                "type": "QUEST_GUIDE_NPC",
                "param": [
                    "1044"
                ],
                "guideScene": 3,
                "guideStyle": "QUEST_GUIDE_STYLE_POINT",
                "guideLayer": "QUEST_GUIDE_LAYER_SCENE"
            },
            "guideHint": {
                "KPOGPNLFAAE": ""
            },
            "isRewind": true,
            "versionBegin": "",
            "versionEnd": ""
        },
        {
            "subId": 7273004,
            "mainId": 72730,
            "order": 4,
            "descTextMapHash": 2645837052,
            "finishCond": [
                {
                    "type": "QUEST_CONTENT_COMPLETE_TALK",
                    "param": [
                        7273004,
                        0
                    ]
                }
            ],
            "guide": {
                "type": "QUEST_GUIDE_NPC",
                "param": [
                    "1044"
                ],
                "guideScene": 3,
                "guideStyle": "QUEST_GUIDE_STYLE_TARGET",
                "guideLayer": "QUEST_GUIDE_LAYER_SCENE"
            },
            "guideHint": {
                "KPOGPNLFAAE": ""
            },
            "versionBegin": "",
            "versionEnd": ""
        },
        {
            "subId": 7273005,
            "mainId": 72730,
            "order": 6,
            "descTextMapHash": 381745876,
            "finishCond": [
                {
                    "type": "QUEST_CONTENT_COMPLETE_TALK",
                    "param": [
                        7273005,
                        0
                    ]
                }
            ],
            "guide": {
                "type": "QUEST_GUIDE_NPC",
                "param": [
                    "13069"
                ],
                "guideScene": 3,
                "guideStyle": "QUEST_GUIDE_STYLE_TARGET"
            },
            "guideHint": {
                "KPOGPNLFAAE": ""
            },
            "isRewind": true,
            "versionBegin": "",
            "versionEnd": ""
        },
        {
            "subId": 7273006,
            "mainId": 72730,
            "order": 7,
            "descTextMapHash": 552555468,
            "finishCond": [
                {
                    "type": "QUEST_CONTENT_LUA_NOTIFY",
                    "param": [
                        0,
                        0
                    ],
                    "count": 1
                }
            ],
            "failCond": [
                {
                    "type": "QUEST_CONTENT_LUA_NOTIFY",
                    "param": [
                        0,
                        0
                    ],
                    "count": 1
                }
            ],
            "guide": {},
            "guideHint": {
                "KPOGPNLFAAE": ""
            },
            "failExec": [
                {
                    "type": "QUEST_EXEC_ROLLBACK_QUEST",
                    "param": [
                        "7273005"
                    ]
                }
            ],
            "versionBegin": "",
            "versionEnd": ""
        },
        {
            "subId": 7273007,
            "mainId": 72730,
            "order": 8,
            "descTextMapHash": 605257548,
            "finishCond": [
                {
                    "type": "QUEST_CONTENT_COMPLETE_TALK",
                    "param": [
                        7273006,
                        0
                    ]
                }
            ],
            "guide": {
                "type": "QUEST_GUIDE_NPC",
                "param": [
                    "13019"
                ],
                "guideScene": 3,
                "guideStyle": "QUEST_GUIDE_STYLE_TARGET"
            },
            "guideHint": {
                "KPOGPNLFAAE": ""
            },
            "finishParent": true,
            "isRewind": true,
            "versionBegin": "",
            "versionEnd": ""
        },
        {
            "subId": 7273008,
            "mainId": 72730,
            "order": 5,
            "descTextMapHash": 1832694396,
            "showType": "QUEST_HIDDEN",
            "finishCond": [
                {
                    "type": "QUEST_CONTENT_FINISH_PLOT",
                    "param": [
                        7273008,
                        0
                    ]
                }
            ],
            "guide": {
                "guideScene": 3,
                "guideStyle": "QUEST_GUIDE_STYLE_TARGET",
                "guideLayer": "QUEST_GUIDE_LAYER_SCENE"
            },
            "showGuide": "QUEST_GUIDE_ITEM_DISABLE",
            "guideHint": {
                "KPOGPNLFAAE": ""
            },
            "finishExec": [
                {
                    "type": "QUEST_EXEC_REGISTER_DYNAMIC_GROUP",
                    "param": [
                        "3",
                        "133209096"
                    ]
                }
            ],
            "versionBegin": "",
            "versionEnd": ""
        }
    ],
    "talks": [
        {
            "id": 7273002,
            "beginWay": "TALK_BEGIN_MANUAL",
            "beginCond": [
                {
                    "type": "QUEST_COND_STATE_EQUAL",
                    "param": [
                        "7273002",
                        "2"
                    ]
                }
            ],
            "priority": 5,
            "initDialog": 727300201,
            "npcId": [
                12278,
                12276,
                1044
            ],
            "performCfg": "QuestDialogue/WQ/Daoqi_72730/Q7273002",
            "heroTalk": "TALK_HERO_MAIN",
            "questId": 72730,
            "assetIndex": 5260065025478220695,
            "prePerformCfg": "",
            "NCDNOCPDNIO": true
        },
        {
            "id": 7273004,
            "beginWay": "TALK_BEGIN_MANUAL",
            "beginCond": [
                {
                    "type": "QUEST_COND_STATE_EQUAL",
                    "param": [
                        "7273004",
                        "2"
                    ]
                }
            ],
            "priority": 5,
            "initDialog": 727300401,
            "npcId": [
                1044,
                12276,
                12278,
                13019
            ],
            "performCfg": "QuestDialogue/WQ/Daoqi_72730/Q7273004",
            "heroTalk": "TALK_HERO_MAIN",
            "questId": 72730,
            "assetIndex": 75000367098082900,
            "prePerformCfg": "",
            "NCDNOCPDNIO": true
        },
        {
            "id": 7273005,
            "beginWay": "TALK_BEGIN_MANUAL",
            "beginCond": [
                {
                    "type": "QUEST_COND_STATE_EQUAL",
                    "param": [
                        "7273005",
                        "2"
                    ]
                }
            ],
            "priority": 5,
            "initDialog": 727300501,
            "npcId": [
                13069,
                1044
            ],
            "performCfg": "QuestDialogue/WQ/Daoqi_72730/Q7273005",
            "heroTalk": "TALK_HERO_MAIN",
            "questId": 72730,
            "assetIndex": 12252930325854542487,
            "prePerformCfg": "",
            "NCDNOCPDNIO": true
        },
        {
            "id": 7273006,
            "beginWay": "TALK_BEGIN_MANUAL",
            "beginCond": [
                {
                    "type": "QUEST_COND_STATE_EQUAL",
                    "param": [
                        "7273007",
                        "2"
                    ]
                }
            ],
            "priority": 5,
            "initDialog": 727300601,
            "npcId": [
                12276,
                1044,
                13069,
                13019,
                12278
            ],
            "performCfg": "QuestDialogue/WQ/Daoqi_72730/Q7273006",
            "heroTalk": "TALK_HERO_MAIN",
            "questId": 72730,
            "assetIndex": 18260259971132698117,
            "prePerformCfg": "",
            "NCDNOCPDNIO": true
        }
    ],
    "preloadLuaList": [
        5932265414352093572,
        9195523188147908179,
        15642620599337752032,
        9985334682531554657
    ],
    "AILPOGENMJB": [
        14125537376917077141
    ]
}