{
    "id": 72905,
    "type": "WQ",
    "titleTextMapHash": 3453460343,
    "descTextMapHash": 2184817774,
    "luaPath": "",
    "rewardIdList": [
        553004
    ],
    "showType": "QUEST_HIDDEN",
    "subQuests": [
        {
            "subId": 7290501,
            "mainId": 72905,
            "order": 1,
            "showType": "QUEST_HIDDEN",
            "finishCond": [
                {
                    "type": "QUEST_CONTENT_COMPLETE_TALK",
                    "param": [
                        7290501,
                        0
                    ]
                }
            ],
            "guide": {},
            "guideHint": {
                "KPOGPNLFAAE": ""
            },
            "finishParent": true,
            "versionBegin": "",
            "versionEnd": ""
        }
    ]
}