{
    "id": 72943,
    "type": "WQ",
    "titleTextMapHash": 1910443863,
    "descTextMapHash": 2304021006,
    "luaPath": "",
    "rewardIdList": [
        553035
    ],
    "showType": "QUEST_HIDDEN",
    "subQuests": [
        {
            "subId": 7294301,
            "mainId": 72943,
            "order": 1,
            "showType": "QUEST_HIDDEN",
            "finishCond": [
                {
                    "type": "QUEST_CONTENT_COMPLETE_TALK",
                    "param": [
                        7294301,
                        0
                    ]
                }
            ],
            "guide": {},
            "guideHint": {
                "KPOGPNLFAAE": ""
            },
            "finishParent": true,
            "versionBegin": "",
            "versionEnd": ""
        }
    ]
}