{
    "id": 73025,
    "type": "WQ",
    "mainQuestTag": "MAINQUEST_TAG_RANK_ZERO_WQ",
    "activeMode": "PLAY_MODE_ALL",
    "titleTextMapHash": 926859983,
    "descTextMapHash": 577527430,
    "luaPath": "Actor/Quest/WQ73025",
    "rewardIdList": [
        173025
    ],
    "specialShowRewardId": [
        33373
    ],
    "chapterId": 10076,
    "subQuests": [
        {
            "subId": 7302501,
            "mainId": 73025,
            "order": 3,
            "descTextMapHash": 2378533476,
            "stepDescTextMapHash": 1847187477,
            "finishCond": [
                {
                    "type": "QUEST_CONTENT_FINISH_PLOT",
                    "param": [
                        7302501,
                        0
                    ]
                },
                {
                    "type": "QUEST_CONTENT_QUEST_STATE_EQUAL",
                    "param": [
                        7302512,
                        3
                    ]
                }
            ],
            "guide": {
                "type": "QUEST_GUIDE_LOCATION",
                "param": [
                    "Q7302501_guide"
                ],
                "guideScene": 3,
                "guideStyle": "QUEST_GUIDE_STYLE_POINT"
            },
            "guideHint": {
                "KPOGPNLFAAE": ""
            },
            "isRewind": true,
            "finishExec": [
                {
                    "type": "QUEST_EXEC_REFRESH_GROUP_SUITE",
                    "param": [
                        "3",
                        "133301049,1"
                    ]
                }
            ],
            "versionBegin": "",
            "versionEnd": ""
        },
        {
            "subId": 7302502,
            "mainId": 73025,
            "order": 4,
            "descTextMapHash": 1674545532,
            "finishCond": [
                {
                    "type": "QUEST_CONTENT_FINISH_PLOT",
                    "param": [
                        7302502,
                        0
                    ]
                },
                {
                    "type": "QUEST_CONTENT_QUEST_STATE_EQUAL",
                    "param": [
                        7302512,
                        3
                    ]
                }
            ],
            "guide": {
                "type": "QUEST_GUIDE_LOCATION",
                "param": [
                    "Q7302502_guide"
                ],
                "guideScene": 3,
                "guideStyle": "QUEST_GUIDE_STYLE_POINT"
            },
            "guideHint": {
                "KPOGPNLFAAE": ""
            },
            "isRewind": true,
            "versionBegin": "",
            "versionEnd": ""
        },
        {
            "subId": 7302503,
            "mainId": 73025,
            "order": 5,
            "descTextMapHash": 3818168324,
            "finishCond": [
                {
                    "type": "QUEST_CONTENT_FINISH_PLOT",
                    "param": [
                        7302503,
                        0
                    ]
                },
                {
                    "type": "QUEST_CONTENT_QUEST_STATE_EQUAL",
                    "param": [
                        7302512,
                        3
                    ]
                }
            ],
            "guide": {
                "type": "QUEST_GUIDE_LOCATION",
                "param": [
                    "Q7302503_guide"
                ],
                "guideScene": 3,
                "guideStyle": "QUEST_GUIDE_STYLE_POINT"
            },
            "guideHint": {
                "KPOGPNLFAAE": ""
            },
            "isRewind": true,
            "versionBegin": "",
            "versionEnd": ""
        },
        {
            "subId": 7302504,
            "mainId": 73025,
            "order": 10,
            "descTextMapHash": 1338489492,
            "finishCond": [
                {
                    "type": "QUEST_CONTENT_FINISH_PLOT",
                    "param": [
                        7302504,
                        0
                    ]
                }
            ],
            "guide": {
                "type": "QUEST_GUIDE_LOCATION",
                "param": [
                    "Q7302505_guide",
                    "50"
                ],
                "guideScene": 3,
                "guideStyle": "QUEST_GUIDE_STYLE_TARGET",
                "guideLayer": "QUEST_GUIDE_LAYER_SCENE"
            },
            "guideHint": {
                "KPOGPNLFAAE": ""
            },
            "isRewind": true,
            "versionBegin": "",
            "versionEnd": ""
        },
        {
            "subId": 7302505,
            "mainId": 73025,
            "order": 15,
            "descTextMapHash": 741441844,
            "stepDescTextMapHash": 1089167493,
            "finishCond": [
                {
                    "type": "QUEST_CONTENT_GADGET_STATE_CHANGE",
                    "param": [
                        133301077,
                        77001
                    ]
                },
                {
                    "type": "QUEST_CONTENT_GADGET_STATE_CHANGE",
                    "param": [
                        133301077,
                        77001
                    ]
                }
            ],
            "guide": {
                "type": "QUEST_GUIDE_LOCATION",
                "param": [
                    "Q7302505_guide"
                ],
                "guideScene": 3,
                "guideStyle": "QUEST_GUIDE_STYLE_POINT"
            },
            "guideHint": {
                "KPOGPNLFAAE": ""
            },
            "isRewind": true,
            "versionBegin": "",
            "versionEnd": ""
        },
        {
            "subId": 7302506,
            "mainId": 73025,
            "order": 21,
            "descTextMapHash": 2951536212,
            "finishCond": [
                {
                    "type": "QUEST_CONTENT_SCENE_LEVEL_TAG_EQ",
                    "param": [
                        39,
                        0
                    ]
                }
            ],
            "guide": {
                "type": "QUEST_GUIDE_LOCATION",
                "param": [
                    "Q7302506_guide"
                ],
                "guideScene": 3,
                "guideStyle": "QUEST_GUIDE_STYLE_POINT"
            },
            "guideHint": {
                "KPOGPNLFAAE": ""
            },
            "isRewind": true,
            "finishExec": [
                {
                    "type": "QUEST_EXEC_DEL_SCENE_TAG",
                    "param": [
                        "3",
                        "1095"
                    ]
                },
                {
                    "type": "QUEST_EXEC_UNHIDE_SCENE_POINT",
                    "param": [
                        "3",
                        "464"
                    ]
                },
                {
                    "type": "QUEST_EXEC_REFRESH_GROUP_SUITE",
                    "param": [
                        "3",
                        "133301642,2"
                    ]
                }
            ],
            "versionBegin": "",
            "versionEnd": ""
        },
        {
            "subId": 7302507,
            "mainId": 73025,
            "order": 30,
            "subIdSet": 1,
            "descTextMapHash": 1043676876,
            "finishCond": [
                {
                    "type": "QUEST_CONTENT_LUA_NOTIFY",
                    "param": [
                        0,
                        0
                    ],
                    "count": 1
                },
                {
                    "type": "QUEST_CONTENT_GADGET_STATE_CHANGE",
                    "param": [
                        133301058,
                        58003
                    ]
                }
            ],
            "guide": {
                "type": "QUEST_GUIDE_LOCATION",
                "param": [
                    "Q7302507_guide",
                    "20"
                ],
                "guideScene": 3,
                "guideStyle": "QUEST_GUIDE_STYLE_TARGET"
            },
            "guideHint": {
                "KPOGPNLFAAE": ""
            },
            "isRewind": true,
            "versionBegin": "",
            "versionEnd": ""
        },
        {
            "subId": 7302508,
            "mainId": 73025,
            "order": 31,
            "subIdSet": 1,
            "descTextMapHash": 2332613236,
            "finishCond": [
                {
                    "type": "QUEST_CONTENT_LUA_NOTIFY",
                    "param": [
                        0,
                        0
                    ],
                    "count": 1
                },
                {
                    "type": "QUEST_CONTENT_GADGET_STATE_CHANGE",
                    "param": [
                        133301060,
                        60001
                    ]
                }
            ],
            "guide": {
                "type": "QUEST_GUIDE_LOCATION",
                "param": [
                    "Q7302508_guide",
                    "20"
                ],
                "guideScene": 3,
                "guideStyle": "QUEST_GUIDE_STYLE_TARGET"
            },
            "guideHint": {
                "KPOGPNLFAAE": ""
            },
            "isRewind": true,
            "versionBegin": "",
            "versionEnd": ""
        },
        {
            "subId": 7302509,
            "mainId": 73025,
            "order": 32,
            "subIdSet": 1,
            "descTextMapHash": 1914646292,
            "finishCond": [
                {
                    "type": "QUEST_CONTENT_LUA_NOTIFY",
                    "param": [
                        0,
                        0
                    ],
                    "count": 1
                },
                {
                    "type": "QUEST_CONTENT_GADGET_STATE_CHANGE",
                    "param": [
                        133301061,
                        61007
                    ]
                }
            ],
            "guide": {
                "type": "QUEST_GUIDE_LOCATION",
                "param": [
                    "Q7302509_guide",
                    "20"
                ],
                "guideScene": 3,
                "guideStyle": "QUEST_GUIDE_STYLE_TARGET"
            },
            "guideHint": {
                "KPOGPNLFAAE": ""
            },
            "isRewind": true,
            "versionBegin": "",
            "versionEnd": ""
        },
        {
            "subId": 7302510,
            "mainId": 73025,
            "order": 45,
            "descTextMapHash": 3704006516,
            "finishCond": [
                {
                    "type": "QUEST_CONTENT_FINISH_PLOT",
                    "param": [
                        7302510,
                        0
                    ]
                }
            ],
            "guide": {
                "type": "QUEST_GUIDE_LOCATION",
                "param": [
                    "Q7302510_guide",
                    "0"
                ],
                "guideScene": 3,
                "guideStyle": "QUEST_GUIDE_STYLE_POINT"
            },
            "guideHint": {
                "KPOGPNLFAAE": ""
            },
            "isRewind": true,
            "versionBegin": "",
            "versionEnd": ""
        },
        {
            "subId": 7302511,
            "mainId": 73025,
            "order": 50,
            "descTextMapHash": 3081999460,
            "finishCond": [
                {
                    "type": "QUEST_CONTENT_COMPLETE_TALK",
                    "param": [
                        7302506,
                        0
                    ]
                }
            ],
            "guide": {
                "type": "QUEST_GUIDE_NPC",
                "param": [
                    "20646"
                ],
                "guideScene": 3,
                "guideStyle": "QUEST_GUIDE_STYLE_TARGET"
            },
            "guideHint": {
                "KPOGPNLFAAE": ""
            },
            "isRewind": true,
            "versionBegin": "",
            "versionEnd": ""
        },
        {
            "subId": 7302512,
            "mainId": 73025,
            "order": 9,
            "showType": "QUEST_HIDDEN",
            "finishCond": [
                {
                    "type": "QUEST_CONTENT_FINISH_PLOT",
                    "param": [
                        7302512,
                        0
                    ]
                }
            ],
            "guide": {},
            "guideHint": {
                "KPOGPNLFAAE": ""
            },
            "isRewind": true,
            "versionBegin": "",
            "versionEnd": ""
        },
        {
            "subId": 7302513,
            "mainId": 73025,
            "order": 25,
            "showType": "QUEST_HIDDEN",
            "finishCond": [
                {
                    "type": "QUEST_CONTENT_FINISH_PLOT",
                    "param": [
                        7302513,
                        0
                    ]
                }
            ],
            "guide": {},
            "guideHint": {
                "KPOGPNLFAAE": ""
            },
            "isRewind": true,
            "versionBegin": "",
            "versionEnd": ""
        },
        {
            "subId": 7302514,
            "mainId": 73025,
            "order": 60,
            "descTextMapHash": 2456225156,
            "finishCond": [
                {
                    "type": "QUEST_CONTENT_SCENE_LEVEL_TAG_EQ",
                    "param": [
                        38,
                        0
                    ]
                }
            ],
            "guide": {
                "type": "QUEST_GUIDE_LOCATION",
                "param": [
                    "Q7302506_guide"
                ],
                "guideScene": 3,
                "guideStyle": "QUEST_GUIDE_STYLE_POINT"
            },
            "guideHint": {
                "KPOGPNLFAAE": ""
            },
            "isRewind": true,
            "versionBegin": "",
            "versionEnd": ""
        },
        {
            "subId": 7302515,
            "mainId": 73025,
            "order": 80,
            "descTextMapHash": 2729991420,
            "stepDescTextMapHash": 4241154613,
            "finishCond": [
                {
                    "type": "QUEST_CONTENT_COMPLETE_TALK",
                    "param": [
                        7302509,
                        0
                    ]
                },
                {
                    "type": "QUEST_CONTENT_COMPLETE_TALK",
                    "param": [
                        7302521,
                        0
                    ]
                }
            ],
            "guide": {
                "type": "QUEST_GUIDE_NPC",
                "param": [
                    "20648"
                ],
                "guideScene": 3,
                "guideStyle": "QUEST_GUIDE_STYLE_TARGET"
            },
            "guideHint": {
                "KPOGPNLFAAE": ""
            },
            "finishParent": true,
            "isRewind": true,
            "finishExec": [
                {
                    "type": "QUEST_EXEC_SET_QUEST_GLOBAL_VAR",
                    "param": [
                        "73103",
                        "1"
                    ]
                },
                {
                    "type": "QUEST_EXEC_REFRESH_GROUP_SUITE",
                    "param": [
                        "3",
                        "133301323,1;133301416,2"
                    ]
                },
                {
                    "type": "QUEST_EXEC_NOTIFY_GROUP_LUA",
                    "param": [
                        "3",
                        "133301221"
                    ]
                },
                {
                    "type": "QUEST_EXEC_UNREGISTER_DYNAMIC_GROUP",
                    "param": [
                        "133301751"
                    ]
                }
            ],
            "versionBegin": "",
            "versionEnd": ""
        },
        {
            "subId": 7302516,
            "mainId": 73025,
            "order": 11,
            "descTextMapHash": 3563578348,
            "finishCond": [
                {
                    "type": "QUEST_CONTENT_COMPLETE_TALK",
                    "param": [
                        7302503,
                        0
                    ]
                }
            ],
            "guide": {},
            "guideHint": {
                "KPOGPNLFAAE": ""
            },
            "finishExec": [
                {
                    "type": "QUEST_EXEC_REFRESH_GROUP_SUITE",
                    "param": [
                        "3",
                        "133301047,1"
                    ]
                },
                {
                    "type": "QUEST_EXEC_REFRESH_GROUP_SUITE",
                    "param": [
                        "3",
                        "133301048,1"
                    ]
                }
            ],
            "versionBegin": "",
            "versionEnd": ""
        },
        {
            "subId": 7302517,
            "mainId": 73025,
            "order": 17,
            "descTextMapHash": 1830367852,
            "stepDescTextMapHash": 3141804877,
            "finishCond": [
                {
                    "type": "QUEST_CONTENT_GADGET_STATE_CHANGE",
                    "param": [
                        133301077,
                        77001
                    ]
                }
            ],
            "failCond": [
                {
                    "type": "QUEST_CONTENT_GADGET_STATE_CHANGE",
                    "param": [
                        133301077,
                        77001
                    ]
                }
            ],
            "guide": {},
            "guideHint": {
                "KPOGPNLFAAE": ""
            },
            "isRewind": true,
            "finishExec": [
                {
                    "type": "QUEST_EXEC_REFRESH_GROUP_SUITE",
                    "param": [
                        "3",
                        "133301153,2"
                    ]
                },
                {
                    "type": "QUEST_EXEC_MODIFY_WEATHER_AREA",
                    "param": [
                        "4056",
                        "0"
                    ]
                }
            ],
            "failExec": [
                {
                    "type": "QUEST_EXEC_ROLLBACK_QUEST",
                    "param": [
                        "7302532"
                    ]
                },
                {
                    "type": "QUEST_EXEC_MODIFY_WEATHER_AREA",
                    "param": [
                        "4056",
                        "0"
                    ]
                }
            ],
            "versionBegin": "",
            "versionEnd": ""
        },
        {
            "subId": 7302518,
            "mainId": 73025,
            "order": 26,
            "descTextMapHash": 4000310396,
            "stepDescTextMapHash": 3033645629,
            "finishCond": [
                {
                    "type": "QUEST_CONTENT_COMPLETE_TALK",
                    "param": [
                        7302504,
                        0
                    ]
                }
            ],
            "guide": {
                "type": "QUEST_GUIDE_NPC",
                "param": [
                    "20646"
                ],
                "guideScene": 3,
                "guideStyle": "QUEST_GUIDE_STYLE_TARGET"
            },
            "guideHint": {
                "KPOGPNLFAAE": ""
            },
            "isRewind": true,
            "versionBegin": "",
            "versionEnd": ""
        },
        {
            "subId": 7302519,
            "mainId": 73025,
            "order": 70,
            "descTextMapHash": 2413129948,
            "finishCond": [
                {
                    "type": "QUEST_CONTENT_COMPLETE_TALK",
                    "param": [
                        7302507,
                        0
                    ]
                },
                {
                    "type": "QUEST_CONTENT_COMPLETE_TALK",
                    "param": [
                        7302508,
                        0
                    ]
                }
            ],
            "guide": {},
            "guideHint": {
                "KPOGPNLFAAE": ""
            },
            "isRewind": true,
            "versionBegin": "",
            "versionEnd": ""
        },
        {
            "subId": 7302520,
            "mainId": 73025,
            "order": 1,
            "descTextMapHash": 1381565052,
            "finishCond": [
                {
                    "type": "QUEST_CONTENT_COMPLETE_TALK",
                    "param": [
                        7302501,
                        0
                    ]
                }
            ],
            "guide": {
                "type": "QUEST_GUIDE_LOCATION",
                "param": [
                    "Q7303104_guide",
                    "20"
                ],
                "guideScene": 3,
                "guideStyle": "QUEST_GUIDE_STYLE_POINT"
            },
            "guideHint": {
                "KPOGPNLFAAE": ""
            },
            "isRewind": true,
            "versionBegin": "",
            "versionEnd": ""
        },
        {
            "subId": 7302521,
            "mainId": 73025,
            "order": 2,
            "descTextMapHash": 2823094380,
            "finishCond": [
                {
                    "type": "QUEST_CONTENT_COMPLETE_TALK",
                    "param": [
                        7302502,
                        0
                    ]
                }
            ],
            "guide": {
                "type": "QUEST_GUIDE_NPC",
                "param": [
                    "20644"
                ],
                "guideScene": 3,
                "guideStyle": "QUEST_GUIDE_STYLE_TARGET"
            },
            "guideHint": {
                "KPOGPNLFAAE": ""
            },
            "isRewind": true,
            "versionBegin": "",
            "versionEnd": ""
        },
        {
            "subId": 7302522,
            "mainId": 73025,
            "order": 6,
            "descTextMapHash": 3881076812,
            "finishCond": [
                {
                    "type": "QUEST_CONTENT_FINISH_PLOT",
                    "param": [
                        7302522,
                        0
                    ]
                },
                {
                    "type": "QUEST_CONTENT_QUEST_STATE_EQUAL",
                    "param": [
                        7302512,
                        3
                    ]
                }
            ],
            "guide": {
                "type": "QUEST_GUIDE_LOCATION",
                "param": [
                    "Q7302522_guide"
                ],
                "guideScene": 3,
                "guideStyle": "QUEST_GUIDE_STYLE_POINT"
            },
            "guideHint": {
                "KPOGPNLFAAE": ""
            },
            "isRewind": true,
            "finishExec": [
                {
                    "type": "QUEST_EXEC_REFRESH_GROUP_SUITE",
                    "param": [
                        "3",
                        "133301047,1"
                    ]
                }
            ],
            "versionBegin": "",
            "versionEnd": ""
        },
        {
            "subId": 7302523,
            "mainId": 73025,
            "order": 7,
            "descTextMapHash": 692693556,
            "finishCond": [
                {
                    "type": "QUEST_CONTENT_FINISH_PLOT",
                    "param": [
                        7302523,
                        0
                    ]
                },
                {
                    "type": "QUEST_CONTENT_QUEST_STATE_EQUAL",
                    "param": [
                        7302512,
                        3
                    ]
                }
            ],
            "guide": {
                "type": "QUEST_GUIDE_LOCATION",
                "param": [
                    "Q7302523_guide"
                ],
                "guideScene": 3,
                "guideStyle": "QUEST_GUIDE_STYLE_POINT"
            },
            "guideHint": {
                "KPOGPNLFAAE": ""
            },
            "isRewind": true,
            "versionBegin": "",
            "versionEnd": ""
        },
        {
            "subId": 7302524,
            "mainId": 73025,
            "order": 8,
            "descTextMapHash": 2760080220,
            "finishCond": [
                {
                    "type": "QUEST_CONTENT_QUEST_STATE_EQUAL",
                    "param": [
                        7302512,
                        3
                    ]
                }
            ],
            "guide": {
                "type": "QUEST_GUIDE_LOCATION",
                "param": [
                    "Q7302524_guide",
                    "200"
                ],
                "guideScene": 3,
                "guideStyle": "QUEST_GUIDE_STYLE_POINT"
            },
            "guideHint": {
                "KPOGPNLFAAE": ""
            },
            "isRewind": true,
            "versionBegin": "",
            "versionEnd": ""
        },
        {
            "subId": 7302525,
            "mainId": 73025,
            "order": 20,
            "descTextMapHash": 2452964972,
            "stepDescTextMapHash": 2490044157,
            "finishCond": [
                {
                    "type": "QUEST_CONTENT_FINISH_PLOT",
                    "param": [
                        7302525,
                        0
                    ]
                }
            ],
            "guide": {
                "type": "QUEST_GUIDE_LOCATION",
                "param": [
                    "Q7302506_guide"
                ],
                "guideScene": 3,
                "guideStyle": "QUEST_GUIDE_STYLE_POINT"
            },
            "guideHint": {
                "KPOGPNLFAAE": ""
            },
            "isRewind": true,
            "finishExec": [
                {
                    "type": "QUEST_EXEC_REFRESH_GROUP_SUITE",
                    "param": [
                        "3",
                        "133301153,1"
                    ]
                }
            ],
            "versionBegin": "",
            "versionEnd": ""
        },
        {
            "subId": 7302526,
            "mainId": 73025,
            "order": 40,
            "showType": "QUEST_HIDDEN",
            "guide": {},
            "guideHint": {
                "KPOGPNLFAAE": ""
            },
            "isRewind": true,
            "versionBegin": "",
            "versionEnd": ""
        },
        {
            "subId": 7302527,
            "mainId": 73025,
            "order": 46,
            "descTextMapHash": 171989108,
            "stepDescTextMapHash": 1610495949,
            "finishCond": [
                {
                    "type": "QUEST_CONTENT_COMPLETE_TALK",
                    "param": [
                        7302505,
                        0
                    ]
                }
            ],
            "guide": {},
            "guideHint": {
                "KPOGPNLFAAE": ""
            },
            "isRewind": true,
            "versionBegin": "",
            "versionEnd": ""
        },
        {
            "subId": 7302528,
            "mainId": 73025,
            "order": 47,
            "descTextMapHash": 459509180,
            "finishCond": [
                {
                    "type": "QUEST_CONTENT_LUA_NOTIFY",
                    "param": [
                        0,
                        0
                    ],
                    "count": 1
                },
                {
                    "type": "QUEST_CONTENT_GADGET_STATE_CHANGE",
                    "param": [
                        133301050,
                        50007
                    ]
                }
            ],
            "guide": {
                "type": "QUEST_GUIDE_LOCATION",
                "param": [
                    "Q7302528_guide",
                    "25"
                ],
                "guideScene": 3,
                "guideStyle": "QUEST_GUIDE_STYLE_TARGET"
            },
            "guideHint": {
                "KPOGPNLFAAE": ""
            },
            "isRewind": true,
            "versionBegin": "",
            "versionEnd": ""
        },
        {
            "subId": 7302529,
            "mainId": 73025,
            "order": 48,
            "descTextMapHash": 1098768524,
            "stepDescTextMapHash": 735414181,
            "finishCond": [
                {
                    "type": "QUEST_CONTENT_FINISH_PLOT",
                    "param": [
                        7302529,
                        0
                    ]
                }
            ],
            "guide": {
                "type": "QUEST_GUIDE_LOCATION",
                "param": [
                    "Q7302506_guide"
                ],
                "guideScene": 3,
                "guideStyle": "QUEST_GUIDE_STYLE_POINT"
            },
            "guideHint": {
                "KPOGPNLFAAE": ""
            },
            "isRewind": true,
            "versionBegin": "",
            "versionEnd": ""
        },
        {
            "subId": 7302530,
            "mainId": 73025,
            "order": 22,
            "showType": "QUEST_HIDDEN",
            "finishCond": [
                {
                    "type": "QUEST_CONTENT_FINISH_PLOT",
                    "param": [
                        7302530,
                        0
                    ]
                }
            ],
            "guide": {},
            "guideHint": {
                "KPOGPNLFAAE": ""
            },
            "isRewind": true,
            "versionBegin": "",
            "versionEnd": ""
        },
        {
            "subId": 7302531,
            "mainId": 73025,
            "order": 36,
            "showType": "QUEST_HIDDEN",
            "finishCond": [
                {
                    "type": "QUEST_CONTENT_FINISH_PLOT",
                    "param": [
                        7302531,
                        0
                    ]
                }
            ],
            "guide": {},
            "guideHint": {
                "KPOGPNLFAAE": ""
            },
            "isRewind": true,
            "versionBegin": "",
            "versionEnd": ""
        },
        {
            "subId": 7302532,
            "mainId": 73025,
            "order": 16,
            "descTextMapHash": 961558684,
            "finishCond": [
                {
                    "type": "QUEST_CONTENT_GADGET_STATE_CHANGE",
                    "param": [
                        133301077,
                        77001
                    ]
                },
                {
                    "type": "QUEST_CONTENT_GADGET_STATE_CHANGE",
                    "param": [
                        133301077,
                        77001
                    ]
                }
            ],
            "guide": {
                "type": "QUEST_GUIDE_LOCATION",
                "param": [
                    "Q7302505_guide"
                ],
                "guideScene": 3,
                "guideStyle": "QUEST_GUIDE_STYLE_POINT"
            },
            "guideHint": {
                "KPOGPNLFAAE": ""
            },
            "isRewind": true,
            "versionBegin": "",
            "versionEnd": ""
        }
    ],
    "talks": [
        {
            "id": 7302501,
            "beginWay": "TALK_BEGIN_MANUAL",
            "activeMode": "PLAY_MODE_HOST",
            "beginCond": [
                {
                    "type": "QUEST_COND_STATE_EQUAL",
                    "param": [
                        "7302520",
                        "2"
                    ]
                }
            ],
            "priority": 5,
            "initDialog": 730250101,
            "npcId": [
                1005
            ],
            "performCfg": "QuestDialogue/WQ/Sumeru_73025/Q7302501",
            "heroTalk": "TALK_HERO_MAIN",
            "questId": 73025,
            "assetIndex": 10692015316953956090,
            "prePerformCfg": ""
        },
        {
            "id": 7302502,
            "beginWay": "TALK_BEGIN_MANUAL",
            "activeMode": "PLAY_MODE_HOST",
            "beginCond": [
                {
                    "type": "QUEST_COND_STATE_EQUAL",
                    "param": [
                        "7302521",
                        "2"
                    ]
                }
            ],
            "priority": 5,
            "initDialog": 730250201,
            "npcId": [
                1005,
                20644
            ],
            "performCfg": "QuestDialogue/WQ/Sumeru_73025/Q7302502",
            "heroTalk": "TALK_HERO_MAIN",
            "questId": 73025,
            "assetIndex": 4002848271341748921,
            "prePerformCfg": ""
        },
        {
            "id": 7302503,
            "beginWay": "TALK_BEGIN_MANUAL",
            "activeMode": "PLAY_MODE_HOST",
            "beginCond": [
                {
                    "type": "QUEST_COND_STATE_EQUAL",
                    "param": [
                        "7302516",
                        "2"
                    ]
                }
            ],
            "priority": 5,
            "initDialog": 730250301,
            "npcId": [
                1005
            ],
            "performCfg": "QuestDialogue/WQ/Sumeru_73025/Q7302503",
            "heroTalk": "TALK_HERO_MAIN",
            "questId": 73025,
            "assetIndex": 14316532231157470204,
            "prePerformCfg": ""
        },
        {
            "id": 7302504,
            "beginWay": "TALK_BEGIN_AUTO",
            "activeMode": "PLAY_MODE_HOST",
            "beginCond": [
                {
                    "type": "QUEST_COND_STATE_EQUAL",
                    "param": [
                        "7302518",
                        "2"
                    ]
                }
            ],
            "priority": 5,
            "initDialog": 730250401,
            "npcId": [
                1005,
                20646
            ],
            "performCfg": "QuestDialogue/WQ/Sumeru_73025/Q7302504",
            "heroTalk": "TALK_HERO_MAIN",
            "questId": 73025,
            "assetIndex": 1408660790307218471,
            "prePerformCfg": ""
        },
        {
            "id": 7302505,
            "beginWay": "TALK_BEGIN_MANUAL",
            "activeMode": "PLAY_MODE_HOST",
            "beginCond": [
                {
                    "type": "QUEST_COND_STATE_EQUAL",
                    "param": [
                        "7302527",
                        "2"
                    ]
                }
            ],
            "priority": 5,
            "initDialog": 730250501,
            "npcId": [
                20646,
                1005
            ],
            "performCfg": "QuestDialogue/WQ/Sumeru_73025/Q7302505",
            "heroTalk": "TALK_HERO_MAIN",
            "questId": 73025,
            "assetIndex": 7806119184454498152,
            "prePerformCfg": ""
        },
        {
            "id": 7302506,
            "beginWay": "TALK_BEGIN_MANUAL",
            "activeMode": "PLAY_MODE_HOST",
            "beginCond": [
                {
                    "type": "QUEST_COND_STATE_EQUAL",
                    "param": [
                        "7302511",
                        "2"
                    ]
                }
            ],
            "priority": 5,
            "initDialog": 730250601,
            "npcId": [
                1005,
                20646
            ],
            "performCfg": "QuestDialogue/WQ/Sumeru_73025/Q7302506",
            "heroTalk": "TALK_HERO_MAIN",
            "questId": 73025,
            "assetIndex": 8616455781480137058,
            "prePerformCfg": ""
        },
        {
            "id": 7302507,
            "beginWay": "TALK_BEGIN_MANUAL",
            "activeMode": "PLAY_MODE_HOST",
            "beginCond": [
                {
                    "type": "QUEST_COND_STATE_EQUAL",
                    "param": [
                        "7302519",
                        "2"
                    ]
                }
            ],
            "priority": 5,
            "initDialog": 730250701,
            "npcId": [
                1005,
                20646
            ],
            "performCfg": "QuestDialogue/WQ/Sumeru_73025/Q7302507",
            "heroTalk": "TALK_HERO_MAIN",
            "questId": 73025,
            "assetIndex": 413068851487645406,
            "prePerformCfg": ""
        },
        {
            "id": 7302508,
            "beginWay": "TALK_BEGIN_MANUAL",
            "activeMode": "PLAY_MODE_HOST",
            "beginCondComb": "LOGIC_AND",
            "beginCond": [
                {
                    "type": "QUEST_COND_STATE_EQUAL",
                    "param": [
                        "7302519",
                        "2"
                    ]
                },
                {
                    "type": "QUEST_COND_STATE_EQUAL",
                    "param": [
                        "300306",
                        "3"
                    ]
                }
            ],
            "priority": 10,
            "initDialog": 730250801,
            "npcId": [
                1005,
                20646
            ],
            "performCfg": "QuestDialogue/WQ/Sumeru_73025/Q7302508",
            "heroTalk": "TALK_HERO_MAIN",
            "questId": 73025,
            "assetIndex": 6644460151229957101,
            "prePerformCfg": ""
        },
        {
            "id": 7302509,
            "beginWay": "TALK_BEGIN_MANUAL",
            "activeMode": "PLAY_MODE_HOST",
            "beginCondComb": "LOGIC_AND",
            "beginCond": [
                {
                    "type": "QUEST_COND_STATE_EQUAL",
                    "param": [
                        "7302515",
                        "2"
                    ]
                },
                {
                    "type": "QUEST_COND_QUEST_GLOBAL_VAR_EQUAL",
                    "param": [
                        "302821",
                        "0"
                    ]
                }
            ],
            "priority": 5,
            "initDialog": 730250901,
            "npcId": [
                20648,
                20646,
                1005
            ],
            "performCfg": "QuestDialogue/WQ/Sumeru_73025/Q7302509",
            "heroTalk": "TALK_HERO_MAIN",
            "questId": 73025,
            "assetIndex": 1450271678186951062,
            "prePerformCfg": ""
        },
        {
            "id": 7302510,
            "beginWay": "TALK_BEGIN_MANUAL",
            "activeMode": "PLAY_MODE_HOST",
            "beginCond": [
                {
                    "type": "QUEST_COND_STATE_EQUAL",
                    "param": [
                        "7302515",
                        "2"
                    ]
                }
            ],
            "priority": 5,
            "initDialog": 730251004,
            "npcId": [
                20777
            ],
            "performCfg": "",
            "questId": 73025,
            "assetIndex": 11739063520188880376,
            "prePerformCfg": ""
        },
        {
            "id": 7302511,
            "beginWay": "TALK_BEGIN_MANUAL",
            "activeMode": "PLAY_MODE_HOST",
            "beginCond": [
                {
                    "type": "QUEST_COND_STATE_EQUAL",
                    "param": [
                        "7302515",
                        "2"
                    ]
                }
            ],
            "priority": 5,
            "initDialog": 730251101,
            "npcId": [
                20656
            ],
            "performCfg": "",
            "questId": 73025,
            "assetIndex": 1362959160345172667,
            "prePerformCfg": ""
        },
        {
            "id": 7302512,
            "beginWay": "TALK_BEGIN_MANUAL",
            "activeMode": "PLAY_MODE_HOST",
            "beginCond": [
                {
                    "type": "QUEST_COND_STATE_EQUAL",
                    "param": [
                        "7302515",
                        "2"
                    ]
                }
            ],
            "priority": 5,
            "initDialog": 730251201,
            "npcId": [
                20816
            ],
            "performCfg": "",
            "questId": 73025,
            "assetIndex": 424777232147165081,
            "prePerformCfg": ""
        },
        {
            "id": 7302513,
            "beginWay": "TALK_BEGIN_MANUAL",
            "activeMode": "PLAY_MODE_HOST",
            "beginCond": [
                {
                    "type": "QUEST_COND_STATE_EQUAL",
                    "param": [
                        "7302515",
                        "2"
                    ]
                }
            ],
            "priority": 5,
            "initDialog": 730251301,
            "npcId": [
                20578
            ],
            "performCfg": "",
            "questId": 73025,
            "assetIndex": 15991790199733519835,
            "prePerformCfg": ""
        },
        {
            "id": 7302514,
            "beginWay": "TALK_BEGIN_MANUAL",
            "activeMode": "PLAY_MODE_HOST",
            "beginCond": [
                {
                    "type": "QUEST_COND_STATE_EQUAL",
                    "param": [
                        "7302515",
                        "2"
                    ]
                }
            ],
            "priority": 5,
            "initDialog": 730251401,
            "npcId": [
                20649
            ],
            "performCfg": "",
            "questId": 73025,
            "assetIndex": 16494380082340821551,
            "prePerformCfg": ""
        },
        {
            "id": 7302515,
            "beginWay": "TALK_BEGIN_MANUAL",
            "activeMode": "PLAY_MODE_HOST",
            "beginCond": [
                {
                    "type": "QUEST_COND_STATE_EQUAL",
                    "param": [
                        "7302515",
                        "2"
                    ]
                }
            ],
            "priority": 5,
            "initDialog": 730251501,
            "npcId": [
                4211
            ],
            "performCfg": "",
            "questId": 73025,
            "assetIndex": 2123935449602398802,
            "prePerformCfg": ""
        },
        {
            "id": 7302516,
            "beginWay": "TALK_BEGIN_MANUAL",
            "activeMode": "PLAY_MODE_HOST",
            "beginCond": [
                {
                    "type": "QUEST_COND_STATE_EQUAL",
                    "param": [
                        "7302515",
                        "2"
                    ]
                }
            ],
            "priority": 5,
            "initDialog": 730251601,
            "npcId": [
                4230
            ],
            "performCfg": "",
            "questId": 73025,
            "assetIndex": 13682851932163576630,
            "prePerformCfg": ""
        },
        {
            "id": 7302517,
            "beginWay": "TALK_BEGIN_MANUAL",
            "activeMode": "PLAY_MODE_HOST",
            "beginCond": [
                {
                    "type": "QUEST_COND_STATE_EQUAL",
                    "param": [
                        "7302515",
                        "2"
                    ]
                }
            ],
            "priority": 5,
            "initDialog": 730251701,
            "npcId": [
                20716
            ],
            "performCfg": "",
            "questId": 73025,
            "assetIndex": 3901449586279883839,
            "prePerformCfg": ""
        },
        {
            "id": 7302518,
            "beginWay": "TALK_BEGIN_MANUAL",
            "activeMode": "PLAY_MODE_HOST",
            "beginCond": [
                {
                    "type": "QUEST_COND_STATE_EQUAL",
                    "param": [
                        "7302515",
                        "2"
                    ]
                }
            ],
            "priority": 5,
            "initDialog": 730251801,
            "npcId": [
                20714,
                20715
            ],
            "performCfg": "",
            "questId": 73025,
            "assetIndex": 8545844968546693630,
            "prePerformCfg": ""
        },
        {
            "id": 7302519,
            "beginWay": "TALK_BEGIN_MANUAL",
            "activeMode": "PLAY_MODE_HOST",
            "beginCond": [
                {
                    "type": "QUEST_COND_STATE_EQUAL",
                    "param": [
                        "7302515",
                        "2"
                    ]
                }
            ],
            "priority": 5,
            "initDialog": 730251901,
            "npcId": [
                4210
            ],
            "performCfg": "",
            "questId": 73025,
            "assetIndex": 3433748981699189731,
            "prePerformCfg": ""
        },
        {
            "id": 7302520,
            "beginWay": "TALK_BEGIN_MANUAL",
            "activeMode": "PLAY_MODE_HOST",
            "beginCond": [
                {
                    "type": "QUEST_COND_STATE_EQUAL",
                    "param": [
                        "7302515",
                        "2"
                    ]
                }
            ],
            "priority": 5,
            "initDialog": 730252001,
            "npcId": [
                4212
            ],
            "performCfg": "",
            "questId": 73025,
            "assetIndex": 1799206824532457635,
            "prePerformCfg": ""
        },
        {
            "id": 7302521,
            "beginWay": "TALK_BEGIN_MANUAL",
            "activeMode": "PLAY_MODE_HOST",
            "beginCondComb": "LOGIC_AND",
            "beginCond": [
                {
                    "type": "QUEST_COND_STATE_EQUAL",
                    "param": [
                        "7302515",
                        "2"
                    ]
                },
                {
                    "type": "QUEST_COND_QUEST_GLOBAL_VAR_EQUAL",
                    "param": [
                        "302821",
                        "1"
                    ]
                }
            ],
            "priority": 5,
            "initDialog": 730252101,
            "npcId": [
                20648,
                20646
            ],
            "performCfg": "QuestDialogue/WQ/Sumeru_73025/Q7302521",
            "heroTalk": "TALK_HERO_MAIN",
            "questId": 73025,
            "assetIndex": 7126432297030557951,
            "prePerformCfg": ""
        }
    ],
    "preloadLuaList": [
        14457059026087496718,
        4808466579826049823,
        4738826640740751549,
        9748699074351915899,
        6010877216970893251,
        12522376021635244632,
        5961157997708649831,
        8615987632752716696,
        5779374622310407037,
        12572409448147982547,
        339968915461298562,
        9402832228297171584,
        14121900602228309200,
        12268261208972131211,
        2464818455945587539
    ],
    "AILPOGENMJB": [
        11897217576096654516
    ],
    "dialogList": [
        {
            "id": 730252101,
            "nextDialogs": [
                730252102
            ],
            "talkRole": {
                "type": "TALK_ROLE_NPC",
                "id": "20648"
            },
            "talkContentTextMapHash": 1653320922,
            "talkAssetPath": "",
            "talkAssetPathAlter": "",
            "talkAudioName": "",
            "actionBefore": "",
            "actionWhile": "",
            "actionAfter": "",
            "optionIcon": ""
        },
        {
            "id": 730252102,
            "nextDialogs": [
                730252103
            ],
            "talkRole": {
                "type": "TALK_ROLE_NPC",
                "id": "20646"
            },
            "talkContentTextMapHash": 1509955690,
            "talkAssetPath": "",
            "talkAssetPathAlter": "",
            "talkAudioName": "",
            "actionBefore": "",
            "actionWhile": "",
            "actionAfter": "",
            "optionIcon": ""
        },
        {
            "id": 730252103,
            "nextDialogs": [
                730252104
            ],
            "talkRole": {
                "type": "TALK_ROLE_NPC",
                "id": "20648"
            },
            "talkContentTextMapHash": 1254041218,
            "talkAssetPath": "",
            "talkAssetPathAlter": "",
            "talkAudioName": "",
            "actionBefore": "",
            "actionWhile": "",
            "actionAfter": "",
            "optionIcon": ""
        },
        {
            "id": 730252104,
            "nextDialogs": [
                730252105
            ],
            "talkRole": {
                "type": "TALK_ROLE_NPC",
                "id": "1005"
            },
            "talkContentTextMapHash": 2188699890,
            "talkAssetPath": "",
            "talkAssetPathAlter": "",
            "talkAudioName": "",
            "actionBefore": "",
            "actionWhile": "",
            "actionAfter": "",
            "optionIcon": ""
        },
        {
            "id": 730252105,
            "nextDialogs": [
                730252106
            ],
            "talkRole": {
                "type": "TALK_ROLE_NPC",
                "id": "20648"
            },
            "talkContentTextMapHash": 2622205626,
            "talkAssetPath": "",
            "talkAssetPathAlter": "",
            "talkAudioName": "",
            "actionBefore": "",
            "actionWhile": "",
            "actionAfter": "",
            "optionIcon": ""
        },
        {
            "id": 730252106,
            "nextDialogs": [
                730252107
            ],
            "talkRole": {
                "type": "TALK_ROLE_NPC",
                "id": "20648"
            },
            "talkContentTextMapHash": 391293082,
            "talkAssetPath": "",
            "talkAssetPathAlter": "",
            "talkAudioName": "",
            "actionBefore": "",
            "actionWhile": "",
            "actionAfter": "",
            "optionIcon": ""
        },
        {
            "id": 730252107,
            "nextDialogs": [
                730252108
            ],
            "talkRole": {
                "type": "TALK_ROLE_NPC",
                "id": "20648"
            },
            "talkContentTextMapHash": 1605618842,
            "talkAssetPath": "",
            "talkAssetPathAlter": "",
            "talkAudioName": "",
            "actionBefore": "",
            "actionWhile": "",
            "actionAfter": "",
            "optionIcon": ""
        },
        {
            "id": 730252108,
            "nextDialogs": [
                730252109
            ],
            "talkRole": {
                "type": "TALK_ROLE_NPC",
                "id": "1005"
            },
            "talkContentTextMapHash": 622410386,
            "talkAssetPath": "",
            "talkAssetPathAlter": "",
            "talkAudioName": "",
            "actionBefore": "",
            "actionWhile": "",
            "actionAfter": "",
            "optionIcon": ""
        },
        {
            "id": 730252109,
            "nextDialogs": [
                730252110,
                730252111
            ],
            "talkRole": {
                "type": "TALK_ROLE_NPC",
                "id": "1005"
            },
            "talkContentTextMapHash": 2710024954,
            "talkAssetPath": "",
            "talkAssetPathAlter": "",
            "talkAudioName": "",
            "actionBefore": "",
            "actionWhile": "",
            "actionAfter": "",
            "optionIcon": ""
        },
        {
            "id": 730252110,
            "nextDialogs": [
                730252112
            ],
            "talkRole": {
                "type": "TALK_ROLE_PLAYER",
                "id": ""
            },
            "talkContentTextMapHash": 666869058,
            "talkAssetPath": "",
            "talkAssetPathAlter": "",
            "talkAudioName": "",
            "actionBefore": "",
            "actionWhile": "",
            "actionAfter": "",
            "optionIcon": ""
        },
        {
            "id": 730252111,
            "nextDialogs": [
                730252112
            ],
            "talkRole": {
                "type": "TALK_ROLE_PLAYER",
                "id": ""
            },
            "talkContentTextMapHash": 2422536730,
            "talkAssetPath": "",
            "talkAssetPathAlter": "",
            "talkAudioName": "",
            "actionBefore": "",
            "actionWhile": "",
            "actionAfter": "",
            "optionIcon": ""
        },
        {
            "id": 730252112,
            "nextDialogs": [
                730252113
            ],
            "talkRole": {
                "type": "TALK_ROLE_NPC",
                "id": "20646"
            },
            "talkContentTextMapHash": 465102618,
            "talkAssetPath": "",
            "talkAssetPathAlter": "",
            "talkAudioName": "",
            "actionBefore": "",
            "actionWhile": "",
            "actionAfter": "",
            "optionIcon": ""
        },
        {
            "id": 730252113,
            "nextDialogs": [
                730252114,
                730252115
            ],
            "talkRole": {
                "type": "TALK_ROLE_NPC",
                "id": "1005"
            },
            "talkContentTextMapHash": 2681952474,
            "talkAssetPath": "",
            "talkAssetPathAlter": "",
            "talkAudioName": "",
            "actionBefore": "",
            "actionWhile": "",
            "actionAfter": "",
            "optionIcon": ""
        },
        {
            "id": 730252114,
            "nextDialogs": [
                730252116
            ],
            "talkRole": {
                "type": "TALK_ROLE_PLAYER",
                "id": ""
            },
            "talkContentTextMapHash": 548497434,
            "talkAssetPath": "",
            "talkAssetPathAlter": "",
            "talkAudioName": "",
            "actionBefore": "",
            "actionWhile": "",
            "actionAfter": "",
            "optionIcon": ""
        },
        {
            "id": 730252115,
            "nextDialogs": [
                730252116
            ],
            "talkRole": {
                "type": "TALK_ROLE_PLAYER",
                "id": ""
            },
            "talkContentTextMapHash": 852770674,
            "talkAssetPath": "",
            "talkAssetPathAlter": "",
            "talkAudioName": "",
            "actionBefore": "",
            "actionWhile": "",
            "actionAfter": "",
            "optionIcon": ""
        },
        {
            "id": 730252116,
            "nextDialogs": [
                730252117
            ],
            "talkRole": {
                "type": "TALK_ROLE_NPC",
                "id": "1005"
            },
            "talkContentTextMapHash": 2598457330,
            "talkAssetPath": "",
            "talkAssetPathAlter": "",
            "talkAudioName": "",
            "actionBefore": "",
            "actionWhile": "",
            "actionAfter": "",
            "optionIcon": ""
        },
        {
            "id": 730252117,
            "nextDialogs": [
                730252118
            ],
            "talkRole": {
                "type": "TALK_ROLE_BLACK_SCREEN",
                "id": ""
            },
            "talkContentTextMapHash": 2678150794,
            "talkAssetPath": "",
            "talkAssetPathAlter": "",
            "talkAudioName": "",
            "actionBefore": "",
            "actionWhile": "",
            "actionAfter": "",
            "optionIcon": ""
        },
        {
            "id": 730252118,
            "nextDialogs": [
                730252119
            ],
            "talkRole": {
                "type": "TALK_ROLE_NPC",
                "id": "20648"
            },
            "talkContentTextMapHash": 3847011978,
            "talkAssetPath": "",
            "talkAssetPathAlter": "",
            "talkAudioName": "",
            "actionBefore": "",
            "actionWhile": "",
            "actionAfter": "",
            "optionIcon": ""
        },
        {
            "id": 730252119,
            "nextDialogs": [
                730252120
            ],
            "talkRole": {
                "type": "TALK_ROLE_NPC",
                "id": "20648"
            },
            "talkContentTextMapHash": 2049207274,
            "talkAssetPath": "",
            "talkAssetPathAlter": "",
            "talkAudioName": "",
            "actionBefore": "",
            "actionWhile": "",
            "actionAfter": "",
            "optionIcon": ""
        },
        {
            "id": 730252120,
            "nextDialogs": [
                730252121,
                730252122
            ],
            "talkRole": {
                "type": "TALK_ROLE_NPC",
                "id": "1005"
            },
            "talkContentTextMapHash": 2989993322,
            "talkAssetPath": "",
            "talkAssetPathAlter": "",
            "talkAudioName": "",
            "actionBefore": "",
            "actionWhile": "",
            "actionAfter": "",
            "optionIcon": ""
        },
        {
            "id": 730252121,
            "nextDialogs": [
                730252123
            ],
            "talkRole": {
                "type": "TALK_ROLE_PLAYER",
                "id": ""
            },
            "talkContentTextMapHash": 4119770418,
            "talkAssetPath": "",
            "talkAssetPathAlter": "",
            "talkAudioName": "",
            "actionBefore": "",
            "actionWhile": "",
            "actionAfter": "",
            "optionIcon": ""
        },
        {
            "id": 730252122,
            "nextDialogs": [
                730252123
            ],
            "talkRole": {
                "type": "TALK_ROLE_PLAYER",
                "id": ""
            },
            "talkContentTextMapHash": 1166467666,
            "talkAssetPath": "",
            "talkAssetPathAlter": "",
            "talkAudioName": "",
            "actionBefore": "",
            "actionWhile": "",
            "actionAfter": "",
            "optionIcon": ""
        },
        {
            "id": 730252123,
            "nextDialogs": [
                730252124
            ],
            "talkRole": {
                "type": "TALK_ROLE_NPC",
                "id": "20648"
            },
            "talkContentTextMapHash": 2815313610,
            "talkAssetPath": "",
            "talkAssetPathAlter": "",
            "talkAudioName": "",
            "actionBefore": "",
            "actionWhile": "",
            "actionAfter": "",
            "optionIcon": ""
        },
        {
            "id": 730252124,
            "nextDialogs": [
                730252125
            ],
            "talkRole": {
                "type": "TALK_ROLE_NPC",
                "id": "1005"
            },
            "talkContentTextMapHash": 904161362,
            "talkAssetPath": "",
            "talkAssetPathAlter": "",
            "talkAudioName": "",
            "actionBefore": "",
            "actionWhile": "",
            "actionAfter": "",
            "optionIcon": ""
        },
        {
            "id": 730252125,
            "nextDialogs": [
                730252126
            ],
            "talkRole": {
                "type": "TALK_ROLE_NPC",
                "id": "20646"
            },
            "talkContentTextMapHash": 4137808562,
            "talkAssetPath": "",
            "talkAssetPathAlter": "",
            "talkAudioName": "",
            "actionBefore": "",
            "actionWhile": "",
            "actionAfter": "",
            "optionIcon": ""
        },
        {
            "id": 730252126,
            "nextDialogs": [
                730252127
            ],
            "talkRole": {
                "type": "TALK_ROLE_NPC",
                "id": "20648"
            },
            "talkContentTextMapHash": 2116801194,
            "talkAssetPath": "",
            "talkAssetPathAlter": "",
            "talkAudioName": "",
            "actionBefore": "",
            "actionWhile": "",
            "actionAfter": "",
            "optionIcon": ""
        },
        {
            "id": 730252127,
            "nextDialogs": [
                730252128,
                730252130
            ],
            "talkRole": {
                "type": "TALK_ROLE_NPC",
                "id": "20646"
            },
            "talkContentTextMapHash": 103565234,
            "talkAssetPath": "",
            "talkAssetPathAlter": "",
            "talkAudioName": "",
            "actionBefore": "",
            "actionWhile": "",
            "actionAfter": "",
            "optionIcon": ""
        },
        {
            "id": 730252128,
            "nextDialogs": [
                730252129
            ],
            "talkRole": {
                "type": "TALK_ROLE_PLAYER",
                "id": ""
            },
            "talkContentTextMapHash": 1471825082,
            "talkAssetPath": "",
            "talkAssetPathAlter": "",
            "talkAudioName": "",
            "actionBefore": "",
            "actionWhile": "",
            "actionAfter": "",
            "optionIcon": ""
        },
        {
            "id": 730252129,
            "nextDialogs": [
                730252132
            ],
            "talkRole": {
                "type": "TALK_ROLE_NPC",
                "id": "20648"
            },
            "talkContentTextMapHash": 661492682,
            "talkAssetPath": "",
            "talkAssetPathAlter": "",
            "talkAudioName": "",
            "actionBefore": "",
            "actionWhile": "",
            "actionAfter": "",
            "optionIcon": ""
        },
        {
            "id": 730252130,
            "nextDialogs": [
                730252131
            ],
            "talkRole": {
                "type": "TALK_ROLE_PLAYER",
                "id": ""
            },
            "talkContentTextMapHash": 2164250802,
            "talkAssetPath": "",
            "talkAssetPathAlter": "",
            "talkAudioName": "",
            "actionBefore": "",
            "actionWhile": "",
            "actionAfter": "",
            "optionIcon": ""
        },
        {
            "id": 730252131,
            "nextDialogs": [
                730252132
            ],
            "talkRole": {
                "type": "TALK_ROLE_NPC",
                "id": "20648"
            },
            "talkContentTextMapHash": 4231790730,
            "talkAssetPath": "",
            "talkAssetPathAlter": "",
            "talkAudioName": "",
            "actionBefore": "",
            "actionWhile": "",
            "actionAfter": "",
            "optionIcon": ""
        },
        {
            "id": 730252132,
            "nextDialogs": [
                730252133,
                730252135,
                730252137
            ],
            "talkRole": {
                "type": "TALK_ROLE_NPC",
                "id": "20648"
            },
            "talkContentTextMapHash": 1979007330,
            "talkAssetPath": "",
            "talkAssetPathAlter": "",
            "talkAudioName": "",
            "actionBefore": "",
            "actionWhile": "",
            "actionAfter": "",
            "optionIcon": ""
        },
        {
            "id": 730252133,
            "nextDialogs": [
                730252134
            ],
            "talkRole": {
                "type": "TALK_ROLE_PLAYER",
                "id": ""
            },
            "talkContentTextMapHash": 3748251354,
            "talkAssetPath": "",
            "talkAssetPathAlter": "",
            "talkAudioName": "",
            "actionBefore": "",
            "actionWhile": "",
            "actionAfter": "",
            "optionIcon": ""
        },
        {
            "id": 730252134,
            "nextDialogs": [
                730252139
            ],
            "talkRole": {
                "type": "TALK_ROLE_NPC",
                "id": "1005"
            },
            "talkContentTextMapHash": 2880974122,
            "talkAssetPath": "",
            "talkAssetPathAlter": "",
            "talkAudioName": "",
            "actionBefore": "",
            "actionWhile": "",
            "actionAfter": "",
            "optionIcon": ""
        },
        {
            "id": 730252135,
            "nextDialogs": [
                730252136
            ],
            "talkRole": {
                "type": "TALK_ROLE_PLAYER",
                "id": ""
            },
            "talkContentTextMapHash": 1335063154,
            "talkAssetPath": "",
            "talkAssetPathAlter": "",
            "talkAudioName": "",
            "actionBefore": "",
            "actionWhile": "",
            "actionAfter": "",
            "optionIcon": ""
        },
        {
            "id": 730252136,
            "nextDialogs": [
                730252139
            ],
            "talkRole": {
                "type": "TALK_ROLE_NPC",
                "id": "1005"
            },
            "talkContentTextMapHash": 2505679594,
            "talkAssetPath": "",
            "talkAssetPathAlter": "",
            "talkAudioName": "",
            "actionBefore": "",
            "actionWhile": "",
            "actionAfter": "",
            "optionIcon": ""
        },
        {
            "id": 730252137,
            "nextDialogs": [
                730252138
            ],
            "talkRole": {
                "type": "TALK_ROLE_PLAYER",
                "id": ""
            },
            "talkContentTextMapHash": 563437794,
            "talkAssetPath": "",
            "talkAssetPathAlter": "",
            "talkAudioName": "",
            "actionBefore": "",
            "actionWhile": "",
            "actionAfter": "",
            "optionIcon": ""
        },
        {
            "id": 730252138,
            "nextDialogs": [
                730252139
            ],
            "talkRole": {
                "type": "TALK_ROLE_NPC",
                "id": "1005"
            },
            "talkContentTextMapHash": 812047346,
            "talkAssetPath": "",
            "talkAssetPathAlter": "",
            "talkAudioName": "",
            "actionBefore": "",
            "actionWhile": "",
            "actionAfter": "",
            "optionIcon": ""
        },
        {
            "id": 730252139,
            "nextDialogs": [
                730252140
            ],
            "talkRole": {
                "type": "TALK_ROLE_NPC",
                "id": "20646"
            },
            "talkContentTextMapHash": 166735962,
            "talkAssetPath": "",
            "talkAssetPathAlter": "",
            "talkAudioName": "",
            "actionBefore": "",
            "actionWhile": "",
            "actionAfter": "",
            "optionIcon": ""
        },
        {
            "id": 730252140,
            "nextDialogs": [
                730252141
            ],
            "talkRole": {
                "type": "TALK_ROLE_NPC",
                "id": "20646"
            },
            "talkContentTextMapHash": 757338562,
            "talkAssetPath": "",
            "talkAssetPathAlter": "",
            "talkAudioName": "",
            "actionBefore": "",
            "actionWhile": "",
            "actionAfter": "",
            "optionIcon": ""
        },
        {
            "id": 730252141,
            "nextDialogs": [
                730252142
            ],
            "talkRole": {
                "type": "TALK_ROLE_NPC",
                "id": "1005"
            },
            "talkContentTextMapHash": 4171862922,
            "talkAssetPath": "",
            "talkAssetPathAlter": "",
            "talkAudioName": "",
            "actionBefore": "",
            "actionWhile": "",
            "actionAfter": "",
            "optionIcon": ""
        },
        {
            "id": 730252142,
            "nextDialogs": [
                730252143
            ],
            "talkRole": {
                "type": "TALK_ROLE_NPC",
                "id": "20646"
            },
            "talkContentTextMapHash": 1281167322,
            "talkAssetPath": "",
            "talkAssetPathAlter": "",
            "talkAudioName": "",
            "actionBefore": "",
            "actionWhile": "",
            "actionAfter": "",
            "optionIcon": ""
        },
        {
            "id": 730252143,
            "nextDialogs": [
                730252144
            ],
            "talkRole": {
                "type": "TALK_ROLE_NPC",
                "id": "20648"
            },
            "talkContentTextMapHash": 3310638906,
            "talkAssetPath": "",
            "talkAssetPathAlter": "",
            "talkAudioName": "",
            "actionBefore": "",
            "actionWhile": "",
            "actionAfter": "",
            "optionIcon": ""
        },
        {
            "id": 730252144,
            "nextDialogs": [
                730252145
            ],
            "talkRole": {
                "type": "TALK_ROLE_NPC",
                "id": "20648"
            },
            "talkContentTextMapHash": 1614727330,
            "talkAssetPath": "",
            "talkAssetPathAlter": "",
            "talkAudioName": "",
            "actionBefore": "",
            "actionWhile": "",
            "actionAfter": "",
            "optionIcon": ""
        },
        {
            "id": 730252145,
            "nextDialogs": [
                730252146
            ],
            "talkRole": {
                "type": "TALK_ROLE_NPC",
                "id": "1005"
            },
            "talkContentTextMapHash": 1450289002,
            "talkAssetPath": "",
            "talkAssetPathAlter": "",
            "talkAudioName": "",
            "actionBefore": "",
            "actionWhile": "",
            "actionAfter": "",
            "optionIcon": ""
        },
        {
            "id": 730252146,
            "nextDialogs": [
                730252147
            ],
            "talkRole": {
                "type": "TALK_ROLE_NPC",
                "id": "20648"
            },
            "talkContentTextMapHash": 2713082154,
            "talkAssetPath": "",
            "talkAssetPathAlter": "",
            "talkAudioName": "",
            "actionBefore": "",
            "actionWhile": "",
            "actionAfter": "",
            "optionIcon": ""
        },
        {
            "id": 730252147,
            "nextDialogs": [
                730252148
            ],
            "talkRole": {
                "type": "TALK_ROLE_NPC",
                "id": "20646"
            },
            "talkContentTextMapHash": 4022036522,
            "talkAssetPath": "",
            "talkAssetPathAlter": "",
            "talkAudioName": "",
            "actionBefore": "",
            "actionWhile": "",
            "actionAfter": "",
            "optionIcon": ""
        },
        {
            "id": 730252148,
            "nextDialogs": [
                730252149
            ],
            "talkRole": {
                "type": "TALK_ROLE_NPC",
                "id": "1005"
            },
            "talkContentTextMapHash": 4072609786,
            "talkAssetPath": "",
            "talkAssetPathAlter": "",
            "talkAudioName": "",
            "actionBefore": "",
            "actionWhile": "",
            "actionAfter": "",
            "optionIcon": ""
        },
        {
            "id": 730252149,
            "nextDialogs": [
                730252150
            ],
            "talkRole": {
                "type": "TALK_ROLE_NPC",
                "id": "1005"
            },
            "talkContentTextMapHash": 553879306,
            "talkAssetPath": "",
            "talkAssetPathAlter": "",
            "talkAudioName": "",
            "actionBefore": "",
            "actionWhile": "",
            "actionAfter": "",
            "optionIcon": ""
        },
        {
            "id": 730252150,
            "nextDialogs": [
                730252151
            ],
            "talkRole": {
                "type": "TALK_ROLE_NPC",
                "id": "20648"
            },
            "talkContentTextMapHash": 857077986,
            "talkAssetPath": "",
            "talkAssetPathAlter": "",
            "talkAudioName": "",
            "actionBefore": "",
            "actionWhile": "",
            "actionAfter": "",
            "optionIcon": ""
        },
        {
            "id": 730252151,
            "nextDialogs": [
                730252152
            ],
            "talkRole": {
                "type": "TALK_ROLE_NPC",
                "id": "20646"
            },
            "talkContentTextMapHash": 2009854146,
            "talkAssetPath": "",
            "talkAssetPathAlter": "",
            "talkAudioName": "",
            "actionBefore": "",
            "actionWhile": "",
            "actionAfter": "",
            "optionIcon": ""
        },
        {
            "id": 730252152,
            "nextDialogs": [
                730252153
            ],
            "talkRole": {
                "type": "TALK_ROLE_NPC",
                "id": "20646"
            },
            "talkContentTextMapHash": 4111478250,
            "talkAssetPath": "",
            "talkAssetPathAlter": "",
            "talkAudioName": "",
            "actionBefore": "",
            "actionWhile": "",
            "actionAfter": "",
            "optionIcon": ""
        },
        {
            "id": 730252153,
            "nextDialogs": [
                730252154,
                730252172,
                730252190
            ],
            "talkRole": {
                "type": "TALK_ROLE_NPC",
                "id": "1005"
            },
            "talkContentTextMapHash": 2714584850,
            "talkAssetPath": "",
            "talkAssetPathAlter": "",
            "talkAudioName": "",
            "actionBefore": "",
            "actionWhile": "",
            "actionAfter": "",
            "optionIcon": ""
        },
        {
            "id": 730252154,
            "nextDialogs": [
                730252155
            ],
            "talkRole": {
                "type": "TALK_ROLE_PLAYER",
                "id": ""
            },
            "talkContentTextMapHash": 462815842,
            "talkAssetPath": "",
            "talkAssetPathAlter": "",
            "talkAudioName": "",
            "actionBefore": "",
            "actionWhile": "",
            "actionAfter": "",
            "optionIcon": ""
        },
        {
            "id": 730252155,
            "nextDialogs": [
                730252156
            ],
            "talkRole": {
                "type": "TALK_ROLE_NPC",
                "id": "20646"
            },
            "talkContentTextMapHash": 2485847874,
            "talkAssetPath": "",
            "talkAssetPathAlter": "",
            "talkAudioName": "",
            "actionBefore": "",
            "actionWhile": "",
            "actionAfter": "",
            "optionIcon": ""
        },
        {
            "id": 730252157,
            "nextDialogs": [
                730252158
            ],
            "talkRole": {
                "type": "TALK_ROLE_PLAYER",
                "id": ""
            },
            "talkContentTextMapHash": 2277594330,
            "talkAssetPath": "",
            "talkAssetPathAlter": "",
            "talkAudioName": "",
            "actionBefore": "",
            "actionWhile": "",
            "actionAfter": "",
            "optionIcon": ""
        },
        {
            "id": 730252158,
            "nextDialogs": [
                730252159
            ],
            "talkRole": {
                "type": "TALK_ROLE_NPC",
                "id": "1005"
            },
            "talkContentTextMapHash": 2366980642,
            "talkAssetPath": "",
            "talkAssetPathAlter": "",
            "talkAudioName": "",
            "actionBefore": "",
            "actionWhile": "",
            "actionAfter": "",
            "optionIcon": ""
        },
        {
            "id": 730252159,
            "nextDialogs": [
                730252160
            ],
            "talkRole": {
                "type": "TALK_ROLE_NPC",
                "id": "20648"
            },
            "talkContentTextMapHash": 1889187266,
            "talkAssetPath": "",
            "talkAssetPathAlter": "",
            "talkAudioName": "",
            "actionBefore": "",
            "actionWhile": "",
            "actionAfter": "",
            "optionIcon": ""
        },
        {
            "id": 730252160,
            "nextDialogs": [
                730252161
            ],
            "talkRole": {
                "type": "TALK_ROLE_NPC",
                "id": "20648"
            },
            "talkContentTextMapHash": 1449063282,
            "talkAssetPath": "",
            "talkAssetPathAlter": "",
            "talkAudioName": "",
            "actionBefore": "",
            "actionWhile": "",
            "actionAfter": "",
            "optionIcon": ""
        },
        {
            "id": 730252162,
            "nextDialogs": [
                730252163
            ],
            "talkRole": {
                "type": "TALK_ROLE_NPC",
                "id": "1005"
            },
            "talkContentTextMapHash": 2669024218,
            "talkAssetPath": "",
            "talkAssetPathAlter": "",
            "talkAudioName": "",
            "actionBefore": "",
            "actionWhile": "",
            "actionAfter": "",
            "optionIcon": ""
        },
        {
            "id": 730252163,
            "nextDialogs": [
                730252164
            ],
            "talkRole": {
                "type": "TALK_ROLE_NPC",
                "id": "20648"
            },
            "talkContentTextMapHash": 914011170,
            "talkAssetPath": "",
            "talkAssetPathAlter": "",
            "talkAudioName": "",
            "actionBefore": "",
            "actionWhile": "",
            "actionAfter": "",
            "optionIcon": ""
        },
        {
            "id": 730252164,
            "nextDialogs": [
                730252165
            ],
            "talkRole": {
                "type": "TALK_ROLE_NPC",
                "id": "20648"
            },
            "talkContentTextMapHash": 4007517802,
            "talkAssetPath": "",
            "talkAssetPathAlter": "",
            "talkAudioName": "",
            "actionBefore": "",
            "actionWhile": "",
            "actionAfter": "",
            "optionIcon": ""
        },
        {
            "id": 730252165,
            "nextDialogs": [
                730252166
            ],
            "talkRole": {
                "type": "TALK_ROLE_NPC",
                "id": "20648"
            },
            "talkContentTextMapHash": 943987138,
            "talkAssetPath": "",
            "talkAssetPathAlter": "",
            "talkAudioName": "",
            "actionBefore": "",
            "actionWhile": "",
            "actionAfter": "",
            "optionIcon": ""
        },
        {
            "id": 730252166,
            "nextDialogs": [
                730252167
            ],
            "talkRole": {
                "type": "TALK_ROLE_NPC",
                "id": "20648"
            },
            "talkContentTextMapHash": 1217190538,
            "talkAssetPath": "",
            "talkAssetPathAlter": "",
            "talkAudioName": "",
            "actionBefore": "",
            "actionWhile": "",
            "actionAfter": "",
            "optionIcon": ""
        },
        {
            "id": 730252167,
            "nextDialogs": [
                730252168
            ],
            "talkRole": {
                "type": "TALK_ROLE_NPC",
                "id": "1005"
            },
            "talkContentTextMapHash": 2985603978,
            "talkAssetPath": "",
            "talkAssetPathAlter": "",
            "talkAudioName": "",
            "actionBefore": "",
            "actionWhile": "",
            "actionAfter": "",
            "optionIcon": ""
        },
        {
            "id": 730252168,
            "nextDialogs": [
                730252169
            ],
            "talkRole": {
                "type": "TALK_ROLE_NPC",
                "id": "20648"
            },
            "talkContentTextMapHash": 2586614690,
            "talkAssetPath": "",
            "talkAssetPathAlter": "",
            "talkAudioName": "",
            "actionBefore": "",
            "actionWhile": "",
            "actionAfter": "",
            "optionIcon": ""
        },
        {
            "id": 730252169,
            "nextDialogs": [
                730252192
            ],
            "talkRole": {
                "type": "TALK_ROLE_NPC",
                "id": "20648"
            },
            "talkContentTextMapHash": 3749728690,
            "talkAssetPath": "",
            "talkAssetPathAlter": "",
            "talkAudioName": "",
            "actionBefore": "",
            "actionWhile": "",
            "actionAfter": "",
            "optionIcon": ""
        },
        {
            "id": 730252170,
            "nextDialogs": [
                730252171
            ],
            "talkRole": {
                "type": "TALK_ROLE_PLAYER",
                "id": ""
            },
            "talkContentTextMapHash": 4041521978,
            "talkAssetPath": "",
            "talkAssetPathAlter": "",
            "talkAudioName": "",
            "actionBefore": "",
            "actionWhile": "",
            "actionAfter": "",
            "optionIcon": ""
        },
        {
            "id": 730252171,
            "nextDialogs": [
                730252192
            ],
            "talkRole": {
                "type": "TALK_ROLE_NPC",
                "id": "1005"
            },
            "talkContentTextMapHash": 1593196690,
            "talkAssetPath": "",
            "talkAssetPathAlter": "",
            "talkAudioName": "",
            "actionBefore": "",
            "actionWhile": "",
            "actionAfter": "",
            "optionIcon": ""
        },
        {
            "id": 730252172,
            "nextDialogs": [
                730252173
            ],
            "talkRole": {
                "type": "TALK_ROLE_PLAYER",
                "id": ""
            },
            "talkContentTextMapHash": 908252842,
            "talkAssetPath": "",
            "talkAssetPathAlter": "",
            "talkAudioName": "",
            "actionBefore": "",
            "actionWhile": "",
            "actionAfter": "",
            "optionIcon": ""
        },
        {
            "id": 730252173,
            "nextDialogs": [
                730252174
            ],
            "talkRole": {
                "type": "TALK_ROLE_NPC",
                "id": "1005"
            },
            "talkContentTextMapHash": 3402359570,
            "talkAssetPath": "",
            "talkAssetPathAlter": "",
            "talkAudioName": "",
            "actionBefore": "",
            "actionWhile": "",
            "actionAfter": "",
            "optionIcon": ""
        },
        {
            "id": 730252174,
            "nextDialogs": [
                730252175
            ],
            "talkRole": {
                "type": "TALK_ROLE_NPC",
                "id": "20648"
            },
            "talkContentTextMapHash": 4154126594,
            "talkAssetPath": "",
            "talkAssetPathAlter": "",
            "talkAudioName": "",
            "actionBefore": "",
            "actionWhile": "",
            "actionAfter": "",
            "optionIcon": ""
        },
        {
            "id": 730252175,
            "nextDialogs": [
                730252176
            ],
            "talkRole": {
                "type": "TALK_ROLE_NPC",
                "id": "20648"
            },
            "talkContentTextMapHash": 2186213138,
            "talkAssetPath": "",
            "talkAssetPathAlter": "",
            "talkAudioName": "",
            "actionBefore": "",
            "actionWhile": "",
            "actionAfter": "",
            "optionIcon": ""
        },
        {
            "id": 730252177,
            "nextDialogs": [
                730252178
            ],
            "talkRole": {
                "type": "TALK_ROLE_NPC",
                "id": "1005"
            },
            "talkContentTextMapHash": 2899787970,
            "talkAssetPath": "",
            "talkAssetPathAlter": "",
            "talkAudioName": "",
            "actionBefore": "",
            "actionWhile": "",
            "actionAfter": "",
            "optionIcon": ""
        },
        {
            "id": 730252178,
            "nextDialogs": [
                730252179
            ],
            "talkRole": {
                "type": "TALK_ROLE_NPC",
                "id": "20648"
            },
            "talkContentTextMapHash": 2369508690,
            "talkAssetPath": "",
            "talkAssetPathAlter": "",
            "talkAudioName": "",
            "actionBefore": "",
            "actionWhile": "",
            "actionAfter": "",
            "optionIcon": ""
        },
        {
            "id": 730252179,
            "nextDialogs": [
                730252180
            ],
            "talkRole": {
                "type": "TALK_ROLE_NPC",
                "id": "20648"
            },
            "talkContentTextMapHash": 150892866,
            "talkAssetPath": "",
            "talkAssetPathAlter": "",
            "talkAudioName": "",
            "actionBefore": "",
            "actionWhile": "",
            "actionAfter": "",
            "optionIcon": ""
        },
        {
            "id": 730252180,
            "nextDialogs": [
                730252181
            ],
            "talkRole": {
                "type": "TALK_ROLE_NPC",
                "id": "20648"
            },
            "talkContentTextMapHash": 4157497386,
            "talkAssetPath": "",
            "talkAssetPathAlter": "",
            "talkAudioName": "",
            "actionBefore": "",
            "actionWhile": "",
            "actionAfter": "",
            "optionIcon": ""
        },
        {
            "id": 730252181,
            "nextDialogs": [
                730252182
            ],
            "talkRole": {
                "type": "TALK_ROLE_NPC",
                "id": "20648"
            },
            "talkContentTextMapHash": 3929989442,
            "talkAssetPath": "",
            "talkAssetPathAlter": "",
            "talkAudioName": "",
            "actionBefore": "",
            "actionWhile": "",
            "actionAfter": "",
            "optionIcon": ""
        },
        {
            "id": 730252182,
            "nextDialogs": [
                730252183
            ],
            "talkRole": {
                "type": "TALK_ROLE_NPC",
                "id": "1005"
            },
            "talkContentTextMapHash": 676711826,
            "talkAssetPath": "",
            "talkAssetPathAlter": "",
            "talkAudioName": "",
            "actionBefore": "",
            "actionWhile": "",
            "actionAfter": "",
            "optionIcon": ""
        },
        {
            "id": 730252183,
            "nextDialogs": [
                730252184
            ],
            "talkRole": {
                "type": "TALK_ROLE_NPC",
                "id": "20648"
            },
            "talkContentTextMapHash": 2248776146,
            "talkAssetPath": "",
            "talkAssetPathAlter": "",
            "talkAudioName": "",
            "actionBefore": "",
            "actionWhile": "",
            "actionAfter": "",
            "optionIcon": ""
        },
        {
            "id": 730252184,
            "nextDialogs": [
                730252185,
                730252188
            ],
            "talkRole": {
                "type": "TALK_ROLE_NPC",
                "id": "20648"
            },
            "talkContentTextMapHash": 3357556482,
            "talkAssetPath": "",
            "talkAssetPathAlter": "",
            "talkAudioName": "",
            "actionBefore": "",
            "actionWhile": "",
            "actionAfter": "",
            "optionIcon": ""
        },
        {
            "id": 730252185,
            "nextDialogs": [
                730252186
            ],
            "talkRole": {
                "type": "TALK_ROLE_PLAYER",
                "id": ""
            },
            "talkContentTextMapHash": 778026578,
            "talkAssetPath": "",
            "talkAssetPathAlter": "",
            "talkAudioName": "",
            "actionBefore": "",
            "actionWhile": "",
            "actionAfter": "",
            "optionIcon": ""
        },
        {
            "id": 730252186,
            "nextDialogs": [
                730252187
            ],
            "talkRole": {
                "type": "TALK_ROLE_NPC",
                "id": "20646"
            },
            "talkContentTextMapHash": 1914798522,
            "talkAssetPath": "",
            "talkAssetPathAlter": "",
            "talkAudioName": "",
            "actionBefore": "",
            "actionWhile": "",
            "actionAfter": "",
            "optionIcon": ""
        },
        {
            "id": 730252188,
            "nextDialogs": [
                730252189
            ],
            "talkRole": {
                "type": "TALK_ROLE_PLAYER",
                "id": ""
            },
            "talkContentTextMapHash": 868326010,
            "talkAssetPath": "",
            "talkAssetPathAlter": "",
            "talkAudioName": "",
            "actionBefore": "",
            "actionWhile": "",
            "actionAfter": "",
            "optionIcon": ""
        },
        {
            "id": 730252189,
            "nextDialogs": [
                730252192
            ],
            "talkRole": {
                "type": "TALK_ROLE_NPC",
                "id": "1005"
            },
            "talkContentTextMapHash": 2583961226,
            "talkAssetPath": "",
            "talkAssetPathAlter": "",
            "talkAudioName": "",
            "actionBefore": "",
            "actionWhile": "",
            "actionAfter": "",
            "optionIcon": ""
        },
        {
            "id": 730252190,
            "nextDialogs": [
                730252191
            ],
            "talkRole": {
                "type": "TALK_ROLE_PLAYER",
                "id": ""
            },
            "talkContentTextMapHash": 110069682,
            "talkAssetPath": "",
            "talkAssetPathAlter": "",
            "talkAudioName": "",
            "actionBefore": "",
            "actionWhile": "",
            "actionAfter": "",
            "optionIcon": ""
        },
        {
            "id": 730252191,
            "nextDialogs": [
                730252192
            ],
            "talkRole": {
                "type": "TALK_ROLE_NPC",
                "id": "1005"
            },
            "talkContentTextMapHash": 2092454506,
            "talkAssetPath": "",
            "talkAssetPathAlter": "",
            "talkAudioName": "",
            "actionBefore": "",
            "actionWhile": "",
            "actionAfter": "",
            "optionIcon": ""
        },
        {
            "id": 730252192,
            "nextDialogs": [
                730252193,
                730252194,
                730252195
            ],
            "talkRole": {
                "type": "TALK_ROLE_NPC",
                "id": "1005"
            },
            "talkContentTextMapHash": 3344133818,
            "talkAssetPath": "",
            "talkAssetPathAlter": "",
            "talkAudioName": "",
            "actionBefore": "",
            "actionWhile": "",
            "actionAfter": "",
            "optionIcon": ""
        },
        {
            "id": 730252193,
            "nextDialogs": [
                730252196
            ],
            "talkRole": {
                "type": "TALK_ROLE_PLAYER",
                "id": ""
            },
            "talkContentTextMapHash": 2378379818,
            "talkAssetPath": "",
            "talkAssetPathAlter": "",
            "talkAudioName": "",
            "actionBefore": "",
            "actionWhile": "",
            "actionAfter": "",
            "optionIcon": ""
        },
        {
            "id": 730252194,
            "nextDialogs": [
                730252196
            ],
            "talkRole": {
                "type": "TALK_ROLE_PLAYER",
                "id": ""
            },
            "talkContentTextMapHash": 1002569674,
            "talkAssetPath": "",
            "talkAssetPathAlter": "",
            "talkAudioName": "",
            "actionBefore": "",
            "actionWhile": "",
            "actionAfter": "",
            "optionIcon": ""
        },
        {
            "id": 730252195,
            "nextDialogs": [
                730252196
            ],
            "talkRole": {
                "type": "TALK_ROLE_PLAYER",
                "id": ""
            },
            "talkContentTextMapHash": 4090987114,
            "talkAssetPath": "",
            "talkAssetPathAlter": "",
            "talkAudioName": "",
            "actionBefore": "",
            "actionWhile": "",
            "actionAfter": "",
            "optionIcon": ""
        },
        {
            "id": 730252196,
            "nextDialogs": [
                730252197
            ],
            "talkRole": {
                "type": "TALK_ROLE_NPC",
                "id": "1005"
            },
            "talkContentTextMapHash": 1261842914,
            "talkAssetPath": "",
            "talkAssetPathAlter": "",
            "talkAudioName": "",
            "actionBefore": "",
            "actionWhile": "",
            "actionAfter": "",
            "optionIcon": ""
        },
        {
            "id": 730252197,
            "nextDialogs": [
                730252198
            ],
            "talkRole": {
                "type": "TALK_ROLE_NPC",
                "id": "1005"
            },
            "talkContentTextMapHash": 556416210,
            "talkAssetPath": "",
            "talkAssetPathAlter": "",
            "talkAudioName": "",
            "actionBefore": "",
            "actionWhile": "",
            "actionAfter": "",
            "optionIcon": ""
        },
        {
            "id": 730252198,
            "nextDialogs": [
                730252199
            ],
            "talkRole": {
                "type": "TALK_ROLE_NPC",
                "id": "20646"
            },
            "talkContentTextMapHash": 2908235818,
            "talkAssetPath": "",
            "talkAssetPathAlter": "",
            "talkAudioName": "",
            "actionBefore": "",
            "actionWhile": "",
            "actionAfter": "",
            "optionIcon": ""
        },
        {
            "id": 730252199,
            "nextDialogs": [
                730252200
            ],
            "talkRole": {
                "type": "TALK_ROLE_NPC",
                "id": "20646"
            },
            "talkContentTextMapHash": 2880848458,
            "talkAssetPath": "",
            "talkAssetPathAlter": "",
            "talkAudioName": "",
            "actionBefore": "",
            "actionWhile": "",
            "actionAfter": "",
            "optionIcon": ""
        },
        {
            "id": 730252200,
            "nextDialogs": [
                730252201
            ],
            "talkRole": {
                "type": "TALK_ROLE_NPC",
                "id": "1005"
            },
            "talkContentTextMapHash": 1062073298,
            "talkAssetPath": "",
            "talkAssetPathAlter": "",
            "talkAudioName": "",
            "actionBefore": "",
            "actionWhile": "",
            "actionAfter": "",
            "optionIcon": ""
        },
        {
            "id": 730252201,
            "nextDialogs": [
                730252202
            ],
            "talkRole": {
                "type": "TALK_ROLE_NPC",
                "id": "20648"
            },
            "talkContentTextMapHash": 3534444394,
            "talkAssetPath": "",
            "talkAssetPathAlter": "",
            "talkAudioName": "",
            "actionBefore": "",
            "actionWhile": "",
            "actionAfter": "",
            "optionIcon": ""
        },
        {
            "id": 730252202,
            "nextDialogs": [
                730252203
            ],
            "talkRole": {
                "type": "TALK_ROLE_NPC",
                "id": "20648"
            },
            "talkContentTextMapHash": 1697310586,
            "talkAssetPath": "",
            "talkAssetPathAlter": "",
            "talkAudioName": "",
            "actionBefore": "",
            "actionWhile": "",
            "actionAfter": "",
            "optionIcon": ""
        },
        {
            "id": 730252203,
            "talkRole": {
                "type": "TALK_ROLE_NPC",
                "id": "20648"
            },
            "talkContentTextMapHash": 733195170,
            "talkAssetPath": "",
            "talkAssetPathAlter": "",
            "talkAudioName": "",
            "actionBefore": "",
            "actionWhile": "",
            "actionAfter": "",
            "optionIcon": ""
        }
    ]
}