{
    "id": 73066,
    "type": "WQ",
    "mainQuestTag": "MAINQUEST_TAG_RANK_ZERO_WQ",
    "activeMode": "PLAY_MODE_ALL",
    "titleTextMapHash": 876309775,
    "luaPath": "Actor/Quest/WQ73066",
    "suggestTrackMainQuestList": [
        73033
    ],
    "rewardIdList": [
        173066
    ],
    "chapterId": 10083,
    "subQuests": [
        {
            "subId": 7306601,
            "mainId": 73066,
            "order": 1,
            "showType": "QUEST_HIDDEN",
            "finishCond": [
                {
                    "type": "QUEST_CONTENT_QUEST_STATE_EQUAL",
                    "param": [
                        7306334,
                        3
                    ]
                },
                {
                    "type": "QUEST_CONTENT_QUEST_STATE_EQUAL",
                    "param": [
                        7306126,
                        3
                    ]
                }
            ],
            "guide": {},
            "showGuide": "QUEST_GUIDE_ITEM_DISABLE",
            "guideHint": {
                "KPOGPNLFAAE": ""
            },
            "isRewind": true,
            "versionBegin": "",
            "versionEnd": ""
        },
        {
            "subId": 7306602,
            "mainId": 73066,
            "order": 2,
            "descTextMapHash": 638737956,
            "stepDescTextMapHash": 760809237,
            "KFCPGKEOMNH": [
                331505
            ],
            "finishCond": [
                {
                    "type": "QUEST_CONTENT_FINISH_PLOT",
                    "param": [
                        7306602,
                        0
                    ]
                }
            ],
            "guide": {
                "type": "QUEST_GUIDE_NPC",
                "autoGuide": "QUEST_GUIDE_AUTO_ENABLE",
                "param": [
                    "20578"
                ],
                "guideScene": 3,
                "guideStyle": "QUEST_GUIDE_STYLE_START",
                "guideLayer": "QUEST_GUIDE_LAYER_SCENE"
            },
            "guideHint": {
                "KPOGPNLFAAE": ""
            },
            "isRewind": true,
            "versionBegin": "",
            "versionEnd": ""
        },
        {
            "subId": 7306603,
            "mainId": 73066,
            "order": 3,
            "descTextMapHash": 820305684,
            "stepDescTextMapHash": 1434627845,
            "KFCPGKEOMNH": [
                331505
            ],
            "finishCond": [
                {
                    "type": "QUEST_CONTENT_COMPLETE_TALK",
                    "param": [
                        7306603,
                        0
                    ]
                }
            ],
            "guide": {
                "type": "QUEST_GUIDE_NPC",
                "autoGuide": "QUEST_GUIDE_AUTO_ENABLE",
                "param": [
                    "20578"
                ],
                "guideScene": 3,
                "guideStyle": "QUEST_GUIDE_STYLE_START",
                "guideLayer": "QUEST_GUIDE_LAYER_SCENE"
            },
            "guideHint": {
                "KPOGPNLFAAE": ""
            },
            "isRewind": true,
            "versionBegin": "",
            "versionEnd": ""
        },
        {
            "subId": 7306604,
            "mainId": 73066,
            "order": 4,
            "descTextMapHash": 65340380,
            "stepDescTextMapHash": 2560681853,
            "KFCPGKEOMNH": [
                331505
            ],
            "finishCond": [
                {
                    "type": "QUEST_CONTENT_FINISH_PLOT",
                    "param": [
                        7306604,
                        0
                    ]
                }
            ],
            "guide": {
                "type": "QUEST_GUIDE_LOCATION",
                "autoGuide": "QUEST_GUIDE_AUTO_ENABLE",
                "param": [
                    "Q7306604_guide",
                    "40"
                ],
                "guideScene": 3,
                "guideStyle": "QUEST_GUIDE_STYLE_POINT",
                "guideLayer": "QUEST_GUIDE_LAYER_SCENE"
            },
            "guideHint": {
                "KPOGPNLFAAE": ""
            },
            "isRewind": true,
            "versionBegin": "",
            "versionEnd": ""
        },
        {
            "subId": 7306605,
            "mainId": 73066,
            "order": 5,
            "descTextMapHash": 586945156,
            "KFCPGKEOMNH": [
                331505
            ],
            "finishCond": [
                {
                    "type": "QUEST_CONTENT_COMPLETE_TALK",
                    "param": [
                        7306605,
                        0
                    ]
                }
            ],
            "guide": {
                "type": "QUEST_GUIDE_NPC",
                "autoGuide": "QUEST_GUIDE_AUTO_ENABLE",
                "param": [
                    "20578"
                ],
                "guideScene": 3,
                "guideStyle": "QUEST_GUIDE_STYLE_POINT",
                "guideLayer": "QUEST_GUIDE_LAYER_SCENE"
            },
            "guideHint": {
                "KPOGPNLFAAE": ""
            },
            "isRewind": true,
            "finishExec": [
                {
                    "type": "QUEST_EXEC_NOTIFY_GROUP_LUA",
                    "param": [
                        "3",
                        "133315034"
                    ]
                }
            ],
            "versionBegin": "",
            "versionEnd": ""
        },
        {
            "subId": 7306606,
            "mainId": 73066,
            "order": 6,
            "descTextMapHash": 2152262924,
            "stepDescTextMapHash": 1838933109,
            "showType": "QUEST_HIDDEN",
            "finishCond": [
                {
                    "type": "QUEST_CONTENT_ADD_QUEST_PROGRESS",
                    "param": [
                        7306606,
                        0
                    ],
                    "count": 3
                }
            ],
            "guide": {
                "autoGuide": "QUEST_GUIDE_AUTO_ENABLE",
                "guideScene": 3,
                "guideStyle": "QUEST_GUIDE_STYLE_POINT",
                "guideLayer": "QUEST_GUIDE_LAYER_SCENE"
            },
            "showGuide": "QUEST_GUIDE_ITEM_DISABLE",
            "guideHint": {
                "KPOGPNLFAAE": ""
            },
            "isRewind": true,
            "versionBegin": "",
            "versionEnd": ""
        },
        {
            "subId": 7306607,
            "mainId": 73066,
            "order": 99,
            "descTextMapHash": 1921771260,
            "finishCond": [
                {
                    "type": "QUEST_CONTENT_FINISH_PLOT",
                    "param": [
                        7306607,
                        0
                    ]
                }
            ],
            "guide": {
                "type": "QUEST_GUIDE_LOCATION",
                "param": [
                    "30"
                ],
                "guideScene": 3,
                "guideStyle": "QUEST_GUIDE_STYLE_POINT",
                "guideLayer": "QUEST_GUIDE_LAYER_SCENE"
            },
            "showGuide": "QUEST_GUIDE_ITEM_DISABLE",
            "guideHint": {
                "KPOGPNLFAAE": ""
            },
            "isRewind": true,
            "versionBegin": "",
            "versionEnd": ""
        },
        {
            "subId": 7306608,
            "mainId": 73066,
            "order": 8,
            "subIdSet": 1,
            "descTextMapHash": 3572584748,
            "stepDescTextMapHash": 270278517,
            "KFCPGKEOMNH": [
                331505
            ],
            "finishCond": [
                {
                    "type": "QUEST_CONTENT_GADGET_STATE_CHANGE",
                    "param": [
                        133315018,
                        18002
                    ]
                }
            ],
            "guide": {
                "type": "QUEST_GUIDE_LOCATION",
                "autoGuide": "QUEST_GUIDE_AUTO_ENABLE",
                "param": [
                    "Q7306608_guide",
                    "30"
                ],
                "guideScene": 3,
                "guideStyle": "QUEST_GUIDE_STYLE_POINT",
                "guideLayer": "QUEST_GUIDE_LAYER_SCENE"
            },
            "guideHint": {
                "KPOGPNLFAAE": ""
            },
            "finishExec": [
                {
                    "type": "QUEST_EXEC_ADD_QUEST_PROGRESS",
                    "param": [
                        "7306606",
                        "1"
                    ]
                }
            ],
            "versionBegin": "",
            "versionEnd": ""
        },
        {
            "subId": 7306609,
            "mainId": 73066,
            "order": 99,
            "descTextMapHash": 4143308068,
            "finishCond": [
                {
                    "type": "QUEST_CONTENT_FINISH_PLOT",
                    "param": [
                        7306609,
                        0
                    ]
                }
            ],
            "guide": {
                "type": "QUEST_GUIDE_LOCATION",
                "param": [
                    "30"
                ],
                "guideScene": 3,
                "guideStyle": "QUEST_GUIDE_STYLE_POINT",
                "guideLayer": "QUEST_GUIDE_LAYER_SCENE"
            },
            "showGuide": "QUEST_GUIDE_ITEM_DISABLE",
            "guideHint": {
                "KPOGPNLFAAE": ""
            },
            "isRewind": true,
            "versionBegin": "",
            "versionEnd": ""
        },
        {
            "subId": 7306610,
            "mainId": 73066,
            "order": 10,
            "subIdSet": 1,
            "descTextMapHash": 724258948,
            "stepDescTextMapHash": 1257881461,
            "KFCPGKEOMNH": [
                331505
            ],
            "finishCond": [
                {
                    "type": "QUEST_CONTENT_GADGET_STATE_CHANGE",
                    "param": [
                        133315018,
                        18003
                    ]
                }
            ],
            "guide": {
                "type": "QUEST_GUIDE_LOCATION",
                "autoGuide": "QUEST_GUIDE_AUTO_ENABLE",
                "param": [
                    "Q7306610_guide",
                    "30"
                ],
                "guideScene": 3,
                "guideStyle": "QUEST_GUIDE_STYLE_POINT",
                "guideLayer": "QUEST_GUIDE_LAYER_SCENE"
            },
            "guideHint": {
                "KPOGPNLFAAE": ""
            },
            "finishExec": [
                {
                    "type": "QUEST_EXEC_ADD_QUEST_PROGRESS",
                    "param": [
                        "7306606",
                        "1"
                    ]
                }
            ],
            "versionBegin": "",
            "versionEnd": ""
        },
        {
            "subId": 7306611,
            "mainId": 73066,
            "order": 99,
            "descTextMapHash": 3738263788,
            "finishCond": [
                {
                    "type": "QUEST_CONTENT_FINISH_PLOT",
                    "param": [
                        7306611,
                        0
                    ]
                }
            ],
            "guide": {
                "type": "QUEST_GUIDE_LOCATION",
                "param": [
                    "30"
                ],
                "guideScene": 3,
                "guideStyle": "QUEST_GUIDE_STYLE_POINT",
                "guideLayer": "QUEST_GUIDE_LAYER_SCENE"
            },
            "showGuide": "QUEST_GUIDE_ITEM_DISABLE",
            "guideHint": {
                "KPOGPNLFAAE": ""
            },
            "isRewind": true,
            "versionBegin": "",
            "versionEnd": ""
        },
        {
            "subId": 7306612,
            "mainId": 73066,
            "order": 12,
            "subIdSet": 1,
            "descTextMapHash": 4183467724,
            "stepDescTextMapHash": 4132688869,
            "KFCPGKEOMNH": [
                331505
            ],
            "finishCond": [
                {
                    "type": "QUEST_CONTENT_GADGET_STATE_CHANGE",
                    "param": [
                        133315018,
                        18004
                    ]
                }
            ],
            "guide": {
                "type": "QUEST_GUIDE_LOCATION",
                "autoGuide": "QUEST_GUIDE_AUTO_ENABLE",
                "param": [
                    "Q7306612_guide",
                    "30"
                ],
                "guideScene": 3,
                "guideStyle": "QUEST_GUIDE_STYLE_POINT",
                "guideLayer": "QUEST_GUIDE_LAYER_SCENE"
            },
            "guideHint": {
                "KPOGPNLFAAE": ""
            },
            "finishExec": [
                {
                    "type": "QUEST_EXEC_ADD_QUEST_PROGRESS",
                    "param": [
                        "7306606",
                        "1"
                    ]
                }
            ],
            "versionBegin": "",
            "versionEnd": ""
        },
        {
            "subId": 7306613,
            "mainId": 73066,
            "order": 14,
            "descTextMapHash": 58206140,
            "stepDescTextMapHash": 3445786429,
            "KFCPGKEOMNH": [
                331505
            ],
            "finishCond": [
                {
                    "type": "QUEST_CONTENT_FINISH_PLOT",
                    "param": [
                        7306613,
                        0
                    ]
                }
            ],
            "guide": {
                "type": "QUEST_GUIDE_LOCATION",
                "autoGuide": "QUEST_GUIDE_AUTO_ENABLE",
                "param": [
                    "Q7306604_guide",
                    "30"
                ],
                "guideScene": 3,
                "guideStyle": "QUEST_GUIDE_STYLE_POINT",
                "guideLayer": "QUEST_GUIDE_LAYER_SCENE"
            },
            "guideHint": {
                "KPOGPNLFAAE": ""
            },
            "isRewind": true,
            "versionBegin": "",
            "versionEnd": ""
        },
        {
            "subId": 7306614,
            "mainId": 73066,
            "order": 99,
            "descTextMapHash": 1887370596,
            "finishCond": [
                {
                    "type": "QUEST_CONTENT_COMPLETE_TALK",
                    "param": [
                        99902,
                        0
                    ]
                }
            ],
            "guide": {
                "type": "QUEST_GUIDE_NPC",
                "param": [
                    "20578"
                ],
                "guideScene": 3,
                "guideStyle": "QUEST_GUIDE_STYLE_TARGET",
                "guideLayer": "QUEST_GUIDE_LAYER_SCENE"
            },
            "guideHint": {
                "KPOGPNLFAAE": ""
            },
            "isRewind": true,
            "versionBegin": "",
            "versionEnd": ""
        },
        {
            "subId": 7306615,
            "mainId": 73066,
            "order": 15,
            "descTextMapHash": 3102942692,
            "stepDescTextMapHash": 2993571541,
            "finishCond": [
                {
                    "type": "QUEST_CONTENT_GADGET_STATE_CHANGE",
                    "param": [
                        133315018,
                        18001
                    ]
                }
            ],
            "guide": {
                "type": "QUEST_GUIDE_LOCATION",
                "autoGuide": "QUEST_GUIDE_AUTO_ENABLE",
                "param": [
                    "Q7306604_guide"
                ],
                "guideScene": 3,
                "guideStyle": "QUEST_GUIDE_STYLE_POINT",
                "guideLayer": "QUEST_GUIDE_LAYER_SCENE"
            },
            "guideHint": {
                "KPOGPNLFAAE": ""
            },
            "isRewind": true,
            "versionBegin": "",
            "versionEnd": ""
        },
        {
            "subId": 7306616,
            "mainId": 73066,
            "order": 16,
            "descTextMapHash": 4030587196,
            "stepDescTextMapHash": 251650893,
            "KFCPGKEOMNH": [
                331505
            ],
            "finishCond": [
                {
                    "type": "QUEST_CONTENT_COMPLETE_TALK",
                    "param": [
                        7306616,
                        0
                    ]
                }
            ],
            "guide": {
                "type": "QUEST_GUIDE_NPC",
                "autoGuide": "QUEST_GUIDE_AUTO_ENABLE",
                "param": [
                    "20578"
                ],
                "guideScene": 3,
                "guideStyle": "QUEST_GUIDE_STYLE_POINT",
                "guideLayer": "QUEST_GUIDE_LAYER_SCENE"
            },
            "guideHint": {
                "KPOGPNLFAAE": ""
            },
            "isRewind": true,
            "versionBegin": "",
            "versionEnd": ""
        },
        {
            "subId": 7306617,
            "mainId": 73066,
            "order": 17,
            "descTextMapHash": 2849862548,
            "stepDescTextMapHash": 2285151741,
            "KFCPGKEOMNH": [
                331505
            ],
            "finishCond": [
                {
                    "type": "QUEST_CONTENT_FINISH_PLOT",
                    "param": [
                        7306617,
                        0
                    ]
                }
            ],
            "guide": {
                "type": "QUEST_GUIDE_LOCATION",
                "autoGuide": "QUEST_GUIDE_AUTO_ENABLE",
                "param": [
                    "Q7306602_N20576",
                    "30"
                ],
                "guideScene": 3,
                "guideStyle": "QUEST_GUIDE_STYLE_POINT",
                "guideLayer": "QUEST_GUIDE_LAYER_SCENE"
            },
            "guideHint": {
                "KPOGPNLFAAE": ""
            },
            "isRewind": true,
            "versionBegin": "",
            "versionEnd": ""
        },
        {
            "subId": 7306618,
            "mainId": 73066,
            "order": 18,
            "descTextMapHash": 858547828,
            "stepDescTextMapHash": 1487498693,
            "KFCPGKEOMNH": [
                331505
            ],
            "finishCond": [
                {
                    "type": "QUEST_CONTENT_COMPLETE_TALK",
                    "param": [
                        7306618,
                        0
                    ]
                }
            ],
            "guide": {
                "type": "QUEST_GUIDE_NPC",
                "autoGuide": "QUEST_GUIDE_AUTO_ENABLE",
                "param": [
                    "20578"
                ],
                "guideScene": 3,
                "guideStyle": "QUEST_GUIDE_STYLE_POINT",
                "guideLayer": "QUEST_GUIDE_LAYER_SCENE"
            },
            "guideHint": {
                "KPOGPNLFAAE": ""
            },
            "isRewind": true,
            "versionBegin": "",
            "versionEnd": ""
        },
        {
            "subId": 7306619,
            "mainId": 73066,
            "order": 19,
            "descTextMapHash": 2644639028,
            "stepDescTextMapHash": 431478613,
            "KFCPGKEOMNH": [
                331505
            ],
            "finishCond": [
                {
                    "type": "QUEST_CONTENT_GAME_TIME_TICK",
                    "param": [
                        0,
                        0
                    ]
                }
            ],
            "guide": {
                "type": "QUEST_GUIDE_NPC",
                "autoGuide": "QUEST_GUIDE_AUTO_ENABLE",
                "param": [
                    "20578"
                ],
                "guideScene": 3,
                "guideStyle": "QUEST_GUIDE_STYLE_POINT",
                "guideLayer": "QUEST_GUIDE_LAYER_SCENE"
            },
            "guideHint": {
                "KPOGPNLFAAE": ""
            },
            "isRewind": true,
            "versionBegin": "",
            "versionEnd": ""
        },
        {
            "subId": 7306620,
            "mainId": 73066,
            "order": 23,
            "descTextMapHash": 1260897612,
            "stepDescTextMapHash": 674732629,
            "showType": "QUEST_HIDDEN",
            "finishCond": [
                {
                    "type": "QUEST_CONTENT_FINISH_PLOT",
                    "param": [
                        7306620,
                        0
                    ]
                }
            ],
            "guide": {
                "type": "QUEST_GUIDE_LOCATION",
                "autoGuide": "QUEST_GUIDE_AUTO_ENABLE",
                "param": [
                    "Q7306620_guide"
                ],
                "guideScene": 3,
                "guideStyle": "QUEST_GUIDE_STYLE_POINT",
                "guideLayer": "QUEST_GUIDE_LAYER_SCENE"
            },
            "showGuide": "QUEST_GUIDE_ITEM_DISABLE",
            "guideHint": {
                "KPOGPNLFAAE": ""
            },
            "finishExec": [
                {
                    "type": "QUEST_EXEC_DEL_PACK_ITEM",
                    "param": [
                        "101774",
                        "1"
                    ]
                },
                {
                    "type": "QUEST_EXEC_DEL_PACK_ITEM",
                    "param": [
                        "101775",
                        "1"
                    ]
                },
                {
                    "type": "QUEST_EXEC_DEL_PACK_ITEM",
                    "param": [
                        "101776",
                        "1"
                    ]
                }
            ],
            "versionBegin": "",
            "versionEnd": ""
        },
        {
            "subId": 7306621,
            "mainId": 73066,
            "order": 28,
            "descTextMapHash": 1993034420,
            "stepDescTextMapHash": 1110177453,
            "showType": "QUEST_HIDDEN",
            "finishCond": [
                {
                    "type": "QUEST_CONTENT_QUEST_STATE_EQUAL",
                    "param": [
                        7306638,
                        3
                    ]
                }
            ],
            "guide": {
                "type": "QUEST_GUIDE_LOCATION",
                "autoGuide": "QUEST_GUIDE_AUTO_ENABLE",
                "param": [
                    "Q7306621_guide"
                ],
                "guideScene": 3,
                "guideStyle": "QUEST_GUIDE_STYLE_POINT",
                "guideLayer": "QUEST_GUIDE_LAYER_SCENE"
            },
            "guideHint": {
                "KPOGPNLFAAE": ""
            },
            "isRewind": true,
            "versionBegin": "",
            "versionEnd": ""
        },
        {
            "subId": 7306622,
            "mainId": 73066,
            "order": 31,
            "descTextMapHash": 3323460244,
            "stepDescTextMapHash": 1378864173,
            "finishCond": [
                {
                    "type": "QUEST_CONTENT_FINISH_PLOT",
                    "param": [
                        7306622,
                        0
                    ]
                }
            ],
            "guide": {
                "type": "QUEST_GUIDE_LOCATION",
                "autoGuide": "QUEST_GUIDE_AUTO_ENABLE",
                "param": [
                    "Q7306622_guide"
                ],
                "guideScene": 3,
                "guideStyle": "QUEST_GUIDE_STYLE_POINT",
                "guideLayer": "QUEST_GUIDE_LAYER_SCENE"
            },
            "guideHint": {
                "KPOGPNLFAAE": ""
            },
            "isRewind": true,
            "versionBegin": "",
            "versionEnd": ""
        },
        {
            "subId": 7306623,
            "mainId": 73066,
            "order": 32,
            "descTextMapHash": 50630948,
            "stepDescTextMapHash": 4116225213,
            "finishCond": [
                {
                    "type": "QUEST_CONTENT_FINISH_PLOT",
                    "param": [
                        7306623,
                        0
                    ]
                },
                {
                    "type": "QUEST_CONTENT_GADGET_STATE_CHANGE",
                    "param": [
                        133315044,
                        44032
                    ]
                }
            ],
            "guide": {
                "type": "QUEST_GUIDE_LOCATION",
                "autoGuide": "QUEST_GUIDE_AUTO_ENABLE",
                "param": [
                    "Q7306623_guide"
                ],
                "guideScene": 3,
                "guideStyle": "QUEST_GUIDE_STYLE_POINT",
                "guideLayer": "QUEST_GUIDE_LAYER_SCENE",
                "DHGKFEKLGFG": 1801,
                "BPPEGDNHINP": 18010003
            },
            "guideHint": {
                "KPOGPNLFAAE": ""
            },
            "isRewind": true,
            "finishExec": [
                {
                    "type": "QUEST_EXEC_NOTIFY_GROUP_LUA",
                    "param": [
                        "3",
                        "133315034"
                    ]
                },
                {
                    "type": "QUEST_EXEC_NOTIFY_GROUP_LUA",
                    "param": [
                        "3",
                        "133315035"
                    ]
                },
                {
                    "type": "QUEST_EXEC_SET_MAP_LAYER_UNLOCK_STATE",
                    "param": [
                        "3200501",
                        "1"
                    ]
                }
            ],
            "versionBegin": "",
            "versionEnd": ""
        },
        {
            "subId": 7306624,
            "mainId": 73066,
            "order": 99,
            "descTextMapHash": 3579102684,
            "finishCond": [
                {
                    "type": "QUEST_CONTENT_COMPLETE_TALK",
                    "param": [
                        7306624,
                        0
                    ]
                }
            ],
            "guide": {
                "type": "QUEST_GUIDE_NPC",
                "autoGuide": "QUEST_GUIDE_AUTO_ENABLE",
                "param": [
                    "20578"
                ],
                "guideScene": 3,
                "guideStyle": "QUEST_GUIDE_STYLE_TARGET",
                "guideLayer": "QUEST_GUIDE_LAYER_SCENE"
            },
            "guideHint": {
                "KPOGPNLFAAE": ""
            },
            "isRewind": true,
            "versionBegin": "",
            "versionEnd": ""
        },
        {
            "subId": 7306625,
            "mainId": 73066,
            "order": 34,
            "subIdSet": 3,
            "descTextMapHash": 2896046404,
            "stepDescTextMapHash": 979923893,
            "finishCond": [
                {
                    "type": "QUEST_CONTENT_ADD_QUEST_PROGRESS",
                    "param": [
                        7306625,
                        0
                    ],
                    "count": 3
                }
            ],
            "guide": {
                "type": "QUEST_GUIDE_LOCATION",
                "autoGuide": "QUEST_GUIDE_AUTO_ENABLE",
                "param": [
                    "Q7306625_guide",
                    "150"
                ],
                "guideScene": 3,
                "guideStyle": "QUEST_GUIDE_STYLE_POINT",
                "guideLayer": "QUEST_GUIDE_LAYER_SCENE"
            },
            "guideHint": {
                "KPOGPNLFAAE": ""
            },
            "isRewind": true,
            "versionBegin": "",
            "versionEnd": ""
        },
        {
            "subId": 7306626,
            "mainId": 73066,
            "order": 35,
            "subIdSet": 2,
            "descTextMapHash": 4144708964,
            "stepDescTextMapHash": 2304945717,
            "finishCond": [
                {
                    "type": "QUEST_CONTENT_GADGET_STATE_CHANGE",
                    "param": [
                        133315044,
                        44029
                    ]
                },
                {
                    "type": "QUEST_CONTENT_GADGET_STATE_CHANGE",
                    "param": [
                        133315044,
                        44032
                    ]
                }
            ],
            "failCond": [
                {
                    "type": "QUEST_CONTENT_LEAVE_SCENE_RANGE",
                    "param": [
                        3,
                        230
                    ]
                }
            ],
            "guide": {
                "type": "QUEST_GUIDE_LOCATION",
                "autoGuide": "QUEST_GUIDE_AUTO_ENABLE",
                "param": [
                    "Q7306626_guide",
                    "50"
                ],
                "guideScene": 3,
                "guideStyle": "QUEST_GUIDE_STYLE_POINT",
                "guideLayer": "QUEST_GUIDE_LAYER_SCENE",
                "DHGKFEKLGFG": 1801,
                "BPPEGDNHINP": 18010003
            },
            "guideHint": {
                "KPOGPNLFAAE": ""
            },
            "finishExec": [
                {
                    "type": "QUEST_EXEC_NOTIFY_GROUP_LUA",
                    "param": [
                        "3",
                        "133315138"
                    ]
                }
            ],
            "failExec": [
                {
                    "type": "QUEST_EXEC_ROLLBACK_QUEST",
                    "param": [
                        "7306623"
                    ]
                }
            ],
            "versionBegin": "",
            "versionEnd": ""
        },
        {
            "subId": 7306627,
            "mainId": 73066,
            "order": 36,
            "subIdSet": 2,
            "descTextMapHash": 3929956908,
            "stepDescTextMapHash": 1782520213,
            "finishCond": [
                {
                    "type": "QUEST_CONTENT_GADGET_STATE_CHANGE",
                    "param": [
                        133315044,
                        44030
                    ]
                },
                {
                    "type": "QUEST_CONTENT_GADGET_STATE_CHANGE",
                    "param": [
                        133315044,
                        44032
                    ]
                }
            ],
            "failCond": [
                {
                    "type": "QUEST_CONTENT_LEAVE_SCENE_RANGE",
                    "param": [
                        3,
                        230
                    ]
                }
            ],
            "guide": {
                "type": "QUEST_GUIDE_LOCATION",
                "autoGuide": "QUEST_GUIDE_AUTO_ENABLE",
                "param": [
                    "Q7306627_guide",
                    "50"
                ],
                "guideScene": 3,
                "guideStyle": "QUEST_GUIDE_STYLE_POINT",
                "guideLayer": "QUEST_GUIDE_LAYER_SCENE",
                "DHGKFEKLGFG": 1801,
                "BPPEGDNHINP": 18010003
            },
            "guideHint": {
                "KPOGPNLFAAE": ""
            },
            "finishExec": [
                {
                    "type": "QUEST_EXEC_NOTIFY_GROUP_LUA",
                    "param": [
                        "3",
                        "133315138"
                    ]
                }
            ],
            "failExec": [
                {
                    "type": "QUEST_EXEC_ROLLBACK_QUEST",
                    "param": [
                        "7306623"
                    ]
                }
            ],
            "versionBegin": "",
            "versionEnd": ""
        },
        {
            "subId": 7306628,
            "mainId": 73066,
            "order": 37,
            "subIdSet": 2,
            "descTextMapHash": 529873252,
            "stepDescTextMapHash": 1172173941,
            "finishCond": [
                {
                    "type": "QUEST_CONTENT_GADGET_STATE_CHANGE",
                    "param": [
                        133315044,
                        44031
                    ]
                },
                {
                    "type": "QUEST_CONTENT_GADGET_STATE_CHANGE",
                    "param": [
                        133315044,
                        44032
                    ]
                }
            ],
            "failCond": [
                {
                    "type": "QUEST_CONTENT_LEAVE_SCENE_RANGE",
                    "param": [
                        3,
                        230
                    ]
                }
            ],
            "guide": {
                "type": "QUEST_GUIDE_LOCATION",
                "autoGuide": "QUEST_GUIDE_AUTO_ENABLE",
                "param": [
                    "Q7306628_guide",
                    "50"
                ],
                "guideScene": 3,
                "guideStyle": "QUEST_GUIDE_STYLE_POINT",
                "guideLayer": "QUEST_GUIDE_LAYER_SCENE",
                "DHGKFEKLGFG": 1801,
                "BPPEGDNHINP": 18010003
            },
            "guideHint": {
                "KPOGPNLFAAE": ""
            },
            "finishExec": [
                {
                    "type": "QUEST_EXEC_NOTIFY_GROUP_LUA",
                    "param": [
                        "3",
                        "133315138"
                    ]
                }
            ],
            "failExec": [
                {
                    "type": "QUEST_EXEC_ROLLBACK_QUEST",
                    "param": [
                        "7306623"
                    ]
                }
            ],
            "versionBegin": "",
            "versionEnd": ""
        },
        {
            "subId": 7306629,
            "mainId": 73066,
            "order": 39,
            "descTextMapHash": 1774532036,
            "stepDescTextMapHash": 901020629,
            "finishCond": [
                {
                    "type": "QUEST_CONTENT_GADGET_STATE_CHANGE",
                    "param": [
                        133315044,
                        44050
                    ]
                },
                {
                    "type": "QUEST_CONTENT_GADGET_STATE_CHANGE",
                    "param": [
                        133315044,
                        44032
                    ]
                }
            ],
            "guide": {
                "type": "QUEST_GUIDE_LOCATION",
                "autoGuide": "QUEST_GUIDE_AUTO_ENABLE",
                "param": [
                    "Q7306629_guide",
                    "30"
                ],
                "guideScene": 3,
                "guideStyle": "QUEST_GUIDE_STYLE_POINT",
                "guideLayer": "QUEST_GUIDE_LAYER_SCENE",
                "DHGKFEKLGFG": 1801,
                "BPPEGDNHINP": 18010003
            },
            "guideHint": {
                "KPOGPNLFAAE": ""
            },
            "isRewind": true,
            "versionBegin": "",
            "versionEnd": ""
        },
        {
            "subId": 7306630,
            "mainId": 73066,
            "order": 40,
            "descTextMapHash": 3058606084,
            "stepDescTextMapHash": 3335582917,
            "finishCond": [
                {
                    "type": "QUEST_CONTENT_GADGET_STATE_CHANGE",
                    "param": [
                        133315044,
                        44032
                    ]
                },
                {
                    "type": "QUEST_CONTENT_LUA_NOTIFY",
                    "param": [
                        0,
                        0
                    ],
                    "count": 1
                }
            ],
            "guide": {
                "type": "QUEST_GUIDE_LOCATION",
                "param": [
                    "Q7306629_guide",
                    "30"
                ],
                "guideScene": 3,
                "guideStyle": "QUEST_GUIDE_STYLE_POINT",
                "guideLayer": "QUEST_GUIDE_LAYER_SCENE",
                "DHGKFEKLGFG": 1801,
                "BPPEGDNHINP": 18010003
            },
            "showGuide": "QUEST_GUIDE_ITEM_DISABLE",
            "guideHint": {
                "KPOGPNLFAAE": ""
            },
            "isRewind": true,
            "versionBegin": "",
            "versionEnd": ""
        },
        {
            "subId": 7306631,
            "mainId": 73066,
            "order": 42,
            "descTextMapHash": 2721443220,
            "stepDescTextMapHash": 2664567733,
            "finishCond": [
                {
                    "type": "QUEST_CONTENT_COMPLETE_TALK",
                    "param": [
                        7306631,
                        0
                    ]
                }
            ],
            "guide": {
                "type": "QUEST_GUIDE_NPC",
                "autoGuide": "QUEST_GUIDE_AUTO_ENABLE",
                "param": [
                    "20578"
                ],
                "guideScene": 3,
                "guideStyle": "QUEST_GUIDE_STYLE_POINT",
                "guideLayer": "QUEST_GUIDE_LAYER_SCENE",
                "DHGKFEKLGFG": 1801,
                "BPPEGDNHINP": 18010003
            },
            "guideHint": {
                "KPOGPNLFAAE": ""
            },
            "finishParent": true,
            "isRewind": true,
            "finishExec": [
                {
                    "type": "QUEST_EXEC_SET_QUEST_GLOBAL_VAR",
                    "param": [
                        "73066",
                        "1"
                    ]
                },
                {
                    "type": "QUEST_EXEC_NOTIFY_GROUP_LUA",
                    "param": [
                        "3",
                        "133315035"
                    ]
                },
                {
                    "type": "QUEST_EXEC_REFRESH_GROUP_SUITE",
                    "param": [
                        "3",
                        "133301590,2"
                    ]
                }
            ],
            "versionBegin": "",
            "versionEnd": ""
        },
        {
            "subId": 7306632,
            "mainId": 73066,
            "order": 99,
            "descTextMapHash": 3204050012,
            "finishCond": [
                {
                    "type": "QUEST_CONTENT_LUA_NOTIFY",
                    "param": [
                        0,
                        0
                    ],
                    "count": 1
                }
            ],
            "guide": {
                "type": "QUEST_GUIDE_LOCATION",
                "autoGuide": "QUEST_GUIDE_AUTO_ENABLE",
                "param": [
                    "Q7306632_guide"
                ],
                "guideScene": 3,
                "guideStyle": "QUEST_GUIDE_STYLE_POINT",
                "guideLayer": "QUEST_GUIDE_LAYER_SCENE"
            },
            "guideHint": {
                "KPOGPNLFAAE": ""
            },
            "isRewind": true,
            "versionBegin": "",
            "versionEnd": ""
        },
        {
            "subId": 7306633,
            "mainId": 73066,
            "order": 21,
            "descTextMapHash": 1669421196,
            "stepDescTextMapHash": 4240077773,
            "KFCPGKEOMNH": [
                331505
            ],
            "finishCond": [
                {
                    "type": "QUEST_CONTENT_COMPLETE_TALK",
                    "param": [
                        7306642,
                        0
                    ]
                }
            ],
            "failCond": [
                {
                    "type": "QUEST_CONTENT_GAME_TIME_TICK",
                    "param": [
                        0,
                        0
                    ]
                }
            ],
            "guide": {
                "type": "QUEST_GUIDE_NPC",
                "autoGuide": "QUEST_GUIDE_AUTO_ENABLE",
                "param": [
                    "20578"
                ],
                "guideScene": 3,
                "guideStyle": "QUEST_GUIDE_STYLE_POINT",
                "guideLayer": "QUEST_GUIDE_LAYER_SCENE"
            },
            "guideHint": {
                "KPOGPNLFAAE": ""
            },
            "failExec": [
                {
                    "type": "QUEST_EXEC_ROLLBACK_QUEST",
                    "param": [
                        "7306619"
                    ]
                }
            ],
            "versionBegin": "",
            "versionEnd": ""
        },
        {
            "subId": 7306634,
            "mainId": 73066,
            "order": 99,
            "showType": "QUEST_HIDDEN",
            "finishCond": [
                {
                    "type": "QUEST_CONTENT_GAME_TIME_TICK",
                    "param": [
                        1,
                        0
                    ]
                }
            ],
            "failCond": [
                {
                    "type": "QUEST_CONTENT_QUEST_STATE_EQUAL",
                    "param": [
                        7306633,
                        3
                    ]
                }
            ],
            "guide": {},
            "showGuide": "QUEST_GUIDE_ITEM_DISABLE",
            "guideHint": {
                "KPOGPNLFAAE": ""
            },
            "isRewind": true,
            "finishExec": [
                {
                    "type": "QUEST_EXEC_ROLLBACK_QUEST",
                    "param": [
                        "7306619"
                    ]
                }
            ],
            "versionBegin": "",
            "versionEnd": ""
        },
        {
            "subId": 7306636,
            "mainId": 73066,
            "order": 24,
            "descTextMapHash": 4063407580,
            "stepDescTextMapHash": 3488090861,
            "KFCPGKEOMNH": [
                331505
            ],
            "finishCond": [
                {
                    "type": "QUEST_CONTENT_COMPLETE_TALK",
                    "param": [
                        7306636,
                        0
                    ]
                }
            ],
            "guide": {
                "type": "QUEST_GUIDE_NPC",
                "autoGuide": "QUEST_GUIDE_AUTO_ENABLE",
                "param": [
                    "20578"
                ],
                "guideScene": 3,
                "guideStyle": "QUEST_GUIDE_STYLE_POINT",
                "guideLayer": "QUEST_GUIDE_LAYER_SCENE"
            },
            "guideHint": {
                "KPOGPNLFAAE": ""
            },
            "isRewind": true,
            "versionBegin": "",
            "versionEnd": ""
        },
        {
            "subId": 7306637,
            "mainId": 73066,
            "order": 25,
            "descTextMapHash": 2612678580,
            "stepDescTextMapHash": 1000184397,
            "KFCPGKEOMNH": [
                331505
            ],
            "finishCond": [
                {
                    "type": "QUEST_CONTENT_FINISH_PLOT",
                    "param": [
                        7306637,
                        0
                    ]
                }
            ],
            "guide": {
                "type": "QUEST_GUIDE_LOCATION",
                "autoGuide": "QUEST_GUIDE_AUTO_ENABLE",
                "param": [
                    "Q7306621_guide"
                ],
                "guideScene": 3,
                "guideStyle": "QUEST_GUIDE_STYLE_POINT",
                "guideLayer": "QUEST_GUIDE_LAYER_SCENE"
            },
            "guideHint": {
                "KPOGPNLFAAE": ""
            },
            "isRewind": true,
            "versionBegin": "",
            "versionEnd": ""
        },
        {
            "subId": 7306638,
            "mainId": 73066,
            "order": 26,
            "descTextMapHash": 2420424692,
            "stepDescTextMapHash": 1358205773,
            "KFCPGKEOMNH": [
                331505
            ],
            "finishCond": [
                {
                    "type": "QUEST_CONTENT_COMPLETE_TALK",
                    "param": [
                        7306638,
                        0
                    ]
                }
            ],
            "guide": {
                "type": "QUEST_GUIDE_NPC",
                "autoGuide": "QUEST_GUIDE_AUTO_ENABLE",
                "param": [
                    "20578"
                ],
                "guideScene": 3,
                "guideStyle": "QUEST_GUIDE_STYLE_POINT",
                "guideLayer": "QUEST_GUIDE_LAYER_SCENE"
            },
            "guideHint": {
                "KPOGPNLFAAE": ""
            },
            "isRewind": true,
            "finishExec": [
                {
                    "type": "QUEST_EXEC_DEL_PACK_ITEM",
                    "param": [
                        "101779",
                        "1"
                    ]
                },
                {
                    "type": "QUEST_EXEC_NOTIFY_GROUP_LUA",
                    "param": [
                        "3",
                        "133315034"
                    ]
                }
            ],
            "versionBegin": "",
            "versionEnd": ""
        },
        {
            "subId": 7306639,
            "mainId": 73066,
            "order": 30,
            "descTextMapHash": 2436585164,
            "stepDescTextMapHash": 646311045,
            "finishCond": [
                {
                    "type": "QUEST_CONTENT_COMPLETE_TALK",
                    "param": [
                        7306639,
                        0
                    ]
                }
            ],
            "guide": {
                "type": "QUEST_GUIDE_NPC",
                "autoGuide": "QUEST_GUIDE_AUTO_ENABLE",
                "param": [
                    "20578"
                ],
                "guideScene": 3,
                "guideStyle": "QUEST_GUIDE_STYLE_POINT",
                "guideLayer": "QUEST_GUIDE_LAYER_SCENE"
            },
            "guideHint": {
                "KPOGPNLFAAE": ""
            },
            "isRewind": true,
            "versionBegin": "",
            "versionEnd": ""
        },
        {
            "subId": 7306640,
            "mainId": 73066,
            "order": 29,
            "showType": "QUEST_HIDDEN",
            "finishCond": [
                {
                    "type": "QUEST_CONTENT_FINISH_PLOT",
                    "param": [
                        7306640,
                        0
                    ]
                }
            ],
            "guide": {
                "guideStyle": "QUEST_GUIDE_STYLE_POINT",
                "guideLayer": "QUEST_GUIDE_LAYER_SCENE"
            },
            "showGuide": "QUEST_GUIDE_ITEM_DISABLE",
            "guideHint": {
                "KPOGPNLFAAE": ""
            },
            "finishExec": [
                {
                    "type": "QUEST_EXEC_ADD_SCENE_TAG",
                    "param": [
                        "3",
                        "1132"
                    ]
                },
                {
                    "type": "QUEST_EXEC_DEL_SCENE_TAG",
                    "param": [
                        "3",
                        "1131"
                    ]
                }
            ],
            "versionBegin": "",
            "versionEnd": ""
        },
        {
            "subId": 7306641,
            "mainId": 73066,
            "order": 41,
            "showType": "QUEST_HIDDEN",
            "finishCond": [
                {
                    "type": "QUEST_CONTENT_FINISH_PLOT",
                    "param": [
                        7306641,
                        0
                    ]
                }
            ],
            "guide": {
                "guideStyle": "QUEST_GUIDE_STYLE_POINT",
                "guideLayer": "QUEST_GUIDE_LAYER_SCENE",
                "DHGKFEKLGFG": 1801,
                "BPPEGDNHINP": 18010003
            },
            "showGuide": "QUEST_GUIDE_ITEM_DISABLE",
            "guideHint": {
                "KPOGPNLFAAE": ""
            },
            "finishExec": [
                {
                    "type": "QUEST_EXEC_SET_WEATHER_GADGET",
                    "param": [
                        "4004",
                        "0"
                    ]
                },
                {
                    "type": "QUEST_EXEC_SET_WEATHER_GADGET",
                    "param": [
                        "4075",
                        "1"
                    ]
                },
                {
                    "type": "QUEST_EXEC_NOTIFY_GROUP_LUA",
                    "param": [
                        "3",
                        "133315142"
                    ]
                },
                {
                    "type": "QUEST_EXEC_ADD_SCENE_TAG",
                    "param": [
                        "3",
                        "1134"
                    ]
                },
                {
                    "type": "QUEST_EXEC_DEL_SCENE_TAG",
                    "param": [
                        "3",
                        "1133"
                    ]
                }
            ],
            "versionBegin": "",
            "versionEnd": ""
        },
        {
            "subId": 7306642,
            "mainId": 73066,
            "order": 13,
            "showType": "QUEST_HIDDEN",
            "finishCond": [
                {
                    "type": "QUEST_CONTENT_QUEST_STATE_EQUAL",
                    "param": [
                        7306606,
                        3
                    ]
                }
            ],
            "guide": {},
            "showGuide": "QUEST_GUIDE_ITEM_DISABLE",
            "guideHint": {
                "KPOGPNLFAAE": ""
            },
            "isRewind": true,
            "versionBegin": "",
            "versionEnd": ""
        },
        {
            "subId": 7306643,
            "mainId": 73066,
            "order": 38,
            "descTextMapHash": 3789028524,
            "stepDescTextMapHash": 270265461,
            "finishCond": [
                {
                    "type": "QUEST_CONTENT_FINISH_PLOT",
                    "param": [
                        7306643,
                        0
                    ]
                },
                {
                    "type": "QUEST_CONTENT_GADGET_STATE_CHANGE",
                    "param": [
                        133315044,
                        44050
                    ]
                },
                {
                    "type": "QUEST_CONTENT_GADGET_STATE_CHANGE",
                    "param": [
                        133315044,
                        44032
                    ]
                }
            ],
            "guide": {
                "type": "QUEST_GUIDE_LOCATION",
                "autoGuide": "QUEST_GUIDE_AUTO_ENABLE",
                "param": [
                    "Q7306629_guide",
                    "30"
                ],
                "guideScene": 3,
                "guideStyle": "QUEST_GUIDE_STYLE_POINT",
                "guideLayer": "QUEST_GUIDE_LAYER_SCENE",
                "DHGKFEKLGFG": 1801,
                "BPPEGDNHINP": 18010003
            },
            "guideHint": {
                "KPOGPNLFAAE": ""
            },
            "isRewind": true,
            "versionBegin": "",
            "versionEnd": ""
        },
        {
            "subId": 7306644,
            "mainId": 73066,
            "order": 33,
            "descTextMapHash": 4170246756,
            "stepDescTextMapHash": 1440323405,
            "finishCond": [
                {
                    "type": "QUEST_CONTENT_COMPLETE_TALK",
                    "param": [
                        7306624,
                        0
                    ]
                },
                {
                    "type": "QUEST_CONTENT_GADGET_STATE_CHANGE",
                    "param": [
                        133315044,
                        44032
                    ]
                }
            ],
            "guide": {
                "type": "QUEST_GUIDE_NPC",
                "autoGuide": "QUEST_GUIDE_AUTO_ENABLE",
                "param": [
                    "20578"
                ],
                "guideScene": 3,
                "guideStyle": "QUEST_GUIDE_STYLE_POINT",
                "guideLayer": "QUEST_GUIDE_LAYER_SCENE",
                "DHGKFEKLGFG": 1801,
                "BPPEGDNHINP": 18010003
            },
            "guideHint": {
                "KPOGPNLFAAE": ""
            },
            "isRewind": true,
            "finishExec": [
                {
                    "type": "QUEST_EXEC_NOTIFY_GROUP_LUA",
                    "param": [
                        "3",
                        "133315136"
                    ]
                }
            ],
            "versionBegin": "",
            "versionEnd": ""
        }
    ],
    "talks": [
        {
            "id": 7306603,
            "beginWay": "TALK_BEGIN_AUTO",
            "activeMode": "PLAY_MODE_ALL",
            "beginCond": [
                {
                    "type": "QUEST_COND_STATE_EQUAL",
                    "param": [
                        "7306603",
                        "2"
                    ]
                }
            ],
            "priority": 5,
            "initDialog": 730660301,
            "npcId": [
                20578,
                1005
            ],
            "performCfg": "QuestDialogue/WQ/Sumeru_73066/Q7306603",
            "heroTalk": "TALK_HERO_MAIN",
            "questId": 73066,
            "assetIndex": 9874414641438391976,
            "prePerformCfg": "",
            "talkMarkType": "TALK_MARK_COMMON"
        },
        {
            "id": 7306605,
            "beginWay": "TALK_BEGIN_AUTO",
            "activeMode": "PLAY_MODE_ALL",
            "beginCond": [
                {
                    "type": "QUEST_COND_STATE_EQUAL",
                    "param": [
                        "7306605",
                        "2"
                    ]
                }
            ],
            "initDialog": 730660501,
            "npcId": [
                20578
            ],
            "performCfg": "QuestDialogue/WQ/Sumeru_73066/Q7306605",
            "questId": 73066,
            "assetIndex": 7578519312594151360,
            "prePerformCfg": ""
        },
        {
            "id": 7306616,
            "beginWay": "TALK_BEGIN_AUTO",
            "activeMode": "PLAY_MODE_ALL",
            "beginCond": [
                {
                    "type": "QUEST_COND_STATE_EQUAL",
                    "param": [
                        "7306616",
                        "2"
                    ]
                }
            ],
            "priority": 5,
            "initDialog": 730661601,
            "npcId": [
                1005,
                20578
            ],
            "performCfg": "QuestDialogue/WQ/Sumeru_73066/Q7306616",
            "heroTalk": "TALK_HERO_MAIN",
            "questId": 73066,
            "assetIndex": 18264319268185007165,
            "prePerformCfg": ""
        },
        {
            "id": 7306618,
            "beginWay": "TALK_BEGIN_AUTO",
            "activeMode": "PLAY_MODE_ALL",
            "beginCond": [
                {
                    "type": "QUEST_COND_STATE_EQUAL",
                    "param": [
                        "7306618",
                        "2"
                    ]
                }
            ],
            "priority": 5,
            "initDialog": 730661801,
            "npcId": [
                20578,
                1005
            ],
            "performCfg": "QuestDialogue/WQ/Sumeru_73066/Q7306618",
            "heroTalk": "TALK_HERO_MAIN",
            "questId": 73066,
            "assetIndex": 6563034019502823997,
            "prePerformCfg": ""
        },
        {
            "id": 7306619,
            "beginWay": "TALK_BEGIN_MANUAL",
            "activeMode": "PLAY_MODE_ALL",
            "beginCond": [
                {
                    "type": "QUEST_COND_STATE_EQUAL",
                    "param": [
                        "7306619",
                        "2"
                    ]
                }
            ],
            "priority": 5,
            "initDialog": 730661901,
            "npcId": [
                20578
            ],
            "performCfg": "",
            "heroTalk": "TALK_HERO_MAIN",
            "questId": 73066,
            "assetIndex": 9877696211878103104,
            "prePerformCfg": ""
        },
        {
            "id": 7306624,
            "beginWay": "TALK_BEGIN_AUTO",
            "activeMode": "PLAY_MODE_ALL",
            "beginCond": [
                {
                    "type": "QUEST_COND_STATE_EQUAL",
                    "param": [
                        "7306644",
                        "2"
                    ]
                }
            ],
            "priority": 5,
            "initDialog": 730662401,
            "npcId": [
                20578,
                20577,
                20576
            ],
            "performCfg": "QuestDialogue/WQ/Sumeru_73066/Q7306624",
            "heroTalk": "TALK_HERO_MAIN",
            "questId": 73066,
            "assetIndex": 11179283364153256084,
            "prePerformCfg": ""
        },
        {
            "id": 7306631,
            "beginWay": "TALK_BEGIN_AUTO",
            "activeMode": "PLAY_MODE_ALL",
            "beginCond": [
                {
                    "type": "QUEST_COND_STATE_EQUAL",
                    "param": [
                        "7306631",
                        "2"
                    ]
                }
            ],
            "priority": 5,
            "initDialog": 730663101,
            "npcId": [
                20578,
                1005,
                20576,
                20577
            ],
            "performCfg": "QuestDialogue/WQ/Sumeru_73066/Q7306631",
            "heroTalk": "TALK_HERO_MAIN",
            "questId": 73066,
            "assetIndex": 1845099483009705722,
            "prePerformCfg": ""
        },
        {
            "id": 7306636,
            "beginWay": "TALK_BEGIN_MANUAL",
            "activeMode": "PLAY_MODE_ALL",
            "beginCond": [
                {
                    "type": "QUEST_COND_STATE_EQUAL",
                    "param": [
                        "7306636",
                        "2"
                    ]
                }
            ],
            "priority": 5,
            "initDialog": 730663601,
            "npcId": [
                1005,
                20578,
                20576,
                20577
            ],
            "performCfg": "QuestDialogue/WQ/Sumeru_73066/Q7306636",
            "heroTalk": "TALK_HERO_MAIN",
            "questId": 73066,
            "assetIndex": 6126340942901172070,
            "prePerformCfg": ""
        },
        {
            "id": 7306638,
            "beginWay": "TALK_BEGIN_MANUAL",
            "activeMode": "PLAY_MODE_ALL",
            "beginCond": [
                {
                    "type": "QUEST_COND_STATE_EQUAL",
                    "param": [
                        "7306638",
                        "2"
                    ]
                }
            ],
            "priority": 5,
            "initDialog": 730663801,
            "npcId": [
                20578,
                20577,
                20576
            ],
            "performCfg": "QuestDialogue/WQ/Sumeru_73066/Q7306638",
            "heroTalk": "TALK_HERO_MAIN",
            "questId": 73066,
            "assetIndex": 9722307411777702132,
            "prePerformCfg": ""
        },
        {
            "id": 7306639,
            "beginWay": "TALK_BEGIN_MANUAL",
            "activeMode": "PLAY_MODE_ALL",
            "beginCond": [
                {
                    "type": "QUEST_COND_STATE_EQUAL",
                    "param": [
                        "7306639",
                        "2"
                    ]
                }
            ],
            "priority": 5,
            "initDialog": 730663901,
            "npcId": [
                1005,
                20578,
                20576,
                20577
            ],
            "performCfg": "QuestDialogue/WQ/Sumeru_73066/Q7306639",
            "heroTalk": "TALK_HERO_MAIN",
            "questId": 73066,
            "assetIndex": 10558737659440419480,
            "prePerformCfg": ""
        },
        {
            "id": 7306641,
            "beginWay": "TALK_BEGIN_MANUAL",
            "activeMode": "PLAY_MODE_ALL",
            "beginCondComb": "LOGIC_AND",
            "beginCond": [
                {
                    "type": "QUEST_COND_STATE_EQUAL",
                    "param": [
                        "7306633",
                        "2"
                    ]
                },
                {
                    "type": "QUEST_COND_QUEST_VAR_EQUAL",
                    "param": [
                        "1",
                        "0",
                        "73066"
                    ]
                }
            ],
            "priority": 5,
            "nextTalks": [
                7306642,
                7306643
            ],
            "initDialog": 730664101,
            "npcId": [
                20576,
                20577,
                20578,
                1005
            ],
            "performCfg": "QuestDialogue/WQ/Sumeru_73066/Q7306641",
            "heroTalk": "TALK_HERO_MAIN",
            "questId": 73066,
            "assetIndex": 5896462591409298596,
            "prePerformCfg": "",
            "lockGameTime": true,
            "finishExec": [
                {
                    "type": "TALK_EXEC_INC_QUEST_VAR",
                    "param": [
                        "1",
                        "1",
                        "73066"
                    ]
                }
            ]
        },
        {
            "id": 7306642,
            "activeMode": "PLAY_MODE_ALL",
            "beginCond": [
                {
                    "type": "QUEST_COND_STATE_EQUAL",
                    "param": [
                        "7306633",
                        "2"
                    ]
                }
            ],
            "priority": 5,
            "initDialog": 730664201,
            "npcId": [
                1005,
                20578
            ],
            "performCfg": "QuestDialogue/WQ/Sumeru_73066/Q7306642",
            "heroTalk": "TALK_HERO_MAIN",
            "questId": 73066,
            "assetIndex": 16347349194417092259,
            "prePerformCfg": "",
            "lockGameTime": true
        },
        {
            "id": 7306643,
            "activeMode": "PLAY_MODE_ALL",
            "beginCond": [
                {
                    "type": "QUEST_COND_STATE_EQUAL",
                    "param": [
                        "7306633",
                        "2"
                    ]
                }
            ],
            "priority": 5,
            "initDialog": 730664301,
            "npcId": [
                20578,
                20576,
                20577
            ],
            "performCfg": "QuestDialogue/WQ/Sumeru_73066/Q7306643",
            "heroTalk": "TALK_HERO_MAIN",
            "questId": 73066,
            "assetIndex": 8515820859678454560,
            "prePerformCfg": "",
            "lockGameTime": true
        },
        {
            "id": 7306644,
            "beginWay": "TALK_BEGIN_MANUAL",
            "activeMode": "PLAY_MODE_ALL",
            "beginCondComb": "LOGIC_AND",
            "beginCond": [
                {
                    "type": "QUEST_COND_STATE_EQUAL",
                    "param": [
                        "7306633",
                        "2"
                    ]
                },
                {
                    "type": "QUEST_COND_QUEST_VAR_GREATER",
                    "param": [
                        "1",
                        "0",
                        "73066"
                    ]
                }
            ],
            "priority": 5,
            "nextTalks": [
                7306642,
                7306643
            ],
            "initDialog": 730664401,
            "npcId": [
                20578,
                20577,
                20576
            ],
            "performCfg": "QuestDialogue/WQ/Sumeru_73066/Q7306644",
            "heroTalk": "TALK_HERO_MAIN",
            "questId": 73066,
            "assetIndex": 11398760404284774666,
            "prePerformCfg": "",
            "lockGameTime": true
        }
    ],
    "preloadLuaList": [
        12490315866472956729,
        4370881330866437895,
        5650695067753677486,
        8193636833681289725,
        15537531671832893824,
        3418423041011064097,
        14033853200276561094,
        12140734362291310786,
        9643518313200506225,
        9029275650574970643,
        10925504186277167728
    ],
    "AILPOGENMJB": [
        10636189989096974855
    ]
}