{
    "id": 73319,
    "type": "WQ",
    "activeMode": "PLAY_MODE_ALL",
    "titleTextMapHash": 2089034215,
    "descTextMapHash": 1073168166,
    "luaPath": "Actor/Quest/WQ73319",
    "rewardIdList": [
        173319
    ],
    "subQuests": [
        {
            "subId": 7331901,
            "mainId": 73319,
            "order": 1,
            "descTextMapHash": 915484044,
            "finishCond": [
                {
                    "type": "QUEST_CONTENT_COMPLETE_TALK",
                    "param": [
                        7331901,
                        0
                    ]
                }
            ],
            "guide": {
                "type": "QUEST_GUIDE_NPC",
                "param": [
                    "20968"
                ],
                "guideScene": 3,
                "guideStyle": "QUEST_GUIDE_STYLE_TARGET",
                "guideLayer": "QUEST_GUIDE_LAYER_SCENE"
            },
            "guideHint": {
                "KPOGPNLFAAE": ""
            },
            "isRewind": true,
            "versionBegin": "",
            "versionEnd": ""
        },
        {
            "subId": 7331902,
            "mainId": 73319,
            "order": 3,
            "descTextMapHash": 1587716308,
            "showType": "QUEST_HIDDEN",
            "finishCond": [
                {
                    "type": "QUEST_CONTENT_FINISH_PLOT",
                    "param": [
                        7331902,
                        0
                    ]
                }
            ],
            "guide": {},
            "guideHint": {
                "KPOGPNLFAAE": ""
            },
            "finishExec": [
                {
                    "type": "QUEST_EXEC_REGISTER_DYNAMIC_GROUP",
                    "param": [
                        "3",
                        "133316094"
                    ]
                }
            ],
            "versionBegin": "",
            "versionEnd": ""
        },
        {
            "subId": 7331903,
            "mainId": 73319,
            "order": 4,
            "isMpBlock": true,
            "descTextMapHash": 3803586484,
            "banType": "BAN_GROUP_TRANSPORT_ONLY",
            "finishCond": [
                {
                    "type": "QUEST_CONTENT_LUA_NOTIFY",
                    "param": [
                        0,
                        0
                    ],
                    "count": 1
                }
            ],
            "failCond": [
                {
                    "type": "QUEST_CONTENT_LUA_NOTIFY",
                    "param": [
                        0,
                        0
                    ],
                    "count": 1
                },
                {
                    "type": "QUEST_CONTENT_ANY_MANUAL_TRANSPORT",
                    "param": [
                        0,
                        0
                    ]
                }
            ],
            "guide": {
                "type": "QUEST_GUIDE_GADGET",
                "param": [
                    "133316094",
                    "94015",
                    "595.0157:293.8128:6446.844"
                ],
                "guideScene": 3,
                "guideStyle": "QUEST_GUIDE_STYLE_TARGET",
                "guideLayer": "QUEST_GUIDE_LAYER_SCENE"
            },
            "showGuide": "QUEST_GUIDE_ITEM_DISABLE",
            "guideHint": {
                "KPOGPNLFAAE": ""
            },
            "failExec": [
                {
                    "type": "QUEST_EXEC_ROLLBACK_QUEST",
                    "param": [
                        "7331910"
                    ]
                },
                {
                    "type": "QUEST_EXEC_REFRESH_GROUP_SUITE",
                    "param": [
                        "3",
                        "133316094,1"
                    ]
                }
            ],
            "versionBegin": "",
            "versionEnd": ""
        },
        {
            "subId": 7331904,
            "mainId": 73319,
            "order": 5,
            "descTextMapHash": 1647895228,
            "finishCond": [
                {
                    "type": "QUEST_CONTENT_COMPLETE_TALK",
                    "param": [
                        7331904,
                        0
                    ]
                }
            ],
            "guide": {
                "type": "QUEST_GUIDE_NPC",
                "param": [
                    "20968"
                ],
                "guideScene": 3,
                "guideStyle": "QUEST_GUIDE_STYLE_TARGET",
                "guideLayer": "QUEST_GUIDE_LAYER_SCENE"
            },
            "guideHint": {
                "KPOGPNLFAAE": ""
            },
            "isRewind": true,
            "finishExec": [
                {
                    "type": "QUEST_EXEC_NOTIFY_GROUP_LUA",
                    "param": [
                        "3",
                        "133316094"
                    ]
                },
                {
                    "type": "QUEST_EXEC_UNREGISTER_DYNAMIC_GROUP",
                    "param": [
                        "133316094",
                        "0"
                    ]
                },
                {
                    "type": "QUEST_EXEC_REFRESH_GROUP_SUITE",
                    "param": [
                        "3",
                        "133316367,2"
                    ]
                }
            ],
            "versionBegin": "",
            "versionEnd": ""
        },
        {
            "subId": 7331905,
            "mainId": 73319,
            "order": 6,
            "descTextMapHash": 3279392676,
            "finishCond": [
                {
                    "type": "QUEST_CONTENT_GAME_TIME_TICK",
                    "param": [
                        1,
                        0
                    ]
                }
            ],
            "guide": {},
            "guideHint": {
                "KPOGPNLFAAE": ""
            },
            "isRewind": true,
            "versionBegin": "",
            "versionEnd": ""
        },
        {
            "subId": 7331906,
            "mainId": 73319,
            "order": 7,
            "descTextMapHash": 163007724,
            "finishCond": [
                {
                    "type": "QUEST_CONTENT_COMPLETE_TALK",
                    "param": [
                        7331906,
                        0
                    ]
                }
            ],
            "guide": {
                "type": "QUEST_GUIDE_NPC",
                "param": [
                    "20968"
                ],
                "guideScene": 3,
                "guideStyle": "QUEST_GUIDE_STYLE_TARGET",
                "guideLayer": "QUEST_GUIDE_LAYER_SCENE"
            },
            "guideHint": {
                "KPOGPNLFAAE": ""
            },
            "isRewind": true,
            "versionBegin": "",
            "versionEnd": ""
        },
        {
            "subId": 7331907,
            "mainId": 73319,
            "order": 9,
            "descTextMapHash": 3150026404,
            "showType": "QUEST_HIDDEN",
            "finishCond": [
                {
                    "type": "QUEST_CONTENT_FINISH_PLOT",
                    "param": [
                        7331907,
                        0
                    ]
                }
            ],
            "guide": {
                "guideLayer": "QUEST_GUIDE_LAYER_SCENE"
            },
            "guideHint": {
                "KPOGPNLFAAE": ""
            },
            "finishExec": [
                {
                    "type": "QUEST_EXEC_REGISTER_DYNAMIC_GROUP",
                    "param": [
                        "3",
                        "133316095"
                    ]
                }
            ],
            "versionBegin": "",
            "versionEnd": ""
        },
        {
            "subId": 7331908,
            "mainId": 73319,
            "order": 10,
            "isMpBlock": true,
            "descTextMapHash": 2366947532,
            "banType": "BAN_GROUP_TRANSPORT_ONLY",
            "finishCond": [
                {
                    "type": "QUEST_CONTENT_LUA_NOTIFY",
                    "param": [
                        0,
                        0
                    ],
                    "count": 1
                }
            ],
            "failCond": [
                {
                    "type": "QUEST_CONTENT_LUA_NOTIFY",
                    "param": [
                        0,
                        0
                    ],
                    "count": 1
                },
                {
                    "type": "QUEST_CONTENT_ANY_MANUAL_TRANSPORT",
                    "param": [
                        0,
                        0
                    ]
                }
            ],
            "guide": {
                "type": "QUEST_GUIDE_GADGET",
                "param": [
                    "133316095",
                    "95007",
                    "427.5918:308.3995:6503.548"
                ],
                "guideScene": 3,
                "guideStyle": "QUEST_GUIDE_STYLE_TARGET",
                "guideLayer": "QUEST_GUIDE_LAYER_SCENE"
            },
            "showGuide": "QUEST_GUIDE_ITEM_DISABLE",
            "guideHint": {
                "KPOGPNLFAAE": ""
            },
            "failExec": [
                {
                    "type": "QUEST_EXEC_ROLLBACK_QUEST",
                    "param": [
                        "7331911"
                    ]
                },
                {
                    "type": "QUEST_EXEC_REFRESH_GROUP_SUITE",
                    "param": [
                        "3",
                        "133316095,1"
                    ]
                }
            ],
            "versionBegin": "",
            "versionEnd": ""
        },
        {
            "subId": 7331909,
            "mainId": 73319,
            "order": 11,
            "descTextMapHash": 3726592628,
            "finishCond": [
                {
                    "type": "QUEST_CONTENT_COMPLETE_TALK",
                    "param": [
                        7331909,
                        0
                    ]
                }
            ],
            "guide": {
                "type": "QUEST_GUIDE_NPC",
                "param": [
                    "20968"
                ],
                "guideScene": 3,
                "guideStyle": "QUEST_GUIDE_STYLE_TARGET",
                "guideLayer": "QUEST_GUIDE_LAYER_SCENE"
            },
            "guideHint": {
                "KPOGPNLFAAE": ""
            },
            "isRewind": true,
            "finishExec": [
                {
                    "type": "QUEST_EXEC_NOTIFY_GROUP_LUA",
                    "param": [
                        "3",
                        "133316095"
                    ]
                },
                {
                    "type": "QUEST_EXEC_UNREGISTER_DYNAMIC_GROUP",
                    "param": [
                        "133316095",
                        "0"
                    ]
                },
                {
                    "type": "QUEST_EXEC_REFRESH_GROUP_SUITE",
                    "param": [
                        "3",
                        "133316368,2"
                    ]
                }
            ],
            "versionBegin": "",
            "versionEnd": ""
        },
        {
            "subId": 7331910,
            "mainId": 73319,
            "order": 2,
            "descTextMapHash": 3846878604,
            "finishCond": [
                {
                    "type": "QUEST_CONTENT_COMPLETE_TALK",
                    "param": [
                        7331913,
                        0
                    ]
                }
            ],
            "guide": {
                "type": "QUEST_GUIDE_NPC",
                "param": [
                    "20968"
                ],
                "guideScene": 3,
                "guideStyle": "QUEST_GUIDE_STYLE_TARGET",
                "guideLayer": "QUEST_GUIDE_LAYER_SCENE"
            },
            "guideHint": {
                "KPOGPNLFAAE": ""
            },
            "isRewind": true,
            "versionBegin": "",
            "versionEnd": ""
        },
        {
            "subId": 7331911,
            "mainId": 73319,
            "order": 8,
            "descTextMapHash": 2011671788,
            "finishCond": [
                {
                    "type": "QUEST_CONTENT_COMPLETE_TALK",
                    "param": [
                        7331915,
                        0
                    ]
                }
            ],
            "guide": {
                "type": "QUEST_GUIDE_NPC",
                "param": [
                    "20968"
                ],
                "guideScene": 3,
                "guideStyle": "QUEST_GUIDE_STYLE_TARGET",
                "guideLayer": "QUEST_GUIDE_LAYER_SCENE"
            },
            "guideHint": {
                "KPOGPNLFAAE": ""
            },
            "isRewind": true,
            "versionBegin": "",
            "versionEnd": ""
        },
        {
            "subId": 7331912,
            "mainId": 73319,
            "order": 14,
            "descTextMapHash": 376287564,
            "finishCond": [
                {
                    "type": "QUEST_CONTENT_COMPLETE_TALK",
                    "param": [
                        7331919,
                        0
                    ]
                }
            ],
            "guide": {
                "type": "QUEST_GUIDE_NPC",
                "param": [
                    "20968"
                ],
                "guideScene": 3,
                "guideStyle": "QUEST_GUIDE_STYLE_TARGET",
                "guideLayer": "QUEST_GUIDE_LAYER_SCENE"
            },
            "guideHint": {
                "KPOGPNLFAAE": ""
            },
            "isRewind": true,
            "versionBegin": "",
            "versionEnd": ""
        },
        {
            "subId": 7331913,
            "mainId": 73319,
            "order": 15,
            "descTextMapHash": 1433895388,
            "showType": "QUEST_HIDDEN",
            "finishCond": [
                {
                    "type": "QUEST_CONTENT_FINISH_PLOT",
                    "param": [
                        7331913,
                        0
                    ]
                }
            ],
            "guide": {},
            "guideHint": {
                "KPOGPNLFAAE": ""
            },
            "finishExec": [
                {
                    "type": "QUEST_EXEC_REGISTER_DYNAMIC_GROUP",
                    "param": [
                        "3",
                        "133316229"
                    ]
                }
            ],
            "versionBegin": "",
            "versionEnd": ""
        },
        {
            "subId": 7331914,
            "mainId": 73319,
            "order": 16,
            "isMpBlock": true,
            "descTextMapHash": 3972570020,
            "banType": "BAN_GROUP_TRANSPORT_ONLY",
            "finishCond": [
                {
                    "type": "QUEST_CONTENT_LUA_NOTIFY",
                    "param": [
                        0,
                        0
                    ],
                    "count": 1
                }
            ],
            "failCond": [
                {
                    "type": "QUEST_CONTENT_LUA_NOTIFY",
                    "param": [
                        0,
                        0
                    ],
                    "count": 1
                },
                {
                    "type": "QUEST_CONTENT_ANY_MANUAL_TRANSPORT",
                    "param": [
                        0,
                        0
                    ]
                }
            ],
            "guide": {
                "type": "QUEST_GUIDE_GADGET",
                "param": [
                    "133316229",
                    "229002",
                    "397.4295:291.4909:6494.403"
                ],
                "guideScene": 3,
                "guideStyle": "QUEST_GUIDE_STYLE_TARGET",
                "guideLayer": "QUEST_GUIDE_LAYER_SCENE"
            },
            "showGuide": "QUEST_GUIDE_ITEM_DISABLE",
            "guideHint": {
                "KPOGPNLFAAE": ""
            },
            "failExec": [
                {
                    "type": "QUEST_EXEC_ROLLBACK_QUEST",
                    "param": [
                        "7331912"
                    ]
                },
                {
                    "type": "QUEST_EXEC_REFRESH_GROUP_SUITE",
                    "param": [
                        "3",
                        "133316229,1"
                    ]
                }
            ],
            "versionBegin": "",
            "versionEnd": ""
        },
        {
            "subId": 7331915,
            "mainId": 73319,
            "order": 17,
            "descTextMapHash": 885356660,
            "finishCond": [
                {
                    "type": "QUEST_CONTENT_COMPLETE_TALK",
                    "param": [
                        7331922,
                        0
                    ]
                }
            ],
            "guide": {
                "type": "QUEST_GUIDE_NPC",
                "param": [
                    "20968"
                ],
                "guideScene": 3,
                "guideStyle": "QUEST_GUIDE_STYLE_TARGET",
                "guideLayer": "QUEST_GUIDE_LAYER_SCENE"
            },
            "guideHint": {
                "KPOGPNLFAAE": ""
            },
            "isRewind": true,
            "finishExec": [
                {
                    "type": "QUEST_EXEC_NOTIFY_GROUP_LUA",
                    "param": [
                        "3",
                        "133316229"
                    ]
                },
                {
                    "type": "QUEST_EXEC_UNREGISTER_DYNAMIC_GROUP",
                    "param": [
                        "133316229",
                        "0"
                    ]
                },
                {
                    "type": "QUEST_EXEC_REFRESH_GROUP_SUITE",
                    "param": [
                        "3",
                        "133316369,2"
                    ]
                }
            ],
            "versionBegin": "",
            "versionEnd": ""
        },
        {
            "subId": 7331916,
            "mainId": 73319,
            "order": 20,
            "descTextMapHash": 1060905924,
            "finishCond": [
                {
                    "type": "QUEST_CONTENT_COMPLETE_TALK",
                    "param": [
                        7331924,
                        0
                    ]
                }
            ],
            "guide": {
                "type": "QUEST_GUIDE_NPC",
                "param": [
                    "20968"
                ],
                "guideScene": 3,
                "guideStyle": "QUEST_GUIDE_STYLE_TARGET",
                "guideLayer": "QUEST_GUIDE_LAYER_SCENE"
            },
            "guideHint": {
                "KPOGPNLFAAE": ""
            },
            "isRewind": true,
            "versionBegin": "",
            "versionEnd": ""
        },
        {
            "subId": 7331917,
            "mainId": 73319,
            "order": 21,
            "descTextMapHash": 2401896916,
            "showType": "QUEST_HIDDEN",
            "finishCond": [
                {
                    "type": "QUEST_CONTENT_FINISH_PLOT",
                    "param": [
                        7331917,
                        0
                    ]
                }
            ],
            "guide": {},
            "guideHint": {
                "KPOGPNLFAAE": ""
            },
            "finishExec": [
                {
                    "type": "QUEST_EXEC_REGISTER_DYNAMIC_GROUP",
                    "param": [
                        "3",
                        "133316230"
                    ]
                }
            ],
            "versionBegin": "",
            "versionEnd": ""
        },
        {
            "subId": 7331918,
            "mainId": 73319,
            "order": 22,
            "isMpBlock": true,
            "descTextMapHash": 1152506044,
            "banType": "BAN_GROUP_TRANSPORT_ONLY",
            "finishCond": [
                {
                    "type": "QUEST_CONTENT_LUA_NOTIFY",
                    "param": [
                        0,
                        0
                    ],
                    "count": 1
                }
            ],
            "failCond": [
                {
                    "type": "QUEST_CONTENT_LUA_NOTIFY",
                    "param": [
                        0,
                        0
                    ],
                    "count": 1
                },
                {
                    "type": "QUEST_CONTENT_ANY_MANUAL_TRANSPORT",
                    "param": [
                        0,
                        0
                    ]
                }
            ],
            "guide": {
                "type": "QUEST_GUIDE_GADGET",
                "param": [
                    "133316230",
                    "230002",
                    "510.5247:269.6425:6347.663"
                ],
                "guideScene": 3,
                "guideStyle": "QUEST_GUIDE_STYLE_TARGET",
                "guideLayer": "QUEST_GUIDE_LAYER_SCENE"
            },
            "showGuide": "QUEST_GUIDE_ITEM_DISABLE",
            "guideHint": {
                "KPOGPNLFAAE": ""
            },
            "failExec": [
                {
                    "type": "QUEST_EXEC_ROLLBACK_QUEST",
                    "param": [
                        "7331916"
                    ]
                },
                {
                    "type": "QUEST_EXEC_REFRESH_GROUP_SUITE",
                    "param": [
                        "3",
                        "133316230,1"
                    ]
                }
            ],
            "versionBegin": "",
            "versionEnd": ""
        },
        {
            "subId": 7331919,
            "mainId": 73319,
            "order": 23,
            "descTextMapHash": 326745004,
            "finishCond": [
                {
                    "type": "QUEST_CONTENT_COMPLETE_TALK",
                    "param": [
                        7331927,
                        0
                    ]
                }
            ],
            "guide": {
                "type": "QUEST_GUIDE_NPC",
                "param": [
                    "20968"
                ],
                "guideScene": 3,
                "guideStyle": "QUEST_GUIDE_STYLE_TARGET",
                "guideLayer": "QUEST_GUIDE_LAYER_SCENE"
            },
            "guideHint": {
                "KPOGPNLFAAE": ""
            },
            "finishParent": true,
            "isRewind": true,
            "finishExec": [
                {
                    "type": "QUEST_EXEC_NOTIFY_GROUP_LUA",
                    "param": [
                        "3",
                        "133316230"
                    ]
                },
                {
                    "type": "QUEST_EXEC_UNREGISTER_DYNAMIC_GROUP",
                    "param": [
                        "133316230",
                        "0"
                    ]
                },
                {
                    "type": "QUEST_EXEC_REFRESH_GROUP_SUITE",
                    "param": [
                        "3",
                        "133316370,2"
                    ]
                },
                {
                    "type": "QUEST_EXEC_SET_QUEST_GLOBAL_VAR",
                    "param": [
                        "7331901",
                        "1"
                    ]
                }
            ],
            "versionBegin": "",
            "versionEnd": ""
        },
        {
            "subId": 7331921,
            "mainId": 73319,
            "order": 12,
            "descTextMapHash": 167505484,
            "finishCond": [
                {
                    "type": "QUEST_CONTENT_GAME_TIME_TICK",
                    "param": [
                        1,
                        0
                    ]
                }
            ],
            "guide": {},
            "guideHint": {
                "KPOGPNLFAAE": ""
            },
            "isRewind": true,
            "versionBegin": "",
            "versionEnd": ""
        },
        {
            "subId": 7331922,
            "mainId": 73319,
            "order": 18,
            "descTextMapHash": 1243531204,
            "finishCond": [
                {
                    "type": "QUEST_CONTENT_GAME_TIME_TICK",
                    "param": [
                        1,
                        0
                    ]
                }
            ],
            "guide": {},
            "guideHint": {
                "KPOGPNLFAAE": ""
            },
            "isRewind": true,
            "versionBegin": "",
            "versionEnd": ""
        },
        {
            "subId": 7331923,
            "mainId": 73319,
            "order": 13,
            "descTextMapHash": 4149344364,
            "finishCond": [
                {
                    "type": "QUEST_CONTENT_COMPLETE_TALK",
                    "param": [
                        7331928,
                        0
                    ]
                }
            ],
            "guide": {
                "type": "QUEST_GUIDE_NPC",
                "param": [
                    "20968"
                ],
                "guideScene": 3,
                "guideStyle": "QUEST_GUIDE_STYLE_TARGET",
                "guideLayer": "QUEST_GUIDE_LAYER_SCENE"
            },
            "guideHint": {
                "KPOGPNLFAAE": ""
            },
            "isRewind": true,
            "versionBegin": "",
            "versionEnd": ""
        },
        {
            "subId": 7331924,
            "mainId": 73319,
            "order": 19,
            "descTextMapHash": 1204170044,
            "finishCond": [
                {
                    "type": "QUEST_CONTENT_COMPLETE_TALK",
                    "param": [
                        7331929,
                        0
                    ]
                }
            ],
            "guide": {
                "type": "QUEST_GUIDE_NPC",
                "param": [
                    "20968"
                ],
                "guideScene": 3,
                "guideStyle": "QUEST_GUIDE_STYLE_TARGET",
                "guideLayer": "QUEST_GUIDE_LAYER_SCENE"
            },
            "guideHint": {
                "KPOGPNLFAAE": ""
            },
            "isRewind": true,
            "versionBegin": "",
            "versionEnd": ""
        }
    ],
    "talks": [
        {
            "id": 7331901,
            "beginWay": "TALK_BEGIN_MANUAL",
            "activeMode": "PLAY_MODE_HOST",
            "beginCond": [
                {
                    "type": "QUEST_COND_STATE_EQUAL",
                    "param": [
                        "7331901",
                        "2"
                    ]
                }
            ],
            "priority": 5,
            "initDialog": 733190101,
            "npcId": [
                20968,
                20883,
                1005
            ],
            "performCfg": "QuestDialogue/WQ/Sumeru_73319/Q7331901",
            "heroTalk": "TALK_HERO_MAIN",
            "questId": 73319,
            "assetIndex": 13607169363064108266,
            "prePerformCfg": ""
        },
        {
            "id": 7331904,
            "beginWay": "TALK_BEGIN_MANUAL",
            "activeMode": "PLAY_MODE_HOST",
            "beginCond": [
                {
                    "type": "QUEST_COND_STATE_EQUAL",
                    "param": [
                        "7331904",
                        "2"
                    ]
                }
            ],
            "priority": 5,
            "initDialog": 733190401,
            "npcId": [
                20968,
                1005,
                20883
            ],
            "performCfg": "QuestDialogue/WQ/Sumeru_73319/Q7331904",
            "heroTalk": "TALK_HERO_MAIN",
            "questId": 73319,
            "assetIndex": 6883460046857347802,
            "prePerformCfg": ""
        },
        {
            "id": 7331906,
            "beginWay": "TALK_BEGIN_MANUAL",
            "activeMode": "PLAY_MODE_HOST",
            "beginCond": [
                {
                    "type": "QUEST_COND_STATE_EQUAL",
                    "param": [
                        "7331906",
                        "2"
                    ]
                }
            ],
            "priority": 5,
            "initDialog": 733190601,
            "npcId": [
                20968,
                1005,
                20883
            ],
            "performCfg": "QuestDialogue/WQ/Sumeru_73319/Q7331906",
            "heroTalk": "TALK_HERO_MAIN",
            "questId": 73319,
            "assetIndex": 2845399913874362959,
            "prePerformCfg": ""
        },
        {
            "id": 7331909,
            "beginWay": "TALK_BEGIN_MANUAL",
            "activeMode": "PLAY_MODE_HOST",
            "beginCond": [
                {
                    "type": "QUEST_COND_STATE_EQUAL",
                    "param": [
                        "7331909",
                        "2"
                    ]
                }
            ],
            "priority": 5,
            "initDialog": 733190901,
            "npcId": [
                20968,
                1005,
                20883
            ],
            "performCfg": "QuestDialogue/WQ/Sumeru_73319/Q7331909",
            "heroTalk": "TALK_HERO_MAIN",
            "questId": 73319,
            "assetIndex": 12925888865779325201,
            "prePerformCfg": ""
        },
        {
            "id": 7331910,
            "beginWay": "TALK_BEGIN_MANUAL",
            "activeMode": "PLAY_MODE_HOST",
            "beginCondComb": "LOGIC_OR",
            "beginCond": [
                {
                    "type": "QUEST_COND_STATE_EQUAL",
                    "param": [
                        "7331903",
                        "2"
                    ]
                },
                {
                    "type": "QUEST_COND_STATE_EQUAL",
                    "param": [
                        "7331908",
                        "2"
                    ]
                },
                {
                    "type": "QUEST_COND_STATE_EQUAL",
                    "param": [
                        "7331914",
                        "2"
                    ]
                },
                {
                    "type": "QUEST_COND_STATE_EQUAL",
                    "param": [
                        "7331918",
                        "2"
                    ]
                }
            ],
            "initDialog": 733191001,
            "npcId": [
                20968
            ],
            "performCfg": "",
            "questId": 73319,
            "assetIndex": 8955614511206843189,
            "prePerformCfg": ""
        },
        {
            "id": 7331912,
            "beginWay": "TALK_BEGIN_MANUAL",
            "activeMode": "PLAY_MODE_HOST",
            "beginCond": [
                {
                    "type": "QUEST_COND_STATE_EQUAL",
                    "param": [
                        "7331910",
                        "2"
                    ]
                }
            ],
            "priority": 5,
            "nextTalks": [
                7331913,
                7331914
            ],
            "initDialog": 733191201,
            "npcId": [
                20968,
                1005,
                20883
            ],
            "performCfg": "",
            "heroTalk": "TALK_HERO_MAIN",
            "questId": 73319,
            "assetIndex": 16564579627961081366,
            "prePerformCfg": ""
        },
        {
            "id": 7331913,
            "beginWay": "TALK_BEGIN_MANUAL",
            "activeMode": "PLAY_MODE_HOST",
            "beginCond": [
                {
                    "type": "QUEST_COND_STATE_EQUAL",
                    "param": [
                        "7331910",
                        "2"
                    ]
                }
            ],
            "priority": 1,
            "initDialog": 733191301,
            "npcId": [
                20968,
                1005,
                20883
            ],
            "performCfg": "QuestDialogue/WQ/Sumeru_73319/Q7331913",
            "heroTalk": "TALK_HERO_MAIN",
            "questId": 73319,
            "assetIndex": 2158741650168571809,
            "prePerformCfg": ""
        },
        {
            "id": 7331914,
            "beginWay": "TALK_BEGIN_MANUAL",
            "activeMode": "PLAY_MODE_HOST",
            "beginCond": [
                {
                    "type": "QUEST_COND_STATE_EQUAL",
                    "param": [
                        "7331910",
                        "2"
                    ]
                }
            ],
            "priority": 1,
            "initDialog": 733191401,
            "npcId": [
                20968,
                1005,
                20883
            ],
            "performCfg": "QuestDialogue/WQ/Sumeru_73319/Q7331914",
            "heroTalk": "TALK_HERO_MAIN",
            "questId": 73319,
            "assetIndex": 14435082800279775763,
            "prePerformCfg": ""
        },
        {
            "id": 7331915,
            "beginWay": "TALK_BEGIN_MANUAL",
            "activeMode": "PLAY_MODE_HOST",
            "beginCond": [
                {
                    "type": "QUEST_COND_STATE_EQUAL",
                    "param": [
                        "7331911",
                        "2"
                    ]
                }
            ],
            "priority": 1,
            "initDialog": 733191501,
            "npcId": [
                20968,
                1005,
                20883
            ],
            "performCfg": "QuestDialogue/WQ/Sumeru_73319/Q7331915",
            "heroTalk": "TALK_HERO_MAIN",
            "questId": 73319,
            "assetIndex": 12248678428262863413,
            "prePerformCfg": ""
        },
        {
            "id": 7331916,
            "beginWay": "TALK_BEGIN_MANUAL",
            "activeMode": "PLAY_MODE_HOST",
            "beginCond": [
                {
                    "type": "QUEST_COND_STATE_EQUAL",
                    "param": [
                        "7331911",
                        "2"
                    ]
                }
            ],
            "priority": 1,
            "initDialog": 733191601,
            "npcId": [
                20968,
                1005,
                20883
            ],
            "performCfg": "QuestDialogue/WQ/Sumeru_73319/Q7331916",
            "heroTalk": "TALK_HERO_MAIN",
            "questId": 73319,
            "assetIndex": 15662779830857529386,
            "prePerformCfg": ""
        },
        {
            "id": 7331917,
            "beginWay": "TALK_BEGIN_MANUAL",
            "activeMode": "PLAY_MODE_HOST",
            "beginCond": [
                {
                    "type": "QUEST_COND_STATE_EQUAL",
                    "param": [
                        "7331911",
                        "2"
                    ]
                }
            ],
            "priority": 5,
            "nextTalks": [
                7331915,
                7331916
            ],
            "initDialog": 733191701,
            "npcId": [
                20968,
                1005,
                20883
            ],
            "performCfg": "",
            "heroTalk": "TALK_HERO_MAIN",
            "questId": 73319,
            "assetIndex": 14956971492755310787,
            "prePerformCfg": ""
        },
        {
            "id": 7331918,
            "beginWay": "TALK_BEGIN_MANUAL",
            "activeMode": "PLAY_MODE_HOST",
            "beginCond": [
                {
                    "type": "QUEST_COND_STATE_EQUAL",
                    "param": [
                        "7331912",
                        "2"
                    ]
                }
            ],
            "priority": 5,
            "nextTalks": [
                7331919,
                7331920
            ],
            "initDialog": 733191801,
            "npcId": [
                20968,
                1005
            ],
            "performCfg": "",
            "heroTalk": "TALK_HERO_MAIN",
            "questId": 73319,
            "assetIndex": 8580716596048544523,
            "prePerformCfg": ""
        },
        {
            "id": 7331919,
            "beginWay": "TALK_BEGIN_MANUAL",
            "activeMode": "PLAY_MODE_HOST",
            "beginCond": [
                {
                    "type": "QUEST_COND_STATE_EQUAL",
                    "param": [
                        "7331912",
                        "2"
                    ]
                }
            ],
            "priority": 1,
            "initDialog": 733191901,
            "npcId": [
                20968,
                1005
            ],
            "performCfg": "QuestDialogue/WQ/Sumeru_73319/Q7331919",
            "heroTalk": "TALK_HERO_MAIN",
            "questId": 73319,
            "assetIndex": 8082679071139793516,
            "prePerformCfg": ""
        },
        {
            "id": 7331920,
            "beginWay": "TALK_BEGIN_MANUAL",
            "activeMode": "PLAY_MODE_HOST",
            "beginCond": [
                {
                    "type": "QUEST_COND_STATE_EQUAL",
                    "param": [
                        "7331912",
                        "2"
                    ]
                }
            ],
            "priority": 1,
            "initDialog": 733192001,
            "npcId": [
                20968,
                1005
            ],
            "performCfg": "QuestDialogue/WQ/Sumeru_73319/Q7331920",
            "heroTalk": "TALK_HERO_MAIN",
            "questId": 73319,
            "assetIndex": 67238756277433711,
            "prePerformCfg": ""
        },
        {
            "id": 7331922,
            "beginWay": "TALK_BEGIN_MANUAL",
            "activeMode": "PLAY_MODE_HOST",
            "beginCond": [
                {
                    "type": "QUEST_COND_STATE_EQUAL",
                    "param": [
                        "7331915",
                        "2"
                    ]
                }
            ],
            "priority": 5,
            "initDialog": 733192201,
            "npcId": [
                20968,
                1005,
                20883
            ],
            "performCfg": "QuestDialogue/WQ/Sumeru_73319/Q7331922",
            "heroTalk": "TALK_HERO_MAIN",
            "questId": 73319,
            "assetIndex": 3032732188778758752,
            "prePerformCfg": ""
        },
        {
            "id": 7331923,
            "beginWay": "TALK_BEGIN_MANUAL",
            "activeMode": "PLAY_MODE_HOST",
            "beginCond": [
                {
                    "type": "QUEST_COND_STATE_EQUAL",
                    "param": [
                        "7331916",
                        "2"
                    ]
                }
            ],
            "priority": 5,
            "nextTalks": [
                7331924,
                7331926
            ],
            "initDialog": 733192301,
            "npcId": [
                20968,
                1005
            ],
            "performCfg": "",
            "heroTalk": "TALK_HERO_MAIN",
            "questId": 73319,
            "assetIndex": 4794513351138810263,
            "prePerformCfg": ""
        },
        {
            "id": 7331924,
            "beginWay": "TALK_BEGIN_MANUAL",
            "activeMode": "PLAY_MODE_HOST",
            "beginCond": [
                {
                    "type": "QUEST_COND_STATE_EQUAL",
                    "param": [
                        "7331916",
                        "2"
                    ]
                }
            ],
            "priority": 1,
            "initDialog": 733192401,
            "npcId": [
                20968,
                1005
            ],
            "performCfg": "QuestDialogue/WQ/Sumeru_73319/Q7331924",
            "heroTalk": "TALK_HERO_MAIN",
            "questId": 73319,
            "assetIndex": 8801439222679153916,
            "prePerformCfg": ""
        },
        {
            "id": 7331926,
            "beginWay": "TALK_BEGIN_MANUAL",
            "activeMode": "PLAY_MODE_HOST",
            "beginCond": [
                {
                    "type": "QUEST_COND_STATE_EQUAL",
                    "param": [
                        "7331916",
                        "2"
                    ]
                }
            ],
            "priority": 1,
            "initDialog": 733192601,
            "npcId": [
                20968,
                1005
            ],
            "performCfg": "QuestDialogue/WQ/Sumeru_73319/Q7331926",
            "heroTalk": "TALK_HERO_MAIN",
            "questId": 73319,
            "assetIndex": 15894074358761017703,
            "prePerformCfg": ""
        },
        {
            "id": 7331927,
            "beginWay": "TALK_BEGIN_MANUAL",
            "activeMode": "PLAY_MODE_HOST",
            "beginCond": [
                {
                    "type": "QUEST_COND_STATE_EQUAL",
                    "param": [
                        "7331919",
                        "2"
                    ]
                }
            ],
            "priority": 5,
            "initDialog": 733192701,
            "npcId": [
                20968,
                20883,
                1005
            ],
            "performCfg": "QuestDialogue/WQ/Sumeru_73319/Q7331927",
            "heroTalk": "TALK_HERO_MAIN",
            "questId": 73319,
            "assetIndex": 17405526122617053619,
            "prePerformCfg": ""
        },
        {
            "id": 7331928,
            "beginWay": "TALK_BEGIN_MANUAL",
            "activeMode": "PLAY_MODE_HOST",
            "beginCond": [
                {
                    "type": "QUEST_COND_STATE_EQUAL",
                    "param": [
                        "7331923",
                        "2"
                    ]
                }
            ],
            "initDialog": 733192801,
            "npcId": [
                20968,
                1005,
                20883
            ],
            "performCfg": "QuestDialogue/WQ/Sumeru_73319/Q7331928",
            "questId": 73319,
            "assetIndex": 4289263168981754310,
            "prePerformCfg": ""
        },
        {
            "id": 7331929,
            "beginWay": "TALK_BEGIN_MANUAL",
            "activeMode": "PLAY_MODE_HOST",
            "beginCond": [
                {
                    "type": "QUEST_COND_STATE_EQUAL",
                    "param": [
                        "7331924",
                        "2"
                    ]
                }
            ],
            "initDialog": 733192901,
            "npcId": [
                20968,
                1005
            ],
            "performCfg": "QuestDialogue/WQ/Sumeru_73319/Q7331929",
            "questId": 73319,
            "assetIndex": 2113565170323756261,
            "prePerformCfg": ""
        }
    ],
    "dialogList": [
        {
            "id": 733190610,
            "nextDialogs": [
                733190611
            ],
            "talkRole": {
                "type": "TALK_ROLE_NPC",
                "id": "20968"
            },
            "talkContentTextMapHash": 4267511066,
            "talkAssetPath": "",
            "talkAssetPathAlter": "",
            "talkAudioName": "",
            "actionBefore": "",
            "actionWhile": "",
            "actionAfter": "",
            "optionIcon": ""
        },
        {
            "id": 733190611,
            "nextDialogs": [
                733190612
            ],
            "talkRole": {
                "type": "TALK_ROLE_NPC",
                "id": "1005"
            },
            "talkContentTextMapHash": 3187162394,
            "talkAssetPath": "",
            "talkAssetPathAlter": "",
            "talkAudioName": "",
            "actionBefore": "",
            "actionWhile": "",
            "actionAfter": "",
            "optionIcon": ""
        },
        {
            "id": 733190612,
            "nextDialogs": [
                733190613,
                733190614
            ],
            "talkRole": {
                "type": "TALK_ROLE_NPC",
                "id": "20883"
            },
            "talkContentTextMapHash": 3759605538,
            "talkAssetPath": "",
            "talkAssetPathAlter": "",
            "talkAudioName": "",
            "actionBefore": "",
            "actionWhile": "",
            "actionAfter": "",
            "optionIcon": ""
        },
        {
            "id": 733190613,
            "nextDialogs": [
                733190615
            ],
            "talkShowType": "TALK_SHOW_FORCE_SELECT",
            "talkRole": {
                "type": "TALK_ROLE_PLAYER",
                "id": ""
            },
            "talkContentTextMapHash": 4103419866,
            "talkAssetPath": "",
            "talkAssetPathAlter": "",
            "talkAudioName": "",
            "actionBefore": "",
            "actionWhile": "",
            "actionAfter": "",
            "optionIcon": ""
        },
        {
            "id": 733190614,
            "nextDialogs": [
                733190615
            ],
            "talkShowType": "TALK_SHOW_FORCE_SELECT",
            "talkRole": {
                "type": "TALK_ROLE_PLAYER",
                "id": ""
            },
            "talkContentTextMapHash": 3376210874,
            "talkAssetPath": "",
            "talkAssetPathAlter": "",
            "talkAudioName": "",
            "actionBefore": "",
            "actionWhile": "",
            "actionAfter": "",
            "optionIcon": ""
        },
        {
            "id": 733191901,
            "nextDialogs": [
                733191902
            ],
            "talkShowType": "TALK_SHOW_FORCE_SELECT",
            "talkRole": {
                "type": "TALK_ROLE_PLAYER",
                "id": ""
            },
            "talkContentTextMapHash": 106438882,
            "talkAssetPath": "",
            "talkAssetPathAlter": "",
            "talkAudioName": "",
            "actionBefore": "",
            "actionWhile": "",
            "actionAfter": "",
            "optionIcon": ""
        },
        {
            "id": 733192401,
            "nextDialogs": [
                733192402
            ],
            "talkShowType": "TALK_SHOW_FORCE_SELECT",
            "talkRole": {
                "type": "TALK_ROLE_PLAYER",
                "id": ""
            },
            "talkContentTextMapHash": 472308130,
            "talkAssetPath": "",
            "talkAssetPathAlter": "",
            "talkAudioName": "",
            "actionBefore": "",
            "actionWhile": "",
            "actionAfter": "",
            "optionIcon": ""
        },
        {
            "id": 733192955,
            "talkRole": {
                "type": "TALK_ROLE_BLACK_SCREEN",
                "id": ""
            },
            "talkContentTextMapHash": 237902986,
            "talkAssetPath": "",
            "talkAssetPathAlter": "",
            "talkAudioName": "",
            "actionBefore": "",
            "actionWhile": "",
            "actionAfter": "",
            "optionIcon": ""
        },
        {
            "id": 733199901,
            "talkRole": {
                "type": "TALK_ROLE_BLACK_SCREEN",
                "id": ""
            },
            "talkContentTextMapHash": 1856795674,
            "talkAssetPath": "",
            "talkAssetPathAlter": "",
            "talkAudioName": "",
            "actionBefore": "",
            "actionWhile": "",
            "actionAfter": "",
            "optionIcon": ""
        },
        {
            "id": 733199902,
            "talkRole": {
                "type": "TALK_ROLE_BLACK_SCREEN",
                "id": ""
            },
            "talkContentTextMapHash": 468927370,
            "talkAssetPath": "",
            "talkAssetPathAlter": "",
            "talkAudioName": "",
            "actionBefore": "",
            "actionWhile": "",
            "actionAfter": "",
            "optionIcon": ""
        }
    ]
}