{
    "id": 73687,
    "type": "WQ",
    "mainQuestTag": "MAINQUEST_TAG_GUIDE",
    "titleTextMapHash": 1344538527,
    "descTextMapHash": 1957650438,
    "luaPath": "Actor/Quest/WQ73687",
    "rewardIdList": [
        173687
    ],
    "showRedPoint": true,
    "activityId": 5117,
    "subQuests": [
        {
            "subId": 7368701,
            "mainId": 73687,
            "order": 2,
            "descTextMapHash": 861084332,
            "finishCond": [
                {
                    "type": "QUEST_CONTENT_COMPLETE_TALK",
                    "param": [
                        7368701,
                        0
                    ]
                }
            ],
            "guide": {
                "type": "QUEST_GUIDE_LOCATION",
                "autoGuide": "QUEST_GUIDE_AUTO_ENABLE",
                "param": [
                    "Q7368701BillboardPos",
                    "15"
                ],
                "guideScene": 3,
                "guideStyle": "QUEST_GUIDE_STYLE_TARGET",
                "guideLayer": "QUEST_GUIDE_LAYER_SCENE"
            },
            "guideHint": {
                "KPOGPNLFAAE": ""
            },
            "isRewind": true,
            "versionBegin": "",
            "versionEnd": ""
        },
        {
            "subId": 7368702,
            "mainId": 73687,
            "order": 3,
            "descTextMapHash": 4195211252,
            "stepDescTextMapHash": 1117444501,
            "KFCPGKEOMNH": [
                1911101
            ],
            "finishCond": [
                {
                    "type": "QUEST_CONTENT_COMPLETE_TALK",
                    "param": [
                        7368702,
                        0
                    ]
                }
            ],
            "guide": {
                "type": "QUEST_GUIDE_NPC",
                "autoGuide": "QUEST_GUIDE_AUTO_ENABLE",
                "param": [
                    "1013"
                ],
                "guideScene": 3,
                "guideStyle": "QUEST_GUIDE_STYLE_TARGET",
                "guideLayer": "QUEST_GUIDE_LAYER_SCENE"
            },
            "guideHint": {
                "KPOGPNLFAAE": ""
            },
            "finishParent": true,
            "isRewind": true,
            "finishExec": [
                {
                    "type": "QUEST_EXEC_UNREGISTER_DYNAMIC_GROUP",
                    "param": [
                        "133221099"
                    ]
                }
            ],
            "versionBegin": "",
            "versionEnd": ""
        },
        {
            "subId": 7368703,
            "mainId": 73687,
            "order": 1,
            "descTextMapHash": 2523495140,
            "finishCond": [
                {
                    "type": "QUEST_CONTENT_LEAVE_SCENE",
                    "param": [
                        47302,
                        0
                    ]
                }
            ],
            "guide": {
                "type": "QUEST_GUIDE_LOCATION",
                "autoGuide": "QUEST_GUIDE_AUTO_ENABLE",
                "param": [
                    "Q7368701BillboardPos"
                ],
                "guideScene": 3,
                "guideStyle": "QUEST_GUIDE_STYLE_POINT",
                "guideLayer": "QUEST_GUIDE_LAYER_SCENE"
            },
            "guideHint": {
                "KPOGPNLFAAE": ""
            },
            "isRewind": true,
            "versionBegin": "",
            "versionEnd": ""
        }
    ],
    "talks": [
        {
            "id": 7368701,
            "beginWay": "TALK_BEGIN_MANUAL",
            "beginCond": [
                {
                    "type": "QUEST_COND_STATE_EQUAL",
                    "param": [
                        "7368701",
                        "2"
                    ]
                }
            ],
            "priority": 5,
            "initDialog": 736870101,
            "npcId": [
                13073,
                13074
            ],
            "performCfg": "QuestDialogue/WQ/Pindao_73687/Q7368701",
            "heroTalk": "TALK_HERO_MAIN",
            "questId": 73687,
            "assetIndex": 3065695251759066602,
            "prePerformCfg": ""
        },
        {
            "id": 7368702,
            "beginWay": "TALK_BEGIN_MANUAL",
            "beginCond": [
                {
                    "type": "QUEST_COND_STATE_EQUAL",
                    "param": [
                        "7368702",
                        "2"
                    ]
                }
            ],
            "priority": 5,
            "initDialog": 736870201,
            "npcId": [
                13082,
                30139,
                1013
            ],
            "performCfg": "QuestDialogue/WQ/Pindao_73687/Q7368702",
            "heroTalk": "TALK_HERO_MAIN",
            "questId": 73687,
            "assetIndex": 7969482374333227150,
            "prePerformCfg": ""
        },
        {
            "id": 7368703,
            "beginWay": "TALK_BEGIN_MANUAL",
            "beginCond": [
                {
                    "type": "QUEST_COND_STATE_EQUAL",
                    "param": [
                        "7368702",
                        "2"
                    ]
                }
            ],
            "priority": 5,
            "initDialog": 736870301,
            "npcId": [
                13141
            ],
            "performCfg": "QuestDialogue/WQ/Pindao_73687/Q7368703",
            "heroTalk": "TALK_HERO_MAIN",
            "questId": 73687,
            "assetIndex": 12779131935663975518,
            "prePerformCfg": ""
        }
    ],
    "freeStyleDic": {
        "1013": [
            1030
        ],
        "13082": [
            1250
        ],
        "30139": [
            1240
        ]
    }
}