{
    "id": 73928,
    "type": "WQ",
    "titleTextMapHash": 2268883239,
    "descTextMapHash": 3578381606,
    "luaPath": "",
    "rewardIdList": [
        554010
    ],
    "showType": "QUEST_HIDDEN",
    "subQuests": [
        {
            "subId": 7392801,
            "mainId": 73928,
            "order": 1,
            "showType": "QUEST_HIDDEN",
            "finishCond": [
                {
                    "type": "QUEST_CONTENT_COMPLETE_TALK",
                    "param": [
                        7392801,
                        0
                    ]
                }
            ],
            "guide": {},
            "guideHint": {
                "KPOGPNLFAAE": ""
            },
            "finishParent": true,
            "versionBegin": "",
            "versionEnd": ""
        }
    ]
}