{
    "id": 73937,
    "type": "WQ",
    "titleTextMapHash": 1099093471,
    "descTextMapHash": 2963160094,
    "luaPath": "",
    "rewardIdList": [
        554019
    ],
    "showType": "QUEST_HIDDEN",
    "subQuests": [
        {
            "subId": 7393701,
            "mainId": 73937,
            "order": 1,
            "showType": "QUEST_HIDDEN",
            "finishCond": [
                {
                    "type": "QUEST_CONTENT_COMPLETE_TALK",
                    "param": [
                        7393701,
                        0
                    ]
                }
            ],
            "guide": {},
            "guideHint": {
                "KPOGPNLFAAE": ""
            },
            "finishParent": true,
            "versionBegin": "",
            "versionEnd": ""
        }
    ]
}