{
    "id": 73959,
    "type": "WQ",
    "titleTextMapHash": 3879020847,
    "descTextMapHash": 3145449382,
    "luaPath": "",
    "rewardIdList": [
        554060
    ],
    "showType": "QUEST_HIDDEN",
    "subQuests": [
        {
            "subId": 7395901,
            "mainId": 73959,
            "order": 1,
            "showType": "QUEST_HIDDEN",
            "finishCond": [
                {
                    "type": "QUEST_CONTENT_COMPLETE_TALK",
                    "param": [
                        7395901,
                        0
                    ]
                }
            ],
            "guide": {},
            "guideHint": {
                "KPOGPNLFAAE": ""
            },
            "finishParent": true,
            "versionBegin": "",
            "versionEnd": ""
        }
    ]
}