{
    "id": 74006,
    "series": 74005,
    "type": "WQ",
    "mainQuestTag": "MAINQUEST_TAG_RANK_ZERO_WQ",
    "activeMode": "PLAY_MODE_ALL",
    "titleTextMapHash": 3627124471,
    "descTextMapHash": 4026343398,
    "luaPath": "Actor/Quest/WQ74006",
    "suggestTrackMainQuestList": [
        74007
    ],
    "rewardIdList": [
        174006
    ],
    "chapterId": 10150,
    "subQuests": [
        {
            "subId": 7400601,
            "mainId": 74006,
            "order": 2,
            "subIdSet": 7400601,
            "descTextMapHash": 3992297820,
            "finishCond": [
                {
                    "type": "QUEST_CONTENT_OBTAIN_ITEM",
                    "param": [
                        120337,
                        0
                    ],
                    "count": 1
                },
                {
                    "type": "QUEST_CONTENT_OBTAIN_ITEM",
                    "param": [
                        120337,
                        0
                    ],
                    "count": 2
                },
                {
                    "type": "QUEST_CONTENT_OBTAIN_ITEM",
                    "param": [
                        120337,
                        0
                    ],
                    "count": 3
                },
                {
                    "type": "QUEST_CONTENT_OBTAIN_ITEM",
                    "param": [
                        120337,
                        0
                    ],
                    "count": 4
                }
            ],
            "guide": {
                "autoGuide": "QUEST_GUIDE_AUTO_ENABLE",
                "param": [
                    "0"
                ],
                "guideScene": 3,
                "guideStyle": "QUEST_GUIDE_STYLE_POINT",
                "guideLayer": "QUEST_GUIDE_LAYER_SCENE"
            },
            "showGuide": "QUEST_GUIDE_ITEM_DISABLE",
            "guideHint": {
                "KPOGPNLFAAE": ""
            },
            "isRewind": true,
            "versionBegin": "",
            "versionEnd": ""
        },
        {
            "subId": 7400602,
            "mainId": 74006,
            "order": 3,
            "subIdSet": 7400601,
            "descTextMapHash": 3211678308,
            "finishCond": [
                {
                    "type": "QUEST_CONTENT_OBTAIN_ITEM",
                    "param": [
                        120337,
                        0
                    ],
                    "count": 2
                },
                {
                    "type": "QUEST_CONTENT_OBTAIN_ITEM",
                    "param": [
                        120337,
                        0
                    ],
                    "count": 3
                },
                {
                    "type": "QUEST_CONTENT_OBTAIN_ITEM",
                    "param": [
                        120337,
                        0
                    ],
                    "count": 4
                }
            ],
            "guide": {
                "autoGuide": "QUEST_GUIDE_AUTO_ENABLE",
                "param": [
                    "0"
                ],
                "guideScene": 3,
                "guideStyle": "QUEST_GUIDE_STYLE_POINT",
                "guideLayer": "QUEST_GUIDE_LAYER_SCENE"
            },
            "showGuide": "QUEST_GUIDE_ITEM_DISABLE",
            "guideHint": {
                "KPOGPNLFAAE": ""
            },
            "isRewind": true,
            "versionBegin": "",
            "versionEnd": ""
        },
        {
            "subId": 7400603,
            "mainId": 74006,
            "order": 4,
            "subIdSet": 7400601,
            "descTextMapHash": 1172523292,
            "finishCond": [
                {
                    "type": "QUEST_CONTENT_OBTAIN_ITEM",
                    "param": [
                        120337,
                        0
                    ],
                    "count": 3
                },
                {
                    "type": "QUEST_CONTENT_OBTAIN_ITEM",
                    "param": [
                        120337,
                        0
                    ],
                    "count": 4
                }
            ],
            "guide": {
                "autoGuide": "QUEST_GUIDE_AUTO_ENABLE",
                "param": [
                    "0"
                ],
                "guideScene": 3,
                "guideStyle": "QUEST_GUIDE_STYLE_POINT",
                "guideLayer": "QUEST_GUIDE_LAYER_SCENE"
            },
            "showGuide": "QUEST_GUIDE_ITEM_DISABLE",
            "guideHint": {
                "KPOGPNLFAAE": ""
            },
            "isRewind": true,
            "versionBegin": "",
            "versionEnd": ""
        },
        {
            "subId": 7400604,
            "mainId": 74006,
            "order": 5,
            "subIdSet": 7400601,
            "descTextMapHash": 4034246748,
            "guideTipsTextMapHash": 700522350,
            "finishCond": [
                {
                    "type": "QUEST_CONTENT_OBTAIN_ITEM",
                    "param": [
                        120337,
                        0
                    ],
                    "count": 4
                }
            ],
            "guide": {
                "autoGuide": "QUEST_GUIDE_AUTO_ENABLE",
                "param": [
                    "0"
                ],
                "guideScene": 3,
                "guideStyle": "QUEST_GUIDE_STYLE_POINT",
                "guideLayer": "QUEST_GUIDE_LAYER_SCENE"
            },
            "showGuide": "QUEST_GUIDE_ITEM_DISABLE",
            "guideHint": {
                "KPOGPNLFAAE": ""
            },
            "isRewind": true,
            "versionBegin": "",
            "versionEnd": ""
        },
        {
            "subId": 7400605,
            "mainId": 74006,
            "order": 6,
            "descTextMapHash": 2876008356,
            "finishCond": [
                {
                    "type": "QUEST_CONTENT_COMPLETE_TALK",
                    "param": [
                        7400605,
                        0
                    ]
                }
            ],
            "guide": {
                "type": "QUEST_GUIDE_NPC",
                "autoGuide": "QUEST_GUIDE_AUTO_ENABLE",
                "param": [
                    "5301"
                ],
                "guideScene": 3,
                "guideStyle": "QUEST_GUIDE_STYLE_TARGET",
                "guideLayer": "QUEST_GUIDE_LAYER_SCENE"
            },
            "guideHint": {
                "KPOGPNLFAAE": ""
            },
            "isRewind": true,
            "finishExec": [
                {
                    "type": "QUEST_EXEC_REFRESH_GROUP_SUITE",
                    "param": [
                        "3",
                        "133403118,2"
                    ]
                },
                {
                    "type": "QUEST_EXEC_REFRESH_GROUP_SUITE",
                    "param": [
                        "3",
                        "133403411,3"
                    ]
                },
                {
                    "type": "QUEST_EXEC_DEL_PACK_ITEM_BATCH",
                    "param": [
                        "120337:4"
                    ]
                },
                {
                    "type": "QUEST_EXEC_SET_MAP_LAYER_UNLOCK_STATE",
                    "param": [
                        "3340305",
                        "1"
                    ]
                },
                {
                    "type": "QUEST_EXEC_SET_QUEST_GLOBAL_VAR",
                    "param": [
                        "7400703",
                        "1"
                    ]
                }
            ],
            "versionBegin": "",
            "versionEnd": ""
        },
        {
            "subId": 7400606,
            "mainId": 74006,
            "order": 7,
            "descTextMapHash": 3030655572,
            "stepDescTextMapHash": 2706694573,
            "finishCond": [
                {
                    "type": "QUEST_CONTENT_FINISH_PLOT",
                    "param": [
                        7400606,
                        0
                    ]
                }
            ],
            "guide": {
                "type": "QUEST_GUIDE_LOCATION",
                "autoGuide": "QUEST_GUIDE_AUTO_ENABLE",
                "param": [
                    "[3_4251:2471.641,247.875,4801.005]",
                    "0"
                ],
                "guideScene": 3,
                "guideStyle": "QUEST_GUIDE_STYLE_POINT",
                "guideLayer": "QUEST_GUIDE_LAYER_SCENE"
            },
            "guideHint": {
                "KPOGPNLFAAE": ""
            },
            "isRewind": true,
            "versionBegin": "",
            "versionEnd": ""
        },
        {
            "subId": 7400607,
            "mainId": 74006,
            "order": 8,
            "descTextMapHash": 4258682516,
            "finishCond": [
                {
                    "type": "QUEST_CONTENT_FINISH_PLOT",
                    "param": [
                        7400607,
                        0
                    ]
                }
            ],
            "guide": {
                "type": "QUEST_GUIDE_LOCATION",
                "autoGuide": "QUEST_GUIDE_AUTO_ENABLE",
                "param": [
                    "[3_4256:2449.919,237.003,4734.114]",
                    "0"
                ],
                "guideScene": 3,
                "guideStyle": "QUEST_GUIDE_STYLE_POINT",
                "guideLayer": "QUEST_GUIDE_LAYER_SCENE"
            },
            "guideHint": {
                "KPOGPNLFAAE": ""
            },
            "isRewind": true,
            "versionBegin": "",
            "versionEnd": ""
        },
        {
            "subId": 7400608,
            "mainId": 74006,
            "order": 9,
            "descTextMapHash": 3568429012,
            "finishCond": [
                {
                    "type": "QUEST_CONTENT_FINISH_PLOT",
                    "param": [
                        7400608,
                        0
                    ]
                }
            ],
            "guide": {
                "type": "QUEST_GUIDE_LOCATION",
                "autoGuide": "QUEST_GUIDE_AUTO_ENABLE",
                "param": [
                    "[3_4257:2399.177,233.480,4706.237]",
                    "0"
                ],
                "guideScene": 3,
                "guideStyle": "QUEST_GUIDE_STYLE_POINT",
                "guideLayer": "QUEST_GUIDE_LAYER_SCENE"
            },
            "guideHint": {
                "KPOGPNLFAAE": ""
            },
            "isRewind": true,
            "versionBegin": "",
            "versionEnd": ""
        },
        {
            "subId": 7400609,
            "mainId": 74006,
            "order": 10,
            "descTextMapHash": 1098214876,
            "finishCond": [
                {
                    "type": "QUEST_CONTENT_GADGET_STATE_CHANGE",
                    "param": [
                        133403084,
                        84005
                    ]
                }
            ],
            "guide": {
                "type": "QUEST_GUIDE_LOCATION",
                "autoGuide": "QUEST_GUIDE_AUTO_ENABLE",
                "param": [
                    "[3_4260:2353.032,233.814,4695.435]",
                    "40"
                ],
                "guideScene": 3,
                "guideStyle": "QUEST_GUIDE_STYLE_POINT",
                "guideLayer": "QUEST_GUIDE_LAYER_SCENE"
            },
            "guideHint": {
                "KPOGPNLFAAE": ""
            },
            "isRewind": true,
            "finishExec": [
                {
                    "type": "QUEST_EXEC_OPTIONAL_REVIVAL_TEAM",
                    "param": [
                        "1"
                    ]
                }
            ],
            "versionBegin": "",
            "versionEnd": ""
        },
        {
            "subId": 7400610,
            "mainId": 74006,
            "order": 12,
            "descTextMapHash": 3798963276,
            "finishCond": [
                {
                    "type": "QUEST_CONTENT_FINISH_PLOT",
                    "param": [
                        7400610,
                        0
                    ]
                }
            ],
            "guide": {
                "type": "QUEST_GUIDE_LOCATION",
                "autoGuide": "QUEST_GUIDE_AUTO_ENABLE",
                "param": [
                    "[3_4263:2285.199,192.681,4738.030]",
                    "20"
                ],
                "guideScene": 3,
                "guideStyle": "QUEST_GUIDE_STYLE_POINT",
                "guideLayer": "QUEST_GUIDE_LAYER_SCENE"
            },
            "guideHint": {
                "KPOGPNLFAAE": ""
            },
            "isRewind": true,
            "versionBegin": "",
            "versionEnd": ""
        },
        {
            "subId": 7400611,
            "mainId": 74006,
            "order": 99,
            "descTextMapHash": 2175449668,
            "guide": {
                "type": "QUEST_GUIDE_LOCATION",
                "autoGuide": "QUEST_GUIDE_AUTO_ENABLE",
                "param": [
                    "[3_4263:2285.199,192.681,4738.030]",
                    "40"
                ],
                "guideScene": 3,
                "guideStyle": "QUEST_GUIDE_STYLE_POINT",
                "guideLayer": "QUEST_GUIDE_LAYER_SCENE"
            },
            "guideHint": {
                "KPOGPNLFAAE": ""
            },
            "isRewind": true,
            "versionBegin": "",
            "versionEnd": ""
        },
        {
            "subId": 7400612,
            "mainId": 74006,
            "order": 13,
            "descTextMapHash": 1223796724,
            "finishCond": [
                {
                    "type": "QUEST_CONTENT_GADGET_STATE_CHANGE",
                    "param": [
                        133403089,
                        89008
                    ]
                }
            ],
            "guide": {
                "type": "QUEST_GUIDE_NPC",
                "autoGuide": "QUEST_GUIDE_AUTO_ENABLE",
                "param": [
                    "5322"
                ],
                "guideScene": 3,
                "guideStyle": "QUEST_GUIDE_STYLE_TARGET",
                "guideLayer": "QUEST_GUIDE_LAYER_SCENE"
            },
            "guideHint": {
                "KPOGPNLFAAE": ""
            },
            "isRewind": true,
            "versionBegin": "",
            "versionEnd": ""
        },
        {
            "subId": 7400613,
            "mainId": 74006,
            "order": 14,
            "descTextMapHash": 2993677220,
            "finishCond": [
                {
                    "type": "QUEST_CONTENT_COMPLETE_TALK",
                    "param": [
                        7400613,
                        0
                    ]
                }
            ],
            "guide": {
                "type": "QUEST_GUIDE_NPC",
                "autoGuide": "QUEST_GUIDE_AUTO_ENABLE",
                "param": [
                    "5322"
                ],
                "guideScene": 3,
                "guideStyle": "QUEST_GUIDE_STYLE_TARGET",
                "guideLayer": "QUEST_GUIDE_LAYER_SCENE"
            },
            "guideHint": {
                "KPOGPNLFAAE": ""
            },
            "isRewind": true,
            "versionBegin": "",
            "versionEnd": ""
        },
        {
            "subId": 7400614,
            "mainId": 74006,
            "order": 15,
            "descTextMapHash": 315817964,
            "finishCond": [
                {
                    "type": "QUEST_CONTENT_FINISH_PLOT",
                    "param": [
                        7400614,
                        0
                    ]
                }
            ],
            "guide": {
                "type": "QUEST_GUIDE_LOCATION",
                "autoGuide": "QUEST_GUIDE_AUTO_ENABLE",
                "param": [
                    "[3_4269:2193.744,146.688,4708.258]",
                    "0"
                ],
                "guideScene": 3,
                "guideStyle": "QUEST_GUIDE_STYLE_TARGET",
                "guideLayer": "QUEST_GUIDE_LAYER_SCENE"
            },
            "guideHint": {
                "KPOGPNLFAAE": ""
            },
            "isRewind": true,
            "versionBegin": "",
            "versionEnd": ""
        },
        {
            "subId": 7400615,
            "mainId": 74006,
            "order": 16,
            "descTextMapHash": 1210915436,
            "finishCond": [
                {
                    "type": "QUEST_CONTENT_COMPLETE_TALK",
                    "param": [
                        7400604,
                        0
                    ]
                }
            ],
            "guide": {
                "type": "QUEST_GUIDE_LOCATION",
                "autoGuide": "QUEST_GUIDE_AUTO_ENABLE",
                "param": [
                    "[3_4271:2386.977,182.980,4918.074]",
                    "0"
                ],
                "guideScene": 3,
                "guideStyle": "QUEST_GUIDE_STYLE_POINT",
                "guideLayer": "QUEST_GUIDE_LAYER_SCENE"
            },
            "guideHint": {
                "KPOGPNLFAAE": ""
            },
            "isRewind": true,
            "versionBegin": "",
            "versionEnd": ""
        },
        {
            "subId": 7400616,
            "mainId": 74006,
            "order": 17,
            "descTextMapHash": 2283941084,
            "finishCond": [
                {
                    "type": "QUEST_CONTENT_FINISH_PLOT",
                    "param": [
                        7400616,
                        0
                    ]
                }
            ],
            "guide": {
                "type": "QUEST_GUIDE_LOCATION",
                "autoGuide": "QUEST_GUIDE_AUTO_ENABLE",
                "param": [
                    "[3_4273:2423.729,237.921,4958.468]",
                    "0"
                ],
                "guideScene": 3,
                "guideStyle": "QUEST_GUIDE_STYLE_POINT",
                "guideLayer": "QUEST_GUIDE_LAYER_SCENE"
            },
            "guideHint": {
                "KPOGPNLFAAE": ""
            },
            "isRewind": true,
            "versionBegin": "",
            "versionEnd": ""
        },
        {
            "subId": 7400617,
            "mainId": 74006,
            "order": 18,
            "descTextMapHash": 3381061204,
            "finishCond": [
                {
                    "type": "QUEST_CONTENT_GADGET_STATE_CHANGE",
                    "param": [
                        133403491,
                        491004
                    ]
                }
            ],
            "guide": {
                "type": "QUEST_GUIDE_LOCATION",
                "autoGuide": "QUEST_GUIDE_AUTO_ENABLE",
                "param": [
                    "[3_4276:2435.693,245.912,4903.485]",
                    "0"
                ],
                "guideScene": 3,
                "guideStyle": "QUEST_GUIDE_STYLE_TARGET",
                "guideLayer": "QUEST_GUIDE_LAYER_SCENE"
            },
            "guideHint": {
                "KPOGPNLFAAE": ""
            },
            "isRewind": true,
            "versionBegin": "",
            "versionEnd": ""
        },
        {
            "subId": 7400618,
            "mainId": 74006,
            "order": 20,
            "descTextMapHash": 977597436,
            "finishCond": [
                {
                    "type": "QUEST_CONTENT_GADGET_STATE_CHANGE",
                    "param": [
                        133403093,
                        93003
                    ]
                }
            ],
            "guide": {
                "type": "QUEST_GUIDE_LOCATION",
                "autoGuide": "QUEST_GUIDE_AUTO_ENABLE",
                "param": [
                    "[3_4308:2638.791,215.683,4998.283,0.000,218.102,0.000]",
                    "0"
                ],
                "guideScene": 3,
                "guideStyle": "QUEST_GUIDE_STYLE_TARGET",
                "guideLayer": "QUEST_GUIDE_LAYER_SCENE"
            },
            "guideHint": {
                "KPOGPNLFAAE": ""
            },
            "isRewind": true,
            "versionBegin": "",
            "versionEnd": ""
        },
        {
            "subId": 7400619,
            "mainId": 74006,
            "order": 21,
            "descTextMapHash": 3868834764,
            "finishCond": [
                {
                    "type": "QUEST_CONTENT_COMPLETE_TALK",
                    "param": [
                        7400619,
                        0
                    ]
                }
            ],
            "guide": {
                "type": "QUEST_GUIDE_LOCATION",
                "autoGuide": "QUEST_GUIDE_AUTO_ENABLE",
                "param": [
                    "[3_4278:2682.697,215.309,5004.267]",
                    "0"
                ],
                "guideScene": 3,
                "guideStyle": "QUEST_GUIDE_STYLE_POINT",
                "guideLayer": "QUEST_GUIDE_LAYER_SCENE"
            },
            "guideHint": {
                "KPOGPNLFAAE": ""
            },
            "isRewind": true,
            "versionBegin": "",
            "versionEnd": ""
        },
        {
            "subId": 7400620,
            "mainId": 74006,
            "order": 22,
            "descTextMapHash": 3371773820,
            "finishCond": [
                {
                    "type": "QUEST_CONTENT_GADGET_STATE_CHANGE",
                    "param": [
                        133403094,
                        94005
                    ]
                }
            ],
            "guide": {
                "type": "QUEST_GUIDE_LOCATION",
                "autoGuide": "QUEST_GUIDE_AUTO_ENABLE",
                "param": [
                    "[3_4278:2682.697,215.309,5004.267]",
                    "55"
                ],
                "guideScene": 3,
                "guideStyle": "QUEST_GUIDE_STYLE_POINT",
                "guideLayer": "QUEST_GUIDE_LAYER_SCENE"
            },
            "guideHint": {
                "KPOGPNLFAAE": ""
            },
            "isRewind": true,
            "versionBegin": "",
            "versionEnd": ""
        },
        {
            "subId": 7400621,
            "mainId": 74006,
            "order": 23,
            "descTextMapHash": 2141239596,
            "finishCond": [
                {
                    "type": "QUEST_CONTENT_COMPLETE_TALK",
                    "param": [
                        7400621,
                        0
                    ]
                }
            ],
            "guide": {
                "type": "QUEST_GUIDE_LOCATION",
                "autoGuide": "QUEST_GUIDE_AUTO_ENABLE",
                "param": [
                    "[3_4278:2682.697,215.309,5004.267]",
                    "0"
                ],
                "guideScene": 3,
                "guideStyle": "QUEST_GUIDE_STYLE_POINT",
                "guideLayer": "QUEST_GUIDE_LAYER_SCENE"
            },
            "guideHint": {
                "KPOGPNLFAAE": ""
            },
            "finishParent": true,
            "isRewind": true,
            "finishExec": [
                {
                    "type": "QUEST_EXEC_UNREGISTER_DYNAMIC_GROUP",
                    "param": [
                        "133403478",
                        "1"
                    ]
                }
            ],
            "versionBegin": "",
            "versionEnd": ""
        },
        {
            "subId": 7400622,
            "mainId": 74006,
            "order": 11,
            "descTextMapHash": 1869047396,
            "finishCond": [
                {
                    "type": "QUEST_CONTENT_COMPLETE_TALK",
                    "param": [
                        7400602,
                        0
                    ]
                }
            ],
            "guide": {
                "type": "QUEST_GUIDE_LOCATION",
                "autoGuide": "QUEST_GUIDE_AUTO_ENABLE",
                "param": [
                    "[3_5293:2331.726,182.384,4725.717,0.000,249.315,0.000]",
                    "0"
                ],
                "guideScene": 3,
                "guideStyle": "QUEST_GUIDE_STYLE_POINT",
                "guideLayer": "QUEST_GUIDE_LAYER_SCENE"
            },
            "guideHint": {
                "KPOGPNLFAAE": ""
            },
            "isRewind": true,
            "versionBegin": "",
            "versionEnd": ""
        },
        {
            "subId": 7400623,
            "mainId": 74006,
            "order": 99,
            "descTextMapHash": 2496590980,
            "guide": {
                "type": "QUEST_GUIDE_LOCATION",
                "autoGuide": "QUEST_GUIDE_AUTO_ENABLE",
                "param": [
                    "[3_4184:2711.767,229.991,4981.289]",
                    "0"
                ],
                "guideScene": 3,
                "guideStyle": "QUEST_GUIDE_STYLE_TARGET",
                "guideLayer": "QUEST_GUIDE_LAYER_SCENE"
            },
            "guideHint": {
                "KPOGPNLFAAE": ""
            },
            "finishParent": true,
            "isRewind": true,
            "versionBegin": "",
            "versionEnd": ""
        },
        {
            "subId": 7400624,
            "mainId": 74006,
            "order": 1,
            "descTextMapHash": 2203581892,
            "stepDescTextMapHash": 2178844077,
            "finishCond": [
                {
                    "type": "QUEST_CONTENT_QUEST_GLOBAL_VAR_EQUAL",
                    "param": [
                        7404402,
                        1
                    ]
                }
            ],
            "guide": {
                "type": "QUEST_GUIDE_LOCATION",
                "autoGuide": "QUEST_GUIDE_AUTO_ENABLE",
                "param": [
                    "[3_4740:2399.265,250.528,4969.704,0.000,116.600,0.000]",
                    "20"
                ],
                "guideScene": 3,
                "guideStyle": "QUEST_GUIDE_STYLE_POINT",
                "guideLayer": "QUEST_GUIDE_LAYER_SCENE"
            },
            "guideHint": {
                "KPOGPNLFAAE": ""
            },
            "isRewind": true,
            "versionBegin": "",
            "versionEnd": ""
        },
        {
            "subId": 7400625,
            "mainId": 74006,
            "order": 19,
            "descTextMapHash": 2362258020,
            "finishCond": [
                {
                    "type": "QUEST_CONTENT_GADGET_STATE_CHANGE",
                    "param": [
                        133403092,
                        92008
                    ]
                }
            ],
            "guide": {
                "type": "QUEST_GUIDE_LOCATION",
                "autoGuide": "QUEST_GUIDE_AUTO_ENABLE",
                "param": [
                    "[3_4308:2638.791,215.683,4998.283,0.000,218.102,0.000]",
                    "40"
                ],
                "guideScene": 3,
                "guideStyle": "QUEST_GUIDE_STYLE_POINT",
                "guideLayer": "QUEST_GUIDE_LAYER_SCENE"
            },
            "guideHint": {
                "KPOGPNLFAAE": ""
            },
            "isRewind": true,
            "finishExec": [
                {
                    "type": "QUEST_EXEC_REFRESH_GROUP_SUITE",
                    "param": [
                        "3",
                        "133403063,4"
                    ]
                },
                {
                    "type": "QUEST_EXEC_REFRESH_GROUP_SUITE",
                    "param": [
                        "3",
                        "133403064,4"
                    ]
                }
            ],
            "versionBegin": "",
            "versionEnd": ""
        },
        {
            "subId": 7400626,
            "mainId": 74006,
            "order": 24,
            "showType": "QUEST_HIDDEN",
            "finishCond": [
                {
                    "type": "QUEST_CONTENT_FINISH_PLOT",
                    "param": [
                        7400626,
                        0
                    ]
                }
            ],
            "guide": {},
            "guideHint": {
                "KPOGPNLFAAE": ""
            },
            "finishExec": [
                {
                    "type": "QUEST_EXEC_REFRESH_GROUP_SUITE",
                    "param": [
                        "3",
                        "133403673,2"
                    ]
                }
            ],
            "versionBegin": "",
            "versionEnd": ""
        }
    ],
    "talks": [
        {
            "id": 7400602,
            "beginWay": "TALK_BEGIN_AUTO",
            "activeMode": "PLAY_MODE_HOST",
            "beginCond": [
                {
                    "type": "QUEST_COND_STATE_EQUAL",
                    "param": [
                        "7400622",
                        "2"
                    ]
                }
            ],
            "priority": 5,
            "initDialog": 740060201,
            "npcId": [
                20985
            ],
            "performCfg": "QuestDialogue/WQ/Fontaine_74006/Q7400602",
            "questId": 74006,
            "assetIndex": 4357917147545882597,
            "prePerformCfg": "",
            "EIPOLMFCODP": [
                "[3_5291:2331.746,182.384,4724.074,0.000,302.662,0.000]",
                "[3_5292:2329.875,182.384,4725.807,0.000,146.783,0.000]",
                "[3_5293:2331.726,182.384,4725.717,0.000,249.315,0.000]",
                "[3_5830:2329.082,182.148,4723.961]"
            ]
        },
        {
            "id": 7400604,
            "beginWay": "TALK_BEGIN_MANUAL",
            "activeMode": "PLAY_MODE_HOST",
            "beginCond": [
                {
                    "type": "QUEST_COND_STATE_EQUAL",
                    "param": [
                        "7400615",
                        "2"
                    ]
                }
            ],
            "priority": 5,
            "initDialog": 740060401,
            "npcId": [
                20985
            ],
            "performCfg": "QuestDialogue/WQ/Fontaine_74006/Q7400604",
            "questId": 74006,
            "assetIndex": 11644504387228001525,
            "prePerformCfg": "",
            "EIPOLMFCODP": [
                "[3_5255:2392.761,183.068,4923.168,0.000,46.874,0.000]",
                "[3_5256:2393.863,183.083,4922.384]",
                "[3_5257:2394.350,183.225,4924.328,0.000,237.962,0.000]",
                "[3_5258:2393.452,183.015,4925.253,0.000,187.531,0.000]",
                "[3_5259:2392.046,182.931,4924.259,0.000,69.165,0.000]",
                "[3_5260:2395.590,183.467,4922.894,0.000,284.171,0.000]"
            ]
        },
        {
            "id": 7400605,
            "beginWay": "TALK_BEGIN_MANUAL",
            "activeMode": "PLAY_MODE_HOST",
            "beginCond": [
                {
                    "type": "QUEST_COND_STATE_EQUAL",
                    "param": [
                        "7400605",
                        "2"
                    ]
                }
            ],
            "priority": 5,
            "initDialog": 740060501,
            "npcId": [
                5301
            ],
            "performCfg": "QuestDialogue/WQ/Fontaine_74006/Q7400605",
            "questId": 74006,
            "assetIndex": 12620300662068781421,
            "prePerformCfg": "",
            "EIPOLMFCODP": [
                "[3_5268:2445.866,242.081,4992.474,0.000,35.717,0.000]",
                "[3_5269:2446.885,242.081,4993.926,0.000,216.976,0.000]",
                "[3_5282:2448.408,242.081,4993.074,0.000,246.166,0.000]"
            ]
        },
        {
            "id": 7400608,
            "beginWay": "TALK_BEGIN_AUTO",
            "activeMode": "PLAY_MODE_HOST",
            "beginCond": [
                {
                    "type": "QUEST_COND_STATE_EQUAL",
                    "param": [
                        "7400623",
                        "2"
                    ]
                }
            ],
            "priority": 5,
            "initDialog": 740060801,
            "npcId": [
                20985
            ],
            "performCfg": "QuestDialogue/WQ/Fontaine_74006/Q7400608",
            "questId": 74006,
            "assetIndex": 15575145330497933720,
            "prePerformCfg": "",
            "EIPOLMFCODP": [
                "[3_5311:2711.375,227.141,4982.014,0.000,158.172,0.000]",
                "[3_5312:2712.826,227.444,4981.645,0.000,210.943,0.000]",
                "[3_5313:2710.463,227.433,4980.750,0.000,90.167,0.000]"
            ]
        },
        {
            "id": 7400613,
            "beginWay": "TALK_BEGIN_AUTO",
            "activeMode": "PLAY_MODE_HOST",
            "beginCond": [
                {
                    "type": "QUEST_COND_STATE_EQUAL",
                    "param": [
                        "7400613",
                        "2"
                    ]
                }
            ],
            "priority": 5,
            "initDialog": 740061301,
            "npcId": [
                5322
            ],
            "performCfg": "QuestDialogue/WQ/Fontaine_74006/Q7400613",
            "questId": 74006,
            "assetIndex": 3937961460030479536,
            "prePerformCfg": "",
            "EIPOLMFCODP": [
                "[3_5294:2267.775,179.388,4742.668,0.000,233.987,0.000]",
                "[3_5295:2267.908,178.745,4740.928,0.000,288.904,0.000]",
                "[3_5296:2265.693,179.526,4741.191,0.000,57.818,0.000]",
                "[3_5297:2265.361,179.618,4743.130,0.000,152.288,0.000]",
                "[3_5298:2266.151,179.999,4745.030,0.000,169.758,0.000]"
            ]
        },
        {
            "id": 7400619,
            "beginWay": "TALK_BEGIN_AUTO",
            "activeMode": "PLAY_MODE_HOST",
            "beginCond": [
                {
                    "type": "QUEST_COND_STATE_EQUAL",
                    "param": [
                        "7400619",
                        "2"
                    ]
                }
            ],
            "priority": 5,
            "initDialog": 740061934,
            "npcId": [
                20985
            ],
            "performCfg": "QuestDialogue/WQ/Fontaine_74006/Q7400619",
            "questId": 74006,
            "assetIndex": 2756200877616973416,
            "prePerformCfg": "",
            "EIPOLMFCODP": [
                "[3_4308:2638.791,215.683,4998.283,0.000,218.102,0.000]",
                "[3_5299:2643.688,213.710,5000.430,0.000,26.408,0.000]",
                "[3_5300:2642.860,213.805,5002.759,0.000,71.656,0.000]",
                "[3_5301:2643.290,213.987,5005.050,0.000,124.152,0.000]",
                "[3_5302:2675.655,214.353,5002.570,0.000,263.663,0.000]",
                "[3_5303:2680.982,214.988,5004.748,0.000,236.737,0.000]"
            ]
        },
        {
            "id": 7400621,
            "beginWay": "TALK_BEGIN_AUTO",
            "activeMode": "PLAY_MODE_HOST",
            "beginCond": [
                {
                    "type": "QUEST_COND_STATE_EQUAL",
                    "param": [
                        "7400621",
                        "2"
                    ]
                }
            ],
            "priority": 5,
            "initDialog": 740062101,
            "npcId": [
                20985
            ],
            "performCfg": "QuestDialogue/WQ/Fontaine_74006/Q7400621",
            "questId": 74006,
            "assetIndex": 11351550479603606897,
            "prePerformCfg": "",
            "EIPOLMFCODP": [
                "[3_5304:2695.967,218.502,5000.881,0.000,115.240,0.000]",
                "[3_5305:2698.463,219.246,4999.960,0.000,289.407,0.000]",
                "[3_5306:2698.579,219.214,5001.774,0.000,252.750,0.000]",
                "[3_5307:2697.738,219.096,4998.759,0.000,317.470,0.000]",
                "[3_5308:2697.352,218.903,5001.830,0.000,159.609,0.000]",
                "[3_5309:2696.580,218.702,5001.954,0.000,147.332,0.000]",
                "[3_5310:2696.696,218.775,4998.104]"
            ]
        }
    ],
    "preloadLuaList": [
        6377000077827050841,
        3762210263645831024,
        3935260238053027686,
        14049977532814060545,
        57992144379511662,
        1755665065730859308,
        2214235266370314003,
        1638061051179505800,
        11914525974355474194
    ],
    "AILPOGENMJB": [
        1315401207954234965
    ],
    "freeStyleDic": {
        "5322": [
            301160
        ]
    }
}