{
    "id": 74019,
    "type": "WQ",
    "activeMode": "PLAY_MODE_ALL",
    "titleTextMapHash": 2863379215,
    "descTextMapHash": 4151311166,
    "luaPath": "Actor/Quest/WQ74019",
    "rewardIdList": [
        174019
    ],
    "subQuests": [
        {
            "subId": 7401901,
            "mainId": 74019,
            "order": 1,
            "showType": "QUEST_HIDDEN",
            "finishCond": [
                {
                    "type": "QUEST_CONTENT_LUA_NOTIFY",
                    "param": [
                        0,
                        0
                    ],
                    "count": 1
                }
            ],
            "guide": {},
            "showGuide": "QUEST_GUIDE_ITEM_DISABLE",
            "guideHint": {
                "KPOGPNLFAAE": ""
            },
            "isRewind": true,
            "finishExec": [
                {
                    "type": "QUEST_EXEC_NOTIFY_GROUP_LUA",
                    "param": [
                        "3",
                        "133401123"
                    ]
                },
                {
                    "type": "QUEST_EXEC_NOTIFY_GROUP_LUA",
                    "param": [
                        "3",
                        "133403193"
                    ]
                },
                {
                    "type": "QUEST_EXEC_NOTIFY_GROUP_LUA",
                    "param": [
                        "3",
                        "133403119"
                    ]
                },
                {
                    "type": "QUEST_EXEC_NOTIFY_GROUP_LUA",
                    "param": [
                        "3",
                        "133403120"
                    ]
                }
            ],
            "versionBegin": "",
            "versionEnd": ""
        },
        {
            "subId": 7401902,
            "mainId": 74019,
            "order": 3,
            "descTextMapHash": 1470025172,
            "finishCond": [
                {
                    "type": "QUEST_CONTENT_COMPLETE_TALK",
                    "param": [
                        7401901,
                        0
                    ]
                }
            ],
            "guide": {
                "type": "QUEST_GUIDE_NPC",
                "autoGuide": "QUEST_GUIDE_AUTO_ENABLE",
                "param": [
                    "21035"
                ],
                "guideScene": 3,
                "guideStyle": "QUEST_GUIDE_STYLE_TARGET",
                "guideLayer": "QUEST_GUIDE_LAYER_SCENE"
            },
            "guideHint": {
                "KPOGPNLFAAE": ""
            },
            "isRewind": true,
            "versionBegin": "",
            "versionEnd": ""
        },
        {
            "subId": 7401903,
            "mainId": 74019,
            "order": 2,
            "descTextMapHash": 97288380,
            "finishCond": [
                {
                    "type": "QUEST_CONTENT_COMPLETE_TALK",
                    "param": [
                        7401611,
                        0
                    ]
                },
                {
                    "type": "QUEST_CONTENT_COMPLETE_TALK",
                    "param": [
                        7401612,
                        0
                    ]
                },
                {
                    "type": "QUEST_CONTENT_COMPLETE_TALK",
                    "param": [
                        7401613,
                        0
                    ]
                },
                {
                    "type": "QUEST_CONTENT_COMPLETE_TALK",
                    "param": [
                        7401614,
                        0
                    ]
                },
                {
                    "type": "QUEST_CONTENT_COMPLETE_TALK",
                    "param": [
                        7401615,
                        0
                    ]
                }
            ],
            "guide": {
                "type": "QUEST_GUIDE_LOCATION",
                "autoGuide": "QUEST_GUIDE_AUTO_ENABLE",
                "param": [
                    "QTravel02_Salsa_Reqiqiu",
                    "0"
                ],
                "guideScene": 3,
                "guideStyle": "QUEST_GUIDE_STYLE_POINT",
                "guideLayer": "QUEST_GUIDE_LAYER_SCENE"
            },
            "guideHint": {
                "KPOGPNLFAAE": ""
            },
            "isRewind": true,
            "versionBegin": "",
            "versionEnd": ""
        },
        {
            "subId": 7401904,
            "mainId": 74019,
            "order": 4,
            "descTextMapHash": 2968958404,
            "guideTipsTextMapHash": 269858022,
            "finishCond": [
                {
                    "type": "QUEST_CONTENT_LUA_NOTIFY",
                    "param": [
                        0,
                        0
                    ],
                    "count": 1
                }
            ],
            "guide": {
                "type": "QUEST_GUIDE_LOCATION",
                "autoGuide": "QUEST_GUIDE_AUTO_ENABLE",
                "param": [
                    "[3_5519:2543.402,490.751,4241.290]",
                    "20"
                ],
                "guideScene": 3,
                "guideStyle": "QUEST_GUIDE_STYLE_POINT",
                "guideLayer": "QUEST_GUIDE_LAYER_SCENE"
            },
            "guideHint": {
                "KPOGPNLFAAE": ""
            },
            "isRewind": true,
            "versionBegin": "",
            "versionEnd": ""
        },
        {
            "subId": 7401905,
            "mainId": 74019,
            "order": 6,
            "descTextMapHash": 349018716,
            "finishCond": [
                {
                    "type": "QUEST_CONTENT_COMPLETE_TALK",
                    "param": [
                        7401616,
                        0
                    ]
                },
                {
                    "type": "QUEST_CONTENT_COMPLETE_TALK",
                    "param": [
                        7401617,
                        0
                    ]
                },
                {
                    "type": "QUEST_CONTENT_COMPLETE_TALK",
                    "param": [
                        7401618,
                        0
                    ]
                },
                {
                    "type": "QUEST_CONTENT_COMPLETE_TALK",
                    "param": [
                        7401619,
                        0
                    ]
                },
                {
                    "type": "QUEST_CONTENT_COMPLETE_TALK",
                    "param": [
                        7401620,
                        0
                    ]
                }
            ],
            "guide": {
                "type": "QUEST_GUIDE_NPC",
                "autoGuide": "QUEST_GUIDE_AUTO_ENABLE",
                "param": [
                    "21035"
                ],
                "guideScene": 3,
                "guideStyle": "QUEST_GUIDE_STYLE_TARGET",
                "guideLayer": "QUEST_GUIDE_LAYER_SCENE"
            },
            "guideHint": {
                "KPOGPNLFAAE": ""
            },
            "finishParent": true,
            "isRewind": true,
            "finishExec": [
                {
                    "type": "QUEST_EXEC_INC_QUEST_GLOBAL_VAR",
                    "param": [
                        "74016",
                        "1"
                    ]
                },
                {
                    "type": "QUEST_EXEC_REFRESH_GROUP_SUITE",
                    "param": [
                        "3",
                        "133403302,2"
                    ]
                }
            ],
            "versionBegin": "",
            "versionEnd": ""
        },
        {
            "subId": 7401906,
            "mainId": 74019,
            "order": 5,
            "showType": "QUEST_HIDDEN",
            "finishCond": [
                {
                    "type": "QUEST_CONTENT_COMPLETE_TALK",
                    "param": [
                        7401616,
                        0
                    ]
                },
                {
                    "type": "QUEST_CONTENT_COMPLETE_TALK",
                    "param": [
                        7401617,
                        0
                    ]
                },
                {
                    "type": "QUEST_CONTENT_COMPLETE_TALK",
                    "param": [
                        7401618,
                        0
                    ]
                },
                {
                    "type": "QUEST_CONTENT_COMPLETE_TALK",
                    "param": [
                        7401619,
                        0
                    ]
                },
                {
                    "type": "QUEST_CONTENT_COMPLETE_TALK",
                    "param": [
                        7401620,
                        0
                    ]
                }
            ],
            "guide": {},
            "guideHint": {
                "KPOGPNLFAAE": ""
            },
            "isRewind": true,
            "finishExec": [
                {
                    "type": "QUEST_EXEC_NOTIFY_GROUP_LUA",
                    "param": [
                        "3",
                        "133401123"
                    ]
                },
                {
                    "type": "QUEST_EXEC_NOTIFY_GROUP_LUA",
                    "param": [
                        "3",
                        "133403193"
                    ]
                },
                {
                    "type": "QUEST_EXEC_NOTIFY_GROUP_LUA",
                    "param": [
                        "3",
                        "133403119"
                    ]
                },
                {
                    "type": "QUEST_EXEC_NOTIFY_GROUP_LUA",
                    "param": [
                        "3",
                        "133403120"
                    ]
                },
                {
                    "type": "QUEST_EXEC_REFRESH_GROUP_SUITE",
                    "param": [
                        "3",
                        "133403732,2"
                    ]
                }
            ],
            "versionBegin": "",
            "versionEnd": ""
        },
        {
            "subId": 7401907,
            "mainId": 74019,
            "order": 7,
            "showType": "QUEST_HIDDEN",
            "finishCond": [
                {
                    "type": "QUEST_CONTENT_FINISH_PLOT",
                    "param": [
                        7401907,
                        0
                    ]
                }
            ],
            "guide": {},
            "guideHint": {
                "KPOGPNLFAAE": ""
            },
            "finishExec": [
                {
                    "type": "QUEST_EXEC_REFRESH_GROUP_SUITE",
                    "param": [
                        "3",
                        "133403302,2"
                    ]
                }
            ],
            "versionBegin": "",
            "versionEnd": ""
        }
    ],
    "talks": [
        {
            "id": 7401611,
            "beginWay": "TALK_BEGIN_MANUAL",
            "activeMode": "PLAY_MODE_HOST",
            "beginCondComb": "LOGIC_AND",
            "beginCond": [
                {
                    "type": "QUEST_COND_STATE_EQUAL",
                    "param": [
                        "7401903",
                        "2"
                    ]
                },
                {
                    "type": "QUEST_COND_QUEST_GLOBAL_VAR_EQUAL",
                    "param": [
                        "74016",
                        "0"
                    ]
                }
            ],
            "nextTalks": [
                7401901
            ],
            "initDialog": 740160101,
            "npcId": [
                21035
            ],
            "performCfg": "QuestDialogue/WQ/Fontaine_74016/Q7401611",
            "heroTalk": "TALK_HERO_MAIN",
            "questId": 74019,
            "assetIndex": 15790171053187241234,
            "prePerformCfg": ""
        },
        {
            "id": 7401612,
            "beginWay": "TALK_BEGIN_MANUAL",
            "activeMode": "PLAY_MODE_HOST",
            "beginCondComb": "LOGIC_AND",
            "beginCond": [
                {
                    "type": "QUEST_COND_STATE_EQUAL",
                    "param": [
                        "7401903",
                        "2"
                    ]
                },
                {
                    "type": "QUEST_COND_QUEST_GLOBAL_VAR_EQUAL",
                    "param": [
                        "74016",
                        "1"
                    ]
                }
            ],
            "nextTalks": [
                7401901
            ],
            "initDialog": 740160201,
            "npcId": [
                21035
            ],
            "performCfg": "QuestDialogue/WQ/Fontaine_74016/Q7401612",
            "heroTalk": "TALK_HERO_MAIN",
            "questId": 74019,
            "assetIndex": 12929886211980085075,
            "prePerformCfg": ""
        },
        {
            "id": 7401613,
            "beginWay": "TALK_BEGIN_MANUAL",
            "activeMode": "PLAY_MODE_HOST",
            "beginCondComb": "LOGIC_AND",
            "beginCond": [
                {
                    "type": "QUEST_COND_STATE_EQUAL",
                    "param": [
                        "7401903",
                        "2"
                    ]
                },
                {
                    "type": "QUEST_COND_QUEST_GLOBAL_VAR_EQUAL",
                    "param": [
                        "74016",
                        "2"
                    ]
                }
            ],
            "nextTalks": [
                7401901
            ],
            "initDialog": 740160301,
            "npcId": [
                21035
            ],
            "performCfg": "QuestDialogue/WQ/Fontaine_74016/Q7401613",
            "heroTalk": "TALK_HERO_MAIN",
            "questId": 74019,
            "assetIndex": 12632352263396617192,
            "prePerformCfg": ""
        },
        {
            "id": 7401614,
            "beginWay": "TALK_BEGIN_MANUAL",
            "activeMode": "PLAY_MODE_HOST",
            "beginCondComb": "LOGIC_AND",
            "beginCond": [
                {
                    "type": "QUEST_COND_STATE_EQUAL",
                    "param": [
                        "7401903",
                        "2"
                    ]
                },
                {
                    "type": "QUEST_COND_QUEST_GLOBAL_VAR_EQUAL",
                    "param": [
                        "74016",
                        "3"
                    ]
                }
            ],
            "nextTalks": [
                7401901
            ],
            "initDialog": 740160401,
            "npcId": [
                21035
            ],
            "performCfg": "QuestDialogue/WQ/Fontaine_74016/Q7401614",
            "heroTalk": "TALK_HERO_MAIN",
            "questId": 74019,
            "assetIndex": 16423273053328059659,
            "prePerformCfg": ""
        },
        {
            "id": 7401615,
            "beginWay": "TALK_BEGIN_MANUAL",
            "activeMode": "PLAY_MODE_HOST",
            "beginCondComb": "LOGIC_AND",
            "beginCond": [
                {
                    "type": "QUEST_COND_STATE_EQUAL",
                    "param": [
                        "7401903",
                        "2"
                    ]
                },
                {
                    "type": "QUEST_COND_QUEST_GLOBAL_VAR_EQUAL",
                    "param": [
                        "74016",
                        "4"
                    ]
                }
            ],
            "nextTalks": [
                7401901
            ],
            "initDialog": 740160501,
            "npcId": [
                21035
            ],
            "performCfg": "QuestDialogue/WQ/Fontaine_74016/Q7401615",
            "heroTalk": "TALK_HERO_MAIN",
            "questId": 74019,
            "assetIndex": 2514759742552414412,
            "prePerformCfg": ""
        },
        {
            "id": 7401616,
            "beginWay": "TALK_BEGIN_MANUAL",
            "activeMode": "PLAY_MODE_HOST",
            "beginCondComb": "LOGIC_AND",
            "beginCond": [
                {
                    "type": "QUEST_COND_STATE_EQUAL",
                    "param": [
                        "7401905",
                        "2"
                    ]
                },
                {
                    "type": "QUEST_COND_QUEST_GLOBAL_VAR_EQUAL",
                    "param": [
                        "74016",
                        "0"
                    ]
                }
            ],
            "initDialog": 740160601,
            "npcId": [
                21035
            ],
            "performCfg": "QuestDialogue/WQ/Fontaine_74016/Q7401616",
            "heroTalk": "TALK_HERO_MAIN",
            "questId": 74019,
            "assetIndex": 1257356186869076020,
            "prePerformCfg": ""
        },
        {
            "id": 7401617,
            "beginWay": "TALK_BEGIN_MANUAL",
            "activeMode": "PLAY_MODE_HOST",
            "beginCondComb": "LOGIC_AND",
            "beginCond": [
                {
                    "type": "QUEST_COND_STATE_EQUAL",
                    "param": [
                        "7401905",
                        "2"
                    ]
                },
                {
                    "type": "QUEST_COND_QUEST_GLOBAL_VAR_EQUAL",
                    "param": [
                        "74016",
                        "1"
                    ]
                }
            ],
            "initDialog": 740160701,
            "npcId": [
                21035
            ],
            "performCfg": "QuestDialogue/WQ/Fontaine_74016/Q7401617",
            "heroTalk": "TALK_HERO_MAIN",
            "questId": 74019,
            "assetIndex": 12099364217384041308,
            "prePerformCfg": ""
        },
        {
            "id": 7401618,
            "beginWay": "TALK_BEGIN_MANUAL",
            "activeMode": "PLAY_MODE_HOST",
            "beginCondComb": "LOGIC_AND",
            "beginCond": [
                {
                    "type": "QUEST_COND_STATE_EQUAL",
                    "param": [
                        "7401905",
                        "2"
                    ]
                },
                {
                    "type": "QUEST_COND_QUEST_GLOBAL_VAR_EQUAL",
                    "param": [
                        "74016",
                        "2"
                    ]
                }
            ],
            "initDialog": 740160801,
            "npcId": [
                21035
            ],
            "performCfg": "QuestDialogue/WQ/Fontaine_74016/Q7401618",
            "heroTalk": "TALK_HERO_MAIN",
            "questId": 74019,
            "assetIndex": 15907018189690216045,
            "prePerformCfg": ""
        },
        {
            "id": 7401619,
            "beginWay": "TALK_BEGIN_MANUAL",
            "activeMode": "PLAY_MODE_HOST",
            "beginCondComb": "LOGIC_AND",
            "beginCond": [
                {
                    "type": "QUEST_COND_STATE_EQUAL",
                    "param": [
                        "7401905",
                        "2"
                    ]
                },
                {
                    "type": "QUEST_COND_QUEST_GLOBAL_VAR_EQUAL",
                    "param": [
                        "74016",
                        "3"
                    ]
                }
            ],
            "initDialog": 740160901,
            "npcId": [
                21035
            ],
            "performCfg": "QuestDialogue/WQ/Fontaine_74016/Q7401619",
            "heroTalk": "TALK_HERO_MAIN",
            "questId": 74019,
            "assetIndex": 3322087229978661910,
            "prePerformCfg": ""
        },
        {
            "id": 7401620,
            "beginWay": "TALK_BEGIN_MANUAL",
            "activeMode": "PLAY_MODE_HOST",
            "beginCondComb": "LOGIC_AND",
            "beginCond": [
                {
                    "type": "QUEST_COND_STATE_EQUAL",
                    "param": [
                        "7401905",
                        "2"
                    ]
                },
                {
                    "type": "QUEST_COND_QUEST_GLOBAL_VAR_EQUAL",
                    "param": [
                        "74016",
                        "4"
                    ]
                }
            ],
            "initDialog": 740161001,
            "npcId": [
                21035
            ],
            "performCfg": "QuestDialogue/WQ/Fontaine_74016/Q7401620",
            "heroTalk": "TALK_HERO_MAIN",
            "questId": 74019,
            "assetIndex": 6767926176913653686,
            "prePerformCfg": ""
        },
        {
            "id": 7401901,
            "beginWay": "TALK_BEGIN_MANUAL",
            "activeMode": "PLAY_MODE_HOST",
            "beginCond": [
                {
                    "type": "QUEST_COND_STATE_EQUAL",
                    "param": [
                        "7401902",
                        "2"
                    ]
                }
            ],
            "priority": 5,
            "initDialog": 740190101,
            "npcId": [
                21035
            ],
            "performCfg": "QuestDialogue/WQ/Fontaine_74019/Q7401901",
            "heroTalk": "TALK_HERO_MAIN",
            "questId": 74019,
            "assetIndex": 12613594970577328123,
            "prePerformCfg": ""
        },
        {
            "id": 7401902,
            "beginWay": "TALK_BEGIN_MANUAL",
            "activeMode": "PLAY_MODE_HOST",
            "beginCond": [
                {
                    "type": "QUEST_COND_STATE_EQUAL",
                    "param": [
                        "7401904",
                        "2"
                    ]
                }
            ],
            "priority": 5,
            "initDialog": 740190201,
            "npcId": [
                21035
            ],
            "performCfg": "QuestDialogue/WQ/Fontaine_74019/Q7401902",
            "heroTalk": "TALK_HERO_MAIN",
            "questId": 74019,
            "assetIndex": 3864441029592622491,
            "prePerformCfg": ""
        }
    ]
}