{
    "id": 74033,
    "type": "WQ",
    "activeMode": "PLAY_MODE_ALL",
    "titleTextMapHash": 73020287,
    "descTextMapHash": 3335790246,
    "luaPath": "Actor/Quest/WQ74033",
    "suggestTrackMainQuestList": [
        74025
    ],
    "rewardIdList": [
        174033
    ],
    "chapterId": 10156,
    "subQuests": [
        {
            "subId": 7403301,
            "mainId": 74033,
            "order": 2,
            "descTextMapHash": 2056780660,
            "finishCond": [
                {
                    "type": "QUEST_CONTENT_COMPLETE_TALK",
                    "param": [
                        7403301,
                        0
                    ]
                }
            ],
            "guide": {
                "type": "QUEST_GUIDE_NPC",
                "param": [
                    "21048"
                ],
                "guideScene": 3,
                "guideStyle": "QUEST_GUIDE_STYLE_TARGET",
                "guideLayer": "QUEST_GUIDE_LAYER_SCENE"
            },
            "guideHint": {
                "KPOGPNLFAAE": ""
            },
            "isRewind": true,
            "versionBegin": "",
            "versionEnd": ""
        },
        {
            "subId": 7403302,
            "mainId": 74033,
            "order": 1,
            "descTextMapHash": 498890284,
            "finishCond": [
                {
                    "type": "QUEST_CONTENT_FINISH_PLOT",
                    "param": [
                        7403302,
                        0
                    ]
                }
            ],
            "guide": {
                "type": "QUEST_GUIDE_LOCATION",
                "param": [
                    "[3_4947:4582.453,-45.499,4686.493,0.000,225.870,0.000]"
                ],
                "guideScene": 3,
                "guideStyle": "QUEST_GUIDE_STYLE_POINT",
                "guideLayer": "QUEST_GUIDE_LAYER_SCENE"
            },
            "guideHint": {
                "KPOGPNLFAAE": ""
            },
            "isRewind": true,
            "versionBegin": "",
            "versionEnd": ""
        },
        {
            "subId": 7403303,
            "mainId": 74033,
            "order": 4,
            "descTextMapHash": 2548591268,
            "finishCond": [
                {
                    "type": "QUEST_CONTENT_FINISH_PLOT",
                    "param": [
                        7403303,
                        0
                    ]
                }
            ],
            "guide": {
                "type": "QUEST_GUIDE_LOCATION",
                "param": [
                    "[3_4529:4594.517,-46.380,4592.511]"
                ],
                "guideScene": 3,
                "guideStyle": "QUEST_GUIDE_STYLE_POINT",
                "guideLayer": "QUEST_GUIDE_LAYER_SCENE"
            },
            "guideHint": {
                "KPOGPNLFAAE": ""
            },
            "isRewind": true,
            "versionBegin": "",
            "versionEnd": ""
        },
        {
            "subId": 7403304,
            "mainId": 74033,
            "order": 5,
            "descTextMapHash": 3895630428,
            "finishCond": [
                {
                    "type": "QUEST_CONTENT_COMPLETE_TALK",
                    "param": [
                        7403304,
                        0
                    ]
                }
            ],
            "guide": {
                "type": "QUEST_GUIDE_NPC",
                "param": [
                    "21076"
                ],
                "guideScene": 3,
                "guideStyle": "QUEST_GUIDE_STYLE_TARGET",
                "guideLayer": "QUEST_GUIDE_LAYER_SCENE"
            },
            "guideHint": {
                "KPOGPNLFAAE": ""
            },
            "finishParent": true,
            "isRewind": true,
            "finishExec": [
                {
                    "type": "QUEST_EXEC_NOTIFY_GROUP_LUA",
                    "param": [
                        "3",
                        "133408795"
                    ]
                },
                {
                    "type": "QUEST_EXEC_INC_QUEST_GLOBAL_VAR",
                    "param": [
                        "74025",
                        "1"
                    ]
                }
            ],
            "versionBegin": "",
            "versionEnd": ""
        },
        {
            "subId": 7403305,
            "mainId": 74033,
            "order": 3,
            "descTextMapHash": 2146349124,
            "finishCond": [
                {
                    "type": "QUEST_CONTENT_LUA_NOTIFY",
                    "param": [
                        0,
                        0
                    ],
                    "count": 1
                }
            ],
            "guide": {
                "type": "QUEST_GUIDE_GADGET",
                "param": [
                    "133408154",
                    "154014",
                    "4603.62:-47.77:4706.7"
                ],
                "guideScene": 3,
                "guideStyle": "QUEST_GUIDE_STYLE_TARGET",
                "guideLayer": "QUEST_GUIDE_LAYER_SCENE"
            },
            "guideHint": {
                "KPOGPNLFAAE": ""
            },
            "isRewind": true,
            "versionBegin": "",
            "versionEnd": ""
        }
    ],
    "talks": [
        {
            "id": 7403301,
            "beginWay": "TALK_BEGIN_MANUAL",
            "activeMode": "PLAY_MODE_HOST",
            "beginCond": [
                {
                    "type": "QUEST_COND_STATE_EQUAL",
                    "param": [
                        "7403301",
                        "2"
                    ]
                }
            ],
            "priority": 5,
            "initDialog": 740330101,
            "npcId": [
                21048
            ],
            "performCfg": "QuestDialogue/Q7403301",
            "heroTalk": "TALK_HERO_MAIN",
            "questId": 74033,
            "assetIndex": 7379711037796108388,
            "prePerformCfg": "",
            "EIPOLMFCODP": [
                "[3_4947:4582.453,-45.499,4686.493,0.000,225.870,0.000]",
                "[3_5767:4582.061,-45.499,4685.696,0.000,25.980,0.000]"
            ]
        },
        {
            "id": 7403304,
            "beginWay": "TALK_BEGIN_MANUAL",
            "activeMode": "PLAY_MODE_HOST",
            "beginCond": [
                {
                    "type": "QUEST_COND_STATE_EQUAL",
                    "param": [
                        "7403304",
                        "2"
                    ]
                }
            ],
            "priority": 5,
            "initDialog": 740330401,
            "npcId": [
                21048,
                21076
            ],
            "performCfg": "QuestDialogue/Q7403304",
            "heroTalk": "TALK_HERO_MAIN",
            "questId": 74033,
            "assetIndex": 12292147685805058452,
            "prePerformCfg": "",
            "EIPOLMFCODP": [
                "[3_4614:4596.750,-46.380,4590.743,0.000,311.231,0.000]",
                "[3_5582:4595.909,-46.380,4592.177,0.000,154.448,0.000]",
                "[3_5768:4595.084,-46.380,4591.131,0.000,105.000,0.000]"
            ]
        }
    ],
    "preloadLuaList": [
        13311564007878856325,
        630334291260854206
    ],
    "AILPOGENMJB": [
        8251778326076827159
    ]
}