{
    "id": 74041,
    "type": "WQ",
    "activeMode": "PLAY_MODE_ALL",
    "titleTextMapHash": 3110065855,
    "descTextMapHash": 2028423438,
    "luaPath": "Actor/Quest/WQ74041",
    "rewardIdList": [
        174041
    ],
    "subQuests": [
        {
            "subId": 7404101,
            "mainId": 74041,
            "order": 1,
            "descTextMapHash": 2702374260,
            "finishCond": [
                {
                    "type": "QUEST_CONTENT_COMPLETE_TALK",
                    "param": [
                        7404101,
                        0
                    ]
                },
                {
                    "type": "QUEST_CONTENT_COMPLETE_TALK",
                    "param": [
                        7404102,
                        0
                    ]
                }
            ],
            "guide": {
                "type": "QUEST_GUIDE_NPC",
                "param": [
                    "5224"
                ],
                "guideScene": 3,
                "guideStyle": "QUEST_GUIDE_STYLE_TARGET",
                "guideLayer": "QUEST_GUIDE_LAYER_SCENE"
            },
            "guideHint": {
                "KPOGPNLFAAE": ""
            },
            "isRewind": true,
            "finishExec": [
                {
                    "type": "QUEST_EXEC_DEL_PACK_ITEM",
                    "param": [
                        "120598",
                        "1"
                    ]
                },
                {
                    "type": "QUEST_EXEC_DEL_PACK_ITEM",
                    "param": [
                        "120599",
                        "1"
                    ]
                }
            ],
            "versionBegin": "",
            "versionEnd": ""
        },
        {
            "subId": 7404102,
            "mainId": 74041,
            "order": 2,
            "descTextMapHash": 1321911148,
            "finishCond": [
                {
                    "type": "QUEST_CONTENT_GAME_TIME_TICK",
                    "param": [
                        1,
                        0
                    ]
                }
            ],
            "guide": {},
            "guideHint": {
                "KPOGPNLFAAE": ""
            },
            "versionBegin": "",
            "versionEnd": ""
        },
        {
            "subId": 7404103,
            "mainId": 74041,
            "order": 3,
            "descTextMapHash": 2440790388,
            "finishCond": [
                {
                    "type": "QUEST_CONTENT_COMPLETE_TALK",
                    "param": [
                        7404103,
                        0
                    ]
                }
            ],
            "guide": {
                "type": "QUEST_GUIDE_NPC",
                "param": [
                    "21038"
                ],
                "guideScene": 3,
                "guideStyle": "QUEST_GUIDE_STYLE_TARGET",
                "guideLayer": "QUEST_GUIDE_LAYER_SCENE"
            },
            "guideHint": {
                "KPOGPNLFAAE": ""
            },
            "isRewind": true,
            "versionBegin": "",
            "versionEnd": ""
        },
        {
            "subId": 7404104,
            "mainId": 74041,
            "order": 4,
            "descTextMapHash": 3598393116,
            "finishCond": [
                {
                    "type": "QUEST_CONTENT_FINISH_PLOT",
                    "param": [
                        7404104,
                        0
                    ]
                }
            ],
            "guide": {
                "type": "QUEST_GUIDE_LOCATION",
                "param": [
                    "[3_4596:5036.912,530.270,4006.431,0.000,215.343,0.000]",
                    "0"
                ],
                "guideScene": 3,
                "guideStyle": "QUEST_GUIDE_STYLE_POINT"
            },
            "guideHint": {
                "KPOGPNLFAAE": ""
            },
            "isRewind": true,
            "versionBegin": "",
            "versionEnd": ""
        },
        {
            "subId": 7404105,
            "mainId": 74041,
            "order": 6,
            "descTextMapHash": 1599420836,
            "finishCond": [
                {
                    "type": "QUEST_CONTENT_FINISH_PLOT",
                    "param": [
                        7404105,
                        0
                    ]
                }
            ],
            "guide": {
                "type": "QUEST_GUIDE_LOCATION",
                "param": [
                    "[3_4597:5044.128,521.623,4015.290]",
                    "20"
                ],
                "guideScene": 3
            },
            "guideHint": {
                "KPOGPNLFAAE": ""
            },
            "isRewind": true,
            "versionBegin": "",
            "versionEnd": ""
        },
        {
            "subId": 7404106,
            "mainId": 74041,
            "order": 7,
            "descTextMapHash": 3711737748,
            "finishCond": [
                {
                    "type": "QUEST_CONTENT_LUA_NOTIFY",
                    "param": [
                        0,
                        0
                    ],
                    "count": 1
                }
            ],
            "guide": {
                "type": "QUEST_GUIDE_LOCATION",
                "param": [
                    "[3_4597:5044.128,521.623,4015.290]",
                    "20"
                ],
                "guideScene": 3,
                "guideStyle": "QUEST_GUIDE_STYLE_TARGET",
                "guideLayer": "QUEST_GUIDE_LAYER_SCENE"
            },
            "guideHint": {
                "KPOGPNLFAAE": ""
            },
            "isRewind": true,
            "finishExec": [
                {
                    "type": "QUEST_EXEC_SET_MAP_LAYER_UNLOCK_STATE",
                    "param": [
                        "3370301",
                        "1"
                    ]
                }
            ],
            "versionBegin": "",
            "versionEnd": ""
        },
        {
            "subId": 7404107,
            "mainId": 74041,
            "order": 8,
            "descTextMapHash": 1404299516,
            "finishCond": [
                {
                    "type": "QUEST_CONTENT_LUA_NOTIFY",
                    "param": [
                        0,
                        0
                    ],
                    "count": 1
                }
            ],
            "guide": {
                "type": "QUEST_GUIDE_LOCATION",
                "param": [
                    "[3_4597:5044.128,521.623,4015.290]",
                    "20"
                ],
                "guideScene": 3
            },
            "guideHint": {
                "KPOGPNLFAAE": ""
            },
            "isRewind": true,
            "versionBegin": "",
            "versionEnd": ""
        },
        {
            "subId": 7404108,
            "mainId": 74041,
            "order": 9,
            "descTextMapHash": 2149528004,
            "finishCond": [
                {
                    "type": "QUEST_CONTENT_LUA_NOTIFY",
                    "param": [
                        0,
                        0
                    ],
                    "count": 1
                }
            ],
            "guide": {
                "type": "QUEST_GUIDE_LOCATION",
                "param": [
                    "[3_4610:5044.118,505.872,4015.329]",
                    "20"
                ],
                "guideScene": 3
            },
            "guideHint": {
                "KPOGPNLFAAE": ""
            },
            "isRewind": true,
            "versionBegin": "",
            "versionEnd": ""
        },
        {
            "subId": 7404109,
            "mainId": 74041,
            "order": 11,
            "descTextMapHash": 1338553228,
            "finishCond": [
                {
                    "type": "QUEST_CONTENT_FINISH_PLOT",
                    "param": [
                        7404109,
                        0
                    ]
                }
            ],
            "guide": {
                "type": "QUEST_GUIDE_LOCATION",
                "param": [
                    "[3_4600:5043.990,499.263,4015.100]",
                    "45"
                ],
                "guideScene": 3
            },
            "guideHint": {
                "KPOGPNLFAAE": ""
            },
            "isRewind": true,
            "finishExec": [
                {
                    "type": "QUEST_EXEC_UNREGISTER_DYNAMIC_GROUP",
                    "param": [
                        "133409384",
                        "0"
                    ]
                }
            ],
            "versionBegin": "",
            "versionEnd": ""
        },
        {
            "subId": 7404110,
            "mainId": 74041,
            "order": 12,
            "descTextMapHash": 4240794924,
            "finishCond": [
                {
                    "type": "QUEST_CONTENT_LUA_NOTIFY",
                    "param": [
                        0,
                        0
                    ],
                    "count": 1
                }
            ],
            "guide": {
                "type": "QUEST_GUIDE_LOCATION",
                "param": [
                    "[3_4600:5043.990,499.263,4015.100]",
                    "20"
                ],
                "guideScene": 3
            },
            "guideHint": {
                "KPOGPNLFAAE": ""
            },
            "finishExec": [
                {
                    "type": "QUEST_EXEC_NOTIFY_GROUP_LUA",
                    "param": [
                        "3",
                        "133409197"
                    ]
                },
                {
                    "type": "QUEST_EXEC_REGISTER_DYNAMIC_GROUP",
                    "param": [
                        "3",
                        "133409531"
                    ]
                },
                {
                    "type": "QUEST_EXEC_UNREGISTER_DYNAMIC_GROUP",
                    "param": [
                        "133409044",
                        "0"
                    ]
                }
            ],
            "versionBegin": "",
            "versionEnd": ""
        },
        {
            "subId": 7404111,
            "mainId": 74041,
            "order": 13,
            "descTextMapHash": 565440076,
            "finishCond": [
                {
                    "type": "QUEST_CONTENT_FINISH_PLOT",
                    "param": [
                        7404111,
                        0
                    ]
                }
            ],
            "guide": {
                "type": "QUEST_GUIDE_LOCATION",
                "param": [
                    "[3_4607:4934.784,495.000,3973.766]"
                ],
                "guideScene": 3,
                "DHGKFEKLGFG": 3103,
                "BPPEGDNHINP": 31030007
            },
            "guideHint": {
                "KPOGPNLFAAE": ""
            },
            "isRewind": true,
            "finishExec": [
                {
                    "type": "QUEST_EXEC_UNREGISTER_DYNAMIC_GROUP",
                    "param": [
                        "133409354",
                        "1"
                    ]
                },
                {
                    "type": "QUEST_EXEC_UNREGISTER_DYNAMIC_GROUP",
                    "param": [
                        "133409531",
                        "1"
                    ]
                }
            ],
            "versionBegin": "",
            "versionEnd": ""
        },
        {
            "subId": 7404112,
            "mainId": 74041,
            "order": 14,
            "descTextMapHash": 4010658628,
            "finishCond": [
                {
                    "type": "QUEST_CONTENT_LUA_NOTIFY",
                    "param": [
                        0,
                        0
                    ],
                    "count": 1
                }
            ],
            "guide": {
                "type": "QUEST_GUIDE_LOCATION",
                "param": [
                    "[3_4609:4931.694,495.342,3966.028]",
                    "35"
                ],
                "guideScene": 3,
                "guideStyle": "QUEST_GUIDE_STYLE_POINT"
            },
            "guideHint": {
                "KPOGPNLFAAE": ""
            },
            "isRewind": true,
            "versionBegin": "",
            "versionEnd": ""
        },
        {
            "subId": 7404113,
            "mainId": 74041,
            "order": 15,
            "descTextMapHash": 3347252548,
            "finishCond": [
                {
                    "type": "QUEST_CONTENT_COMPLETE_TALK",
                    "param": [
                        7404113,
                        0
                    ]
                }
            ],
            "guide": {
                "type": "QUEST_GUIDE_LOCATION",
                "param": [
                    "[3_4609:4931.694,495.342,3966.028]",
                    "35"
                ],
                "guideScene": 3,
                "guideStyle": "QUEST_GUIDE_STYLE_POINT"
            },
            "guideHint": {
                "KPOGPNLFAAE": ""
            },
            "finishParent": true,
            "isRewind": true,
            "finishExec": [
                {
                    "type": "QUEST_EXEC_REFRESH_GROUP_SUITE",
                    "param": [
                        "3",
                        "133409335,1"
                    ]
                }
            ],
            "versionBegin": "",
            "versionEnd": ""
        },
        {
            "subId": 7404114,
            "mainId": 74041,
            "order": 5,
            "descTextMapHash": 1393941220,
            "finishCond": [
                {
                    "type": "QUEST_CONTENT_COMPLETE_TALK",
                    "param": [
                        7404114,
                        0
                    ]
                }
            ],
            "guide": {
                "type": "QUEST_GUIDE_LOCATION",
                "param": [
                    "[3_4724:5036.665,530.470,4006.189,0.000,221.936,0.000]",
                    "20"
                ],
                "guideScene": 3,
                "guideStyle": "QUEST_GUIDE_STYLE_POINT"
            },
            "guideHint": {
                "KPOGPNLFAAE": ""
            },
            "isRewind": true,
            "finishExec": [
                {
                    "type": "QUEST_EXEC_NOTIFY_GROUP_LUA",
                    "param": [
                        "3",
                        "133409028"
                    ]
                }
            ],
            "versionBegin": "",
            "versionEnd": ""
        },
        {
            "subId": 7404115,
            "mainId": 74041,
            "order": 10,
            "descTextMapHash": 1451813724,
            "finishCond": [
                {
                    "type": "QUEST_CONTENT_COMPLETE_TALK",
                    "param": [
                        7404106,
                        0
                    ]
                }
            ],
            "guide": {
                "type": "QUEST_GUIDE_LOCATION",
                "param": [
                    "[3_4597:5044.128,521.623,4015.290]",
                    "15"
                ],
                "guideScene": 3,
                "guideStyle": "QUEST_GUIDE_STYLE_POINT"
            },
            "guideHint": {
                "KPOGPNLFAAE": ""
            },
            "isRewind": true,
            "versionBegin": "",
            "versionEnd": ""
        }
    ],
    "talks": [
        {
            "id": 7404101,
            "beginWay": "TALK_BEGIN_MANUAL",
            "activeMode": "PLAY_MODE_HOST",
            "beginCond": [
                {
                    "type": "QUEST_COND_STATE_EQUAL",
                    "param": [
                        "7404101",
                        "2"
                    ]
                }
            ],
            "priority": 5,
            "initDialog": 740410101,
            "npcId": [
                5224
            ],
            "performCfg": "QuestDialogue/WQ/Fontaine_74041/Q7404101",
            "heroTalk": "TALK_HERO_MAIN",
            "questId": 74041,
            "assetIndex": 15901598241526273600,
            "prePerformCfg": "",
            "EIPOLMFCODP": [
                "[3_4683:4762.180,531.559,4261.440,0.000,354.831,0.000]",
                "[3_6371:4762.643,531.559,4263.227,0.000,191.587,0.000]",
                "[3_6372:4761.840,531.559,4262.950,0.000,176.090,0.000]"
            ]
        },
        {
            "id": 7404102,
            "beginWay": "TALK_BEGIN_MANUAL",
            "activeMode": "PLAY_MODE_HOST",
            "beginCond": [
                {
                    "type": "QUEST_COND_STATE_EQUAL",
                    "param": [
                        "7404101",
                        "2"
                    ]
                },
                {
                    "type": "QUEST_COND_QUEST_GLOBAL_VAR_EQUAL",
                    "param": [
                        "7401402",
                        "1"
                    ]
                }
            ],
            "priority": 6,
            "initDialog": 740410201,
            "npcId": [
                5224
            ],
            "performCfg": "QuestDialogue/WQ/Fontaine_74041/Q7404102",
            "heroTalk": "TALK_HERO_MAIN",
            "questId": 74041,
            "assetIndex": 402008438320141134,
            "prePerformCfg": "",
            "talkMarkType": "TALK_MARK_COMMON",
            "EIPOLMFCODP": [
                "[3_4683:4762.180,531.559,4261.440,0.000,354.831,0.000]",
                "[3_6371:4762.643,531.559,4263.227,0.000,191.587,0.000]",
                "[3_6372:4761.840,531.559,4262.950,0.000,176.090,0.000]"
            ]
        },
        {
            "id": 7404103,
            "beginWay": "TALK_BEGIN_AUTO",
            "activeMode": "PLAY_MODE_HOST",
            "beginCond": [
                {
                    "type": "QUEST_COND_STATE_EQUAL",
                    "param": [
                        "99902",
                        "3"
                    ]
                }
            ],
            "priority": 5,
            "initDialog": 740410301,
            "npcId": [
                21038
            ],
            "performCfg": "QuestDialogue/WQ/Fontaine_74041/Q7404103",
            "questId": 74041,
            "assetIndex": 17407512104580275734,
            "prePerformCfg": ""
        },
        {
            "id": 7404105,
            "beginWay": "TALK_BEGIN_MANUAL",
            "activeMode": "PLAY_MODE_HOST",
            "priority": 5,
            "initDialog": 740410501,
            "performCfg": "",
            "heroTalk": "TALK_HERO_MAIN",
            "questId": 74041,
            "assetIndex": 10788183248596822607,
            "prePerformCfg": ""
        },
        {
            "id": 7404106,
            "beginWay": "TALK_BEGIN_MANUAL",
            "activeMode": "PLAY_MODE_HOST",
            "beginCond": [
                {
                    "type": "QUEST_COND_STATE_EQUAL",
                    "param": [
                        "7404115",
                        "2"
                    ]
                }
            ],
            "priority": 5,
            "initDialog": 740410601,
            "npcId": [
                5224,
                21071
            ],
            "performCfg": "QuestDialogue/WQ/Fontaine_74041/Q7404106",
            "heroTalk": "TALK_HERO_MAIN",
            "questId": 74041,
            "assetIndex": 609459397017397271,
            "prePerformCfg": "",
            "EIPOLMFCODP": [
                "[3_4687:5046.141,521.590,4015.749,0.000,261.257,0.000]",
                "[3_4689:5045.165,521.600,4020.399,0.000,176.626,0.000]",
                "[3_4696:5044.692,521.692,4016.046,0.000,222.335,0.000]",
                "[3_6369:5045.966,521.689,4014.979,0.000,296.731,0.000]"
            ]
        },
        {
            "id": 7404113,
            "beginWay": "TALK_BEGIN_MANUAL",
            "activeMode": "PLAY_MODE_HOST",
            "beginCond": [
                {
                    "type": "QUEST_COND_STATE_EQUAL",
                    "param": [
                        "7404113",
                        "2"
                    ]
                }
            ],
            "priority": 5,
            "initDialog": 740411301,
            "npcId": [
                21071,
                5224
            ],
            "performCfg": "QuestDialogue/WQ/Fontaine_74041/Q7404113",
            "heroTalk": "TALK_HERO_MAIN",
            "questId": 74041,
            "assetIndex": 8719431903908309376,
            "prePerformCfg": "",
            "EIPOLMFCODP": [
                "[3_4691:4932.674,495.327,3968.959,0.000,229.021,0.000]",
                "[3_4699:4931.515,495.342,3969.480,0.000,184.998,0.000]",
                "[3_4700:4930.665,495.328,3967.136,0.000,36.792,0.000]",
                "[3_4845:4931.681,495.167,3966.649]",
                "[3_6370:4932.990,495.314,3968.181,0.000,248.036,0.000]"
            ]
        },
        {
            "id": 7404114,
            "beginWay": "TALK_BEGIN_MANUAL",
            "activeMode": "PLAY_MODE_HOST",
            "beginCond": [
                {
                    "type": "QUEST_COND_STATE_EQUAL",
                    "param": [
                        "7404114",
                        "2"
                    ]
                }
            ],
            "priority": 5,
            "initDialog": 740411401,
            "npcId": [
                5224
            ],
            "performCfg": "QuestDialogue/WQ/Fontaine_74041/Q7404114",
            "heroTalk": "TALK_HERO_MAIN",
            "questId": 74041,
            "assetIndex": 10929266482837718098,
            "prePerformCfg": "",
            "EIPOLMFCODP": [
                "[3_4685:5036.650,530.390,4007.357,0.000,132.229,0.000]",
                "[3_4686:5038.086,530.400,4005.948,0.000,306.601,0.000]",
                "[3_6373:5037.565,530.354,4005.347,0.000,348.353,0.000]"
            ]
        },
        {
            "id": 7404115,
            "beginWay": "TALK_BEGIN_MANUAL",
            "activeMode": "PLAY_MODE_HOST",
            "priority": 5,
            "initDialog": 740411501,
            "performCfg": "",
            "heroTalk": "TALK_HERO_MAIN",
            "questId": 74041,
            "assetIndex": 843663733288539804,
            "prePerformCfg": ""
        },
        {
            "id": 7404116,
            "beginWay": "TALK_BEGIN_MANUAL",
            "activeMode": "PLAY_MODE_HOST",
            "initDialog": 740411601,
            "performCfg": "",
            "questId": 74041,
            "assetIndex": 2439625790575403217,
            "prePerformCfg": ""
        }
    ],
    "preloadLuaList": [
        17044292720297099820,
        7246690137363349643,
        10147198330961379747,
        4117823881206649845
    ],
    "AILPOGENMJB": [
        7081843251208787780
    ],
    "dialogList": [
        {
            "id": 740411314,
            "talkRole": {
                "type": "TALK_ROLE_NPC",
                "id": "21071"
            },
            "talkAssetPath": "",
            "talkAssetPathAlter": "",
            "talkAudioName": "",
            "actionBefore": "",
            "actionWhile": "",
            "actionAfter": "",
            "optionIcon": ""
        },
        {
            "id": 740411701,
            "talkRole": {
                "type": "TALK_ROLE_BLACK_SCREEN",
                "id": ""
            },
            "talkContentTextMapHash": 395191466,
            "talkAssetPath": "",
            "talkAssetPathAlter": "",
            "talkAudioName": "",
            "actionBefore": "",
            "actionWhile": "",
            "actionAfter": "",
            "optionIcon": ""
        }
    ]
}