{
    "id": 74133,
    "series": 74001,
    "type": "WQ",
    "mainQuestTag": "MAINQUEST_TAG_RANK_ZERO_WQ",
    "activeMode": "PLAY_MODE_ALL",
    "titleTextMapHash": 2835587015,
    "luaPath": "Actor/Quest/WQ74133",
    "showType": "QUEST_HIDDEN",
    "subQuests": [
        {
            "subId": 7413301,
            "mainId": 74133,
            "order": 1,
            "descTextMapHash": 174886516,
            "showType": "QUEST_HIDDEN",
            "finishCond": [
                {
                    "type": "QUEST_CONTENT_GADGET_STATE_CHANGE",
                    "param": [
                        133401208,
                        208003
                    ]
                }
            ],
            "guide": {},
            "showGuide": "QUEST_GUIDE_ITEM_DISABLE",
            "guideHint": {
                "KPOGPNLFAAE": ""
            },
            "finishParent": true,
            "isRewind": true,
            "versionBegin": "",
            "versionEnd": ""
        }
    ]
}