{
    "id": 74158,
    "type": "WQ",
    "activeMode": "PLAY_MODE_ALL",
    "titleTextMapHash": 1096917895,
    "luaPath": "Actor/Quest/WQ74158",
    "showType": "QUEST_HIDDEN",
    "subQuests": [
        {
            "subId": 7415801,
            "mainId": 74158,
            "order": 1,
            "showType": "QUEST_HIDDEN",
            "finishCond": [
                {
                    "type": "QUEST_CONTENT_FINISH_PLOT",
                    "param": [
                        7415801,
                        0
                    ]
                }
            ],
            "guide": {},
            "guideHint": {
                "KPOGPNLFAAE": ""
            },
            "finishParent": true,
            "isRewind": true,
            "versionBegin": "",
            "versionEnd": ""
        }
    ]
}