{
    "id": 74160,
    "type": "WQ",
    "activeMode": "PLAY_MODE_ALL",
    "titleTextMapHash": 1599905487,
    "descTextMapHash": 9166046,
    "luaPath": "Actor/Quest/WQ74160",
    "showType": "QUEST_HIDDEN",
    "subQuests": [
        {
            "subId": 7416001,
            "mainId": 74160,
            "order": 1,
            "descTextMapHash": 3038670132,
            "showType": "QUEST_HIDDEN",
            "finishCond": [
                {
                    "type": "QUEST_CONTENT_QUEST_STATE_EQUAL",
                    "param": [
                        7411645,
                        3
                    ]
                }
            ],
            "guide": {},
            "guideHint": {
                "KPOGPNLFAAE": ""
            },
            "finishParent": true,
            "isRewind": true,
            "versionBegin": "",
            "versionEnd": ""
        }
    ],
    "NKMGAAOIGIL": true
}