{
    "id": 74659,
    "type": "WQ",
    "titleTextMapHash": 2507167831,
    "descTextMapHash": 506962918,
    "luaPath": "Actor/Quest/WQ74659",
    "subQuests": [
        {
            "subId": 7465901,
            "mainId": 74659,
            "order": 1,
            "descTextMapHash": 3731839204,
            "finishCond": [
                {
                    "type": "QUEST_CONTENT_LUA_NOTIFY",
                    "param": [
                        0,
                        0
                    ],
                    "count": 1
                }
            ],
            "guide": {
                "type": "QUEST_GUIDE_LOCATION",
                "autoGuide": "QUEST_GUIDE_AUTO_ENABLE",
                "param": [
                    "[3_5239:2275.418,462.955,4551.133]",
                    "30"
                ],
                "guideScene": 3,
                "guideStyle": "QUEST_GUIDE_STYLE_POINT",
                "guideLayer": "QUEST_GUIDE_LAYER_SCENE"
            },
            "guideHint": {
                "KPOGPNLFAAE": ""
            },
            "finishParent": true,
            "isRewind": true,
            "finishExec": [
                {
                    "type": "QUEST_EXEC_UNREGISTER_DYNAMIC_GROUP",
                    "param": [
                        "133403290 "
                    ]
                }
            ],
            "versionBegin": "",
            "versionEnd": ""
        }
    ]
}