{
    "luaDataPath": "",
    "dontUseDefaultFinish": true,
    "entityBan": "",
    "disableNpcLod": true,
    "protectNpcMobileLod": true,
    "MNHFNFDCEFG": 1,
    "startFade": {
        "startFadeOutDuration": 0.0
    },
    "endFade": {
        "startFadeOutDuration": 0.0
    },
    "actors": [
        {
            "alias": "Avatar",
            "visible": true,
            "bornPointName": "",
            "relativePosType": "AVATAR_NEW",
            "relativePosNpcAlias": "",
            "bindMovingTargetKey": ""
        },
        {
            "configID": 9528,
            "alias": "9528",
            "visible": true,
            "bornPointName": "",
            "relativePosType": "AVATAR_NEW",
            "relativePosNpcAlias": "",
            "bindMovingTargetKey": ""
        }
    ],
    "group": [
        [
            {
                "$type": "MoleMole.Config.ConfigTimeProtectAction",
                "type": "TIME_PROTECT",
                "duration": 1.2000000476837158,
                "actionId": 104
            },
            {
                "$type": "MoleMole.Config.ConfigBlackScreenAction",
                "type": "BLACK_SCREEN",
                "duration": 3.0,
                "actionId": 106,
                "durationToBlack": 0.5,
                "durationKeepBlack": 2.0,
                "durationFromBlack": 0.5,
                "inteePos": "",
                "textMapID": "",
                "useTextFade": true
            },
            {
                "$type": "MoleMole.Config.ConfigUITriggerInterAction",
                "type": "UI_TRIGGER",
                "actionId": 110,
                "contextName": "GcgCardGroupName",
                "param": "1"
            },
            {
                "$type": "MoleMole.Config.ConfigRequestMsgAction",
                "type": "REQUEST_MSG",
                "actionId": 111,
                "msgName": "GCGTCInvite",
                "param": ""
            },
            {
                "$type": "MoleMole.Config.ConfigTeleportToAction",
                "type": "TELEPORT_TO",
                "delayTime": 0.5,
                "aliasList": [
                    "Avatar"
                ],
                "actionId": 112,
                "forward": {
                    "z": 1.0
                },
                "openLongDisTeleport": true,
                "posSelectType": "GCG_PLAYER",
                "posBindMovingTargetKey": "",
                "forwardBindMovingTargetKey": ""
            },
            {
                "$type": "MoleMole.Config.ConfigSitOrStandAction",
                "type": "SIT_OR_STAND",
                "delayTime": 1.7999999523162842,
                "aliasList": [
                    "Avatar"
                ],
                "actionId": 113,
                "isSit": true,
                "banResetFreestyle": true
            },
            {
                "$type": "BCJBNCJOPCE",
                "type": "CAMERA_MOVE",
                "delayTime": 2.0,
                "duration": 0.10000000149011612,
                "actionId": 118,
                "KNAICGCGOHN": "RELATIVE_TO_INTEE_ONLY",
                "AKFGKKEOEFA": {
                    "x": -0.014000000432133675,
                    "y": 1.5670000314712524,
                    "z": 0.6470000147819519
                },
                "KOPGEAIDOOE": "RELATIVE_TO_INTEE_FORWARD",
                "NGEBMAEFFGJ": {
                    "x": -0.0010000000474974513,
                    "y": 1.5839999914169312,
                    "z": -0.3529999852180481
                },
                "LIGHLBKBDEI": 36.0,
                "GFIOJGJJGCN": 6,
                "ABAEPHOGOFF": "EaseInOutCubic",
                "KFDBMBFFANN": {},
                "IEJBKHHEJEN": true,
                "GDHBGCNKHDE": 0.00800000037997961,
                "CEDHIBLHMKP": false,
                "KIPMIDIKECP": "",
                "ANFHNPOCMNI": true,
                "BDLGHOJPJHD": "",
                "AIEGOKPKONJ": [
                    8010,
                    8011,
                    8012,
                    8013,
                    8040,
                    8060
                ],
                "GBADBMIGABI": {
                    "y": 1.0670000314712524,
                    "z": 0.6470000147819519
                },
                "HHKDGEAKFDE": {
                    "y": 1.0839999914169312,
                    "z": -0.3529999852180481
                },
                "LCOJGFEOLCK": "",
                "BBBGAEDCJEL": ""
            }
        ],
        [
            {
                "$type": "CCEEIGNAILH",
                "type": "DIALOG",
                "aliasList": [
                    "9528"
                ],
                "actionId": 108,
                "KICBIOMGHIN": 695281201,
                "PNCCODDABKI": 0.5
            },
            {
                "$type": "DNAEECJNBFB",
                "type": "EMO_SYNC",
                "aliasList": [
                    "9528"
                ],
                "actionId": 114,
                "EOGJDJKPPGE": "Cs_Emo_Avatar_Simple_Common_Set/Cs_Emo_Avatar_Talk/Cs_Emo_GCG/Cs_Emo_Avatar_Eula/Cs_Emo_695281201",
                "IHCBGPABDLE": "",
                "CIKPDMODFPL": "",
                "HDIAHFFHNGE": "",
                "BOAAGJEEFDD": "",
                "PFDPJKHPADE": "",
                "DALINBJAHOC": [
                    10839532958557556931,
                    1160814514959853092,
                    17908438441386716073,
                    9747180832233348235
                ]
            },
            {
                "$type": "IBPNIIGAIPF",
                "type": "LOOK_AT",
                "delayTime": 1.1790000200271606,
                "aliasList": [
                    "9528"
                ],
                "actionId": 115,
                "GGIENKFBOGL": true,
                "MHMKIICCEDG": {
                    "y": 16.02899932861328
                },
                "NDOMJCOFKDJ": 0.5,
                "KIPMIDIKECP": "",
                "AHLPNEGAKGG": "NONE",
                "FGPHOPBEJDE": true,
                "HJJAFGPMJNJ": "",
                "AOFBAGFCGPJ": ""
            },
            {
                "$type": "IBPNIIGAIPF",
                "type": "LOOK_AT",
                "delayTime": 2.7230000495910645,
                "aliasList": [
                    "9528"
                ],
                "actionId": 116,
                "GGIENKFBOGL": true,
                "NDOMJCOFKDJ": 0.5,
                "KIPMIDIKECP": "",
                "FGPHOPBEJDE": true,
                "HJJAFGPMJNJ": "",
                "AOFBAGFCGPJ": ""
            }
        ],
        [
            {
                "$type": "MoleMole.Config.ConfigTimeProtectAction",
                "type": "TIME_PROTECT",
                "duration": 0.10000000149011612,
                "actionId": 105
            },
            {
                "$type": "IBPNIIGAIPF",
                "type": "LOOK_AT",
                "aliasList": [
                    "9528"
                ],
                "actionId": 117,
                "GGIENKFBOGL": true,
                "NDOMJCOFKDJ": 0.5,
                "KIPMIDIKECP": "",
                "FGPHOPBEJDE": true,
                "HJJAFGPMJNJ": "",
                "AOFBAGFCGPJ": ""
            }
        ]
    ],
    "groupId": [
        {
            "grpId": 1107237177,
            "nextGrpId": 1107237178
        },
        {
            "index": 1,
            "grpId": 1107237178,
            "nextGrpId": 1107237179
        },
        {
            "index": 2,
            "grpId": 1107237179,
            "nextGrpId": 1107237180
        }
    ],
    "freeStyleDic": {
        "9528": []
    }
}