{
    "luaDataPath": "",
    "dontUseDefaultFinish": true,
    "startBlackKeepTime": 1.5,
    "entityBan": "",
    "disableNpcLod": true,
    "protectNpcMobileLod": true,
    "IJJLHOAFLEC": [
        {
            "isBlack": true,
            "entityType": "Gadget",
            "entityIds": [
                70330500,
                70360001
            ]
        },
        {
            "isBlack": true,
            "entityType": "NPC",
            "entityIds": [
                21129
            ]
        }
    ],
    "MNHFNFDCEFG": 7,
    "startFade": {
        "startFadeInDuration": 1.0,
        "startFadeOutDuration": 0.5
    },
    "endFade": {
        "startFadeOutDuration": 2.0
    },
    "actors": [
        {
            "alias": "Avatar",
            "visible": true,
            "bornPointName": "",
            "relativePos": {
                "x": 1.434999942779541,
                "y": 2.934999942779541,
                "z": 3.0869998931884766
            },
            "relativeRot": {
                "x": 1.7990000247955322,
                "y": 191.43499755859375
            },
            "relativePosType": "AVATAR_NEW",
            "relativePosNpcAlias": "",
            "bindMovingTargetKey": "MovingTarget0",
            "bornRelativeMovingTarget": true
        },
        {
            "alias": "AvatarNpc",
            "visible": true,
            "bornPointName": "",
            "relativePos": {
                "x": 1.2599999904632568,
                "y": 2.8970000743865967,
                "z": 2.3329999446868896
            },
            "relativeRot": {
                "y": 236.74600219726562
            },
            "removeActorType": "NEW_REMOVE",
            "relativePosType": "AVATAR_NEW",
            "relativePosNpcAlias": "",
            "bindMovingTargetKey": "MovingTarget0",
            "bornRelativeMovingTarget": true
        },
        {
            "configID": 1005,
            "alias": "1005",
            "visible": true,
            "bornPointName": "",
            "relativePos": {
                "x": 1.2109999656677246,
                "y": 3.071000099182129,
                "z": 0.4320000112056732
            },
            "relativeRot": {
                "x": 358.2619934082031,
                "y": 302.48199462890625,
                "z": 0.8479999899864197
            },
            "removeActorType": "NEW_REMOVE",
            "relativePosType": "AVATAR_NEW",
            "relativePosNpcAlias": "",
            "bindMovingTargetKey": "MovingTarget0",
            "bornRelativeMovingTarget": true
        },
        {
            "configID": 5268,
            "alias": "5268",
            "visible": true,
            "bornPointName": "",
            "relativePos": {
                "x": -0.43799999356269836,
                "y": 2.7769999504089355,
                "z": 0.9309999942779541
            },
            "forceCreateDaily": true,
            "relativePosType": "AVATAR_NEW",
            "relativePosNpcAlias": "",
            "bindMovingTargetKey": "MovingTarget0",
            "bornRelativeMovingTarget": true
        }
    ],
    "group": [
        [
            {
                "$type": "MoleMole.Config.ConfigTimeProtectAction",
                "type": "TIME_PROTECT",
                "duration": 0.5,
                "actionId": 104
            },
            {
                "$type": "MoleMole.Config.ConfigVisibleInterAction",
                "type": "VISIBLE",
                "aliasList": [
                    "Avatar"
                ],
                "actionId": 197,
                "extraParam": ""
            },
            {
                "$type": "MoleMole.Config.ConfigPlayerNPCEnergyTypeAction",
                "type": "SET_PLAYER_NPC_ENERGY_TYPE",
                "aliasList": [
                    "AvatarNpc"
                ],
                "actionId": 213,
                "setHeroEngergyType": true
            },
            {
                "$type": "MoleMole.Config.ConfigVisibleInterAction",
                "type": "VISIBLE",
                "aliasList": [
                    "1005"
                ],
                "actionId": 212,
                "target": "ENTITY_NODE",
                "extraParam": "Eff_NPC_Kanban_Paimon_Standby"
            },
            {
                "$type": "MoleMole.Config.ConfigLuaAction",
                "type": "LUA_ACTION",
                "delayTime": 0.05000000074505806,
                "duration": 0.10000000149011612,
                "actionId": 101,
                "invoke": true,
                "invokeAlias": "74800",
                "invokeParam": 1
            },
            {
                "$type": "MoleMole.Config.ConfigTeleportToAction",
                "type": "TELEPORT_TO",
                "delayTime": 0.20000000298023224,
                "aliasList": [
                    "Avatar"
                ],
                "actionId": 210,
                "flag": 4,
                "position": {
                    "x": 1.0570000410079956,
                    "y": 3.068000078201294,
                    "z": 1.6299999952316284
                },
                "forward": {
                    "x": -2.140000104904175,
                    "y": 0.0949999988079071,
                    "z": -1.6380000114440918
                },
                "openLongDisTeleport": true,
                "syncForward": true,
                "posBindMovingTargetKey": "MovingTarget0",
                "forwardBindMovingTargetKey": "MovingTarget0"
            },
            {
                "$type": "MoleMole.Config.ConfigTeleportToAction",
                "type": "TELEPORT_TO",
                "delayTime": 0.20000000298023224,
                "aliasList": [
                    "AvatarNpc"
                ],
                "actionId": 206,
                "flag": 4,
                "position": {
                    "x": 1.0570000410079956,
                    "y": 3.068000078201294,
                    "z": 1.6299999952316284
                },
                "forward": {
                    "x": -2.140000104904175,
                    "y": 0.0949999988079071,
                    "z": -1.6380000114440918
                },
                "openLongDisTeleport": true,
                "syncForward": true,
                "posBindMovingTargetKey": "MovingTarget0",
                "forwardBindMovingTargetKey": "MovingTarget0"
            },
            {
                "$type": "MoleMole.Config.ConfigTeleportToAction",
                "type": "TELEPORT_TO",
                "delayTime": 0.20000000298023224,
                "aliasList": [
                    "1005"
                ],
                "actionId": 201,
                "flag": 4,
                "position": {
                    "x": 1.090000033378601,
                    "y": 3.068000078201294,
                    "z": 0.5149999856948853
                },
                "forward": {
                    "x": -1.475000023841858,
                    "y": 0.0949999988079071,
                    "z": 0.6380000114440918
                },
                "openLongDisTeleport": true,
                "posBindMovingTargetKey": "MovingTarget0",
                "forwardBindMovingTargetKey": "MovingTarget0"
            },
            {
                "$type": "MoleMole.Config.ConfigTeleportToAction",
                "type": "TELEPORT_TO",
                "delayTime": 0.20000000298023224,
                "aliasList": [
                    "5268"
                ],
                "actionId": 200,
                "flag": 4,
                "position": {
                    "x": -0.43799999356269836,
                    "y": 2.7769999504089355,
                    "z": 0.9309999942779541
                },
                "forward": {
                    "x": -0.3100000023841858,
                    "y": 0.26499998569488525,
                    "z": -0.28999999165534973
                },
                "openLongDisTeleport": true,
                "syncForward": true,
                "posBindMovingTargetKey": "MovingTarget0",
                "forwardBindMovingTargetKey": "MovingTarget0"
            },
            {
                "$type": "MoleMole.Config.ConfigCameraFocusNewInterAction",
                "type": "CAMERA_FOCUS_NEW",
                "delayTime": 0.30000001192092896,
                "duration": 0.10000000149011612,
                "actionId": 185,
                "focusExtendedSetting": {
                    "duration": 0.10000000149011612,
                    "refPosData": {
                        "type": "TARGET_NPC",
                        "posOffset": {
                            "y": 1.100000023841858
                        },
                        "npcAlias": "Avatar"
                    },
                    "tarPosData": {
                        "type": "TARGET_NPC",
                        "posOffset": {
                            "y": 1.100000023841858
                        },
                        "npcAlias": "5268"
                    }
                },
                "checkMovingPlatform": true
            }
        ],
        [
            {
                "$type": "IBPNIIGAIPF",
                "type": "LOOK_AT",
                "aliasList": [
                    "AvatarNpc"
                ],
                "actionId": 189,
                "flag": 64,
                "GGIENKFBOGL": true,
                "NDOMJCOFKDJ": 0.5,
                "KIPMIDIKECP": "1005",
                "FGPHOPBEJDE": true,
                "PEIIOFIBMAK": 60.0,
                "HJJAFGPMJNJ": "",
                "AOFBAGFCGPJ": "MovingTarget0"
            },
            {
                "$type": "CCEEIGNAILH",
                "type": "DIALOG",
                "aliasList": [
                    "1005"
                ],
                "actionId": 107,
                "KICBIOMGHIN": 748000801,
                "PNCCODDABKI": 0.5
            },
            {
                "$type": "IBPNIIGAIPF",
                "type": "LOOK_AT",
                "aliasList": [
                    "1005"
                ],
                "actionId": 171,
                "flag": 64,
                "GGIENKFBOGL": true,
                "NDOMJCOFKDJ": 0.5,
                "KIPMIDIKECP": "5268",
                "FGPHOPBEJDE": true,
                "PEIIOFIBMAK": 60.0,
                "HJJAFGPMJNJ": "",
                "AOFBAGFCGPJ": "MovingTarget0"
            },
            {
                "$type": "KCBOGFFHPBD",
                "type": "BODY_LANG",
                "aliasList": [
                    "1005"
                ],
                "actionId": 174,
                "AHGOBCDHCMC": true,
                "FHLAMNNHMFA": true,
                "KCEHDJLKIAL": false,
                "KCOLHJBDILK": true,
                "AOFEDPBOOIE": ""
            },
            {
                "$type": "KCBOGFFHPBD",
                "type": "BODY_LANG",
                "aliasList": [
                    "5268"
                ],
                "actionId": 175,
                "GPIEDGOMCGL": 4190,
                "FHLAMNNHMFA": true,
                "KCEHDJLKIAL": false,
                "KCOLHJBDILK": true,
                "AOFEDPBOOIE": ""
            }
        ],
        [
            {
                "$type": "CCEEIGNAILH",
                "type": "DIALOG",
                "aliasList": [
                    "1005"
                ],
                "actionId": 109,
                "KICBIOMGHIN": 748000802,
                "PNCCODDABKI": 0.5
            },
            {
                "$type": "KCBOGFFHPBD",
                "type": "BODY_LANG",
                "aliasList": [
                    "1005"
                ],
                "actionId": 172,
                "GPIEDGOMCGL": 1190,
                "FHLAMNNHMFA": true,
                "KCEHDJLKIAL": false,
                "KCOLHJBDILK": true,
                "AOFEDPBOOIE": ""
            }
        ],
        [
            {
                "$type": "IBPNIIGAIPF",
                "type": "LOOK_AT",
                "aliasList": [
                    "AvatarNpc"
                ],
                "actionId": 190,
                "flag": 64,
                "GGIENKFBOGL": true,
                "NDOMJCOFKDJ": 0.5,
                "KIPMIDIKECP": "5268",
                "FGPHOPBEJDE": true,
                "PEIIOFIBMAK": 60.0,
                "HJJAFGPMJNJ": "",
                "AOFBAGFCGPJ": "MovingTarget0"
            },
            {
                "$type": "IBPNIIGAIPF",
                "type": "LOOK_AT",
                "aliasList": [
                    "1005"
                ],
                "actionId": 138,
                "flag": 64,
                "GGIENKFBOGL": true,
                "NDOMJCOFKDJ": 0.5,
                "KIPMIDIKECP": "5268",
                "FGPHOPBEJDE": true,
                "PEIIOFIBMAK": 60.0,
                "HJJAFGPMJNJ": "",
                "AOFBAGFCGPJ": "MovingTarget0"
            },
            {
                "$type": "KCBOGFFHPBD",
                "type": "BODY_LANG",
                "aliasList": [
                    "1005"
                ],
                "actionId": 173,
                "AHGOBCDHCMC": true,
                "FHLAMNNHMFA": true,
                "KCEHDJLKIAL": false,
                "KCOLHJBDILK": true,
                "AOFEDPBOOIE": ""
            },
            {
                "$type": "CCEEIGNAILH",
                "type": "DIALOG",
                "aliasList": [
                    "5268"
                ],
                "actionId": 111,
                "KICBIOMGHIN": 748000803,
                "PNCCODDABKI": 0.5
            }
        ],
        [
            {
                "$type": "IBPNIIGAIPF",
                "type": "LOOK_AT",
                "aliasList": [
                    "AvatarNpc"
                ],
                "actionId": 191,
                "flag": 64,
                "GGIENKFBOGL": true,
                "NDOMJCOFKDJ": 0.5,
                "KIPMIDIKECP": "1005",
                "FGPHOPBEJDE": true,
                "PEIIOFIBMAK": 60.0,
                "HJJAFGPMJNJ": "",
                "AOFBAGFCGPJ": "MovingTarget0"
            },
            {
                "$type": "CCEEIGNAILH",
                "type": "DIALOG",
                "aliasList": [
                    "1005"
                ],
                "actionId": 113,
                "KICBIOMGHIN": 748000804,
                "PNCCODDABKI": 0.5
            },
            {
                "$type": "KCBOGFFHPBD",
                "type": "BODY_LANG",
                "aliasList": [
                    "1005"
                ],
                "actionId": 176,
                "GPIEDGOMCGL": 1230,
                "FHLAMNNHMFA": true,
                "KCEHDJLKIAL": false,
                "KCOLHJBDILK": true,
                "AOFEDPBOOIE": ""
            },
            {
                "$type": "IBPNIIGAIPF",
                "type": "LOOK_AT",
                "aliasList": [
                    "5268"
                ],
                "actionId": 140,
                "flag": 64,
                "GGIENKFBOGL": true,
                "NDOMJCOFKDJ": 0.5,
                "KIPMIDIKECP": "1005",
                "FGPHOPBEJDE": true,
                "PEIIOFIBMAK": 60.0,
                "HJJAFGPMJNJ": "",
                "AOFBAGFCGPJ": "MovingTarget0"
            }
        ],
        [
            {
                "$type": "IBPNIIGAIPF",
                "type": "LOOK_AT",
                "aliasList": [
                    "AvatarNpc"
                ],
                "actionId": 192,
                "flag": 64,
                "GGIENKFBOGL": true,
                "NDOMJCOFKDJ": 0.5,
                "KIPMIDIKECP": "5268",
                "FGPHOPBEJDE": true,
                "PEIIOFIBMAK": 60.0,
                "HJJAFGPMJNJ": "",
                "AOFBAGFCGPJ": "MovingTarget0"
            },
            {
                "$type": "IBPNIIGAIPF",
                "type": "LOOK_AT",
                "aliasList": [
                    "1005"
                ],
                "actionId": 142,
                "flag": 64,
                "GGIENKFBOGL": true,
                "NDOMJCOFKDJ": 0.5,
                "KIPMIDIKECP": "5268",
                "FGPHOPBEJDE": true,
                "PEIIOFIBMAK": 60.0,
                "HJJAFGPMJNJ": "",
                "AOFBAGFCGPJ": "MovingTarget0"
            },
            {
                "$type": "KCBOGFFHPBD",
                "type": "BODY_LANG",
                "aliasList": [
                    "1005"
                ],
                "actionId": 177,
                "AHGOBCDHCMC": true,
                "FHLAMNNHMFA": true,
                "KCEHDJLKIAL": false,
                "KCOLHJBDILK": true,
                "AOFEDPBOOIE": ""
            },
            {
                "$type": "CCEEIGNAILH",
                "type": "DIALOG",
                "aliasList": [
                    "5268"
                ],
                "actionId": 115,
                "KICBIOMGHIN": 748000805,
                "PNCCODDABKI": 0.5
            }
        ],
        [
            {
                "$type": "CCEEIGNAILH",
                "type": "DIALOG",
                "aliasList": [
                    "5268"
                ],
                "actionId": 117,
                "KICBIOMGHIN": 748000806,
                "PNCCODDABKI": 0.5
            }
        ],
        [
            {
                "$type": "IBPNIIGAIPF",
                "type": "LOOK_AT",
                "aliasList": [
                    "AvatarNpc"
                ],
                "actionId": 193,
                "flag": 64,
                "GGIENKFBOGL": true,
                "NDOMJCOFKDJ": 0.5,
                "KIPMIDIKECP": "1005",
                "FGPHOPBEJDE": true,
                "PEIIOFIBMAK": 60.0,
                "HJJAFGPMJNJ": "",
                "AOFBAGFCGPJ": "MovingTarget0"
            },
            {
                "$type": "CCEEIGNAILH",
                "type": "DIALOG",
                "aliasList": [
                    "1005"
                ],
                "actionId": 119,
                "KICBIOMGHIN": 748000807,
                "PNCCODDABKI": 0.5
            },
            {
                "$type": "KCBOGFFHPBD",
                "type": "BODY_LANG",
                "aliasList": [
                    "1005"
                ],
                "actionId": 178,
                "GPIEDGOMCGL": 1150,
                "FHLAMNNHMFA": true,
                "KCEHDJLKIAL": false,
                "KCOLHJBDILK": true,
                "AOFEDPBOOIE": ""
            },
            {
                "$type": "IBPNIIGAIPF",
                "type": "LOOK_AT",
                "aliasList": [
                    "5268"
                ],
                "actionId": 144,
                "flag": 64,
                "GGIENKFBOGL": true,
                "NDOMJCOFKDJ": 0.5,
                "KIPMIDIKECP": "1005",
                "FGPHOPBEJDE": true,
                "PEIIOFIBMAK": 60.0,
                "HJJAFGPMJNJ": "",
                "AOFBAGFCGPJ": "MovingTarget0"
            }
        ],
        [
            {
                "$type": "IBPNIIGAIPF",
                "type": "LOOK_AT",
                "aliasList": [
                    "AvatarNpc"
                ],
                "actionId": 194,
                "flag": 64,
                "GGIENKFBOGL": true,
                "NDOMJCOFKDJ": 0.5,
                "KIPMIDIKECP": "5268",
                "FGPHOPBEJDE": true,
                "PEIIOFIBMAK": 60.0,
                "HJJAFGPMJNJ": "",
                "AOFBAGFCGPJ": "MovingTarget0"
            },
            {
                "$type": "IBPNIIGAIPF",
                "type": "LOOK_AT",
                "aliasList": [
                    "1005"
                ],
                "actionId": 146,
                "flag": 64,
                "GGIENKFBOGL": true,
                "NDOMJCOFKDJ": 0.5,
                "KIPMIDIKECP": "5268",
                "FGPHOPBEJDE": true,
                "PEIIOFIBMAK": 60.0,
                "HJJAFGPMJNJ": "",
                "AOFBAGFCGPJ": "MovingTarget0"
            },
            {
                "$type": "CCEEIGNAILH",
                "type": "DIALOG",
                "aliasList": [
                    "5268"
                ],
                "actionId": 121,
                "KICBIOMGHIN": 748000808,
                "PNCCODDABKI": 0.5
            },
            {
                "$type": "KCBOGFFHPBD",
                "type": "BODY_LANG",
                "aliasList": [
                    "5268"
                ],
                "actionId": 205,
                "GPIEDGOMCGL": 4040,
                "FHLAMNNHMFA": true,
                "KCEHDJLKIAL": false,
                "KCOLHJBDILK": true,
                "AOFEDPBOOIE": ""
            }
        ],
        [
            {
                "$type": "CCEEIGNAILH",
                "type": "DIALOG",
                "aliasList": [
                    "5268"
                ],
                "actionId": 123,
                "KICBIOMGHIN": 748000809,
                "PNCCODDABKI": 0.5
            }
        ],
        [
            {
                "$type": "CCEEIGNAILH",
                "type": "DIALOG",
                "aliasList": [
                    "5268"
                ],
                "actionId": 125,
                "KICBIOMGHIN": 748000810,
                "PNCCODDABKI": 0.5
            }
        ],
        [
            {
                "$type": "IBPNIIGAIPF",
                "type": "LOOK_AT",
                "aliasList": [
                    "AvatarNpc"
                ],
                "actionId": 195,
                "flag": 64,
                "GGIENKFBOGL": true,
                "NDOMJCOFKDJ": 0.5,
                "KIPMIDIKECP": "1005",
                "FGPHOPBEJDE": true,
                "PEIIOFIBMAK": 60.0,
                "HJJAFGPMJNJ": "",
                "AOFBAGFCGPJ": "MovingTarget0"
            },
            {
                "$type": "CCEEIGNAILH",
                "type": "DIALOG",
                "aliasList": [
                    "1005"
                ],
                "actionId": 127,
                "KICBIOMGHIN": 748000811,
                "PNCCODDABKI": 0.5
            },
            {
                "$type": "KCBOGFFHPBD",
                "type": "BODY_LANG",
                "aliasList": [
                    "1005"
                ],
                "actionId": 183,
                "GPIEDGOMCGL": 1150,
                "FHLAMNNHMFA": true,
                "KCOLHJBDILK": true,
                "AOFEDPBOOIE": ""
            },
            {
                "$type": "IBPNIIGAIPF",
                "type": "LOOK_AT",
                "aliasList": [
                    "5268"
                ],
                "actionId": 148,
                "flag": 64,
                "GGIENKFBOGL": true,
                "NDOMJCOFKDJ": 0.5,
                "KIPMIDIKECP": "1005",
                "FGPHOPBEJDE": true,
                "PEIIOFIBMAK": 60.0,
                "HJJAFGPMJNJ": "",
                "AOFBAGFCGPJ": "MovingTarget0"
            }
        ],
        [
            {
                "$type": "CCEEIGNAILH",
                "type": "DIALOG",
                "aliasList": [
                    "1005"
                ],
                "actionId": 129,
                "KICBIOMGHIN": 748000812,
                "PNCCODDABKI": 0.5
            },
            {
                "$type": "IBPNIIGAIPF",
                "type": "LOOK_AT",
                "aliasList": [
                    "1005"
                ],
                "actionId": 211,
                "flag": 64,
                "GGIENKFBOGL": true,
                "NDOMJCOFKDJ": 0.5,
                "KIPMIDIKECP": "AvatarNpc",
                "FGPHOPBEJDE": true,
                "PEIIOFIBMAK": 10.0,
                "HJJAFGPMJNJ": "",
                "AOFBAGFCGPJ": "MovingTarget0"
            }
        ],
        [
            {
                "$type": "CCEEIGNAILH",
                "type": "DIALOG",
                "aliasList": [
                    "1005"
                ],
                "actionId": 131,
                "KICBIOMGHIN": 748000813,
                "PNCCODDABKI": 0.5
            },
            {
                "$type": "KCBOGFFHPBD",
                "type": "BODY_LANG",
                "aliasList": [
                    "1005"
                ],
                "actionId": 184,
                "GPIEDGOMCGL": 1050,
                "FHLAMNNHMFA": true,
                "KCEHDJLKIAL": false,
                "KCOLHJBDILK": true,
                "AOFEDPBOOIE": ""
            }
        ],
        [
            {
                "$type": "MoleMole.Config.ConfigTimeProtectAction",
                "type": "TIME_PROTECT",
                "duration": 1.5,
                "actionId": 105
            },
            {
                "$type": "MoleMole.Config.ConfigSimpleBlackScreenAction",
                "type": "SIMPLE_BLACK_SCREEN",
                "actionId": 169,
                "durationToBlack": 0.5,
                "durationKeepBlack": 2.0,
                "durationFromBlack": 0.5,
                "textMapID": "",
                "useTextFade": true
            },
            {
                "$type": "BCJBNCJOPCE",
                "type": "CAMERA_MOVE",
                "delayTime": 0.5,
                "duration": 0.10000000149011612,
                "actionId": 170,
                "KNAICGCGOHN": "EXIT",
                "AKFGKKEOEFA": {
                    "x": 3787.466064453125,
                    "y": 502.3030090332031,
                    "z": 3885.89111328125
                },
                "KOPGEAIDOOE": "Other",
                "NGEBMAEFFGJ": {
                    "x": 45.242000579833984,
                    "y": 92.64700317382812
                },
                "LIGHLBKBDEI": 20.920000076293945,
                "GFIOJGJJGCN": 5,
                "ABAEPHOGOFF": "Linear",
                "KFDBMBFFANN": {},
                "IEJBKHHEJEN": true,
                "CEDHIBLHMKP": false,
                "KIPMIDIKECP": "",
                "ANFHNPOCMNI": true,
                "BDLGHOJPJHD": "",
                "LCOJGFEOLCK": "MovingTarget0",
                "BBBGAEDCJEL": "MovingTarget0"
            },
            {
                "$type": "MoleMole.Config.ConfigVisibleInterAction",
                "type": "VISIBLE",
                "delayTime": 0.5,
                "aliasList": [
                    "AvatarNpc"
                ],
                "actionId": 204,
                "extraParam": ""
            },
            {
                "$type": "MoleMole.Config.ConfigVisibleInterAction",
                "type": "VISIBLE",
                "delayTime": 0.6000000238418579,
                "aliasList": [
                    "Avatar"
                ],
                "actionId": 196,
                "isVisible": true,
                "extraParam": ""
            }
        ]
    ],
    "groupId": [
        {
            "grpId": 1025953980,
            "nextGrpId": 1025953981
        },
        {
            "index": 1,
            "grpId": 1025953981,
            "nextGrpId": 1025953982
        },
        {
            "index": 2,
            "grpId": 1025953982,
            "nextGrpId": 1025953983
        },
        {
            "index": 3,
            "grpId": 1025953983,
            "nextGrpId": 1025953984
        },
        {
            "index": 4,
            "grpId": 1025953984,
            "nextGrpId": 1025953985
        },
        {
            "index": 5,
            "grpId": 1025953985,
            "nextGrpId": 1025953986
        },
        {
            "index": 6,
            "grpId": 1025953986,
            "nextGrpId": 1025953987
        },
        {
            "index": 7,
            "grpId": 1025953987,
            "nextGrpId": 1025953988
        },
        {
            "index": 8,
            "grpId": 1025953988,
            "nextGrpId": 1739802356
        },
        {
            "index": 9,
            "grpId": 1739802356,
            "nextGrpId": 1739802357
        },
        {
            "index": 10,
            "grpId": 1739802357,
            "nextGrpId": 1739802358
        },
        {
            "index": 11,
            "grpId": 1739802358,
            "nextGrpId": 1739802359
        },
        {
            "index": 12,
            "grpId": 1739802359,
            "nextGrpId": 1739802360
        },
        {
            "index": 13,
            "grpId": 1739802360,
            "nextGrpId": 1739802361
        },
        {
            "index": 14,
            "grpId": 1739802361,
            "nextGrpId": 1739802362
        }
    ],
    "freeStyleDic": {
        "1025": [],
        "1026": [],
        "5268": [
            4190,
            4040
        ]
    },
    "CKNKEEMIAPG": {
        "5268": [
            "SitHoldArm01AS",
            "SitPutArm01AS",
            "SitRaiseHand01AS"
        ]
    },
    "KDPNNJMELOM": [
        "MovingTarget0={type=GroupGadget,configId=164001,groupId=133402164}"
    ]
}