[
  {
    "stageId": 1,
    "stageType": "STAGE_TYPE_NORMAL",
    "LIHNIHPODKD": [
      9,
      11,
      13
    ],
    "dayIndex": 1,
    "stageNameTextMapHash": 2246554330
  },
  {
    "stageId": 2,
    "stageType": "STAGE_TYPE_NORMAL",
    "LIHNIHPODKD": [
      1,
      5,
      15
    ],
    "dayIndex": 2,
    "stageNameTextMapHash": 1467929026
  },
  {
    "stageId": 3,
    "stageType": "STAGE_TYPE_NORMAL",
    "LIHNIHPODKD": [
      4,
      12,
      17
    ],
    "dayIndex": 3,
    "stageNameTextMapHash": 4185100154
  },
  {
    "stageId": 4,
    "stageType": "STAGE_TYPE_NORMAL",
    "LIHNIHPODKD": [
      7,
      10,
      6
    ],
    "dayIndex": 4,
    "stageNameTextMapHash": 1973797482
  },
  {
    "stageId": 5,
    "stageType": "STAGE_TYPE_RANDOM",
    "LIHNIHPODKD": [],
    "dayIndex": 5,
    "stageNameTextMapHash": 2184004626
  },
  {
    "stageId": 6,
    "stageType": "STAGE_TYPE_NORMAL",
    "LIHNIHPODKD": [
      37,
      40,
      31
    ],
    "dayIndex": 1,
    "stageNameTextMapHash": 891489362
  },
  {
    "stageId": 7,
    "stageType": "STAGE_TYPE_NORMAL",
    "LIHNIHPODKD": [
      35,
      39,
      30
    ],
    "dayIndex": 2,
    "stageNameTextMapHash": 1923852442
  },
  {
    "stageId": 8,
    "stageType": "STAGE_TYPE_NORMAL",
    "LIHNIHPODKD": [
      38,
      19,
      25
    ],
    "dayIndex": 3,
    "stageNameTextMapHash": 3647809002
  },
  {
    "stageId": 9,
    "stageType": "STAGE_TYPE_NORMAL",
    "LIHNIHPODKD": [
      36,
      27,
      23
    ],
    "dayIndex": 4,
    "stageNameTextMapHash": 430863634
  },
  {
    "stageId": 10,
    "stageType": "STAGE_TYPE_RANDOM",
    "LIHNIHPODKD": [],
    "dayIndex": 5,
    "stageNameTextMapHash": 697140114
  }
]