[
  {
    "id": 163,
    "sceneTagName": "Wisdom03_Inver_Routine",
    "sceneId": 20176,
    "sceneTagExpression": "(!Wisdom03_Inver)"
  },
  {
    "id": 1001,
    "sceneTagName": "Combine_Lyg",
    "sceneId": 3,
    "sceneTagExpression": "(!Hdj&&!Zyj&&!Hdj01&&!Hdj02)"
  },
  {
    "id": 1002,
    "sceneTagName": "Combine_Mdc",
    "sceneId": 3,
    "sceneTagExpression": "(!Fhj&&!Vintage_Md&&!FleurFairV2)"
  },
  {
    "id": 1003,
    "sceneTagName": "Aby_LightOFF",
    "sceneId": 5,
    "sceneTagExpression": "(AbyssalNight&& !AbyssalEvent)"
  },
  {
    "id": 1004,
    "sceneTagName": "Aby_LightON",
    "sceneId": 5,
    "sceneTagExpression": "(!AbyssalNight && !AbyssalEventNight)"
  },
  {
    "id": 1005,
    "sceneTagName": "AbyIsle_Const",
    "sceneId": 5,
    "sceneTagExpression": "(AbyssalIsle || AbyssalEvent)"
  },
  {
    "id": 1006,
    "sceneTagName": "AbyIsle_LightON",
    "sceneId": 5,
    "sceneTagExpression": "(AbyssalIsle&& !AbyssalNight)"
  },
  {
    "id": 1007,
    "sceneTagName": "AbyIsle_LightOFF",
    "sceneId": 5,
    "sceneTagExpression": "(AbyssalIsle && AbyssalNight)"
  },
  {
    "id": 1009,
    "sceneTagName": "AbyIsle_NotEvent",
    "sceneId": 5,
    "sceneTagExpression": "(!AbyssalEvent&&AbyssalIsle)"
  },
  {
    "id": 1010,
    "sceneTagName": "AbyIsle_NotEventLightOFF",
    "sceneId": 5,
    "sceneTagExpression": "(!AbyssalEvent && AbyssalNight&&AbyssalIsle)"
  },
  {
    "id": 1011,
    "sceneTagName": "Combine_RBQyg",
    "sceneId": 3,
    "sceneTagExpression": "(!RBQyg_01j&&!RBQyg_02&&!RBQyg_03&&!RBQyg_04)"
  },
  {
    "id": 1012,
    "sceneTagName": "Combine_QldFight",
    "sceneId": 3,
    "sceneTagExpression": "(!QLFightPlatform)"
  },
  {
    "id": 1027,
    "sceneTagName": "Combine_Irodori",
    "sceneId": 3,
    "sceneTagExpression": "(!Irodori&&!Journey03)"
  },
  {
    "id": 1028,
    "sceneTagName": "Aby_NotEvent",
    "sceneId": 5,
    "sceneTagExpression": "(!AbyssalEvent)"
  },
  {
    "id": 1029,
    "sceneTagName": "Aby_NotEventLightOFF",
    "sceneId": 5,
    "sceneTagExpression": "(!AbyssalEvent && AbyssalNight)"
  },
  {
    "id": 1036,
    "sceneTagName": "DreamIsland_-1_-1_BaseTerrain",
    "sceneId": 9,
    "sceneTagExpression": "(!DI_BD01 && !DI_BDMM && !DI_BDII && !DI_BDIM && !DI_BDMI && !DI_BDYY && !DI_BDMY&& !DI_BDYM&& !DI_BDIY&& !DI_BDYI)"
  },
  {
    "id": 1037,
    "sceneTagName": "DreamIsland_0_-1_BaseTerrain",
    "sceneId": 9,
    "sceneTagExpression": "(!DI_SS01 && !DI_SS02 && !DI_SS03 && !DI_SS04)"
  },
  {
    "id": 1038,
    "sceneTagName": "DreamIsland_0_0_BaseTerrain",
    "sceneId": 9,
    "sceneTagExpression": "(!DI_PP01 && !DI_PP02 && !DI_PP03)"
  },
  {
    "id": 1039,
    "sceneTagName": "DreamIsland_-1_0_BaseTerrain",
    "sceneId": 9,
    "sceneTagExpression": "(!DI_WW01 && !DI_WW02)"
  },
  {
    "id": 1040,
    "sceneTagName": "DreamIsland_-1_-1_BaseGrass",
    "sceneId": 9,
    "sceneTagExpression": "(!DI_BD01 && !DI_WW01 && !DI_WW02&& !DI_BDMM && !DI_BDII && !DI_BDIM && !DI_BDMI && !DI_BDYY && !DI_BDMY&& !DI_BDYM&& !DI_BDIY&& !DI_BDYI)"
  },
  {
    "id": 1041,
    "sceneTagName": "DreamIsland_0_-1_BaseGrass",
    "sceneId": 9,
    "sceneTagExpression": "(!DI_SS01 && !DI_SS02 && !DI_SS03 && !DI_SS04 )"
  },
  {
    "id": 1042,
    "sceneTagName": "DreamIsland_0_0_BaseGrass",
    "sceneId": 9,
    "sceneTagExpression": "(!DI_PP01 && !DI_PP02 && !DI_PP03)"
  },
  {
    "id": 1043,
    "sceneTagName": "DreamIsland_-1_0_BaseGrass",
    "sceneId": 9,
    "sceneTagExpression": "(!DI_WW01 && !DI_WW02)"
  },
  {
    "id": 1068,
    "sceneTagName": "Combine_SHOPYamashiroKenta",
    "sceneId": 3,
    "sceneTagExpression": "(!SHOPYamashiroKenta)"
  },
  {
    "id": 1107,
    "sceneTagName": "Vintage_BaseGrass",
    "sceneId": 3,
    "sceneTagExpression": "(!Vintage)"
  },
  {
    "id": 1108,
    "sceneTagName": "Final_BaseGrass",
    "sceneId": 3,
    "sceneTagExpression": "!Final_before"
  },
  {
    "id": 1124,
    "sceneTagName": "Oasis_BaseGrass",
    "sceneId": 3,
    "sceneTagExpression": "!Oasis_after&&!Vana_first"
  },
  {
    "id": 1117,
    "sceneTagName": "Combine_HuaShen03",
    "sceneId": 3,
    "sceneTagExpression": "(!HuaShen01&&!HuaShen02&&!HuaShen03)"
  },
  {
    "id": 1126,
    "sceneTagName": "Vintage_BaseTerrain",
    "sceneId": 3,
    "sceneTagExpression": "(!Vintage)"
  },
  {
    "id": 1142,
    "sceneTagName": "Combine_Vintage",
    "sceneId": 3,
    "sceneTagExpression": "(!Vintage)"
  },
  {
    "id": 1149,
    "sceneTagName": "CupGrow_0_2_BaseGrass",
    "sceneId": 3,
    "sceneTagExpression": "(!CupGrow_before)"
  },
  {
    "id": 1145,
    "sceneTagName": "Combine_TitanO_after",
    "sceneId": 3,
    "sceneTagExpression": "(!TitanO_after)"
  },
  {
    "id": 1189,
    "sceneTagName": "Sprite_BaseGrass",
    "sceneId": 3,
    "sceneTagExpression": "(!Sprite_Before&&!Sprite_After)"
  },
  {
    "id": 1205,
    "sceneTagName": "Combine_FungusFighter",
    "sceneId": 3,
    "sceneTagExpression": "(!FungusFighter)"
  },
  {
    "id": 1208,
    "sceneTagName": "Combine_BrickBreaker01",
    "sceneId": 3,
    "sceneTagExpression": "(!BrickBreaker01&&!BrickBreaker02&&!BrickBreaker03)"
  },
  {
    "id": 1216,
    "sceneTagName": "Boat_BaseTerrain",
    "sceneId": 20158,
    "sceneTagExpression": "(!BoatTurn)"
  },
  {
    "id": 1217,
    "sceneTagName": "Boat_BaseGrass",
    "sceneId": 20158,
    "sceneTagExpression": "(!BoatTurn)"
  },
  {
    "id": 1218,
    "sceneTagName": "Combine_BoatTurn",
    "sceneId": 20158,
    "sceneTagExpression": "(!BoatTurn)"
  },
  {
    "id": 1221,
    "sceneTagName": "Combine_DreamClub01",
    "sceneId": 3,
    "sceneTagExpression": "(!DreamClub01)"
  },
  {
    "id": 1246,
    "sceneTagName": "SCSK_BaseTerrain",
    "sceneId": 3,
    "sceneTagExpression": "(!SCSK_02)"
  },
  {
    "id": 1247,
    "sceneTagName": "SCSK_BaseGrass",
    "sceneId": 3,
    "sceneTagExpression": "(!SCSK_02)"
  },
  {
    "id": 1248,
    "sceneTagName": "Combine_Hdj_Alcor",
    "sceneId": 3,
    "sceneTagExpression": "(!Hdj_Alcor)"
  },
  {
    "id": 1275,
    "sceneTagName": "Combine_AkaFes",
    "sceneId": 3,
    "sceneTagExpression": "(!AkaFes)"
  },
  {
    "id": 1301,
    "sceneTagName": "Combine_Journey01",
    "sceneId": 3,
    "sceneTagExpression": "(!Journey01)"
  },
  {
    "id": 1302,
    "sceneTagName": "Combine_Journey02",
    "sceneId": 3,
    "sceneTagExpression": "(!Journey02)"
  },
  {
    "id": 1303,
    "sceneTagName": "Combine_Journey04",
    "sceneId": 3,
    "sceneTagExpression": "(!Journey04)"
  },
  {
    "id": 1304,
    "sceneTagName": "BigWorld_4_3_BaseTerrain",
    "sceneId": 3,
    "sceneTagExpression": "(!FD_KZST_P1&&!FD_KZST_P2&&!FD_KZST_P3)"
  },
  {
    "id": 1305,
    "sceneTagName": "BigWorld_4_3_BaseGrass",
    "sceneId": 3,
    "sceneTagExpression": "(!FD_KZST_P1&&!FD_KZST_P2&&!FD_KZST_P3)"
  },
  {
    "id": 1332,
    "sceneTagName": "FD_HEART_BaseGrass",
    "sceneId": 3,
    "sceneTagExpression": "(!FD_HEART_Be && !FD_HEART_Af )"
  },
  {
    "id": 1343,
    "sceneTagName": "Combine_PoetryFestival",
    "sceneId": 3,
    "sceneTagExpression": "(!PoetryFestival)"
  },
  {
    "id": 1344,
    "sceneTagName": "Combine_FD_PoissonFlod",
    "sceneId": 3,
    "sceneTagExpression": "(!FD_PoissonFlod)"
  },
  {
    "id": 1345,
    "sceneTagName": "BigWorld_2_3_BaseGIConsole",
    "sceneId": 3,
    "sceneTagExpression": "(!FD_Tower_Af && !FD_Tower_Bf)"
  }
]