[
  {
    "Id": 1,
    "sceneId": 3,
    "groupId": 133209075,
    "pointId": 75001,
    "galleryId": 17001,
    "cutscene": "UI/open_activity_Irodori_master_cutscene_1",
    "trialAvatarList": [
      10000,
      10001
    ],
    "watcherList": [
      12012201,
      12012202,
      12012203,
      12012204
    ]
  },
  {
    "Id": 2,
    "sceneId": 3,
    "groupId": 133209085,
    "pointId": 85006,
    "galleryId": 17002,
    "cutscene": "UI/open_activity_Irodori_master_cutscene_2",
    "trialAvatarList": [
      10000,
      10001
    ],
    "watcherList": [
      12012205,
      12012206,
      12012207,
      12012208
    ]
  },
  {
    "Id": 3,
    "sceneId": 3,
    "groupId": 133209086,
    "pointId": 86006,
    "galleryId": 17003,
    "cutscene": "UI/open_activity_Irodori_master_cutscene_3",
    "trialAvatarList": [
      10000,
      10001
    ],
    "watcherList": [
      12012209,
      12012210,
      12012211,
      12012212
    ]
  },
  {
    "Id": 4,
    "sceneId": 3,
    "groupId": 133209087,
    "pointId": 87006,
    "galleryId": 17004,
    "cutscene": "UI/open_activity_Irodori_master_cutscene_4",
    "trialAvatarList": [
      10000,
      10001
    ],
    "watcherList": [
      12012213,
      12012214,
      12012215,
      12012216
    ]
  }
]