[
  {
    "id": 5023001,
    "activityID": 5023,
    "limitValue": 1200
  },
  {
    "id": 5023002,
    "activityID": 5023,
    "limitValue": 1800
  },
  {
    "id": 5023003,
    "activityID": 5023,
    "limitValue": 2400
  },
  {
    "id": 5023004,
    "activityID": 5023,
    "limitValue": 3000
  },
  {
    "id": 5023005,
    "activityID": 5023,
    "limitValue": 3800
  },
  {
    "id": 5023006,
    "activityID": 5023,
    "limitValue": 4600
  },
  {
    "id": 5023007,
    "activityID": 5023,
    "limitValue": 6000
  },
  {
    "id": 5111001,
    "activityID": 5111,
    "limitValue": 1200
  },
  {
    "id": 5111002,
    "activityID": 5111,
    "limitValue": 1800
  },
  {
    "id": 5111003,
    "activityID": 5111,
    "limitValue": 2400
  },
  {
    "id": 5111004,
    "activityID": 5111,
    "limitValue": 3000
  },
  {
    "id": 5111005,
    "activityID": 5111,
    "limitValue": 3800
  },
  {
    "id": 5111006,
    "activityID": 5111,
    "limitValue": 4600
  },
  {
    "id": 5111007,
    "activityID": 5111,
    "limitValue": 6000
  },
  {
    "id": 2019001,
    "activityID": 2019,
    "limitValue": 2000
  },
  {
    "id": 2019002,
    "activityID": 2019,
    "limitValue": 3000
  },
  {
    "id": 2019003,
    "activityID": 2019,
    "limitValue": 4000
  },
  {
    "id": 2019004,
    "activityID": 2019,
    "limitValue": 5000
  }
]