[
  {
    "taskId": 10001,
    "sceneID": 3,
    "centerX": -443.4527893066406,
    "centerY": 247.0,
    "centerZ": 508.0,
    "radius": 10.0,
    "targetGadgetID": [
      "Q11200_Player",
      "Q1120201NPC",
      "Q11200Chenxiang",
      "Q1120201Chenxiang"
    ],
    "endTime": 24.0,
    "questid": 4133302,
    "finishTipsTextMapHash": 2052324292,
    "startTipsTextMapHash": 3858495521
  },
  {
    "taskId": 10002,
    "sceneID": 3,
    "centerX": -232.3040008544922,
    "centerY": 266.4020080566406,
    "centerZ": 219.53480529785156,
    "radius": 10.0,
    "targetGadgetID": [
      "Npc1627Born",
      "Q4131218Player",
      "Q4131218Player",
      "Q4131218JiaYi"
    ],
    "endTime": 24.0,
    "questid": 4133303,
    "finishTipsTextMapHash": 2301631540,
    "startTipsTextMapHash": 3885144089
  },
  {
    "taskId": 10003,
    "sceneID": 3,
    "centerX": 1569.551025390625,
    "centerY": 334.8747863769531,
    "centerZ": -2019.85400390625,
    "radius": 10.0,
    "targetGadgetID": [
      "Q19069PhotoVowShore1",
      "Q19069PhotoVowShore2",
      "Q19069PhotoVowShore3",
      "Q19069PhotoVowShore4"
    ],
    "endTime": 24.0,
    "questid": 1906904,
    "finishTipsTextMapHash": 3910992500,
    "startTipsTextMapHash": 4207093169
  },
  {
    "taskId": 10004,
    "sceneID": 3,
    "centerX": 2636.56396484375,
    "centerY": 380.8634948730469,
    "centerZ": -1731.741943359375,
    "radius": 10.0,
    "targetGadgetID": [
      "Q19069PhotoStarP1",
      "Q19069PhotoStarP2",
      "Q19069PhotoStarP3",
      "Q19069PhotoStarP4"
    ],
    "startTime": 19.0,
    "endTime": 24.0,
    "questid": 1906906,
    "finishTipsTextMapHash": 600927172,
    "startTipsTextMapHash": 3331058913
  },
  {
    "taskId": 10005,
    "sceneID": 3,
    "centerX": 1919.9139404296875,
    "centerY": 196.7635040283203,
    "centerZ": -1310.843017578125,
    "radius": 10.0,
    "targetGadgetID": [
      "Q19069PhotoWindP1",
      "Q19069PhotoWindP2",
      "Q19069PhotoWindP3",
      "Q19069PhotoWindP4"
    ],
    "endTime": 24.0,
    "questid": 1906912,
    "finishTipsTextMapHash": 1304186460,
    "startTipsTextMapHash": 923488681
  },
  {
    "taskId": 10006,
    "sceneID": 3,
    "centerX": 2228.510986328125,
    "centerY": 209.99000549316406,
    "centerZ": -936.7252807617188,
    "radius": 10.0,
    "targetGadgetID": [
      "Q7000002phonto1",
      "Q7000002phonto2",
      "Q7000002phonto3",
      "Q7000002phonto4"
    ],
    "endTime": 24.0,
    "questid": 7000002,
    "finishTipsTextMapHash": 611180996,
    "startTipsTextMapHash": 419891057
  },
  {
    "taskId": 10007,
    "sceneID": 3,
    "centerX": 2312.2509765625,
    "centerY": 249.98989868164062,
    "centerZ": -768.9196166992188,
    "radius": 15.0,
    "targetGadgetID": [
      "Q7000003phonto1",
      "Q7000003phonto2",
      "Q7000003phonto3",
      "Q7000003phonto4"
    ],
    "endTime": 24.0,
    "questid": 7000003,
    "finishTipsTextMapHash": 2831265724,
    "startTipsTextMapHash": 160095129
  },
  {
    "taskId": 10008,
    "sceneID": 3,
    "centerX": 2243.583984375,
    "centerY": 209.99000549316406,
    "centerZ": -932.45068359375,
    "radius": 10.0,
    "targetGadgetID": [
      "Q7000004phonto1",
      "Q7000004phonto2",
      "Q7000004phonto3",
      "Q7000004phonto4"
    ],
    "endTime": 24.0,
    "questid": 7000004,
    "finishTipsTextMapHash": 96133236,
    "startTipsTextMapHash": 2309351273
  },
  {
    "taskId": 10009,
    "sceneID": 3,
    "centerX": 1315.8280029296875,
    "centerY": 292.0867919921875,
    "centerZ": -1030.1510009765625,
    "radius": 10.0,
    "targetGadgetID": [
      "Q70010PhotoTree1",
      "Q70010PhotoTree2",
      "Q70010PhotoTree3",
      "Q70010PhotoTree4"
    ],
    "endTime": 24.0,
    "questid": 7001004,
    "finishTipsTextMapHash": 1854818796,
    "startTipsTextMapHash": 1793355809
  },
  {
    "taskId": 10010,
    "sceneID": 3,
    "centerX": 1157.5689697265625,
    "centerY": 407.8387145996094,
    "centerZ": -1004.1019897460938,
    "radius": 10.0,
    "targetGadgetID": [
      "Q70010PhotoStatue1",
      "Q70010PhotoStatue2",
      "Q70010PhotoStatue3",
      "Q70010PhotoStatue4"
    ],
    "endTime": 24.0,
    "questid": 7001005,
    "finishTipsTextMapHash": 1827682436,
    "startTipsTextMapHash": 2493338161
  },
  {
    "taskId": 10011,
    "sceneID": 4,
    "centerX": -688.5170288085938,
    "centerY": 136.32589721679688,
    "centerZ": -154.01800537109375,
    "radius": 10.0,
    "targetGadgetID": [
      "q7900405photo1",
      "q7900405photo2",
      "q7900405photo3",
      "q7900405photo4"
    ],
    "endTime": 24.0,
    "questid": 7900405,
    "finishTipsTextMapHash": 528656508,
    "startTipsTextMapHash": 3655326489
  },
  {
    "taskId": 10012,
    "sceneID": 4,
    "centerX": 187.8625946044922,
    "centerY": 131.63299560546875,
    "centerZ": 320.75140380859375,
    "radius": 10.0,
    "targetGadgetID": [
      "q7900406photo1",
      "q7900406photo2",
      "q7900406photo3",
      "q7900406photo4"
    ],
    "endTime": 24.0,
    "questid": 7900406,
    "finishTipsTextMapHash": 443362572,
    "startTipsTextMapHash": 1774729569
  },
  {
    "taskId": 10013,
    "sceneID": 4,
    "centerX": 431.9523010253906,
    "centerY": 135.36410522460938,
    "centerZ": -467.7543029785156,
    "radius": 10.0,
    "targetGadgetID": [
      "q7900408photo1",
      "q7900408photo2",
      "q7900408photo3",
      "q7900408photo4"
    ],
    "endTime": 24.0,
    "questid": 7900408,
    "finishTipsTextMapHash": 1139903140,
    "startTipsTextMapHash": 498031881
  },
  {
    "taskId": 10014,
    "sceneID": 4,
    "centerX": 541.3759765625,
    "centerY": 126.32019805908203,
    "centerZ": -103.92880249023438,
    "radius": 10.0,
    "targetGadgetID": [
      "q7900407photo1",
      "q7900407photo2",
      "q7900407photo3",
      "q7900407photo4"
    ],
    "endTime": 24.0,
    "questid": 7900407,
    "finishTipsTextMapHash": 3450342892,
    "startTipsTextMapHash": 2768964801
  },
  {
    "taskId": 10015,
    "sceneID": 3,
    "centerX": -2577.693115234375,
    "centerY": 210.877197265625,
    "centerZ": -3816.51611328125,
    "radius": 10.0,
    "targetGadgetID": [
      "Q72153photo1",
      "Q72153photo2",
      "Q72153photo3",
      "Q72153photo4"
    ],
    "endTime": 24.0,
    "questid": 7215303,
    "finishTipsTextMapHash": 872380252,
    "startTipsTextMapHash": 2084558273
  },
  {
    "taskId": 10016,
    "sceneID": 3,
    "centerX": -2569.179931640625,
    "centerY": 210.877197265625,
    "centerZ": -3806.927001953125,
    "radius": 10.0,
    "targetGadgetID": [
      "Q72153photo5",
      "Q72153photo6",
      "Q72153photo7",
      "Q72153photo8"
    ],
    "endTime": 24.0,
    "questid": 7215306,
    "finishTipsTextMapHash": 2955245268,
    "startTipsTextMapHash": 2305528041
  },
  {
    "taskId": 10017,
    "sceneID": 3,
    "centerX": -2572.618896484375,
    "centerY": 201.97390747070312,
    "centerZ": -3736.152099609375,
    "radius": 10.0,
    "targetGadgetID": [
      "Q72153photo9",
      "Q72153photo10",
      "Q72153photo11",
      "Q72153photo12"
    ],
    "endTime": 24.0,
    "questid": 7215309,
    "finishTipsTextMapHash": 4254049156,
    "startTipsTextMapHash": 1107332649
  },
  {
    "taskId": 10018,
    "sceneID": 3,
    "centerX": -3724.511962890625,
    "centerY": 274.0873107910156,
    "centerZ": -3143.208984375,
    "radius": 8.0,
    "targetGadgetID": [
      "WQ_72114_ShotSquare1",
      "WQ_72114_ShotSquare2",
      "WQ_72114_ShotSquare3",
      "WQ_72114_ShotSquare3"
    ],
    "endTime": 24.0,
    "questid": 7211420,
    "finishTipsTextMapHash": 3636274780,
    "startTipsTextMapHash": 2408512345
  },
  {
    "taskId": 10019,
    "sceneID": 3,
    "centerX": -3712.3759765625,
    "centerY": 200.0,
    "centerZ": -3133.701904296875,
    "radius": 8.0,
    "targetGadgetID": [
      "WQ_72118_ShotSquare1",
      "WQ_72118_ShotSquare2",
      "WQ_72118_ShotSquare3",
      "WQ_72118_ShotSquare3"
    ],
    "endTime": 24.0,
    "questid": 7211803,
    "finishTipsTextMapHash": 1360275380,
    "startTipsTextMapHash": 985432105
  },
  {
    "taskId": 10020,
    "sceneID": 3,
    "centerX": -3639.617919921875,
    "centerY": 206.76260375976562,
    "centerZ": -3201.10009765625,
    "radius": 8.0,
    "targetGadgetID": [
      "WQ_72118_ShotSquare4",
      "WQ_72118_ShotSquare5",
      "WQ_72118_ShotSquare6",
      "WQ_72118_ShotSquare6"
    ],
    "endTime": 24.0,
    "questid": 7211804,
    "finishTipsTextMapHash": 267092148,
    "startTipsTextMapHash": 3566475337
  },
  {
    "taskId": 10021,
    "sceneID": 4,
    "centerX": 1449.5889892578125,
    "centerY": 134.8455047607422,
    "centerZ": -730.669921875,
    "radius": 10.0,
    "targetGadgetID": [
      "q7900409photo1",
      "q7900409photo2",
      "q7900409photo3",
      "q7900409photo4"
    ],
    "endTime": 24.0,
    "questid": 7900409,
    "finishTipsTextMapHash": 1997758860,
    "startTipsTextMapHash": 761572841
  },
  {
    "taskId": 10022,
    "sceneID": 3,
    "centerX": -4335.841796875,
    "centerY": 234.82359313964844,
    "centerZ": -4156.7041015625,
    "radius": 30.0,
    "targetGadgetID": [
      "WQ72163_Photo0101",
      "WQ72163_Photo0102",
      "WQ72163_Photo0103",
      "WQ72163_Photo0103"
    ],
    "endTime": 24.0,
    "questid": 7216303,
    "finishTipsTextMapHash": 2290549500,
    "startTipsTextMapHash": 1457976785
  },
  {
    "taskId": 10023,
    "sceneID": 3,
    "centerX": -4510.22705078125,
    "centerY": 222.32150268554688,
    "centerZ": -3900.840087890625,
    "radius": 20.0,
    "targetGadgetID": [
      "WQ72163_Photo0201",
      "WQ72163_Photo0202",
      "WQ72163_Photo0203",
      "WQ72163_Photo0203"
    ],
    "endTime": 24.0,
    "questid": 7216304,
    "finishTipsTextMapHash": 754016220,
    "startTipsTextMapHash": 4171012385
  },
  {
    "taskId": 10024,
    "sceneID": 3,
    "centerX": -4439.0498046875,
    "centerY": 201.83120727539062,
    "centerZ": -3668.591064453125,
    "radius": 18.0,
    "targetGadgetID": [
      "WQ72163_Photo0301",
      "WQ72163_Photo0302",
      "WQ72163_Photo0303",
      "WQ72163_Photo0303"
    ],
    "endTime": 24.0,
    "questid": 7216305,
    "finishTipsTextMapHash": 243759940,
    "startTipsTextMapHash": 2456633185
  },
  {
    "taskId": 10025,
    "sceneID": 3,
    "centerX": -4559.9921875,
    "centerY": 200.82420349121094,
    "centerZ": -4211.9931640625,
    "radius": 15.0,
    "targetGadgetID": [
      "WQ72163_Photo0401",
      "WQ72163_Photo0402",
      "WQ72163_Photo0403",
      "WQ72163_Photo0403"
    ],
    "endTime": 24.0,
    "questid": 7216306,
    "finishTipsTextMapHash": 373210652,
    "startTipsTextMapHash": 1550363401
  },
  {
    "taskId": 10026,
    "taskType": "PHOTOGRAPH_TASK_TYPE_INTERACTION",
    "sceneID": 3,
    "centerX": -3027.0,
    "centerY": 236.0,
    "centerZ": -4439.0,
    "radius": 15.0,
    "targetGadgetID": [
      "Q12017Watch2",
      "Q12017Watch2",
      "Q12017Watch2",
      "Q12017Watch2"
    ],
    "endTime": 24.0,
    "questid": 1201704,
    "finishTipsTextMapHash": 820108420,
    "startTipsTextMapHash": 2448091329
  },
  {
    "taskId": 10027,
    "sceneID": 3,
    "centerX": -3046.52392578125,
    "centerY": 211.5074005126953,
    "centerZ": -4290.34912109375,
    "radius": 10.0,
    "targetGadgetID": [
      "RQ30027_1",
      "RQ30027_1",
      "RQ30027_1",
      "RQ30027_1"
    ],
    "endTime": 24.0,
    "questid": 3002702,
    "finishTipsTextMapHash": 175733508,
    "startTipsTextMapHash": 2491355713
  },
  {
    "taskId": 10028,
    "sceneID": 3,
    "centerX": -2958.634033203125,
    "centerY": 203.3437042236328,
    "centerZ": -3968.74609375,
    "radius": 10.0,
    "targetGadgetID": [
      "RQ30027_2",
      "RQ30027_2",
      "RQ30027_2",
      "RQ30027_2"
    ],
    "endTime": 24.0,
    "questid": 3002702,
    "finishTipsTextMapHash": 3967026404,
    "startTipsTextMapHash": 2164673633
  },
  {
    "taskId": 10029,
    "sceneID": 3,
    "centerX": -2998.784912109375,
    "centerY": 213.06309509277344,
    "centerZ": -4010.31103515625,
    "radius": 10.0,
    "targetGadgetID": [
      "RQ30027_3",
      "RQ30027_3",
      "RQ30027_3",
      "RQ30027_3"
    ],
    "endTime": 24.0,
    "questid": 3002702,
    "finishTipsTextMapHash": 2655981908,
    "startTipsTextMapHash": 3195713393
  },
  {
    "taskId": 10030,
    "sceneID": 3,
    "centerX": -2753.56103515625,
    "centerY": 205.43260192871094,
    "centerZ": -4114.52001953125,
    "radius": 10.0,
    "targetGadgetID": [
      "RQ30027_4",
      "RQ30027_4",
      "RQ30027_4",
      "RQ30027_4"
    ],
    "endTime": 24.0,
    "questid": 3002702,
    "finishTipsTextMapHash": 1485616028,
    "startTipsTextMapHash": 2833080993
  },
  {
    "taskId": 10034,
    "sceneID": 3,
    "centerX": -3170.77001953125,
    "centerY": 200.0655975341797,
    "centerZ": -3923.123046875,
    "radius": 10.0,
    "targetGadgetID": [
      "RQ30027_8",
      "RQ30027_8",
      "RQ30027_8",
      "RQ30027_8"
    ],
    "endTime": 24.0,
    "questid": 3002702,
    "finishTipsTextMapHash": 2233104732,
    "startTipsTextMapHash": 3232967865
  },
  {
    "taskId": 10035,
    "sceneID": 3,
    "centerX": -2567.177001953125,
    "centerY": 210.877197265625,
    "centerZ": -3805.009033203125,
    "radius": 10.0,
    "targetGadgetID": [
      "RQ30027_9",
      "RQ30027_9",
      "RQ30027_9",
      "RQ30027_9"
    ],
    "endTime": 24.0,
    "questid": 3002702,
    "finishTipsTextMapHash": 478503372,
    "startTipsTextMapHash": 2768344825
  },
  {
    "taskId": 10036,
    "sceneID": 3,
    "centerX": -2600.047119140625,
    "centerY": 268.01800537109375,
    "centerZ": -4568.2470703125,
    "radius": 10.0,
    "targetGadgetID": [
      "RQ30027_10",
      "RQ30027_10",
      "RQ30027_10",
      "RQ30027_10"
    ],
    "endTime": 24.0,
    "questid": 3002702,
    "finishTipsTextMapHash": 1860874308,
    "startTipsTextMapHash": 3643510025
  },
  {
    "taskId": 10037,
    "taskType": "PHOTOGRAPH_TASK_TYPE_INTERACTION",
    "sceneID": 3,
    "centerX": -3036.72412109375,
    "centerY": 212.78384399414062,
    "centerZ": -4306.419921875,
    "radius": 3.0,
    "targetGadgetID": [
      "Q1911801photo1",
      "Q1911801photo2",
      "Q1911801photo3",
      "Q1911801photo4"
    ],
    "endTime": 24.0,
    "questid": 1911801,
    "finishTipsTextMapHash": 1450062980,
    "startTipsTextMapHash": 3999241921
  },
  {
    "taskId": 10038,
    "sceneID": 3,
    "centerX": -5871.85205078125,
    "centerY": 157.87449645996094,
    "centerZ": -2667.053955078125,
    "radius": 5.0,
    "targetGadgetID": [
      "Q3_7217503_Photo_1",
      "Q3_7217503_Photo_2",
      "Q3_7217503_Photo_3",
      "Q3_7217503_Photo_4"
    ],
    "endTime": 24.0,
    "questid": 7217503,
    "finishTipsTextMapHash": 1519866164,
    "startTipsTextMapHash": 3875625537
  },
  {
    "taskId": 10039,
    "sceneID": 3,
    "centerX": -5908.77587890625,
    "centerY": 166.62489318847656,
    "centerZ": -2757.613037109375,
    "radius": 5.0,
    "targetGadgetID": [
      "Q3_7217504_Photo_1",
      "Q3_7217504_Photo_2",
      "Q3_7217504_Photo_3",
      "Q3_7217504_Photo_4"
    ],
    "endTime": 24.0,
    "questid": 7217504,
    "finishTipsTextMapHash": 1164613876,
    "startTipsTextMapHash": 1026303617
  },
  {
    "taskId": 10040,
    "sceneID": 3,
    "centerX": -5992.94921875,
    "centerY": 164.40609741210938,
    "centerZ": -2759.30908203125,
    "radius": 5.0,
    "targetGadgetID": [
      "Q3_7217505_Photo_1",
      "Q3_7217505_Photo_2",
      "Q3_7217505_Photo_3",
      "Q3_7217505_Photo_4"
    ],
    "endTime": 24.0,
    "questid": 7217505,
    "finishTipsTextMapHash": 3702241812,
    "startTipsTextMapHash": 3580435153
  },
  {
    "taskId": 10041,
    "sceneID": 3,
    "centerX": -5989.18017578125,
    "centerY": 173.4071044921875,
    "centerZ": -2695.51611328125,
    "radius": 5.0,
    "targetGadgetID": [
      "Q3_7217506_Photo_1",
      "Q3_7217506_Photo_2",
      "Q3_7217506_Photo_3",
      "Q3_7217506_Photo_4"
    ],
    "endTime": 24.0,
    "questid": 7217506,
    "finishTipsTextMapHash": 2334443852,
    "startTipsTextMapHash": 3851402905
  },
  {
    "taskId": 10042,
    "sceneID": 3,
    "centerX": -5989.18017578125,
    "centerY": 173.4071044921875,
    "centerZ": -2695.51611328125,
    "radius": 5.0,
    "targetGadgetID": [
      "Q3_7217507_Photo_1",
      "Q3_7217507_Photo_2",
      "Q3_7217507_Photo_3",
      "Q3_7217507_Photo_4"
    ],
    "endTime": 24.0,
    "questid": 7217507,
    "finishTipsTextMapHash": 1682698916,
    "startTipsTextMapHash": 330815553
  },
  {
    "taskId": 10043,
    "sceneID": 3,
    "centerX": -5989.18017578125,
    "centerY": 173.4071044921875,
    "centerZ": -2695.51611328125,
    "radius": 5.0,
    "targetGadgetID": [
      "Q3_7217508_Photo_1",
      "Q3_7217508_Photo_2",
      "Q3_7217508_Photo_3",
      "Q3_7217508_Photo_4"
    ],
    "endTime": 24.0,
    "questid": 7217508,
    "finishTipsTextMapHash": 3976887324,
    "startTipsTextMapHash": 785402993
  },
  {
    "taskId": 10044,
    "sceneID": 3,
    "centerX": -6132.2998046875,
    "centerY": 224.3800048828125,
    "centerZ": -2937.51806640625,
    "radius": 5.0,
    "targetGadgetID": [
      "Q3_7217512_Photo_1",
      "Q3_7217512_Photo_2",
      "Q3_7217512_Photo_3",
      "Q3_7217512_Photo_4"
    ],
    "endTime": 24.0,
    "questid": 7217512,
    "finishTipsTextMapHash": 705364932,
    "startTipsTextMapHash": 4063737
  },
  {
    "taskId": 10045,
    "sceneID": 3,
    "centerX": -6358.60009765625,
    "centerY": 200.1300048828125,
    "centerZ": -2710.139892578125,
    "radius": 5.0,
    "targetGadgetID": [
      "Q3_7217513_Photo_1",
      "Q3_7217513_Photo_2",
      "Q3_7217513_Photo_3",
      "Q3_7217513_Photo_4"
    ],
    "endTime": 24.0,
    "questid": 7217513,
    "finishTipsTextMapHash": 3646842484,
    "startTipsTextMapHash": 166258961
  },
  {
    "taskId": 10046,
    "sceneID": 3,
    "centerX": -6003.2998046875,
    "centerY": 211.89999389648438,
    "centerZ": -2568.699951171875,
    "radius": 5.0,
    "targetGadgetID": [
      "Q3_7217514_Photo_1",
      "Q3_7217514_Photo_2",
      "Q3_7217514_Photo_3",
      "Q3_7217514_Photo_4"
    ],
    "endTime": 24.0,
    "questid": 7217514,
    "finishTipsTextMapHash": 1404253788,
    "startTipsTextMapHash": 1411896497
  },
  {
    "taskId": 10047,
    "taskType": "PHOTOGRAPH_TASK_TYPE_INTERACTION",
    "sceneID": 3,
    "centerX": -3041.32958984375,
    "centerY": 212.64010620117188,
    "centerZ": -4303.4580078125,
    "radius": 3.0,
    "targetGadgetID": [
      "Q1911801photo1",
      "Q1911801photo2",
      "Q1911801photo3",
      "Q1911801photo4"
    ],
    "endTime": 24.0,
    "questid": 1911805,
    "finishTipsTextMapHash": 2590170020,
    "startTipsTextMapHash": 1355969881
  },
  {
    "taskId": 10048,
    "taskType": "PHOTOGRAPH_TASK_TYPE_INTERACTION",
    "sceneID": 3,
    "centerX": -4719.2001953125,
    "centerY": 216.1999969482422,
    "centerZ": -3709.300048828125,
    "radius": 5.0,
    "targetGadgetID": [
      "Q22045Photo",
      "Q22045Photo",
      "Q22045Photo",
      "Q22045Photo"
    ],
    "endTime": 24.0,
    "questid": 2204502,
    "finishTipsTextMapHash": 977466764,
    "startTipsTextMapHash": 2524338449
  },
  {
    "taskId": 10049,
    "taskType": "PHOTOGRAPH_TASK_TYPE_INTERACTION",
    "sceneID": 3,
    "centerX": -4720.2001953125,
    "centerY": 216.1999969482422,
    "centerZ": -3714.300048828125,
    "radius": 5.0,
    "targetGadgetID": [
      "Q22045Photo",
      "Q22045Photo",
      "Q22045Photo",
      "Q22045Photo"
    ],
    "endTime": 24.0,
    "questid": 2204503,
    "finishTipsTextMapHash": 1923538740,
    "startTipsTextMapHash": 1878207169
  },
  {
    "taskId": 10050,
    "taskType": "PHOTOGRAPH_TASK_TYPE_INTERACTION",
    "sceneID": 3,
    "centerX": 941.0,
    "centerY": 211.0,
    "centerZ": 667.0,
    "radius": 15.0,
    "targetGadgetID": [
      "COOP10240101Target01",
      "COOP10240101Target01",
      "COOP10240101Target01",
      "COOP10240101Target01"
    ],
    "endTime": 24.0,
    "questid": 1905109,
    "finishTipsTextMapHash": 2470147332,
    "startTipsTextMapHash": 3785416297
  },
  {
    "taskId": 10051,
    "taskType": "PHOTOGRAPH_TASK_TYPE_INTERACTION",
    "sceneID": 3,
    "centerX": 696.4118041992188,
    "centerY": 413.0022888183594,
    "centerZ": 1856.3380126953125,
    "radius": 5.0,
    "targetGadgetID": [
      "Q3_72261_Photo1",
      "Q3_72261_Photo2",
      "Q3_72261_Photo3",
      "Q3_72261_Photo4"
    ],
    "endTime": 24.0,
    "questid": 7226103,
    "finishTipsTextMapHash": 511036996,
    "startTipsTextMapHash": 1295887985
  },
  {
    "taskId": 10052,
    "taskType": "PHOTOGRAPH_TASK_TYPE_INTERACTION",
    "sceneID": 3,
    "centerX": 1444.427001953125,
    "centerY": 253.5312042236328,
    "centerZ": 484.80938720703125,
    "radius": 5.0,
    "targetGadgetID": [
      "Q3_72262_Photo1",
      "Q3_72262_Photo2",
      "Q3_72262_Photo3",
      "Q3_72262_Photo4"
    ],
    "endTime": 24.0,
    "questid": 7226203,
    "finishTipsTextMapHash": 3547046628,
    "startTipsTextMapHash": 958628857
  },
  {
    "taskId": 10053,
    "taskType": "PHOTOGRAPH_TASK_TYPE_INTERACTION",
    "sceneID": 3,
    "centerX": 1035.3505859375,
    "centerY": 316.0395812988281,
    "centerZ": -1124.854248046875,
    "radius": 5.0,
    "targetGadgetID": [
      "WQ7226404_3160_1",
      "WQ7226406_photo_p2",
      "WQ7226406_photo_p3",
      "WQ7226406_photo_p4"
    ],
    "endTime": 24.0,
    "questid": 7226406,
    "finishTipsTextMapHash": 561419180,
    "startTipsTextMapHash": 499800145
  },
  {
    "taskId": 10054,
    "taskType": "PHOTOGRAPH_TASK_TYPE_INTERACTION",
    "sceneID": 3,
    "centerX": -276.53009033203125,
    "centerY": 213.7747039794922,
    "centerZ": -1025.2669677734375,
    "radius": 5.0,
    "targetGadgetID": [
      "Q7267505_guide_1",
      "Q7267505_guide_1",
      "Q7267507_guide",
      "Q7267504_N3160"
    ],
    "endTime": 24.0,
    "questid": 7267505,
    "finishTipsTextMapHash": 1175949020,
    "startTipsTextMapHash": 3659612825
  },
  {
    "taskId": 10055,
    "taskType": "PHOTOGRAPH_TASK_TYPE_INTERACTION",
    "sceneID": 3,
    "centerX": 2319.490966796875,
    "centerY": 272.1543884277344,
    "centerZ": -752.9274291992188,
    "radius": 5.0,
    "targetGadgetID": [
      "Q7267605_N3160",
      "Q7267605_N3160",
      "Q7267605_N3160",
      "Q7267605_N3160"
    ],
    "endTime": 24.0,
    "questid": 7267606,
    "finishTipsTextMapHash": 2922947812,
    "startTipsTextMapHash": 3569686329
  },
  {
    "taskId": 10056,
    "taskType": "PHOTOGRAPH_TASK_TYPE_INTERACTION",
    "sceneID": 3,
    "centerX": -208.34410095214844,
    "centerY": 282.0631103515625,
    "centerZ": 234.92210388183594,
    "radius": 5.0,
    "targetGadgetID": [
      "Q7267610_N3160",
      "Q7267610_N3160",
      "Q7267610_N3160",
      "Q7267610_N3160"
    ],
    "endTime": 24.0,
    "questid": 7267611,
    "finishTipsTextMapHash": 431138644,
    "startTipsTextMapHash": 4010809369
  },
  {
    "taskId": 10057,
    "taskType": "PHOTOGRAPH_TASK_TYPE_INTERACTION",
    "sceneID": 3,
    "centerX": 213.38409423828125,
    "centerY": 208.46240234375,
    "centerZ": 961.9625244140625,
    "radius": 5.0,
    "targetGadgetID": [
      "Q7267704_Photo1",
      "Q7267704_Photo2",
      "Q7267704_Photo3",
      "Q7267704_Photo4"
    ],
    "endTime": 24.0,
    "questid": 7267704,
    "finishTipsTextMapHash": 395983228,
    "startTipsTextMapHash": 4289553369
  },
  {
    "taskId": 10058,
    "taskType": "PHOTOGRAPH_TASK_TYPE_INTERACTION",
    "sceneID": 3,
    "centerX": 2402.903076171875,
    "centerY": 225.44309997558594,
    "centerZ": 44.71540832519531,
    "radius": 5.0,
    "targetGadgetID": [
      "Q7267801_Photo1",
      "Q7267801_Photo2",
      "Q7267801_Photo3",
      "Q7267801_Photo4"
    ],
    "endTime": 24.0,
    "questid": 7267802,
    "finishTipsTextMapHash": 2515303668,
    "startTipsTextMapHash": 317492809
  },
  {
    "taskId": 10059,
    "taskType": "PHOTOGRAPH_TASK_TYPE_INTERACTION",
    "sceneID": 6,
    "centerX": 863.3088989257812,
    "centerY": 995.897705078125,
    "centerZ": 723.7786254882812,
    "radius": 5.0,
    "targetGadgetID": [
      "Q7104001Photo1",
      "Q7104001Photo1",
      "Q7104001Photo1",
      "Q7104001Photo1"
    ],
    "endTime": 24.0,
    "questid": 7104001,
    "finishTipsTextMapHash": 489721220,
    "startTipsTextMapHash": 571579913
  },
  {
    "taskId": 10060,
    "sceneID": 3,
    "centerX": 1789.260009765625,
    "centerY": 233.16209411621094,
    "centerZ": -881.47412109375,
    "radius": 20.0,
    "targetGadgetID": [
      "Q2002002",
      "Q2002002",
      "Q2002002",
      "Q2002002"
    ],
    "endTime": 24.0,
    "questid": 2002003,
    "finishTipsTextMapHash": 27643036,
    "startTipsTextMapHash": 542470193
  },
  {
    "taskId": 10061,
    "sceneID": 3,
    "centerX": 1937.64697265625,
    "centerY": 242.33799743652344,
    "centerZ": -351.7214050292969,
    "radius": 20.0,
    "targetGadgetID": [
      "Q2002003",
      "Q2002003",
      "Q2002003",
      "Q2002003"
    ],
    "endTime": 24.0,
    "questid": 2002012,
    "finishTipsTextMapHash": 1518505196,
    "startTipsTextMapHash": 1611066889
  },
  {
    "taskId": 10062,
    "sceneID": 3,
    "centerX": 2482.777099609375,
    "centerY": 326.6340026855469,
    "centerZ": -1681.6490478515625,
    "radius": 20.0,
    "targetGadgetID": [
      "Q2002004",
      "Q2002004",
      "Q2002004",
      "Q2002004"
    ],
    "endTime": 24.0,
    "questid": 2002021,
    "finishTipsTextMapHash": 256014596,
    "startTipsTextMapHash": 3340473705
  },
  {
    "taskId": 10063,
    "taskType": "PHOTOGRAPH_TASK_TYPE_INTERACTION",
    "sceneID": 6,
    "centerX": 1133.60205078125,
    "centerY": 740.25,
    "centerZ": 406.92999267578125,
    "radius": 5.0,
    "targetGadgetID": [
      "Q7105201_Target",
      "Q7105201_Target",
      "Q7105201_Target",
      "Q7105201_Target"
    ],
    "endTime": 24.0,
    "questid": 7105201,
    "finishTipsTextMapHash": 922210188,
    "startTipsTextMapHash": 569646689
  },
  {
    "taskId": 10064,
    "taskType": "PHOTOGRAPH_TASK_TYPE_INTERACTION",
    "sceneID": 6,
    "centerX": 953.325927734375,
    "centerY": 862.8099975585938,
    "centerZ": 676.1527099609375,
    "radius": 5.0,
    "targetGadgetID": [
      "Q7105202_Target",
      "Q7105202_Target",
      "Q7105202_Target",
      "Q7105202_Target"
    ],
    "endTime": 24.0,
    "questid": 7105202,
    "finishTipsTextMapHash": 2426349052,
    "startTipsTextMapHash": 3474818601
  },
  {
    "taskId": 10065,
    "taskType": "PHOTOGRAPH_TASK_TYPE_INTERACTION",
    "sceneID": 6,
    "centerX": 799.0076293945312,
    "centerY": 602.4290161132812,
    "centerZ": 698.5999755859375,
    "radius": 5.0,
    "targetGadgetID": [
      "Q7105203_Target",
      "Q7105203_Target",
      "Q7105203_Target",
      "Q7105203_Target"
    ],
    "endTime": 24.0,
    "questid": 7105203,
    "finishTipsTextMapHash": 451373420,
    "startTipsTextMapHash": 1813676929
  },
  {
    "taskId": 10066,
    "taskType": "PHOTOGRAPH_TASK_TYPE_INTERACTION",
    "sceneID": 6,
    "centerX": 590.1640014648438,
    "centerY": 378.5,
    "centerZ": 706.4000244140625,
    "radius": 5.0,
    "targetGadgetID": [
      "Q7105204_Target",
      "Q7105204_Target",
      "Q7105204_Target",
      "Q7105204_Target"
    ],
    "endTime": 24.0,
    "questid": 7105204,
    "finishTipsTextMapHash": 3864536996,
    "startTipsTextMapHash": 1902189289
  },
  {
    "taskId": 10067,
    "taskType": "PHOTOGRAPH_TASK_TYPE_INTERACTION",
    "sceneID": 6,
    "centerX": 391.8299865722656,
    "centerY": 85.33999633789062,
    "centerZ": 1102.2330322265625,
    "radius": 5.0,
    "targetGadgetID": [
      "Q7105205_Target",
      "Q7105205_Target",
      "Q7105205_Target",
      "Q7105205_Target"
    ],
    "endTime": 24.0,
    "questid": 7105205,
    "finishTipsTextMapHash": 3080047636,
    "startTipsTextMapHash": 4030050297
  },
  {
    "taskId": 10068,
    "taskType": "PHOTOGRAPH_TASK_TYPE_INTERACTION",
    "sceneID": 3,
    "centerX": -672.9505004882812,
    "centerY": 219.54299926757812,
    "centerZ": 257.2119140625,
    "radius": 15.0,
    "targetGadgetID": [
      "Q1904008_Check1",
      "Q1904008_Check2",
      "Q1904008_Check3",
      "Q1904008_Check4"
    ],
    "endTime": 24.0,
    "questid": 1904008,
    "finishTipsTextMapHash": 3997164044,
    "startTipsTextMapHash": 3647792241
  },
  {
    "taskId": 10069,
    "taskType": "PHOTOGRAPH_TASK_TYPE_INTERACTION",
    "sceneID": 9,
    "centerX": 532.2175903320312,
    "centerY": 191.75840759277344,
    "centerZ": -94.09629821777344,
    "radius": 10.0,
    "targetGadgetID": [
      "Q7902104_Check1",
      "Q7902104_Check2",
      "Q7902104_Check3",
      "Q7902104_Check4"
    ],
    "endTime": 24.0,
    "questid": 7902106,
    "finishTipsTextMapHash": 3959446916,
    "startTipsTextMapHash": 2941712593
  },
  {
    "taskId": 10070,
    "taskType": "PHOTOGRAPH_TASK_TYPE_INTERACTION",
    "sceneID": 3,
    "centerX": -452.11358642578125,
    "centerY": 200.11549377441406,
    "centerZ": 2901.929931640625,
    "radius": 5.0,
    "targetGadgetID": [
      "Q2302704_target1",
      "Q2302704_target2",
      "Q2302704_target3",
      "Q2302704_target3"
    ],
    "endTime": 24.0,
    "questid": 2302704,
    "finishTipsTextMapHash": 3461446100,
    "startTipsTextMapHash": 652805185
  },
  {
    "taskId": 10071,
    "taskType": "PHOTOGRAPH_TASK_TYPE_INTERACTION",
    "sceneID": 3,
    "centerX": -263.30279541015625,
    "centerY": 200.99789428710938,
    "centerZ": 2676.2470703125,
    "radius": 5.0,
    "targetGadgetID": [
      "Q2302707_target1",
      "Q2302707_target2",
      "Q2302707_target3",
      "Q2302707_target3"
    ],
    "endTime": 24.0,
    "questid": 2302707,
    "finishTipsTextMapHash": 2896959020,
    "startTipsTextMapHash": 4031725121
  },
  {
    "taskId": 10072,
    "taskType": "PHOTOGRAPH_TASK_TYPE_INTERACTION",
    "sceneID": 3,
    "centerX": -258.1499938964844,
    "centerY": 168.7335968017578,
    "centerZ": 2415.31494140625,
    "radius": 5.0,
    "targetGadgetID": [
      "Q2302710_target1",
      "Q2302710_target2",
      "Q2302710_target3",
      "Q2302710_target3"
    ],
    "endTime": 24.0,
    "questid": 2302710,
    "finishTipsTextMapHash": 1417363804,
    "startTipsTextMapHash": 955507201
  },
  {
    "taskId": 10073,
    "taskType": "PHOTOGRAPH_TASK_TYPE_INTERACTION",
    "sceneID": 3,
    "centerX": -35.4675407409668,
    "centerY": 300.1759033203125,
    "centerZ": 2810.73193359375,
    "radius": 5.0,
    "targetGadgetID": [
      "Q2302903_target1",
      "Q2302903_target2",
      "Q2302903_target3",
      "Q2302903_target4"
    ],
    "endTime": 24.0,
    "questid": 2302903,
    "finishTipsTextMapHash": 4098775100,
    "startTipsTextMapHash": 1915993833
  },
  {
    "taskId": 10074,
    "taskType": "PHOTOGRAPH_TASK_TYPE_INTERACTION",
    "sceneID": 3,
    "centerX": -651.5150146484375,
    "centerY": 159.408203125,
    "centerZ": 2703.01806640625,
    "radius": 5.0,
    "targetGadgetID": [
      "Q2303309_N12130",
      "Q2303309_N12130",
      "Q2303309_N12130",
      "Q2303309_N12130"
    ],
    "endTime": 24.0,
    "questid": 2303309,
    "finishTipsTextMapHash": 3167932004,
    "startTipsTextMapHash": 2043401665
  },
  {
    "taskId": 10075,
    "taskType": "PHOTOGRAPH_TASK_TYPE_INTERACTION",
    "sceneID": 1074,
    "centerX": -7.5,
    "centerY": 0.5550000071525574,
    "centerZ": 7.4730000495910645,
    "radius": 10.0,
    "targetGadgetID": [
      "Q2303505_CynoCam",
      "Q2303505_CynoCam",
      "Q2303505_CynoCam",
      "Q2303505_CynoCam"
    ],
    "endTime": 24.0,
    "questid": 2303505,
    "finishTipsTextMapHash": 2140116604,
    "startTipsTextMapHash": 2203638657
  },
  {
    "taskId": 10076,
    "sceneID": 3,
    "centerX": -526.9340209960938,
    "centerY": 201.52499389648438,
    "centerZ": 2838.325927734375,
    "radius": 10.0,
    "targetGadgetID": [
      "RQ30031_1",
      "RQ30031_1",
      "RQ30031_1",
      "RQ30031_1"
    ],
    "endTime": 24.0,
    "questid": 3003102,
    "finishTipsTextMapHash": 1785225860,
    "startTipsTextMapHash": 3368349513
  },
  {
    "taskId": 10077,
    "sceneID": 3,
    "centerX": -1954.3909912109375,
    "centerY": 202.32949829101562,
    "centerZ": 2489.404052734375,
    "radius": 10.0,
    "targetGadgetID": [
      "RQ30031_2",
      "RQ30031_2",
      "RQ30031_2",
      "RQ30031_2"
    ],
    "endTime": 24.0,
    "questid": 3003102,
    "finishTipsTextMapHash": 1040181108,
    "startTipsTextMapHash": 888712617
  },
  {
    "taskId": 10078,
    "sceneID": 3,
    "centerX": -2012.6610107421875,
    "centerY": 201.389404296875,
    "centerZ": 2455.830078125,
    "radius": 10.0,
    "targetGadgetID": [
      "RQ30031_3",
      "RQ30031_3",
      "RQ30031_3",
      "RQ30031_3"
    ],
    "endTime": 24.0,
    "questid": 3003102,
    "finishTipsTextMapHash": 2951274516,
    "startTipsTextMapHash": 130438817
  },
  {
    "taskId": 10079,
    "sceneID": 3,
    "centerX": -1558.6390380859375,
    "centerY": 250.41490173339844,
    "centerZ": 3824.034912109375,
    "radius": 10.0,
    "targetGadgetID": [
      "RQ30031_4",
      "RQ30031_4",
      "RQ30031_4",
      "RQ30031_4"
    ],
    "endTime": 24.0,
    "questid": 3003102,
    "finishTipsTextMapHash": 3223571012,
    "startTipsTextMapHash": 4221341489
  },
  {
    "taskId": 10080,
    "sceneID": 3,
    "centerX": -1646.5550537109375,
    "centerY": 259.9065856933594,
    "centerZ": 3872.218017578125,
    "radius": 10.0,
    "targetGadgetID": [
      "RQ30031_5",
      "RQ30031_5",
      "RQ30031_5",
      "RQ30031_5"
    ],
    "endTime": 24.0,
    "questid": 3003102,
    "finishTipsTextMapHash": 3771643964,
    "startTipsTextMapHash": 504221553
  },
  {
    "taskId": 10081,
    "sceneID": 3,
    "centerX": -794.952880859375,
    "centerY": 165.37750244140625,
    "centerZ": 2439.696044921875,
    "radius": 10.0,
    "targetGadgetID": [
      "RQ30031_6",
      "RQ30031_6",
      "RQ30031_6",
      "RQ30031_6"
    ],
    "endTime": 24.0,
    "questid": 3003102,
    "finishTipsTextMapHash": 1584923076,
    "startTipsTextMapHash": 2025564225
  },
  {
    "taskId": 10082,
    "sceneID": 3,
    "centerX": -1912.0560302734375,
    "centerY": 203.09970092773438,
    "centerZ": 2507.22802734375,
    "radius": 5.0,
    "targetGadgetID": [
      "Q4008318_Target",
      "Q4008318_Target",
      "Q4008318_Target",
      "Q4008318_Target"
    ],
    "endTime": 24.0,
    "questid": 4008318,
    "finishTipsTextMapHash": 1504030556,
    "startTipsTextMapHash": 669545657
  },
  {
    "taskId": 10083,
    "taskType": "PHOTOGRAPH_TASK_TYPE_INTERACTION",
    "sceneID": 3,
    "centerX": -266.75299072265625,
    "centerY": 246.34219360351562,
    "centerZ": 307.364501953125,
    "radius": 5.0,
    "targetGadgetID": [
      "Q21038_photo1",
      "Q21038_photo2",
      "Q21038_SUNYU",
      "Q21038_SUNYU"
    ],
    "endTime": 24.0,
    "questid": 2103802,
    "finishTipsTextMapHash": 2756373164,
    "startTipsTextMapHash": 2952086625
  },
  {
    "taskId": 10084,
    "taskType": "PHOTOGRAPH_TASK_TYPE_INTERACTION",
    "sceneID": 10,
    "centerX": -54.0,
    "centerY": 396.79998779296875,
    "centerZ": 1388.1600341796875,
    "radius": 150.0,
    "targetGadgetID": [
      "Q7905403_Check1",
      "Q7905403_Check2",
      "Q7905403_Check3",
      "Q7905403_Check4"
    ],
    "endTime": 24.0,
    "questid": 7905403,
    "finishTipsTextMapHash": 4153482364,
    "startTipsTextMapHash": 175469553
  },
  {
    "taskId": 10085,
    "taskType": "PHOTOGRAPH_TASK_TYPE_INTERACTION",
    "sceneID": 10,
    "centerX": 331.3692932128906,
    "centerY": 225.15289306640625,
    "centerZ": -174.00790405273438,
    "radius": 10.0,
    "targetGadgetID": [
      "Studio1_A",
      "Studio1_B",
      "Studio1_C",
      "Studio1_D"
    ],
    "endTime": 24.0,
    "questid": 7905502,
    "finishTipsTextMapHash": 1671836276,
    "startTipsTextMapHash": 3009896017,
    "FMCNFHKAFIE": 510020021,
    "GHHIADCECAA": 21003,
    "BLMFALPKKEJ": 201
  },
  {
    "taskId": 10086,
    "taskType": "PHOTOGRAPH_TASK_TYPE_INTERACTION",
    "sceneID": 3,
    "centerX": -543.3931884765625,
    "centerY": 201.5522003173828,
    "centerZ": 2796.635009765625,
    "radius": 5.0,
    "targetGadgetID": [
      "Q7335003_Photo1",
      "Q7335003_Photo2",
      "Q7335003_Photo3",
      "Q7335003_Photo4"
    ],
    "endTime": 24.0,
    "questid": 7335002,
    "finishTipsTextMapHash": 3171428844,
    "startTipsTextMapHash": 2762266865
  },
  {
    "taskId": 10087,
    "taskType": "PHOTOGRAPH_TASK_TYPE_INTERACTION",
    "sceneID": 3,
    "centerX": 2593.47900390625,
    "centerY": 325.4836120605469,
    "centerZ": 4512.662109375,
    "radius": 5.0,
    "targetGadgetID": [
      "Q24009_photo_1_target1",
      "Q24009_photo_1_target2",
      "Q24009_photo_1_target3",
      "Q24009_photo_1_target4"
    ],
    "endTime": 24.0,
    "questid": 2400903,
    "finishTipsTextMapHash": 2601626932,
    "startTipsTextMapHash": 1183148049
  },
  {
    "taskId": 10088,
    "taskType": "PHOTOGRAPH_TASK_TYPE_INTERACTION",
    "sceneID": 3,
    "centerX": 3282.751953125,
    "centerY": 317.26800537109375,
    "centerZ": 4537.623046875,
    "radius": 5.0,
    "targetGadgetID": [
      "Q24009_photo_2_target1",
      "Q24009_photo_2_target1",
      "Q24009_photo_2_target2",
      "Q24009_photo_2_target3"
    ],
    "endTime": 24.0,
    "questid": 2400905,
    "finishTipsTextMapHash": 3759968660,
    "startTipsTextMapHash": 3152479937
  },
  {
    "taskId": 10089,
    "taskType": "PHOTOGRAPH_TASK_TYPE_INTERACTION",
    "sceneID": 3,
    "centerX": 2798.2080078125,
    "centerY": 418.78948974609375,
    "centerZ": 4412.89794921875,
    "radius": 5.0,
    "targetGadgetID": [
      "Q24009_photo_3_target1",
      "Q24009_photo_3_target2",
      "Q24009_photo_3_target3",
      "Q24009_photo_3_target4"
    ],
    "endTime": 24.0,
    "questid": 2400907,
    "finishTipsTextMapHash": 3658728532,
    "startTipsTextMapHash": 351319801
  },
  {
    "taskId": 10090,
    "taskType": "PHOTOGRAPH_TASK_TYPE_INTERACTION",
    "sceneID": 3,
    "centerX": 3050.26904296875,
    "centerY": 399.0768127441406,
    "centerZ": 4614.3017578125,
    "radius": 5.0,
    "targetGadgetID": [
      "Q24009_photo_4_target1",
      "Q24009_photo_4_target2",
      "Q24009_photo_4_target3",
      "Q24009_photo_4_target4"
    ],
    "endTime": 24.0,
    "questid": 2400911,
    "finishTipsTextMapHash": 4145751788,
    "startTipsTextMapHash": 907276553
  },
  {
    "taskId": 10091,
    "taskType": "PHOTOGRAPH_TASK_TYPE_INTERACTION",
    "sceneID": 3,
    "centerX": 3193.322021484375,
    "centerY": 404.110595703125,
    "centerZ": 4621.10400390625,
    "radius": 5.0,
    "targetGadgetID": [
      "Q24009_photo_5_target1",
      "Q24009_photo_5_target2",
      "Q24009_photo_5_target3",
      "Q24009_photo_5_target4"
    ],
    "endTime": 24.0,
    "questid": 2400912,
    "finishTipsTextMapHash": 1147721100,
    "startTipsTextMapHash": 1197748657
  },
  {
    "taskId": 10092,
    "taskType": "PHOTOGRAPH_TASK_TYPE_INTERACTION",
    "sceneID": 3,
    "centerX": 3033.91796875,
    "centerY": 379.8100891113281,
    "centerZ": 4464.2021484375,
    "radius": 5.0,
    "targetGadgetID": [
      "Q24009_photo_6_target1",
      "Q24009_photo_6_target2",
      "Q24009_photo_6_target3",
      "Q24009_photo_6_target4"
    ],
    "endTime": 24.0,
    "questid": 2400913,
    "finishTipsTextMapHash": 3214899156,
    "startTipsTextMapHash": 2223147769
  },
  {
    "taskId": 10093,
    "taskType": "PHOTOGRAPH_TASK_TYPE_INTERACTION",
    "sceneID": 10,
    "centerX": 458.4396057128906,
    "centerY": 321.935791015625,
    "centerZ": -131.05580139160156,
    "radius": 10.0,
    "targetGadgetID": [
      "Studio2_A",
      "Studio2_B",
      "Studio2_C",
      "Studio2_D"
    ],
    "endTime": 24.0,
    "questid": 7905802,
    "finishTipsTextMapHash": 3188057100,
    "startTipsTextMapHash": 3261520697,
    "FMCNFHKAFIE": 510020174,
    "GHHIADCECAA": 174003,
    "BLMFALPKKEJ": 201
  },
  {
    "taskId": 10094,
    "taskType": "PHOTOGRAPH_TASK_TYPE_INTERACTION",
    "sceneID": 10,
    "centerX": 443.7477111816406,
    "centerY": 327.3840026855469,
    "centerZ": -259.72149658203125,
    "radius": 10.0,
    "targetGadgetID": [
      "Studio3_A",
      "Studio3_B",
      "Studio3_C",
      "Studio3_D"
    ],
    "endTime": 24.0,
    "questid": 7905902,
    "finishTipsTextMapHash": 3837776740,
    "startTipsTextMapHash": 2230445713,
    "FMCNFHKAFIE": 510020176,
    "GHHIADCECAA": 176002,
    "BLMFALPKKEJ": 201
  },
  {
    "taskId": 10095,
    "taskType": "PHOTOGRAPH_TASK_TYPE_INTERACTION",
    "sceneID": 3,
    "centerX": 2491.926025390625,
    "centerY": 252.6405029296875,
    "centerZ": 4607.84716796875,
    "radius": 5.0,
    "targetGadgetID": [
      "Q7411508_guide",
      "Q7411508_guide",
      "Q7411508_guide",
      "Q7411508_guide"
    ],
    "endTime": 24.0,
    "questid": 7411508,
    "finishTipsTextMapHash": 580804100,
    "startTipsTextMapHash": 497938857
  },
  {
    "taskId": 10096,
    "taskType": "PHOTOGRAPH_TASK_TYPE_INTERACTION",
    "sceneID": 3,
    "centerX": 4730.02490234375,
    "centerY": 684.15478515625,
    "centerZ": 3890.5849609375,
    "radius": 10.0,
    "targetGadgetID": [
      "Q7405347_photo1",
      "Q7405347_photo2",
      "Q7405347_photo3",
      "Q7405347_photo3"
    ],
    "endTime": 24.0,
    "questid": 7405347,
    "finishTipsTextMapHash": 2259847588,
    "startTipsTextMapHash": 4231570793
  },
  {
    "taskId": 10101,
    "sceneID": 3,
    "centerX": 4323.244140625,
    "centerY": 486.660888671875,
    "centerZ": 4142.64990234375,
    "radius": 5.0,
    "targetGadgetID": [
      "Q7412708_P1",
      "Q7412708_P2",
      "Q7412708_P3",
      "Q7412708_P4"
    ],
    "endTime": 24.0,
    "questid": 7412708,
    "finishTipsTextMapHash": 273208940,
    "startTipsTextMapHash": 3288845153
  },
  {
    "taskId": 10103,
    "taskType": "PHOTOGRAPH_TASK_TYPE_INTERACTION",
    "sceneID": 3,
    "centerX": 3288.825927734375,
    "centerY": 407.393310546875,
    "centerZ": 3884.498046875,
    "radius": 5.0,
    "targetGadgetID": [
      "Q7416413_pos01",
      "Q7416413_pos01",
      "Q7416413_pos01",
      "Q7416413_pos01"
    ],
    "endTime": 24.0,
    "questid": 7416413,
    "finishTipsTextMapHash": 2868045244,
    "startTipsTextMapHash": 1558201265
  },
  {
    "taskId": 10104,
    "taskType": "PHOTOGRAPH_TASK_TYPE_INTERACTION",
    "sceneID": 3,
    "centerX": 3288.825927734375,
    "centerY": 407.393310546875,
    "centerZ": 3884.498046875,
    "radius": 5.0,
    "targetGadgetID": [
      "Q7416414_pos01",
      "Q7416414_pos01",
      "Q7416414_pos01",
      "Q7416414_pos01"
    ],
    "endTime": 24.0,
    "questid": 7416414,
    "finishTipsTextMapHash": 1656695132,
    "startTipsTextMapHash": 1194036033
  },
  {
    "taskId": 10105,
    "taskType": "PHOTOGRAPH_TASK_TYPE_INTERACTION",
    "sceneID": 3,
    "centerX": 3288.825927734375,
    "centerY": 407.393310546875,
    "centerZ": 3884.498046875,
    "radius": 5.0,
    "targetGadgetID": [
      "Q7416415_pos01",
      "Q7416415_pos01",
      "Q7416415_pos01",
      "Q7416415_pos01"
    ],
    "endTime": 24.0,
    "questid": 7416415,
    "finishTipsTextMapHash": 3352965100,
    "startTipsTextMapHash": 2391451681
  }
]