[
  {
    "dungeonId": 7601,
    "groupList": [
      246201001,
      246201002,
      246201003,
      246201004
    ],
    "roundList": [
      {
        "RoomCount": 3,
        "roundRoomConfigList": [
          1001
        ],
        "hpCorrection": 10
      },
      {
        "RoomCount": 3,
        "roundRoomConfigList": [
          1002,
          1003
        ],
        "hpCorrection": 10
      },
      {
        "RoomCount": 3,
        "roundRoomConfigList": [
          1044,
          1045
        ],
        "hpCorrection": 10
      }
    ]
  },
  {
    "dungeonId": 7602,
    "groupList": [
      246202001,
      246202002,
      246202003,
      246202005,
      246202006,
      246202007
    ],
    "roundList": [
      {
        "RoomCount": 3,
        "roundRoomConfigList": [
          1006
        ],
        "hpCorrection": 10
      },
      {
        "RoomCount": 3,
        "roundRoomConfigList": [
          1002,
          1005
        ],
        "hpCorrection": 10
      },
      {
        "RoomCount": 3,
        "roundRoomConfigList": [
          1046,
          1047,
          1048
        ],
        "hpCorrection": 10
      }
    ]
  },
  {
    "dungeonId": 7603,
    "groupList": [
      246203001,
      246203002,
      246203003,
      246203004
    ],
    "roundList": [
      {
        "RoomCount": 3,
        "roundRoomConfigList": [
          1007,
          1008,
          1009
        ],
        "hpCorrection": 10
      },
      {
        "RoomCount": 3,
        "roundRoomConfigList": [
          1003,
          1004
        ],
        "hpCorrection": 10
      },
      {
        "RoomCount": 3,
        "roundRoomConfigList": [
          1038,
          1041,
          1049
        ],
        "hpCorrection": 10
      }
    ]
  },
  {
    "dungeonId": 7604,
    "groupList": [
      246201001,
      246201002,
      246201003,
      246201004
    ],
    "roundList": [
      {
        "RoomCount": 3,
        "roundRoomConfigList": [
          1001,
          1002,
          1003
        ],
        "hpCorrection": 10
      },
      {
        "RoomCount": 3,
        "roundRoomConfigList": [
          1009,
          1012,
          1016
        ],
        "hpCorrection": 10
      },
      {
        "RoomCount": 3,
        "roundRoomConfigList": [
          1071,
          1072,
          1064
        ],
        "hpCorrection": 10
      }
    ]
  },
  {
    "dungeonId": 7605,
    "groupList": [
      246202001,
      246202002,
      246202003,
      246202005,
      246202006,
      246202007
    ],
    "roundList": [
      {
        "RoomCount": 3,
        "roundRoomConfigList": [
          1001,
          1006,
          1007
        ],
        "hpCorrection": 10
      },
      {
        "RoomCount": 3,
        "roundRoomConfigList": [
          1002,
          1004,
          1011
        ],
        "hpCorrection": 10
      },
      {
        "RoomCount": 3,
        "roundRoomConfigList": [
          1063,
          1064,
          1065,
          1066
        ],
        "hpCorrection": 10
      }
    ]
  },
  {
    "dungeonId": 7606,
    "groupList": [
      246203001,
      246203002,
      246203003,
      246203004
    ],
    "roundList": [
      {
        "RoomCount": 3,
        "roundRoomConfigList": [
          1008,
          1009,
          1010
        ],
        "hpCorrection": 10
      },
      {
        "RoomCount": 3,
        "roundRoomConfigList": [
          1003,
          1005,
          1015
        ],
        "hpCorrection": 10
      },
      {
        "RoomCount": 3,
        "roundRoomConfigList": [
          1055,
          1056,
          1057,
          1058,
          1067
        ],
        "hpCorrection": 10
      }
    ]
  },
  {
    "dungeonId": 7616,
    "groupList": [
      246201001,
      246201002,
      246201003,
      246201004
    ],
    "roundList": [
      {
        "RoomCount": 3,
        "roundRoomConfigList": [
          1001,
          1002,
          1003
        ],
        "hpCorrection": 10
      },
      {
        "RoomCount": 3,
        "roundRoomConfigList": [
          1009,
          1012,
          1016
        ],
        "hpCorrection": 10
      },
      {
        "RoomCount": 3,
        "roundRoomConfigList": [
          1071,
          1072,
          1064
        ],
        "hpCorrection": 10
      }
    ]
  },
  {
    "dungeonId": 7617,
    "groupList": [
      246202001,
      246202002,
      246202003,
      246202005,
      246202006,
      246202007
    ],
    "roundList": [
      {
        "RoomCount": 3,
        "roundRoomConfigList": [
          1017,
          1006,
          1007
        ],
        "hpCorrection": 10
      },
      {
        "RoomCount": 3,
        "roundRoomConfigList": [
          1002,
          1004,
          1011
        ],
        "hpCorrection": 10
      },
      {
        "RoomCount": 3,
        "roundRoomConfigList": [
          1063,
          1064,
          1065,
          1066
        ],
        "hpCorrection": 10
      }
    ]
  },
  {
    "dungeonId": 7618,
    "groupList": [
      246203001,
      246203002,
      246203003,
      246203004
    ],
    "roundList": [
      {
        "RoomCount": 3,
        "roundRoomConfigList": [
          1008,
          1014,
          1010
        ],
        "hpCorrection": 10
      },
      {
        "RoomCount": 3,
        "roundRoomConfigList": [
          1003,
          1005,
          1015
        ],
        "hpCorrection": 10
      },
      {
        "RoomCount": 3,
        "roundRoomConfigList": [
          1055,
          1056,
          1057,
          1058,
          1067
        ],
        "hpCorrection": 10
      }
    ]
  },
  {
    "dungeonId": 7607,
    "groupList": [
      246201001,
      246201002,
      246201003,
      246201004
    ],
    "roundList": [
      {
        "RoomCount": 3,
        "roundRoomConfigList": [
          1090,
          1073,
          1074
        ],
        "hpCorrection": 10
      },
      {
        "RoomCount": 3,
        "roundRoomConfigList": [
          1077,
          1078,
          1079
        ],
        "hpCorrection": 10
      },
      {
        "roundRoomConfigList": []
      }
    ]
  },
  {
    "dungeonId": 7608,
    "groupList": [
      246202001,
      246202002,
      246202003,
      246202005,
      246202006,
      246202007
    ],
    "roundList": [
      {
        "RoomCount": 3,
        "roundRoomConfigList": [
          1091,
          1075,
          1076
        ],
        "hpCorrection": 10
      },
      {
        "RoomCount": 3,
        "roundRoomConfigList": [
          1084,
          1085,
          1086,
          1087,
          1088
        ],
        "hpCorrection": 10
      },
      {
        "roundRoomConfigList": []
      }
    ]
  },
  {
    "dungeonId": 7609,
    "groupList": [
      246203001,
      246203002,
      246203003,
      246203004
    ],
    "roundList": [
      {
        "RoomCount": 3,
        "roundRoomConfigList": [
          1080,
          1081,
          1089
        ],
        "hpCorrection": 10
      },
      {
        "RoomCount": 3,
        "roundRoomConfigList": [
          1059,
          1060,
          1061,
          1062,
          1069,
          1070
        ],
        "hpCorrection": 10
      },
      {
        "roundRoomConfigList": []
      }
    ]
  },
  {
    "dungeonId": 7610,
    "groupList": [
      246201001,
      246201002,
      246201003,
      246201004
    ],
    "roundList": [
      {
        "RoomCount": 3,
        "roundRoomConfigList": [
          1090,
          1073,
          1074
        ],
        "hpCorrection": 10
      },
      {
        "RoomCount": 3,
        "roundRoomConfigList": [
          1077,
          1078,
          1079
        ],
        "hpCorrection": 10
      },
      {
        "roundRoomConfigList": []
      }
    ]
  },
  {
    "dungeonId": 7611,
    "groupList": [
      246202001,
      246202002,
      246202003,
      246202005,
      246202006,
      246202007
    ],
    "roundList": [
      {
        "RoomCount": 3,
        "roundRoomConfigList": [
          1091,
          1075,
          1076
        ],
        "hpCorrection": 10
      },
      {
        "RoomCount": 3,
        "roundRoomConfigList": [
          1084,
          1085,
          1086,
          1087,
          1088
        ],
        "hpCorrection": 10
      },
      {
        "roundRoomConfigList": []
      }
    ]
  },
  {
    "dungeonId": 7612,
    "groupList": [
      246203001,
      246203002,
      246203003,
      246203004
    ],
    "roundList": [
      {
        "RoomCount": 3,
        "roundRoomConfigList": [
          1080,
          1081,
          1089
        ],
        "hpCorrection": 10
      },
      {
        "RoomCount": 3,
        "roundRoomConfigList": [
          1059,
          1060,
          1061,
          1062,
          1069,
          1070
        ],
        "hpCorrection": 10
      },
      {
        "roundRoomConfigList": []
      }
    ]
  },
  {
    "dungeonId": 7613,
    "groupList": [
      246201001,
      246201002,
      246201003,
      246201004
    ],
    "roundList": [
      {
        "RoomCount": 3,
        "roundRoomConfigList": [
          1073,
          1074
        ],
        "hpCorrection": 10
      },
      {
        "RoomCount": 3,
        "roundRoomConfigList": [
          1077,
          1078,
          1079
        ],
        "hpCorrection": 10
      },
      {
        "roundRoomConfigList": []
      }
    ]
  },
  {
    "dungeonId": 7614,
    "groupList": [
      246202001,
      246202002,
      246202003,
      246202005,
      246202006,
      246202007
    ],
    "roundList": [
      {
        "RoomCount": 3,
        "roundRoomConfigList": [
          1091,
          1075,
          1076
        ],
        "hpCorrection": 10
      },
      {
        "RoomCount": 3,
        "roundRoomConfigList": [
          1084,
          1085,
          1086,
          1087,
          1088
        ],
        "hpCorrection": 10
      },
      {
        "roundRoomConfigList": []
      }
    ]
  },
  {
    "dungeonId": 7615,
    "groupList": [
      246203001,
      246203002,
      246203003,
      246203004
    ],
    "roundList": [
      {
        "RoomCount": 3,
        "roundRoomConfigList": [
          1080,
          1081,
          1089
        ],
        "hpCorrection": 10
      },
      {
        "RoomCount": 3,
        "roundRoomConfigList": [
          1059,
          1060,
          1061,
          1062,
          1069,
          1070
        ],
        "hpCorrection": 10
      },
      {
        "roundRoomConfigList": []
      }
    ]
  }
]