[
  {
    "id": 101,
    "sceneTagName": "Hdj",
    "sceneId": 3,
    "isIndependent": true,
    "cond": [
      {
        "condType": "SCENE_TAG_COND_TYPE_SPECIFIC_ACTIVITY_OPEN",
        "param1": 1001
      },
      {}
    ]
  },
  {
    "id": 102,
    "sceneTagName": "JadeChamber",
    "sceneId": 3,
    "isDefaultValid": true,
    "isIndependent": true,
    "cond": [
      {
        "condType": "SCENE_TAG_COND_TYPE_QUEST_GLOBAL_VAR_EQUAL",
        "param1": 10008,
        "param2": 1
      },
      {}
    ]
  },
  {
    "id": 103,
    "sceneTagName": "JadeChamber",
    "sceneId": 3,
    "isIndependent": true,
    "cond": [
      {
        "condType": "SCENE_TAG_COND_TYPE_QUEST_GLOBAL_VAR_EQUAL",
        "param1": 10009,
        "param2": 1
      },
      {}
    ]
  },
  {
    "id": 104,
    "sceneTagName": "Hdj",
    "sceneId": 3,
    "isIndependent": true,
    "cond": [
      {
        "condType": "SCENE_TAG_COND_TYPE_ACTIVITY_CONTENT_OPEN",
        "param1": 2002
      },
      {
        "condType": "SCENE_TAG_COND_TYPE_QUEST_FINISH",
        "param1": 1110311
      }
    ]
  },
  {
    "id": 105,
    "sceneTagName": "Fhj",
    "sceneId": 3,
    "isIndependent": true,
    "cond": [
      {
        "condType": "SCENE_TAG_COND_TYPE_ACTIVITY_CONTENT_OPEN",
        "param1": 2003
      },
      {
        "condType": "SCENE_TAG_COND_TYPE_QUEST_FINISH",
        "param1": 39604
      }
    ]
  },
  {
    "id": 106,
    "sceneTagName": "SummerTime",
    "sceneId": 4,
    "isIndependent": true,
    "cond": [
      {
        "condType": "SCENE_TAG_COND_TYPE_ACTIVITY_CONTENT_OPEN",
        "param1": 2005
      },
      {
        "condType": "SCENE_TAG_COND_TYPE_QUEST_FINISH",
        "param1": 4001103
      }
    ]
  },
  {
    "id": 107,
    "sceneTagName": "KlinSeal",
    "sceneId": 3,
    "isDefaultValid": true,
    "isIndependent": true,
    "cond": [
      {},
      {}
    ]
  },
  {
    "id": 108,
    "sceneTagName": "SummerTime_High",
    "sceneId": 4,
    "isIndependent": true,
    "cond": [
      {},
      {}
    ]
  },
  {
    "id": 109,
    "sceneTagName": "SummerTime_Low",
    "sceneId": 4,
    "isIndependent": true,
    "cond": [
      {},
      {}
    ]
  },
  {
    "id": 111,
    "sceneTagName": "Ruinup",
    "sceneId": 3,
    "isIndependent": true,
    "cond": [
      {},
      {}
    ]
  },
  {
    "id": 112,
    "sceneTagName": "QLFightPlatform",
    "sceneId": 3,
    "isIndependent": true,
    "cond": [
      {},
      {}
    ]
  },
  {
    "id": 113,
    "sceneTagName": "Lmboss_01",
    "sceneId": 3,
    "isDefaultValid": true,
    "isIndependent": true,
    "cond": [
      {},
      {}
    ]
  },
  {
    "id": 114,
    "sceneTagName": "FlowerZone_01",
    "sceneId": 3,
    "isIndependent": true,
    "cond": [
      {},
      {}
    ]
  },
  {
    "id": 115,
    "sceneTagName": "FlowerZone_02",
    "sceneId": 3,
    "isIndependent": true,
    "cond": [
      {},
      {}
    ]
  },
  {
    "id": 116,
    "sceneTagName": "Lmboss_02",
    "sceneId": 3,
    "isIndependent": true,
    "cond": [
      {},
      {}
    ]
  },
  {
    "id": 117,
    "sceneTagName": "LYDS_01",
    "sceneId": 3,
    "isDefaultValid": true,
    "isIndependent": true,
    "cond": [
      {},
      {}
    ]
  },
  {
    "id": 118,
    "sceneTagName": "LYDS_02",
    "sceneId": 3,
    "isIndependent": true,
    "cond": [
      {},
      {}
    ]
  },
  {
    "id": 119,
    "sceneTagName": "Zyj",
    "sceneId": 3,
    "isIndependent": true,
    "cond": [
      {},
      {}
    ]
  },
  {
    "id": 120,
    "sceneTagName": "AbyssalNight",
    "sceneId": 5,
    "isSkipLoading": true,
    "cond": [
      {},
      {}
    ]
  },
  {
    "id": 121,
    "sceneTagName": "AbyssalIsle",
    "sceneId": 5,
    "cond": [
      {},
      {}
    ]
  },
  {
    "id": 122,
    "sceneTagName": "AbyssalEvent",
    "sceneId": 5,
    "cond": [
      {},
      {}
    ]
  },
  {
    "id": 123,
    "sceneTagName": "AbyssalEventNight",
    "sceneId": 5,
    "cond": [
      {},
      {}
    ]
  },
  {
    "id": 124,
    "sceneTagName": "WinterCamp",
    "sceneId": 3,
    "isIndependent": true,
    "cond": [
      {
        "condType": "SCENE_TAG_COND_TYPE_SPECIFIC_ACTIVITY_OPEN",
        "param1": 2009
      },
      {}
    ]
  },
  {
    "id": 125,
    "sceneTagName": "Hguan01",
    "sceneId": 3,
    "isDefaultValid": true,
    "isIndependent": true,
    "cond": [
      {},
      {}
    ]
  },
  {
    "id": 126,
    "sceneTagName": "Hguan02",
    "sceneId": 3,
    "isIndependent": true,
    "cond": [
      {},
      {}
    ]
  },
  {
    "id": 127,
    "sceneTagName": "Hguan03",
    "sceneId": 3,
    "isIndependent": true,
    "cond": [
      {},
      {}
    ]
  },
  {
    "id": 128,
    "sceneTagName": "RBQyg_01",
    "sceneId": 3,
    "isSkipLoading": true,
    "isIndependent": true,
    "cond": [
      {},
      {}
    ]
  },
  {
    "id": 129,
    "sceneTagName": "RBQyg_02",
    "sceneId": 3,
    "isSkipLoading": true,
    "isIndependent": true,
    "cond": [
      {},
      {}
    ]
  },
  {
    "id": 130,
    "sceneTagName": "RBQyg_03",
    "sceneId": 3,
    "isSkipLoading": true,
    "isIndependent": true,
    "cond": [
      {},
      {}
    ]
  },
  {
    "id": 131,
    "sceneTagName": "RBQyg_04",
    "sceneId": 3,
    "isSkipLoading": true,
    "isIndependent": true,
    "cond": [
      {},
      {}
    ]
  },
  {
    "id": 133,
    "sceneTagName": "RBQyg_Stage",
    "sceneId": 3,
    "isSkipLoading": true,
    "isIndependent": true,
    "cond": [
      {},
      {}
    ]
  },
  {
    "id": 134,
    "sceneTagName": "TongqueTemple_Old",
    "sceneId": 3,
    "isDefaultValid": true,
    "isIndependent": true,
    "cond": [
      {},
      {}
    ]
  },
  {
    "id": 135,
    "sceneTagName": "TongqueTemple_New",
    "sceneId": 3,
    "isIndependent": true,
    "cond": [
      {},
      {}
    ]
  },
  {
    "id": 136,
    "sceneTagName": "Aby_LightOFF",
    "sceneId": 7,
    "isDefaultValid": true,
    "isIndependent": true,
    "cond": [
      {},
      {}
    ]
  },
  {
    "id": 137,
    "sceneTagName": "AbyIsle_Const",
    "sceneId": 7,
    "isDefaultValid": true,
    "isIndependent": true,
    "cond": [
      {},
      {}
    ]
  },
  {
    "id": 138,
    "sceneTagName": "AbyIsle_LightOFF",
    "sceneId": 7,
    "isDefaultValid": true,
    "isIndependent": true,
    "cond": [
      {},
      {}
    ]
  },
  {
    "id": 139,
    "sceneTagName": "HZD01",
    "sceneId": 3,
    "isDefaultValid": true,
    "isIndependent": true,
    "cond": [
      {},
      {}
    ]
  },
  {
    "id": 140,
    "sceneTagName": "HZD02",
    "sceneId": 3,
    "isIndependent": true,
    "cond": [
      {},
      {}
    ]
  },
  {
    "id": 141,
    "sceneTagName": "CYJY_Phase1_ON",
    "sceneId": 3,
    "isDefaultValid": true,
    "isSkipLoading": true,
    "isIndependent": true,
    "cond": [
      {},
      {}
    ]
  },
  {
    "id": 142,
    "sceneTagName": "CYJY_Phase1_OFF",
    "sceneId": 3,
    "isSkipLoading": true,
    "isIndependent": true,
    "cond": [
      {},
      {}
    ]
  },
  {
    "id": 143,
    "sceneTagName": "CYJY_Phase2_ON",
    "sceneId": 6,
    "isDefaultValid": true,
    "isSkipLoading": true,
    "isIndependent": true,
    "cond": [
      {},
      {}
    ]
  },
  {
    "id": 144,
    "sceneTagName": "CYJY_Phase2_OFF",
    "sceneId": 6,
    "isSkipLoading": true,
    "isIndependent": true,
    "cond": [
      {},
      {}
    ]
  },
  {
    "id": 145,
    "sceneTagName": "CYJY_Phase3_ON",
    "sceneId": 6,
    "isDefaultValid": true,
    "isSkipLoading": true,
    "isIndependent": true,
    "cond": [
      {},
      {}
    ]
  },
  {
    "id": 146,
    "sceneTagName": "CYJY_Phase3_OFF",
    "sceneId": 6,
    "isSkipLoading": true,
    "isIndependent": true,
    "cond": [
      {},
      {}
    ]
  },
  {
    "id": 147,
    "sceneTagName": "Irodori",
    "sceneId": 3,
    "isIndependent": true,
    "cond": [
      {},
      {}
    ]
  },
  {
    "id": 148,
    "sceneTagName": "Aby_Event",
    "sceneId": 7,
    "isDefaultValid": true,
    "isIndependent": true,
    "cond": [
      {},
      {}
    ]
  },
  {
    "id": 149,
    "sceneTagName": "SHOPYamashiroKenta",
    "sceneId": 3,
    "isIndependent": true,
    "cond": [
      {},
      {}
    ]
  },
  {
    "id": 150,
    "sceneTagName": "CYJY_Phase4ON",
    "sceneId": 6,
    "isSkipLoading": true,
    "isIndependent": true,
    "cond": [
      {},
      {}
    ]
  },
  {
    "id": 151,
    "sceneTagName": "CYJY_Phase4OFF",
    "sceneId": 6,
    "isSkipLoading": true,
    "isIndependent": true,
    "cond": [
      {},
      {}
    ]
  },
  {
    "id": 152,
    "sceneTagName": "Vintage",
    "sceneId": 3,
    "isIndependent": true,
    "cond": [
      {},
      {}
    ]
  },
  {
    "id": 153,
    "sceneTagName": "Vintage_Md",
    "sceneId": 3,
    "isIndependent": true,
    "cond": [
      {},
      {}
    ]
  },
  {
    "id": 154,
    "sceneTagName": "FungusFighter",
    "sceneId": 3,
    "isIndependent": true,
    "cond": [
      {},
      {}
    ]
  },
  {
    "id": 155,
    "sceneTagName": "BrickBreaker01",
    "sceneId": 3,
    "isIndependent": true,
    "cond": [
      {},
      {}
    ]
  },
  {
    "id": 156,
    "sceneTagName": "BrickBreaker02",
    "sceneId": 3,
    "isSkipLoading": true,
    "isIndependent": true,
    "cond": [
      {},
      {}
    ]
  },
  {
    "id": 157,
    "sceneTagName": "BrickBreaker03",
    "sceneId": 3,
    "isSkipLoading": true,
    "isIndependent": true,
    "cond": [
      {},
      {}
    ]
  },
  {
    "id": 158,
    "sceneTagName": "Hdj01",
    "sceneId": 3,
    "isIndependent": true,
    "cond": [
      {},
      {}
    ]
  },
  {
    "id": 159,
    "sceneTagName": "Hdj02",
    "sceneId": 3,
    "isIndependent": true,
    "cond": [
      {},
      {}
    ]
  },
  {
    "id": 160,
    "sceneTagName": "Hdj_Alcor",
    "sceneId": 3,
    "isIndependent": true,
    "cond": [
      {},
      {}
    ]
  },
  {
    "id": 161,
    "sceneTagName": "Wisdom03_Norm",
    "sceneId": 20176,
    "isDefaultValid": true,
    "isSkipLoading": true,
    "isIndependent": true,
    "cond": [
      {},
      {}
    ]
  },
  {
    "id": 162,
    "sceneTagName": "Wisdom03_Inver",
    "sceneId": 20176,
    "isSkipLoading": true,
    "isIndependent": true,
    "cond": [
      {},
      {}
    ]
  },
  {
    "id": 163,
    "sceneTagName": "Wisdom03_Inver_Routine",
    "sceneId": 20176,
    "isSkipLoading": true,
    "isIndependent": true,
    "cond": [
      {},
      {}
    ]
  },
  {
    "id": 164,
    "sceneTagName": "FleurFairV2",
    "sceneId": 3,
    "isIndependent": true,
    "cond": [
      {},
      {}
    ]
  },
  {
    "id": 165,
    "sceneTagName": "FFV2_MNCH",
    "sceneId": 3,
    "isSkipLoading": true,
    "isIndependent": true,
    "cond": [
      {},
      {}
    ]
  },
  {
    "id": 166,
    "sceneTagName": "PacMan_Day",
    "sceneId": 47401,
    "isDefaultValid": true,
    "isIndependent": true,
    "cond": [
      {},
      {}
    ]
  },
  {
    "id": 167,
    "sceneTagName": "PacMan_Day",
    "sceneId": 47403,
    "isDefaultValid": true,
    "isIndependent": true,
    "cond": [
      {},
      {}
    ]
  },
  {
    "id": 168,
    "sceneTagName": "PacMan_Night",
    "sceneId": 47405,
    "isDefaultValid": true,
    "isIndependent": true,
    "cond": [
      {},
      {}
    ]
  },
  {
    "id": 169,
    "sceneTagName": "PacMan_Night",
    "sceneId": 47406,
    "isDefaultValid": true,
    "isIndependent": true,
    "cond": [
      {},
      {}
    ]
  },
  {
    "id": 170,
    "sceneTagName": "AkaFes",
    "sceneId": 3,
    "isIndependent": true,
    "cond": [
      {
        "condType": "SCENE_TAG_COND_TYPE_SPECIFIC_ACTIVITY_OPEN",
        "param1": 2021
      },
      {}
    ]
  },
  {
    "id": 171,
    "sceneTagName": "Journey01",
    "sceneId": 3,
    "isIndependent": true,
    "cond": [
      {},
      {}
    ]
  },
  {
    "id": 172,
    "sceneTagName": "Journey02",
    "sceneId": 3,
    "isIndependent": true,
    "cond": [
      {},
      {}
    ]
  },
  {
    "id": 173,
    "sceneTagName": "Journey03",
    "sceneId": 3,
    "isIndependent": true,
    "cond": [
      {},
      {}
    ]
  },
  {
    "id": 174,
    "sceneTagName": "Journey04",
    "sceneId": 3,
    "isIndependent": true,
    "cond": [
      {},
      {}
    ]
  },
  {
    "id": 175,
    "sceneTagName": "PoetryFestival",
    "sceneId": 3,
    "isIndependent": true,
    "cond": [
      {},
      {}
    ],
    "AIKFONNMLAK": "SCENE_TAG_TYPE_ACTIVITY"
  },
  {
    "id": 1001,
    "sceneTagName": "Combine_Lyg",
    "sceneId": 3,
    "isIndependent": true,
    "cond": [
      {},
      {}
    ]
  },
  {
    "id": 1002,
    "sceneTagName": "Combine_Mdc",
    "sceneId": 3,
    "isIndependent": true,
    "cond": [
      {},
      {}
    ]
  },
  {
    "id": 1003,
    "sceneTagName": "Aby_LightOFF",
    "sceneId": 5,
    "isIndependent": true,
    "cond": [
      {},
      {}
    ]
  },
  {
    "id": 1004,
    "sceneTagName": "Aby_LightON",
    "sceneId": 5,
    "isIndependent": true,
    "cond": [
      {},
      {}
    ]
  },
  {
    "id": 1005,
    "sceneTagName": "AbyIsle_Const",
    "sceneId": 5,
    "isIndependent": true,
    "cond": [
      {},
      {}
    ]
  },
  {
    "id": 1006,
    "sceneTagName": "AbyIsle_LightON",
    "sceneId": 5,
    "isIndependent": true,
    "cond": [
      {},
      {}
    ]
  },
  {
    "id": 1007,
    "sceneTagName": "AbyIsle_LightOFF",
    "sceneId": 5,
    "isIndependent": true,
    "cond": [
      {},
      {}
    ]
  },
  {
    "id": 1009,
    "sceneTagName": "AbyIsle_NotEvent",
    "sceneId": 5,
    "isIndependent": true,
    "cond": [
      {},
      {}
    ]
  },
  {
    "id": 1010,
    "sceneTagName": "AbyIsle_NotEventLightOFF",
    "sceneId": 5,
    "isIndependent": true,
    "cond": [
      {},
      {}
    ]
  },
  {
    "id": 1011,
    "sceneTagName": "Combine_RBQyg",
    "sceneId": 3,
    "isSkipLoading": true,
    "isIndependent": true,
    "cond": [
      {},
      {}
    ]
  },
  {
    "id": 1012,
    "sceneTagName": "DI_WW01",
    "sceneId": 9,
    "isDefaultValid": true,
    "isIndependent": true,
    "cond": [
      {},
      {}
    ]
  },
  {
    "id": 1013,
    "sceneTagName": "DI_WW02",
    "sceneId": 9,
    "isIndependent": true,
    "cond": [
      {},
      {}
    ]
  },
  {
    "id": 1014,
    "sceneTagName": "DI_PP01",
    "sceneId": 9,
    "isDefaultValid": true,
    "isIndependent": true,
    "cond": [
      {},
      {}
    ]
  },
  {
    "id": 1015,
    "sceneTagName": "DI_PP02",
    "sceneId": 9,
    "isIndependent": true,
    "cond": [
      {},
      {}
    ]
  },
  {
    "id": 1016,
    "sceneTagName": "DI_PP03",
    "sceneId": 9,
    "isIndependent": true,
    "cond": [
      {},
      {}
    ]
  },
  {
    "id": 1017,
    "sceneTagName": "DI_SS01",
    "sceneId": 9,
    "isDefaultValid": true,
    "isIndependent": true,
    "cond": [
      {},
      {}
    ]
  },
  {
    "id": 1018,
    "sceneTagName": "DI_SS02",
    "sceneId": 9,
    "isIndependent": true,
    "cond": [
      {},
      {}
    ]
  },
  {
    "id": 1019,
    "sceneTagName": "DI_SS03",
    "sceneId": 9,
    "isIndependent": true,
    "cond": [
      {},
      {}
    ]
  },
  {
    "id": 1020,
    "sceneTagName": "DI_BD01",
    "sceneId": 9,
    "isDefaultValid": true,
    "isIndependent": true,
    "cond": [
      {},
      {}
    ]
  },
  {
    "id": 1021,
    "sceneTagName": "DI_BDLM",
    "sceneId": 9,
    "isSkipLoading": true,
    "isIndependent": true,
    "cond": [
      {},
      {}
    ]
  },
  {
    "id": 1022,
    "sceneTagName": "DI_BDRM",
    "sceneId": 9,
    "isSkipLoading": true,
    "isIndependent": true,
    "cond": [
      {},
      {}
    ]
  },
  {
    "id": 1023,
    "sceneTagName": "DI_BDLI",
    "sceneId": 9,
    "isSkipLoading": true,
    "isIndependent": true,
    "cond": [
      {},
      {}
    ]
  },
  {
    "id": 1024,
    "sceneTagName": "DI_BDRI",
    "sceneId": 9,
    "isSkipLoading": true,
    "isIndependent": true,
    "cond": [
      {},
      {}
    ]
  },
  {
    "id": 1025,
    "sceneTagName": "DI_BDLL",
    "sceneId": 9,
    "isSkipLoading": true,
    "isIndependent": true,
    "cond": [
      {},
      {}
    ]
  },
  {
    "id": 1026,
    "sceneTagName": "DI_BDRL",
    "sceneId": 9,
    "isSkipLoading": true,
    "isIndependent": true,
    "cond": [
      {},
      {}
    ]
  },
  {
    "id": 1027,
    "sceneTagName": "Combine_Irodori",
    "sceneId": 3,
    "isIndependent": true,
    "cond": [
      {},
      {}
    ]
  },
  {
    "id": 1028,
    "sceneTagName": "Aby_NotEvent",
    "sceneId": 5,
    "isIndependent": true,
    "cond": [
      {},
      {}
    ]
  },
  {
    "id": 1029,
    "sceneTagName": "Aby_NotEventLightOFF",
    "sceneId": 5,
    "isIndependent": true,
    "cond": [
      {},
      {}
    ]
  },
  {
    "id": 1030,
    "sceneTagName": "Combine_QldFight",
    "sceneId": 3,
    "isIndependent": true,
    "cond": [
      {},
      {}
    ]
  },
  {
    "id": 1031,
    "sceneTagName": "MichiaeMatsuri_WQ_Default5",
    "sceneId": 5,
    "isDefaultValid": true,
    "isIndependent": true,
    "cond": [
      {},
      {}
    ]
  },
  {
    "id": 1032,
    "sceneTagName": "MichiaeMatsuri_WQ_Default7",
    "sceneId": 7,
    "isSkipLoading": true,
    "isIndependent": true,
    "cond": [
      {},
      {}
    ]
  },
  {
    "id": 1033,
    "sceneTagName": "MichiaeMatsuri_WQ_SideA",
    "sceneId": 7,
    "isSkipLoading": true,
    "isIndependent": true,
    "cond": [
      {},
      {}
    ]
  },
  {
    "id": 1034,
    "sceneTagName": "MichiaeMatsuri_WQ_SideB",
    "sceneId": 7,
    "isSkipLoading": true,
    "isIndependent": true,
    "cond": [
      {},
      {}
    ]
  },
  {
    "id": 1035,
    "sceneTagName": "DreamIsland_All_WithoutAnyChange",
    "sceneId": 9,
    "isIndependent": true,
    "cond": [
      {},
      {}
    ]
  },
  {
    "id": 1036,
    "sceneTagName": "DreamIsland_-1_-1_BaseTerrain",
    "sceneId": 9,
    "isIndependent": true,
    "cond": [
      {},
      {}
    ]
  },
  {
    "id": 1037,
    "sceneTagName": "DreamIsland_0_-1_BaseTerrain",
    "sceneId": 9,
    "isIndependent": true,
    "cond": [
      {},
      {}
    ]
  },
  {
    "id": 1038,
    "sceneTagName": "DreamIsland_0_0_BaseTerrain",
    "sceneId": 9,
    "isIndependent": true,
    "cond": [
      {},
      {}
    ]
  },
  {
    "id": 1039,
    "sceneTagName": "DreamIsland_-1_0_BaseTerrain",
    "sceneId": 9,
    "isIndependent": true,
    "cond": [
      {},
      {}
    ]
  },
  {
    "id": 1040,
    "sceneTagName": "DreamIsland_-1_-1_BaseGrass",
    "sceneId": 9,
    "isIndependent": true,
    "cond": [
      {},
      {}
    ]
  },
  {
    "id": 1041,
    "sceneTagName": "DreamIsland_0_-1_BaseGrass",
    "sceneId": 9,
    "isIndependent": true,
    "cond": [
      {},
      {}
    ]
  },
  {
    "id": 1042,
    "sceneTagName": "DreamIsland_0_0_BaseGrass",
    "sceneId": 9,
    "isIndependent": true,
    "cond": [
      {},
      {}
    ]
  },
  {
    "id": 1043,
    "sceneTagName": "DreamIsland_-1_0_BaseGrass",
    "sceneId": 9,
    "isIndependent": true,
    "cond": [
      {},
      {}
    ]
  },
  {
    "id": 1046,
    "sceneTagName": "DI_Fischl01",
    "sceneId": 20139,
    "isDefaultValid": true,
    "isIndependent": true,
    "cond": [
      {},
      {}
    ]
  },
  {
    "id": 1047,
    "sceneTagName": "DI_Fischl02",
    "sceneId": 20139,
    "isIndependent": true,
    "cond": [
      {},
      {}
    ]
  },
  {
    "id": 1048,
    "sceneTagName": "DI_Xinyan01",
    "sceneId": 20133,
    "isDefaultValid": true,
    "isIndependent": true,
    "cond": [
      {},
      {}
    ]
  },
  {
    "id": 1049,
    "sceneTagName": "DI_Xinyan02",
    "sceneId": 20133,
    "isIndependent": true,
    "cond": [
      {},
      {}
    ]
  },
  {
    "id": 1050,
    "sceneTagName": "DI_Kazuha01",
    "sceneId": 20142,
    "isDefaultValid": true,
    "isSkipLoading": true,
    "isIndependent": true,
    "cond": [
      {},
      {}
    ]
  },
  {
    "id": 1051,
    "sceneTagName": "DI_Kazuha02",
    "sceneId": 20142,
    "isDefaultValid": true,
    "isSkipLoading": true,
    "isIndependent": true,
    "cond": [
      {},
      {}
    ]
  },
  {
    "id": 1052,
    "sceneTagName": "DI_Kazuha03",
    "sceneId": 20142,
    "isSkipLoading": true,
    "isIndependent": true,
    "cond": [
      {},
      {}
    ]
  },
  {
    "id": 1053,
    "sceneTagName": "DI_Kazuha04",
    "sceneId": 20142,
    "isSkipLoading": true,
    "isIndependent": true,
    "cond": [
      {},
      {}
    ]
  },
  {
    "id": 1054,
    "sceneTagName": "DI_Kazuha05",
    "sceneId": 20142,
    "isSkipLoading": true,
    "isIndependent": true,
    "cond": [
      {},
      {}
    ]
  },
  {
    "id": 1055,
    "sceneTagName": "DI_Kazuha06",
    "sceneId": 20142,
    "isSkipLoading": true,
    "isIndependent": true,
    "cond": [
      {},
      {}
    ]
  },
  {
    "id": 1056,
    "sceneTagName": "DI_Kazuha07",
    "sceneId": 20142,
    "isSkipLoading": true,
    "isIndependent": true,
    "cond": [
      {},
      {}
    ]
  },
  {
    "id": 1057,
    "sceneTagName": "DI_Kazuha08",
    "sceneId": 20142,
    "isSkipLoading": true,
    "isIndependent": true,
    "cond": [
      {},
      {}
    ]
  },
  {
    "id": 1058,
    "sceneTagName": "DI_Kazuha09",
    "sceneId": 20142,
    "isSkipLoading": true,
    "isIndependent": true,
    "cond": [
      {},
      {}
    ]
  },
  {
    "id": 1059,
    "sceneTagName": "DI_Kazuha10",
    "sceneId": 20142,
    "isSkipLoading": true,
    "isIndependent": true,
    "cond": [
      {},
      {}
    ]
  },
  {
    "id": 1060,
    "sceneTagName": "DI_SS04",
    "sceneId": 9,
    "isIndependent": true,
    "cond": [
      {},
      {}
    ]
  },
  {
    "id": 1061,
    "sceneTagName": "CYJY_Twins2_Block_ON",
    "sceneId": 6,
    "isDefaultValid": true,
    "isSkipLoading": true,
    "isIndependent": true,
    "cond": [
      {},
      {}
    ]
  },
  {
    "id": 1062,
    "sceneTagName": "CYJY_Twins2_Block_OFF",
    "sceneId": 6,
    "isSkipLoading": true,
    "isIndependent": true,
    "cond": [
      {},
      {}
    ]
  },
  {
    "id": 1063,
    "sceneTagName": "CYJY_Twins1_OFF",
    "sceneId": 6,
    "isDefaultValid": true,
    "isSkipLoading": true,
    "isIndependent": true,
    "cond": [
      {},
      {}
    ]
  },
  {
    "id": 1064,
    "sceneTagName": "CYJY_Twins1_ON",
    "sceneId": 6,
    "isSkipLoading": true,
    "isIndependent": true,
    "cond": [
      {},
      {}
    ]
  },
  {
    "id": 1065,
    "sceneTagName": "DI_Mona01",
    "sceneId": 20136,
    "isDefaultValid": true,
    "isSkipLoading": true,
    "isIndependent": true,
    "cond": [
      {},
      {}
    ]
  },
  {
    "id": 1066,
    "sceneTagName": "DI_Mona02",
    "sceneId": 20136,
    "isSkipLoading": true,
    "isIndependent": true,
    "cond": [
      {},
      {}
    ]
  },
  {
    "id": 1067,
    "sceneTagName": "DI_Mona03",
    "sceneId": 20136,
    "isSkipLoading": true,
    "isIndependent": true,
    "cond": [
      {},
      {}
    ]
  },
  {
    "id": 1068,
    "sceneTagName": "Combine_SHOPYamashiroKenta",
    "sceneId": 3,
    "isIndependent": true,
    "cond": [
      {},
      {}
    ]
  },
  {
    "id": 1069,
    "sceneTagName": "DI_Kazuha31",
    "sceneId": 20140,
    "isDefaultValid": true,
    "isSkipLoading": true,
    "isIndependent": true,
    "cond": [
      {},
      {}
    ]
  },
  {
    "id": 1070,
    "sceneTagName": "DI_Kazuha32",
    "sceneId": 20140,
    "isSkipLoading": true,
    "isIndependent": true,
    "cond": [
      {},
      {}
    ]
  },
  {
    "id": 1071,
    "sceneTagName": "DI_Kazuha33",
    "sceneId": 20140,
    "isSkipLoading": true,
    "isIndependent": true,
    "cond": [
      {},
      {}
    ]
  },
  {
    "id": 1072,
    "sceneTagName": "DI_Kazuha21",
    "sceneId": 20135,
    "isDefaultValid": true,
    "isSkipLoading": true,
    "isIndependent": true,
    "cond": [
      {},
      {}
    ]
  },
  {
    "id": 1073,
    "sceneTagName": "DI_Kazuha22",
    "sceneId": 20135,
    "isDefaultValid": true,
    "isSkipLoading": true,
    "isIndependent": true,
    "cond": [
      {},
      {}
    ]
  },
  {
    "id": 1074,
    "sceneTagName": "DI_Mona04",
    "sceneId": 20136,
    "isSkipLoading": true,
    "isIndependent": true,
    "cond": [
      {},
      {}
    ]
  },
  {
    "id": 1075,
    "sceneTagName": "DI_Mona05",
    "sceneId": 20136,
    "isSkipLoading": true,
    "isIndependent": true,
    "cond": [
      {},
      {}
    ]
  },
  {
    "id": 1076,
    "sceneTagName": "DI_SkiffWQ",
    "sceneId": 9,
    "isSkipLoading": true,
    "isIndependent": true,
    "cond": [
      {},
      {}
    ]
  },
  {
    "id": 1077,
    "sceneTagName": "DI_BDMM",
    "sceneId": 9,
    "isSkipLoading": true,
    "isIndependent": true,
    "cond": [
      {},
      {}
    ]
  },
  {
    "id": 1078,
    "sceneTagName": "DI_BDII",
    "sceneId": 9,
    "isSkipLoading": true,
    "isIndependent": true,
    "cond": [
      {},
      {}
    ]
  },
  {
    "id": 1079,
    "sceneTagName": "DI_BDIM",
    "sceneId": 9,
    "isSkipLoading": true,
    "isIndependent": true,
    "cond": [
      {},
      {}
    ]
  },
  {
    "id": 1080,
    "sceneTagName": "DI_BDMI",
    "sceneId": 9,
    "isSkipLoading": true,
    "isIndependent": true,
    "cond": [
      {},
      {}
    ]
  },
  {
    "id": 1081,
    "sceneTagName": "DI_BDYY",
    "sceneId": 9,
    "isSkipLoading": true,
    "isIndependent": true,
    "cond": [
      {},
      {}
    ]
  },
  {
    "id": 1082,
    "sceneTagName": "DI_BDMY",
    "sceneId": 9,
    "isSkipLoading": true,
    "isIndependent": true,
    "cond": [
      {},
      {}
    ]
  },
  {
    "id": 1083,
    "sceneTagName": "DI_BDYM",
    "sceneId": 9,
    "isSkipLoading": true,
    "isIndependent": true,
    "cond": [
      {},
      {}
    ]
  },
  {
    "id": 1084,
    "sceneTagName": "DI_BDIY",
    "sceneId": 9,
    "isSkipLoading": true,
    "isIndependent": true,
    "cond": [
      {},
      {}
    ]
  },
  {
    "id": 1085,
    "sceneTagName": "DI_BDYI",
    "sceneId": 9,
    "isSkipLoading": true,
    "isIndependent": true,
    "cond": [
      {},
      {}
    ]
  },
  {
    "id": 1086,
    "sceneTagName": "DI_Kazuha35",
    "sceneId": 20140,
    "isSkipLoading": true,
    "isIndependent": true,
    "cond": [
      {},
      {}
    ]
  },
  {
    "id": 1087,
    "sceneTagName": "BigTree01",
    "sceneId": 20132,
    "isSkipLoading": true,
    "isIndependent": true,
    "cond": [
      {},
      {}
    ]
  },
  {
    "id": 1088,
    "sceneTagName": "BigTree02",
    "sceneId": 20132,
    "isSkipLoading": true,
    "isIndependent": true,
    "cond": [
      {},
      {}
    ]
  },
  {
    "id": 1089,
    "sceneTagName": "BigTree03",
    "sceneId": 20132,
    "isDefaultValid": true,
    "isSkipLoading": true,
    "isIndependent": true,
    "cond": [
      {},
      {}
    ]
  },
  {
    "id": 1090,
    "sceneTagName": "BigTree04",
    "sceneId": 20132,
    "isDefaultValid": true,
    "isSkipLoading": true,
    "isIndependent": true,
    "cond": [
      {},
      {}
    ]
  },
  {
    "id": 1091,
    "sceneTagName": "XMSM_LSK_01",
    "sceneId": 3,
    "isDefaultValid": true,
    "isSkipLoading": true,
    "isIndependent": true,
    "cond": [
      {},
      {}
    ]
  },
  {
    "id": 1092,
    "sceneTagName": "XMSM_LSK_02",
    "sceneId": 3,
    "isSkipLoading": true,
    "isIndependent": true,
    "cond": [
      {},
      {}
    ]
  },
  {
    "id": 1093,
    "sceneTagName": "Vana_real",
    "sceneId": 3,
    "isIndependent": true,
    "cond": [
      {},
      {}
    ]
  },
  {
    "id": 1094,
    "sceneTagName": "Vana_dream",
    "sceneId": 3,
    "isDefaultValid": true,
    "isIndependent": true,
    "cond": [
      {},
      {}
    ]
  },
  {
    "id": 1095,
    "sceneTagName": "Vana_first",
    "sceneId": 3,
    "isDefaultValid": true,
    "isSkipLoading": true,
    "isIndependent": true,
    "cond": [
      {},
      {}
    ]
  },
  {
    "id": 1096,
    "sceneTagName": "Vana_festival",
    "sceneId": 3,
    "isSkipLoading": true,
    "isIndependent": true,
    "cond": [
      {},
      {}
    ]
  },
  {
    "id": 1097,
    "sceneTagName": "Onion_real",
    "sceneId": 3,
    "isIndependent": true,
    "cond": [
      {},
      {}
    ]
  },
  {
    "id": 1098,
    "sceneTagName": "Onion_dream",
    "sceneId": 3,
    "isIndependent": true,
    "cond": [
      {},
      {}
    ]
  },
  {
    "id": 1099,
    "sceneTagName": "Temple_before",
    "sceneId": 3,
    "isDefaultValid": true,
    "isSkipLoading": true,
    "isIndependent": true,
    "cond": [
      {},
      {}
    ]
  },
  {
    "id": 1100,
    "sceneTagName": "Temple_after",
    "sceneId": 3,
    "isSkipLoading": true,
    "isIndependent": true,
    "cond": [
      {},
      {}
    ]
  },
  {
    "id": 1101,
    "sceneTagName": "Forest_before",
    "sceneId": 3,
    "isDefaultValid": true,
    "isIndependent": true,
    "cond": [
      {},
      {}
    ]
  },
  {
    "id": 1102,
    "sceneTagName": "Forest_after",
    "sceneId": 3,
    "isIndependent": true,
    "cond": [
      {},
      {}
    ]
  },
  {
    "id": 1103,
    "sceneTagName": "Oasis_before",
    "sceneId": 3,
    "isDefaultValid": true,
    "isIndependent": true,
    "cond": [
      {},
      {}
    ]
  },
  {
    "id": 1104,
    "sceneTagName": "Oasis_after",
    "sceneId": 3,
    "isIndependent": true,
    "cond": [
      {},
      {}
    ]
  },
  {
    "id": 1105,
    "sceneTagName": "Final_before",
    "sceneId": 3,
    "isDefaultValid": true,
    "isIndependent": true,
    "cond": [
      {},
      {}
    ]
  },
  {
    "id": 1106,
    "sceneTagName": "Final_after",
    "sceneId": 3,
    "isIndependent": true,
    "cond": [
      {},
      {}
    ]
  },
  {
    "id": 1107,
    "sceneTagName": "Vintage_BaseGrass",
    "sceneId": 3,
    "isIndependent": true,
    "cond": [
      {},
      {}
    ]
  },
  {
    "id": 1108,
    "sceneTagName": "Final_BaseGrass",
    "sceneId": 3,
    "isIndependent": true,
    "cond": [
      {},
      {}
    ]
  },
  {
    "id": 1109,
    "sceneTagName": "Combine_Forest_after",
    "sceneId": 3,
    "isIndependent": true,
    "cond": [
      {},
      {}
    ]
  },
  {
    "id": 1110,
    "sceneTagName": "Mdg_real",
    "sceneId": 3,
    "isDefaultValid": true,
    "isIndependent": true,
    "cond": [
      {},
      {}
    ]
  },
  {
    "id": 1111,
    "sceneTagName": "Mdg_dream",
    "sceneId": 3,
    "isIndependent": true,
    "cond": [
      {},
      {}
    ]
  },
  {
    "id": 1112,
    "sceneTagName": "HuaShen01",
    "sceneId": 3,
    "isSkipLoading": true,
    "isIndependent": true,
    "cond": [
      {},
      {}
    ]
  },
  {
    "id": 1114,
    "sceneTagName": "HuaShen02",
    "sceneId": 3,
    "isSkipLoading": true,
    "isIndependent": true,
    "cond": [
      {},
      {}
    ]
  },
  {
    "id": 1116,
    "sceneTagName": "HuaShen03",
    "sceneId": 3,
    "isSkipLoading": true,
    "isIndependent": true,
    "cond": [
      {},
      {}
    ]
  },
  {
    "id": 1117,
    "sceneTagName": "Combine_HuaShen03",
    "sceneId": 3,
    "isIndependent": true,
    "cond": [
      {},
      {}
    ]
  },
  {
    "id": 1118,
    "sceneTagName": "VarunaCo_Af",
    "sceneId": 3,
    "isSkipLoading": true,
    "isIndependent": true,
    "cond": [
      {},
      {}
    ]
  },
  {
    "id": 1119,
    "sceneTagName": "VarunaDe_Af",
    "sceneId": 3,
    "isIndependent": true,
    "cond": [
      {},
      {}
    ]
  },
  {
    "id": 1120,
    "sceneTagName": "CaveForest_No",
    "sceneId": 3,
    "isDefaultValid": true,
    "isIndependent": true,
    "cond": [
      {},
      {}
    ]
  },
  {
    "id": 1121,
    "sceneTagName": "CaveForest_Dr",
    "sceneId": 3,
    "isIndependent": true,
    "cond": [
      {},
      {}
    ]
  },
  {
    "id": 1122,
    "sceneTagName": "WaterDR_Be",
    "sceneId": 3,
    "isDefaultValid": true,
    "isSkipLoading": true,
    "isIndependent": true,
    "cond": [
      {},
      {}
    ]
  },
  {
    "id": 1123,
    "sceneTagName": "WaterDR_Af",
    "sceneId": 3,
    "isSkipLoading": true,
    "isIndependent": true,
    "cond": [
      {},
      {}
    ]
  },
  {
    "id": 1124,
    "sceneTagName": "Oasis_BaseGrass",
    "sceneId": 3,
    "isIndependent": true,
    "cond": [
      {},
      {}
    ]
  },
  {
    "id": 1125,
    "sceneTagName": "VarunaCo_Be",
    "sceneId": 3,
    "isDefaultValid": true,
    "isSkipLoading": true,
    "isIndependent": true,
    "cond": [
      {},
      {}
    ]
  },
  {
    "id": 1126,
    "sceneTagName": "Vintage_BaseTerrain",
    "sceneId": 3,
    "isIndependent": true,
    "cond": [
      {},
      {}
    ]
  },
  {
    "id": 1127,
    "sceneTagName": "WaterPour_be",
    "sceneId": 3,
    "isDefaultValid": true,
    "isSkipLoading": true,
    "isIndependent": true,
    "cond": [
      {},
      {}
    ]
  },
  {
    "id": 1128,
    "sceneTagName": "WaterPour_af",
    "sceneId": 3,
    "isSkipLoading": true,
    "isIndependent": true,
    "cond": [
      {},
      {}
    ]
  },
  {
    "id": 1129,
    "sceneTagName": "DoorOpen_be",
    "sceneId": 3,
    "isDefaultValid": true,
    "isIndependent": true,
    "cond": [
      {},
      {}
    ]
  },
  {
    "id": 1130,
    "sceneTagName": "DoorOpen_af",
    "sceneId": 3,
    "isIndependent": true,
    "cond": [
      {},
      {}
    ]
  },
  {
    "id": 1131,
    "sceneTagName": "CupGrow_before",
    "sceneId": 3,
    "isDefaultValid": true,
    "isIndependent": true,
    "cond": [
      {},
      {}
    ]
  },
  {
    "id": 1132,
    "sceneTagName": "CupGrow_after",
    "sceneId": 3,
    "isIndependent": true,
    "cond": [
      {},
      {}
    ]
  },
  {
    "id": 1133,
    "sceneTagName": "Clear_before",
    "sceneId": 3,
    "isDefaultValid": true,
    "isIndependent": true,
    "cond": [
      {},
      {}
    ]
  },
  {
    "id": 1134,
    "sceneTagName": "Clear_after",
    "sceneId": 3,
    "isIndependent": true,
    "cond": [
      {},
      {}
    ]
  },
  {
    "id": 1135,
    "sceneTagName": "STemple_be",
    "sceneId": 3,
    "isDefaultValid": true,
    "isIndependent": true,
    "cond": [
      {},
      {}
    ]
  },
  {
    "id": 1136,
    "sceneTagName": "STemple_af",
    "sceneId": 3,
    "isIndependent": true,
    "cond": [
      {},
      {}
    ]
  },
  {
    "id": 1137,
    "sceneTagName": "XMSM_XST_01",
    "sceneId": 3,
    "isDefaultValid": true,
    "isIndependent": true,
    "cond": [
      {},
      {}
    ]
  },
  {
    "id": 1138,
    "sceneTagName": "XMSM_YHYD1_01",
    "sceneId": 3,
    "isDefaultValid": true,
    "isIndependent": true,
    "cond": [
      {},
      {}
    ]
  },
  {
    "id": 1139,
    "sceneTagName": "XMSM_YHYD1_02",
    "sceneId": 3,
    "isIndependent": true,
    "cond": [
      {},
      {}
    ]
  },
  {
    "id": 1140,
    "sceneTagName": "XMSM_YHYD2_01",
    "sceneId": 3,
    "isDefaultValid": true,
    "isIndependent": true,
    "cond": [
      {},
      {}
    ]
  },
  {
    "id": 1141,
    "sceneTagName": "XMSM_YHYD2_02",
    "sceneId": 3,
    "isIndependent": true,
    "cond": [
      {},
      {}
    ]
  },
  {
    "id": 1142,
    "sceneTagName": "Combine_Vintage",
    "sceneId": 3,
    "isIndependent": true,
    "cond": [
      {},
      {}
    ]
  },
  {
    "id": 1143,
    "sceneTagName": "Titan_before",
    "sceneId": 3,
    "isDefaultValid": true,
    "isSkipLoading": true,
    "isIndependent": true,
    "cond": [
      {},
      {}
    ]
  },
  {
    "id": 1144,
    "sceneTagName": "Titan_after",
    "sceneId": 3,
    "isSkipLoading": true,
    "isIndependent": true,
    "cond": [
      {},
      {}
    ]
  },
  {
    "id": 1145,
    "sceneTagName": "Combine_TitanO_after",
    "sceneId": 3,
    "isSkipLoading": true,
    "isIndependent": true,
    "cond": [
      {},
      {}
    ]
  },
  {
    "id": 1146,
    "sceneTagName": "VarunaDe_Be",
    "sceneId": 3,
    "isDefaultValid": true,
    "isIndependent": true,
    "cond": [
      {},
      {}
    ]
  },
  {
    "id": 1147,
    "sceneTagName": "BigTree04",
    "sceneId": 20160,
    "isDefaultValid": true,
    "isSkipLoading": true,
    "isIndependent": true,
    "cond": [
      {},
      {}
    ]
  },
  {
    "id": 1148,
    "sceneTagName": "BigTree04",
    "sceneId": 20161,
    "isDefaultValid": true,
    "isSkipLoading": true,
    "isIndependent": true,
    "cond": [
      {},
      {}
    ]
  },
  {
    "id": 1149,
    "sceneTagName": "CupGrow_0_2_BaseGrass",
    "sceneId": 3,
    "cond": [
      {},
      {}
    ]
  },
  {
    "id": 1150,
    "sceneTagName": "BigTree01",
    "sceneId": 46300,
    "isSkipLoading": true,
    "isIndependent": true,
    "cond": [
      {},
      {}
    ]
  },
  {
    "id": 1151,
    "sceneTagName": "BigTree02",
    "sceneId": 46300,
    "isSkipLoading": true,
    "isIndependent": true,
    "cond": [
      {},
      {}
    ]
  },
  {
    "id": 1152,
    "sceneTagName": "BigTree03",
    "sceneId": 46300,
    "isDefaultValid": true,
    "isSkipLoading": true,
    "isIndependent": true,
    "cond": [
      {},
      {}
    ]
  },
  {
    "id": 1153,
    "sceneTagName": "BigTree04",
    "sceneId": 46300,
    "isDefaultValid": true,
    "isSkipLoading": true,
    "isIndependent": true,
    "cond": [
      {},
      {}
    ]
  },
  {
    "id": 1154,
    "sceneTagName": "BigTree01",
    "sceneId": 46302,
    "isSkipLoading": true,
    "isIndependent": true,
    "cond": [
      {},
      {}
    ]
  },
  {
    "id": 1155,
    "sceneTagName": "BigTree02",
    "sceneId": 46302,
    "isSkipLoading": true,
    "isIndependent": true,
    "cond": [
      {},
      {}
    ]
  },
  {
    "id": 1156,
    "sceneTagName": "BigTree03",
    "sceneId": 46302,
    "isDefaultValid": true,
    "isSkipLoading": true,
    "isIndependent": true,
    "cond": [
      {},
      {}
    ]
  },
  {
    "id": 1157,
    "sceneTagName": "BigTree04",
    "sceneId": 46302,
    "isDefaultValid": true,
    "isSkipLoading": true,
    "isIndependent": true,
    "cond": [
      {},
      {}
    ]
  },
  {
    "id": 1158,
    "sceneTagName": "BigTree01",
    "sceneId": 46303,
    "isSkipLoading": true,
    "isIndependent": true,
    "cond": [
      {},
      {}
    ]
  },
  {
    "id": 1159,
    "sceneTagName": "BigTree02",
    "sceneId": 46303,
    "isSkipLoading": true,
    "isIndependent": true,
    "cond": [
      {},
      {}
    ]
  },
  {
    "id": 1160,
    "sceneTagName": "BigTree03",
    "sceneId": 46303,
    "isDefaultValid": true,
    "isSkipLoading": true,
    "isIndependent": true,
    "cond": [
      {},
      {}
    ]
  },
  {
    "id": 1161,
    "sceneTagName": "BigTree04",
    "sceneId": 46303,
    "isDefaultValid": true,
    "isSkipLoading": true,
    "isIndependent": true,
    "cond": [
      {},
      {}
    ]
  },
  {
    "id": 1162,
    "sceneTagName": "TitanO_after",
    "sceneId": 3,
    "isSkipLoading": true,
    "isIndependent": true,
    "cond": [
      {},
      {}
    ]
  },
  {
    "id": 1164,
    "sceneTagName": "XMSM_CWLTop",
    "sceneId": 3,
    "isSkipLoading": true,
    "isIndependent": true,
    "cond": [
      {},
      {}
    ]
  },
  {
    "id": 1165,
    "sceneTagName": "CWL_Trans_01",
    "sceneId": 3,
    "isDefaultValid": true,
    "isIndependent": true,
    "cond": [
      {},
      {}
    ]
  },
  {
    "id": 1166,
    "sceneTagName": "CWL_Trans_02",
    "sceneId": 3,
    "isIndependent": true,
    "cond": [
      {},
      {}
    ]
  },
  {
    "id": 1167,
    "sceneTagName": "WorldTree01",
    "sceneId": 20150,
    "isSkipLoading": true,
    "isIndependent": true,
    "cond": [
      {},
      {}
    ]
  },
  {
    "id": 1168,
    "sceneTagName": "Xmsm_AfCs",
    "sceneId": 3,
    "isDefaultValid": true,
    "isSkipLoading": true,
    "isIndependent": true,
    "cond": [
      {},
      {}
    ]
  },
  {
    "id": 1169,
    "sceneTagName": "XMSM_CWLBlock",
    "sceneId": 3,
    "isIndependent": true,
    "cond": [
      {},
      {}
    ]
  },
  {
    "id": 1170,
    "sceneTagName": "XMSM_XST_02",
    "sceneId": 3,
    "isIndependent": true,
    "cond": [
      {},
      {}
    ]
  },
  {
    "id": 1171,
    "sceneTagName": "BigTree03",
    "sceneId": 35860,
    "isDefaultValid": true,
    "isSkipLoading": true,
    "isIndependent": true,
    "cond": [
      {},
      {}
    ]
  },
  {
    "id": 1172,
    "sceneTagName": "BigTree04",
    "sceneId": 35860,
    "isDefaultValid": true,
    "isSkipLoading": true,
    "isIndependent": true,
    "cond": [
      {},
      {}
    ]
  },
  {
    "id": 1173,
    "sceneTagName": "BigTree03",
    "sceneId": 35861,
    "isDefaultValid": true,
    "isSkipLoading": true,
    "isIndependent": true,
    "cond": [
      {},
      {}
    ]
  },
  {
    "id": 1174,
    "sceneTagName": "BigTree04",
    "sceneId": 35861,
    "isDefaultValid": true,
    "isSkipLoading": true,
    "isIndependent": true,
    "cond": [
      {},
      {}
    ]
  },
  {
    "id": 1175,
    "sceneTagName": "BigTree03",
    "sceneId": 35862,
    "isDefaultValid": true,
    "isSkipLoading": true,
    "isIndependent": true,
    "cond": [
      {},
      {}
    ]
  },
  {
    "id": 1176,
    "sceneTagName": "BigTree04",
    "sceneId": 35862,
    "isDefaultValid": true,
    "isSkipLoading": true,
    "isIndependent": true,
    "cond": [
      {},
      {}
    ]
  },
  {
    "id": 1177,
    "sceneTagName": "BigTree03",
    "sceneId": 35863,
    "isDefaultValid": true,
    "isSkipLoading": true,
    "isIndependent": true,
    "cond": [
      {},
      {}
    ]
  },
  {
    "id": 1178,
    "sceneTagName": "BigTree04",
    "sceneId": 35863,
    "isDefaultValid": true,
    "isSkipLoading": true,
    "isIndependent": true,
    "cond": [
      {},
      {}
    ]
  },
  {
    "id": 1179,
    "sceneTagName": "ScarBoss01",
    "sceneId": 20154,
    "isDefaultValid": true,
    "isSkipLoading": true,
    "isIndependent": true,
    "cond": [
      {},
      {}
    ]
  },
  {
    "id": 1180,
    "sceneTagName": "ScarBoss02",
    "sceneId": 20154,
    "isSkipLoading": true,
    "isIndependent": true,
    "cond": [
      {},
      {}
    ]
  },
  {
    "id": 1181,
    "sceneTagName": "ScarBoss01",
    "sceneId": 20153,
    "isDefaultValid": true,
    "isSkipLoading": true,
    "isIndependent": true,
    "cond": [
      {},
      {}
    ]
  },
  {
    "id": 1182,
    "sceneTagName": "ScarBoss02",
    "sceneId": 20153,
    "isSkipLoading": true,
    "isIndependent": true,
    "cond": [
      {},
      {}
    ]
  },
  {
    "id": 1183,
    "sceneTagName": "XMSM_YHYD1_03",
    "sceneId": 3,
    "isIndependent": true,
    "cond": [
      {},
      {}
    ]
  },
  {
    "id": 1184,
    "sceneTagName": "XMSM_YHYD2_03",
    "sceneId": 3,
    "isIndependent": true,
    "cond": [
      {},
      {}
    ]
  },
  {
    "id": 1185,
    "sceneTagName": "WorldTree01",
    "sceneId": 20164,
    "isDefaultValid": true,
    "isSkipLoading": true,
    "isIndependent": true,
    "cond": [
      {},
      {}
    ]
  },
  {
    "id": 1186,
    "sceneTagName": "Onion_after",
    "sceneId": 20148,
    "isSkipLoading": true,
    "isIndependent": true,
    "cond": [
      {},
      {}
    ]
  },
  {
    "id": 1187,
    "sceneTagName": "Sprite_Before",
    "sceneId": 3,
    "isDefaultValid": true,
    "isIndependent": true,
    "cond": [
      {},
      {}
    ]
  },
  {
    "id": 1188,
    "sceneTagName": "Sprite_After",
    "sceneId": 3,
    "isIndependent": true,
    "cond": [
      {},
      {}
    ]
  },
  {
    "id": 1189,
    "sceneTagName": "Sprite_BaseGrass",
    "sceneId": 3,
    "isIndependent": true,
    "cond": [
      {},
      {}
    ]
  },
  {
    "id": 1190,
    "sceneTagName": "XM_RobotA1",
    "sceneId": 3,
    "isDefaultValid": true,
    "isSkipLoading": true,
    "isIndependent": true,
    "cond": [
      {},
      {}
    ]
  },
  {
    "id": 1191,
    "sceneTagName": "XM_RobotA2",
    "sceneId": 3,
    "isIndependent": true,
    "cond": [
      {},
      {}
    ]
  },
  {
    "id": 1192,
    "sceneTagName": "XM_RobotAC",
    "sceneId": 3,
    "isSkipLoading": true,
    "isIndependent": true,
    "cond": [
      {},
      {}
    ]
  },
  {
    "id": 1193,
    "sceneTagName": "XM_RobotB1",
    "sceneId": 3,
    "isSkipLoading": true,
    "isIndependent": true,
    "cond": [
      {},
      {}
    ]
  },
  {
    "id": 1194,
    "sceneTagName": "XM_RobotB2",
    "sceneId": 3,
    "isDefaultValid": true,
    "isSkipLoading": true,
    "isIndependent": true,
    "cond": [
      {},
      {}
    ]
  },
  {
    "id": 1195,
    "sceneTagName": "XM_RobotC1",
    "sceneId": 3,
    "isSkipLoading": true,
    "isIndependent": true,
    "cond": [
      {},
      {}
    ]
  },
  {
    "id": 1196,
    "sceneTagName": "XM_RobotD1",
    "sceneId": 3,
    "isDefaultValid": true,
    "isIndependent": true,
    "cond": [
      {},
      {}
    ]
  },
  {
    "id": 1197,
    "sceneTagName": "XM_RobotD2",
    "sceneId": 3,
    "isIndependent": true,
    "cond": [
      {},
      {}
    ]
  },
  {
    "id": 1198,
    "sceneTagName": "XM_RobotD2C",
    "sceneId": 3,
    "isSkipLoading": true,
    "isIndependent": true,
    "cond": [
      {},
      {}
    ]
  },
  {
    "id": 1199,
    "sceneTagName": "XM_LSYJ_01",
    "sceneId": 3,
    "isDefaultValid": true,
    "isIndependent": true,
    "cond": [
      {},
      {}
    ]
  },
  {
    "id": 1200,
    "sceneTagName": "XM_DJLT_01",
    "sceneId": 3,
    "isDefaultValid": true,
    "isSkipLoading": true,
    "isIndependent": true,
    "cond": [
      {},
      {}
    ]
  },
  {
    "id": 1201,
    "sceneTagName": "ScarBoss01",
    "sceneId": 20168,
    "isDefaultValid": true,
    "isSkipLoading": true,
    "isIndependent": true,
    "cond": [
      {},
      {}
    ]
  },
  {
    "id": 1202,
    "sceneTagName": "ScarBoss02",
    "sceneId": 20168,
    "isSkipLoading": true,
    "isIndependent": true,
    "cond": [
      {},
      {}
    ]
  },
  {
    "id": 1203,
    "sceneTagName": "CycleDungeon01",
    "sceneId": 3,
    "isSkipLoading": true,
    "isIndependent": true,
    "cond": [
      {},
      {}
    ]
  },
  {
    "id": 1204,
    "sceneTagName": "DreamClub01",
    "sceneId": 3,
    "isSkipLoading": true,
    "isIndependent": true,
    "cond": [
      {},
      {}
    ]
  },
  {
    "id": 1205,
    "sceneTagName": "Combine_FungusFighter",
    "sceneId": 3,
    "isIndependent": true,
    "cond": [
      {},
      {}
    ]
  },
  {
    "id": 1206,
    "sceneTagName": "ScarBoss01",
    "sceneId": 20171,
    "isDefaultValid": true,
    "isSkipLoading": true,
    "isIndependent": true,
    "cond": [
      {},
      {}
    ]
  },
  {
    "id": 1207,
    "sceneTagName": "ScarBoss02",
    "sceneId": 20171,
    "isSkipLoading": true,
    "isIndependent": true,
    "cond": [
      {},
      {}
    ]
  },
  {
    "id": 1208,
    "sceneTagName": "Combine_BrickBreaker01",
    "sceneId": 3,
    "isIndependent": true,
    "cond": [
      {},
      {}
    ]
  },
  {
    "id": 1209,
    "sceneTagName": "JSG_State1",
    "sceneId": 1075,
    "isDefaultValid": true,
    "isSkipLoading": true,
    "isIndependent": true,
    "cond": [
      {},
      {}
    ]
  },
  {
    "id": 1210,
    "sceneTagName": "JSG_State2",
    "sceneId": 1075,
    "isSkipLoading": true,
    "isIndependent": true,
    "cond": [
      {},
      {}
    ]
  },
  {
    "id": 1211,
    "sceneTagName": "JSG_State3",
    "sceneId": 1075,
    "isSkipLoading": true,
    "isIndependent": true,
    "cond": [
      {},
      {}
    ]
  },
  {
    "id": 1213,
    "sceneTagName": "L_AkashaOpen",
    "sceneId": 1073,
    "isDefaultValid": true,
    "isSkipLoading": true,
    "isIndependent": true,
    "cond": [
      {},
      {}
    ]
  },
  {
    "id": 1214,
    "sceneTagName": "L_AkashaClose",
    "sceneId": 1073,
    "isSkipLoading": true,
    "isIndependent": true,
    "cond": [
      {},
      {}
    ]
  },
  {
    "id": 1215,
    "sceneTagName": "BoatTurn",
    "sceneId": 20158,
    "isSkipLoading": true,
    "isIndependent": true,
    "cond": [
      {},
      {}
    ]
  },
  {
    "id": 1216,
    "sceneTagName": "Boat_BaseTerrain",
    "sceneId": 20158,
    "isDefaultValid": true,
    "isSkipLoading": true,
    "isIndependent": true,
    "cond": [
      {},
      {}
    ]
  },
  {
    "id": 1217,
    "sceneTagName": "Boat_BaseGrass",
    "sceneId": 20158,
    "isDefaultValid": true,
    "isSkipLoading": true,
    "isIndependent": true,
    "cond": [
      {},
      {}
    ]
  },
  {
    "id": 1218,
    "sceneTagName": "Combine_BoatTurn",
    "sceneId": 20158,
    "isDefaultValid": true,
    "isSkipLoading": true,
    "isIndependent": true,
    "cond": [
      {},
      {}
    ]
  },
  {
    "id": 1219,
    "sceneTagName": "XM_RobotB3",
    "sceneId": 3,
    "isSkipLoading": true,
    "isIndependent": true,
    "cond": [
      {},
      {}
    ]
  },
  {
    "id": 1220,
    "sceneTagName": "XM_RobotBake",
    "sceneId": 3,
    "isIndependent": true,
    "cond": [
      {},
      {}
    ]
  },
  {
    "id": 1221,
    "sceneTagName": "Combine_DreamClub01",
    "sceneId": 3,
    "isSkipLoading": true,
    "isIndependent": true,
    "cond": [
      {},
      {}
    ]
  },
  {
    "id": 1222,
    "sceneTagName": "XM_LSYJ_-2_5_BaseGrass",
    "sceneId": 3,
    "isIndependent": true,
    "cond": [
      {},
      {}
    ]
  },
  {
    "id": 1223,
    "sceneTagName": "SCSK_01",
    "sceneId": 3,
    "isDefaultValid": true,
    "isIndependent": true,
    "cond": [
      {},
      {}
    ]
  },
  {
    "id": 1224,
    "sceneTagName": "SCSK_02",
    "sceneId": 3,
    "isIndependent": true,
    "cond": [
      {},
      {}
    ]
  },
  {
    "id": 1225,
    "sceneTagName": "SCSK_SK1_01",
    "sceneId": 3,
    "isDefaultValid": true,
    "isSkipLoading": true,
    "isIndependent": true,
    "cond": [
      {},
      {}
    ]
  },
  {
    "id": 1226,
    "sceneTagName": "SCSK_SK1_02",
    "sceneId": 3,
    "isSkipLoading": true,
    "isIndependent": true,
    "cond": [
      {},
      {}
    ]
  },
  {
    "id": 1227,
    "sceneTagName": "SCSK_SK2_01",
    "sceneId": 3,
    "isDefaultValid": true,
    "isIndependent": true,
    "cond": [
      {},
      {}
    ]
  },
  {
    "id": 1228,
    "sceneTagName": "SCSK_SK2_02",
    "sceneId": 3,
    "isIndependent": true,
    "cond": [
      {},
      {}
    ]
  },
  {
    "id": 1229,
    "sceneTagName": "SCSK_SK3_01",
    "sceneId": 3,
    "isDefaultValid": true,
    "isIndependent": true,
    "cond": [
      {},
      {}
    ]
  },
  {
    "id": 1230,
    "sceneTagName": "SCSK_SK3_02",
    "sceneId": 3,
    "isIndependent": true,
    "cond": [
      {},
      {}
    ]
  },
  {
    "id": 1231,
    "sceneTagName": "SCSK_SK4_01",
    "sceneId": 3,
    "isDefaultValid": true,
    "isIndependent": true,
    "cond": [
      {},
      {}
    ]
  },
  {
    "id": 1232,
    "sceneTagName": "SCSK_SK4_02",
    "sceneId": 3,
    "isIndependent": true,
    "cond": [
      {},
      {}
    ]
  },
  {
    "id": 1233,
    "sceneTagName": "SCSK_SK5_01",
    "sceneId": 3,
    "isDefaultValid": true,
    "isIndependent": true,
    "cond": [
      {},
      {}
    ]
  },
  {
    "id": 1234,
    "sceneTagName": "SCSK_SK5_02",
    "sceneId": 3,
    "isIndependent": true,
    "cond": [
      {},
      {}
    ]
  },
  {
    "id": 1235,
    "sceneTagName": "JJZZ_01",
    "sceneId": 3,
    "isDefaultValid": true,
    "isIndependent": true,
    "cond": [
      {},
      {}
    ]
  },
  {
    "id": 1236,
    "sceneTagName": "JJZZ_02",
    "sceneId": 3,
    "isIndependent": true,
    "cond": [
      {},
      {}
    ]
  },
  {
    "id": 1237,
    "sceneTagName": "JJZZ_03",
    "sceneId": 3,
    "isDefaultValid": true,
    "isIndependent": true,
    "cond": [
      {},
      {}
    ]
  },
  {
    "id": 1238,
    "sceneTagName": "JJZZ_04",
    "sceneId": 3,
    "isIndependent": true,
    "cond": [
      {},
      {}
    ]
  },
  {
    "id": 1239,
    "sceneTagName": "SCCX_01",
    "sceneId": 3,
    "isDefaultValid": true,
    "isSkipLoading": true,
    "isIndependent": true,
    "cond": [
      {},
      {}
    ]
  },
  {
    "id": 1240,
    "sceneTagName": "SCCX_02",
    "sceneId": 3,
    "isSkipLoading": true,
    "isIndependent": true,
    "cond": [
      {},
      {}
    ]
  },
  {
    "id": 1241,
    "sceneTagName": "GLHH_01",
    "sceneId": 3,
    "isDefaultValid": true,
    "isIndependent": true,
    "cond": [
      {},
      {}
    ]
  },
  {
    "id": 1242,
    "sceneTagName": "GLHH_02",
    "sceneId": 3,
    "isIndependent": true,
    "cond": [
      {},
      {}
    ]
  },
  {
    "id": 1243,
    "sceneTagName": "SSL_01",
    "sceneId": 3,
    "isSkipLoading": true,
    "isIndependent": true,
    "cond": [
      {},
      {}
    ]
  },
  {
    "id": 1244,
    "sceneTagName": "JSJS_01",
    "sceneId": 3,
    "isDefaultValid": true,
    "isIndependent": true,
    "cond": [
      {},
      {}
    ]
  },
  {
    "id": 1245,
    "sceneTagName": "JSJS_02",
    "sceneId": 3,
    "isIndependent": true,
    "cond": [
      {},
      {}
    ]
  },
  {
    "id": 1246,
    "sceneTagName": "SCSK_BaseTerrain",
    "sceneId": 3,
    "isIndependent": true,
    "cond": [
      {},
      {}
    ]
  },
  {
    "id": 1247,
    "sceneTagName": "SCSK_BaseGrass",
    "sceneId": 3,
    "isIndependent": true,
    "cond": [
      {},
      {}
    ]
  },
  {
    "id": 1248,
    "sceneTagName": "Combine_Hdj_Alcor",
    "sceneId": 3,
    "isIndependent": true,
    "cond": [
      {},
      {}
    ]
  },
  {
    "id": 1249,
    "sceneTagName": "SKYJ_01",
    "sceneId": 3,
    "isIndependent": true,
    "cond": [
      {},
      {}
    ]
  },
  {
    "id": 1250,
    "sceneTagName": "NLZS_01",
    "sceneId": 3,
    "isIndependent": true,
    "cond": [
      {},
      {}
    ]
  },
  {
    "id": 1251,
    "sceneTagName": "CJC_01",
    "sceneId": 3,
    "isDefaultValid": true,
    "isIndependent": true,
    "cond": [
      {},
      {}
    ]
  },
  {
    "id": 1252,
    "sceneTagName": "LIFT_HIGH_Bake",
    "sceneId": 3,
    "isIndependent": true,
    "cond": [
      {},
      {}
    ]
  },
  {
    "id": 1253,
    "sceneTagName": "LIFT_MID_Bake",
    "sceneId": 3,
    "isIndependent": true,
    "cond": [
      {},
      {}
    ]
  },
  {
    "id": 1254,
    "sceneTagName": "LIFT_DOWN_Bake",
    "sceneId": 3,
    "isIndependent": true,
    "cond": [
      {},
      {}
    ]
  },
  {
    "id": 1255,
    "sceneTagName": "CJC_02",
    "sceneId": 3,
    "isIndependent": true,
    "cond": [
      {},
      {}
    ]
  },
  {
    "id": 1256,
    "sceneTagName": "Hang_01",
    "sceneId": 20178,
    "isDefaultValid": true,
    "isSkipLoading": true,
    "isIndependent": true,
    "cond": [
      {},
      {}
    ]
  },
  {
    "id": 1257,
    "sceneTagName": "Onion_real_ex",
    "sceneId": 3,
    "isSkipLoading": true,
    "isIndependent": true,
    "cond": [
      {},
      {}
    ]
  },
  {
    "id": 1258,
    "sceneTagName": "Onion_real_mx",
    "sceneId": 3,
    "isSkipLoading": true,
    "isIndependent": true,
    "cond": [
      {},
      {}
    ]
  },
  {
    "id": 1259,
    "sceneTagName": "Onion_dream_ex",
    "sceneId": 3,
    "isDefaultValid": true,
    "isSkipLoading": true,
    "isIndependent": true,
    "cond": [
      {},
      {}
    ]
  },
  {
    "id": 1260,
    "sceneTagName": "Onion_dream_mx",
    "sceneId": 3,
    "isSkipLoading": true,
    "isIndependent": true,
    "cond": [
      {},
      {}
    ]
  },
  {
    "id": 1261,
    "sceneTagName": "PN_Cinema_Bf",
    "sceneId": 10,
    "isDefaultValid": true,
    "isIndependent": true,
    "cond": [
      {},
      {}
    ]
  },
  {
    "id": 1262,
    "sceneTagName": "PN_Cinema_Af",
    "sceneId": 10,
    "isIndependent": true,
    "cond": [
      {},
      {}
    ]
  },
  {
    "id": 1263,
    "sceneTagName": "PN_Vine_Bf",
    "sceneId": 10,
    "isDefaultValid": true,
    "isIndependent": true,
    "cond": [
      {},
      {}
    ]
  },
  {
    "id": 1264,
    "sceneTagName": "PN_Vine_Af",
    "sceneId": 10,
    "isSkipLoading": true,
    "isIndependent": true,
    "cond": [
      {},
      {}
    ]
  },
  {
    "id": 1265,
    "sceneTagName": "PN_Circus_Bf",
    "sceneId": 10,
    "isDefaultValid": true,
    "isIndependent": true,
    "cond": [
      {},
      {}
    ]
  },
  {
    "id": 1266,
    "sceneTagName": "PN_Circus_Af",
    "sceneId": 10,
    "isSkipLoading": true,
    "isIndependent": true,
    "cond": [
      {},
      {}
    ]
  },
  {
    "id": 1267,
    "sceneTagName": "PN_Ferris_Bf",
    "sceneId": 10,
    "isDefaultValid": true,
    "isIndependent": true,
    "cond": [
      {},
      {}
    ]
  },
  {
    "id": 1268,
    "sceneTagName": "PN_Ferris_Af",
    "sceneId": 10,
    "isSkipLoading": true,
    "isIndependent": true,
    "cond": [
      {},
      {}
    ]
  },
  {
    "id": 1269,
    "sceneTagName": "BigTree03",
    "sceneId": 35903,
    "isDefaultValid": true,
    "isSkipLoading": true,
    "isIndependent": true,
    "cond": [
      {},
      {}
    ]
  },
  {
    "id": 1270,
    "sceneTagName": "BigTree04",
    "sceneId": 35903,
    "isDefaultValid": true,
    "isSkipLoading": true,
    "isIndependent": true,
    "cond": [
      {},
      {}
    ]
  },
  {
    "id": 1271,
    "sceneTagName": "BigTree03",
    "sceneId": 35904,
    "isDefaultValid": true,
    "isSkipLoading": true,
    "isIndependent": true,
    "cond": [
      {},
      {}
    ]
  },
  {
    "id": 1272,
    "sceneTagName": "BigTree04",
    "sceneId": 35904,
    "isDefaultValid": true,
    "isSkipLoading": true,
    "isIndependent": true,
    "cond": [
      {},
      {}
    ]
  },
  {
    "id": 1273,
    "sceneTagName": "BigTree03",
    "sceneId": 35905,
    "isDefaultValid": true,
    "isSkipLoading": true,
    "isIndependent": true,
    "cond": [
      {},
      {}
    ]
  },
  {
    "id": 1274,
    "sceneTagName": "BigTree04",
    "sceneId": 35905,
    "isDefaultValid": true,
    "isSkipLoading": true,
    "isIndependent": true,
    "cond": [
      {},
      {}
    ]
  },
  {
    "id": 1275,
    "sceneTagName": "Combine_AkaFes",
    "sceneId": 3,
    "isIndependent": true,
    "cond": [
      {},
      {}
    ]
  },
  {
    "id": 1276,
    "sceneTagName": "FD_KZST_P1",
    "sceneId": 3,
    "isDefaultValid": true,
    "isIndependent": true,
    "cond": [
      {},
      {}
    ]
  },
  {
    "id": 1277,
    "sceneTagName": "FD_KZST_P2",
    "sceneId": 3,
    "isIndependent": true,
    "cond": [
      {},
      {}
    ]
  },
  {
    "id": 1278,
    "sceneTagName": "FD_KZST_P3",
    "sceneId": 3,
    "isIndependent": true,
    "cond": [
      {},
      {}
    ]
  },
  {
    "id": 1279,
    "sceneTagName": "FD_QZJCZX_P1",
    "sceneId": 3,
    "isDefaultValid": true,
    "isSkipLoading": true,
    "isIndependent": true,
    "cond": [
      {},
      {}
    ]
  },
  {
    "id": 1280,
    "sceneTagName": "FD_QZJCZX_P2",
    "sceneId": 3,
    "isSkipLoading": true,
    "isIndependent": true,
    "cond": [
      {},
      {}
    ]
  },
  {
    "id": 1281,
    "sceneTagName": "FD_BoilLake_Be",
    "sceneId": 3,
    "isDefaultValid": true,
    "isSkipLoading": true,
    "isIndependent": true,
    "cond": [
      {},
      {}
    ]
  },
  {
    "id": 1282,
    "sceneTagName": "FD_BoilLake_Af",
    "sceneId": 3,
    "isSkipLoading": true,
    "isIndependent": true,
    "cond": [
      {},
      {}
    ]
  },
  {
    "id": 1283,
    "sceneTagName": "BigTree03",
    "sceneId": 35910,
    "isDefaultValid": true,
    "isSkipLoading": true,
    "isIndependent": true,
    "cond": [
      {},
      {}
    ]
  },
  {
    "id": 1284,
    "sceneTagName": "BigTree04",
    "sceneId": 35910,
    "isDefaultValid": true,
    "isSkipLoading": true,
    "isIndependent": true,
    "cond": [
      {},
      {}
    ]
  },
  {
    "id": 1285,
    "sceneTagName": "BigTree03",
    "sceneId": 35911,
    "isDefaultValid": true,
    "isSkipLoading": true,
    "isIndependent": true,
    "cond": [
      {},
      {}
    ]
  },
  {
    "id": 1286,
    "sceneTagName": "BigTree04",
    "sceneId": 35911,
    "isDefaultValid": true,
    "isSkipLoading": true,
    "isIndependent": true,
    "cond": [
      {},
      {}
    ]
  },
  {
    "id": 1287,
    "sceneTagName": "BigTree03",
    "sceneId": 35912,
    "isDefaultValid": true,
    "isSkipLoading": true,
    "isIndependent": true,
    "cond": [
      {},
      {}
    ]
  },
  {
    "id": 1288,
    "sceneTagName": "BigTree04",
    "sceneId": 35912,
    "isDefaultValid": true,
    "isSkipLoading": true,
    "isIndependent": true,
    "cond": [
      {},
      {}
    ]
  },
  {
    "id": 1289,
    "sceneTagName": "BigTree03",
    "sceneId": 35913,
    "isDefaultValid": true,
    "isSkipLoading": true,
    "isIndependent": true,
    "cond": [
      {},
      {}
    ]
  },
  {
    "id": 1290,
    "sceneTagName": "BigTree04",
    "sceneId": 35913,
    "isDefaultValid": true,
    "isSkipLoading": true,
    "isIndependent": true,
    "cond": [
      {},
      {}
    ]
  },
  {
    "id": 1291,
    "sceneTagName": "FD_LS_Be",
    "sceneId": 3,
    "isDefaultValid": true,
    "isSkipLoading": true,
    "isIndependent": true,
    "cond": [
      {},
      {}
    ]
  },
  {
    "id": 1292,
    "sceneTagName": "FD_LS_Af",
    "sceneId": 3,
    "isSkipLoading": true,
    "isIndependent": true,
    "cond": [
      {},
      {}
    ]
  },
  {
    "id": 1293,
    "sceneTagName": "FD_SMF_Be",
    "sceneId": 3,
    "isDefaultValid": true,
    "isIndependent": true,
    "cond": [
      {},
      {}
    ]
  },
  {
    "id": 1294,
    "sceneTagName": "FD_SMF_Af",
    "sceneId": 3,
    "isIndependent": true,
    "cond": [
      {},
      {}
    ]
  },
  {
    "id": 1295,
    "sceneTagName": "FD_HEART_Be",
    "sceneId": 3,
    "isDefaultValid": true,
    "isSkipLoading": true,
    "isIndependent": true,
    "cond": [
      {},
      {}
    ]
  },
  {
    "id": 1296,
    "sceneTagName": "FD_HEART_Af",
    "sceneId": 3,
    "isSkipLoading": true,
    "isIndependent": true,
    "cond": [
      {},
      {}
    ]
  },
  {
    "id": 1297,
    "sceneTagName": "BigTree01",
    "sceneId": 40066,
    "isSkipLoading": true,
    "isIndependent": true,
    "cond": [
      {},
      {}
    ]
  },
  {
    "id": 1298,
    "sceneTagName": "BigTree02",
    "sceneId": 40066,
    "isSkipLoading": true,
    "isIndependent": true,
    "cond": [
      {},
      {}
    ]
  },
  {
    "id": 1299,
    "sceneTagName": "BigTree03",
    "sceneId": 40066,
    "isDefaultValid": true,
    "isSkipLoading": true,
    "isIndependent": true,
    "cond": [
      {},
      {}
    ]
  },
  {
    "id": 1300,
    "sceneTagName": "BigTree04",
    "sceneId": 40066,
    "isDefaultValid": true,
    "isSkipLoading": true,
    "isIndependent": true,
    "cond": [
      {},
      {}
    ]
  },
  {
    "id": 1301,
    "sceneTagName": "Combine_Journey01",
    "sceneId": 3,
    "isIndependent": true,
    "cond": [
      {},
      {}
    ]
  },
  {
    "id": 1302,
    "sceneTagName": "Combine_Journey02",
    "sceneId": 3,
    "isIndependent": true,
    "cond": [
      {},
      {}
    ]
  },
  {
    "id": 1303,
    "sceneTagName": "Combine_Journey04",
    "sceneId": 3,
    "isIndependent": true,
    "cond": [
      {},
      {}
    ]
  },
  {
    "id": 1304,
    "sceneTagName": "BigWorld_4_3_BaseTerrain",
    "sceneId": 3,
    "isIndependent": true,
    "cond": [
      {},
      {}
    ]
  },
  {
    "id": 1305,
    "sceneTagName": "BigWorld_4_3_BaseGrass",
    "sceneId": 3,
    "isIndependent": true,
    "cond": [
      {},
      {}
    ]
  },
  {
    "id": 1306,
    "sceneTagName": "FD_LS_MLAHua",
    "sceneId": 3,
    "isSkipLoading": true,
    "isIndependent": true,
    "cond": [
      {},
      {}
    ]
  },
  {
    "id": 1307,
    "sceneTagName": "FD_LS_CKShi",
    "sceneId": 3,
    "isDefaultValid": true,
    "isSkipLoading": true,
    "isIndependent": true,
    "cond": [
      {},
      {}
    ]
  },
  {
    "id": 1308,
    "sceneTagName": "BigTree03",
    "sceneId": 51031,
    "isDefaultValid": true,
    "isSkipLoading": true,
    "isIndependent": true,
    "cond": [
      {},
      {}
    ]
  },
  {
    "id": 1309,
    "sceneTagName": "BigTree04",
    "sceneId": 51031,
    "isDefaultValid": true,
    "isSkipLoading": true,
    "isIndependent": true,
    "cond": [
      {},
      {}
    ]
  },
  {
    "id": 1310,
    "sceneTagName": "BigTree03",
    "sceneId": 35918,
    "isDefaultValid": true,
    "isSkipLoading": true,
    "isIndependent": true,
    "cond": [
      {},
      {}
    ]
  },
  {
    "id": 1311,
    "sceneTagName": "BigTree04",
    "sceneId": 35918,
    "isDefaultValid": true,
    "isSkipLoading": true,
    "isIndependent": true,
    "cond": [
      {},
      {}
    ]
  },
  {
    "id": 1312,
    "sceneTagName": "BigTree03",
    "sceneId": 35919,
    "isDefaultValid": true,
    "isSkipLoading": true,
    "isIndependent": true,
    "cond": [
      {},
      {}
    ]
  },
  {
    "id": 1313,
    "sceneTagName": "BigTree04",
    "sceneId": 35919,
    "isDefaultValid": true,
    "isSkipLoading": true,
    "isIndependent": true,
    "cond": [
      {},
      {}
    ]
  },
  {
    "id": 1314,
    "sceneTagName": "BigTree03",
    "sceneId": 35920,
    "isDefaultValid": true,
    "isSkipLoading": true,
    "isIndependent": true,
    "cond": [
      {},
      {}
    ]
  },
  {
    "id": 1315,
    "sceneTagName": "BigTree04",
    "sceneId": 35920,
    "isDefaultValid": true,
    "isSkipLoading": true,
    "isIndependent": true,
    "cond": [
      {},
      {}
    ]
  },
  {
    "id": 1316,
    "sceneTagName": "BigTree03",
    "sceneId": 35921,
    "isDefaultValid": true,
    "isSkipLoading": true,
    "isIndependent": true,
    "cond": [
      {},
      {}
    ]
  },
  {
    "id": 1317,
    "sceneTagName": "BigTree04",
    "sceneId": 35921,
    "isDefaultValid": true,
    "isSkipLoading": true,
    "isIndependent": true,
    "cond": [
      {},
      {}
    ]
  },
  {
    "id": 1318,
    "sceneTagName": "BigTree03",
    "sceneId": 35922,
    "isDefaultValid": true,
    "isSkipLoading": true,
    "isIndependent": true,
    "cond": [
      {},
      {}
    ]
  },
  {
    "id": 1319,
    "sceneTagName": "BigTree04",
    "sceneId": 35922,
    "isDefaultValid": true,
    "isSkipLoading": true,
    "isIndependent": true,
    "cond": [
      {},
      {}
    ]
  },
  {
    "id": 1320,
    "sceneTagName": "FD_Tower_Bf",
    "sceneId": 3,
    "isDefaultValid": true,
    "isIndependent": true,
    "cond": [
      {},
      {}
    ]
  },
  {
    "id": 1321,
    "sceneTagName": "FD_Tower_Af",
    "sceneId": 3,
    "isIndependent": true,
    "cond": [
      {},
      {}
    ]
  },
  {
    "id": 1322,
    "sceneTagName": "FD_DPQS_Before",
    "sceneId": 3,
    "isDefaultValid": true,
    "isIndependent": true,
    "cond": [
      {},
      {}
    ]
  },
  {
    "id": 1323,
    "sceneTagName": "FD_DPQS_After",
    "sceneId": 3,
    "isIndependent": true,
    "cond": [
      {},
      {}
    ]
  },
  {
    "id": 1324,
    "sceneTagName": "FD_BWLJ_Before",
    "sceneId": 3,
    "isIndependent": true,
    "cond": [
      {},
      {}
    ]
  },
  {
    "id": 1325,
    "sceneTagName": "FD_BWLJ_After",
    "sceneId": 3,
    "isIndependent": true,
    "cond": [
      {},
      {}
    ]
  },
  {
    "id": 1326,
    "sceneTagName": "FD_LSSG_Before",
    "sceneId": 3,
    "isDefaultValid": true,
    "isSkipLoading": true,
    "isIndependent": true,
    "cond": [
      {},
      {}
    ]
  },
  {
    "id": 1327,
    "sceneTagName": "FD_LSSG_After",
    "sceneId": 3,
    "isSkipLoading": true,
    "isIndependent": true,
    "cond": [
      {},
      {}
    ]
  },
  {
    "id": 1337,
    "sceneTagName": "FD_sxfyA_Bf",
    "sceneId": 3,
    "isDefaultValid": true,
    "isIndependent": true,
    "cond": [
      {},
      {}
    ]
  },
  {
    "id": 1338,
    "sceneTagName": "FD_sxfyA_Af",
    "sceneId": 3,
    "isIndependent": true,
    "cond": [
      {},
      {}
    ]
  },
  {
    "id": 1339,
    "sceneTagName": "FD_sxfyD_Bf",
    "sceneId": 3,
    "isDefaultValid": true,
    "isIndependent": true,
    "cond": [
      {},
      {}
    ]
  },
  {
    "id": 1340,
    "sceneTagName": "FD_sxfyD_Af",
    "sceneId": 3,
    "isIndependent": true,
    "cond": [
      {},
      {}
    ]
  },
  {
    "id": 1328,
    "sceneTagName": "FD_HEARTIN_Be",
    "sceneId": 3,
    "isDefaultValid": true,
    "isSkipLoading": true,
    "isIndependent": true,
    "cond": [
      {},
      {}
    ]
  },
  {
    "id": 1329,
    "sceneTagName": "FD_HEARTIN_Af",
    "sceneId": 3,
    "isSkipLoading": true,
    "isIndependent": true,
    "cond": [
      {},
      {}
    ]
  },
  {
    "id": 1330,
    "sceneTagName": "FD_SpaceR_Be",
    "sceneId": 3,
    "isDefaultValid": true,
    "isSkipLoading": true,
    "isIndependent": true,
    "cond": [
      {},
      {}
    ]
  },
  {
    "id": 1331,
    "sceneTagName": "FD_SpaceR_Af",
    "sceneId": 3,
    "isSkipLoading": true,
    "isIndependent": true,
    "cond": [
      {},
      {}
    ]
  },
  {
    "id": 1332,
    "sceneTagName": "FD_HEART_BaseGrass",
    "sceneId": 3,
    "cond": [
      {},
      {}
    ]
  },
  {
    "id": 1333,
    "sceneTagName": "FD_Gear_01",
    "sceneId": 20186,
    "isDefaultValid": true,
    "isSkipLoading": true,
    "isIndependent": true,
    "cond": [
      {},
      {}
    ]
  },
  {
    "id": 1334,
    "sceneTagName": "FD_Gear_02",
    "sceneId": 20186,
    "isSkipLoading": true,
    "isIndependent": true,
    "cond": [
      {},
      {}
    ]
  },
  {
    "id": 1335,
    "sceneTagName": "FD_Gear_03",
    "sceneId": 20186,
    "isSkipLoading": true,
    "isIndependent": true,
    "cond": [
      {},
      {}
    ]
  },
  {
    "id": 1336,
    "sceneTagName": "WishPond_mx",
    "sceneId": 3,
    "isSkipLoading": true,
    "isIndependent": true,
    "cond": [
      {},
      {}
    ]
  },
  {
    "id": 1341,
    "sceneTagName": "FD_Fish_Be",
    "sceneId": 3,
    "isDefaultValid": true,
    "isIndependent": true,
    "cond": [
      {},
      {}
    ]
  },
  {
    "id": 1342,
    "sceneTagName": "FD_Fish_Af",
    "sceneId": 3,
    "isIndependent": true,
    "cond": [
      {},
      {}
    ]
  },
  {
    "id": 1343,
    "sceneTagName": "Combine_PoetryFestival",
    "sceneId": 3,
    "isIndependent": true,
    "cond": [
      {},
      {}
    ],
    "AIKFONNMLAK": "SCENE_TAG_TYPE_ACTIVITY"
  },
  {
    "id": 1344,
    "sceneTagName": "Combine_FD_PoissonFlod",
    "sceneId": 3,
    "isSkipLoading": true,
    "isIndependent": true,
    "cond": [
      {},
      {}
    ]
  },
  {
    "id": 1345,
    "sceneTagName": "BigWorld_2_3_BaseGIConsole",
    "sceneId": 3,
    "cond": [
      {},
      {}
    ]
  },
  {
    "id": 1346,
    "sceneTagName": "FD_PoissonFlod",
    "sceneId": 3,
    "isSkipLoading": true,
    "isIndependent": true,
    "cond": [
      {},
      {}
    ]
  },
  {
    "id": 1348,
    "sceneTagName": "FD_Club_Bf",
    "sceneId": 1080,
    "isDefaultValid": true,
    "isSkipLoading": true,
    "isIndependent": true,
    "cond": [
      {},
      {}
    ]
  },
  {
    "id": 1349,
    "sceneTagName": "FD_Club_Af",
    "sceneId": 1080,
    "isSkipLoading": true,
    "isIndependent": true,
    "cond": [
      {},
      {}
    ]
  },
  {
    "id": 1351,
    "sceneTagName": "MachineClosed",
    "sceneId": 1085,
    "isSkipLoading": true,
    "isIndependent": true,
    "cond": [
      {},
      {}
    ]
  },
  {
    "id": 1352,
    "sceneTagName": "MachineOpened",
    "sceneId": 1085,
    "isDefaultValid": true,
    "isSkipLoading": true,
    "isIndependent": true,
    "cond": [
      {},
      {}
    ]
  },
  {
    "id": 1367,
    "sceneTagName": "FD_WEntry_Bf",
    "sceneId": 3,
    "isDefaultValid": true,
    "isSkipLoading": true,
    "isIndependent": true,
    "cond": [
      {},
      {}
    ]
  },
  {
    "id": 1368,
    "sceneTagName": "FD_WEntry_Af",
    "sceneId": 3,
    "isSkipLoading": true,
    "isIndependent": true,
    "cond": [
      {},
      {}
    ]
  },
  {
    "id": 1371,
    "sceneTagName": "WithGalley",
    "sceneId": 1086,
    "isDefaultValid": true,
    "isSkipLoading": true,
    "isIndependent": true,
    "cond": [
      {},
      {}
    ]
  },
  {
    "id": 1372,
    "sceneTagName": "Fungus04_1",
    "sceneId": 35930,
    "isDefaultValid": true,
    "isIndependent": true,
    "cond": [
      {},
      {}
    ]
  },
  {
    "id": 1373,
    "sceneTagName": "Fungus04_1",
    "sceneId": 35931,
    "isDefaultValid": true,
    "isIndependent": true,
    "cond": [
      {},
      {}
    ]
  },
  {
    "id": 1374,
    "sceneTagName": "Fungus04_2",
    "sceneId": 35932,
    "isDefaultValid": true,
    "isIndependent": true,
    "cond": [
      {},
      {}
    ]
  },
  {
    "id": 1375,
    "sceneTagName": "Fungus03_1",
    "sceneId": 35933,
    "isDefaultValid": true,
    "isIndependent": true,
    "cond": [
      {},
      {}
    ]
  },
  {
    "id": 1376,
    "sceneTagName": "Fungus03_2",
    "sceneId": 35934,
    "isDefaultValid": true,
    "isIndependent": true,
    "cond": [
      {},
      {}
    ]
  },
  {
    "id": 1377,
    "sceneTagName": "Fungus03_1",
    "sceneId": 35935,
    "isDefaultValid": true,
    "isIndependent": true,
    "cond": [
      {},
      {}
    ]
  },
  {
    "id": 1378,
    "sceneTagName": "Fungus03_2",
    "sceneId": 35936,
    "isDefaultValid": true,
    "isIndependent": true,
    "cond": [
      {},
      {}
    ]
  },
  {
    "id": 1379,
    "sceneTagName": "WithoutGalley",
    "sceneId": 1086,
    "isSkipLoading": true,
    "isIndependent": true,
    "cond": [
      {},
      {}
    ]
  }
]