[
  {
    "FBDMBJFEACI": 1,
    "JGBGFIFMHII": 422001
  },
  {
    "FBDMBJFEACI": 2,
    "JGBGFIFMHII": 422002
  },
  {
    "FBDMBJFEACI": 3,
    "JGBGFIFMHII": 422003
  },
  {
    "FBDMBJFEACI": 4,
    "JGBGFIFMHII": 422004
  },
  {
    "FBDMBJFEACI": 5,
    "JGBGFIFMHII": 422005
  },
  {
    "FBDMBJFEACI": 6,
    "JGBGFIFMHII": 422006
  },
  {
    "FBDMBJFEACI": 7,
    "JGBGFIFMHII": 422007
  },
  {
    "FBDMBJFEACI": 8,
    "JGBGFIFMHII": 422008
  },
  {
    "FBDMBJFEACI": 9,
    "JGBGFIFMHII": 422009
  },
  {
    "FBDMBJFEACI": 10,
    "JGBGFIFMHII": 422010
  },
  {
    "FBDMBJFEACI": 11,
    "JGBGFIFMHII": 422011
  },
  {
    "FBDMBJFEACI": 12,
    "JGBGFIFMHII": 422012
  },
  {
    "FBDMBJFEACI": 13,
    "JGBGFIFMHII": 422013
  },
  {
    "FBDMBJFEACI": 14,
    "JGBGFIFMHII": 422014
  },
  {
    "FBDMBJFEACI": 15,
    "JGBGFIFMHII": 422015
  },
  {
    "FBDMBJFEACI": 16,
    "JGBGFIFMHII": 422016
  },
  {
    "FBDMBJFEACI": 17,
    "JGBGFIFMHII": 422017
  },
  {
    "FBDMBJFEACI": 18,
    "JGBGFIFMHII": 422018
  },
  {
    "FBDMBJFEACI": 19,
    "JGBGFIFMHII": 422019
  },
  {
    "FBDMBJFEACI": 20,
    "JGBGFIFMHII": 422020
  },
  {
    "FBDMBJFEACI": 21,
    "JGBGFIFMHII": 422021
  },
  {
    "FBDMBJFEACI": 22,
    "JGBGFIFMHII": 422022
  },
  {
    "FBDMBJFEACI": 23,
    "JGBGFIFMHII": 422023
  },
  {
    "FBDMBJFEACI": 24,
    "JGBGFIFMHII": 422024
  },
  {
    "FBDMBJFEACI": 25,
    "JGBGFIFMHII": 422025
  },
  {
    "FBDMBJFEACI": 26,
    "JGBGFIFMHII": 422026
  },
  {
    "FBDMBJFEACI": 27,
    "JGBGFIFMHII": 422027
  },
  {
    "FBDMBJFEACI": 28,
    "JGBGFIFMHII": 422028
  },
  {
    "FBDMBJFEACI": 29,
    "JGBGFIFMHII": 422029
  },
  {
    "FBDMBJFEACI": 30,
    "JGBGFIFMHII": 422030
  },
  {
    "FBDMBJFEACI": 31,
    "JGBGFIFMHII": 422031
  },
  {
    "FBDMBJFEACI": 32,
    "JGBGFIFMHII": 422032
  },
  {
    "FBDMBJFEACI": 33,
    "JGBGFIFMHII": 422033
  },
  {
    "FBDMBJFEACI": 34,
    "JGBGFIFMHII": 422034
  },
  {
    "FBDMBJFEACI": 35,
    "JGBGFIFMHII": 422035
  },
  {
    "FBDMBJFEACI": 36,
    "JGBGFIFMHII": 422036
  },
  {
    "FBDMBJFEACI": 37,
    "JGBGFIFMHII": 422037
  },
  {
    "FBDMBJFEACI": 38,
    "JGBGFIFMHII": 422038
  },
  {
    "FBDMBJFEACI": 39,
    "JGBGFIFMHII": 422039
  },
  {
    "FBDMBJFEACI": 40,
    "JGBGFIFMHII": 422040
  },
  {
    "FBDMBJFEACI": 41,
    "JGBGFIFMHII": 422041
  },
  {
    "FBDMBJFEACI": 42,
    "JGBGFIFMHII": 422042
  },
  {
    "FBDMBJFEACI": 43,
    "JGBGFIFMHII": 422043
  },
  {
    "FBDMBJFEACI": 44,
    "JGBGFIFMHII": 422044
  },
  {
    "FBDMBJFEACI": 45,
    "JGBGFIFMHII": 422045
  },
  {
    "FBDMBJFEACI": 46,
    "JGBGFIFMHII": 422046
  },
  {
    "FBDMBJFEACI": 47,
    "JGBGFIFMHII": 422047
  },
  {
    "FBDMBJFEACI": 48,
    "JGBGFIFMHII": 422048
  },
  {
    "FBDMBJFEACI": 49,
    "JGBGFIFMHII": 422049
  },
  {
    "FBDMBJFEACI": 50,
    "JGBGFIFMHII": 422050
  },
  {
    "FBDMBJFEACI": 51,
    "JGBGFIFMHII": 422101
  },
  {
    "FBDMBJFEACI": 52,
    "JGBGFIFMHII": 422102
  },
  {
    "FBDMBJFEACI": 53,
    "JGBGFIFMHII": 422103
  },
  {
    "FBDMBJFEACI": 54,
    "JGBGFIFMHII": 422104
  },
  {
    "FBDMBJFEACI": 55,
    "JGBGFIFMHII": 422105
  },
  {
    "FBDMBJFEACI": 56,
    "JGBGFIFMHII": 422106
  },
  {
    "FBDMBJFEACI": 57,
    "JGBGFIFMHII": 422107
  },
  {
    "FBDMBJFEACI": 58,
    "JGBGFIFMHII": 422108
  },
  {
    "FBDMBJFEACI": 59,
    "JGBGFIFMHII": 422109
  },
  {
    "FBDMBJFEACI": 60,
    "JGBGFIFMHII": 422110
  },
  {
    "FBDMBJFEACI": 61,
    "JGBGFIFMHII": 422201
  },
  {
    "FBDMBJFEACI": 62,
    "JGBGFIFMHII": 422202
  },
  {
    "FBDMBJFEACI": 63,
    "JGBGFIFMHII": 1018
  },
  {
    "FBDMBJFEACI": 64,
    "JGBGFIFMHII": 1021
  },
  {
    "FBDMBJFEACI": 65,
    "JGBGFIFMHII": 325000
  },
  {
    "FBDMBJFEACI": 66,
    "JGBGFIFMHII": 2401
  },
  {
    "FBDMBJFEACI": 67,
    "JGBGFIFMHII": 2400
  },
  {
    "FBDMBJFEACI": 68,
    "JGBGFIFMHII": 430001
  },
  {
    "FBDMBJFEACI": 69,
    "JGBGFIFMHII": 430002
  },
  {
    "FBDMBJFEACI": 70,
    "JGBGFIFMHII": 430003
  },
  {
    "FBDMBJFEACI": 71,
    "JGBGFIFMHII": 430004
  },
  {
    "FBDMBJFEACI": 72,
    "JGBGFIFMHII": 430005
  },
  {
    "FBDMBJFEACI": 73,
    "JGBGFIFMHII": 430006
  },
  {
    "FBDMBJFEACI": 74,
    "JGBGFIFMHII": 430007
  },
  {
    "FBDMBJFEACI": 75,
    "JGBGFIFMHII": 430008
  },
  {
    "FBDMBJFEACI": 76,
    "JGBGFIFMHII": 430009
  },
  {
    "FBDMBJFEACI": 77,
    "JGBGFIFMHII": 430010
  },
  {
    "FBDMBJFEACI": 78,
    "JGBGFIFMHII": 430011
  },
  {
    "FBDMBJFEACI": 79,
    "JGBGFIFMHII": 430012
  },
  {
    "FBDMBJFEACI": 80,
    "JGBGFIFMHII": 430013
  },
  {
    "FBDMBJFEACI": 81,
    "JGBGFIFMHII": 430014
  },
  {
    "FBDMBJFEACI": 82,
    "JGBGFIFMHII": 430015
  },
  {
    "FBDMBJFEACI": 83,
    "JGBGFIFMHII": 430016
  },
  {
    "FBDMBJFEACI": 84,
    "JGBGFIFMHII": 430017
  },
  {
    "FBDMBJFEACI": 85,
    "JGBGFIFMHII": 430018
  },
  {
    "FBDMBJFEACI": 86,
    "JGBGFIFMHII": 430019
  },
  {
    "FBDMBJFEACI": 87,
    "JGBGFIFMHII": 430020
  },
  {
    "FBDMBJFEACI": 88,
    "JGBGFIFMHII": 10010152
  }
]