[
  {
    "pushTipsID": 13117,
    "galleryID": 57003,
    "groupLinkID": 20240103,
    "levelID": 1,
    "activityID": 2024,
    "nameTextMapHash": 1673324623,
    "questList": [
      74503
    ],
    "HBDOFODPCFO": [],
    "watcherList": [
      12024101,
      12024102,
      12024103
    ],
    "openDay": 1,
    "KJBALLPJMEJ": [
      "ACTIVITY_LEVEL_COND_TYPE_MAIN_QUEST"
    ],
    "PKBHGFBAICN": [
      "ACTIVITY_LEVEL_COND_TYPE_OPEN_DAY"
    ],
    "IKFKHDJONHH": [
      "ACTIVITY_LEVEL_COND_TYPE_WATCHER_REWARD_TAKEN"
    ]
  },
  {
    "BMCANDJPNKG": "TOY_BATTLE_CURRENT_TYPE_TUNNEL",
    "pushTipsID": 13117,
    "galleryID": 57001,
    "groupLinkID": 20240101,
    "levelID": 2,
    "activityID": 2024,
    "nameTextMapHash": 1403552551,
    "questList": [
      74503
    ],
    "HBDOFODPCFO": [],
    "watcherList": [
      12024111,
      12024112,
      12024113
    ],
    "openDay": 1,
    "KJBALLPJMEJ": [
      "ACTIVITY_LEVEL_COND_TYPE_MAIN_QUEST"
    ],
    "PKBHGFBAICN": [
      "ACTIVITY_LEVEL_COND_TYPE_OPEN_DAY"
    ],
    "IKFKHDJONHH": [
      "ACTIVITY_LEVEL_COND_TYPE_WATCHER_REWARD_TAKEN"
    ]
  },
  {
    "pushTipsID": 13117,
    "galleryID": 57006,
    "groupLinkID": 20240106,
    "levelID": 3,
    "activityID": 2024,
    "nameTextMapHash": 4267396623,
    "questList": [
      74503
    ],
    "HBDOFODPCFO": [],
    "watcherList": [
      12024121,
      12024122,
      12024123
    ],
    "openDay": 3,
    "KJBALLPJMEJ": [
      "ACTIVITY_LEVEL_COND_TYPE_MAIN_QUEST"
    ],
    "PKBHGFBAICN": [
      "ACTIVITY_LEVEL_COND_TYPE_OPEN_DAY"
    ],
    "IKFKHDJONHH": [
      "ACTIVITY_LEVEL_COND_TYPE_WATCHER_REWARD_TAKEN"
    ]
  },
  {
    "BMCANDJPNKG": "TOY_BATTLE_CURRENT_TYPE_TUNNEL",
    "pushTipsID": 13117,
    "galleryID": 57005,
    "groupLinkID": 20240105,
    "levelID": 4,
    "activityID": 2024,
    "nameTextMapHash": 1759940103,
    "questList": [
      74503
    ],
    "HBDOFODPCFO": [],
    "watcherList": [
      12024131,
      12024132,
      12024133
    ],
    "openDay": 3,
    "KJBALLPJMEJ": [
      "ACTIVITY_LEVEL_COND_TYPE_MAIN_QUEST"
    ],
    "PKBHGFBAICN": [
      "ACTIVITY_LEVEL_COND_TYPE_OPEN_DAY"
    ],
    "IKFKHDJONHH": [
      "ACTIVITY_LEVEL_COND_TYPE_WATCHER_REWARD_TAKEN"
    ]
  },
  {
    "pushTipsID": 13117,
    "galleryID": 57004,
    "groupLinkID": 20240104,
    "levelID": 5,
    "activityID": 2024,
    "nameTextMapHash": 82899543,
    "questList": [
      74503
    ],
    "HBDOFODPCFO": [],
    "watcherList": [
      12024141,
      12024142,
      12024143
    ],
    "openDay": 5,
    "KJBALLPJMEJ": [
      "ACTIVITY_LEVEL_COND_TYPE_MAIN_QUEST"
    ],
    "PKBHGFBAICN": [
      "ACTIVITY_LEVEL_COND_TYPE_OPEN_DAY"
    ],
    "IKFKHDJONHH": [
      "ACTIVITY_LEVEL_COND_TYPE_WATCHER_REWARD_TAKEN"
    ]
  },
  {
    "BMCANDJPNKG": "TOY_BATTLE_CURRENT_TYPE_TUNNEL",
    "pushTipsID": 13117,
    "galleryID": 57002,
    "groupLinkID": 20240102,
    "levelID": 6,
    "activityID": 2024,
    "nameTextMapHash": 1290553351,
    "questList": [
      74503
    ],
    "HBDOFODPCFO": [],
    "watcherList": [
      12024151,
      12024152,
      12024153
    ],
    "openDay": 5,
    "KJBALLPJMEJ": [
      "ACTIVITY_LEVEL_COND_TYPE_MAIN_QUEST"
    ],
    "PKBHGFBAICN": [
      "ACTIVITY_LEVEL_COND_TYPE_OPEN_DAY"
    ],
    "IKFKHDJONHH": [
      "ACTIVITY_LEVEL_COND_TYPE_WATCHER_REWARD_TAKEN"
    ]
  }
]