[
  {
    "OILPMJDPECH": [
      1,
      2,
      3
    ],
    "levelID": 1,
    "activityID": 2024,
    "nameTextMapHash": 2683703230,
    "questList": [
      74504
    ],
    "HBDOFODPCFO": [],
    "watcherList": [
      12024301,
      12024302,
      12024303
    ],
    "openDay": 1,
    "KJBALLPJMEJ": [
      "ACTIVITY_LEVEL_COND_TYPE_MAIN_QUEST"
    ],
    "PKBHGFBAICN": [
      "ACTIVITY_LEVEL_COND_TYPE_OPEN_DAY"
    ],
    "IKFKHDJONHH": [
      "ACTIVITY_LEVEL_COND_TYPE_WATCHER_REWARD_TAKEN"
    ]
  },
  {
    "OILPMJDPECH": [
      4,
      5,
      6
    ],
    "levelID": 2,
    "activityID": 2024,
    "nameTextMapHash": 2196635806,
    "questList": [
      74504
    ],
    "HBDOFODPCFO": [],
    "watcherList": [
      12024304,
      12024305,
      12024306
    ],
    "openDay": 3,
    "KJBALLPJMEJ": [
      "ACTIVITY_LEVEL_COND_TYPE_MAIN_QUEST"
    ],
    "PKBHGFBAICN": [
      "ACTIVITY_LEVEL_COND_TYPE_OPEN_DAY"
    ],
    "IKFKHDJONHH": [
      "ACTIVITY_LEVEL_COND_TYPE_WATCHER_REWARD_TAKEN"
    ]
  },
  {
    "OILPMJDPECH": [
      7,
      8,
      9
    ],
    "levelID": 3,
    "activityID": 2024,
    "nameTextMapHash": 2442601830,
    "questList": [
      74504
    ],
    "HBDOFODPCFO": [],
    "watcherList": [
      12024307,
      12024308,
      12024309
    ],
    "openDay": 5,
    "KJBALLPJMEJ": [
      "ACTIVITY_LEVEL_COND_TYPE_MAIN_QUEST"
    ],
    "PKBHGFBAICN": [
      "ACTIVITY_LEVEL_COND_TYPE_OPEN_DAY"
    ],
    "IKFKHDJONHH": [
      "ACTIVITY_LEVEL_COND_TYPE_WATCHER_REWARD_TAKEN"
    ]
  }
]