{
    "luaDataPath": "",
    "entityBan": "",
    "group": [
        [
            {
                "$type": "MoleMole.Config.ConfigUITriggerInterAction",
                "type": "UI_TRIGGER",
                "contextName": "InLevelMapPage",
                "param": "MarkActivityAsterMiddle"
            },
            {
                "$type": "BCJBNCJOPCE",
                "type": "CAMERA_MOVE",
                "duration": 1.0,
                "KNAICGCGOHN": "EXIT",
                "KOPGEAIDOOE": "TO_INTEE",
                "KJGNHMHGCEK": 5.0,
                "KIPMIDIKECP": "",
                "BDLGHOJPJHD": "",
                "LCOJGFEOLCK": "",
                "BBBGAEDCJEL": ""
            },
            {
                "$type": "CNBNGFNKLGP",
                "type": "STEER_TO",
                "duration": 1.0,
                "DEMFHGAIELL": "RETURN",
                "BBNLLCHBKAI": true,
                "COJBPJMLIFM": true,
                "KIPMIDIKECP": "",
                "AOFBAGFCGPJ": ""
            }
        ]
    ]
}