{
    "coopInteractionMap": {
        "1917001": {
            "id": 1917001,
            "coopMap": {
                "4": {
                    "$type": "MNNFHDBFKHH",
                    "EPNHGPJFMAG": 4,
                    "LMICHKLLJBF": "COOP_NODE_TALK",
                    "FFKNEEMFNOI": [
                        5
                    ],
                    "ODPIIDACPAC": {
                        "id": 4,
                        "performCfg": "QuestDialogue/COOP/Coop107601/Q1917001",
                        "loadType": "TALK_COOP",
                        "questId": 19170,
                        "assetIndex": 665142602653021672,
                        "prePerformCfg": ""
                    }
                },
                "5": {
                    "$type": "EMMFDBLHIIM",
                    "EPNHGPJFMAG": 5,
                    "LMICHKLLJBF": "COOP_NODE_END",
                    "GELAPEOCNIA": 191700101
                }
            },
            "startNodeId": 4
        },
        "1917002": {
            "id": 1917002,
            "coopMap": {
                "8": {
                    "$type": "MNNFHDBFKHH",
                    "EPNHGPJFMAG": 8,
                    "LMICHKLLJBF": "COOP_NODE_TALK",
                    "FFKNEEMFNOI": [
                        9
                    ],
                    "ODPIIDACPAC": {
                        "id": 8,
                        "performCfg": "QuestDialogue/COOP/Coop107601/Q1917002",
                        "loadType": "TALK_COOP",
                        "questId": 19170,
                        "assetIndex": 7088553838123227100,
                        "prePerformCfg": ""
                    }
                },
                "9": {
                    "$type": "EMMFDBLHIIM",
                    "EPNHGPJFMAG": 9,
                    "LMICHKLLJBF": "COOP_NODE_END",
                    "GELAPEOCNIA": 191700201
                }
            },
            "startNodeId": 8
        },
        "1917003": {
            "id": 1917003,
            "coopMap": {
                "15": {
                    "$type": "FIEKBHPBGNL",
                    "EPNHGPJFMAG": 15,
                    "LMICHKLLJBF": "COOP_NODE_SELECT",
                    "FFKNEEMFNOI": [
                        17,
                        18
                    ],
                    "NHNLKOGOIAA": [
                        {
                            "KABICCDNCDN": 191700399,
                            "PKNOBGAPNBJ": {},
                            "DIDDNOBBMHE": {}
                        },
                        {
                            "KABICCDNCDN": 191700398,
                            "PKNOBGAPNBJ": {},
                            "DIDDNOBBMHE": {}
                        }
                    ]
                },
                "12": {
                    "$type": "MNNFHDBFKHH",
                    "EPNHGPJFMAG": 12,
                    "LMICHKLLJBF": "COOP_NODE_TALK",
                    "FFKNEEMFNOI": [
                        15
                    ],
                    "ODPIIDACPAC": {
                        "id": 12,
                        "performCfg": "QuestDialogue/COOP/Coop107601/Q1917003",
                        "loadType": "TALK_COOP",
                        "questId": 19170,
                        "assetIndex": 8873004965946149484,
                        "prePerformCfg": ""
                    }
                },
                "153": {
                    "$type": "FIEKBHPBGNL",
                    "EPNHGPJFMAG": 153,
                    "LMICHKLLJBF": "COOP_NODE_SELECT",
                    "FFKNEEMFNOI": [
                        154,
                        155
                    ],
                    "NHNLKOGOIAA": [
                        {
                            "KABICCDNCDN": 191700499,
                            "PKNOBGAPNBJ": {},
                            "DIDDNOBBMHE": {}
                        },
                        {
                            "KABICCDNCDN": 191700498,
                            "PKNOBGAPNBJ": {},
                            "DIDDNOBBMHE": {}
                        }
                    ]
                },
                "17": {
                    "$type": "MNNFHDBFKHH",
                    "EPNHGPJFMAG": 17,
                    "LMICHKLLJBF": "COOP_NODE_TALK",
                    "FFKNEEMFNOI": [
                        153
                    ],
                    "ODPIIDACPAC": {
                        "id": 17,
                        "performCfg": "QuestDialogue/COOP/Coop107601/Q1917004",
                        "loadType": "TALK_COOP",
                        "questId": 19170,
                        "assetIndex": 10893007774965696352,
                        "prePerformCfg": ""
                    }
                },
                "155": {
                    "$type": "MNNFHDBFKHH",
                    "EPNHGPJFMAG": 155,
                    "LMICHKLLJBF": "COOP_NODE_TALK",
                    "FFKNEEMFNOI": [
                        20
                    ],
                    "ODPIIDACPAC": {
                        "id": 155,
                        "performCfg": "QuestDialogue/COOP/Coop107601/Q1917007",
                        "loadType": "TALK_COOP",
                        "questId": 19170,
                        "assetIndex": 17186249720448445779,
                        "prePerformCfg": ""
                    }
                },
                "20": {
                    "$type": "EMMFDBLHIIM",
                    "EPNHGPJFMAG": 20,
                    "LMICHKLLJBF": "COOP_NODE_END",
                    "GELAPEOCNIA": 191700302
                },
                "154": {
                    "$type": "MNNFHDBFKHH",
                    "EPNHGPJFMAG": 154,
                    "LMICHKLLJBF": "COOP_NODE_TALK",
                    "FFKNEEMFNOI": [
                        13
                    ],
                    "ODPIIDACPAC": {
                        "id": 154,
                        "performCfg": "QuestDialogue/COOP/Coop107601/Q1917006",
                        "loadType": "TALK_COOP",
                        "questId": 19170,
                        "assetIndex": 4994833594878906246,
                        "prePerformCfg": ""
                    }
                },
                "13": {
                    "$type": "EMMFDBLHIIM",
                    "EPNHGPJFMAG": 13,
                    "LMICHKLLJBF": "COOP_NODE_END",
                    "GELAPEOCNIA": 191700301
                },
                "18": {
                    "$type": "MNNFHDBFKHH",
                    "EPNHGPJFMAG": 18,
                    "LMICHKLLJBF": "COOP_NODE_TALK",
                    "FFKNEEMFNOI": [
                        21
                    ],
                    "ODPIIDACPAC": {
                        "id": 18,
                        "performCfg": "QuestDialogue/COOP/Coop107601/Q1917005",
                        "loadType": "TALK_COOP",
                        "questId": 19170,
                        "assetIndex": 6659906685493024550,
                        "prePerformCfg": ""
                    }
                },
                "21": {
                    "$type": "EMMFDBLHIIM",
                    "EPNHGPJFMAG": 21,
                    "LMICHKLLJBF": "COOP_NODE_END",
                    "GELAPEOCNIA": 191700303
                }
            },
            "startNodeId": 12
        },
        "1917102": {
            "id": 1917102,
            "coopMap": {
                "28": {
                    "$type": "MNNFHDBFKHH",
                    "EPNHGPJFMAG": 28,
                    "LMICHKLLJBF": "COOP_NODE_TALK",
                    "FFKNEEMFNOI": [
                        29
                    ],
                    "ODPIIDACPAC": {
                        "id": 28,
                        "performCfg": "QuestDialogue/COOP/Coop107601/Q1917101",
                        "loadType": "TALK_COOP",
                        "questId": 19171,
                        "assetIndex": 4632505540770011144,
                        "prePerformCfg": ""
                    }
                },
                "29": {
                    "$type": "EMMFDBLHIIM",
                    "EPNHGPJFMAG": 29,
                    "LMICHKLLJBF": "COOP_NODE_END",
                    "GELAPEOCNIA": 191710201
                }
            },
            "startNodeId": 28
        },
        "1917103": {
            "id": 1917103,
            "coopMap": {
                "32": {
                    "$type": "MNNFHDBFKHH",
                    "EPNHGPJFMAG": 32,
                    "LMICHKLLJBF": "COOP_NODE_TALK",
                    "FFKNEEMFNOI": [
                        33
                    ],
                    "ODPIIDACPAC": {
                        "id": 32,
                        "performCfg": "QuestDialogue/COOP/Coop107601/Q1917102",
                        "loadType": "TALK_COOP",
                        "questId": 19171,
                        "assetIndex": 2087405011922235080,
                        "prePerformCfg": ""
                    }
                },
                "33": {
                    "$type": "EMMFDBLHIIM",
                    "EPNHGPJFMAG": 33,
                    "LMICHKLLJBF": "COOP_NODE_END",
                    "GELAPEOCNIA": 191710301
                }
            },
            "startNodeId": 32
        },
        "1917104": {
            "id": 1917104,
            "coopMap": {
                "36": {
                    "$type": "MNNFHDBFKHH",
                    "EPNHGPJFMAG": 36,
                    "LMICHKLLJBF": "COOP_NODE_TALK",
                    "FFKNEEMFNOI": [
                        37
                    ],
                    "ODPIIDACPAC": {
                        "id": 36,
                        "performCfg": "QuestDialogue/COOP/Coop107601/Q1917103",
                        "loadType": "TALK_COOP",
                        "questId": 19171,
                        "assetIndex": 16425064631815564095,
                        "prePerformCfg": ""
                    }
                },
                "37": {
                    "$type": "EMMFDBLHIIM",
                    "EPNHGPJFMAG": 37,
                    "LMICHKLLJBF": "COOP_NODE_END",
                    "GELAPEOCNIA": 191710401
                }
            },
            "startNodeId": 36
        },
        "1917105": {
            "id": 1917105,
            "coopMap": {
                "44": {
                    "$type": "MNNFHDBFKHH",
                    "EPNHGPJFMAG": 44,
                    "LMICHKLLJBF": "COOP_NODE_TALK",
                    "FFKNEEMFNOI": [
                        45
                    ],
                    "ODPIIDACPAC": {
                        "id": 44,
                        "performCfg": "QuestDialogue/COOP/Coop107601/Q1917104",
                        "loadType": "TALK_COOP",
                        "questId": 19171,
                        "assetIndex": 1496696108417171615,
                        "prePerformCfg": ""
                    }
                },
                "45": {
                    "$type": "EMMFDBLHIIM",
                    "EPNHGPJFMAG": 45,
                    "LMICHKLLJBF": "COOP_NODE_END",
                    "GELAPEOCNIA": 191710501
                }
            },
            "startNodeId": 44
        },
        "1917202": {
            "id": 1917202,
            "coopMap": {
                "52": {
                    "$type": "MNNFHDBFKHH",
                    "EPNHGPJFMAG": 52,
                    "LMICHKLLJBF": "COOP_NODE_TALK",
                    "FFKNEEMFNOI": [
                        53
                    ],
                    "ODPIIDACPAC": {
                        "id": 52,
                        "performCfg": "QuestDialogue/COOP/Coop107601/Q1917201",
                        "loadType": "TALK_COOP",
                        "questId": 19172,
                        "assetIndex": 16141423091353516124,
                        "prePerformCfg": ""
                    }
                },
                "53": {
                    "$type": "EMMFDBLHIIM",
                    "EPNHGPJFMAG": 53,
                    "LMICHKLLJBF": "COOP_NODE_END",
                    "GELAPEOCNIA": 191720201
                }
            },
            "startNodeId": 52
        },
        "1917203": {
            "id": 1917203,
            "coopMap": {
                "56": {
                    "$type": "MNNFHDBFKHH",
                    "EPNHGPJFMAG": 56,
                    "LMICHKLLJBF": "COOP_NODE_TALK",
                    "FFKNEEMFNOI": [
                        57
                    ],
                    "ODPIIDACPAC": {
                        "id": 56,
                        "performCfg": "QuestDialogue/COOP/Coop107601/Q1917202",
                        "loadType": "TALK_COOP",
                        "questId": 19172,
                        "assetIndex": 11008079419496592100,
                        "prePerformCfg": ""
                    }
                },
                "57": {
                    "$type": "EMMFDBLHIIM",
                    "EPNHGPJFMAG": 57,
                    "LMICHKLLJBF": "COOP_NODE_END",
                    "GELAPEOCNIA": 191720301
                }
            },
            "startNodeId": 56
        },
        "1917204": {
            "id": 1917204,
            "coopMap": {
                "62": {
                    "$type": "FIEKBHPBGNL",
                    "EPNHGPJFMAG": 62,
                    "LMICHKLLJBF": "COOP_NODE_SELECT",
                    "FFKNEEMFNOI": [
                        64,
                        65
                    ],
                    "NHNLKOGOIAA": [
                        {
                            "KABICCDNCDN": 191720399,
                            "PKNOBGAPNBJ": {},
                            "DIDDNOBBMHE": {}
                        },
                        {
                            "KABICCDNCDN": 191720398,
                            "PKNOBGAPNBJ": {},
                            "DIDDNOBBMHE": {}
                        }
                    ]
                },
                "60": {
                    "$type": "MNNFHDBFKHH",
                    "EPNHGPJFMAG": 60,
                    "LMICHKLLJBF": "COOP_NODE_TALK",
                    "FFKNEEMFNOI": [
                        62
                    ],
                    "ODPIIDACPAC": {
                        "id": 60,
                        "performCfg": "QuestDialogue/COOP/Coop107601/Q1917203",
                        "loadType": "TALK_COOP",
                        "questId": 19172,
                        "assetIndex": 13935281372504232789,
                        "prePerformCfg": ""
                    }
                },
                "64": {
                    "$type": "MNNFHDBFKHH",
                    "EPNHGPJFMAG": 64,
                    "LMICHKLLJBF": "COOP_NODE_TALK",
                    "FFKNEEMFNOI": [
                        61
                    ],
                    "ODPIIDACPAC": {
                        "id": 64,
                        "performCfg": "QuestDialogue/COOP/Coop107601/Q1917204",
                        "loadType": "TALK_COOP",
                        "questId": 19172,
                        "assetIndex": 1276473929200488388,
                        "prePerformCfg": ""
                    }
                },
                "61": {
                    "$type": "EMMFDBLHIIM",
                    "EPNHGPJFMAG": 61,
                    "LMICHKLLJBF": "COOP_NODE_END",
                    "GELAPEOCNIA": 191720401
                },
                "65": {
                    "$type": "MNNFHDBFKHH",
                    "EPNHGPJFMAG": 65,
                    "LMICHKLLJBF": "COOP_NODE_TALK",
                    "FFKNEEMFNOI": [
                        66
                    ],
                    "ODPIIDACPAC": {
                        "id": 65,
                        "performCfg": "QuestDialogue/COOP/Coop107601/Q1917205",
                        "loadType": "TALK_COOP",
                        "questId": 19172,
                        "assetIndex": 3013428576463246693,
                        "prePerformCfg": ""
                    }
                },
                "66": {
                    "$type": "EMMFDBLHIIM",
                    "EPNHGPJFMAG": 66,
                    "LMICHKLLJBF": "COOP_NODE_END",
                    "GELAPEOCNIA": 191720402
                }
            },
            "startNodeId": 60
        },
        "1917205": {
            "id": 1917205,
            "coopMap": {
                "69": {
                    "$type": "MNNFHDBFKHH",
                    "EPNHGPJFMAG": 69,
                    "LMICHKLLJBF": "COOP_NODE_TALK",
                    "FFKNEEMFNOI": [
                        70
                    ],
                    "ODPIIDACPAC": {
                        "id": 69,
                        "performCfg": "QuestDialogue/COOP/Coop107601/Q1917206",
                        "loadType": "TALK_COOP",
                        "questId": 19172,
                        "assetIndex": 11176334647792012881,
                        "prePerformCfg": ""
                    }
                },
                "70": {
                    "$type": "EMMFDBLHIIM",
                    "EPNHGPJFMAG": 70,
                    "LMICHKLLJBF": "COOP_NODE_END",
                    "GELAPEOCNIA": 191720501
                }
            },
            "startNodeId": 69
        },
        "1917206": {
            "id": 1917206,
            "coopMap": {
                "73": {
                    "$type": "MNNFHDBFKHH",
                    "EPNHGPJFMAG": 73,
                    "LMICHKLLJBF": "COOP_NODE_TALK",
                    "FFKNEEMFNOI": [
                        74
                    ],
                    "ODPIIDACPAC": {
                        "id": 73,
                        "performCfg": "QuestDialogue/COOP/Coop107601/Q1917207",
                        "loadType": "TALK_COOP",
                        "questId": 19172,
                        "assetIndex": 6610081440797455861,
                        "prePerformCfg": ""
                    }
                },
                "74": {
                    "$type": "EMMFDBLHIIM",
                    "EPNHGPJFMAG": 74,
                    "LMICHKLLJBF": "COOP_NODE_END",
                    "GELAPEOCNIA": 191720601
                }
            },
            "startNodeId": 73
        },
        "1917302": {
            "id": 1917302,
            "coopMap": {
                "81": {
                    "$type": "MNNFHDBFKHH",
                    "EPNHGPJFMAG": 81,
                    "LMICHKLLJBF": "COOP_NODE_TALK",
                    "FFKNEEMFNOI": [
                        82
                    ],
                    "ODPIIDACPAC": {
                        "id": 81,
                        "performCfg": "QuestDialogue/COOP/Coop107601/Q1917301",
                        "loadType": "TALK_COOP",
                        "questId": 19173,
                        "assetIndex": 1426634749846384033,
                        "prePerformCfg": ""
                    }
                },
                "82": {
                    "$type": "EMMFDBLHIIM",
                    "EPNHGPJFMAG": 82,
                    "LMICHKLLJBF": "COOP_NODE_END",
                    "GELAPEOCNIA": 191730201
                }
            },
            "startNodeId": 81
        },
        "1917303": {
            "id": 1917303,
            "coopMap": {
                "85": {
                    "$type": "MNNFHDBFKHH",
                    "EPNHGPJFMAG": 85,
                    "LMICHKLLJBF": "COOP_NODE_TALK",
                    "FFKNEEMFNOI": [
                        86
                    ],
                    "ODPIIDACPAC": {
                        "id": 85,
                        "performCfg": "QuestDialogue/COOP/Coop107601/Q1917302",
                        "loadType": "TALK_COOP",
                        "questId": 19173,
                        "assetIndex": 5066927029577507129,
                        "prePerformCfg": ""
                    }
                },
                "86": {
                    "$type": "EMMFDBLHIIM",
                    "EPNHGPJFMAG": 86,
                    "LMICHKLLJBF": "COOP_NODE_END",
                    "GELAPEOCNIA": 191730301
                }
            },
            "startNodeId": 85
        },
        "1917304": {
            "id": 1917304,
            "coopMap": {
                "89": {
                    "$type": "MNNFHDBFKHH",
                    "EPNHGPJFMAG": 89,
                    "LMICHKLLJBF": "COOP_NODE_TALK",
                    "FFKNEEMFNOI": [
                        90
                    ],
                    "ODPIIDACPAC": {
                        "id": 89,
                        "performCfg": "QuestDialogue/COOP/Coop107601/Q1917303",
                        "loadType": "TALK_COOP",
                        "questId": 19173,
                        "assetIndex": 1570897121108488125,
                        "prePerformCfg": ""
                    }
                },
                "90": {
                    "$type": "EMMFDBLHIIM",
                    "EPNHGPJFMAG": 90,
                    "LMICHKLLJBF": "COOP_NODE_END",
                    "GELAPEOCNIA": 191730401
                }
            },
            "startNodeId": 89
        },
        "1917305": {
            "id": 1917305,
            "coopMap": {
                "93": {
                    "$type": "MNNFHDBFKHH",
                    "EPNHGPJFMAG": 93,
                    "LMICHKLLJBF": "COOP_NODE_TALK",
                    "FFKNEEMFNOI": [
                        94
                    ],
                    "ODPIIDACPAC": {
                        "id": 93,
                        "performCfg": "QuestDialogue/COOP/Coop107601/Q1917304",
                        "loadType": "TALK_COOP",
                        "questId": 19173,
                        "assetIndex": 9305878960909889846,
                        "prePerformCfg": ""
                    }
                },
                "94": {
                    "$type": "EMMFDBLHIIM",
                    "EPNHGPJFMAG": 94,
                    "LMICHKLLJBF": "COOP_NODE_END",
                    "GELAPEOCNIA": 191730501
                }
            },
            "startNodeId": 93
        },
        "1917309": {
            "id": 1917309,
            "coopMap": {
                "109": {
                    "$type": "MNNFHDBFKHH",
                    "EPNHGPJFMAG": 109,
                    "LMICHKLLJBF": "COOP_NODE_TALK",
                    "FFKNEEMFNOI": [
                        110
                    ],
                    "ODPIIDACPAC": {
                        "id": 109,
                        "performCfg": "QuestDialogue/COOP/Coop107601/Q1917308",
                        "loadType": "TALK_COOP",
                        "questId": 19173,
                        "assetIndex": 6974441079347158173,
                        "prePerformCfg": "",
                        "lockGameTime": true
                    }
                },
                "110": {
                    "$type": "EMMFDBLHIIM",
                    "EPNHGPJFMAG": 110,
                    "LMICHKLLJBF": "COOP_NODE_END",
                    "GELAPEOCNIA": 191730901
                }
            },
            "startNodeId": 109
        },
        "1917310": {
            "id": 1917310,
            "coopMap": {
                "113": {
                    "$type": "MNNFHDBFKHH",
                    "EPNHGPJFMAG": 113,
                    "LMICHKLLJBF": "COOP_NODE_TALK",
                    "FFKNEEMFNOI": [
                        114
                    ],
                    "ODPIIDACPAC": {
                        "id": 113,
                        "performCfg": "QuestDialogue/COOP/Coop107601/Q1917309",
                        "loadType": "TALK_COOP",
                        "questId": 19173,
                        "assetIndex": 6157431838543404878,
                        "prePerformCfg": "",
                        "lockGameTime": true
                    }
                },
                "114": {
                    "$type": "EMMFDBLHIIM",
                    "EPNHGPJFMAG": 114,
                    "LMICHKLLJBF": "COOP_NODE_END",
                    "GELAPEOCNIA": 191731001
                }
            },
            "startNodeId": 113
        },
        "1917311": {
            "id": 1917311,
            "coopMap": {
                "117": {
                    "$type": "MNNFHDBFKHH",
                    "EPNHGPJFMAG": 117,
                    "LMICHKLLJBF": "COOP_NODE_TALK",
                    "FFKNEEMFNOI": [
                        118
                    ],
                    "ODPIIDACPAC": {
                        "id": 117,
                        "performCfg": "QuestDialogue/COOP/Coop107601/Q1917310",
                        "loadType": "TALK_COOP",
                        "questId": 19173,
                        "assetIndex": 16580233125428227278,
                        "prePerformCfg": "",
                        "lockGameTime": true
                    }
                },
                "118": {
                    "$type": "EMMFDBLHIIM",
                    "EPNHGPJFMAG": 118,
                    "LMICHKLLJBF": "COOP_NODE_END",
                    "GELAPEOCNIA": 191731101
                }
            },
            "startNodeId": 117
        },
        "1917312": {
            "id": 1917312,
            "coopMap": {
                "121": {
                    "$type": "MNNFHDBFKHH",
                    "EPNHGPJFMAG": 121,
                    "LMICHKLLJBF": "COOP_NODE_TALK",
                    "FFKNEEMFNOI": [
                        122
                    ],
                    "ODPIIDACPAC": {
                        "id": 121,
                        "performCfg": "QuestDialogue/COOP/Coop107601/Q1917311",
                        "loadType": "TALK_COOP",
                        "questId": 19173,
                        "assetIndex": 3872542034040367804,
                        "prePerformCfg": "",
                        "lockGameTime": true
                    }
                },
                "122": {
                    "$type": "EMMFDBLHIIM",
                    "EPNHGPJFMAG": 122,
                    "LMICHKLLJBF": "COOP_NODE_END",
                    "GELAPEOCNIA": 191731201
                }
            },
            "startNodeId": 121
        },
        "1917313": {
            "id": 1917313,
            "coopMap": {
                "125": {
                    "$type": "MNNFHDBFKHH",
                    "EPNHGPJFMAG": 125,
                    "LMICHKLLJBF": "COOP_NODE_TALK",
                    "FFKNEEMFNOI": [
                        126
                    ],
                    "ODPIIDACPAC": {
                        "id": 125,
                        "performCfg": "QuestDialogue/COOP/Coop107601/Q1917312",
                        "loadType": "TALK_COOP",
                        "questId": 19173,
                        "assetIndex": 6663850059422497487,
                        "prePerformCfg": "",
                        "lockGameTime": true
                    }
                },
                "126": {
                    "$type": "EMMFDBLHIIM",
                    "EPNHGPJFMAG": 126,
                    "LMICHKLLJBF": "COOP_NODE_END",
                    "GELAPEOCNIA": 191731301
                }
            },
            "startNodeId": 125
        },
        "1917314": {
            "id": 1917314,
            "coopMap": {
                "129": {
                    "$type": "MNNFHDBFKHH",
                    "EPNHGPJFMAG": 129,
                    "LMICHKLLJBF": "COOP_NODE_TALK",
                    "FFKNEEMFNOI": [
                        130
                    ],
                    "ODPIIDACPAC": {
                        "id": 129,
                        "performCfg": "QuestDialogue/COOP/Coop107601/Q1917313",
                        "loadType": "TALK_COOP",
                        "questId": 19173,
                        "assetIndex": 12835781015855198251,
                        "prePerformCfg": "",
                        "lockGameTime": true
                    }
                },
                "130": {
                    "$type": "EMMFDBLHIIM",
                    "EPNHGPJFMAG": 130,
                    "LMICHKLLJBF": "COOP_NODE_END",
                    "GELAPEOCNIA": 191731401
                }
            },
            "startNodeId": 129
        },
        "1917315": {
            "id": 1917315,
            "coopMap": {
                "135": {
                    "$type": "FIEKBHPBGNL",
                    "EPNHGPJFMAG": 135,
                    "LMICHKLLJBF": "COOP_NODE_SELECT",
                    "FFKNEEMFNOI": [
                        137,
                        138
                    ],
                    "NHNLKOGOIAA": [
                        {
                            "KABICCDNCDN": 191731499,
                            "PKNOBGAPNBJ": {},
                            "DIDDNOBBMHE": {}
                        },
                        {
                            "KABICCDNCDN": 191731498,
                            "PKNOBGAPNBJ": {},
                            "DIDDNOBBMHE": {}
                        }
                    ]
                },
                "133": {
                    "$type": "MNNFHDBFKHH",
                    "EPNHGPJFMAG": 133,
                    "LMICHKLLJBF": "COOP_NODE_TALK",
                    "FFKNEEMFNOI": [
                        135
                    ],
                    "ODPIIDACPAC": {
                        "id": 133,
                        "performCfg": "QuestDialogue/COOP/Coop107601/Q1917314",
                        "loadType": "TALK_COOP",
                        "questId": 19173,
                        "assetIndex": 16275882667754466627,
                        "prePerformCfg": ""
                    }
                },
                "137": {
                    "$type": "MNNFHDBFKHH",
                    "EPNHGPJFMAG": 137,
                    "LMICHKLLJBF": "COOP_NODE_TALK",
                    "FFKNEEMFNOI": [
                        134
                    ],
                    "ODPIIDACPAC": {
                        "id": 137,
                        "performCfg": "QuestDialogue/COOP/Coop107601/Q1917315",
                        "loadType": "TALK_COOP",
                        "questId": 19173,
                        "assetIndex": 13382825025541265423,
                        "prePerformCfg": ""
                    }
                },
                "134": {
                    "$type": "EMMFDBLHIIM",
                    "EPNHGPJFMAG": 134,
                    "LMICHKLLJBF": "COOP_NODE_END",
                    "GELAPEOCNIA": 191731501
                },
                "138": {
                    "$type": "MNNFHDBFKHH",
                    "EPNHGPJFMAG": 138,
                    "LMICHKLLJBF": "COOP_NODE_TALK",
                    "FFKNEEMFNOI": [
                        139
                    ],
                    "ODPIIDACPAC": {
                        "id": 138,
                        "performCfg": "QuestDialogue/COOP/Coop107601/Q1917316",
                        "loadType": "TALK_COOP",
                        "questId": 19173,
                        "assetIndex": 12958705283404776792,
                        "prePerformCfg": ""
                    }
                },
                "139": {
                    "$type": "EMMFDBLHIIM",
                    "EPNHGPJFMAG": 139,
                    "LMICHKLLJBF": "COOP_NODE_END",
                    "GELAPEOCNIA": 191731502
                }
            },
            "startNodeId": 133
        },
        "1917316": {
            "id": 1917316,
            "coopMap": {
                "142": {
                    "$type": "MNNFHDBFKHH",
                    "EPNHGPJFMAG": 142,
                    "LMICHKLLJBF": "COOP_NODE_TALK",
                    "FFKNEEMFNOI": [
                        143
                    ],
                    "ODPIIDACPAC": {
                        "id": 142,
                        "performCfg": "QuestDialogue/COOP/Coop107601/Q1917317",
                        "loadType": "TALK_COOP",
                        "questId": 19173,
                        "assetIndex": 1822701017335182066,
                        "prePerformCfg": ""
                    }
                },
                "143": {
                    "$type": "EMMFDBLHIIM",
                    "EPNHGPJFMAG": 143,
                    "LMICHKLLJBF": "COOP_NODE_END",
                    "GELAPEOCNIA": 191731601
                }
            },
            "startNodeId": 142
        },
        "1917317": {
            "id": 1917317,
            "coopMap": {
                "146": {
                    "$type": "MNNFHDBFKHH",
                    "EPNHGPJFMAG": 146,
                    "LMICHKLLJBF": "COOP_NODE_TALK",
                    "FFKNEEMFNOI": [
                        147
                    ],
                    "ODPIIDACPAC": {
                        "id": 146,
                        "performCfg": "QuestDialogue/COOP/Coop107601/Q1917318",
                        "loadType": "TALK_COOP",
                        "questId": 19173,
                        "assetIndex": 10236806966604649838,
                        "prePerformCfg": ""
                    }
                },
                "147": {
                    "$type": "EMMFDBLHIIM",
                    "EPNHGPJFMAG": 147,
                    "LMICHKLLJBF": "COOP_NODE_END",
                    "GELAPEOCNIA": 191731701
                }
            },
            "startNodeId": 146
        },
        "1917318": {
            "id": 1917318,
            "coopMap": {
                "150": {
                    "$type": "MNNFHDBFKHH",
                    "EPNHGPJFMAG": 150,
                    "LMICHKLLJBF": "COOP_NODE_TALK",
                    "FFKNEEMFNOI": [
                        151
                    ],
                    "ODPIIDACPAC": {
                        "id": 150,
                        "performCfg": "QuestDialogue/COOP/Coop107601/Q1917319",
                        "loadType": "TALK_COOP",
                        "questId": 19173,
                        "assetIndex": 10000163624561072807,
                        "prePerformCfg": "",
                        "lockGameTime": true
                    }
                },
                "151": {
                    "$type": "EMMFDBLHIIM",
                    "EPNHGPJFMAG": 151,
                    "LMICHKLLJBF": "COOP_NODE_END",
                    "GELAPEOCNIA": 191731801
                }
            },
            "startNodeId": 150
        }
    },
    "subStartPointMap": {
        "1917001": {
            "id": 1917001,
            "coopInteractionId": 1917001
        },
        "1917002": {
            "id": 1917002,
            "coopInteractionId": 1917002
        },
        "1917003": {
            "id": 1917003,
            "coopInteractionId": 1917003
        },
        "1917102": {
            "id": 1917102,
            "coopInteractionId": 1917102
        },
        "1917103": {
            "id": 1917103,
            "coopInteractionId": 1917103
        },
        "1917104": {
            "id": 1917104,
            "coopInteractionId": 1917104
        },
        "1917105": {
            "id": 1917105,
            "coopInteractionId": 1917105
        },
        "1917202": {
            "id": 1917202,
            "coopInteractionId": 1917202
        },
        "1917203": {
            "id": 1917203,
            "coopInteractionId": 1917203
        },
        "1917204": {
            "id": 1917204,
            "coopInteractionId": 1917204
        },
        "1917205": {
            "id": 1917205,
            "coopInteractionId": 1917205
        },
        "1917206": {
            "id": 1917206,
            "coopInteractionId": 1917206
        },
        "1917302": {
            "id": 1917302,
            "coopInteractionId": 1917302
        },
        "1917303": {
            "id": 1917303,
            "coopInteractionId": 1917303
        },
        "1917304": {
            "id": 1917304,
            "coopInteractionId": 1917304
        },
        "1917305": {
            "id": 1917305,
            "coopInteractionId": 1917305
        },
        "1917309": {
            "id": 1917309,
            "coopInteractionId": 1917309
        },
        "1917310": {
            "id": 1917310,
            "coopInteractionId": 1917310
        },
        "1917311": {
            "id": 1917311,
            "coopInteractionId": 1917311
        },
        "1917312": {
            "id": 1917312,
            "coopInteractionId": 1917312
        },
        "1917313": {
            "id": 1917313,
            "coopInteractionId": 1917313
        },
        "1917314": {
            "id": 1917314,
            "coopInteractionId": 1917314
        },
        "1917315": {
            "id": 1917315,
            "coopInteractionId": 1917315
        },
        "1917316": {
            "id": 1917316,
            "coopInteractionId": 1917316
        },
        "1917317": {
            "id": 1917317,
            "coopInteractionId": 1917317
        },
        "1917318": {
            "id": 1917318,
            "coopInteractionId": 1917318
        }
    },
    "savePointMap": {
        "191700101": {
            "id": 191700101
        },
        "191700201": {
            "id": 191700201
        },
        "191700302": {
            "id": 191700302
        },
        "191700301": {
            "id": 191700301
        },
        "191700303": {
            "id": 191700303
        },
        "191710201": {
            "id": 191710201
        },
        "191710301": {
            "id": 191710301
        },
        "191710401": {
            "id": 191710401
        },
        "191710501": {
            "id": 191710501,
            "isEnd": true
        },
        "191720201": {
            "id": 191720201
        },
        "191720301": {
            "id": 191720301
        },
        "191720401": {
            "id": 191720401
        },
        "191720402": {
            "id": 191720402
        },
        "191720501": {
            "id": 191720501,
            "isEnd": true
        },
        "191720601": {
            "id": 191720601,
            "isEnd": true
        },
        "191730201": {
            "id": 191730201
        },
        "191730301": {
            "id": 191730301
        },
        "191730401": {
            "id": 191730401
        },
        "191730501": {
            "id": 191730501
        },
        "191730901": {
            "id": 191730901
        },
        "191731001": {
            "id": 191731001
        },
        "191731101": {
            "id": 191731101
        },
        "191731201": {
            "id": 191731201
        },
        "191731301": {
            "id": 191731301
        },
        "191731401": {
            "id": 191731401
        },
        "191731501": {
            "id": 191731501
        },
        "191731502": {
            "id": 191731502
        },
        "191731601": {
            "id": 191731601,
            "isEnd": true
        },
        "191731701": {
            "id": 191731701
        },
        "191731801": {
            "id": 191731801,
            "isEnd": true
        }
    },
    "confidenceValue": 5,
    "maxConfidenceValue": 5,
    "temperamentMap": {
        "COOP_TEMPERAMENT_1": {
            "ratio": 50,
            "value": 1.0
        },
        "COOP_TEMPERAMENT_2": {
            "ratio": 50,
            "value": 1.0
        },
        "COOP_TEMPERAMENT_3": {
            "ratio": 50,
            "value": 1.0
        },
        "COOP_TEMPERAMENT_4": {
            "ratio": 50,
            "value": 1.0
        }
    },
    "useTemperament": false
}