[
    {
        "$type": "OKDEAIMLPOM",
        "id": 10030001,
        "JPAJBNCEEJC": 10020001,
        "PCHNBDGPDJJ": 10010009
    },
    {
        "$type": "OKDEAIMLPOM",
        "id": 10030002,
        "JPAJBNCEEJC": 10020001,
        "PCHNBDGPDJJ": 10010011
    },
    {
        "$type": "OKDEAIMLPOM",
        "id": 10030003,
        "JPAJBNCEEJC": 10020006,
        "PCHNBDGPDJJ": 10010009
    },
    {
        "$type": "OKDEAIMLPOM",
        "id": 10030004,
        "JPAJBNCEEJC": 10020006,
        "PCHNBDGPDJJ": 10010011
    },
    {
        "$type": "OKDEAIMLPOM",
        "id": 10030005,
        "JPAJBNCEEJC": 10020004,
        "PCHNBDGPDJJ": 10010009
    },
    {
        "$type": "OKDEAIMLPOM",
        "id": 10030006,
        "JPAJBNCEEJC": 10020004,
        "PCHNBDGPDJJ": 10010011
    },
    {
        "$type": "OKDEAIMLPOM",
        "id": 10030007,
        "JPAJBNCEEJC": 10020007,
        "PCHNBDGPDJJ": 10010009
    },
    {
        "$type": "OKDEAIMLPOM",
        "id": 10030008,
        "JPAJBNCEEJC": 10020007,
        "PCHNBDGPDJJ": 10010011
    }
]