{
    "luaDataPath": "",
    "isSimpleTalk": true,
    "entityBan": "",
    "disableNpcLod": true,
    "protectNpcMobileLod": true,
    "MNHFNFDCEFG": 7,
    "startFade": {
        "startFadeOutDuration": 0.0
    },
    "endFade": {
        "startFadeOutDuration": 0.0
    },
    "actors": [
        {
            "alias": "Avatar",
            "visible": true,
            "bornPointName": "",
            "relativePosType": "AVATAR_NEW",
            "relativePosNpcAlias": "",
            "bindMovingTargetKey": ""
        },
        {
            "configID": 13499,
            "alias": "13499",
            "visible": true,
            "bornPointName": "",
            "relativePosType": "AVATAR_NEW",
            "relativePosNpcAlias": "",
            "bindMovingTargetKey": ""
        }
    ],
    "group": [
        [
            {
                "$type": "MoleMole.Config.ConfigTimeProtectAction",
                "type": "TIME_PROTECT",
                "duration": 0.10000000149011612,
                "actionId": 104
            },
            {
                "$type": "BCJBNCJOPCE",
                "type": "CAMERA_FOCUS",
                "duration": 1.0,
                "actionId": 111,
                "KIPMIDIKECP": "",
                "BDLGHOJPJHD": "",
                "LCOJGFEOLCK": "",
                "BBBGAEDCJEL": ""
            },
            {
                "$type": "CNBNGFNKLGP",
                "type": "STEER_TO",
                "duration": 0.800000011920929,
                "aliasList": [
                    "Avatar"
                ],
                "actionId": 106,
                "flag": 32,
                "DEMFHGAIELL": "TO_TARGET_ADVANCED",
                "BBNLLCHBKAI": true,
                "COJBPJMLIFM": true,
                "NLIKMFJCLBP": true,
                "KIPMIDIKECP": "13499",
                "FDLMFGAMGJK": true,
                "AOFBAGFCGPJ": ""
            }
        ],
        [
            {
                "$type": "CCEEIGNAILH",
                "type": "DIALOG",
                "aliasList": [
                    "Avatar"
                ],
                "actionId": 110,
                "KICBIOMGHIN": 40068401,
                "PNCCODDABKI": 0.5
            }
        ],
        [
            {
                "$type": "MoleMole.Config.ConfigTimeProtectAction",
                "type": "TIME_PROTECT",
                "duration": 0.10000000149011612,
                "actionId": 105
            }
        ]
    ],
    "groupId": [
        {
            "grpId": 2748885166,
            "nextGrpId": 2748885167
        },
        {
            "index": 1,
            "grpId": 2748885167,
            "nextGrpId": 2748885168
        },
        {
            "index": 2,
            "grpId": 2748885168,
            "nextGrpId": 2748885169
        }
    ]
}