{
    "luaDataPath": "",
    "isSimpleTalk": true,
    "entityBan": "",
    "disableNpcLod": true,
    "protectNpcMobileLod": true,
    "startFade": {
        "startFadeOutDuration": 0.0
    },
    "endFade": {
        "startFadeOutDuration": 0.0
    },
    "actors": [
        {
            "alias": "Avatar",
            "visible": true,
            "bornPointName": "",
            "relativePosType": "AVATAR_NEW",
            "relativePosNpcAlias": "",
            "bindMovingTargetKey": ""
        },
        {
            "configID": 4027,
            "alias": "4027",
            "visible": true,
            "bornPointName": "",
            "forceCreateDaily": true,
            "relativePosType": "AVATAR_NEW",
            "relativePosNpcAlias": "",
            "bindMovingTargetKey": ""
        }
    ],
    "group": [
        [
            {
                "$type": "BCJBNCJOPCE",
                "type": "CAMERA_FOCUS",
                "duration": 0.10000000149011612,
                "KIPMIDIKECP": "",
                "BDLGHOJPJHD": "",
                "LCOJGFEOLCK": "",
                "BBBGAEDCJEL": ""
            },
            {
                "$type": "MoleMole.Config.ConfigTimeProtectAction",
                "type": "TIME_PROTECT",
                "duration": 0.10000000149011612
            },
            {
                "$type": "CNBNGFNKLGP",
                "type": "STEER_TO",
                "delayTime": 0.30000001192092896,
                "duration": 0.800000011920929,
                "aliasList": [
                    "Avatar"
                ],
                "DEMFHGAIELL": "TO_TARGET_ADVANCED",
                "BBNLLCHBKAI": true,
                "COJBPJMLIFM": true,
                "NLIKMFJCLBP": true,
                "KIPMIDIKECP": "4027",
                "AOFBAGFCGPJ": ""
            },
            {
                "$type": "CNBNGFNKLGP",
                "type": "STEER_TO",
                "delayTime": 0.30000001192092896,
                "duration": 0.800000011920929,
                "aliasList": [
                    "4027"
                ],
                "DEMFHGAIELL": "TO_LOCAL_AVATAR_ADVANCED",
                "BBNLLCHBKAI": true,
                "COJBPJMLIFM": true,
                "NLIKMFJCLBP": true,
                "KIPMIDIKECP": "",
                "AOFBAGFCGPJ": ""
            }
        ],
        [
            {
                "$type": "CCEEIGNAILH",
                "type": "DIALOG",
                "aliasList": [
                    "4027"
                ],
                "KICBIOMGHIN": 230100701,
                "PNCCODDABKI": 0.5
            }
        ],
        [
            {
                "$type": "MoleMole.Config.ConfigBlackScreenAction",
                "type": "BLACK_SCREEN",
                "duration": 4.0,
                "durationToBlack": 0.5,
                "durationKeepBlack": 3.0,
                "durationFromBlack": 0.5,
                "inteePos": "",
                "textMapID": "",
                "useTextFade": true,
                "dialogID": 230100702
            },
            {
                "$type": "MoleMole.Config.ConfigAudioPlayAction",
                "type": "AUDIO_PLAY",
                "actionId": 123,
                "audioEventStr": "Play_sfx_Quest_sealamp_cooking"
            },
            {
                "$type": "CCEEIGNAILH",
                "type": "DIALOG_CLEAR",
                "duration": 4.0
            }
        ],
        [
            {
                "$type": "CCEEIGNAILH",
                "type": "DIALOG",
                "aliasList": [
                    "4027"
                ],
                "KICBIOMGHIN": 230100703,
                "PNCCODDABKI": 0.5
            },
            {
                "$type": "MEKNGCBGKEJ",
                "type": "DIALOG_SELECT",
                "delayTime": 0.4000000059604645,
                "aliasList": [
                    "Avatar"
                ],
                "MLAABINGLAA": [
                    230100704
                ],
                "HPBPDBFGKID": [
                    2692654498
                ],
                "CFJOJADDHHG": true
            }
        ],
        [
            {
                "$type": "CCEEIGNAILH",
                "type": "DIALOG",
                "aliasList": [
                    "4027"
                ],
                "KICBIOMGHIN": 230100705,
                "PNCCODDABKI": 0.5
            }
        ],
        [
            {
                "$type": "CCEEIGNAILH",
                "type": "DIALOG",
                "aliasList": [
                    "4027"
                ],
                "KICBIOMGHIN": 230100706,
                "PNCCODDABKI": 0.5
            }
        ],
        [
            {
                "$type": "CCEEIGNAILH",
                "type": "DIALOG",
                "aliasList": [
                    "4027"
                ],
                "KICBIOMGHIN": 230100707,
                "PNCCODDABKI": 0.5
            }
        ],
        [
            {
                "$type": "CCEEIGNAILH",
                "type": "DIALOG",
                "aliasList": [
                    "4027"
                ],
                "KICBIOMGHIN": 230100708,
                "PNCCODDABKI": 0.5
            }
        ],
        [
            {
                "$type": "MoleMole.Config.ConfigTimeProtectAction",
                "type": "TIME_PROTECT",
                "duration": 0.10000000149011612
            }
        ]
    ],
    "groupId": [
        {
            "grpId": 2692654494,
            "nextGrpId": 2692654495
        },
        {
            "index": 1,
            "grpId": 2692654495,
            "nextGrpId": 2692654496
        },
        {
            "index": 2,
            "grpId": 2692654496,
            "nextGrpId": 2692654497
        },
        {
            "index": 3,
            "grpId": 2692654497,
            "nextGrpId": 2692654498
        },
        {
            "index": 4,
            "grpId": 2692654498,
            "nextGrpId": 2692654499
        },
        {
            "index": 5,
            "grpId": 2692654499,
            "nextGrpId": 2692654500
        },
        {
            "index": 6,
            "grpId": 2692654500,
            "nextGrpId": 2692654501
        },
        {
            "index": 7,
            "grpId": 2692654501,
            "nextGrpId": 2692654502
        },
        {
            "index": 8,
            "grpId": 2692654502,
            "nextGrpId": 1867910738
        }
    ],
    "freeStyleDic": {
        "4027": []
    }
}