{
    "luaDataPath": "",
    "entityBan": "",
    "group": [
        [
            {
                "$type": "MoleMole.Config.ConfigUITriggerInterAction",
                "type": "UI_TRIGGER",
                "contextName": "QuestTutorialDialog",
                "param": "1510"
            },
            {
                "$type": "CCEEIGNAILH",
                "type": "DIALOG_CLEAR"
            }
        ]
    ]
}