{
    "luaDataPath": "",
    "entityBan": "",
    "disableNpcLod": true,
    "protectNpcMobileLod": true,
    "MNHFNFDCEFG": 5,
    "startFade": {
        "startFadeOutDuration": 0.0
    },
    "endFade": {
        "startFadeOutDuration": 0.0
    },
    "actors": [
        {
            "alias": "Avatar",
            "visible": true,
            "bornPointName": "",
            "relativePosType": "AVATAR_NEW",
            "relativePosNpcAlias": "",
            "bindMovingTargetKey": ""
        },
        {
            "configID": 9524,
            "alias": "9524",
            "visible": true,
            "bornPointName": "",
            "relativePosType": "AVATAR_NEW",
            "relativePosNpcAlias": "",
            "bindMovingTargetKey": ""
        }
    ],
    "group": [
        [
            {
                "$type": "BCJBNCJOPCE",
                "type": "CAMERA_FOCUS",
                "duration": 0.10000000149011612,
                "actionId": 103,
                "KIPMIDIKECP": "",
                "BDLGHOJPJHD": "",
                "LCOJGFEOLCK": "",
                "BBBGAEDCJEL": ""
            },
            {
                "$type": "MoleMole.Config.ConfigTimeProtectAction",
                "type": "TIME_PROTECT",
                "duration": 0.10000000149011612,
                "actionId": 104
            },
            {
                "$type": "MoleMole.Config.ConfigRequestMsgAction",
                "type": "REQUEST_MSG",
                "actionId": 108,
                "msgName": "ClearWorldChallengeTalk",
                "param": ""
            },
            {
                "$type": "IBPNIIGAIPF",
                "type": "LOOK_AT",
                "aliasList": [
                    "Avatar"
                ],
                "actionId": 115,
                "GGIENKFBOGL": true,
                "NDOMJCOFKDJ": 0.5,
                "KIPMIDIKECP": "9524",
                "FGPHOPBEJDE": true,
                "HJJAFGPMJNJ": "",
                "AOFBAGFCGPJ": ""
            },
            {
                "$type": "IBPNIIGAIPF",
                "type": "LOOK_AT",
                "aliasList": [
                    "9524"
                ],
                "actionId": 114,
                "GGIENKFBOGL": true,
                "NDOMJCOFKDJ": 0.5,
                "KIPMIDIKECP": "Avatar",
                "FGPHOPBEJDE": true,
                "HJJAFGPMJNJ": "",
                "AOFBAGFCGPJ": ""
            },
            {
                "$type": "CNBNGFNKLGP",
                "type": "STEER_TO",
                "delayTime": 0.30000001192092896,
                "duration": 0.800000011920929,
                "aliasList": [
                    "Avatar"
                ],
                "actionId": 109,
                "DEMFHGAIELL": "TO_TARGET_ADVANCED",
                "BBNLLCHBKAI": true,
                "KIPMIDIKECP": "9524",
                "FDLMFGAMGJK": true,
                "AOFBAGFCGPJ": ""
            },
            {
                "$type": "CNBNGFNKLGP",
                "type": "STEER_TO",
                "delayTime": 0.30000001192092896,
                "duration": 0.800000011920929,
                "aliasList": [
                    "9524"
                ],
                "actionId": 111,
                "DEMFHGAIELL": "TO_LOCAL_AVATAR_ADVANCED",
                "BBNLLCHBKAI": true,
                "KIPMIDIKECP": "",
                "FDLMFGAMGJK": true,
                "AOFBAGFCGPJ": ""
            }
        ],
        [
            {
                "$type": "CCEEIGNAILH",
                "type": "DIALOG",
                "aliasList": [
                    "9524"
                ],
                "actionId": 107,
                "KICBIOMGHIN": 695240501,
                "PNCCODDABKI": 0.5
            },
            {
                "$type": "DNAEECJNBFB",
                "type": "EMO_SYNC",
                "aliasList": [
                    "9524"
                ],
                "actionId": 112,
                "EOGJDJKPPGE": "Cs_Emo_Avatar_Simple_Common_Set/Cs_Emo_Avatar_Talk/Cs_Emo_GCG/Cs_Emo_Avatar_Tighnari/Cs_Emo_695240501",
                "IHCBGPABDLE": "",
                "CIKPDMODFPL": "",
                "HDIAHFFHNGE": "",
                "BOAAGJEEFDD": "",
                "PFDPJKHPADE": "",
                "DALINBJAHOC": [
                    16135022902798535380,
                    9132699142068706790,
                    15027505804658049738,
                    7558376158841965072
                ]
            },
            {
                "$type": "KCBOGFFHPBD",
                "type": "BODY_LANG",
                "aliasList": [
                    "9524"
                ],
                "actionId": 113,
                "GPIEDGOMCGL": 4031,
                "KCEHDJLKIAL": false,
                "KCOLHJBDILK": true,
                "AOFEDPBOOIE": ""
            }
        ],
        [
            {
                "$type": "MoleMole.Config.ConfigTimeProtectAction",
                "type": "TIME_PROTECT",
                "duration": 0.10000000149011612,
                "actionId": 105
            },
            {
                "$type": "CNBNGFNKLGP",
                "type": "STEER_TO",
                "duration": 0.800000011920929,
                "aliasList": [
                    "9524"
                ],
                "actionId": 110,
                "DEMFHGAIELL": "RETURN",
                "BBNLLCHBKAI": true,
                "KIPMIDIKECP": "",
                "IDIIDHLNENJ": true,
                "FDLMFGAMGJK": true,
                "AOFBAGFCGPJ": ""
            }
        ]
    ],
    "groupId": [
        {
            "grpId": 987210936,
            "nextGrpId": 987210937
        },
        {
            "index": 1,
            "grpId": 987210937,
            "nextGrpId": 987210938
        },
        {
            "index": 2,
            "grpId": 987210938,
            "nextGrpId": 987210939
        }
    ],
    "freeStyleDic": {
        "9524": [
            4031
        ]
    }
}