{
    "luaDataPath": "",
    "startBlackKeepTime": 0.20000000298023224,
    "entityBan": "",
    "protectNpcMobileLod": true,
    "startFade": {
        "startFadeInDuration": 0.4000000059604645,
        "startFadeOutDuration": 0.4000000059604645
    },
    "endFade": {
        "startFadeOutDuration": 0.0
    },
    "actors": [
        {
            "alias": "Avatar",
            "visible": true,
            "bornPointName": "Q100317PlayerPos",
            "relativePosType": "AVATAR_NEW",
            "relativePosNpcAlias": "",
            "bindMovingTargetKey": ""
        },
        {
            "configID": 10204,
            "alias": "10204",
            "visible": true,
            "bornPointName": "Q100306Xiao",
            "relativePosType": "AVATAR_NEW",
            "relativePosNpcAlias": "",
            "bindMovingTargetKey": ""
        },
        {
            "configID": 1005,
            "alias": "1005",
            "visible": true,
            "bornPointName": "Q100317Paimon",
            "relativePosType": "AVATAR_NEW",
            "relativePosNpcAlias": "",
            "bindMovingTargetKey": ""
        }
    ],
    "group": [
        [
            {
                "$type": "MoleMole.Config.ConfigTimeProtectAction",
                "type": "TIME_PROTECT",
                "duration": 3.0,
                "actionId": 123
            },
            {
                "$type": "BCJBNCJOPCE",
                "type": "CAMERA_MOVE",
                "duration": 1.0,
                "actionId": 124,
                "AKFGKKEOEFA": {
                    "x": 908.4979858398438,
                    "y": 273.50299072265625,
                    "z": 353.4570007324219
                },
                "NGEBMAEFFGJ": {
                    "x": 909.2680053710938,
                    "y": 273.2590026855469,
                    "z": 354.0469970703125
                },
                "LIGHLBKBDEI": 28.0,
                "GFIOJGJJGCN": 6,
                "ABAEPHOGOFF": "EaseInOutCubic",
                "KFDBMBFFANN": {},
                "KIPMIDIKECP": "",
                "BDLGHOJPJHD": "",
                "LCOJGFEOLCK": "",
                "BBBGAEDCJEL": ""
            },
            {
                "$type": "MoleMole.Config.ConfigCameraDOFAction",
                "type": "CAMERA_DOF",
                "actionId": 126,
                "enabled": true,
                "focusDistance": 5.0,
                "focusRange": 5.0,
                "quality": 3
            },
            {
                "$type": "MoleMole.Config.ConfigMoveToAction",
                "type": "MOVE_TO",
                "duration": 0.10000000149011612,
                "aliasList": [
                    "Avatar"
                ],
                "actionId": 146,
                "routeList": [
                    {
                        "x": 911.0419921875,
                        "y": 271.4909973144531,
                        "z": 355.1000061035156
                    }
                ],
                "bindMovingTargetKey": ""
            },
            {
                "$type": "MoleMole.Config.ConfigMoveToAction",
                "type": "MOVE_TO",
                "duration": 0.10000000149011612,
                "aliasList": [
                    "1005"
                ],
                "actionId": 208,
                "routeList": [
                    {
                        "x": 911.6669921875,
                        "y": 271.4909973144531,
                        "z": 355.1659851074219
                    }
                ],
                "bindMovingTargetKey": ""
            },
            {
                "$type": "BCJBNCJOPCE",
                "type": "CAMERA_MOVE",
                "delayTime": 0.10000000149011612,
                "duration": 3.0,
                "actionId": 125,
                "AKFGKKEOEFA": {
                    "x": 908.4639892578125,
                    "y": 273.3599853515625,
                    "z": 353.4429931640625
                },
                "NGEBMAEFFGJ": {
                    "x": 909.2340087890625,
                    "y": 273.1159973144531,
                    "z": 354.0329895019531
                },
                "LIGHLBKBDEI": 25.0,
                "ABAEPHOGOFF": "EaseInOutQuad",
                "KFDBMBFFANN": {},
                "KIPMIDIKECP": "",
                "BDLGHOJPJHD": "",
                "LCOJGFEOLCK": "",
                "BBBGAEDCJEL": ""
            },
            {
                "$type": "CNBNGFNKLGP",
                "type": "STEER_TO",
                "delayTime": 0.10000000149011612,
                "duration": 0.10000000149011612,
                "aliasList": [
                    "Avatar"
                ],
                "actionId": 147,
                "KDKLEJFHDJG": {
                    "x": 0.3190000057220459,
                    "z": 0.9480000138282776
                },
                "KIPMIDIKECP": "",
                "FDLMFGAMGJK": true,
                "AOFBAGFCGPJ": ""
            },
            {
                "$type": "KCBOGFFHPBD",
                "type": "BODY_LANG",
                "delayTime": 0.10000000149011612,
                "aliasList": [
                    "Avatar"
                ],
                "actionId": 148,
                "AHGOBCDHCMC": true,
                "AOFEDPBOOIE": ""
            },
            {
                "$type": "IBPNIIGAIPF",
                "type": "LOOK_AT",
                "delayTime": 0.10000000149011612,
                "aliasList": [
                    "Avatar"
                ],
                "actionId": 149,
                "GGIENKFBOGL": true,
                "useTargetPos": true,
                "GCOONJBHNIM": true,
                "JHNJNNOPJKG": {
                    "x": 911.5859985351562,
                    "y": 272.9159851074219,
                    "z": 356.5069885253906
                },
                "NDOMJCOFKDJ": 0.4000000059604645,
                "KIPMIDIKECP": "",
                "HJJAFGPMJNJ": "",
                "AOFBAGFCGPJ": ""
            },
            {
                "$type": "CNBNGFNKLGP",
                "type": "STEER_TO",
                "delayTime": 0.10000000149011612,
                "duration": 0.10000000149011612,
                "aliasList": [
                    "1005"
                ],
                "actionId": 209,
                "KDKLEJFHDJG": {
                    "x": -0.14399999380111694,
                    "z": 0.9900000095367432
                },
                "KIPMIDIKECP": "",
                "FDLMFGAMGJK": true,
                "AOFBAGFCGPJ": ""
            },
            {
                "$type": "IBPNIIGAIPF",
                "type": "LOOK_AT",
                "delayTime": 0.10000000149011612,
                "aliasList": [
                    "1005"
                ],
                "actionId": 210,
                "GGIENKFBOGL": true,
                "useTargetPos": true,
                "GCOONJBHNIM": true,
                "JHNJNNOPJKG": {
                    "x": 911.5859985351562,
                    "y": 272.9159851074219,
                    "z": 356.5069885253906
                },
                "NDOMJCOFKDJ": 0.4000000059604645,
                "KIPMIDIKECP": "",
                "HJJAFGPMJNJ": "",
                "AOFBAGFCGPJ": ""
            }
        ],
        [
            {
                "$type": "MoleMole.Config.ConfigTimeProtectAction",
                "type": "TIME_PROTECT",
                "duration": 1.0,
                "actionId": 127
            },
            {
                "$type": "IBPNIIGAIPF",
                "type": "LOOK_AT",
                "aliasList": [
                    "10204"
                ],
                "actionId": 241,
                "GGIENKFBOGL": true,
                "useTargetPos": true,
                "GCOONJBHNIM": true,
                "JHNJNNOPJKG": {
                    "x": 911.1290283203125,
                    "y": 272.86700439453125,
                    "z": 355.18701171875
                },
                "NDOMJCOFKDJ": 0.5,
                "KIPMIDIKECP": "",
                "AHLPNEGAKGG": "NONE",
                "FGPHOPBEJDE": true,
                "HJJAFGPMJNJ": "",
                "AOFBAGFCGPJ": ""
            },
            {
                "$type": "CNBNGFNKLGP",
                "type": "STEER_TO",
                "delayTime": 0.1979999989271164,
                "duration": 1.0,
                "aliasList": [
                    "10204"
                ],
                "actionId": 156,
                "KDKLEJFHDJG": {
                    "x": -0.9900000095367432,
                    "z": -0.13899999856948853
                },
                "BBNLLCHBKAI": true,
                "KIPMIDIKECP": "",
                "FDLMFGAMGJK": true,
                "AOFBAGFCGPJ": ""
            },
            {
                "$type": "CCEEIGNAILH",
                "type": "DIALOG",
                "delayTime": 0.8999999761581421,
                "aliasList": [
                    "10204"
                ],
                "actionId": 155,
                "KICBIOMGHIN": 10031701,
                "PNCCODDABKI": 0.30000001192092896
            },
            {
                "$type": "DNAEECJNBFB",
                "type": "EMO_SYNC",
                "delayTime": 0.8999999761581421,
                "aliasList": [
                    "10204"
                ],
                "actionId": 158,
                "EOGJDJKPPGE": "Cs_Emo_Avatar_Simple_Common_Set/Cs_Emo_Avatar_Talk/Cs_Emo_Avatar_MainLine/Cs_Emo_Avatar_LiYue/Cs_Emo_10031701",
                "IHCBGPABDLE": "",
                "CIKPDMODFPL": "",
                "HDIAHFFHNGE": "",
                "BOAAGJEEFDD": "",
                "PFDPJKHPADE": "",
                "DALINBJAHOC": [
                    5965044255803543597,
                    16405077648195783774,
                    11521429145031794183,
                    8257785144093252489
                ]
            },
            {
                "$type": "IBPNIIGAIPF",
                "type": "LOOK_AT",
                "delayTime": 1.1009999513626099,
                "aliasList": [
                    "10204"
                ],
                "actionId": 242,
                "GGIENKFBOGL": true,
                "useTargetPos": true,
                "GCOONJBHNIM": true,
                "JHNJNNOPJKG": {
                    "x": 911.1290283203125,
                    "y": 272.86700439453125,
                    "z": 355.18701171875
                },
                "NDOMJCOFKDJ": 0.30000001192092896,
                "KIPMIDIKECP": "",
                "AHLPNEGAKGG": "NONE",
                "FGPHOPBEJDE": true,
                "HJJAFGPMJNJ": "",
                "AOFBAGFCGPJ": ""
            }
        ],
        [
            {
                "$type": "BCJBNCJOPCE",
                "type": "CAMERA_MOVE",
                "duration": 1.0,
                "actionId": 128,
                "AKFGKKEOEFA": {
                    "x": 908.5679931640625,
                    "y": 272.8269958496094,
                    "z": 357.1600036621094
                },
                "NGEBMAEFFGJ": {
                    "x": 909.4550170898438,
                    "y": 272.7300109863281,
                    "z": 356.7080078125
                },
                "LIGHLBKBDEI": 25.0,
                "GFIOJGJJGCN": 6,
                "ABAEPHOGOFF": "EaseInOutCubic",
                "KFDBMBFFANN": {},
                "KIPMIDIKECP": "",
                "BDLGHOJPJHD": "",
                "LCOJGFEOLCK": "",
                "BBBGAEDCJEL": ""
            },
            {
                "$type": "CCEEIGNAILH",
                "type": "DIALOG",
                "aliasList": [
                    "1005"
                ],
                "actionId": 211,
                "KICBIOMGHIN": 10031702,
                "PNCCODDABKI": 1.0
            },
            {
                "$type": "KCBOGFFHPBD",
                "type": "BODY_LANG",
                "aliasList": [
                    "1005"
                ],
                "actionId": 212,
                "GPIEDGOMCGL": 1060,
                "AOFEDPBOOIE": ""
            },
            {
                "$type": "DNAEECJNBFB",
                "type": "EMO_SYNC",
                "aliasList": [
                    "1005"
                ],
                "actionId": 213,
                "EOGJDJKPPGE": "Cs_Emo_Avatar_Simple_Common_Set/Cs_Emo_Avatar_Talk/Cs_Emo_Avatar_MainLine/Cs_Emo_Avatar_LiYue/Cs_Emo_10031702",
                "IHCBGPABDLE": "",
                "CIKPDMODFPL": "",
                "HDIAHFFHNGE": "",
                "BOAAGJEEFDD": "",
                "PFDPJKHPADE": "",
                "DALINBJAHOC": [
                    7290660729784400183,
                    12727334879057452665,
                    9909692836134059209,
                    9389945068427558106
                ]
            },
            {
                "$type": "KCBOGFFHPBD",
                "type": "BODY_LANG",
                "delayTime": 0.4000000059604645,
                "aliasList": [
                    "Avatar"
                ],
                "actionId": 150,
                "GPIEDGOMCGL": 1030,
                "AOFEDPBOOIE": ""
            },
            {
                "$type": "IBPNIIGAIPF",
                "type": "LOOK_AT",
                "delayTime": 0.8999999761581421,
                "aliasList": [
                    "10204"
                ],
                "actionId": 159,
                "GGIENKFBOGL": true,
                "useTargetPos": true,
                "GCOONJBHNIM": true,
                "JHNJNNOPJKG": {
                    "x": 911.3920288085938,
                    "y": 272.6050109863281,
                    "z": 355.47601318359375
                },
                "IDICBCPKDPM": true,
                "AHMNGABHGCA": -20.0,
                "NDOMJCOFKDJ": 0.800000011920929,
                "GPJFOMPABNI": 0.5,
                "KIPMIDIKECP": "",
                "HJJAFGPMJNJ": "",
                "AOFBAGFCGPJ": ""
            }
        ],
        [
            {
                "$type": "CCEEIGNAILH",
                "type": "DIALOG",
                "aliasList": [
                    "10204"
                ],
                "actionId": 160,
                "KICBIOMGHIN": 10031703,
                "PNCCODDABKI": 1.100000023841858
            },
            {
                "$type": "CNBNGFNKLGP",
                "type": "STEER_TO",
                "duration": 1.0,
                "aliasList": [
                    "10204"
                ],
                "actionId": 161,
                "KDKLEJFHDJG": {
                    "x": -0.40799999237060547,
                    "z": -0.9129999876022339
                },
                "BBNLLCHBKAI": true,
                "KIPMIDIKECP": "",
                "FDLMFGAMGJK": true,
                "AOFBAGFCGPJ": ""
            },
            {
                "$type": "IBPNIIGAIPF",
                "type": "LOOK_AT",
                "aliasList": [
                    "10204"
                ],
                "actionId": 163,
                "GGIENKFBOGL": true,
                "useTargetPos": true,
                "GCOONJBHNIM": true,
                "JHNJNNOPJKG": {
                    "x": 911.3920288085938,
                    "y": 272.6050109863281,
                    "z": 355.47601318359375
                },
                "AHMNGABHGCA": -20.0,
                "NDOMJCOFKDJ": 0.4000000059604645,
                "GPJFOMPABNI": 0.5,
                "KIPMIDIKECP": "",
                "HJJAFGPMJNJ": "",
                "AOFBAGFCGPJ": ""
            },
            {
                "$type": "DNAEECJNBFB",
                "type": "EMO_SYNC",
                "aliasList": [
                    "10204"
                ],
                "actionId": 165,
                "EOGJDJKPPGE": "Cs_Emo_Avatar_Simple_Common_Set/Cs_Emo_Avatar_Talk/Cs_Emo_Avatar_MainLine/Cs_Emo_Avatar_LiYue/Cs_Emo_10031703",
                "IHCBGPABDLE": "",
                "CIKPDMODFPL": "",
                "HDIAHFFHNGE": "",
                "BOAAGJEEFDD": "",
                "PFDPJKHPADE": "",
                "DALINBJAHOC": [
                    8276001179579202227,
                    4657387540888616288,
                    528333151263940201,
                    16381864208887436564
                ]
            },
            {
                "$type": "KCBOGFFHPBD",
                "type": "BODY_LANG",
                "delayTime": 0.4000000059604645,
                "aliasList": [
                    "1005"
                ],
                "actionId": 214,
                "AHGOBCDHCMC": true,
                "AOFEDPBOOIE": ""
            },
            {
                "$type": "KCBOGFFHPBD",
                "type": "BODY_LANG",
                "delayTime": 1.0,
                "aliasList": [
                    "10204"
                ],
                "actionId": 162,
                "GPIEDGOMCGL": 1030,
                "AOFEDPBOOIE": ""
            },
            {
                "$type": "IBPNIIGAIPF",
                "type": "LOOK_AT",
                "delayTime": 1.0,
                "aliasList": [
                    "10204"
                ],
                "actionId": 164,
                "GGIENKFBOGL": true,
                "useTargetPos": true,
                "GCOONJBHNIM": true,
                "JHNJNNOPJKG": {
                    "x": 911.2880249023438,
                    "y": 272.6050109863281,
                    "z": 356.0249938964844
                },
                "AHMNGABHGCA": -20.0,
                "NDOMJCOFKDJ": 0.800000011920929,
                "GPJFOMPABNI": 0.5,
                "KIPMIDIKECP": "",
                "HJJAFGPMJNJ": "",
                "AOFBAGFCGPJ": ""
            },
            {
                "$type": "KCBOGFFHPBD",
                "type": "BODY_LANG",
                "delayTime": 3.5,
                "aliasList": [
                    "Avatar"
                ],
                "actionId": 151,
                "AHGOBCDHCMC": true,
                "AOFEDPBOOIE": ""
            }
        ],
        [
            {
                "$type": "KCBOGFFHPBD",
                "type": "BODY_LANG",
                "aliasList": [
                    "Avatar"
                ],
                "actionId": 152,
                "AHGOBCDHCMC": true,
                "AOFEDPBOOIE": ""
            },
            {
                "$type": "CCEEIGNAILH",
                "type": "DIALOG",
                "aliasList": [
                    "1005"
                ],
                "actionId": 215,
                "KICBIOMGHIN": 10031704,
                "PNCCODDABKI": 0.5
            },
            {
                "$type": "KCBOGFFHPBD",
                "type": "BODY_LANG",
                "aliasList": [
                    "1005"
                ],
                "actionId": 216,
                "GPIEDGOMCGL": 1170,
                "AOFEDPBOOIE": ""
            },
            {
                "$type": "DNAEECJNBFB",
                "type": "EMO_SYNC",
                "aliasList": [
                    "1005"
                ],
                "actionId": 218,
                "EOGJDJKPPGE": "Cs_Emo_Avatar_Simple_Common_Set/Cs_Emo_Avatar_Talk/Cs_Emo_Avatar_MainLine/Cs_Emo_Avatar_LiYue/Cs_Emo_10031704",
                "IHCBGPABDLE": "",
                "CIKPDMODFPL": "",
                "HDIAHFFHNGE": "",
                "BOAAGJEEFDD": "",
                "PFDPJKHPADE": "",
                "DALINBJAHOC": [
                    3600573033837970113,
                    2741328587123380968,
                    17747754451744948219,
                    7937274480036662053
                ]
            },
            {
                "$type": "KCBOGFFHPBD",
                "type": "BODY_LANG",
                "delayTime": 6.381999969482422,
                "aliasList": [
                    "1005"
                ],
                "actionId": 217,
                "AHGOBCDHCMC": true,
                "AOFEDPBOOIE": ""
            }
        ],
        [
            {
                "$type": "BCJBNCJOPCE",
                "type": "CAMERA_MOVE",
                "duration": 1.0,
                "actionId": 129,
                "AKFGKKEOEFA": {
                    "x": 908.5679931640625,
                    "y": 272.8269958496094,
                    "z": 357.1600036621094
                },
                "NGEBMAEFFGJ": {
                    "x": 909.4329833984375,
                    "y": 272.7449951171875,
                    "z": 356.6650085449219
                },
                "LIGHLBKBDEI": 22.0,
                "ABAEPHOGOFF": "EaseInOutCubic",
                "KFDBMBFFANN": {},
                "KIPMIDIKECP": "",
                "BDLGHOJPJHD": "",
                "LCOJGFEOLCK": "",
                "BBBGAEDCJEL": ""
            },
            {
                "$type": "CCEEIGNAILH",
                "type": "DIALOG",
                "aliasList": [
                    "1005"
                ],
                "actionId": 219,
                "KICBIOMGHIN": 10031705,
                "PNCCODDABKI": 0.5
            },
            {
                "$type": "KCBOGFFHPBD",
                "type": "BODY_LANG",
                "aliasList": [
                    "1005"
                ],
                "actionId": 220,
                "GPIEDGOMCGL": 1260,
                "AOFEDPBOOIE": ""
            },
            {
                "$type": "IBPNIIGAIPF",
                "type": "LOOK_AT",
                "aliasList": [
                    "1005"
                ],
                "actionId": 221,
                "GGIENKFBOGL": true,
                "useTargetPos": true,
                "GCOONJBHNIM": true,
                "JHNJNNOPJKG": {
                    "x": 911.083984375,
                    "y": 272.8949890136719,
                    "z": 355.13299560546875
                },
                "AHMNGABHGCA": -30.0,
                "NDOMJCOFKDJ": 0.4000000059604645,
                "GPJFOMPABNI": 0.5,
                "KIPMIDIKECP": "",
                "HJJAFGPMJNJ": "",
                "AOFBAGFCGPJ": ""
            },
            {
                "$type": "CNBNGFNKLGP",
                "type": "STEER_TO",
                "duration": 2.0,
                "aliasList": [
                    "1005"
                ],
                "actionId": 222,
                "KDKLEJFHDJG": {
                    "x": -0.9139999747276306,
                    "z": 0.4050000011920929
                },
                "KIPMIDIKECP": "",
                "FDLMFGAMGJK": true,
                "AOFBAGFCGPJ": ""
            },
            {
                "$type": "DNAEECJNBFB",
                "type": "EMO_SYNC",
                "aliasList": [
                    "1005"
                ],
                "actionId": 223,
                "EOGJDJKPPGE": "Cs_Emo_Avatar_Simple_Common_Set/Cs_Emo_Avatar_Talk/Cs_Emo_Avatar_MainLine/Cs_Emo_Avatar_LiYue/Cs_Emo_10031705",
                "IHCBGPABDLE": "",
                "CIKPDMODFPL": "",
                "HDIAHFFHNGE": "",
                "BOAAGJEEFDD": "",
                "PFDPJKHPADE": "",
                "DALINBJAHOC": [
                    18370030586809219474,
                    2416144791452534086,
                    743368571814978197,
                    8927541535142458154
                ]
            }
        ],
        [
            {
                "$type": "MoleMole.Config.ConfigBlackScreenAction",
                "type": "BLACK_SCREEN",
                "duration": 3.0,
                "actionId": 130,
                "durationToBlack": 0.5,
                "durationKeepBlack": 2.0,
                "durationFromBlack": 0.5,
                "inteePos": "",
                "textMapID": ""
            },
            {
                "$type": "MoleMole.Config.ConfigTimeProtectAction",
                "type": "TIME_PROTECT",
                "duration": 3.0,
                "actionId": 131
            },
            {
                "$type": "CCEEIGNAILH",
                "type": "DIALOG_CLEAR",
                "delayTime": 0.30000001192092896,
                "actionId": 132
            },
            {
                "$type": "KCBOGFFHPBD",
                "type": "BODY_LANG",
                "delayTime": 0.6000000238418579,
                "aliasList": [
                    "10204"
                ],
                "actionId": 166,
                "AHGOBCDHCMC": true,
                "AOFEDPBOOIE": ""
            },
            {
                "$type": "KCBOGFFHPBD",
                "type": "BODY_LANG",
                "delayTime": 0.699999988079071,
                "aliasList": [
                    "10204"
                ],
                "actionId": 167,
                "GPIEDGOMCGL": 1120,
                "AOFEDPBOOIE": ""
            },
            {
                "$type": "BCJBNCJOPCE",
                "type": "CAMERA_MOVE",
                "delayTime": 1.0,
                "duration": 1.0,
                "actionId": 133,
                "AKFGKKEOEFA": {
                    "x": 909.3889770507812,
                    "y": 273.1780090332031,
                    "z": 354.1709899902344
                },
                "NGEBMAEFFGJ": {
                    "x": 910.14501953125,
                    "y": 272.968994140625,
                    "z": 354.7909851074219
                },
                "LIGHLBKBDEI": 25.0,
                "GFIOJGJJGCN": 6,
                "ABAEPHOGOFF": "EaseInOutCubic",
                "KFDBMBFFANN": {},
                "KIPMIDIKECP": "",
                "BDLGHOJPJHD": "",
                "LCOJGFEOLCK": "",
                "BBBGAEDCJEL": ""
            },
            {
                "$type": "IBPNIIGAIPF",
                "type": "LOOK_AT",
                "delayTime": 1.0,
                "aliasList": [
                    "10204"
                ],
                "actionId": 168,
                "GGIENKFBOGL": true,
                "useTargetPos": true,
                "GCOONJBHNIM": true,
                "JHNJNNOPJKG": {
                    "x": 911.083984375,
                    "y": 272.8949890136719,
                    "z": 355.13299560546875
                },
                "AHMNGABHGCA": -30.0,
                "NDOMJCOFKDJ": 0.5,
                "GPJFOMPABNI": 0.5,
                "KIPMIDIKECP": "",
                "HJJAFGPMJNJ": "",
                "AOFBAGFCGPJ": ""
            },
            {
                "$type": "KCBOGFFHPBD",
                "type": "BODY_LANG",
                "delayTime": 1.0,
                "aliasList": [
                    "1005"
                ],
                "actionId": 224,
                "AHGOBCDHCMC": true,
                "AOFEDPBOOIE": ""
            },
            {
                "$type": "CNBNGFNKLGP",
                "type": "STEER_TO",
                "delayTime": 1.0,
                "duration": 1.0,
                "aliasList": [
                    "1005"
                ],
                "actionId": 225,
                "KDKLEJFHDJG": {
                    "x": -0.14399999380111694,
                    "z": 0.9900000095367432
                },
                "KIPMIDIKECP": "",
                "FDLMFGAMGJK": true,
                "AOFBAGFCGPJ": ""
            },
            {
                "$type": "IBPNIIGAIPF",
                "type": "LOOK_AT",
                "delayTime": 1.0,
                "aliasList": [
                    "1005"
                ],
                "actionId": 226,
                "GGIENKFBOGL": true,
                "useTargetPos": true,
                "GCOONJBHNIM": true,
                "JHNJNNOPJKG": {
                    "x": 911.5859985351562,
                    "y": 272.9159851074219,
                    "z": 356.5069885253906
                },
                "NDOMJCOFKDJ": 0.4000000059604645,
                "KIPMIDIKECP": "",
                "HJJAFGPMJNJ": "",
                "AOFBAGFCGPJ": ""
            }
        ],
        [
            {
                "$type": "CCEEIGNAILH",
                "type": "DIALOG",
                "aliasList": [
                    "10204"
                ],
                "actionId": 169,
                "KICBIOMGHIN": 10031706,
                "PNCCODDABKI": 0.5
            },
            {
                "$type": "DNAEECJNBFB",
                "type": "EMO_SYNC",
                "aliasList": [
                    "10204"
                ],
                "actionId": 170,
                "EOGJDJKPPGE": "Cs_Emo_Avatar_Simple_Common_Set/Cs_Emo_Avatar_Talk/Cs_Emo_Avatar_MainLine/Cs_Emo_Avatar_LiYue/Cs_Emo_10031706",
                "IHCBGPABDLE": "",
                "CIKPDMODFPL": "",
                "HDIAHFFHNGE": "",
                "BOAAGJEEFDD": "",
                "PFDPJKHPADE": "",
                "DALINBJAHOC": [
                    10376354379116905281,
                    4125971536746631137,
                    13983048458588412232,
                    12709844492485479669
                ]
            }
        ],
        [
            {
                "$type": "CCEEIGNAILH",
                "type": "DIALOG",
                "aliasList": [
                    "10204"
                ],
                "actionId": 171,
                "KICBIOMGHIN": 10031707,
                "PNCCODDABKI": 0.5
            },
            {
                "$type": "DNAEECJNBFB",
                "type": "EMO_SYNC",
                "aliasList": [
                    "10204"
                ],
                "actionId": 172,
                "EOGJDJKPPGE": "Cs_Emo_Avatar_Simple_Common_Set/Cs_Emo_Avatar_Talk/Cs_Emo_Avatar_MainLine/Cs_Emo_Avatar_LiYue/Cs_Emo_10031707",
                "IHCBGPABDLE": "",
                "CIKPDMODFPL": "",
                "HDIAHFFHNGE": "",
                "BOAAGJEEFDD": "",
                "PFDPJKHPADE": "",
                "DALINBJAHOC": [
                    10908005588127630213,
                    16987345077143574909,
                    9947996663113103600,
                    3142305424534100006
                ]
            }
        ],
        [
            {
                "$type": "BCJBNCJOPCE",
                "type": "CAMERA_MOVE",
                "duration": 1.0,
                "actionId": 134,
                "AKFGKKEOEFA": {
                    "x": 910.27197265625,
                    "y": 272.8139953613281,
                    "z": 355.1789855957031
                },
                "NGEBMAEFFGJ": {
                    "x": 911.031005859375,
                    "y": 272.77398681640625,
                    "z": 355.8280029296875
                },
                "LIGHLBKBDEI": 25.0,
                "GFIOJGJJGCN": 6,
                "ABAEPHOGOFF": "EaseInOutCubic",
                "KFDBMBFFANN": {},
                "KIPMIDIKECP": "",
                "BDLGHOJPJHD": "",
                "LCOJGFEOLCK": "",
                "BBBGAEDCJEL": ""
            },
            {
                "$type": "CCEEIGNAILH",
                "type": "DIALOG",
                "aliasList": [
                    "10204"
                ],
                "actionId": 173,
                "KICBIOMGHIN": 10031708,
                "PNCCODDABKI": 0.5
            },
            {
                "$type": "IBPNIIGAIPF",
                "type": "LOOK_AT",
                "aliasList": [
                    "10204"
                ],
                "actionId": 174,
                "GGIENKFBOGL": true,
                "MHMKIICCEDG": {
                    "x": -45.0
                },
                "NDOMJCOFKDJ": 0.6000000238418579,
                "KIPMIDIKECP": "",
                "HJJAFGPMJNJ": "",
                "AOFBAGFCGPJ": ""
            },
            {
                "$type": "DNAEECJNBFB",
                "type": "EMO_SYNC",
                "aliasList": [
                    "10204"
                ],
                "actionId": 175,
                "EOGJDJKPPGE": "Cs_Emo_Avatar_Simple_Common_Set/Cs_Emo_Avatar_Talk/Cs_Emo_Avatar_MainLine/Cs_Emo_Avatar_LiYue/Cs_Emo_10031708",
                "IHCBGPABDLE": "",
                "CIKPDMODFPL": "",
                "HDIAHFFHNGE": "",
                "BOAAGJEEFDD": "",
                "PFDPJKHPADE": "",
                "DALINBJAHOC": [
                    12645449764036755296,
                    9983925242939784869,
                    2612342431114495670,
                    3177729302021994094
                ]
            },
            {
                "$type": "BCJBNCJOPCE",
                "type": "CAMERA_MOVE",
                "delayTime": 0.10000000149011612,
                "duration": 15.0,
                "actionId": 135,
                "AKFGKKEOEFA": {
                    "x": 910.2310180664062,
                    "y": 272.8160095214844,
                    "z": 355.22601318359375
                },
                "NGEBMAEFFGJ": {
                    "x": 910.9910278320312,
                    "y": 272.7760009765625,
                    "z": 355.875
                },
                "LIGHLBKBDEI": 25.0,
                "ABAEPHOGOFF": "EaseInOutSine",
                "KFDBMBFFANN": {},
                "KIPMIDIKECP": "",
                "BDLGHOJPJHD": "",
                "LCOJGFEOLCK": "",
                "BBBGAEDCJEL": ""
            }
        ],
        [
            {
                "$type": "CCEEIGNAILH",
                "type": "DIALOG",
                "aliasList": [
                    "10204"
                ],
                "actionId": 176,
                "KICBIOMGHIN": 10031709,
                "PNCCODDABKI": 0.5
            },
            {
                "$type": "DNAEECJNBFB",
                "type": "EMO_SYNC",
                "aliasList": [
                    "10204"
                ],
                "actionId": 177,
                "EOGJDJKPPGE": "Cs_Emo_Avatar_Simple_Common_Set/Cs_Emo_Avatar_Talk/Cs_Emo_Avatar_MainLine/Cs_Emo_Avatar_LiYue/Cs_Emo_10031709",
                "IHCBGPABDLE": "",
                "CIKPDMODFPL": "",
                "HDIAHFFHNGE": "",
                "BOAAGJEEFDD": "",
                "PFDPJKHPADE": "",
                "DALINBJAHOC": [
                    15025100902987473512,
                    5496123162224512489,
                    8863886516180057306,
                    10449473449472643501
                ]
            }
        ],
        [
            {
                "$type": "BCJBNCJOPCE",
                "type": "CAMERA_MOVE",
                "duration": 1.0,
                "actionId": 136,
                "AKFGKKEOEFA": {
                    "x": 909.322021484375,
                    "y": 273.20098876953125,
                    "z": 353.9490051269531
                },
                "NGEBMAEFFGJ": {
                    "x": 910.0759887695312,
                    "y": 272.9800109863281,
                    "z": 354.5669860839844
                },
                "LIGHLBKBDEI": 25.0,
                "GFIOJGJJGCN": 6,
                "ABAEPHOGOFF": "EaseInOutCubic",
                "KFDBMBFFANN": {},
                "KIPMIDIKECP": "",
                "BDLGHOJPJHD": "",
                "LCOJGFEOLCK": "",
                "BBBGAEDCJEL": ""
            },
            {
                "$type": "CCEEIGNAILH",
                "type": "DIALOG",
                "aliasList": [
                    "10204"
                ],
                "actionId": 178,
                "KICBIOMGHIN": 10031710,
                "PNCCODDABKI": 0.5
            },
            {
                "$type": "IBPNIIGAIPF",
                "type": "LOOK_AT",
                "aliasList": [
                    "10204"
                ],
                "actionId": 180,
                "GGIENKFBOGL": true,
                "useTargetPos": true,
                "GCOONJBHNIM": true,
                "JHNJNNOPJKG": {
                    "x": 911.083984375,
                    "y": 272.8949890136719,
                    "z": 355.13299560546875
                },
                "AHMNGABHGCA": -30.0,
                "NDOMJCOFKDJ": 0.5,
                "GPJFOMPABNI": 0.5,
                "KIPMIDIKECP": "",
                "HJJAFGPMJNJ": "",
                "AOFBAGFCGPJ": ""
            },
            {
                "$type": "DNAEECJNBFB",
                "type": "EMO_SYNC",
                "aliasList": [
                    "10204"
                ],
                "actionId": 181,
                "EOGJDJKPPGE": "Cs_Emo_Avatar_Simple_Common_Set/Cs_Emo_Avatar_Talk/Cs_Emo_Avatar_MainLine/Cs_Emo_Avatar_LiYue/Cs_Emo_10031710",
                "IHCBGPABDLE": "",
                "CIKPDMODFPL": "",
                "HDIAHFFHNGE": "",
                "BOAAGJEEFDD": "",
                "PFDPJKHPADE": "",
                "DALINBJAHOC": [
                    3999712045450759290,
                    11325511943510849937,
                    1041926272068301276,
                    11543214304589891408
                ]
            },
            {
                "$type": "MEKNGCBGKEJ",
                "type": "DIALOG_SELECT",
                "delayTime": 0.4000000059604645,
                "aliasList": [
                    "Avatar"
                ],
                "actionId": 153,
                "MLAABINGLAA": [
                    10031711,
                    10031712
                ],
                "HPBPDBFGKID": [
                    80759474,
                    80759474
                ],
                "CFJOJADDHHG": true,
                "APEOOMIGHNL": 2496457120
            },
            {
                "$type": "KCBOGFFHPBD",
                "type": "BODY_LANG",
                "delayTime": 0.4000000059604645,
                "aliasList": [
                    "10204"
                ],
                "actionId": 179,
                "AHGOBCDHCMC": true,
                "AOFEDPBOOIE": ""
            }
        ],
        [
            {
                "$type": "BCJBNCJOPCE",
                "type": "CAMERA_MOVE",
                "duration": 2.0,
                "actionId": 137,
                "AKFGKKEOEFA": {
                    "x": 909.3889770507812,
                    "y": 273.1780090332031,
                    "z": 354.1709899902344
                },
                "NGEBMAEFFGJ": {
                    "x": 910.14501953125,
                    "y": 272.968994140625,
                    "z": 354.7909851074219
                },
                "LIGHLBKBDEI": 25.0,
                "ABAEPHOGOFF": "EaseInOutCubic",
                "KFDBMBFFANN": {},
                "KIPMIDIKECP": "",
                "BDLGHOJPJHD": "",
                "LCOJGFEOLCK": "",
                "BBBGAEDCJEL": ""
            },
            {
                "$type": "CCEEIGNAILH",
                "type": "DIALOG",
                "aliasList": [
                    "10204"
                ],
                "actionId": 182,
                "KICBIOMGHIN": 10031713,
                "PNCCODDABKI": 0.5
            },
            {
                "$type": "KCBOGFFHPBD",
                "type": "BODY_LANG",
                "aliasList": [
                    "10204"
                ],
                "actionId": 183,
                "GPIEDGOMCGL": 1130,
                "AOFEDPBOOIE": ""
            },
            {
                "$type": "DNAEECJNBFB",
                "type": "EMO_SYNC",
                "aliasList": [
                    "10204"
                ],
                "actionId": 185,
                "EOGJDJKPPGE": "Cs_Emo_Avatar_Simple_Common_Set/Cs_Emo_Avatar_Talk/Cs_Emo_Avatar_MainLine/Cs_Emo_Avatar_LiYue/Cs_Emo_10031713",
                "IHCBGPABDLE": "",
                "CIKPDMODFPL": "",
                "HDIAHFFHNGE": "",
                "BOAAGJEEFDD": "",
                "PFDPJKHPADE": "",
                "DALINBJAHOC": [
                    18401500825359884837,
                    5749479482112128177,
                    2988789389250484476,
                    9851737098913314231
                ]
            },
            {
                "$type": "KCBOGFFHPBD",
                "type": "BODY_LANG",
                "delayTime": 2.0,
                "aliasList": [
                    "10204"
                ],
                "actionId": 184,
                "AHGOBCDHCMC": true,
                "AOFEDPBOOIE": ""
            }
        ],
        [
            {
                "$type": "CCEEIGNAILH",
                "type": "DIALOG",
                "aliasList": [
                    "10204"
                ],
                "actionId": 186,
                "KICBIOMGHIN": 10031714,
                "PNCCODDABKI": 0.5
            },
            {
                "$type": "KCBOGFFHPBD",
                "type": "BODY_LANG",
                "aliasList": [
                    "10204"
                ],
                "actionId": 188,
                "AHGOBCDHCMC": true,
                "AOFEDPBOOIE": ""
            },
            {
                "$type": "DNAEECJNBFB",
                "type": "EMO_SYNC",
                "aliasList": [
                    "10204"
                ],
                "actionId": 189,
                "EOGJDJKPPGE": "Cs_Emo_Avatar_Simple_Common_Set/Cs_Emo_Avatar_Talk/Cs_Emo_Avatar_MainLine/Cs_Emo_Avatar_LiYue/Cs_Emo_10031714",
                "IHCBGPABDLE": "",
                "CIKPDMODFPL": "",
                "HDIAHFFHNGE": "",
                "BOAAGJEEFDD": "",
                "PFDPJKHPADE": "",
                "DALINBJAHOC": [
                    16458420306047065007,
                    10182579908625641139,
                    10891220915629025178,
                    10436030320037046007
                ]
            },
            {
                "$type": "KCBOGFFHPBD",
                "type": "BODY_LANG",
                "delayTime": 4.0,
                "aliasList": [
                    "10204"
                ],
                "actionId": 187,
                "GPIEDGOMCGL": 1171,
                "AOFEDPBOOIE": ""
            }
        ],
        [
            {
                "$type": "CCEEIGNAILH",
                "type": "DIALOG",
                "aliasList": [
                    "10204"
                ],
                "actionId": 190,
                "KICBIOMGHIN": 10031715,
                "PNCCODDABKI": 0.5
            },
            {
                "$type": "KCBOGFFHPBD",
                "type": "BODY_LANG",
                "aliasList": [
                    "10204"
                ],
                "actionId": 191,
                "GPIEDGOMCGL": 1170,
                "AOFEDPBOOIE": ""
            },
            {
                "$type": "DNAEECJNBFB",
                "type": "EMO_SYNC",
                "aliasList": [
                    "10204"
                ],
                "actionId": 193,
                "EOGJDJKPPGE": "Cs_Emo_Avatar_Simple_Common_Set/Cs_Emo_Avatar_Talk/Cs_Emo_Avatar_MainLine/Cs_Emo_Avatar_LiYue/Cs_Emo_10031715",
                "IHCBGPABDLE": "",
                "CIKPDMODFPL": "",
                "HDIAHFFHNGE": "",
                "BOAAGJEEFDD": "",
                "PFDPJKHPADE": "",
                "DALINBJAHOC": [
                    13896692763529400430,
                    2651884570045130812,
                    15009887485013030514,
                    6810170763846329492
                ]
            },
            {
                "$type": "KCBOGFFHPBD",
                "type": "BODY_LANG",
                "delayTime": 0.4000000059604645,
                "aliasList": [
                    "10204"
                ],
                "actionId": 192,
                "AHGOBCDHCMC": true,
                "AOFEDPBOOIE": ""
            }
        ],
        [
            {
                "$type": "BCJBNCJOPCE",
                "type": "CAMERA_MOVE",
                "duration": 1.0,
                "actionId": 138,
                "AKFGKKEOEFA": {
                    "x": 910.333984375,
                    "y": 273.0669860839844,
                    "z": 357.64599609375
                },
                "NGEBMAEFFGJ": {
                    "x": 910.8460083007812,
                    "y": 272.8900146484375,
                    "z": 356.8059997558594
                },
                "LIGHLBKBDEI": 25.0,
                "GFIOJGJJGCN": 6,
                "ABAEPHOGOFF": "EaseInOutCubic",
                "KFDBMBFFANN": {},
                "KIPMIDIKECP": "",
                "BDLGHOJPJHD": "",
                "LCOJGFEOLCK": "",
                "BBBGAEDCJEL": ""
            },
            {
                "$type": "KCBOGFFHPBD",
                "type": "BODY_LANG",
                "aliasList": [
                    "10204"
                ],
                "actionId": 195,
                "AHGOBCDHCMC": true,
                "AOFEDPBOOIE": ""
            },
            {
                "$type": "CCEEIGNAILH",
                "type": "DIALOG",
                "aliasList": [
                    "1005"
                ],
                "actionId": 227,
                "KICBIOMGHIN": 10031716,
                "PNCCODDABKI": 0.5
            },
            {
                "$type": "KCBOGFFHPBD",
                "type": "BODY_LANG",
                "aliasList": [
                    "1005"
                ],
                "actionId": 228,
                "GPIEDGOMCGL": 1060,
                "AOFEDPBOOIE": ""
            },
            {
                "$type": "DNAEECJNBFB",
                "type": "EMO_SYNC",
                "aliasList": [
                    "1005"
                ],
                "actionId": 230,
                "EOGJDJKPPGE": "Cs_Emo_Avatar_Simple_Common_Set/Cs_Emo_Avatar_Talk/Cs_Emo_Avatar_MainLine/Cs_Emo_Avatar_LiYue/Cs_Emo_10031716",
                "IHCBGPABDLE": "",
                "CIKPDMODFPL": "",
                "HDIAHFFHNGE": "",
                "BOAAGJEEFDD": "",
                "PFDPJKHPADE": "",
                "DALINBJAHOC": [
                    3065895903285813393,
                    3035682466379117853,
                    13821886524607829013,
                    11033161762523339615
                ]
            },
            {
                "$type": "IBPNIIGAIPF",
                "type": "LOOK_AT",
                "delayTime": 0.4000000059604645,
                "aliasList": [
                    "10204"
                ],
                "actionId": 194,
                "GGIENKFBOGL": true,
                "useTargetPos": true,
                "GCOONJBHNIM": true,
                "JHNJNNOPJKG": {
                    "x": 911.666015625,
                    "y": 272.8070068359375,
                    "z": 355.1759948730469
                },
                "NDOMJCOFKDJ": 0.5,
                "KIPMIDIKECP": "",
                "HJJAFGPMJNJ": "",
                "AOFBAGFCGPJ": ""
            },
            {
                "$type": "KCBOGFFHPBD",
                "type": "BODY_LANG",
                "delayTime": 2.2769999504089355,
                "aliasList": [
                    "1005"
                ],
                "actionId": 229,
                "AHGOBCDHCMC": true,
                "AOFEDPBOOIE": ""
            }
        ],
        [
            {
                "$type": "CCEEIGNAILH",
                "type": "DIALOG",
                "aliasList": [
                    "10204"
                ],
                "actionId": 196,
                "KICBIOMGHIN": 10031717,
                "PNCCODDABKI": 0.5
            },
            {
                "$type": "KCBOGFFHPBD",
                "type": "BODY_LANG",
                "aliasList": [
                    "10204"
                ],
                "actionId": 197,
                "GPIEDGOMCGL": 1120,
                "AOFEDPBOOIE": ""
            },
            {
                "$type": "DNAEECJNBFB",
                "type": "EMO_SYNC",
                "aliasList": [
                    "10204"
                ],
                "actionId": 198,
                "EOGJDJKPPGE": "Cs_Emo_Avatar_Simple_Common_Set/Cs_Emo_Avatar_Talk/Cs_Emo_Avatar_MainLine/Cs_Emo_Avatar_LiYue/Cs_Emo_10031717",
                "IHCBGPABDLE": "",
                "CIKPDMODFPL": "",
                "HDIAHFFHNGE": "",
                "BOAAGJEEFDD": "",
                "PFDPJKHPADE": "",
                "DALINBJAHOC": [
                    14316703137707245287,
                    15913703726000738702,
                    11700109451357911178,
                    17165824671711804367
                ]
            },
            {
                "$type": "KCBOGFFHPBD",
                "type": "BODY_LANG",
                "aliasList": [
                    "1005"
                ],
                "actionId": 231,
                "AHGOBCDHCMC": true,
                "AOFEDPBOOIE": ""
            }
        ],
        [
            {
                "$type": "CCEEIGNAILH",
                "type": "DIALOG",
                "aliasList": [
                    "1005"
                ],
                "actionId": 232,
                "KICBIOMGHIN": 10031718,
                "PNCCODDABKI": 0.5
            },
            {
                "$type": "KCBOGFFHPBD",
                "type": "BODY_LANG",
                "aliasList": [
                    "1005"
                ],
                "actionId": 233,
                "GPIEDGOMCGL": 1170,
                "AOFEDPBOOIE": ""
            },
            {
                "$type": "DNAEECJNBFB",
                "type": "EMO_SYNC",
                "aliasList": [
                    "1005"
                ],
                "actionId": 235,
                "EOGJDJKPPGE": "Cs_Emo_Avatar_Simple_Common_Set/Cs_Emo_Avatar_Talk/Cs_Emo_Avatar_MainLine/Cs_Emo_Avatar_LiYue/Cs_Emo_10031718",
                "IHCBGPABDLE": "",
                "CIKPDMODFPL": "",
                "HDIAHFFHNGE": "",
                "BOAAGJEEFDD": "",
                "PFDPJKHPADE": "",
                "DALINBJAHOC": [
                    2355113954523610314,
                    10338768213265900621,
                    684968102923588200,
                    9104409539755698829
                ]
            },
            {
                "$type": "KCBOGFFHPBD",
                "type": "BODY_LANG",
                "delayTime": 3.3369998931884766,
                "aliasList": [
                    "1005"
                ],
                "actionId": 234,
                "AHGOBCDHCMC": true,
                "AOFEDPBOOIE": ""
            }
        ],
        [
            {
                "$type": "BCJBNCJOPCE",
                "type": "CAMERA_MOVE",
                "duration": 1.0,
                "actionId": 139,
                "AKFGKKEOEFA": {
                    "x": 909.281005859375,
                    "y": 273.4129943847656,
                    "z": 353.5010070800781
                },
                "NGEBMAEFFGJ": {
                    "x": 909.9660034179688,
                    "y": 273.1340026855469,
                    "z": 354.17401123046875
                },
                "LIGHLBKBDEI": 25.0,
                "GFIOJGJJGCN": 6,
                "ABAEPHOGOFF": "EaseInOutCubic",
                "KFDBMBFFANN": {},
                "KIPMIDIKECP": "",
                "BDLGHOJPJHD": "",
                "LCOJGFEOLCK": "",
                "BBBGAEDCJEL": ""
            },
            {
                "$type": "CCEEIGNAILH",
                "type": "DIALOG",
                "aliasList": [
                    "10204"
                ],
                "actionId": 199,
                "KICBIOMGHIN": 10031719,
                "PNCCODDABKI": 0.5
            },
            {
                "$type": "DNAEECJNBFB",
                "type": "EMO_SYNC",
                "aliasList": [
                    "10204"
                ],
                "actionId": 200,
                "EOGJDJKPPGE": "Cs_Emo_Avatar_Simple_Common_Set/Cs_Emo_Avatar_Talk/Cs_Emo_Avatar_MainLine/Cs_Emo_Avatar_LiYue/Cs_Emo_10031719",
                "IHCBGPABDLE": "",
                "CIKPDMODFPL": "",
                "HDIAHFFHNGE": "",
                "BOAAGJEEFDD": "",
                "PFDPJKHPADE": "",
                "DALINBJAHOC": [
                    9940916237536204019,
                    7210604912882357401,
                    16188462897669740055,
                    2844208856622355605
                ]
            },
            {
                "$type": "KCBOGFFHPBD",
                "type": "BODY_LANG",
                "aliasList": [
                    "1005"
                ],
                "actionId": 236,
                "AHGOBCDHCMC": true,
                "AOFEDPBOOIE": ""
            }
        ],
        [
            {
                "$type": "CCEEIGNAILH",
                "type": "DIALOG",
                "aliasList": [
                    "10204"
                ],
                "actionId": 201,
                "KICBIOMGHIN": 10031720,
                "PNCCODDABKI": 0.5
            },
            {
                "$type": "KCBOGFFHPBD",
                "type": "BODY_LANG",
                "aliasList": [
                    "10204"
                ],
                "actionId": 202,
                "GPIEDGOMCGL": 1121,
                "AOFEDPBOOIE": ""
            },
            {
                "$type": "DNAEECJNBFB",
                "type": "EMO_SYNC",
                "aliasList": [
                    "10204"
                ],
                "actionId": 204,
                "EOGJDJKPPGE": "Cs_Emo_Avatar_Simple_Common_Set/Cs_Emo_Avatar_Talk/Cs_Emo_Avatar_MainLine/Cs_Emo_Avatar_LiYue/Cs_Emo_10031720",
                "IHCBGPABDLE": "",
                "CIKPDMODFPL": "",
                "HDIAHFFHNGE": "",
                "BOAAGJEEFDD": "",
                "PFDPJKHPADE": "",
                "DALINBJAHOC": [
                    5958356045462493499,
                    3158600448479278226,
                    12689403888255328092,
                    632370987486351787
                ]
            },
            {
                "$type": "KCBOGFFHPBD",
                "type": "BODY_LANG",
                "delayTime": 3.236999988555908,
                "aliasList": [
                    "10204"
                ],
                "actionId": 203,
                "AHGOBCDHCMC": true,
                "AOFEDPBOOIE": ""
            }
        ],
        [
            {
                "$type": "BCJBNCJOPCE",
                "type": "CAMERA_MOVE",
                "duration": 1.0,
                "actionId": 140,
                "AKFGKKEOEFA": {
                    "x": 910.333984375,
                    "y": 273.0669860839844,
                    "z": 357.64599609375
                },
                "NGEBMAEFFGJ": {
                    "x": 910.8460083007812,
                    "y": 272.8900146484375,
                    "z": 356.8059997558594
                },
                "LIGHLBKBDEI": 25.0,
                "GFIOJGJJGCN": 6,
                "ABAEPHOGOFF": "EaseInOutCubic",
                "KFDBMBFFANN": {},
                "KIPMIDIKECP": "",
                "BDLGHOJPJHD": "",
                "LCOJGFEOLCK": "",
                "BBBGAEDCJEL": ""
            },
            {
                "$type": "CCEEIGNAILH",
                "type": "DIALOG",
                "aliasList": [
                    "1005"
                ],
                "actionId": 237,
                "KICBIOMGHIN": 10031721,
                "PNCCODDABKI": 0.5
            },
            {
                "$type": "KCBOGFFHPBD",
                "type": "BODY_LANG",
                "aliasList": [
                    "1005"
                ],
                "actionId": 238,
                "GPIEDGOMCGL": 1230,
                "AOFEDPBOOIE": ""
            },
            {
                "$type": "DNAEECJNBFB",
                "type": "EMO_SYNC",
                "aliasList": [
                    "1005"
                ],
                "actionId": 239,
                "EOGJDJKPPGE": "Cs_Emo_Avatar_Simple_Common_Set/Cs_Emo_Avatar_Talk/Cs_Emo_Avatar_MainLine/Cs_Emo_Avatar_LiYue/Cs_Emo_10031721",
                "IHCBGPABDLE": "",
                "CIKPDMODFPL": "",
                "HDIAHFFHNGE": "",
                "BOAAGJEEFDD": "",
                "PFDPJKHPADE": "",
                "DALINBJAHOC": [
                    9279213911915321497,
                    7647270593123276618,
                    1212239124094132640,
                    14167367010667126028
                ]
            },
            {
                "$type": "KCBOGFFHPBD",
                "type": "BODY_LANG",
                "delayTime": 0.4000000059604645,
                "aliasList": [
                    "10204"
                ],
                "actionId": 205,
                "AHGOBCDHCMC": true,
                "AOFEDPBOOIE": ""
            }
        ],
        [
            {
                "$type": "MoleMole.Config.ConfigBlackScreenAction",
                "type": "BLACK_SCREEN",
                "duration": 2.0,
                "actionId": 141,
                "durationToBlack": 0.5,
                "durationKeepBlack": 1.0,
                "durationFromBlack": 0.5,
                "inteePos": "",
                "textMapID": ""
            },
            {
                "$type": "MoleMole.Config.ConfigTimeProtectAction",
                "type": "TIME_PROTECT",
                "duration": 2.0,
                "actionId": 144
            },
            {
                "$type": "CCEEIGNAILH",
                "type": "DIALOG_CLEAR",
                "delayTime": 0.30000001192092896,
                "actionId": 143
            },
            {
                "$type": "BCJBNCJOPCE",
                "type": "CAMERA_MOVE",
                "delayTime": 1.0,
                "duration": 1.0,
                "actionId": 142,
                "AKFGKKEOEFA": {
                    "x": 909.2020263671875,
                    "y": 273.4930114746094,
                    "z": 352.2829895019531
                },
                "NGEBMAEFFGJ": {
                    "x": 909.7470092773438,
                    "y": 273.2659912109375,
                    "z": 353.09100341796875
                },
                "GFIOJGJJGCN": 6,
                "ABAEPHOGOFF": "EaseInOutCubic",
                "KFDBMBFFANN": {},
                "KIPMIDIKECP": "",
                "BDLGHOJPJHD": "",
                "LCOJGFEOLCK": "",
                "BBBGAEDCJEL": ""
            },
            {
                "$type": "MoleMole.Config.ConfigCameraDOFAction",
                "type": "CAMERA_DOF",
                "delayTime": 1.0,
                "actionId": 145
            },
            {
                "$type": "MoleMole.Config.ConfigVisibleInterAction",
                "type": "VISIBLE",
                "delayTime": 1.0,
                "aliasList": [
                    "10204"
                ],
                "actionId": 206,
                "extraParam": ""
            },
            {
                "$type": "KCBOGFFHPBD",
                "type": "BODY_LANG",
                "delayTime": 1.0,
                "aliasList": [
                    "10204"
                ],
                "actionId": 207,
                "AHGOBCDHCMC": true,
                "AOFEDPBOOIE": ""
            },
            {
                "$type": "KCBOGFFHPBD",
                "type": "BODY_LANG",
                "delayTime": 1.0,
                "aliasList": [
                    "1005"
                ],
                "actionId": 240,
                "AHGOBCDHCMC": true,
                "AOFEDPBOOIE": ""
            }
        ],
        [
            {
                "$type": "IBPNIIGAIPF",
                "type": "LOOK_AT",
                "aliasList": [
                    "Avatar"
                ],
                "KIPMIDIKECP": "",
                "HJJAFGPMJNJ": "",
                "AOFBAGFCGPJ": ""
            },
            {
                "$type": "IBPNIIGAIPF",
                "type": "LOOK_AT",
                "aliasList": [
                    "10204"
                ],
                "KIPMIDIKECP": "",
                "HJJAFGPMJNJ": "",
                "AOFBAGFCGPJ": ""
            },
            {
                "$type": "IBPNIIGAIPF",
                "type": "LOOK_AT",
                "aliasList": [
                    "1005"
                ],
                "KIPMIDIKECP": "",
                "HJJAFGPMJNJ": "",
                "AOFBAGFCGPJ": ""
            }
        ]
    ],
    "groupId": [
        {
            "grpId": 2496457121,
            "nextGrpId": 2496457122
        },
        {
            "index": 1,
            "grpId": 2496457122,
            "nextGrpId": 2496457123
        },
        {
            "index": 2,
            "grpId": 2496457123,
            "nextGrpId": 2496457124
        },
        {
            "index": 3,
            "grpId": 2496457124,
            "nextGrpId": 2496457125
        },
        {
            "index": 4,
            "grpId": 2496457125,
            "nextGrpId": 2496457126
        },
        {
            "index": 5,
            "grpId": 2496457126,
            "nextGrpId": 2496457127
        },
        {
            "index": 6,
            "grpId": 2496457127,
            "nextGrpId": 2496457128
        },
        {
            "index": 7,
            "grpId": 2496457128,
            "nextGrpId": 2496457129
        },
        {
            "index": 8,
            "grpId": 2496457129,
            "nextGrpId": 80759471
        },
        {
            "index": 9,
            "grpId": 80759471,
            "nextGrpId": 80759472
        },
        {
            "index": 10,
            "grpId": 80759472,
            "nextGrpId": 80759473
        },
        {
            "index": 11,
            "grpId": 80759473,
            "nextGrpId": 80759474
        },
        {
            "index": 12,
            "grpId": 80759474,
            "nextGrpId": 80759475
        },
        {
            "index": 13,
            "grpId": 80759475,
            "nextGrpId": 80759476
        },
        {
            "index": 14,
            "grpId": 80759476,
            "nextGrpId": 80759477
        },
        {
            "index": 15,
            "grpId": 80759477,
            "nextGrpId": 80759478
        },
        {
            "index": 16,
            "grpId": 80759478,
            "nextGrpId": 80759479
        },
        {
            "index": 17,
            "grpId": 80759479,
            "nextGrpId": 80759480
        },
        {
            "index": 18,
            "grpId": 80759480,
            "nextGrpId": 80759502
        },
        {
            "index": 19,
            "grpId": 80759502,
            "nextGrpId": 80759503
        },
        {
            "index": 20,
            "grpId": 80759503,
            "nextGrpId": 80759504
        },
        {
            "index": 21,
            "grpId": 80759504,
            "nextGrpId": 80759505
        },
        {
            "index": 22,
            "grpId": 80759505,
            "nextGrpId": 80759506
        }
    ],
    "freeStyleDic": {
        "10204": [
            1030,
            1120,
            1130,
            1171,
            1170,
            1121
        ]
    }
}