{
    "luaDataPath": "",
    "isSimpleTalk": true,
    "entityBan": "",
    "disableNpcLod": true,
    "protectNpcMobileLod": true,
    "MNHFNFDCEFG": 5,
    "startFade": {
        "startFadeOutDuration": 0.0
    },
    "endFade": {
        "startFadeOutDuration": 0.0
    },
    "actors": [
        {
            "alias": "Avatar",
            "visible": true,
            "bornPointName": "",
            "relativePosType": "AVATAR_NEW",
            "relativePosNpcAlias": "",
            "bindMovingTargetKey": ""
        },
        {
            "configID": 5315,
            "alias": "5315",
            "visible": true,
            "bornPointName": "",
            "forceCreateDaily": true,
            "relativePosType": "AVATAR_NEW",
            "relativePosNpcAlias": "",
            "bindMovingTargetKey": ""
        }
    ],
    "group": [
        [
            {
                "$type": "BCJBNCJOPCE",
                "type": "CAMERA_FOCUS",
                "duration": 0.10000000149011612,
                "actionId": 103,
                "KIPMIDIKECP": "",
                "BDLGHOJPJHD": "",
                "LCOJGFEOLCK": "",
                "BBBGAEDCJEL": ""
            },
            {
                "$type": "MoleMole.Config.ConfigTimeProtectAction",
                "type": "TIME_PROTECT",
                "duration": 0.10000000149011612,
                "actionId": 104
            },
            {
                "$type": "CNBNGFNKLGP",
                "type": "STEER_TO",
                "delayTime": 0.30000001192092896,
                "duration": 0.800000011920929,
                "aliasList": [
                    "Avatar"
                ],
                "actionId": 113,
                "flag": 32,
                "DEMFHGAIELL": "TO_TARGET_ADVANCED",
                "BBNLLCHBKAI": true,
                "COJBPJMLIFM": true,
                "NLIKMFJCLBP": true,
                "KIPMIDIKECP": "5315",
                "FDLMFGAMGJK": true,
                "AOFBAGFCGPJ": ""
            },
            {
                "$type": "CNBNGFNKLGP",
                "type": "STEER_TO",
                "delayTime": 0.30000001192092896,
                "duration": 0.800000011920929,
                "aliasList": [
                    "5315"
                ],
                "actionId": 114,
                "flag": 32,
                "DEMFHGAIELL": "TO_LOCAL_AVATAR_ADVANCED",
                "BBNLLCHBKAI": true,
                "COJBPJMLIFM": true,
                "NLIKMFJCLBP": true,
                "KIPMIDIKECP": "",
                "FDLMFGAMGJK": true,
                "AOFBAGFCGPJ": ""
            }
        ],
        [
            {
                "$type": "CCEEIGNAILH",
                "type": "DIALOG",
                "aliasList": [
                    "5315"
                ],
                "actionId": 107,
                "KICBIOMGHIN": 740102301,
                "PNCCODDABKI": 0.5
            },
            {
                "$type": "MEKNGCBGKEJ",
                "type": "DIALOG_SELECT",
                "delayTime": 0.4000000059604645,
                "aliasList": [
                    "Avatar"
                ],
                "actionId": 108,
                "MLAABINGLAA": [
                    740102304,
                    740102302
                ],
                "HPBPDBFGKID": [
                    2000641752,
                    2000641751
                ],
                "CFJOJADDHHG": true,
                "APEOOMIGHNL": 2000641748
            }
        ],
        [
            {
                "$type": "CCEEIGNAILH",
                "type": "DIALOG",
                "aliasList": [
                    "5315"
                ],
                "actionId": 110,
                "KICBIOMGHIN": 740102303,
                "PNCCODDABKI": 0.5
            }
        ],
        [
            {
                "$type": "MoleMole.Config.ConfigTimeProtectAction",
                "type": "TIME_PROTECT",
                "duration": 0.10000000149011612,
                "actionId": 112
            }
        ],
        [
            {
                "$type": "MoleMole.Config.ConfigTimeProtectAction",
                "type": "TIME_PROTECT",
                "duration": 0.10000000149011612,
                "actionId": 105
            },
            {
                "$type": "CNBNGFNKLGP",
                "type": "STEER_TO",
                "duration": 1.0,
                "aliasList": [
                    "5315"
                ],
                "actionId": 115,
                "flag": 32,
                "DEMFHGAIELL": "RETURN",
                "BBNLLCHBKAI": true,
                "COJBPJMLIFM": true,
                "NLIKMFJCLBP": true,
                "KIPMIDIKECP": "",
                "IDIIDHLNENJ": true,
                "FDLMFGAMGJK": true,
                "AOFBAGFCGPJ": ""
            }
        ]
    ],
    "groupId": [
        {
            "grpId": 2000641749,
            "nextGrpId": 2000641750
        },
        {
            "index": 1,
            "grpId": 2000641750,
            "nextGrpId": 2000641751
        },
        {
            "index": 2,
            "grpId": 2000641751,
            "nextGrpId": 2000641752
        },
        {
            "index": 3,
            "grpId": 2000641752,
            "nextGrpId": 2000641753
        },
        {
            "index": 4,
            "grpId": 2000641753,
            "nextGrpId": 2000641754
        }
    ],
    "freeStyleDic": {
        "5315": []
    }
}