{
    "luaDataPath": "",
    "isSimpleTalk": true,
    "entityBan": "",
    "disableNpcLod": true,
    "startFade": {
        "startFadeOutDuration": 0.0
    },
    "endFade": {
        "startFadeOutDuration": 0.0
    },
    "actors": [
        {
            "alias": "Avatar",
            "visible": true,
            "bornPointName": "",
            "relativePosNpcAlias": "",
            "bindMovingTargetKey": ""
        },
        {
            "configID": 20344,
            "alias": "20344",
            "visible": true,
            "bornPointName": "",
            "relativePosNpcAlias": "",
            "bindMovingTargetKey": ""
        },
        {
            "configID": 1005,
            "alias": "1005",
            "visible": true,
            "bornPointName": "",
            "useRelativePos": true,
            "relativePos": {
                "x": 0.5,
                "z": 0.5
            },
            "removeActorType": "REMOVE_WITH_DISAPPEAR",
            "relativePosNpcAlias": "",
            "bindMovingTargetKey": ""
        }
    ],
    "group": [
        [
            {
                "$type": "MoleMole.Config.ConfigTimeProtectAction",
                "type": "TIME_PROTECT",
                "duration": 0.10000000149011612
            },
            {
                "$type": "BCJBNCJOPCE",
                "type": "CAMERA_FOCUS",
                "duration": 0.10000000149011612,
                "KIPMIDIKECP": "",
                "BDLGHOJPJHD": "",
                "LCOJGFEOLCK": "",
                "BBBGAEDCJEL": ""
            }
        ],
        [
            {
                "$type": "CCEEIGNAILH",
                "type": "DIALOG",
                "aliasList": [
                    "20344"
                ],
                "KICBIOMGHIN": 722390301,
                "PNCCODDABKI": 0.5
            }
        ],
        [
            {
                "$type": "CCEEIGNAILH",
                "type": "DIALOG",
                "aliasList": [
                    "1005"
                ],
                "KICBIOMGHIN": 722390302,
                "PNCCODDABKI": 0.5
            }
        ],
        [
            {
                "$type": "CCEEIGNAILH",
                "type": "DIALOG",
                "aliasList": [
                    "20344"
                ],
                "KICBIOMGHIN": 722390303,
                "PNCCODDABKI": 0.5
            },
            {
                "$type": "MEKNGCBGKEJ",
                "type": "DIALOG_SELECT",
                "delayTime": 0.4000000059604645,
                "aliasList": [
                    "Avatar"
                ],
                "MLAABINGLAA": [
                    722390304,
                    722390305
                ],
                "HPBPDBFGKID": [
                    4192084056,
                    4192084056
                ],
                "CFJOJADDHHG": true
            }
        ],
        [
            {
                "$type": "CCEEIGNAILH",
                "type": "DIALOG",
                "aliasList": [
                    "20344"
                ],
                "KICBIOMGHIN": 722390306,
                "PNCCODDABKI": 0.5
            }
        ],
        [
            {
                "$type": "CCEEIGNAILH",
                "type": "DIALOG",
                "aliasList": [
                    "20344"
                ],
                "KICBIOMGHIN": 722390307,
                "PNCCODDABKI": 0.5
            }
        ],
        [
            {
                "$type": "CCEEIGNAILH",
                "type": "DIALOG",
                "aliasList": [
                    "20344"
                ],
                "KICBIOMGHIN": 722390308,
                "PNCCODDABKI": 0.5
            },
            {
                "$type": "MEKNGCBGKEJ",
                "type": "DIALOG_SELECT",
                "delayTime": 0.4000000059604645,
                "aliasList": [
                    "Avatar"
                ],
                "MLAABINGLAA": [
                    722390309,
                    722390310
                ],
                "HPBPDBFGKID": [
                    4192084060,
                    4192084059
                ],
                "CFJOJADDHHG": true
            }
        ],
        [
            {
                "$type": "CCEEIGNAILH",
                "type": "DIALOG",
                "aliasList": [
                    "1005"
                ],
                "KICBIOMGHIN": 722390311,
                "PNCCODDABKI": 0.5
            }
        ],
        [
            {
                "$type": "CCEEIGNAILH",
                "type": "DIALOG",
                "aliasList": [
                    "20344"
                ],
                "KICBIOMGHIN": 722390312,
                "PNCCODDABKI": 0.5
            }
        ],
        [
            {
                "$type": "CCEEIGNAILH",
                "type": "DIALOG",
                "aliasList": [
                    "1005"
                ],
                "KICBIOMGHIN": 722390313,
                "PNCCODDABKI": 0.5
            }
        ],
        [
            {
                "$type": "CCEEIGNAILH",
                "type": "DIALOG",
                "aliasList": [
                    "20344"
                ],
                "KICBIOMGHIN": 722390314,
                "PNCCODDABKI": 0.5
            }
        ],
        [
            {
                "$type": "CCEEIGNAILH",
                "type": "DIALOG",
                "aliasList": [
                    "20344"
                ],
                "KICBIOMGHIN": 722390315,
                "PNCCODDABKI": 0.5
            }
        ],
        [
            {
                "$type": "CCEEIGNAILH",
                "type": "DIALOG",
                "aliasList": [
                    "20344"
                ],
                "KICBIOMGHIN": 722390316,
                "PNCCODDABKI": 0.5
            },
            {
                "$type": "MEKNGCBGKEJ",
                "type": "DIALOG_SELECT",
                "delayTime": 0.4000000059604645,
                "aliasList": [
                    "Avatar"
                ],
                "MLAABINGLAA": [
                    722390317
                ],
                "HPBPDBFGKID": [
                    1105586784
                ],
                "CFJOJADDHHG": true
            }
        ],
        [
            {
                "$type": "CCEEIGNAILH",
                "type": "DIALOG",
                "aliasList": [
                    "20344"
                ],
                "KICBIOMGHIN": 722390318,
                "PNCCODDABKI": 0.5
            }
        ],
        [
            {
                "$type": "CCEEIGNAILH",
                "type": "DIALOG",
                "aliasList": [
                    "20344"
                ],
                "KICBIOMGHIN": 722390319,
                "PNCCODDABKI": 0.5
            }
        ],
        [
            {
                "$type": "CCEEIGNAILH",
                "type": "DIALOG",
                "aliasList": [
                    "20344"
                ],
                "KICBIOMGHIN": 722390320,
                "PNCCODDABKI": 0.5
            },
            {
                "$type": "MEKNGCBGKEJ",
                "type": "DIALOG_SELECT",
                "delayTime": 0.4000000059604645,
                "aliasList": [
                    "Avatar"
                ],
                "MLAABINGLAA": [
                    722390321,
                    722390324,
                    722390329
                ],
                "HPBPDBFGKID": [
                    1105586787,
                    1105586789,
                    1105586814
                ],
                "CFJOJADDHHG": true
            }
        ],
        [
            {
                "$type": "CCEEIGNAILH",
                "type": "DIALOG",
                "aliasList": [
                    "20344"
                ],
                "KICBIOMGHIN": 722390322,
                "PNCCODDABKI": 0.5
            }
        ],
        [
            {
                "$type": "CCEEIGNAILH",
                "type": "DIALOG",
                "aliasList": [
                    "20344"
                ],
                "KICBIOMGHIN": 722390323,
                "PNCCODDABKI": 0.5
            }
        ],
        [
            {
                "$type": "CCEEIGNAILH",
                "type": "DIALOG",
                "aliasList": [
                    "20344"
                ],
                "KICBIOMGHIN": 722390325,
                "PNCCODDABKI": 0.5
            }
        ],
        [
            {
                "$type": "CCEEIGNAILH",
                "type": "DIALOG",
                "aliasList": [
                    "20344"
                ],
                "KICBIOMGHIN": 722390326,
                "PNCCODDABKI": 0.5
            }
        ],
        [
            {
                "$type": "CCEEIGNAILH",
                "type": "DIALOG",
                "aliasList": [
                    "20344"
                ],
                "KICBIOMGHIN": 722390327,
                "PNCCODDABKI": 0.5
            }
        ],
        [
            {
                "$type": "CCEEIGNAILH",
                "type": "DIALOG",
                "aliasList": [
                    "20344"
                ],
                "KICBIOMGHIN": 722390328,
                "PNCCODDABKI": 0.5
            }
        ],
        [
            {
                "$type": "CCEEIGNAILH",
                "type": "DIALOG",
                "aliasList": [
                    "20344"
                ],
                "KICBIOMGHIN": 722390330,
                "PNCCODDABKI": 0.5
            }
        ],
        [
            {
                "$type": "CCEEIGNAILH",
                "type": "DIALOG",
                "aliasList": [
                    "20344"
                ],
                "KICBIOMGHIN": 722390331,
                "PNCCODDABKI": 0.5
            }
        ],
        [
            {
                "$type": "CCEEIGNAILH",
                "type": "DIALOG",
                "aliasList": [
                    "20344"
                ],
                "KICBIOMGHIN": 722390332,
                "PNCCODDABKI": 0.5
            }
        ],
        [
            {
                "$type": "MoleMole.Config.ConfigTimeProtectAction",
                "type": "TIME_PROTECT",
                "duration": 0.10000000149011612
            }
        ],
        [
            {
                "$type": "MoleMole.Config.ConfigTimeProtectAction",
                "type": "TIME_PROTECT",
                "duration": 0.699999988079071
            },
            {
                "$type": "MoleMole.Config.ConfigSimpleBlackScreenAction",
                "type": "SIMPLE_BLACK_SCREEN",
                "durationToBlack": 0.5,
                "durationKeepBlack": 1.0,
                "durationFromBlack": 0.5,
                "textMapID": ""
            },
            {
                "$type": "MoleMole.Config.ConfigTimeProtectAction",
                "type": "TIME_PROTECT",
                "duration": 0.10000000149011612
            }
        ]
    ],
    "groupId": [
        {
            "grpId": 4192084052,
            "nextGrpId": 4192084053
        },
        {
            "index": 1,
            "grpId": 4192084053,
            "nextGrpId": 4192084054
        },
        {
            "index": 2,
            "grpId": 4192084054,
            "nextGrpId": 4192084055
        },
        {
            "index": 3,
            "grpId": 4192084055,
            "nextGrpId": 4192084056
        },
        {
            "index": 4,
            "grpId": 4192084056,
            "nextGrpId": 4192084057
        },
        {
            "index": 5,
            "grpId": 4192084057,
            "nextGrpId": 4192084058
        },
        {
            "index": 6,
            "grpId": 4192084058,
            "nextGrpId": 4192084059
        },
        {
            "index": 7,
            "grpId": 4192084059,
            "nextGrpId": 4192084060
        },
        {
            "index": 8,
            "grpId": 4192084060,
            "nextGrpId": 1105586780
        },
        {
            "index": 9,
            "grpId": 1105586780,
            "nextGrpId": 1105586781
        },
        {
            "index": 10,
            "grpId": 1105586781,
            "nextGrpId": 1105586782
        },
        {
            "index": 11,
            "grpId": 1105586782,
            "nextGrpId": 1105586783
        },
        {
            "index": 12,
            "grpId": 1105586783,
            "nextGrpId": 1105586784
        },
        {
            "index": 13,
            "grpId": 1105586784,
            "nextGrpId": 1105586785
        },
        {
            "index": 14,
            "grpId": 1105586785,
            "nextGrpId": 1105586786
        },
        {
            "index": 15,
            "grpId": 1105586786,
            "nextGrpId": 1105586787
        },
        {
            "index": 16,
            "grpId": 1105586787,
            "nextGrpId": 1105586788
        },
        {
            "index": 17,
            "grpId": 1105586788,
            "nextGrpId": 1105586786
        },
        {
            "index": 18,
            "grpId": 1105586789,
            "nextGrpId": 1105586811
        },
        {
            "index": 19,
            "grpId": 1105586811,
            "nextGrpId": 1105586812
        },
        {
            "index": 20,
            "grpId": 1105586812,
            "nextGrpId": 1105586813
        },
        {
            "index": 21,
            "grpId": 1105586813,
            "nextGrpId": 1105586817
        },
        {
            "index": 22,
            "grpId": 1105586814,
            "nextGrpId": 1105586815
        },
        {
            "index": 23,
            "grpId": 1105586815,
            "nextGrpId": 1105586816
        },
        {
            "index": 24,
            "grpId": 1105586816,
            "nextGrpId": 1105586817
        },
        {
            "index": 25,
            "grpId": 1105586817,
            "nextGrpId": 1105586818
        },
        {
            "index": 26,
            "grpId": 1105586818,
            "nextGrpId": 1105586819
        }
    ]
}