{
    "luaDataPath": "",
    "isSimpleTalk": true,
    "entityBan": "",
    "disableNpcLod": true,
    "protectNpcMobileLod": true,
    "MNHFNFDCEFG": 5,
    "startFade": {
        "startFadeOutDuration": 0.0
    },
    "endFade": {
        "startFadeOutDuration": 0.0
    },
    "actors": [
        {
            "alias": "Avatar",
            "visible": true,
            "bornPointName": "",
            "relativePosType": "AVATAR_NEW",
            "relativePosNpcAlias": "",
            "bindMovingTargetKey": ""
        },
        {
            "configID": 30413,
            "alias": "30413",
            "visible": true,
            "bornPointName": "",
            "forceCreateDaily": true,
            "relativePosType": "AVATAR_NEW",
            "relativePosNpcAlias": "",
            "bindMovingTargetKey": ""
        }
    ],
    "group": [
        [
            {
                "$type": "BCJBNCJOPCE",
                "type": "CAMERA_FOCUS",
                "duration": 0.10000000149011612,
                "actionId": 103,
                "KIPMIDIKECP": "",
                "BDLGHOJPJHD": "",
                "LCOJGFEOLCK": "",
                "BBBGAEDCJEL": ""
            },
            {
                "$type": "MoleMole.Config.ConfigTimeProtectAction",
                "type": "TIME_PROTECT",
                "duration": 0.10000000149011612,
                "actionId": 104
            },
            {
                "$type": "CNBNGFNKLGP",
                "type": "STEER_TO",
                "delayTime": 0.30000001192092896,
                "duration": 0.800000011920929,
                "aliasList": [
                    "Avatar"
                ],
                "actionId": 115,
                "flag": 32,
                "DEMFHGAIELL": "TO_TARGET_ADVANCED",
                "BBNLLCHBKAI": true,
                "COJBPJMLIFM": true,
                "NLIKMFJCLBP": true,
                "KIPMIDIKECP": "30413",
                "FDLMFGAMGJK": true,
                "AOFBAGFCGPJ": ""
            },
            {
                "$type": "CNBNGFNKLGP",
                "type": "STEER_TO",
                "delayTime": 0.30000001192092896,
                "duration": 0.800000011920929,
                "aliasList": [
                    "30413"
                ],
                "actionId": 116,
                "flag": 32,
                "DEMFHGAIELL": "TO_LOCAL_AVATAR_ADVANCED",
                "BBNLLCHBKAI": true,
                "COJBPJMLIFM": true,
                "NLIKMFJCLBP": true,
                "KIPMIDIKECP": "",
                "FDLMFGAMGJK": true,
                "AOFBAGFCGPJ": ""
            }
        ],
        [
            {
                "$type": "CCEEIGNAILH",
                "type": "DIALOG",
                "aliasList": [
                    "30413"
                ],
                "actionId": 107,
                "KICBIOMGHIN": 745050201,
                "PNCCODDABKI": 0.5
            },
            {
                "$type": "KCBOGFFHPBD",
                "type": "BODY_LANG",
                "aliasList": [
                    "30413"
                ],
                "actionId": 120,
                "GPIEDGOMCGL": 1171,
                "FHLAMNNHMFA": true,
                "KCEHDJLKIAL": false,
                "KCOLHJBDILK": true,
                "AOFEDPBOOIE": ""
            },
            {
                "$type": "DNAEECJNBFB",
                "type": "EMO_SYNC",
                "aliasList": [
                    "30413"
                ],
                "actionId": 123,
                "flag": 256,
                "EOGJDJKPPGE": "",
                "IHCBGPABDLE": "Cs_Emo_NPC_Common/Cs_Emo_NPC_Smile01",
                "CIKPDMODFPL": "Cs_Emo_NPC_Common/Cs_Emo_NPC_Normal01_B",
                "HDIAHFFHNGE": "",
                "BOAAGJEEFDD": "",
                "PFDPJKHPADE": "",
                "MJAONEKDECJ": [
                    16904578549667717032,
                    1816638257688317738,
                    5794653667040553837,
                    4994398500180388018
                ],
                "DAALMFGCAOO": [
                    15191155715402440098,
                    420038106395935518,
                    2651432695756251320,
                    4209314551981667660
                ]
            },
            {
                "$type": "IBPNIIGAIPF",
                "type": "LOOK_AT",
                "aliasList": [
                    "30413"
                ],
                "actionId": 133,
                "flag": 64,
                "GGIENKFBOGL": true,
                "NDOMJCOFKDJ": 0.5,
                "KIPMIDIKECP": "Avatar",
                "FGPHOPBEJDE": true,
                "PEIIOFIBMAK": 60.0,
                "HJJAFGPMJNJ": "",
                "AOFBAGFCGPJ": ""
            },
            {
                "$type": "MEKNGCBGKEJ",
                "type": "DIALOG_SELECT",
                "delayTime": 0.4000000059604645,
                "aliasList": [
                    "Avatar"
                ],
                "actionId": 108,
                "MLAABINGLAA": [
                    745050202,
                    745050204
                ],
                "HPBPDBFGKID": [
                    530144248,
                    530144249
                ],
                "CFJOJADDHHG": true,
                "APEOOMIGHNL": 530144245
            }
        ],
        [
            {
                "$type": "CCEEIGNAILH",
                "type": "DIALOG",
                "aliasList": [
                    "30413"
                ],
                "actionId": 110,
                "KICBIOMGHIN": 745050203,
                "PNCCODDABKI": 0.5
            },
            {
                "$type": "KCBOGFFHPBD",
                "type": "BODY_LANG",
                "aliasList": [
                    "30413"
                ],
                "actionId": 124,
                "GPIEDGOMCGL": 1171,
                "FHLAMNNHMFA": true,
                "KCEHDJLKIAL": false,
                "KCOLHJBDILK": true,
                "AOFEDPBOOIE": ""
            },
            {
                "$type": "DNAEECJNBFB",
                "type": "EMO_SYNC",
                "aliasList": [
                    "30413"
                ],
                "actionId": 125,
                "flag": 256,
                "EOGJDJKPPGE": "",
                "IHCBGPABDLE": "Cs_Emo_NPC_Common/Cs_Emo_NPC_Smile01",
                "CIKPDMODFPL": "Cs_Emo_NPC_Common/Cs_Emo_NPC_WinkA01",
                "HDIAHFFHNGE": "",
                "BOAAGJEEFDD": "",
                "PFDPJKHPADE": "",
                "MIDKJONOACI": false,
                "MJAONEKDECJ": [
                    16904578549667717032,
                    1816638257688317738,
                    5794653667040553837,
                    4994398500180388018
                ],
                "DAALMFGCAOO": [
                    3765270258116979292,
                    5819579798871825639,
                    6466964524325215505,
                    5921498707822553356
                ]
            },
            {
                "$type": "DNAEECJNBFB",
                "type": "EMO_SYNC",
                "delayTime": 1.812999963760376,
                "aliasList": [
                    "30413"
                ],
                "actionId": 126,
                "flag": 256,
                "EOGJDJKPPGE": "",
                "IHCBGPABDLE": "Cs_Emo_NPC_Common/Cs_Emo_NPC_Smile01",
                "CIKPDMODFPL": "Cs_Emo_NPC_Common/Cs_Emo_NPC_Normal01",
                "HDIAHFFHNGE": "",
                "BOAAGJEEFDD": "",
                "PFDPJKHPADE": "",
                "MJAONEKDECJ": [
                    16904578549667717032,
                    1816638257688317738,
                    5794653667040553837,
                    4994398500180388018
                ],
                "DAALMFGCAOO": [
                    10638823098752766568,
                    16550434959365186937,
                    16779490980036678760,
                    2038118027140397243
                ]
            }
        ],
        [
            {
                "$type": "CCEEIGNAILH",
                "type": "DIALOG",
                "aliasList": [
                    "30413"
                ],
                "actionId": 112,
                "KICBIOMGHIN": 745050205,
                "PNCCODDABKI": 0.5
            },
            {
                "$type": "KCBOGFFHPBD",
                "type": "BODY_LANG",
                "aliasList": [
                    "30413"
                ],
                "actionId": 122,
                "GPIEDGOMCGL": 4030,
                "FHLAMNNHMFA": true,
                "KCEHDJLKIAL": false,
                "KCOLHJBDILK": true,
                "AOFEDPBOOIE": ""
            }
        ],
        [
            {
                "$type": "BCJBNCJOPCE",
                "type": "CAMERA_MOVE",
                "duration": 2.0,
                "actionId": 138,
                "AKFGKKEOEFA": {
                    "x": 3622.458984375,
                    "y": 447.375,
                    "z": 4473.35986328125
                },
                "NGEBMAEFFGJ": {
                    "x": 3622.39892578125,
                    "y": 446.81500244140625,
                    "z": 4472.5341796875
                },
                "LIGHLBKBDEI": 55.87699890136719,
                "ABAEPHOGOFF": "EaseInOutQuart",
                "KFDBMBFFANN": {},
                "IEJBKHHEJEN": true,
                "GDHBGCNKHDE": 0.0010000000474974513,
                "KIPMIDIKECP": "",
                "BDLGHOJPJHD": "",
                "LCOJGFEOLCK": "",
                "BBBGAEDCJEL": ""
            },
            {
                "$type": "MoleMole.Config.ConfigTimeProtectAction",
                "type": "TIME_PROTECT",
                "duration": 2.0,
                "actionId": 139
            },
            {
                "$type": "CCEEIGNAILH",
                "type": "DIALOG_CLEAR",
                "actionId": 142
            },
            {
                "$type": "MoleMole.Config.ConfigAudioPlayAction",
                "type": "AUDIO_PLAY",
                "actionId": 143,
                "audioEventStr": "Play_ui_activity_Journey_Dice_WhooshIn"
            }
        ],
        [
            {
                "$type": "MoleMole.Config.ConfigUITriggerInterAction",
                "type": "UI_TRIGGER",
                "actionId": 118,
                "contextName": "ToyBattleQteSelectPage",
                "param": ""
            }
        ],
        [
            {
                "$type": "MoleMole.Config.ConfigTimeProtectAction",
                "type": "TIME_PROTECT",
                "duration": 0.10000000149011612,
                "actionId": 105
            },
            {
                "$type": "CNBNGFNKLGP",
                "type": "STEER_TO",
                "duration": 1.0,
                "aliasList": [
                    "30413"
                ],
                "actionId": 117,
                "flag": 32,
                "DEMFHGAIELL": "RETURN",
                "BBNLLCHBKAI": true,
                "COJBPJMLIFM": true,
                "NLIKMFJCLBP": true,
                "KIPMIDIKECP": "",
                "IDIIDHLNENJ": true,
                "FDLMFGAMGJK": true,
                "AOFBAGFCGPJ": ""
            }
        ]
    ],
    "groupId": [
        {
            "grpId": 530144246,
            "nextGrpId": 530144247
        },
        {
            "index": 1,
            "grpId": 530144247,
            "nextGrpId": 530144248
        },
        {
            "index": 2,
            "grpId": 530144248,
            "nextGrpId": 530144250
        },
        {
            "index": 3,
            "grpId": 530144249,
            "nextGrpId": 530144252
        },
        {
            "index": 4,
            "grpId": 530144250,
            "nextGrpId": 530144251
        },
        {
            "index": 5,
            "grpId": 530144251,
            "nextGrpId": 530144252
        },
        {
            "index": 6,
            "grpId": 530144252,
            "nextGrpId": 530144253
        }
    ],
    "freeStyleDic": {
        "30413": [
            1171,
            4030
        ]
    },
    "CKNKEEMIAPG": {
        "30413": [
            "SitChat01AS",
            "SitHoldArm01AS",
            "SitPutArm01AS",
            "SitRaiseHand01AS",
            "SitRead01AS"
        ]
    }
}