{
    "luaDataPath": "",
    "dontUseDefaultFinish": true,
    "startBlackKeepTime": 1.0,
    "entityBan": "",
    "disableNpcLod": true,
    "protectNpcMobileLod": true,
    "MNHFNFDCEFG": 1,
    "startFade": {
        "startFadeInDuration": 0.5,
        "startFadeOutDuration": 0.5
    },
    "endFade": {
        "startFadeOutDuration": 0.0
    },
    "actors": [
        {
            "alias": "Avatar",
            "visible": true,
            "bornPointName": "C1915406_N10000005",
            "relativePosType": "AVATAR_NEW",
            "relativePosNpcAlias": "",
            "bindMovingTargetKey": ""
        },
        {
            "configID": 512,
            "alias": "512",
            "visible": true,
            "bornPointName": "C1915406_N512",
            "relativePosType": "AVATAR_NEW",
            "relativePosNpcAlias": "",
            "bindMovingTargetKey": ""
        }
    ],
    "group": [
        [
            {
                "$type": "MoleMole.Config.ConfigTimeProtectAction",
                "type": "TIME_PROTECT",
                "duration": 0.5,
                "actionId": 157
            },
            {
                "$type": "MoleMole.Config.ConfigSimpleBlackScreenAction",
                "type": "SIMPLE_BLACK_SCREEN",
                "actionId": 158,
                "durationToBlack": 0.5,
                "durationKeepBlack": 1.0,
                "durationFromBlack": 0.5,
                "textMapID": "",
                "useTextFade": true
            },
            {
                "$type": "MoleMole.Config.ConfigTeleportToAction",
                "type": "TELEPORT_TO",
                "delayTime": 0.10000000149011612,
                "aliasList": [
                    "512"
                ],
                "actionId": 179,
                "position": {
                    "x": -916.47900390625,
                    "y": 204.42300415039062,
                    "z": 2617.155029296875
                },
                "forward": {
                    "x": 0.9860000014305115,
                    "z": -0.164000004529953
                },
                "openLongDisTeleport": true,
                "posBindMovingTargetKey": "",
                "forwardBindMovingTargetKey": ""
            },
            {
                "$type": "MoleMole.Config.ConfigTeleportToAction",
                "type": "TELEPORT_TO",
                "delayTime": 0.18299999833106995,
                "aliasList": [
                    "Avatar"
                ],
                "actionId": 181,
                "position": {
                    "x": -915.2059936523438,
                    "y": 204.38999938964844,
                    "z": 2618.22705078125
                },
                "forward": {
                    "x": -1.8259999752044678,
                    "y": 0.6990000009536743,
                    "z": -0.531000018119812
                },
                "openLongDisTeleport": true,
                "posBindMovingTargetKey": "",
                "forwardBindMovingTargetKey": ""
            },
            {
                "$type": "IBPNIIGAIPF",
                "type": "LOOK_AT",
                "delayTime": 0.20800000429153442,
                "aliasList": [
                    "512"
                ],
                "actionId": 183,
                "NDOMJCOFKDJ": 0.5,
                "KIPMIDIKECP": "",
                "FGPHOPBEJDE": true,
                "HJJAFGPMJNJ": "",
                "AOFBAGFCGPJ": ""
            },
            {
                "$type": "IBPNIIGAIPF",
                "type": "LOOK_AT",
                "delayTime": 0.24199999868869781,
                "aliasList": [
                    "Avatar"
                ],
                "actionId": 182,
                "NDOMJCOFKDJ": 0.5,
                "KIPMIDIKECP": "",
                "FGPHOPBEJDE": true,
                "HJJAFGPMJNJ": "",
                "AOFBAGFCGPJ": ""
            },
            {
                "$type": "MoleMole.Config.ConfigEmotionTemplateAction",
                "type": "EMOTION_TEMPLATE",
                "delayTime": 0.2750000059604645,
                "aliasList": [
                    "512"
                ],
                "actionId": 138,
                "emoTemplateID": 10100
            },
            {
                "$type": "MoleMole.Config.ConfigCameraDOFAction",
                "type": "CAMERA_DOF",
                "delayTime": 0.30000001192092896,
                "actionId": 102,
                "focusDistance": 6.0,
                "focusRange": 6.0,
                "quality": 3
            },
            {
                "$type": "MoleMole.Config.ConfigVisibleInterAction",
                "type": "VISIBLE",
                "delayTime": 0.30000001192092896,
                "aliasList": [
                    "Avatar"
                ],
                "actionId": 103,
                "extraParam": ""
            }
        ],
        [
            {
                "$type": "BCJBNCJOPCE",
                "type": "CAMERA_MOVE",
                "duration": 1.0,
                "actionId": 137,
                "KNAICGCGOHN": "RELATIVE_TO_TARGET_ENTITY",
                "KOPGEAIDOOE": "RELATIVE_TO_TARGET_ENTITY",
                "LIGHLBKBDEI": 30.0,
                "GFIOJGJJGCN": 6,
                "ABAEPHOGOFF": "EaseInOutCubic",
                "KFDBMBFFANN": {},
                "CEDHIBLHMKP": false,
                "KIPMIDIKECP": "512",
                "ANFHNPOCMNI": true,
                "BDLGHOJPJHD": "",
                "LCOJGFEOLCK": "",
                "BBBGAEDCJEL": ""
            },
            {
                "$type": "MoleMole.Config.ConfigEmotionTemplateAction",
                "type": "EMOTION_TEMPLATE",
                "aliasList": [
                    "512"
                ],
                "actionId": 139,
                "emoTemplateID": 10100
            },
            {
                "$type": "CCEEIGNAILH",
                "type": "DIALOG",
                "delayTime": 0.9919999837875366,
                "aliasList": [
                    "512"
                ],
                "actionId": 105,
                "KICBIOMGHIN": 191540301,
                "PNCCODDABKI": 0.5
            },
            {
                "$type": "DNAEECJNBFB",
                "type": "EMO_SYNC",
                "delayTime": 0.9919999837875366,
                "aliasList": [
                    "512"
                ],
                "actionId": 160,
                "EOGJDJKPPGE": "Cs_Emo_Avatar_Simple_Common_Set/Cs_Emo_Avatar_Talk/Cs_Emo_Coop_Common/Cs_Emo_Coop_Layla_01/Cs_Emo_191540301",
                "IHCBGPABDLE": "",
                "CIKPDMODFPL": "",
                "HDIAHFFHNGE": "",
                "BOAAGJEEFDD": "",
                "PFDPJKHPADE": "",
                "DALINBJAHOC": [
                    15742609746304179195,
                    13964824988698752799,
                    4654039333466258146,
                    2999264310496647645
                ]
            }
        ],
        [
            {
                "$type": "CCEEIGNAILH",
                "type": "DIALOG",
                "aliasList": [
                    "512"
                ],
                "actionId": 107,
                "KICBIOMGHIN": 191540302,
                "PNCCODDABKI": 0.5
            },
            {
                "$type": "MoleMole.Config.ConfigEmotionTemplateAction",
                "type": "EMOTION_TEMPLATE",
                "aliasList": [
                    "512"
                ],
                "actionId": 140,
                "emoTemplateID": 10101
            },
            {
                "$type": "DNAEECJNBFB",
                "type": "EMO_SYNC",
                "aliasList": [
                    "512"
                ],
                "actionId": 161,
                "EOGJDJKPPGE": "Cs_Emo_Avatar_Simple_Common_Set/Cs_Emo_Avatar_Talk/Cs_Emo_Coop_Common/Cs_Emo_Coop_Layla_01/Cs_Emo_191540302",
                "IHCBGPABDLE": "",
                "CIKPDMODFPL": "",
                "HDIAHFFHNGE": "",
                "BOAAGJEEFDD": "",
                "PFDPJKHPADE": "",
                "DALINBJAHOC": [
                    8627845950246953640,
                    17846428550449070739,
                    6292154333459251454,
                    10335470280499865737
                ]
            }
        ],
        [
            {
                "$type": "CCEEIGNAILH",
                "type": "DIALOG",
                "aliasList": [
                    "512"
                ],
                "actionId": 109,
                "KICBIOMGHIN": 191540303,
                "PNCCODDABKI": 0.5
            },
            {
                "$type": "DNAEECJNBFB",
                "type": "EMO_SYNC",
                "aliasList": [
                    "512"
                ],
                "actionId": 162,
                "EOGJDJKPPGE": "Cs_Emo_Avatar_Simple_Common_Set/Cs_Emo_Avatar_Talk/Cs_Emo_Coop_Common/Cs_Emo_Coop_Layla_01/Cs_Emo_191540303",
                "IHCBGPABDLE": "",
                "CIKPDMODFPL": "",
                "HDIAHFFHNGE": "",
                "BOAAGJEEFDD": "",
                "PFDPJKHPADE": "",
                "DALINBJAHOC": [
                    1106037643744308508,
                    3436707478583941850,
                    9031733679150460731,
                    6425366062713278044
                ]
            },
            {
                "$type": "MoleMole.Config.ConfigEmotionTemplateAction",
                "type": "EMOTION_TEMPLATE",
                "aliasList": [
                    "512"
                ],
                "actionId": 184,
                "emoTemplateID": 10100
            }
        ],
        [
            {
                "$type": "CCEEIGNAILH",
                "type": "DIALOG",
                "aliasList": [
                    "512"
                ],
                "actionId": 111,
                "KICBIOMGHIN": 191540304,
                "PNCCODDABKI": 0.5
            },
            {
                "$type": "DNAEECJNBFB",
                "type": "EMO_SYNC",
                "aliasList": [
                    "512"
                ],
                "actionId": 163,
                "EOGJDJKPPGE": "Cs_Emo_Avatar_Simple_Common_Set/Cs_Emo_Avatar_Talk/Cs_Emo_Coop_Common/Cs_Emo_Coop_Layla_01/Cs_Emo_191540304",
                "IHCBGPABDLE": "",
                "CIKPDMODFPL": "",
                "HDIAHFFHNGE": "",
                "BOAAGJEEFDD": "",
                "PFDPJKHPADE": "",
                "DALINBJAHOC": [
                    10650914634833471655,
                    4814261634259162508,
                    12852154846206945618,
                    3511219064815270865
                ]
            },
            {
                "$type": "MEKNGCBGKEJ",
                "type": "DIALOG_SELECT",
                "delayTime": 0.4000000059604645,
                "aliasList": [
                    "Avatar"
                ],
                "actionId": 112,
                "MLAABINGLAA": [
                    191540305
                ],
                "HPBPDBFGKID": [
                    2360702429
                ],
                "CFJOJADDHHG": true,
                "APEOOMIGHNL": 2360702423
            }
        ],
        [
            {
                "$type": "CCEEIGNAILH",
                "type": "DIALOG",
                "aliasList": [
                    "512"
                ],
                "actionId": 114,
                "KICBIOMGHIN": 191540306,
                "PNCCODDABKI": 0.5
            },
            {
                "$type": "DNAEECJNBFB",
                "type": "EMO_SYNC",
                "aliasList": [
                    "512"
                ],
                "actionId": 164,
                "EOGJDJKPPGE": "Cs_Emo_Avatar_Simple_Common_Set/Cs_Emo_Avatar_Talk/Cs_Emo_Coop_Common/Cs_Emo_Coop_Layla_01/Cs_Emo_191540306",
                "IHCBGPABDLE": "",
                "CIKPDMODFPL": "",
                "HDIAHFFHNGE": "",
                "BOAAGJEEFDD": "",
                "PFDPJKHPADE": "",
                "DALINBJAHOC": [
                    18247648404270360990,
                    11294872541560835048,
                    10512840460333157006,
                    16369115846942453885
                ]
            },
            {
                "$type": "MoleMole.Config.ConfigEmotionTemplateAction",
                "type": "EMOTION_TEMPLATE",
                "aliasList": [
                    "512"
                ],
                "actionId": 175,
                "emoTemplateID": 10601
            }
        ],
        [
            {
                "$type": "CCEEIGNAILH",
                "type": "DIALOG",
                "aliasList": [
                    "512"
                ],
                "actionId": 116,
                "KICBIOMGHIN": 191540307,
                "PNCCODDABKI": 0.5
            },
            {
                "$type": "DNAEECJNBFB",
                "type": "EMO_SYNC",
                "aliasList": [
                    "512"
                ],
                "actionId": 165,
                "EOGJDJKPPGE": "Cs_Emo_Avatar_Simple_Common_Set/Cs_Emo_Avatar_Talk/Cs_Emo_Coop_Common/Cs_Emo_Coop_Layla_01/Cs_Emo_191540307",
                "IHCBGPABDLE": "",
                "CIKPDMODFPL": "",
                "HDIAHFFHNGE": "",
                "BOAAGJEEFDD": "",
                "PFDPJKHPADE": "",
                "DALINBJAHOC": [
                    12903010314331184598,
                    10397421456020184334,
                    14134667608853522807,
                    11647684100106278261
                ]
            }
        ],
        [
            {
                "$type": "CCEEIGNAILH",
                "type": "DIALOG",
                "aliasList": [
                    "512"
                ],
                "actionId": 118,
                "KICBIOMGHIN": 191540308,
                "PNCCODDABKI": 0.5
            },
            {
                "$type": "DNAEECJNBFB",
                "type": "EMO_SYNC",
                "aliasList": [
                    "512"
                ],
                "actionId": 166,
                "EOGJDJKPPGE": "Cs_Emo_Avatar_Simple_Common_Set/Cs_Emo_Avatar_Talk/Cs_Emo_Coop_Common/Cs_Emo_Coop_Layla_01/Cs_Emo_191540308",
                "IHCBGPABDLE": "",
                "CIKPDMODFPL": "",
                "HDIAHFFHNGE": "",
                "BOAAGJEEFDD": "",
                "PFDPJKHPADE": "",
                "DALINBJAHOC": [
                    2337282260555392149,
                    7318222037210710579,
                    16479405068262931351,
                    16004880971218171973
                ]
            },
            {
                "$type": "MoleMole.Config.ConfigEmotionTemplateAction",
                "type": "EMOTION_TEMPLATE",
                "aliasList": [
                    "512"
                ],
                "actionId": 185,
                "emoTemplateID": 10100
            },
            {
                "$type": "MEKNGCBGKEJ",
                "type": "DIALOG_SELECT",
                "delayTime": 0.4000000059604645,
                "aliasList": [
                    "Avatar"
                ],
                "actionId": 119,
                "MLAABINGLAA": [
                    191540309
                ],
                "HPBPDBFGKID": [
                    2360702432
                ],
                "CFJOJADDHHG": true,
                "APEOOMIGHNL": 2360702423
            }
        ],
        [
            {
                "$type": "CCEEIGNAILH",
                "type": "DIALOG",
                "aliasList": [
                    "512"
                ],
                "actionId": 121,
                "KICBIOMGHIN": 191540310,
                "PNCCODDABKI": 0.5
            },
            {
                "$type": "DNAEECJNBFB",
                "type": "EMO_SYNC",
                "aliasList": [
                    "512"
                ],
                "actionId": 167,
                "EOGJDJKPPGE": "Cs_Emo_Avatar_Simple_Common_Set/Cs_Emo_Avatar_Talk/Cs_Emo_Coop_Common/Cs_Emo_Coop_Layla_01/Cs_Emo_191540310",
                "IHCBGPABDLE": "",
                "CIKPDMODFPL": "",
                "HDIAHFFHNGE": "",
                "BOAAGJEEFDD": "",
                "PFDPJKHPADE": "",
                "DALINBJAHOC": [
                    3403157742780552876,
                    3088792618914401906,
                    4151903766844263886,
                    10425448671829848771
                ]
            }
        ],
        [
            {
                "$type": "CCEEIGNAILH",
                "type": "DIALOG",
                "aliasList": [
                    "512"
                ],
                "actionId": 123,
                "KICBIOMGHIN": 191540311,
                "PNCCODDABKI": 0.5
            },
            {
                "$type": "DNAEECJNBFB",
                "type": "EMO_SYNC",
                "aliasList": [
                    "512"
                ],
                "actionId": 168,
                "EOGJDJKPPGE": "Cs_Emo_Avatar_Simple_Common_Set/Cs_Emo_Avatar_Talk/Cs_Emo_Coop_Common/Cs_Emo_Coop_Layla_01/Cs_Emo_191540311",
                "IHCBGPABDLE": "",
                "CIKPDMODFPL": "",
                "HDIAHFFHNGE": "",
                "BOAAGJEEFDD": "",
                "PFDPJKHPADE": "",
                "DALINBJAHOC": [
                    11999628515274511488,
                    499664449735667764,
                    18332608762354386872,
                    16197431354684941340
                ]
            }
        ],
        [
            {
                "$type": "CCEEIGNAILH",
                "type": "DIALOG",
                "aliasList": [
                    "512"
                ],
                "actionId": 125,
                "KICBIOMGHIN": 191540312,
                "PNCCODDABKI": 0.5
            },
            {
                "$type": "MoleMole.Config.ConfigEmotionTemplateAction",
                "type": "EMOTION_TEMPLATE",
                "aliasList": [
                    "512"
                ],
                "actionId": 151,
                "emoTemplateID": 10301
            },
            {
                "$type": "DNAEECJNBFB",
                "type": "EMO_SYNC",
                "aliasList": [
                    "512"
                ],
                "actionId": 169,
                "EOGJDJKPPGE": "Cs_Emo_Avatar_Simple_Common_Set/Cs_Emo_Avatar_Talk/Cs_Emo_Coop_Common/Cs_Emo_Coop_Layla_01/Cs_Emo_191540312",
                "IHCBGPABDLE": "",
                "CIKPDMODFPL": "",
                "HDIAHFFHNGE": "",
                "BOAAGJEEFDD": "",
                "PFDPJKHPADE": "",
                "DALINBJAHOC": [
                    16909067574581326850,
                    11722319193679316701,
                    661818682583038098,
                    6105439889693274782
                ]
            }
        ],
        [
            {
                "$type": "CCEEIGNAILH",
                "type": "DIALOG",
                "aliasList": [
                    "512"
                ],
                "actionId": 127,
                "KICBIOMGHIN": 191540313,
                "PNCCODDABKI": 0.5
            },
            {
                "$type": "DNAEECJNBFB",
                "type": "EMO_SYNC",
                "aliasList": [
                    "512"
                ],
                "actionId": 170,
                "EOGJDJKPPGE": "Cs_Emo_Avatar_Simple_Common_Set/Cs_Emo_Avatar_Talk/Cs_Emo_Coop_Common/Cs_Emo_Coop_Layla_01/Cs_Emo_191540313",
                "IHCBGPABDLE": "",
                "CIKPDMODFPL": "",
                "HDIAHFFHNGE": "",
                "BOAAGJEEFDD": "",
                "PFDPJKHPADE": "",
                "DALINBJAHOC": [
                    11227866662037984894,
                    3865079374970360786,
                    12544791266160987714,
                    1816183876829494916
                ]
            }
        ],
        [
            {
                "$type": "CCEEIGNAILH",
                "type": "DIALOG",
                "aliasList": [
                    "512"
                ],
                "actionId": 129,
                "KICBIOMGHIN": 191540314,
                "PNCCODDABKI": 0.5
            },
            {
                "$type": "DNAEECJNBFB",
                "type": "EMO_SYNC",
                "aliasList": [
                    "512"
                ],
                "actionId": 171,
                "EOGJDJKPPGE": "Cs_Emo_Avatar_Simple_Common_Set/Cs_Emo_Avatar_Talk/Cs_Emo_Coop_Common/Cs_Emo_Coop_Layla_01/Cs_Emo_191540314",
                "IHCBGPABDLE": "",
                "CIKPDMODFPL": "",
                "HDIAHFFHNGE": "",
                "BOAAGJEEFDD": "",
                "PFDPJKHPADE": "",
                "DALINBJAHOC": [
                    12461078537589196275,
                    13540228413517086129,
                    13615965697348572295,
                    7068202857268082928
                ]
            }
        ]
    ],
    "groupId": [
        {
            "grpId": 2360702424,
            "nextGrpId": 2360702425
        },
        {
            "index": 1,
            "grpId": 2360702425,
            "nextGrpId": 2360702426
        },
        {
            "index": 2,
            "grpId": 2360702426,
            "nextGrpId": 2360702427
        },
        {
            "index": 3,
            "grpId": 2360702427,
            "nextGrpId": 2360702428
        },
        {
            "index": 4,
            "grpId": 2360702428,
            "nextGrpId": 2360702429
        },
        {
            "index": 5,
            "grpId": 2360702429,
            "nextGrpId": 2360702430
        },
        {
            "index": 6,
            "grpId": 2360702430,
            "nextGrpId": 2360702431
        },
        {
            "index": 7,
            "grpId": 2360702431,
            "nextGrpId": 2360702432
        },
        {
            "index": 8,
            "grpId": 2360702432,
            "nextGrpId": 167331160
        },
        {
            "index": 9,
            "grpId": 167331160,
            "nextGrpId": 167331161
        },
        {
            "index": 10,
            "grpId": 167331161,
            "nextGrpId": 167331162
        },
        {
            "index": 11,
            "grpId": 167331162,
            "nextGrpId": 167331163
        },
        {
            "index": 12,
            "grpId": 167331163,
            "nextGrpId": 167331164
        }
    ],
    "freeStyleDic": {
        "512": [
            10100,
            10101,
            10601,
            10301
        ]
    }
}