{
    "luaDataPath": "",
    "dontUseDefaultFinish": true,
    "entityBan": "",
    "disableNpcLod": true,
    "protectNpcMobileLod": true,
    "MNHFNFDCEFG": 4,
    "startFade": {
        "startFadeOutDuration": 0.0
    },
    "endFade": {
        "startFadeOutDuration": 0.0
    },
    "actors": [
        {
            "alias": "Avatar",
            "visible": true,
            "bornPointName": "",
            "relativePosType": "AVATAR_NEW",
            "relativePosNpcAlias": "",
            "bindMovingTargetKey": ""
        },
        {
            "configID": 512,
            "alias": "512",
            "visible": true,
            "bornPointName": "",
            "relativePosType": "AVATAR_NEW",
            "relativePosNpcAlias": "",
            "bindMovingTargetKey": ""
        }
    ],
    "group": [
        [
            {
                "$type": "DNAEECJNBFB",
                "type": "EMO_SYNC",
                "aliasList": [
                    "Avatar"
                ],
                "actionId": 239,
                "EOGJDJKPPGE": "",
                "IHCBGPABDLE": "Cs_Emo_Avatar_Common/Cs_Emo_Avatar_Normal01",
                "CIKPDMODFPL": "Cs_Emo_Avatar_Common/Cs_Emo_Avatar_Normal01_B",
                "HDIAHFFHNGE": "",
                "BOAAGJEEFDD": "",
                "PFDPJKHPADE": "",
                "MIDKJONOACI": false,
                "MJAONEKDECJ": [
                    9445916536337636767,
                    14128686126614747219,
                    10779105391569104182,
                    11659242061757756269
                ],
                "DAALMFGCAOO": [
                    12958401574658666588,
                    15474241282904027449,
                    9323653209111416134,
                    8508374650737503979
                ]
            },
            {
                "$type": "IBPNIIGAIPF",
                "type": "LOOK_AT",
                "delayTime": 0.34200000762939453,
                "aliasList": [
                    "512"
                ],
                "actionId": 227,
                "GGIENKFBOGL": true,
                "useTargetPos": true,
                "GCOONJBHNIM": true,
                "JHNJNNOPJKG": {
                    "x": -118.4260025024414,
                    "y": 370.07000732421875,
                    "z": 3344.498046875
                },
                "NDOMJCOFKDJ": 0.5,
                "KIPMIDIKECP": "",
                "AHLPNEGAKGG": "NONE",
                "FGPHOPBEJDE": true,
                "HJJAFGPMJNJ": "",
                "AOFBAGFCGPJ": ""
            },
            {
                "$type": "CNBNGFNKLGP",
                "type": "STEER_TO",
                "delayTime": 0.3580000102519989,
                "duration": 1.0,
                "aliasList": [
                    "512"
                ],
                "actionId": 226,
                "DEMFHGAIELL": "ABSOLUTE",
                "KDKLEJFHDJG": {
                    "x": -118.302001953125,
                    "y": 368.9830017089844,
                    "z": 3345.1279296875
                },
                "BBNLLCHBKAI": true,
                "COJBPJMLIFM": true,
                "NLIKMFJCLBP": true,
                "KIPMIDIKECP": "",
                "IDIIDHLNENJ": true,
                "FDLMFGAMGJK": true,
                "AOFBAGFCGPJ": ""
            },
            {
                "$type": "CCEEIGNAILH",
                "type": "DIALOG",
                "delayTime": 1.5,
                "aliasList": [
                    "512"
                ],
                "actionId": 134,
                "KICBIOMGHIN": 191620315,
                "PNCCODDABKI": 3.5
            },
            {
                "$type": "DNAEECJNBFB",
                "type": "EMO_SYNC",
                "delayTime": 1.5,
                "aliasList": [
                    "512"
                ],
                "actionId": 209,
                "EOGJDJKPPGE": "Cs_Emo_Avatar_Simple_Common_Set/Cs_Emo_Avatar_Talk/Cs_Emo_Coop_Common/Cs_Emo_Coop_Layla_01/Cs_Emo_191620315",
                "IHCBGPABDLE": "",
                "CIKPDMODFPL": "",
                "HDIAHFFHNGE": "",
                "BOAAGJEEFDD": "",
                "PFDPJKHPADE": "",
                "DALINBJAHOC": [
                    11173344435752232943,
                    6683522608802681591,
                    6131192535973475110,
                    10417135447694488226
                ]
            },
            {
                "$type": "BCJBNCJOPCE",
                "type": "CAMERA_MOVE",
                "delayTime": 4.400000095367432,
                "duration": 0.5,
                "actionId": 229,
                "AKFGKKEOEFA": {
                    "x": -118.00499725341797,
                    "y": 369.82598876953125,
                    "z": 3345.89306640625
                },
                "NGEBMAEFFGJ": {
                    "x": -118.25900268554688,
                    "y": 369.9429931640625,
                    "z": 3344.93310546875
                },
                "LIGHLBKBDEI": 25.0,
                "GFIOJGJJGCN": 6,
                "ABAEPHOGOFF": "EaseInOutCubic",
                "KFDBMBFFANN": {},
                "IEJBKHHEJEN": true,
                "CEDHIBLHMKP": false,
                "KIPMIDIKECP": "",
                "ANFHNPOCMNI": true,
                "BDLGHOJPJHD": "",
                "LCOJGFEOLCK": "",
                "BBBGAEDCJEL": ""
            },
            {
                "$type": "BCJBNCJOPCE",
                "type": "CAMERA_MOVE",
                "delayTime": 4.5,
                "duration": 5.0,
                "actionId": 236,
                "AKFGKKEOEFA": {
                    "x": -118.04299926757812,
                    "y": 369.85400390625,
                    "z": 3345.761962890625
                },
                "NGEBMAEFFGJ": {
                    "x": -118.2969970703125,
                    "y": 369.97100830078125,
                    "z": 3344.802001953125
                },
                "LIGHLBKBDEI": 25.0,
                "ABAEPHOGOFF": "EaseOutQuad",
                "KFDBMBFFANN": {},
                "IEJBKHHEJEN": true,
                "CEDHIBLHMKP": false,
                "KIPMIDIKECP": "",
                "ANFHNPOCMNI": true,
                "BDLGHOJPJHD": "",
                "LCOJGFEOLCK": "",
                "BBBGAEDCJEL": ""
            },
            {
                "$type": "MoleMole.Config.ConfigEmotionTemplateAction",
                "type": "EMOTION_TEMPLATE",
                "delayTime": 4.675000190734863,
                "aliasList": [
                    "512"
                ],
                "actionId": 235,
                "emoTemplateID": 10100
            },
            {
                "$type": "KCBOGFFHPBD",
                "type": "BODY_LANG",
                "delayTime": 4.875,
                "aliasList": [
                    "Avatar"
                ],
                "actionId": 242,
                "GPIEDGOMCGL": 1230,
                "FHLAMNNHMFA": true,
                "KCEHDJLKIAL": false,
                "KCOLHJBDILK": true,
                "AOFEDPBOOIE": ""
            },
            {
                "$type": "DNAEECJNBFB",
                "type": "EMO_SYNC",
                "delayTime": 5.150000095367432,
                "aliasList": [
                    "Avatar"
                ],
                "actionId": 240,
                "EOGJDJKPPGE": "",
                "IHCBGPABDLE": "Cs_Emo_Avatar_Common/Cs_Emo_Avatar_Default01",
                "CIKPDMODFPL": "Cs_Emo_Avatar_Common/Cs_Emo_Avatar_Gentle02_B",
                "HDIAHFFHNGE": "",
                "BOAAGJEEFDD": "",
                "PFDPJKHPADE": "",
                "MJAONEKDECJ": [
                    1010565500959774114,
                    17914558573000180712,
                    14498871351621154070,
                    14348654671849899985
                ],
                "DAALMFGCAOO": [
                    14520040184706093429,
                    7387122402727004040,
                    16230554513678375496,
                    329794876683026767
                ]
            }
        ],
        [
            {
                "$type": "BCJBNCJOPCE",
                "type": "CAMERA_MOVE",
                "duration": 1.0,
                "actionId": 230,
                "KNAICGCGOHN": "RELATIVE_TO_TARGET_ENTITY",
                "KOPGEAIDOOE": "RELATIVE_TO_TARGET_ENTITY",
                "LIGHLBKBDEI": 30.0,
                "GFIOJGJJGCN": 6,
                "ABAEPHOGOFF": "EaseInOutCubic",
                "KFDBMBFFANN": {},
                "CEDHIBLHMKP": false,
                "KIPMIDIKECP": "512",
                "ANFHNPOCMNI": true,
                "EOJAGOJMCMG": true,
                "NNKINIIGLJB": "CUT_GRASS",
                "BDLGHOJPJHD": "",
                "LCOJGFEOLCK": "",
                "BBBGAEDCJEL": ""
            },
            {
                "$type": "MoleMole.Config.ConfigVisibleInterAction",
                "type": "VISIBLE",
                "aliasList": [
                    "Avatar"
                ],
                "actionId": 228,
                "extraParam": ""
            },
            {
                "$type": "CCEEIGNAILH",
                "type": "DIALOG",
                "aliasList": [
                    "512"
                ],
                "actionId": 136,
                "KICBIOMGHIN": 191620316,
                "PNCCODDABKI": 0.5
            },
            {
                "$type": "MoleMole.Config.ConfigEmotionTemplateAction",
                "type": "EMOTION_TEMPLATE",
                "aliasList": [
                    "512"
                ],
                "actionId": 181,
                "emoTemplateID": 10101
            },
            {
                "$type": "DNAEECJNBFB",
                "type": "EMO_SYNC",
                "aliasList": [
                    "512"
                ],
                "actionId": 210,
                "EOGJDJKPPGE": "Cs_Emo_Avatar_Simple_Common_Set/Cs_Emo_Avatar_Talk/Cs_Emo_Coop_Common/Cs_Emo_Coop_Layla_01/Cs_Emo_191620316",
                "IHCBGPABDLE": "",
                "CIKPDMODFPL": "",
                "HDIAHFFHNGE": "",
                "BOAAGJEEFDD": "",
                "PFDPJKHPADE": "",
                "DALINBJAHOC": [
                    15396811504348805564,
                    12160146417769333204,
                    18245587462693523287,
                    6814636415885696031
                ]
            },
            {
                "$type": "IBPNIIGAIPF",
                "type": "LOOK_AT",
                "aliasList": [
                    "512"
                ],
                "actionId": 237,
                "NDOMJCOFKDJ": 0.5,
                "KIPMIDIKECP": "",
                "FGPHOPBEJDE": true,
                "HJJAFGPMJNJ": "",
                "AOFBAGFCGPJ": ""
            }
        ],
        [
            {
                "$type": "CCEEIGNAILH",
                "type": "DIALOG",
                "aliasList": [
                    "512"
                ],
                "actionId": 138,
                "KICBIOMGHIN": 191620317,
                "PNCCODDABKI": 0.5
            },
            {
                "$type": "DNAEECJNBFB",
                "type": "EMO_SYNC",
                "aliasList": [
                    "512"
                ],
                "actionId": 211,
                "EOGJDJKPPGE": "Cs_Emo_Avatar_Simple_Common_Set/Cs_Emo_Avatar_Talk/Cs_Emo_Coop_Common/Cs_Emo_Coop_Layla_01/Cs_Emo_191620317",
                "IHCBGPABDLE": "",
                "CIKPDMODFPL": "",
                "HDIAHFFHNGE": "",
                "BOAAGJEEFDD": "",
                "PFDPJKHPADE": "",
                "DALINBJAHOC": [
                    364425940052676492,
                    6112031275689092487,
                    5956640517198103748,
                    8034668595293678852
                ]
            }
        ],
        [
            {
                "$type": "CCEEIGNAILH",
                "type": "DIALOG",
                "aliasList": [
                    "512"
                ],
                "actionId": 140,
                "KICBIOMGHIN": 191620318,
                "PNCCODDABKI": 0.5
            },
            {
                "$type": "MoleMole.Config.ConfigEmotionTemplateAction",
                "type": "EMOTION_TEMPLATE",
                "aliasList": [
                    "512"
                ],
                "actionId": 184,
                "emoTemplateID": 10100
            },
            {
                "$type": "DNAEECJNBFB",
                "type": "EMO_SYNC",
                "aliasList": [
                    "512"
                ],
                "actionId": 212,
                "EOGJDJKPPGE": "Cs_Emo_Avatar_Simple_Common_Set/Cs_Emo_Avatar_Talk/Cs_Emo_Coop_Common/Cs_Emo_Coop_Layla_01/Cs_Emo_191620318",
                "IHCBGPABDLE": "",
                "CIKPDMODFPL": "",
                "HDIAHFFHNGE": "",
                "BOAAGJEEFDD": "",
                "PFDPJKHPADE": "",
                "DALINBJAHOC": [
                    4721959227607503887,
                    12218478213323107256,
                    5666195869491920955,
                    4725961134075205964
                ]
            },
            {
                "$type": "MEKNGCBGKEJ",
                "type": "DIALOG_SELECT",
                "delayTime": 0.4000000059604645,
                "aliasList": [
                    "Avatar"
                ],
                "actionId": 141,
                "MLAABINGLAA": [
                    191620319,
                    191620320
                ],
                "HPBPDBFGKID": [
                    2387454746,
                    2387454746
                ],
                "CFJOJADDHHG": true,
                "APEOOMIGHNL": 2387454741
            }
        ],
        [
            {
                "$type": "MoleMole.Config.ConfigLuaAction",
                "type": "LUA_ACTION",
                "duration": 0.10000000149011612,
                "actionId": 142,
                "invokeAlias": ""
            }
        ]
    ],
    "groupId": [
        {
            "grpId": 2387454742,
            "nextGrpId": 2387454743
        },
        {
            "index": 1,
            "grpId": 2387454743,
            "nextGrpId": 2387454744
        },
        {
            "index": 2,
            "grpId": 2387454744,
            "nextGrpId": 2387454745
        },
        {
            "index": 3,
            "grpId": 2387454745,
            "nextGrpId": 2387454746
        },
        {
            "index": 4,
            "grpId": 2387454746,
            "nextGrpId": 2387454747
        }
    ],
    "freeStyleDic": {
        "512": [
            10100,
            10101
        ]
    }
}