{
    "CDAPJOFADEN": {
        "Slime_01": {
            "LAJLEBEPDEC": 1
        },
        "Slime_02": {
            "LAJLEBEPDEC": 1
        },
        "Slime_03": {
            "LAJLEBEPDEC": 1
        },
        "Slime_04": {
            "LAJLEBEPDEC": 1
        },
        "Gooba_01": {
            "LAJLEBEPDEC": 4
        },
        "Shikishogun_01": {
            "LAJLEBEPDEC": 5
        },
        "Sylph_01": {
            "LAJLEBEPDEC": 3
        },
        "Sylph_02": {
            "LAJLEBEPDEC": 3
        },
        "Sylph_03": {
            "LAJLEBEPDEC": 3
        },
        "Sylph_04": {
            "LAJLEBEPDEC": 3
        },
        "Sylph_05": {
            "LAJLEBEPDEC": 3
        },
        "Sylph_06": {
            "LAJLEBEPDEC": 3
        },
        "Sylph_07": {
            "LAJLEBEPDEC": 3
        },
        "Hilistray_Slime_01": {
            "LAJLEBEPDEC": 6
        },
        "Hilistray_Slime_02": {
            "LAJLEBEPDEC": 6
        }
    },
    "APOLJBAOFDK": {
        "1": {
            "IBHBDLEPPLL": "Build/Entity/FaceAnimation/Slime"
        },
        "2": {
            "IBHBDLEPPLL": "Build/Entity/FaceAnimation/Slime"
        },
        "3": {
            "IBHBDLEPPLL": "Build/Entity/FaceAnimation/Sylph"
        },
        "4": {
            "IBHBDLEPPLL": "Build/Entity/FaceAnimation/Gooba"
        },
        "5": {
            "IBHBDLEPPLL": "Build/Entity/FaceAnimation/Shikishogun"
        },
        "6": {
            "IBHBDLEPPLL": "Build/Entity/FaceAnimation/Hilistray_Slime"
        }
    }
}