{
    "luaDataPath": "",
    "entityBan": "",
    "disableNpcLod": true,
    "startFade": {
        "startFadeOutDuration": 0.0
    },
    "endFade": {
        "startFadeOutDuration": 0.0
    },
    "actors": [
        {
            "alias": "Avatar",
            "visible": true,
            "bornPointName": "",
            "relativePosNpcAlias": "",
            "bindMovingTargetKey": ""
        },
        {
            "configID": 2061,
            "alias": "2061",
            "visible": true,
            "bornPointName": "",
            "relativePosNpcAlias": "",
            "bindMovingTargetKey": ""
        },
        {
            "configID": 1005,
            "alias": "1005",
            "visible": true,
            "bornPointName": "",
            "useRelativePos": true,
            "relativePos": {
                "x": -0.5,
                "z": 0.5
            },
            "removeActorType": "REMOVE_WITH_DISAPPEAR",
            "relativePosNpcAlias": "",
            "bindMovingTargetKey": ""
        }
    ],
    "group": [
        [
            {
                "$type": "MoleMole.Config.ConfigTimeProtectAction",
                "type": "TIME_PROTECT",
                "duration": 0.10000000149011612
            },
            {
                "$type": "CNBNGFNKLGP",
                "type": "STEER_TO",
                "delayTime": 0.06700000166893005,
                "duration": 1.0,
                "aliasList": [
                    "1005"
                ],
                "DEMFHGAIELL": "TO_TARGET",
                "BBNLLCHBKAI": true,
                "COJBPJMLIFM": true,
                "NLIKMFJCLBP": true,
                "KIPMIDIKECP": "2061",
                "AOFBAGFCGPJ": ""
            }
        ],
        [
            {
                "$type": "CCEEIGNAILH",
                "type": "DIALOG",
                "aliasList": [
                    "2061"
                ],
                "KICBIOMGHIN": 710740201,
                "PNCCODDABKI": 0.5
            },
            {
                "$type": "KCBOGFFHPBD",
                "type": "BODY_LANG",
                "delayTime": 0.40799999237060547,
                "aliasList": [
                    "2061"
                ],
                "GPIEDGOMCGL": 1240,
                "FHLAMNNHMFA": true,
                "KCEHDJLKIAL": false,
                "AOFEDPBOOIE": ""
            }
        ],
        [
            {
                "$type": "CCEEIGNAILH",
                "type": "DIALOG",
                "aliasList": [
                    "2061"
                ],
                "KICBIOMGHIN": 710740202,
                "PNCCODDABKI": 0.5
            }
        ],
        [
            {
                "$type": "CCEEIGNAILH",
                "type": "DIALOG",
                "aliasList": [
                    "1005"
                ],
                "KICBIOMGHIN": 710740203,
                "PNCCODDABKI": 0.5
            },
            {
                "$type": "KCBOGFFHPBD",
                "type": "BODY_LANG",
                "delayTime": 0.10599999874830246,
                "aliasList": [
                    "1005"
                ],
                "GPIEDGOMCGL": 1200,
                "FHLAMNNHMFA": true,
                "KCEHDJLKIAL": false,
                "AOFEDPBOOIE": ""
            }
        ],
        [
            {
                "$type": "CCEEIGNAILH",
                "type": "DIALOG",
                "aliasList": [
                    "2061"
                ],
                "KICBIOMGHIN": 710740204,
                "PNCCODDABKI": 0.5
            },
            {
                "$type": "CNBNGFNKLGP",
                "type": "STEER_TO",
                "delayTime": 0.07500000298023224,
                "duration": 1.0,
                "aliasList": [
                    "2061"
                ],
                "DEMFHGAIELL": "TO_LOCAL_AVATAR",
                "BBNLLCHBKAI": true,
                "COJBPJMLIFM": true,
                "NLIKMFJCLBP": true,
                "KIPMIDIKECP": "",
                "AOFBAGFCGPJ": ""
            }
        ],
        [
            {
                "$type": "CCEEIGNAILH",
                "type": "DIALOG",
                "aliasList": [
                    "2061"
                ],
                "KICBIOMGHIN": 710740205,
                "PNCCODDABKI": 0.5
            },
            {
                "$type": "KCBOGFFHPBD",
                "type": "BODY_LANG",
                "delayTime": 0.09200000017881393,
                "aliasList": [
                    "2061"
                ],
                "GPIEDGOMCGL": 1150,
                "FHLAMNNHMFA": true,
                "KCEHDJLKIAL": false,
                "AOFEDPBOOIE": ""
            }
        ],
        [
            {
                "$type": "CCEEIGNAILH",
                "type": "DIALOG",
                "aliasList": [
                    "1005"
                ],
                "KICBIOMGHIN": 710740206,
                "PNCCODDABKI": 0.5
            },
            {
                "$type": "MEKNGCBGKEJ",
                "type": "DIALOG_SELECT",
                "delayTime": 0.4000000059604645,
                "aliasList": [
                    "Avatar"
                ],
                "MLAABINGLAA": [
                    710740207,
                    710740208
                ],
                "HPBPDBFGKID": [
                    376345337,
                    376345337
                ],
                "CFJOJADDHHG": true
            }
        ],
        [
            {
                "$type": "CCEEIGNAILH",
                "type": "DIALOG",
                "aliasList": [
                    "2061"
                ],
                "KICBIOMGHIN": 710740209,
                "PNCCODDABKI": 0.5
            },
            {
                "$type": "KCBOGFFHPBD",
                "type": "BODY_LANG",
                "delayTime": 0.14100000262260437,
                "aliasList": [
                    "2061"
                ],
                "GPIEDGOMCGL": 1240,
                "FHLAMNNHMFA": true,
                "KCEHDJLKIAL": false,
                "AOFEDPBOOIE": ""
            }
        ],
        [
            {
                "$type": "CCEEIGNAILH",
                "type": "DIALOG",
                "aliasList": [
                    "2061"
                ],
                "KICBIOMGHIN": 710740210,
                "PNCCODDABKI": 0.5
            }
        ],
        [
            {
                "$type": "CCEEIGNAILH",
                "type": "DIALOG",
                "aliasList": [
                    "2061"
                ],
                "KICBIOMGHIN": 710740211,
                "PNCCODDABKI": 0.5
            }
        ],
        [
            {
                "$type": "CCEEIGNAILH",
                "type": "DIALOG",
                "aliasList": [
                    "1005"
                ],
                "KICBIOMGHIN": 710740212,
                "PNCCODDABKI": 0.5
            },
            {
                "$type": "KCBOGFFHPBD",
                "type": "BODY_LANG",
                "delayTime": 0.12700000405311584,
                "aliasList": [
                    "1005"
                ],
                "GPIEDGOMCGL": 1190,
                "FHLAMNNHMFA": true,
                "KCEHDJLKIAL": false,
                "AOFEDPBOOIE": ""
            }
        ],
        [
            {
                "$type": "CCEEIGNAILH",
                "type": "DIALOG",
                "aliasList": [
                    "2061"
                ],
                "KICBIOMGHIN": 710740213,
                "PNCCODDABKI": 0.5
            },
            {
                "$type": "KCBOGFFHPBD",
                "type": "BODY_LANG",
                "delayTime": 0.21699999272823334,
                "aliasList": [
                    "2061"
                ],
                "GPIEDGOMCGL": 1171,
                "FHLAMNNHMFA": true,
                "KCEHDJLKIAL": false,
                "AOFEDPBOOIE": ""
            }
        ],
        [
            {
                "$type": "CCEEIGNAILH",
                "type": "DIALOG",
                "aliasList": [
                    "2061"
                ],
                "KICBIOMGHIN": 710740214,
                "PNCCODDABKI": 0.5
            }
        ],
        [
            {
                "$type": "CCEEIGNAILH",
                "type": "DIALOG",
                "aliasList": [
                    "2061"
                ],
                "KICBIOMGHIN": 710740215,
                "PNCCODDABKI": 0.5
            }
        ],
        [
            {
                "$type": "CCEEIGNAILH",
                "type": "DIALOG",
                "aliasList": [
                    "1005"
                ],
                "KICBIOMGHIN": 710740216,
                "PNCCODDABKI": 0.5
            },
            {
                "$type": "KCBOGFFHPBD",
                "type": "BODY_LANG",
                "delayTime": 0.2770000100135803,
                "aliasList": [
                    "1005"
                ],
                "GPIEDGOMCGL": 1170,
                "FHLAMNNHMFA": true,
                "KCEHDJLKIAL": false,
                "AOFEDPBOOIE": ""
            }
        ],
        [
            {
                "$type": "CCEEIGNAILH",
                "type": "DIALOG",
                "aliasList": [
                    "2061"
                ],
                "KICBIOMGHIN": 710740217,
                "PNCCODDABKI": 0.5
            },
            {
                "$type": "KCBOGFFHPBD",
                "type": "BODY_LANG",
                "delayTime": 0.125,
                "aliasList": [
                    "2061"
                ],
                "GPIEDGOMCGL": 1150,
                "FHLAMNNHMFA": true,
                "KCEHDJLKIAL": false,
                "AOFEDPBOOIE": ""
            }
        ],
        [
            {
                "$type": "CCEEIGNAILH",
                "type": "DIALOG",
                "aliasList": [
                    "1005"
                ],
                "KICBIOMGHIN": 710740218,
                "PNCCODDABKI": 0.5
            }
        ],
        [
            {
                "$type": "CCEEIGNAILH",
                "type": "DIALOG",
                "aliasList": [
                    "2061"
                ],
                "KICBIOMGHIN": 710740219,
                "PNCCODDABKI": 0.5
            },
            {
                "$type": "KCBOGFFHPBD",
                "type": "BODY_LANG",
                "delayTime": 0.3409999907016754,
                "aliasList": [
                    "2061"
                ],
                "GPIEDGOMCGL": 1171,
                "FHLAMNNHMFA": true,
                "KCEHDJLKIAL": false,
                "AOFEDPBOOIE": ""
            }
        ],
        [
            {
                "$type": "CCEEIGNAILH",
                "type": "DIALOG",
                "aliasList": [
                    "2061"
                ],
                "KICBIOMGHIN": 710740220,
                "PNCCODDABKI": 0.5
            }
        ],
        [
            {
                "$type": "CCEEIGNAILH",
                "type": "DIALOG",
                "aliasList": [
                    "2061"
                ],
                "KICBIOMGHIN": 710740221,
                "PNCCODDABKI": 0.5
            },
            {
                "$type": "KCBOGFFHPBD",
                "type": "BODY_LANG",
                "delayTime": 0.13300000131130219,
                "aliasList": [
                    "2061"
                ],
                "GPIEDGOMCGL": 1173,
                "FHLAMNNHMFA": true,
                "KCEHDJLKIAL": false,
                "AOFEDPBOOIE": ""
            }
        ],
        [
            {
                "$type": "CCEEIGNAILH",
                "type": "DIALOG",
                "aliasList": [
                    "1005"
                ],
                "KICBIOMGHIN": 710740222,
                "PNCCODDABKI": 0.5
            },
            {
                "$type": "KCBOGFFHPBD",
                "type": "BODY_LANG",
                "delayTime": 0.10000000149011612,
                "aliasList": [
                    "1005"
                ],
                "GPIEDGOMCGL": 1060,
                "FHLAMNNHMFA": true,
                "KCEHDJLKIAL": false,
                "AOFEDPBOOIE": ""
            }
        ],
        [
            {
                "$type": "CCEEIGNAILH",
                "type": "DIALOG",
                "aliasList": [
                    "2061"
                ],
                "KICBIOMGHIN": 710740223,
                "PNCCODDABKI": 0.5
            }
        ],
        [
            {
                "$type": "CCEEIGNAILH",
                "type": "DIALOG",
                "aliasList": [
                    "2061"
                ],
                "KICBIOMGHIN": 710740224,
                "PNCCODDABKI": 0.5
            },
            {
                "$type": "KCBOGFFHPBD",
                "type": "BODY_LANG",
                "delayTime": 0.15800000727176666,
                "aliasList": [
                    "2061"
                ],
                "GPIEDGOMCGL": 1171,
                "FHLAMNNHMFA": true,
                "KCEHDJLKIAL": false,
                "AOFEDPBOOIE": ""
            }
        ],
        [
            {
                "$type": "CCEEIGNAILH",
                "type": "DIALOG",
                "aliasList": [
                    "1005"
                ],
                "KICBIOMGHIN": 710740225,
                "PNCCODDABKI": 0.5
            }
        ],
        [
            {
                "$type": "MoleMole.Config.ConfigTimeProtectAction",
                "type": "TIME_PROTECT",
                "duration": 0.10000000149011612
            },
            {
                "$type": "CNBNGFNKLGP",
                "type": "STEER_TO",
                "delayTime": 0.367000013589859,
                "duration": 1.0,
                "aliasList": [
                    "2061"
                ],
                "DEMFHGAIELL": "RETURN",
                "BBNLLCHBKAI": true,
                "COJBPJMLIFM": true,
                "NLIKMFJCLBP": true,
                "KIPMIDIKECP": "",
                "AOFBAGFCGPJ": ""
            }
        ]
    ],
    "groupId": [
        {
            "grpId": 376345330,
            "nextGrpId": 376345331
        },
        {
            "index": 1,
            "grpId": 376345331,
            "nextGrpId": 376345332
        },
        {
            "index": 2,
            "grpId": 376345332,
            "nextGrpId": 376345333
        },
        {
            "index": 3,
            "grpId": 376345333,
            "nextGrpId": 376345334
        },
        {
            "index": 4,
            "grpId": 376345334,
            "nextGrpId": 376345335
        },
        {
            "index": 5,
            "grpId": 376345335,
            "nextGrpId": 376345336
        },
        {
            "index": 6,
            "grpId": 376345336,
            "nextGrpId": 376345337
        },
        {
            "index": 7,
            "grpId": 376345337,
            "nextGrpId": 376345338
        },
        {
            "index": 8,
            "grpId": 376345338,
            "nextGrpId": 3076770686
        },
        {
            "index": 9,
            "grpId": 3076770686,
            "nextGrpId": 3076770687
        },
        {
            "index": 10,
            "grpId": 3076770687,
            "nextGrpId": 3076770688
        },
        {
            "index": 11,
            "grpId": 3076770688,
            "nextGrpId": 3076770689
        },
        {
            "index": 12,
            "grpId": 3076770689,
            "nextGrpId": 3076770690
        },
        {
            "index": 13,
            "grpId": 3076770690,
            "nextGrpId": 3076770691
        },
        {
            "index": 14,
            "grpId": 3076770691,
            "nextGrpId": 3076770692
        },
        {
            "index": 15,
            "grpId": 3076770692,
            "nextGrpId": 3076770693
        },
        {
            "index": 16,
            "grpId": 3076770693,
            "nextGrpId": 3076770694
        },
        {
            "index": 17,
            "grpId": 3076770694,
            "nextGrpId": 3076770695
        },
        {
            "index": 18,
            "grpId": 3076770695,
            "nextGrpId": 3076770717
        },
        {
            "index": 19,
            "grpId": 3076770717,
            "nextGrpId": 3076770718
        },
        {
            "index": 20,
            "grpId": 3076770718,
            "nextGrpId": 3076770719
        },
        {
            "index": 21,
            "grpId": 3076770719,
            "nextGrpId": 3076770720
        },
        {
            "index": 22,
            "grpId": 3076770720,
            "nextGrpId": 3076770721
        },
        {
            "index": 23,
            "grpId": 3076770721,
            "nextGrpId": 3076770722
        },
        {
            "index": 24,
            "grpId": 3076770722,
            "nextGrpId": 3076770723
        }
    ],
    "freeStyleDic": {
        "2061": [
            1240,
            1150,
            1171,
            1173
        ]
    }
}