{
    "talkId": 6840910,
    "type": "GADGET",
    "dialogList": [
        {
            "id": 684091001,
            "nextDialogs": [
                684091002
            ],
            "talkRole": {
                "type": "TALK_ROLE_GADGET",
                "id": "707111181"
            },
            "talkContentTextMapHash": 379560874,
            "talkRoleNameTextMapHash": 1173631179,
            "talkAssetPath": "",
            "talkAssetPathAlter": "",
            "talkAudioName": "",
            "actionBefore": "",
            "actionWhile": "",
            "actionAfter": "",
            "optionIcon": ""
        },
        {
            "id": 684091002,
            "nextDialogs": [
                684091003
            ],
            "talkRole": {
                "type": "TALK_ROLE_GADGET",
                "id": "707111181"
            },
            "talkContentTextMapHash": 2026184114,
            "talkRoleNameTextMapHash": 3110109331,
            "talkAssetPath": "",
            "talkAssetPathAlter": "",
            "talkAudioName": "",
            "actionBefore": "",
            "actionWhile": "",
            "actionAfter": "",
            "optionIcon": ""
        },
        {
            "id": 684091003,
            "nextDialogs": [
                684091004
            ],
            "talkRole": {
                "type": "TALK_ROLE_GADGET",
                "id": "707111181"
            },
            "talkContentTextMapHash": 483481090,
            "talkRoleNameTextMapHash": 3643065995,
            "talkAssetPath": "",
            "talkAssetPathAlter": "",
            "talkAudioName": "",
            "actionBefore": "",
            "actionWhile": "",
            "actionAfter": "",
            "optionIcon": ""
        },
        {
            "id": 684091004,
            "talkRole": {
                "type": "TALK_ROLE_GADGET",
                "id": "707111181"
            },
            "talkContentTextMapHash": 3817446562,
            "talkRoleNameTextMapHash": 1854892475,
            "talkAssetPath": "",
            "talkAssetPathAlter": "",
            "talkAudioName": "",
            "actionBefore": "",
            "actionWhile": "",
            "actionAfter": "",
            "optionIcon": ""
        }
    ]
}