{
    "talkId": 6840200,
    "type": "GADGET",
    "dialogList": [
        {
            "id": 684020001,
            "nextDialogs": [
                684020002
            ],
            "talkRole": {
                "type": "TALK_ROLE_GADGET",
                "id": "707111181"
            },
            "talkContentTextMapHash": 1391820402,
            "talkRoleNameTextMapHash": 586756715,
            "talkAssetPath": "",
            "talkAssetPathAlter": "",
            "talkAudioName": "",
            "actionBefore": "",
            "actionWhile": "",
            "actionAfter": "",
            "optionIcon": ""
        },
        {
            "id": 684020002,
            "talkRole": {
                "type": "TALK_ROLE_GADGET",
                "id": "707111181"
            },
            "talkContentTextMapHash": 2266849658,
            "talkRoleNameTextMapHash": 4058454995,
            "talkAssetPath": "",
            "talkAssetPathAlter": "",
            "talkAudioName": "",
            "actionBefore": "",
            "actionWhile": "",
            "actionAfter": "",
            "optionIcon": ""
        }
    ]
}