{
    "talkId": 6840819,
    "type": "GADGET",
    "dialogList": [
        {
            "id": 684081901,
            "nextDialogs": [
                684081902
            ],
            "talkRole": {
                "type": "TALK_ROLE_GADGET",
                "id": "707111132"
            },
            "talkContentTextMapHash": 264694954,
            "talkRoleNameTextMapHash": 1481791899,
            "talkAssetPath": "",
            "talkAssetPathAlter": "",
            "talkAudioName": "",
            "actionBefore": "",
            "actionWhile": "",
            "actionAfter": "",
            "optionIcon": ""
        },
        {
            "id": 684081902,
            "nextDialogs": [
                684081903
            ],
            "talkRole": {
                "type": "TALK_ROLE_GADGET",
                "id": "707111132"
            },
            "talkContentTextMapHash": 1423972762,
            "talkRoleNameTextMapHash": 3036844443,
            "talkAssetPath": "",
            "talkAssetPathAlter": "",
            "talkAudioName": "",
            "actionBefore": "",
            "actionWhile": "",
            "actionAfter": "",
            "optionIcon": ""
        },
        {
            "id": 684081903,
            "nextDialogs": [
                684081904
            ],
            "talkRole": {
                "type": "TALK_ROLE_GADGET",
                "id": "707111132"
            },
            "talkContentTextMapHash": 801482770,
            "talkRoleNameTextMapHash": 3514638371,
            "talkAssetPath": "",
            "talkAssetPathAlter": "",
            "talkAudioName": "",
            "actionBefore": "",
            "actionWhile": "",
            "actionAfter": "",
            "optionIcon": ""
        },
        {
            "id": 684081904,
            "talkRole": {
                "type": "TALK_ROLE_GADGET",
                "id": "707111132"
            },
            "talkContentTextMapHash": 1193035410,
            "talkRoleNameTextMapHash": 2966721027,
            "talkAssetPath": "",
            "talkAssetPathAlter": "",
            "talkAudioName": "",
            "actionBefore": "",
            "actionWhile": "",
            "actionAfter": "",
            "optionIcon": ""
        }
    ]
}