{
    "talkId": 6842103,
    "type": "GADGET",
    "dialogList": [
        {
            "id": 684210301,
            "nextDialogs": [
                684210302
            ],
            "talkRole": {
                "type": "TALK_ROLE_GADGET",
                "id": "707111181"
            },
            "talkContentTextMapHash": 749999842,
            "talkRoleNameTextMapHash": 3685551195,
            "talkAssetPath": "",
            "talkAssetPathAlter": "",
            "talkAudioName": "",
            "actionBefore": "",
            "actionWhile": "",
            "actionAfter": "",
            "optionIcon": ""
        },
        {
            "id": 684210302,
            "nextDialogs": [
                684210303
            ],
            "talkRole": {
                "type": "TALK_ROLE_GADGET",
                "id": "707111181"
            },
            "talkContentTextMapHash": 3036846378,
            "talkRoleNameTextMapHash": 3369705451,
            "talkAssetPath": "",
            "talkAssetPathAlter": "",
            "talkAudioName": "",
            "actionBefore": "",
            "actionWhile": "",
            "actionAfter": "",
            "optionIcon": ""
        },
        {
            "id": 684210303,
            "nextDialogs": [
                684210304
            ],
            "talkRole": {
                "type": "TALK_ROLE_GADGET",
                "id": "707111181"
            },
            "talkContentTextMapHash": 2979563210,
            "talkRoleNameTextMapHash": 3298527643,
            "talkAssetPath": "",
            "talkAssetPathAlter": "",
            "talkAudioName": "",
            "actionBefore": "",
            "actionWhile": "",
            "actionAfter": "",
            "optionIcon": ""
        },
        {
            "id": 684210304,
            "talkRole": {
                "type": "TALK_ROLE_GADGET",
                "id": "707111181"
            },
            "talkContentTextMapHash": 2766550442,
            "talkRoleNameTextMapHash": 3866516651,
            "talkAssetPath": "",
            "talkAssetPathAlter": "",
            "talkAudioName": "",
            "actionBefore": "",
            "actionWhile": "",
            "actionAfter": "",
            "optionIcon": ""
        }
    ]
}