{
    "Charlotte_SkillUpgrade_1": [
        {
            "$type": "CODCGDDLMEL",
            "abilityName": "Avatar_Charlotte_Attack01",
            "JOKMFNMGFEK": "NormalAttack_01_Damage",
            "NMIJDHGFIJN": "%1",
            "INGHDEKDOMP": 0.0
        },
        {
            "$type": "CODCGDDLMEL",
            "abilityName": "Avatar_Charlotte_Attack02",
            "JOKMFNMGFEK": "NormalAttack_02_Damage",
            "NMIJDHGFIJN": "%2",
            "INGHDEKDOMP": 0.0
        },
        {
            "$type": "CODCGDDLMEL",
            "abilityName": "SkillObj_Charlotte_NormalAttack_03",
            "JOKMFNMGFEK": "NormalAttack_03_Damage",
            "NMIJDHGFIJN": "%3",
            "INGHDEKDOMP": 0.0
        },
        {
            "$type": "CODCGDDLMEL",
            "abilityName": "Avatar_Charlotte_ExtraAttack_Gadget",
            "JOKMFNMGFEK": "ExtraAttack_Damage",
            "NMIJDHGFIJN": "%4",
            "INGHDEKDOMP": 0.0
        },
        {
            "$type": "CODCGDDLMEL",
            "abilityName": "Avatar_Charlotte_ExtraAttack",
            "JOKMFNMGFEK": "ExtraAttack_Catalyst_Stamina_Cost",
            "NMIJDHGFIJN": "%5",
            "INGHDEKDOMP": 0.0
        },
        {
            "$type": "CODCGDDLMEL",
            "abilityName": "Avatar_Charlotte_FallingAnthem",
            "JOKMFNMGFEK": "FallingAnthem_Normal_Loop_Damage",
            "NMIJDHGFIJN": "%6"
        },
        {
            "$type": "CODCGDDLMEL",
            "abilityName": "Avatar_Charlotte_FallingAnthem",
            "JOKMFNMGFEK": "FallingAnthem_Normal_Rank_1_Damage",
            "NMIJDHGFIJN": "%7"
        },
        {
            "$type": "CODCGDDLMEL",
            "abilityName": "Avatar_Charlotte_FallingAnthem",
            "JOKMFNMGFEK": "FallingAnthem_Normal_Rank_2_Damage",
            "NMIJDHGFIJN": "%8"
        },
        {
            "$type": "CODCGDDLMEL",
            "abilityName": "Avatar_Charlotte_ExtraAttack_Gadget",
            "JOKMFNMGFEK": "ExtraAttack_Arkhe_Ratio",
            "NMIJDHGFIJN": "%9",
            "INGHDEKDOMP": 0.0
        },
        {
            "$type": "CODCGDDLMEL",
            "abilityName": "Avatar_Charlotte_ExtraAttack_Gadget",
            "JOKMFNMGFEK": "ExtraAttack_Arkhe_CD",
            "NMIJDHGFIJN": "%10",
            "INGHDEKDOMP": 0.0
        }
    ],
    "Charlotte_SkillUpgrade_2": [
        {
            "$type": "CODCGDDLMEL",
            "abilityName": "Avatar_Charlotte_ElementalArt_Click",
            "JOKMFNMGFEK": "Click_Damage",
            "NMIJDHGFIJN": "%1",
            "INGHDEKDOMP": 0.0
        },
        {
            "$type": "CODCGDDLMEL",
            "abilityName": "Avatar_Charlotte_ElementalArtHold_RayCast",
            "JOKMFNMGFEK": "QuitHold_Damage",
            "NMIJDHGFIJN": "%2",
            "INGHDEKDOMP": 0.0
        },
        {
            "$type": "CODCGDDLMEL",
            "abilityName": "Avatar_Charlotte_ElementalArtHold_RayCast",
            "JOKMFNMGFEK": "ElementalArt_Dot_Weak_Damage",
            "NMIJDHGFIJN": "%3",
            "INGHDEKDOMP": 0.0
        },
        {
            "$type": "CODCGDDLMEL",
            "abilityName": "Avatar_Charlotte_ElementalArtHold_RayCast",
            "JOKMFNMGFEK": "ElementalArt_Dot_Weak_InterVal",
            "NMIJDHGFIJN": "%4",
            "INGHDEKDOMP": 0.0
        },
        {
            "$type": "CODCGDDLMEL",
            "abilityName": "Avatar_Charlotte_ElementalArtHold_RayCast",
            "JOKMFNMGFEK": "ElementalArt_Dot_Weak_Dura",
            "NMIJDHGFIJN": "%5",
            "INGHDEKDOMP": 0.0
        },
        {
            "$type": "CODCGDDLMEL",
            "abilityName": "Avatar_Charlotte_ElementalArtHold_RayCast",
            "JOKMFNMGFEK": "ElementalArt_Dot_Strong_Damage",
            "NMIJDHGFIJN": "%6",
            "INGHDEKDOMP": 0.0
        },
        {
            "$type": "CODCGDDLMEL",
            "abilityName": "Avatar_Charlotte_ElementalArtHold_RayCast",
            "JOKMFNMGFEK": "ElementalArt_Dot_Strong_InterVal",
            "NMIJDHGFIJN": "%7",
            "INGHDEKDOMP": 0.0
        },
        {
            "$type": "CODCGDDLMEL",
            "abilityName": "Avatar_Charlotte_ElementalArtHold_RayCast",
            "JOKMFNMGFEK": "ElementalArt_Dot_Strong_Dura",
            "NMIJDHGFIJN": "%8",
            "INGHDEKDOMP": 0.0
        }
    ],
    "Charlotte_SkillUpgrade_3": [
        {
            "$type": "CODCGDDLMEL",
            "abilityName": "Avatar_Charlotte_ElementalBurst",
            "JOKMFNMGFEK": "Heal_Ratio_Once",
            "NMIJDHGFIJN": "%1",
            "INGHDEKDOMP": 0.0
        },
        {
            "$type": "CODCGDDLMEL",
            "abilityName": "Avatar_Charlotte_ElementalBurst",
            "JOKMFNMGFEK": "Heal_Const_Once",
            "NMIJDHGFIJN": "%2",
            "INGHDEKDOMP": 0.0
        },
        {
            "$type": "CODCGDDLMEL",
            "abilityName": "SkillObj_Charlotte_ElementalBurst_Stage",
            "JOKMFNMGFEK": "ElementalBurst_DamOnceRatio",
            "NMIJDHGFIJN": "%3",
            "INGHDEKDOMP": 0.0
        },
        {
            "$type": "CODCGDDLMEL",
            "abilityName": "SkillObj_Charlotte_ElementalBurst_Stage",
            "JOKMFNMGFEK": "Stage_HealRatio",
            "NMIJDHGFIJN": "%4",
            "INGHDEKDOMP": 0.0
        },
        {
            "$type": "CODCGDDLMEL",
            "abilityName": "SkillObj_Charlotte_ElementalBurst_Stage",
            "JOKMFNMGFEK": "Stage_HealConst",
            "NMIJDHGFIJN": "%5",
            "INGHDEKDOMP": 0.0
        },
        {
            "$type": "CODCGDDLMEL",
            "abilityName": "SkillObj_Charlotte_ElementalBurst_Stage",
            "JOKMFNMGFEK": "Stage_DamRatio",
            "NMIJDHGFIJN": "%6",
            "INGHDEKDOMP": 0.0
        }
    ],
    "Charlotte_Constellation_1": [
        {
            "$type": "LMNCPIJFIJD",
            "abilityName": "Avatar_Charlotte_Constellation_Extra_Hot"
        },
        {
            "$type": "CODCGDDLMEL",
            "abilityName": "Avatar_Charlotte_Constellation_Extra_Hot",
            "JOKMFNMGFEK": "Constellation_ExtraHot_HealRatio",
            "NMIJDHGFIJN": "%2"
        },
        {
            "$type": "CODCGDDLMEL",
            "abilityName": "Avatar_Charlotte_Constellation_Extra_Hot",
            "JOKMFNMGFEK": "Constellation_AddExtraHot_InterVal",
            "NMIJDHGFIJN": "%1"
        },
        {
            "$type": "CODCGDDLMEL",
            "abilityName": "Avatar_Charlotte_Constellation_Extra_Hot",
            "JOKMFNMGFEK": "Constellation_AddExtraHot_Dura",
            "NMIJDHGFIJN": "%3"
        }
    ],
    "Charlotte_Constellation_2": [
        {
            "$type": "LMNCPIJFIJD",
            "abilityName": "Avatar_Charlotte_Constellation_ElementalArt_AddAtkUp"
        },
        {
            "$type": "CODCGDDLMEL",
            "abilityName": "Avatar_Charlotte_Constellation_ElementalArt_AddAtkUp",
            "JOKMFNMGFEK": "Ratio_Lv1",
            "NMIJDHGFIJN": "%1"
        },
        {
            "$type": "CODCGDDLMEL",
            "abilityName": "Avatar_Charlotte_Constellation_ElementalArt_AddAtkUp",
            "JOKMFNMGFEK": "Ratio_Lv2",
            "NMIJDHGFIJN": "%2"
        },
        {
            "$type": "CODCGDDLMEL",
            "abilityName": "Avatar_Charlotte_Constellation_ElementalArt_AddAtkUp",
            "JOKMFNMGFEK": "Ratio_Lv3",
            "NMIJDHGFIJN": "%3"
        },
        {
            "$type": "CODCGDDLMEL",
            "abilityName": "Avatar_Charlotte_Constellation_ElementalArt_AddAtkUp",
            "JOKMFNMGFEK": "Dura",
            "NMIJDHGFIJN": "%4"
        }
    ],
    "Charlotte_Constellation_3": [
        {
            "$type": "IBEKCHFIDEE",
            "JNHMFLMOICH": "AvatarSkill",
            "HHHMFELBCEA": 9,
            "EHHPGFJPDMN": 3
        }
    ],
    "Charlotte_Constellation_4": [
        {
            "$type": "LMNCPIJFIJD",
            "abilityName": "Avatar_Charlotte_Constellation_ReviveElemEnergy"
        },
        {
            "$type": "CODCGDDLMEL",
            "abilityName": "Avatar_Charlotte_Constellation_ReviveElemEnergy",
            "JOKMFNMGFEK": "Burst_DamageUp",
            "NMIJDHGFIJN": "%1"
        },
        {
            "$type": "CODCGDDLMEL",
            "abilityName": "Avatar_Charlotte_Constellation_ReviveElemEnergy",
            "JOKMFNMGFEK": "CDTime",
            "NMIJDHGFIJN": "%3"
        },
        {
            "$type": "CODCGDDLMEL",
            "abilityName": "Avatar_Charlotte_Constellation_ReviveElemEnergy",
            "JOKMFNMGFEK": "MaxCount",
            "NMIJDHGFIJN": "%4"
        }
    ],
    "Charlotte_Constellation_5": [
        {
            "$type": "IBEKCHFIDEE",
            "JNHMFLMOICH": "AvatarSkill",
            "HHHMFELBCEA": 2,
            "EHHPGFJPDMN": 3
        }
    ],
    "Charlotte_Constellation_6": [
        {
            "$type": "CODCGDDLMEL",
            "abilityName": "Avatar_Charlotte_Constellation_ExtraCamera_Gadget",
            "JOKMFNMGFEK": "Constellation_ExtraCameraDamage",
            "NMIJDHGFIJN": "%1"
        },
        {
            "$type": "CODCGDDLMEL",
            "abilityName": "Avatar_Charlotte_Constellation_ExtraCamera_Gadget",
            "JOKMFNMGFEK": "ExtraCamera_HealRatio",
            "NMIJDHGFIJN": "%2"
        },
        {
            "$type": "CODCGDDLMEL",
            "abilityName": "Avatar_Charlotte_ElementalArtHold_RayCast",
            "JOKMFNMGFEK": "Trigger_CD",
            "NMIJDHGFIJN": "%3"
        },
        {
            "$type": "CBLGGCHIJBK",
            "abilityName": "Avatar_Charlotte_ElementalArtHold_RayCast",
            "BBIAHGIEPEO": "Avatar_Charlotte_Constellation_6"
        }
    ],
    "Charlotte_PermanentSkill_1": [
        {
            "$type": "LMNCPIJFIJD",
            "abilityName": "Avatar_Charlotte_PermanentSkill_1"
        },
        {
            "$type": "CODCGDDLMEL",
            "abilityName": "Avatar_Charlotte_PermanentSkill_1",
            "JOKMFNMGFEK": "Art_CD",
            "NMIJDHGFIJN": "%1"
        },
        {
            "$type": "CODCGDDLMEL",
            "abilityName": "Avatar_Charlotte_PermanentSkill_1",
            "JOKMFNMGFEK": "TimeLimit",
            "NMIJDHGFIJN": "%2"
        },
        {
            "$type": "CODCGDDLMEL",
            "abilityName": "Avatar_Charlotte_PermanentSkill_1",
            "JOKMFNMGFEK": "Count",
            "NMIJDHGFIJN": "%3"
        }
    ],
    "Charlotte_PermanentSkill_2": [
        {
            "$type": "LMNCPIJFIJD",
            "abilityName": "Avatar_Charlotte_PermanentSkill_2"
        },
        {
            "$type": "CODCGDDLMEL",
            "abilityName": "Avatar_Charlotte_PermanentSkill_2",
            "JOKMFNMGFEK": "HealAddDelta_P1",
            "NMIJDHGFIJN": "%1"
        },
        {
            "$type": "CODCGDDLMEL",
            "abilityName": "Avatar_Charlotte_PermanentSkill_2",
            "JOKMFNMGFEK": "IceAddHurtDelta_P2",
            "NMIJDHGFIJN": "%2"
        }
    ]
}