{
    "Dori_SkillUpgrade_1": [
        {
            "$type": "CODCGDDLMEL",
            "abilityName": "Avatar_Dori_NormalAttack_DamageHandler",
            "JOKMFNMGFEK": "NormalAttack_01_DamagePercentage",
            "NMIJDHGFIJN": "%1",
            "INGHDEKDOMP": 0.0
        },
        {
            "$type": "CODCGDDLMEL",
            "abilityName": "Avatar_Dori_NormalAttack_DamageHandler",
            "JOKMFNMGFEK": "NormalAttack_02_1_DamagePercentage",
            "NMIJDHGFIJN": "%2",
            "INGHDEKDOMP": 0.0
        },
        {
            "$type": "CODCGDDLMEL",
            "abilityName": "Avatar_Dori_NormalAttack_DamageHandler",
            "JOKMFNMGFEK": "NormalAttack_02_2_DamagePercentage",
            "NMIJDHGFIJN": "%3",
            "INGHDEKDOMP": 0.0
        },
        {
            "$type": "CODCGDDLMEL",
            "abilityName": "Avatar_Dori_NormalAttack_DamageHandler",
            "JOKMFNMGFEK": "NormalAttack_03_DamagePercentage",
            "NMIJDHGFIJN": "%4",
            "INGHDEKDOMP": 0.0
        },
        {
            "$type": "CODCGDDLMEL",
            "abilityName": "Avatar_Dori_NormalAttack_DamageHandler",
            "JOKMFNMGFEK": "ExtraAttack_1_DamagePercentage",
            "NMIJDHGFIJN": "%5",
            "INGHDEKDOMP": 0.0
        },
        {
            "$type": "CODCGDDLMEL",
            "abilityName": "Avatar_Dori_NormalAttack_DamageHandler",
            "JOKMFNMGFEK": "ExtraAttack_2_DamagePercentage",
            "NMIJDHGFIJN": "%6",
            "INGHDEKDOMP": 0.0
        },
        {
            "$type": "CODCGDDLMEL",
            "abilityName": "Avatar_Dori_ExtraAttack",
            "JOKMFNMGFEK": "ExtraAttack_Claymore_Stamina_Cost",
            "NMIJDHGFIJN": "%7",
            "INGHDEKDOMP": 0.0
        },
        {
            "$type": "CODCGDDLMEL",
            "abilityName": "Avatar_Dori_ExtraAttack",
            "JOKMFNMGFEK": "ExtraAttack_Claymore_MaxTime",
            "NMIJDHGFIJN": "%8",
            "INGHDEKDOMP": 0.0
        },
        {
            "$type": "CODCGDDLMEL",
            "abilityName": "Avatar_Dori_FallingAnthem",
            "JOKMFNMGFEK": "FallingAnthem_Normal_Loop_Damage",
            "NMIJDHGFIJN": "%9",
            "INGHDEKDOMP": 0.0
        },
        {
            "$type": "CODCGDDLMEL",
            "abilityName": "Avatar_Dori_FallingAnthem",
            "JOKMFNMGFEK": "FallingAnthem_Normal_Rank_1_Damage",
            "NMIJDHGFIJN": "%10",
            "INGHDEKDOMP": 0.0
        },
        {
            "$type": "CODCGDDLMEL",
            "abilityName": "Avatar_Dori_FallingAnthem",
            "JOKMFNMGFEK": "FallingAnthem_Normal_Rank_2_Damage",
            "NMIJDHGFIJN": "%11",
            "INGHDEKDOMP": 0.0
        }
    ],
    "Dori_SkillUpgrade_2": [
        {
            "$type": "CODCGDDLMEL",
            "abilityName": "Avatar_Dori_ElementalArt_Bullet_Material",
            "JOKMFNMGFEK": "ElementalArt_Bullet_Damage",
            "NMIJDHGFIJN": "%1",
            "INGHDEKDOMP": 0.0
        },
        {
            "$type": "CODCGDDLMEL",
            "abilityName": "Avatar_Dori_ElementalArt_SubBullet_Material",
            "JOKMFNMGFEK": "ElementalArt_Bullet_Damage",
            "NMIJDHGFIJN": "%2",
            "INGHDEKDOMP": 0.0
        }
    ],
    "Dori_SkillUpgrade_3": [
        {
            "$type": "CODCGDDLMEL",
            "abilityName": "Avatar_Dori_ChargingStation",
            "JOKMFNMGFEK": "Elemental_Burst_Damage",
            "NMIJDHGFIJN": "%1",
            "INGHDEKDOMP": 0.0
        },
        {
            "$type": "CODCGDDLMEL",
            "abilityName": "Avatar_Dori_ChargingStation",
            "JOKMFNMGFEK": "HealHp_Ratio",
            "NMIJDHGFIJN": "%2",
            "INGHDEKDOMP": 0.0
        },
        {
            "$type": "CODCGDDLMEL",
            "abilityName": "Avatar_Dori_ChargingStation",
            "JOKMFNMGFEK": "HealHp_Amount",
            "NMIJDHGFIJN": "%3",
            "INGHDEKDOMP": 0.0
        },
        {
            "$type": "CODCGDDLMEL",
            "abilityName": "Avatar_Dori_ChargingStation",
            "JOKMFNMGFEK": "ReviveElemEnergy",
            "NMIJDHGFIJN": "%4",
            "INGHDEKDOMP": 0.0
        }
    ],
    "Dori_PermanentSkill_1": [
        {
            "$type": "CBLGGCHIJBK",
            "abilityName": "Avatar_Dori_ChargingStation",
            "BBIAHGIEPEO": "Dori_PermanentSkill_1"
        },
        {
            "$type": "CODCGDDLMEL",
            "abilityName": "Avatar_Dori_ChargingStation",
            "JOKMFNMGFEK": "Art_CD",
            "NMIJDHGFIJN": "%1",
            "INGHDEKDOMP": 0.0
        },
        {
            "$type": "CODCGDDLMEL",
            "abilityName": "Avatar_Dori_ChargingStation",
            "JOKMFNMGFEK": "PermanentSkill_1_CD",
            "NMIJDHGFIJN": "%2",
            "INGHDEKDOMP": 0.0
        }
    ],
    "Dori_PermanentSkill_2": [
        {
            "$type": "CBLGGCHIJBK",
            "abilityName": "Avatar_Dori_ElementalArt_Bullet_Material",
            "BBIAHGIEPEO": "Dori_PermanentSkill_2"
        },
        {
            "$type": "CBLGGCHIJBK",
            "abilityName": "Avatar_Dori_ElementalArt_SubBullet_Material",
            "BBIAHGIEPEO": "Dori_PermanentSkill_2"
        },
        {
            "$type": "CODCGDDLMEL",
            "abilityName": "Avatar_Dori_ElementalArt_Bullet_Material",
            "JOKMFNMGFEK": "ReviveEnergy_Ratio",
            "NMIJDHGFIJN": "%1",
            "INGHDEKDOMP": 0.0
        },
        {
            "$type": "CODCGDDLMEL",
            "abilityName": "Avatar_Dori_ElementalArt_SubBullet_Material",
            "JOKMFNMGFEK": "ReviveEnergy_Ratio",
            "NMIJDHGFIJN": "%1",
            "INGHDEKDOMP": 0.0
        }
    ],
    "Dori_Constellation_1": [
        {
            "$type": "CBLGGCHIJBK",
            "abilityName": "Avatar_Dori_ElementalArt_Bullet_Material",
            "BBIAHGIEPEO": "Dori_Constellation_1"
        }
    ],
    "Dori_Constellation_2": [
        {
            "$type": "CBLGGCHIJBK",
            "abilityName": "Avatar_Dori_ChargingStation",
            "BBIAHGIEPEO": "Dori_Constellation_2"
        },
        {
            "$type": "CODCGDDLMEL",
            "abilityName": "Avatar_Dori_ElementalArt_Constellation_Bullet_Material",
            "JOKMFNMGFEK": "ElementalArt_Bullet_Damage",
            "NMIJDHGFIJN": "%1",
            "INGHDEKDOMP": 0.0
        }
    ],
    "Dori_Constellation_3": [
        {
            "$type": "IBEKCHFIDEE",
            "JNHMFLMOICH": "AvatarSkill",
            "HHHMFELBCEA": 9,
            "EHHPGFJPDMN": 3
        }
    ],
    "Dori_Constellation_4": [
        {
            "$type": "CBLGGCHIJBK",
            "abilityName": "Avatar_Dori_ChargingStation",
            "BBIAHGIEPEO": "Dori_Constellation_4"
        },
        {
            "$type": "CODCGDDLMEL",
            "abilityName": "Avatar_Dori_ChargingStation",
            "JOKMFNMGFEK": "Dori_Constellation_HealedAddDelta",
            "NMIJDHGFIJN": "%1",
            "INGHDEKDOMP": 0.0
        },
        {
            "$type": "CODCGDDLMEL",
            "abilityName": "Avatar_Dori_ChargingStation",
            "JOKMFNMGFEK": "Dori_Constellation_ChargeEfficiencyDelta",
            "NMIJDHGFIJN": "%2",
            "INGHDEKDOMP": 0.0
        }
    ],
    "Dori_Constellation_5": [
        {
            "$type": "IBEKCHFIDEE",
            "JNHMFLMOICH": "AvatarSkill",
            "HHHMFELBCEA": 2,
            "EHHPGFJPDMN": 3
        }
    ],
    "Dori_Constellation_6": [
        {
            "$type": "CBLGGCHIJBK",
            "abilityName": "Avatar_Dori_Constellation_6",
            "BBIAHGIEPEO": "Dori_Constellation_6"
        },
        {
            "$type": "CODCGDDLMEL",
            "abilityName": "Avatar_Dori_Constellation_6",
            "JOKMFNMGFEK": "Duration",
            "NMIJDHGFIJN": "%1",
            "INGHDEKDOMP": 0.0
        },
        {
            "$type": "CODCGDDLMEL",
            "abilityName": "Avatar_Dori_Constellation_6",
            "JOKMFNMGFEK": "HealHP_OnHittingOthers",
            "NMIJDHGFIJN": "%2",
            "INGHDEKDOMP": 0.0
        }
    ]
}