{
    "Yaoyao_Constellation_1": [
        {
            "$type": "CBLGGCHIJBK",
            "abilityName": "Avatar_Yaoyao_Turnip_Bullet",
            "BBIAHGIEPEO": "Yaoyao_Constellation_1"
        },
        {
            "$type": "CODCGDDLMEL",
            "abilityName": "Avatar_Yaoyao_Turnip_Bullet",
            "JOKMFNMGFEK": "Yaoyao_Constellation_1_Duration",
            "NMIJDHGFIJN": "%1"
        },
        {
            "$type": "CODCGDDLMEL",
            "abilityName": "Avatar_Yaoyao_Turnip_Bullet",
            "JOKMFNMGFEK": "Yaoyao_Constellation_1_AddHurtDelta",
            "NMIJDHGFIJN": "%2"
        },
        {
            "$type": "CODCGDDLMEL",
            "abilityName": "Avatar_Yaoyao_Turnip_Bullet",
            "JOKMFNMGFEK": "Yaoyao_Constellation_1_ReviveStamina",
            "NMIJDHGFIJN": "%3"
        },
        {
            "$type": "CODCGDDLMEL",
            "abilityName": "Avatar_Yaoyao_Turnip_Bullet",
            "JOKMFNMGFEK": "Yaoyao_Constellation_1_ReviveStamina_CD",
            "NMIJDHGFIJN": "%4"
        },
        {
            "$type": "CBLGGCHIJBK",
            "abilityName": "Avatar_Yaoyao_Turnip",
            "BBIAHGIEPEO": "Yaoyao_Constellation_1"
        },
        {
            "$type": "CODCGDDLMEL",
            "abilityName": "Avatar_Yaoyao_Turnip",
            "JOKMFNMGFEK": "Yaoyao_Constellation_1_Duration",
            "NMIJDHGFIJN": "%1"
        },
        {
            "$type": "CODCGDDLMEL",
            "abilityName": "Avatar_Yaoyao_Turnip",
            "JOKMFNMGFEK": "Yaoyao_Constellation_1_AddHurtDelta",
            "NMIJDHGFIJN": "%2"
        },
        {
            "$type": "CODCGDDLMEL",
            "abilityName": "Avatar_Yaoyao_Turnip",
            "JOKMFNMGFEK": "Yaoyao_Constellation_1_ReviveStamina",
            "NMIJDHGFIJN": "%3"
        },
        {
            "$type": "CODCGDDLMEL",
            "abilityName": "Avatar_Yaoyao_Turnip",
            "JOKMFNMGFEK": "Yaoyao_Constellation_1_ReviveStamina_CD",
            "NMIJDHGFIJN": "%4"
        }
    ],
    "Yaoyao_Constellation_2": [
        {
            "$type": "CBLGGCHIJBK",
            "abilityName": "Avatar_Yaoyao_ElementalBurst",
            "BBIAHGIEPEO": "Yaoyao_Constellation_2"
        },
        {
            "$type": "CODCGDDLMEL",
            "abilityName": "Avatar_Yaoyao_ElementalBurst",
            "JOKMFNMGFEK": "Yaoyao_Constellation_2_ReviveEnergy_Ratio",
            "NMIJDHGFIJN": "%1"
        },
        {
            "$type": "CODCGDDLMEL",
            "abilityName": "Avatar_Yaoyao_ElementalBurst",
            "JOKMFNMGFEK": "Yaoyao_Constellation_2_CD",
            "NMIJDHGFIJN": "%2"
        }
    ],
    "Yaoyao_Constellation_3": [
        {
            "$type": "IBEKCHFIDEE",
            "JNHMFLMOICH": "AvatarSkill",
            "HHHMFELBCEA": 2,
            "EHHPGFJPDMN": 3
        }
    ],
    "Yaoyao_Constellation_4": [
        {
            "$type": "LMNCPIJFIJD",
            "abilityName": "Avatar_Yaoyao_Constellation_4"
        },
        {
            "$type": "CODCGDDLMEL",
            "abilityName": "Avatar_Yaoyao_Constellation_4",
            "JOKMFNMGFEK": "Yaoyao_Constellation_4_Ratio",
            "NMIJDHGFIJN": "%1"
        },
        {
            "$type": "CODCGDDLMEL",
            "abilityName": "Avatar_Yaoyao_Constellation_4",
            "JOKMFNMGFEK": "Duration",
            "NMIJDHGFIJN": "%2"
        }
    ],
    "Yaoyao_Constellation_5": [
        {
            "$type": "IBEKCHFIDEE",
            "JNHMFLMOICH": "AvatarSkill",
            "HHHMFELBCEA": 9,
            "EHHPGFJPDMN": 3
        }
    ],
    "Yaoyao_Constellation_6": [
        {
            "$type": "CBLGGCHIJBK",
            "abilityName": "Avatar_Yaoyao_ElementalArt_Rabbit",
            "BBIAHGIEPEO": "Yaoyao_Constellation_6"
        },
        {
            "$type": "CODCGDDLMEL",
            "abilityName": "Avatar_Yaoyao_ElementalArt_Rabbit",
            "JOKMFNMGFEK": "Golden_Turnip_Chance",
            "NMIJDHGFIJN": "%1"
        },
        {
            "$type": "CODCGDDLMEL",
            "abilityName": "Avatar_Yaoyao_Golden_Turnip_Bullet",
            "JOKMFNMGFEK": "Yaoyao_Constellation_6_Damage",
            "NMIJDHGFIJN": "%2"
        },
        {
            "$type": "CODCGDDLMEL",
            "abilityName": "Avatar_Yaoyao_Golden_Turnip_Bullet",
            "JOKMFNMGFEK": "Yaoyao_Constellation_6_HealHp_Ratio",
            "NMIJDHGFIJN": "%3"
        },
        {
            "$type": "CODCGDDLMEL",
            "abilityName": "Avatar_Yaoyao_Golden_Turnip",
            "JOKMFNMGFEK": "Yaoyao_Constellation_6_Damage",
            "NMIJDHGFIJN": "%2"
        },
        {
            "$type": "CODCGDDLMEL",
            "abilityName": "Avatar_Yaoyao_Golden_Turnip",
            "JOKMFNMGFEK": "Yaoyao_Constellation_6_HealHp_Ratio",
            "NMIJDHGFIJN": "%3"
        }
    ],
    "Yaoyao_PermanentSkill_1": [
        {
            "$type": "LMNCPIJFIJD",
            "abilityName": "Avatar_Yaoyao_PermanentSkill_1"
        }
    ],
    "Yaoyao_PermanentSkill_2": [
        {
            "$type": "LMNCPIJFIJD",
            "abilityName": "Avatar_Yaoyao_PermanentSkill_2"
        },
        {
            "$type": "CODCGDDLMEL",
            "abilityName": "Avatar_Yaoyao_PermanentSkill_2",
            "JOKMFNMGFEK": "Yaoyao_PermanentSkill_2_Hot_Duration",
            "NMIJDHGFIJN": "%3"
        },
        {
            "$type": "CODCGDDLMEL",
            "abilityName": "Avatar_Yaoyao_PermanentSkill_2",
            "JOKMFNMGFEK": "Yaoyao_PermanentSkill_2_Hot_Ratio",
            "NMIJDHGFIJN": "%2"
        }
    ],
    "Yaoyao_SkillUpgrade_1": [
        {
            "$type": "CODCGDDLMEL",
            "abilityName": "Avatar_Yaoyao_NormalAttack_DamageHandler",
            "JOKMFNMGFEK": "Attack_01",
            "NMIJDHGFIJN": "%1"
        },
        {
            "$type": "CODCGDDLMEL",
            "abilityName": "Avatar_Yaoyao_NormalAttack_DamageHandler",
            "JOKMFNMGFEK": "Attack_02",
            "NMIJDHGFIJN": "%2"
        },
        {
            "$type": "CODCGDDLMEL",
            "abilityName": "Avatar_Yaoyao_NormalAttack_DamageHandler",
            "JOKMFNMGFEK": "Attack_03_1",
            "NMIJDHGFIJN": "%3"
        },
        {
            "$type": "CODCGDDLMEL",
            "abilityName": "Avatar_Yaoyao_NormalAttack_DamageHandler",
            "JOKMFNMGFEK": "Attack_03_02",
            "NMIJDHGFIJN": "%4"
        },
        {
            "$type": "CODCGDDLMEL",
            "abilityName": "Avatar_Yaoyao_NormalAttack_DamageHandler",
            "JOKMFNMGFEK": "Attack_04",
            "NMIJDHGFIJN": "%5"
        },
        {
            "$type": "CODCGDDLMEL",
            "abilityName": "Avatar_Yaoyao_ExtraAttack_Bullet",
            "JOKMFNMGFEK": "ExtraAttack",
            "NMIJDHGFIJN": "%6"
        },
        {
            "$type": "CODCGDDLMEL",
            "abilityName": "Avatar_Yaoyao_ExtraAttack",
            "JOKMFNMGFEK": "ExtraAttack_Pole_Stamina_Cost",
            "NMIJDHGFIJN": "%7"
        },
        {
            "$type": "CODCGDDLMEL",
            "abilityName": "Avatar_Yaoyao_FallingAnthem",
            "JOKMFNMGFEK": "FallingAnthem_Normal_Loop_Damage",
            "NMIJDHGFIJN": "%8"
        },
        {
            "$type": "CODCGDDLMEL",
            "abilityName": "Avatar_Yaoyao_FallingAnthem",
            "JOKMFNMGFEK": "FallingAnthem_Normal_Rank_1_Damage",
            "NMIJDHGFIJN": "%9"
        },
        {
            "$type": "CODCGDDLMEL",
            "abilityName": "Avatar_Yaoyao_FallingAnthem",
            "JOKMFNMGFEK": "FallingAnthem_Normal_Rank_2_Damage",
            "NMIJDHGFIJN": "%10"
        }
    ],
    "Yaoyao_SkillUpgrade_2": [
        {
            "$type": "CODCGDDLMEL",
            "abilityName": "Avatar_Yaoyao_Turnip_Bullet",
            "JOKMFNMGFEK": "Yaoyao_Turnip_ElementalArt_Damage",
            "NMIJDHGFIJN": "%1"
        },
        {
            "$type": "CODCGDDLMEL",
            "abilityName": "Avatar_Yaoyao_Turnip_Bullet",
            "JOKMFNMGFEK": "Yaoyao_Turnip_ElementalArt_HealHp_Ratio",
            "NMIJDHGFIJN": "%2"
        },
        {
            "$type": "CODCGDDLMEL",
            "abilityName": "Avatar_Yaoyao_Turnip_Bullet",
            "JOKMFNMGFEK": "Yaoyao_Turnip_ElementalArt_HealHp_Amount",
            "NMIJDHGFIJN": "%3"
        },
        {
            "$type": "CODCGDDLMEL",
            "abilityName": "Avatar_Yaoyao_Turnip",
            "JOKMFNMGFEK": "Yaoyao_Turnip_ElementalArt_Damage",
            "NMIJDHGFIJN": "%1"
        },
        {
            "$type": "CODCGDDLMEL",
            "abilityName": "Avatar_Yaoyao_Turnip",
            "JOKMFNMGFEK": "Yaoyao_Turnip_ElementalArt_HealHp_Ratio",
            "NMIJDHGFIJN": "%2"
        },
        {
            "$type": "CODCGDDLMEL",
            "abilityName": "Avatar_Yaoyao_Turnip",
            "JOKMFNMGFEK": "Yaoyao_Turnip_ElementalArt_HealHp_Amount",
            "NMIJDHGFIJN": "%3"
        },
        {
            "$type": "CODCGDDLMEL",
            "abilityName": "Avatar_Yaoyao_ElementalArt_Rabbit",
            "JOKMFNMGFEK": "Rabbit_LifeTime",
            "NMIJDHGFIJN": "%4"
        },
        {
            "$type": "CODCGDDLMEL",
            "abilityName": "Avatar_Yaoyao_Turnip",
            "JOKMFNMGFEK": "TurnipLifeTime",
            "NMIJDHGFIJN": "%5"
        }
    ],
    "Yaoyao_SkillUpgrade_3": [
        {
            "$type": "CODCGDDLMEL",
            "abilityName": "Avatar_Yaoyao_Turnip_Bullet",
            "JOKMFNMGFEK": "Yaoyao_Turnip_ElementalBurst_Damage",
            "NMIJDHGFIJN": "%1"
        },
        {
            "$type": "CODCGDDLMEL",
            "abilityName": "Avatar_Yaoyao_Turnip_Bullet",
            "JOKMFNMGFEK": "Yaoyao_Turnip_ElementalBurst_HealHp_Ratio",
            "NMIJDHGFIJN": "%2"
        },
        {
            "$type": "CODCGDDLMEL",
            "abilityName": "Avatar_Yaoyao_Turnip_Bullet",
            "JOKMFNMGFEK": "Yaoyao_Turnip_ElementalBurst_HealHp_Amount",
            "NMIJDHGFIJN": "%3"
        },
        {
            "$type": "CODCGDDLMEL",
            "abilityName": "Avatar_Yaoyao_Turnip",
            "JOKMFNMGFEK": "Yaoyao_Turnip_ElementalBurst_Damage",
            "NMIJDHGFIJN": "%1"
        },
        {
            "$type": "CODCGDDLMEL",
            "abilityName": "Avatar_Yaoyao_Turnip",
            "JOKMFNMGFEK": "Yaoyao_Turnip_ElementalBurst_HealHp_Ratio",
            "NMIJDHGFIJN": "%2"
        },
        {
            "$type": "CODCGDDLMEL",
            "abilityName": "Avatar_Yaoyao_Turnip",
            "JOKMFNMGFEK": "Yaoyao_Turnip_ElementalBurst_HealHp_Amount",
            "NMIJDHGFIJN": "%3"
        },
        {
            "$type": "CODCGDDLMEL",
            "abilityName": "Avatar_Yaoyao_ElementalBurst",
            "JOKMFNMGFEK": "Elemental_Burst_Damage",
            "NMIJDHGFIJN": "%4"
        },
        {
            "$type": "CODCGDDLMEL",
            "abilityName": "Avatar_Yaoyao_ElementalBurst",
            "JOKMFNMGFEK": "GrassSubHurtDelta",
            "NMIJDHGFIJN": "%5"
        },
        {
            "$type": "CODCGDDLMEL",
            "abilityName": "Avatar_Yaoyao_ElementalBurst",
            "JOKMFNMGFEK": "Yaoyao_ElementalBurst_Sate_Time",
            "NMIJDHGFIJN": "%6"
        }
    ],
    "Yaoyao_ProudSkill_NonCombat_1": [
        {
            "$type": "LMNCPIJFIJD",
            "abilityName": "Avatar_Yaoyao_Talent_Stealth_Animal_Misc"
        }
    ]
}