{
    "common": {
        "effectAttachShape": {
            "$type": "DPGKNHENGLM",
            "DDDEJPIFECG": "EffectMesh"
        },
        "mass": 100000.0,
        "affectedByWorld": true,
        "useGrassDisplacement": true
    },
    "headControl": {
        "$type": "NJIKCGBDNDF",
        "OGCMKPPOFLM": false,
        "PFHDNDGGBFC": [
            "Turn01_90LBS",
            "Turn01_90LAS",
            "Turn01_90RBS",
            "Turn01_90RAS",
            "Downcast01BS",
            "Downcast01AS",
            "Downcast01Loop",
            "DrinkToComplain",
            "FountainPray",
            "FountainSneak",
            "Pray01Loop",
            "Investigate01Loop",
            "Shy01Loop",
            "HoldHead01Loop",
            "Play01BS",
            "Play01Loop",
            "Play01AS"
        ]
    },
    "stateLayers": {
        "defaultLayer": {
            "$type": "EPAPJJAGHKG",
            "ACOCIAFGIAD": "",
            "stateIDs": {
                "Born": {
                    "$type": "MNKOHCHNPGD",
                    "DLOHGBDFFGB": {
                        "Born": [
                            "Npc_ResetFreeStyle"
                        ]
                    }
                },
                "Disappear": {
                    "$type": "MNKOHCHNPGD",
                    "DLOHGBDFFGB": {
                        "Disappear": [
                            "Npc_FadeOut"
                        ]
                    },
                    "FNFODFANKGO": false
                },
                "FemaleVoiceState": {
                    "$type": "MNKOHCHNPGD",
                    "DLOHGBDFFGB": {
                        "Angry01BS": [
                            "Audio_NPC_Kaveh_Mehrak_Common_Angry01BS"
                        ],
                        "Happy01BS": [
                            "Audio_NPC_Kaveh_Mehrak_Common_Happy01BS"
                        ],
                        "Sad01BS": [
                            "Audio_NPC_Kaveh_Mehrak_Common_Sad01BS"
                        ]
                    }
                }
            }
        }
    },
    "billboard": {
        "$type": "AHECOFGJCIP",
        "attachPoint": "BillboardAttach",
        "offset": {
            "x": -0.09000000357627869,
            "y": 1.0
        },
        "EMFFJPOKEKF": "Character",
        "LOMMBJLKPHE": 0.12999999523162842,
        "showDistance": 20.0,
        "BDJDNLAGHPD": 45.0
    },
    "BJAONMEENOG": 0.0,
    "aibeta": {
        "enable": true,
        "friendliness": 1,
        "moveSetting": {
            "navMeshAgentName": "Undead01",
            "almostReachedDistanceWalk": 0.30000001192092896,
            "almostReachedDistanceRun": 0.6000000238418579
        },
        "sensing": {
            "enable": false
        },
        "threat": {
            "enable": false,
            "JGFOPCOIJOI": ""
        },
        "defendArea": {
            "enable": false
        },
        "profiling": {
            "lodStrategy": "Npc"
        },
        "combatFixedMoveTactic": [
            {
                "$type": "EONBNFNCMNG",
                "enable": true,
                "LMMKNFEMOMG": {
                    "KIHPEPHJMOG": 1,
                    "JOCOJHEICNA": "",
                    "DBIELIMGBMC": ""
                }
            }
        ]
    },
    "move": {
        "$type": "DPGHEPFBKDO",
        "EIEIGIPKLAO": {
            "includeForces": [
                "RetreatType",
                "RetreatAirType",
                "RushMoveType",
                "WindZoneType",
                "AirflowType",
                "RiseType",
                "SpeedupType",
                "AirflowAccType",
                "InertiaType"
            ]
        },
        "FACNOEFNHIB": "RootNode"
    },
    "ABLELGOIMNA": {},
    "audio": {
        "$type": "MINPMFAKFPF",
        "KEEAIACIJBN": "",
        "animAudio": {}
    },
    "emojiBubble": {},
    "CLOKLJBCLIJ": "PRIVATE_Pendant"
}