{
    "luaDataPath": "",
    "startBlackKeepTime": 0.5,
    "entityBan": "",
    "disableNpcLod": true,
    "isAutoBanNpc": true,
    "isBanWidgetPet": true,
    "protectNpcMobileLod": true,
    "startFade": {
        "startFadeInDuration": 0.5,
        "startFadeOutDuration": 0.5
    },
    "endFade": {
        "startFadeOutDuration": 0.0
    },
    "actors": [
        {
            "alias": "Avatar",
            "visible": true,
            "bornPointName": "N10000005_T7350603",
            "relativePosType": "AVATAR_NEW",
            "relativePosNpcAlias": "",
            "bindMovingTargetKey": ""
        },
        {
            "alias": "AvatarNpc",
            "visible": true,
            "bornPointName": "N10000005_T7350603",
            "removeActorType": "NEW_REMOVE",
            "relativePosType": "AVATAR_NEW",
            "relativePosNpcAlias": "",
            "bindMovingTargetKey": ""
        },
        {
            "configID": 30279,
            "alias": "30279",
            "visible": true,
            "bornPointName": "Q7350603_N30279",
            "forceCreateDaily": true,
            "relativePosType": "AVATAR_NEW",
            "relativePosNpcAlias": "",
            "bindMovingTargetKey": ""
        },
        {
            "configID": 1005,
            "alias": "1005",
            "visible": true,
            "bornPointName": "",
            "useRelativePos": true,
            "relativePos": {
                "x": -0.5,
                "y": 0.5,
                "z": 0.5
            },
            "removeActorType": "NEW_REMOVE_WITH_DISAPPEAR",
            "relativePosType": "AVATAR_NEW",
            "relativePosNpcAlias": "",
            "bindMovingTargetKey": ""
        }
    ],
    "group": [
        [
            {
                "$type": "MoleMole.Config.ConfigTimeProtectAction",
                "type": "TIME_PROTECT",
                "duration": 1.0,
                "actionId": 104
            },
            {
                "$type": "MoleMole.Config.ConfigBlackScreenAction",
                "type": "BLACK_SCREEN",
                "duration": 1.0,
                "actionId": 123,
                "blackScreenType": "KEEP_BLACK",
                "durationToBlack": 0.5,
                "durationKeepBlack": 1.0,
                "durationFromBlack": 0.5,
                "inteePos": "",
                "textMapID": "",
                "useTextFade": true
            },
            {
                "$type": "MoleMole.Config.ConfigVisibleInterAction",
                "type": "VISIBLE",
                "aliasList": [
                    "Avatar"
                ],
                "actionId": 129,
                "extraParam": ""
            },
            {
                "$type": "MoleMole.Config.ConfigTeleportToAction",
                "type": "TELEPORT_TO",
                "aliasList": [
                    "Avatar"
                ],
                "actionId": 195,
                "position": {
                    "x": 299.7860107421875,
                    "y": 242.13299560546875,
                    "z": 2341.447998046875
                },
                "forward": {
                    "x": -0.12099999934434891,
                    "z": -0.9929999709129333
                },
                "openLongDisTeleport": true,
                "posBindMovingTargetKey": "",
                "forwardBindMovingTargetKey": ""
            },
            {
                "$type": "MoleMole.Config.ConfigPlayerNPCEnergyTypeAction",
                "type": "SET_PLAYER_NPC_ENERGY_TYPE",
                "aliasList": [
                    "AvatarNpc"
                ],
                "actionId": 127,
                "setHeroEngergyType": true
            },
            {
                "$type": "MoleMole.Config.ConfigTeleportToAction",
                "type": "TELEPORT_TO",
                "aliasList": [
                    "AvatarNpc"
                ],
                "actionId": 132,
                "position": {
                    "x": 299.7860107421875,
                    "y": 242.13299560546875,
                    "z": 2341.447998046875
                },
                "forward": {
                    "x": -0.12099999934434891,
                    "z": -0.9929999709129333
                },
                "openLongDisTeleport": true,
                "posBindMovingTargetKey": "",
                "forwardBindMovingTargetKey": ""
            },
            {
                "$type": "IBPNIIGAIPF",
                "type": "LOOK_AT",
                "aliasList": [
                    "AvatarNpc"
                ],
                "actionId": 137,
                "GGIENKFBOGL": true,
                "useTargetPos": true,
                "GCOONJBHNIM": true,
                "JHNJNNOPJKG": {
                    "x": 299.70599365234375,
                    "y": 243.9010009765625,
                    "z": 2339.97998046875
                },
                "NDOMJCOFKDJ": 0.5,
                "KIPMIDIKECP": "",
                "AHLPNEGAKGG": "NONE",
                "FGPHOPBEJDE": true,
                "HJJAFGPMJNJ": "",
                "AOFBAGFCGPJ": ""
            },
            {
                "$type": "MoleMole.Config.ConfigTeleportToAction",
                "type": "TELEPORT_TO",
                "aliasList": [
                    "30279"
                ],
                "actionId": 133,
                "position": {
                    "x": 299.68701171875,
                    "y": 242.3090057373047,
                    "z": 2339.6630859375
                },
                "forward": {
                    "x": 0.23600000143051147,
                    "z": 0.972000002861023
                },
                "openLongDisTeleport": true,
                "posBindMovingTargetKey": "",
                "forwardBindMovingTargetKey": ""
            },
            {
                "$type": "IBPNIIGAIPF",
                "type": "LOOK_AT",
                "aliasList": [
                    "30279"
                ],
                "actionId": 136,
                "GGIENKFBOGL": true,
                "useTargetPos": true,
                "GCOONJBHNIM": true,
                "JHNJNNOPJKG": {
                    "x": 299.6449890136719,
                    "y": 243.677001953125,
                    "z": 2341.222900390625
                },
                "NDOMJCOFKDJ": 0.5,
                "KIPMIDIKECP": "",
                "AHLPNEGAKGG": "NONE",
                "FGPHOPBEJDE": true,
                "HJJAFGPMJNJ": "",
                "AOFBAGFCGPJ": ""
            },
            {
                "$type": "MoleMole.Config.ConfigTeleportToAction",
                "type": "TELEPORT_TO",
                "aliasList": [
                    "1005"
                ],
                "actionId": 134,
                "position": {
                    "x": 300.5920104980469,
                    "y": 242.08299255371094,
                    "z": 2341.172119140625
                },
                "forward": {
                    "x": -0.4699999988079071,
                    "z": -0.8820000290870667
                },
                "openLongDisTeleport": true,
                "posBindMovingTargetKey": "",
                "forwardBindMovingTargetKey": ""
            },
            {
                "$type": "IBPNIIGAIPF",
                "type": "LOOK_AT",
                "aliasList": [
                    "1005"
                ],
                "actionId": 135,
                "GGIENKFBOGL": true,
                "useTargetPos": true,
                "GCOONJBHNIM": true,
                "JHNJNNOPJKG": {
                    "x": 299.6369934082031,
                    "y": 243.8260040283203,
                    "z": 2339.5869140625
                },
                "NDOMJCOFKDJ": 0.5,
                "KIPMIDIKECP": "",
                "AHLPNEGAKGG": "NONE",
                "FGPHOPBEJDE": true,
                "HJJAFGPMJNJ": "",
                "AOFBAGFCGPJ": ""
            }
        ],
        [
            {
                "$type": "MoleMole.Config.ConfigBlackScreenAction",
                "type": "BLACK_SCREEN",
                "duration": 0.5,
                "actionId": 124,
                "blackScreenType": "FROM_BLACK",
                "durationToBlack": 0.5,
                "durationKeepBlack": 0.5,
                "durationFromBlack": 0.5,
                "inteePos": "",
                "textMapID": "",
                "useTextFade": true
            },
            {
                "$type": "BCJBNCJOPCE",
                "type": "CAMERA_MOVE",
                "duration": 0.5,
                "actionId": 138,
                "AKFGKKEOEFA": {
                    "x": 297.7869873046875,
                    "y": 244.1280059814453,
                    "z": 2338.4560546875
                },
                "NGEBMAEFFGJ": {
                    "x": 298.5270080566406,
                    "y": 243.91200256347656,
                    "z": 2339.093017578125
                },
                "LIGHLBKBDEI": 30.0,
                "GFIOJGJJGCN": 6,
                "ABAEPHOGOFF": "EaseInOutCubic",
                "KFDBMBFFANN": {},
                "IEJBKHHEJEN": true,
                "CEDHIBLHMKP": false,
                "KIPMIDIKECP": "",
                "ANFHNPOCMNI": true,
                "BDLGHOJPJHD": "",
                "LCOJGFEOLCK": "",
                "BBBGAEDCJEL": ""
            },
            {
                "$type": "CCEEIGNAILH",
                "type": "DIALOG",
                "aliasList": [
                    "30279"
                ],
                "actionId": 107,
                "KICBIOMGHIN": 735060301,
                "PNCCODDABKI": 0.5
            },
            {
                "$type": "KCBOGFFHPBD",
                "type": "BODY_LANG",
                "aliasList": [
                    "30279"
                ],
                "actionId": 139,
                "GPIEDGOMCGL": 1173,
                "FHLAMNNHMFA": true,
                "KCEHDJLKIAL": false,
                "KCOLHJBDILK": true,
                "AOFEDPBOOIE": ""
            },
            {
                "$type": "DNAEECJNBFB",
                "type": "EMO_SYNC",
                "aliasList": [
                    "30279"
                ],
                "actionId": 188,
                "EOGJDJKPPGE": "Cs_Emo_Avatar_Simple_Common_Set/Cs_Emo_Avatar_Talk/Cs_Emo_WorldQuest/Cs_Emo_Sumeru_73506/Cs_Emo_735060301",
                "IHCBGPABDLE": "",
                "CIKPDMODFPL": "",
                "HDIAHFFHNGE": "",
                "BOAAGJEEFDD": "",
                "PFDPJKHPADE": "",
                "DALINBJAHOC": [
                    6533322420198255746,
                    12127687287083547759,
                    13148953631646908213,
                    3952640485203500914
                ]
            },
            {
                "$type": "BCJBNCJOPCE",
                "type": "CAMERA_MOVE",
                "delayTime": 0.10000000149011612,
                "duration": 5.6539998054504395,
                "actionId": 131,
                "AKFGKKEOEFA": {
                    "x": 297.635009765625,
                    "y": 244.1510009765625,
                    "z": 2338.64111328125
                },
                "NGEBMAEFFGJ": {
                    "x": 298.38800048828125,
                    "y": 243.93499755859375,
                    "z": 2339.262939453125
                },
                "LIGHLBKBDEI": 30.0,
                "GFIOJGJJGCN": 2,
                "ABAEPHOGOFF": "EaseOutQuad",
                "KFDBMBFFANN": {},
                "IEJBKHHEJEN": true,
                "CEDHIBLHMKP": false,
                "KIPMIDIKECP": "",
                "ANFHNPOCMNI": true,
                "BDLGHOJPJHD": "",
                "LCOJGFEOLCK": "",
                "BBBGAEDCJEL": ""
            },
            {
                "$type": "MEKNGCBGKEJ",
                "type": "DIALOG_SELECT",
                "delayTime": 0.4000000059604645,
                "aliasList": [
                    "AvatarNpc"
                ],
                "actionId": 126,
                "MLAABINGLAA": [
                    735060302
                ],
                "HPBPDBFGKID": [
                    1166950282
                ],
                "CFJOJADDHHG": true,
                "APEOOMIGHNL": 1166950279
            },
            {
                "$type": "KCBOGFFHPBD",
                "type": "BODY_LANG",
                "delayTime": 3.700000047683716,
                "aliasList": [
                    "AvatarNpc"
                ],
                "actionId": 140,
                "GPIEDGOMCGL": 1130,
                "FHLAMNNHMFA": true,
                "KCEHDJLKIAL": false,
                "KCOLHJBDILK": true,
                "AOFEDPBOOIE": ""
            },
            {
                "$type": "KCBOGFFHPBD",
                "type": "BODY_LANG",
                "delayTime": 5.296999931335449,
                "aliasList": [
                    "AvatarNpc"
                ],
                "actionId": 141,
                "AHGOBCDHCMC": true,
                "FHLAMNNHMFA": true,
                "KCEHDJLKIAL": false,
                "KCOLHJBDILK": true,
                "AOFEDPBOOIE": ""
            }
        ],
        [
            {
                "$type": "BCJBNCJOPCE",
                "type": "CAMERA_MOVE",
                "duration": 0.5,
                "actionId": 144,
                "AKFGKKEOEFA": {
                    "x": 298.3489990234375,
                    "y": 243.50799560546875,
                    "z": 2343.2490234375
                },
                "NGEBMAEFFGJ": {
                    "x": 298.89300537109375,
                    "y": 243.48800659179688,
                    "z": 2342.409912109375
                },
                "LIGHLBKBDEI": 30.0,
                "GFIOJGJJGCN": 6,
                "ABAEPHOGOFF": "EaseInOutCubic",
                "KFDBMBFFANN": {},
                "IEJBKHHEJEN": true,
                "CEDHIBLHMKP": false,
                "KIPMIDIKECP": "",
                "ANFHNPOCMNI": true,
                "BDLGHOJPJHD": "",
                "LCOJGFEOLCK": "",
                "BBBGAEDCJEL": ""
            },
            {
                "$type": "KCBOGFFHPBD",
                "type": "BODY_LANG",
                "aliasList": [
                    "AvatarNpc"
                ],
                "actionId": 142,
                "AHGOBCDHCMC": true,
                "FHLAMNNHMFA": true,
                "KCEHDJLKIAL": false,
                "KCOLHJBDILK": true,
                "AOFEDPBOOIE": ""
            },
            {
                "$type": "CCEEIGNAILH",
                "type": "DIALOG",
                "aliasList": [
                    "30279"
                ],
                "actionId": 110,
                "KICBIOMGHIN": 735060303,
                "PNCCODDABKI": 0.5
            },
            {
                "$type": "KCBOGFFHPBD",
                "type": "BODY_LANG",
                "aliasList": [
                    "30279"
                ],
                "actionId": 145,
                "GPIEDGOMCGL": 4030,
                "FHLAMNNHMFA": true,
                "KCEHDJLKIAL": false,
                "KCOLHJBDILK": true,
                "AOFEDPBOOIE": ""
            },
            {
                "$type": "DNAEECJNBFB",
                "type": "EMO_SYNC",
                "aliasList": [
                    "30279"
                ],
                "actionId": 189,
                "EOGJDJKPPGE": "Cs_Emo_Avatar_Simple_Common_Set/Cs_Emo_Avatar_Talk/Cs_Emo_WorldQuest/Cs_Emo_Sumeru_73506/Cs_Emo_735060303",
                "IHCBGPABDLE": "",
                "CIKPDMODFPL": "",
                "HDIAHFFHNGE": "",
                "BOAAGJEEFDD": "",
                "PFDPJKHPADE": "",
                "DALINBJAHOC": [
                    1920582374493387419,
                    2254827820135624155,
                    13718283649667149222,
                    15705463027141046757
                ]
            },
            {
                "$type": "BCJBNCJOPCE",
                "type": "CAMERA_MOVE",
                "delayTime": 0.10000000149011612,
                "duration": 5.242000102996826,
                "actionId": 143,
                "AKFGKKEOEFA": {
                    "x": 298.1199951171875,
                    "y": 243.49600219726562,
                    "z": 2343.10107421875
                },
                "NGEBMAEFFGJ": {
                    "x": 298.6789855957031,
                    "y": 243.47900390625,
                    "z": 2342.27197265625
                },
                "LIGHLBKBDEI": 30.0,
                "GFIOJGJJGCN": 2,
                "ABAEPHOGOFF": "EaseOutQuad",
                "KFDBMBFFANN": {},
                "IEJBKHHEJEN": true,
                "CEDHIBLHMKP": false,
                "KIPMIDIKECP": "",
                "ANFHNPOCMNI": true,
                "BDLGHOJPJHD": "",
                "LCOJGFEOLCK": "",
                "BBBGAEDCJEL": ""
            }
        ],
        [
            {
                "$type": "CCEEIGNAILH",
                "type": "DIALOG",
                "aliasList": [
                    "30279"
                ],
                "actionId": 112,
                "KICBIOMGHIN": 735060304,
                "PNCCODDABKI": 0.5
            },
            {
                "$type": "KCBOGFFHPBD",
                "type": "BODY_LANG",
                "aliasList": [
                    "30279"
                ],
                "actionId": 147,
                "GPIEDGOMCGL": 1130,
                "FHLAMNNHMFA": true,
                "KCEHDJLKIAL": false,
                "KCOLHJBDILK": true,
                "AOFEDPBOOIE": ""
            },
            {
                "$type": "IBPNIIGAIPF",
                "type": "LOOK_AT",
                "aliasList": [
                    "30279"
                ],
                "actionId": 152,
                "GGIENKFBOGL": true,
                "useTargetPos": true,
                "GCOONJBHNIM": true,
                "JHNJNNOPJKG": {
                    "x": 300.7869873046875,
                    "y": 243.25,
                    "z": 2341.48291015625
                },
                "NDOMJCOFKDJ": 0.5,
                "KIPMIDIKECP": "",
                "AHLPNEGAKGG": "NONE",
                "FGPHOPBEJDE": true,
                "HJJAFGPMJNJ": "",
                "AOFBAGFCGPJ": ""
            },
            {
                "$type": "DNAEECJNBFB",
                "type": "EMO_SYNC",
                "aliasList": [
                    "30279"
                ],
                "actionId": 190,
                "EOGJDJKPPGE": "Cs_Emo_Avatar_Simple_Common_Set/Cs_Emo_Avatar_Talk/Cs_Emo_WorldQuest/Cs_Emo_Sumeru_73506/Cs_Emo_735060304",
                "IHCBGPABDLE": "",
                "CIKPDMODFPL": "",
                "HDIAHFFHNGE": "",
                "BOAAGJEEFDD": "",
                "PFDPJKHPADE": "",
                "DALINBJAHOC": [
                    12762002935503453332,
                    604938865529045209,
                    464695644472206171,
                    2438241217223390610
                ]
            },
            {
                "$type": "KCBOGFFHPBD",
                "type": "BODY_LANG",
                "delayTime": 2.5450000762939453,
                "aliasList": [
                    "30279"
                ],
                "actionId": 150,
                "AHGOBCDHCMC": true,
                "FHLAMNNHMFA": true,
                "KCEHDJLKIAL": false,
                "KCOLHJBDILK": true,
                "AOFEDPBOOIE": ""
            },
            {
                "$type": "IBPNIIGAIPF",
                "type": "LOOK_AT",
                "delayTime": 3.4019999504089355,
                "aliasList": [
                    "30279"
                ],
                "actionId": 153,
                "GGIENKFBOGL": true,
                "useTargetPos": true,
                "GCOONJBHNIM": true,
                "JHNJNNOPJKG": {
                    "x": 299.78399658203125,
                    "y": 243.572998046875,
                    "z": 2341.719970703125
                },
                "NDOMJCOFKDJ": 0.5,
                "KIPMIDIKECP": "",
                "AHLPNEGAKGG": "NONE",
                "FGPHOPBEJDE": true,
                "HJJAFGPMJNJ": "",
                "AOFBAGFCGPJ": ""
            },
            {
                "$type": "BCJBNCJOPCE",
                "type": "CAMERA_MOVE",
                "delayTime": 3.4790000915527344,
                "duration": 0.5,
                "actionId": 149,
                "AKFGKKEOEFA": {
                    "x": 295.34600830078125,
                    "y": 244.63800048828125,
                    "z": 2334.6640625
                },
                "NGEBMAEFFGJ": {
                    "x": 295.89300537109375,
                    "y": 244.51100158691406,
                    "z": 2335.491943359375
                },
                "LIGHLBKBDEI": 30.0,
                "GFIOJGJJGCN": 6,
                "ABAEPHOGOFF": "EaseInOutCubic",
                "KFDBMBFFANN": {},
                "IEJBKHHEJEN": true,
                "CEDHIBLHMKP": false,
                "KIPMIDIKECP": "",
                "ANFHNPOCMNI": true,
                "BDLGHOJPJHD": "",
                "LCOJGFEOLCK": "",
                "BBBGAEDCJEL": ""
            },
            {
                "$type": "BCJBNCJOPCE",
                "type": "CAMERA_MOVE",
                "delayTime": 3.5789999961853027,
                "duration": 10.375,
                "actionId": 148,
                "AKFGKKEOEFA": {
                    "x": 295.260009765625,
                    "y": 245.05299377441406,
                    "z": 2334.779052734375
                },
                "NGEBMAEFFGJ": {
                    "x": 295.8089904785156,
                    "y": 244.92599487304688,
                    "z": 2335.60498046875
                },
                "LIGHLBKBDEI": 30.0,
                "GFIOJGJJGCN": 2,
                "ABAEPHOGOFF": "EaseOutQuad",
                "KFDBMBFFANN": {},
                "IEJBKHHEJEN": true,
                "CEDHIBLHMKP": false,
                "KIPMIDIKECP": "",
                "ANFHNPOCMNI": true,
                "BDLGHOJPJHD": "",
                "LCOJGFEOLCK": "",
                "BBBGAEDCJEL": ""
            },
            {
                "$type": "KCBOGFFHPBD",
                "type": "BODY_LANG",
                "delayTime": 3.617000102996826,
                "aliasList": [
                    "30279"
                ],
                "actionId": 151,
                "GPIEDGOMCGL": 1173,
                "FHLAMNNHMFA": true,
                "KCEHDJLKIAL": false,
                "KCOLHJBDILK": true,
                "AOFEDPBOOIE": ""
            }
        ],
        [
            {
                "$type": "BCJBNCJOPCE",
                "type": "CAMERA_MOVE",
                "duration": 0.5,
                "actionId": 156,
                "AKFGKKEOEFA": {
                    "x": 306.19000244140625,
                    "y": 242.6649932861328,
                    "z": 2373.70703125
                },
                "NGEBMAEFFGJ": {
                    "x": 306.9989929199219,
                    "y": 242.88900756835938,
                    "z": 2374.25
                },
                "LIGHLBKBDEI": 30.0,
                "GFIOJGJJGCN": 6,
                "ABAEPHOGOFF": "EaseInOutCubic",
                "KFDBMBFFANN": {},
                "IEJBKHHEJEN": true,
                "GDHBGCNKHDE": 13.451000213623047,
                "CEDHIBLHMKP": false,
                "KIPMIDIKECP": "",
                "ANFHNPOCMNI": true,
                "BDLGHOJPJHD": "",
                "LCOJGFEOLCK": "",
                "BBBGAEDCJEL": ""
            },
            {
                "$type": "CCEEIGNAILH",
                "type": "DIALOG",
                "aliasList": [
                    "30279"
                ],
                "actionId": 114,
                "KICBIOMGHIN": 735060305,
                "PNCCODDABKI": 0.5
            },
            {
                "$type": "IBPNIIGAIPF",
                "type": "LOOK_AT",
                "aliasList": [
                    "30279"
                ],
                "actionId": 154,
                "GGIENKFBOGL": true,
                "useTargetPos": true,
                "GCOONJBHNIM": true,
                "JHNJNNOPJKG": {
                    "x": 299.78399658203125,
                    "y": 243.572998046875,
                    "z": 2341.719970703125
                },
                "NDOMJCOFKDJ": 0.5,
                "KIPMIDIKECP": "",
                "AHLPNEGAKGG": "NONE",
                "FGPHOPBEJDE": true,
                "HJJAFGPMJNJ": "",
                "AOFBAGFCGPJ": ""
            },
            {
                "$type": "KCBOGFFHPBD",
                "type": "BODY_LANG",
                "aliasList": [
                    "30279"
                ],
                "actionId": 158,
                "AHGOBCDHCMC": true,
                "FHLAMNNHMFA": true,
                "KCEHDJLKIAL": false,
                "KCOLHJBDILK": true,
                "AOFEDPBOOIE": ""
            },
            {
                "$type": "DNAEECJNBFB",
                "type": "EMO_SYNC",
                "aliasList": [
                    "30279"
                ],
                "actionId": 191,
                "EOGJDJKPPGE": "Cs_Emo_Avatar_Simple_Common_Set/Cs_Emo_Avatar_Talk/Cs_Emo_WorldQuest/Cs_Emo_Sumeru_73506/Cs_Emo_735060305",
                "IHCBGPABDLE": "",
                "CIKPDMODFPL": "",
                "HDIAHFFHNGE": "",
                "BOAAGJEEFDD": "",
                "PFDPJKHPADE": "",
                "DALINBJAHOC": [
                    1350351978144684459,
                    13880715004201061352,
                    14466961780897454189,
                    9868495805817355113
                ]
            },
            {
                "$type": "BCJBNCJOPCE",
                "type": "CAMERA_MOVE",
                "delayTime": 0.10000000149011612,
                "duration": 13.99899959564209,
                "actionId": 155,
                "AKFGKKEOEFA": {
                    "x": 309.62298583984375,
                    "y": 245.39599609375,
                    "z": 2369.89794921875
                },
                "NGEBMAEFFGJ": {
                    "x": 310.16400146484375,
                    "y": 245.4290008544922,
                    "z": 2370.738037109375
                },
                "LIGHLBKBDEI": 30.0,
                "GFIOJGJJGCN": 2,
                "ABAEPHOGOFF": "EaseOutQuad",
                "KFDBMBFFANN": {},
                "IEJBKHHEJEN": true,
                "GDHBGCNKHDE": 13.109999656677246,
                "CEDHIBLHMKP": false,
                "KIPMIDIKECP": "",
                "ANFHNPOCMNI": true,
                "BDLGHOJPJHD": "",
                "LCOJGFEOLCK": "",
                "BBBGAEDCJEL": ""
            }
        ],
        [
            {
                "$type": "BCJBNCJOPCE",
                "type": "CAMERA_MOVE",
                "duration": 0.5,
                "actionId": 159,
                "AKFGKKEOEFA": {
                    "x": 298.25,
                    "y": 243.52499389648438,
                    "z": 2339.925048828125
                },
                "NGEBMAEFFGJ": {
                    "x": 298.9840087890625,
                    "y": 243.4600067138672,
                    "z": 2340.60205078125
                },
                "LIGHLBKBDEI": 30.0,
                "GFIOJGJJGCN": 6,
                "ABAEPHOGOFF": "EaseInOutCubic",
                "KFDBMBFFANN": {},
                "IEJBKHHEJEN": true,
                "CEDHIBLHMKP": false,
                "KIPMIDIKECP": "",
                "ANFHNPOCMNI": true,
                "BDLGHOJPJHD": "",
                "LCOJGFEOLCK": "",
                "BBBGAEDCJEL": ""
            },
            {
                "$type": "CCEEIGNAILH",
                "type": "DIALOG",
                "aliasList": [
                    "30279"
                ],
                "actionId": 116,
                "KICBIOMGHIN": 735060306,
                "PNCCODDABKI": 0.5
            },
            {
                "$type": "DNAEECJNBFB",
                "type": "EMO_SYNC",
                "aliasList": [
                    "30279"
                ],
                "actionId": 192,
                "EOGJDJKPPGE": "Cs_Emo_Avatar_Simple_Common_Set/Cs_Emo_Avatar_Talk/Cs_Emo_WorldQuest/Cs_Emo_Sumeru_73506/Cs_Emo_735060306",
                "IHCBGPABDLE": "",
                "CIKPDMODFPL": "",
                "HDIAHFFHNGE": "",
                "BOAAGJEEFDD": "",
                "PFDPJKHPADE": "",
                "DALINBJAHOC": [
                    12686526666988817825,
                    16165531753045997730,
                    4854257278338818688,
                    11480060308042807303
                ]
            },
            {
                "$type": "BCJBNCJOPCE",
                "type": "CAMERA_MOVE",
                "delayTime": 0.10000000149011612,
                "duration": 11.914999961853027,
                "actionId": 157,
                "AKFGKKEOEFA": {
                    "x": 298.4070129394531,
                    "y": 243.5330047607422,
                    "z": 2339.7548828125
                },
                "NGEBMAEFFGJ": {
                    "x": 299.1409912109375,
                    "y": 243.46800231933594,
                    "z": 2340.431884765625
                },
                "LIGHLBKBDEI": 30.0,
                "GFIOJGJJGCN": 2,
                "ABAEPHOGOFF": "EaseOutQuad",
                "KFDBMBFFANN": {},
                "IEJBKHHEJEN": true,
                "CEDHIBLHMKP": false,
                "KIPMIDIKECP": "",
                "ANFHNPOCMNI": true,
                "BDLGHOJPJHD": "",
                "LCOJGFEOLCK": "",
                "BBBGAEDCJEL": ""
            },
            {
                "$type": "IBPNIIGAIPF",
                "type": "LOOK_AT",
                "delayTime": 2.934999942779541,
                "aliasList": [
                    "1005"
                ],
                "actionId": 165,
                "GGIENKFBOGL": true,
                "useTargetPos": true,
                "GCOONJBHNIM": true,
                "JHNJNNOPJKG": {
                    "x": 299.8919982910156,
                    "y": 243.51499938964844,
                    "z": 2341.14306640625
                },
                "NDOMJCOFKDJ": 0.5,
                "KIPMIDIKECP": "",
                "AHLPNEGAKGG": "NONE",
                "FGPHOPBEJDE": true,
                "HJJAFGPMJNJ": "",
                "AOFBAGFCGPJ": ""
            },
            {
                "$type": "OMPHNKNPPJO",
                "type": "LOOK_AT_EYECTRL",
                "delayTime": 3.2669999599456787,
                "aliasList": [
                    "AvatarNpc"
                ],
                "actionId": 162,
                "useTargetPos": false,
                "OMHMNNDGHFL": {
                    "x": -4.0,
                    "z": 2.0
                },
                "AMNIBCAICEP": {
                    "x": -4.0,
                    "z": 2.0
                },
                "MHBPPJNDKJC": 0.20000000298023224,
                "KIPMIDIKECP": "",
                "JJEGGHOEIPD": "Face"
            },
            {
                "$type": "IBPNIIGAIPF",
                "type": "LOOK_AT",
                "delayTime": 3.2750000953674316,
                "aliasList": [
                    "AvatarNpc"
                ],
                "actionId": 160,
                "GGIENKFBOGL": true,
                "useTargetPos": true,
                "GCOONJBHNIM": true,
                "JHNJNNOPJKG": {
                    "x": 300.5539855957031,
                    "y": 243.35499572753906,
                    "z": 2341.096923828125
                },
                "NDOMJCOFKDJ": 0.5,
                "KIPMIDIKECP": "",
                "AHLPNEGAKGG": "NONE",
                "FGPHOPBEJDE": true,
                "HJJAFGPMJNJ": "",
                "AOFBAGFCGPJ": ""
            },
            {
                "$type": "IBPNIIGAIPF",
                "type": "LOOK_AT",
                "delayTime": 5.070000171661377,
                "aliasList": [
                    "1005"
                ],
                "actionId": 166,
                "GGIENKFBOGL": true,
                "useTargetPos": true,
                "GCOONJBHNIM": true,
                "JHNJNNOPJKG": {
                    "x": 299.87799072265625,
                    "y": 243.81500244140625,
                    "z": 2339.861083984375
                },
                "NDOMJCOFKDJ": 0.5,
                "KIPMIDIKECP": "",
                "AHLPNEGAKGG": "NONE",
                "FGPHOPBEJDE": true,
                "HJJAFGPMJNJ": "",
                "AOFBAGFCGPJ": ""
            },
            {
                "$type": "IBPNIIGAIPF",
                "type": "LOOK_AT",
                "delayTime": 5.27400016784668,
                "aliasList": [
                    "AvatarNpc"
                ],
                "actionId": 163,
                "GGIENKFBOGL": true,
                "useTargetPos": true,
                "GCOONJBHNIM": true,
                "JHNJNNOPJKG": {
                    "x": 299.6889953613281,
                    "y": 243.8780059814453,
                    "z": 2339.85888671875
                },
                "NDOMJCOFKDJ": 0.5,
                "KIPMIDIKECP": "",
                "AHLPNEGAKGG": "NONE",
                "FGPHOPBEJDE": true,
                "HJJAFGPMJNJ": "",
                "AOFBAGFCGPJ": ""
            },
            {
                "$type": "OMPHNKNPPJO",
                "type": "LOOK_AT_EYECTRL",
                "delayTime": 5.2829999923706055,
                "aliasList": [
                    "AvatarNpc"
                ],
                "actionId": 164,
                "useTargetPos": false,
                "MHBPPJNDKJC": 0.20000000298023224,
                "KIPMIDIKECP": "",
                "JJEGGHOEIPD": "Face"
            }
        ],
        [
            {
                "$type": "BCJBNCJOPCE",
                "type": "CAMERA_MOVE",
                "duration": 0.5,
                "actionId": 171,
                "AKFGKKEOEFA": {
                    "x": 300.73199462890625,
                    "y": 243.33399963378906,
                    "z": 2342.85595703125
                },
                "NGEBMAEFFGJ": {
                    "x": 300.4360046386719,
                    "y": 243.4010009765625,
                    "z": 2341.903076171875
                },
                "LIGHLBKBDEI": 30.0,
                "GFIOJGJJGCN": 6,
                "ABAEPHOGOFF": "EaseInOutCubic",
                "KFDBMBFFANN": {},
                "IEJBKHHEJEN": true,
                "CEDHIBLHMKP": false,
                "KIPMIDIKECP": "",
                "ANFHNPOCMNI": true,
                "BDLGHOJPJHD": "",
                "LCOJGFEOLCK": "",
                "BBBGAEDCJEL": ""
            },
            {
                "$type": "IBPNIIGAIPF",
                "type": "LOOK_AT",
                "aliasList": [
                    "AvatarNpc"
                ],
                "actionId": 167,
                "GGIENKFBOGL": true,
                "useTargetPos": true,
                "GCOONJBHNIM": true,
                "JHNJNNOPJKG": {
                    "x": 299.6889953613281,
                    "y": 243.8780059814453,
                    "z": 2339.85888671875
                },
                "NDOMJCOFKDJ": 0.5,
                "KIPMIDIKECP": "",
                "AHLPNEGAKGG": "NONE",
                "FGPHOPBEJDE": true,
                "HJJAFGPMJNJ": "",
                "AOFBAGFCGPJ": ""
            },
            {
                "$type": "OMPHNKNPPJO",
                "type": "LOOK_AT_EYECTRL",
                "aliasList": [
                    "AvatarNpc"
                ],
                "actionId": 168,
                "useTargetPos": false,
                "MHBPPJNDKJC": 0.20000000298023224,
                "KIPMIDIKECP": "",
                "JJEGGHOEIPD": "Face"
            },
            {
                "$type": "CCEEIGNAILH",
                "type": "DIALOG",
                "aliasList": [
                    "30279"
                ],
                "actionId": 118,
                "KICBIOMGHIN": 735060307,
                "PNCCODDABKI": 0.5
            },
            {
                "$type": "IBPNIIGAIPF",
                "type": "LOOK_AT",
                "aliasList": [
                    "30279"
                ],
                "actionId": 172,
                "GGIENKFBOGL": true,
                "useTargetPos": true,
                "GCOONJBHNIM": true,
                "JHNJNNOPJKG": {
                    "x": 299.86199951171875,
                    "y": 243.52099609375,
                    "z": 2342.0869140625
                },
                "NDOMJCOFKDJ": 0.5,
                "KIPMIDIKECP": "",
                "AHLPNEGAKGG": "NONE",
                "FGPHOPBEJDE": true,
                "HJJAFGPMJNJ": "",
                "AOFBAGFCGPJ": ""
            },
            {
                "$type": "DNAEECJNBFB",
                "type": "EMO_SYNC",
                "aliasList": [
                    "30279"
                ],
                "actionId": 193,
                "EOGJDJKPPGE": "Cs_Emo_Avatar_Simple_Common_Set/Cs_Emo_Avatar_Talk/Cs_Emo_WorldQuest/Cs_Emo_Sumeru_73506/Cs_Emo_735060307",
                "IHCBGPABDLE": "",
                "CIKPDMODFPL": "",
                "HDIAHFFHNGE": "",
                "BOAAGJEEFDD": "",
                "PFDPJKHPADE": "",
                "DALINBJAHOC": [
                    15735871959325826499,
                    14121366361687632555,
                    16259561862427631212,
                    6897349734120503516
                ]
            },
            {
                "$type": "IBPNIIGAIPF",
                "type": "LOOK_AT",
                "aliasList": [
                    "1005"
                ],
                "actionId": 169,
                "GGIENKFBOGL": true,
                "useTargetPos": true,
                "GCOONJBHNIM": true,
                "JHNJNNOPJKG": {
                    "x": 299.87799072265625,
                    "y": 243.81500244140625,
                    "z": 2339.861083984375
                },
                "NDOMJCOFKDJ": 0.5,
                "KIPMIDIKECP": "",
                "AHLPNEGAKGG": "NONE",
                "FGPHOPBEJDE": true,
                "HJJAFGPMJNJ": "",
                "AOFBAGFCGPJ": ""
            },
            {
                "$type": "BCJBNCJOPCE",
                "type": "CAMERA_MOVE",
                "delayTime": 0.10000000149011612,
                "duration": 13.972999572753906,
                "actionId": 170,
                "AKFGKKEOEFA": {
                    "x": 300.67999267578125,
                    "y": 243.3780059814453,
                    "z": 2342.7119140625
                },
                "NGEBMAEFFGJ": {
                    "x": 300.3840026855469,
                    "y": 243.44500732421875,
                    "z": 2341.759033203125
                },
                "LIGHLBKBDEI": 30.0,
                "GFIOJGJJGCN": 2,
                "ABAEPHOGOFF": "EaseOutQuad",
                "KFDBMBFFANN": {},
                "IEJBKHHEJEN": true,
                "CEDHIBLHMKP": false,
                "KIPMIDIKECP": "",
                "ANFHNPOCMNI": true,
                "BDLGHOJPJHD": "",
                "LCOJGFEOLCK": "",
                "BBBGAEDCJEL": ""
            },
            {
                "$type": "KCBOGFFHPBD",
                "type": "BODY_LANG",
                "delayTime": 1.13100004196167,
                "aliasList": [
                    "30279"
                ],
                "actionId": 173,
                "GPIEDGOMCGL": 1173,
                "FHLAMNNHMFA": true,
                "KCEHDJLKIAL": false,
                "KCOLHJBDILK": true,
                "AOFEDPBOOIE": ""
            },
            {
                "$type": "IBPNIIGAIPF",
                "type": "LOOK_AT",
                "delayTime": 5.315999984741211,
                "aliasList": [
                    "30279"
                ],
                "actionId": 179,
                "GGIENKFBOGL": true,
                "useTargetPos": true,
                "GCOONJBHNIM": true,
                "JHNJNNOPJKG": {
                    "x": 300.8089904785156,
                    "y": 243.2050018310547,
                    "z": 2341.48095703125
                },
                "NDOMJCOFKDJ": 0.5,
                "KIPMIDIKECP": "",
                "AHLPNEGAKGG": "NONE",
                "FGPHOPBEJDE": true,
                "HJJAFGPMJNJ": "",
                "AOFBAGFCGPJ": ""
            },
            {
                "$type": "KCBOGFFHPBD",
                "type": "BODY_LANG",
                "delayTime": 6.718999862670898,
                "aliasList": [
                    "30279"
                ],
                "actionId": 174,
                "GPIEDGOMCGL": 1130,
                "FHLAMNNHMFA": true,
                "KCEHDJLKIAL": false,
                "KCOLHJBDILK": true,
                "AOFEDPBOOIE": ""
            },
            {
                "$type": "IBPNIIGAIPF",
                "type": "LOOK_AT",
                "delayTime": 8.616000175476074,
                "aliasList": [
                    "30279"
                ],
                "actionId": 180,
                "GGIENKFBOGL": true,
                "useTargetPos": true,
                "GCOONJBHNIM": true,
                "JHNJNNOPJKG": {
                    "x": 299.86199951171875,
                    "y": 243.52099609375,
                    "z": 2342.0869140625
                },
                "NDOMJCOFKDJ": 0.5,
                "KIPMIDIKECP": "",
                "AHLPNEGAKGG": "NONE",
                "FGPHOPBEJDE": true,
                "HJJAFGPMJNJ": "",
                "AOFBAGFCGPJ": ""
            },
            {
                "$type": "KCBOGFFHPBD",
                "type": "BODY_LANG",
                "delayTime": 9.390000343322754,
                "aliasList": [
                    "30279"
                ],
                "actionId": 175,
                "AHGOBCDHCMC": true,
                "FHLAMNNHMFA": true,
                "KCEHDJLKIAL": false,
                "KCOLHJBDILK": true,
                "AOFEDPBOOIE": ""
            }
        ],
        [
            {
                "$type": "BCJBNCJOPCE",
                "type": "CAMERA_MOVE",
                "duration": 0.5,
                "actionId": 184,
                "AKFGKKEOEFA": {
                    "x": 296.31298828125,
                    "y": 245.06199645996094,
                    "z": 2338.489013671875
                },
                "NGEBMAEFFGJ": {
                    "x": 297.1059875488281,
                    "y": 244.6529998779297,
                    "z": 2338.93994140625
                },
                "LIGHLBKBDEI": 30.0,
                "GFIOJGJJGCN": 6,
                "ABAEPHOGOFF": "EaseInOutCubic",
                "KFDBMBFFANN": {},
                "IEJBKHHEJEN": true,
                "CEDHIBLHMKP": false,
                "KIPMIDIKECP": "",
                "ANFHNPOCMNI": true,
                "BDLGHOJPJHD": "",
                "LCOJGFEOLCK": "",
                "BBBGAEDCJEL": ""
            },
            {
                "$type": "CCEEIGNAILH",
                "type": "DIALOG",
                "aliasList": [
                    "30279"
                ],
                "actionId": 120,
                "KICBIOMGHIN": 735060308,
                "PNCCODDABKI": 0.5
            },
            {
                "$type": "KCBOGFFHPBD",
                "type": "BODY_LANG",
                "aliasList": [
                    "30279"
                ],
                "actionId": 176,
                "AHGOBCDHCMC": true,
                "FHLAMNNHMFA": true,
                "KCEHDJLKIAL": false,
                "KCOLHJBDILK": true,
                "AOFEDPBOOIE": ""
            },
            {
                "$type": "IBPNIIGAIPF",
                "type": "LOOK_AT",
                "aliasList": [
                    "30279"
                ],
                "actionId": 181,
                "GGIENKFBOGL": true,
                "useTargetPos": true,
                "GCOONJBHNIM": true,
                "JHNJNNOPJKG": {
                    "x": 299.83099365234375,
                    "y": 243.47999572753906,
                    "z": 2342.0869140625
                },
                "NDOMJCOFKDJ": 0.5,
                "KIPMIDIKECP": "",
                "AHLPNEGAKGG": "NONE",
                "FGPHOPBEJDE": true,
                "HJJAFGPMJNJ": "",
                "AOFBAGFCGPJ": ""
            },
            {
                "$type": "DNAEECJNBFB",
                "type": "EMO_SYNC",
                "aliasList": [
                    "30279"
                ],
                "actionId": 194,
                "EOGJDJKPPGE": "Cs_Emo_Avatar_Simple_Common_Set/Cs_Emo_Avatar_Talk/Cs_Emo_WorldQuest/Cs_Emo_Sumeru_73506/Cs_Emo_735060308",
                "IHCBGPABDLE": "",
                "CIKPDMODFPL": "",
                "HDIAHFFHNGE": "",
                "BOAAGJEEFDD": "",
                "PFDPJKHPADE": "",
                "DALINBJAHOC": [
                    17562280918963140489,
                    14904899746766524687,
                    11459179161814628440,
                    12842692663730997328
                ]
            },
            {
                "$type": "BCJBNCJOPCE",
                "type": "CAMERA_MOVE",
                "delayTime": 0.10000000149011612,
                "duration": 8.78499984741211,
                "actionId": 183,
                "AKFGKKEOEFA": {
                    "x": 295.552001953125,
                    "y": 245.32400512695312,
                    "z": 2338.05810546875
                },
                "NGEBMAEFFGJ": {
                    "x": 296.3450012207031,
                    "y": 244.9149932861328,
                    "z": 2338.509033203125
                },
                "LIGHLBKBDEI": 30.0,
                "GFIOJGJJGCN": 2,
                "ABAEPHOGOFF": "EaseOutQuad",
                "KFDBMBFFANN": {},
                "IEJBKHHEJEN": true,
                "CEDHIBLHMKP": false,
                "KIPMIDIKECP": "",
                "ANFHNPOCMNI": true,
                "BDLGHOJPJHD": "",
                "LCOJGFEOLCK": "",
                "BBBGAEDCJEL": ""
            },
            {
                "$type": "KCBOGFFHPBD",
                "type": "BODY_LANG",
                "delayTime": 1.0870000123977661,
                "aliasList": [
                    "30279"
                ],
                "actionId": 177,
                "GPIEDGOMCGL": 1110,
                "FHLAMNNHMFA": true,
                "KCEHDJLKIAL": false,
                "KCOLHJBDILK": true,
                "AOFEDPBOOIE": ""
            },
            {
                "$type": "KCBOGFFHPBD",
                "type": "BODY_LANG",
                "delayTime": 4.310999870300293,
                "aliasList": [
                    "30279"
                ],
                "actionId": 178,
                "AHGOBCDHCMC": true,
                "FHLAMNNHMFA": true,
                "KCEHDJLKIAL": false,
                "KCOLHJBDILK": true,
                "AOFEDPBOOIE": ""
            }
        ],
        [
            {
                "$type": "MoleMole.Config.ConfigSimpleBlackScreenAction",
                "type": "SIMPLE_BLACK_SCREEN",
                "actionId": 121,
                "durationToBlack": 0.5,
                "durationKeepBlack": 1.0,
                "durationFromBlack": 0.5,
                "textMapID": ""
            },
            {
                "$type": "MoleMole.Config.ConfigTimeProtectAction",
                "type": "TIME_PROTECT",
                "duration": 0.699999988079071,
                "actionId": 122
            },
            {
                "$type": "KCBOGFFHPBD",
                "type": "BODY_LANG",
                "aliasList": [
                    "30279"
                ],
                "actionId": 185,
                "FHLAMNNHMFA": true,
                "KCEHDJLKIAL": false,
                "KCOLHJBDILK": true,
                "AOFEDPBOOIE": ""
            },
            {
                "$type": "BCJBNCJOPCE",
                "type": "CAMERA_MOVE",
                "delayTime": 0.5,
                "duration": 0.10000000149011612,
                "actionId": 125,
                "AKFGKKEOEFA": {
                    "x": 300.4320068359375,
                    "y": 243.625,
                    "z": 2344.18798828125
                },
                "NGEBMAEFFGJ": {
                    "x": 300.19000244140625,
                    "y": 243.4770050048828,
                    "z": 2343.22900390625
                },
                "GFIOJGJJGCN": 6,
                "ABAEPHOGOFF": "EaseInOutCubic",
                "KFDBMBFFANN": {},
                "IEJBKHHEJEN": true,
                "CEDHIBLHMKP": false,
                "KIPMIDIKECP": "",
                "ANFHNPOCMNI": true,
                "BDLGHOJPJHD": "",
                "LCOJGFEOLCK": "",
                "BBBGAEDCJEL": ""
            },
            {
                "$type": "MoleMole.Config.ConfigVisibleInterAction",
                "type": "VISIBLE",
                "delayTime": 0.6000000238418579,
                "aliasList": [
                    "Avatar"
                ],
                "actionId": 128,
                "isVisible": true,
                "extraParam": ""
            },
            {
                "$type": "MoleMole.Config.ConfigVisibleInterAction",
                "type": "VISIBLE",
                "delayTime": 0.6000000238418579,
                "aliasList": [
                    "AvatarNpc"
                ],
                "actionId": 130,
                "extraParam": ""
            }
        ]
    ],
    "groupId": [
        {
            "grpId": 1166950280,
            "nextGrpId": 1166950281
        },
        {
            "index": 1,
            "grpId": 1166950281,
            "nextGrpId": 1166950282
        },
        {
            "index": 2,
            "grpId": 1166950282,
            "nextGrpId": 1166950283
        },
        {
            "index": 3,
            "grpId": 1166950283,
            "nextGrpId": 1166950284
        },
        {
            "index": 4,
            "grpId": 1166950284,
            "nextGrpId": 1166950285
        },
        {
            "index": 5,
            "grpId": 1166950285,
            "nextGrpId": 1166950286
        },
        {
            "index": 6,
            "grpId": 1166950286,
            "nextGrpId": 1166950287
        },
        {
            "index": 7,
            "grpId": 1166950287,
            "nextGrpId": 1166950288
        },
        {
            "index": 8,
            "grpId": 1166950288,
            "nextGrpId": 1815720360
        }
    ],
    "freeStyleDic": {
        "1025": [
            1130
        ],
        "1026": [
            1130
        ],
        "30279": [
            1173,
            4030,
            1130,
            1110
        ]
    }
}