[
    {
        "Default": {
            "$type": "ConfigAbility",
            "abilityName": "SceneObj_Area_Common_Property_Prop_QunyugeDebris_Lit_01",
            "abilityMixins": [
                {
                    "$type": "AttachToGadgetStateMixin",
                    "modifierName": "lock"
                },
                {
                    "$type": "AttachToGadgetStateMixin",
                    "gadgetState": 201,
                    "modifierName": "unlock"
                },
                {
                    "$type": "AttachToGadgetStateMixin",
                    "gadgetState": 202,
                    "modifierName": "UNIQUE_Interacted"
                }
            ],
            "modifiers": {
                "lock": {
                    "modifierName": "",
                    "bonusCritical": 100.0,
                    "onAdded": [
                        {
                            "$type": "ApplyModifier",
                            "modifierName": "Eff_Loop"
                        },
                        {
                            "$type": "AttachEffect",
                            "healLimitedByCasterMaxHPRatio": "Eff_Item_SpecialTreasureBox_LockIdle_Little_Qunyugedebris",
                            "born": {
                                "$type": "IJCOFPNPJPK",
                                "attachPointName": "LockIdleEffectPoint"
                            },
                            "JAOICKHDAKL": -1.0
                        }
                    ],
                    "onRemoved": [
                        {
                            "$type": "FireEffect",
                            "healLimitedByCasterMaxHPRatio": "Eff_Item_SpecialTreasureBox_Unlock_Little_Qunyugedebris",
                            "born": {
                                "$type": "IJCOFPNPJPK",
                                "attachPointName": "LockIdleEffectPoint"
                            },
                            "JAOICKHDAKL": -1.0
                        }
                    ]
                },
                "unlock": {
                    "modifierName": "",
                    "bonusCritical": 100.0,
                    "onAdded": [
                        {
                            "$type": "ApplyModifier",
                            "modifierName": "Eff_Loop"
                        }
                    ]
                },
                "UNIQUE_Interacted": {
                    "modifierName": "",
                    "isUnique": true,
                    "bonusCritical": 100.0,
                    "onAdded": [
                        {
                            "$type": "RemoveModifier",
                            "modifierName": "Eff_Loop"
                        },
                        {
                            "$type": "FireEffect",
                            "healLimitedByCasterMaxHPRatio": "Eff_SceneObj_SearchWater_01",
                            "JAOICKHDAKL": -1.0
                        },
                        {
                            "$type": "EnableSceneTransformByName",
                            "transformNames": [
                                "wave"
                            ]
                        },
                        {
                            "$type": "EnableSceneTransformByName",
                            "transformNames": [
                                "chest"
                            ]
                        }
                    ],
                    "onRemoved": [
                        {
                            "$type": "EnableSceneTransformByName",
                            "transformNames": [
                                "wave"
                            ],
                            "setEnable": true
                        },
                        {
                            "$type": "EnableSceneTransformByName",
                            "transformNames": [
                                "chest"
                            ],
                            "setEnable": true
                        }
                    ]
                },
                "Eff_Loop": {
                    "modifierName": "",
                    "bonusCritical": 100.0,
                    "onAdded": [
                        {
                            "$type": "AttachEffect",
                            "healLimitedByCasterMaxHPRatio": "Eff_SceneObj_QunyugeDebris_01",
                            "JAOICKHDAKL": -1.0
                        }
                    ]
                }
            }
        }
    },
    {
        "Default": {
            "$type": "ConfigAbility",
            "abilityName": "SceneObj_Area_Common_Property_Prop_QunyugeDebris_Lit_02",
            "abilityMixins": [
                {
                    "$type": "AttachToGadgetStateMixin",
                    "modifierName": "lock"
                },
                {
                    "$type": "AttachToGadgetStateMixin",
                    "gadgetState": 201,
                    "modifierName": "unlock"
                },
                {
                    "$type": "AttachToGadgetStateMixin",
                    "gadgetState": 202,
                    "modifierName": "UNIQUE_Interacted"
                }
            ],
            "modifiers": {
                "lock": {
                    "modifierName": "",
                    "bonusCritical": 100.0,
                    "onAdded": [
                        {
                            "$type": "ApplyModifier",
                            "modifierName": "Eff_Loop"
                        },
                        {
                            "$type": "AttachEffect",
                            "healLimitedByCasterMaxHPRatio": "Eff_Item_SpecialTreasureBox_LockIdle_Little_Qunyugedebris",
                            "born": {
                                "$type": "IJCOFPNPJPK",
                                "attachPointName": "LockIdleEffectPoint"
                            },
                            "JAOICKHDAKL": -1.0
                        }
                    ],
                    "onRemoved": [
                        {
                            "$type": "FireEffect",
                            "healLimitedByCasterMaxHPRatio": "Eff_Item_SpecialTreasureBox_Unlock_Little_Qunyugedebris",
                            "born": {
                                "$type": "IJCOFPNPJPK",
                                "attachPointName": "LockIdleEffectPoint"
                            },
                            "JAOICKHDAKL": -1.0
                        }
                    ]
                },
                "unlock": {
                    "modifierName": "",
                    "bonusCritical": 100.0,
                    "onAdded": [
                        {
                            "$type": "ApplyModifier",
                            "modifierName": "Eff_Loop"
                        }
                    ]
                },
                "UNIQUE_Interacted": {
                    "modifierName": "",
                    "isUnique": true,
                    "bonusCritical": 100.0,
                    "onAdded": [
                        {
                            "$type": "RemoveModifier",
                            "modifierName": "Eff_Loop"
                        },
                        {
                            "$type": "EnableSceneTransformByName",
                            "transformNames": [
                                "collider"
                            ]
                        }
                    ]
                },
                "Eff_Loop": {
                    "modifierName": "",
                    "bonusCritical": 100.0,
                    "onAdded": [
                        {
                            "$type": "AttachEffect",
                            "healLimitedByCasterMaxHPRatio": "Eff_SceneObj_QunyugeDebris_01",
                            "JAOICKHDAKL": -1.0
                        }
                    ]
                }
            }
        }
    },
    {
        "Default": {
            "$type": "ConfigAbility",
            "abilityName": "SceneObj_Area_Common_Property_Prop_FirecrackerChest_Lit_01",
            "abilityMixins": [
                {
                    "$type": "AttachModifierToGlobalValueMixin",
                    "globalValueKey": "SGV_Show_Mark",
                    "valueSteps": [
                        -0.5,
                        0.5,
                        1.5
                    ],
                    "modifierNameSteps": [
                        "Gadget_Blank",
                        "Gadget_Show"
                    ]
                }
            ],
            "modifiers": {
                "Gadget_Blank": {
                    "modifierName": "",
                    "bonusCritical": 100.0
                },
                "Gadget_Show": {
                    "modifierName": "",
                    "bonusCritical": 100.0,
                    "onAdded": [
                        {
                            "$type": "AttachEffect",
                            "healLimitedByCasterMaxHPRatio": "Eff_Quest_SiteInteract_Event",
                            "JAOICKHDAKL": -1.0
                        }
                    ]
                }
            }
        }
    },
    {
        "Default": {
            "$type": "ConfigAbility",
            "abilityName": "SceneObj_Firecracker_Play",
            "modifiers": {
                "Firecracker_Creater": {
                    "stacking": "Multiple",
                    "modifierName": "",
                    "duration": 1.0,
                    "bonusCritical": 100.0,
                    "onAdded": [
                        {
                            "$type": "CreateGadget",
                            "born": {
                                "$type": "KDEPFKAAHCG",
                                "offset": {
                                    "HMHIOILIGBF": 0.0,
                                    "DPPJGBOHAAL": 0.0,
                                    "DDOAGBLBCEF": 0.0
                                }
                            },
                            "gadgetID": 70800057,
                            "campID": 1001,
                            "campTargetType": "Enemy"
                        }
                    ]
                }
            },
            "onAbilityStart": [
                {
                    "$type": "SetGlobalValue",
                    "target": "Team",
                    "ratio": 0.0,
                    "key": "AVATAR_Firecracker_Play",
                    "useLimitRange": true,
                    "maxValue": 100.0,
                    "minValue": 0.0
                },
                {
                    "$type": "ServerLuaCall",
                    "luaCallType": "SpecificGroup",
                    "CallParamList": [
                        133108196,
                        133108197,
                        133108236,
                        133108228,
                        133108230,
                        133108225,
                        133108231,
                        133108229,
                        133108226,
                        133108198
                    ],
                    "funcName": "SLC_Firecracker_Used",
                    "FDPBPIHKEGH": 0.0,
                    "FJCBPCIDMGJ": 0.0,
                    "NDCPJDDPIMD": 0.0
                },
                {
                    "$type": "ApplyModifier",
                    "target": "CurLocalAvatar",
                    "modifierName": "Firecracker_Creater"
                }
            ],
            "isDynamicAbility": true
        }
    },
    {
        "Default": {
            "$type": "ConfigAbility",
            "abilityName": "Avatar_Firecracker_Play",
            "modifiers": {
                "UNIQUE_Avatar_Firecracker_Play": {
                    "stacking": "Unique",
                    "modifierName": "",
                    "isUnique": true,
                    "bonusCritical": 100.0,
                    "modifierMixins": [
                        {
                            "$type": "ServerUpdateGlobalValueMixin",
                            "key": "AVATAR_Firecracker_Play",
                            "maxValue": 0.0,
                            "minValue": 0.0
                        },
                        {
                            "$type": "AttachModifierToSelfGlobalValueMixin",
                            "globalValueKey": "AVATAR_Firecracker_Play",
                            "defaultGlobalValueOnCreate": 0.0,
                            "valueSteps": [
                                0.5,
                                100.0
                            ],
                            "modifierNameSteps": [
                                "UNIQUE_AddButtom"
                            ]
                        }
                    ]
                },
                "UNIQUE_AddButtom": {
                    "stacking": "Unique",
                    "modifierName": "",
                    "isUnique": true,
                    "bonusCritical": 100.0,
                    "modifierMixins": [
                        {
                            "$type": "CurLocalAvatarMixinV2",
                            "modifierName": "Avatar_Firecracker_Button"
                        }
                    ]
                },
                "Avatar_Firecracker_Button": {
                    "modifierName": "",
                    "bonusCritical": 100.0,
                    "onAdded": [
                        {
                            "$type": "ShowExtraAbility",
                            "skillID": 20011
                        }
                    ],
                    "onRemoved": [
                        {
                            "$type": "ShowExtraAbility"
                        }
                    ],
                    "onKill": [
                        {
                            "$type": "ShowExtraAbility"
                        }
                    ]
                }
            },
            "onAdded": [
                {
                    "$type": "ShowExtraAbility",
                    "target": "CurTeamAvatars"
                },
                {
                    "$type": "SetGlobalValue",
                    "target": "Team",
                    "ratio": 0.0,
                    "key": "AVATAR_Firecracker_Play",
                    "maxValue": 0.0,
                    "minValue": 0.0
                },
                {
                    "$type": "AttachModifier",
                    "target": "Team",
                    "cdDelta": true,
                    "modifierName": "UNIQUE_Avatar_Firecracker_Play"
                }
            ],
            "isDynamicAbility": true
        }
    },
    {
        "Default": {
            "$type": "ConfigAbility",
            "abilityName": "SceneObj_Area_Common_Property_Prop_FirecrackerChest_01",
            "abilitySpecials": {
                "Firecracker_Variable": 1.0,
                "DamagePercentage": 20.0
            },
            "modifiers": {
                "CountDownKillSelf": {
                    "modifierName": "",
                    "duration": 2.0,
                    "bonusCritical": 100.0,
                    "onRemoved": [
                        {
                            "$type": "KillSelf",
                            "hideEntity": true
                        }
                    ],
                    "onAttackLanded": [
                        {
                            "$type": "Predicated",
                            "predicates": [
                                {
                                    "$type": "HDOFEAAHAKF",
                                    "entityTypes": [
                                        "Monster"
                                    ]
                                }
                            ],
                            "successActions": [
                                {
                                    "$type": "DebugLog",
                                    "content": "firecracker: Hit + 1"
                                },
                                {
                                    "$type": "AddGlobalValue",
                                    "target": "Caster",
                                    "ratio": 1.0,
                                    "key": "Hit_Enemy_Count",
                                    "useLimitRange": true,
                                    "maxValue": 3.0,
                                    "minValue": 0.0
                                }
                            ]
                        }
                    ]
                },
                "CountDownAttack": {
                    "modifierName": "",
                    "duration": 0.44999998807907104,
                    "bonusCritical": 100.0,
                    "onRemoved": [
                        {
                            "$type": "TriggerAttackEvent",
                            "attackEvent": {
                                "attackPattern": {
                                    "$type": "GGBJACPDDCM",
                                    "triggerType": "TriggerNoRepeat",
                                    "born": {
                                        "$type": "KDEPFKAAHCG",
                                        "offset": {
                                            "HMHIOILIGBF": 0.0,
                                            "DPPJGBOHAAL": 1.5,
                                            "DDOAGBLBCEF": 0.0
                                        }
                                    },
                                    "size": {
                                        "HMHIOILIGBF": 8.0,
                                        "DPPJGBOHAAL": 3.0,
                                        "DDOAGBLBCEF": 6.0
                                    }
                                },
                                "attackInfo": {
                                    "attackTag": "Firecracker",
                                    "attenuationTag": "",
                                    "attenuationGroup": "default",
                                    "attackProperty": {
                                        "PCFAAPMOCGJ": 0.0,
                                        "LCCBNOKMNFG": 0.0,
                                        "elementType": "Fire",
                                        "bonusCritical": 50.0,
                                        "ignoreAttackerProperty": true,
                                        "strikeType": "Default",
                                        "attackType": "Range",
                                        "damageExtra": [
                                            "Firecracker_Variable",
                                            "DamagePercentage",
                                            "MUL"
                                        ],
                                        "trueDamage": true,
                                        "JHBHILHIEJJ": true,
                                        "FKGFPFNOJMN": 0.0
                                    },
                                    "hitPattern": {
                                        "onHitEffectName": "default",
                                        "hitImpulseType": "LV3",
                                        "hitHaltTimeScale": 0.009999999776482582
                                    },
                                    "canBeModifiedBy": "OriginOwner"
                                }
                            },
                            "targetType": "Enemy"
                        }
                    ]
                }
            },
            "onAdded": [
                {
                    "$type": "SetSystemValueToOverrideMap",
                    "key": "Firecracker_Variable",
                    "type": "ElementLevelCo"
                },
                {
                    "$type": "FireEffect",
                    "healLimitedByCasterMaxHPRatio": "Eff_SceneObj_Firecracker_Explode",
                    "born": {
                        "$type": "IJCOFPNPJPK",
                        "attachPointName": "RootNode"
                    },
                    "JAOICKHDAKL": -1.0
                },
                {
                    "$type": "ApplyModifier",
                    "modifierName": "CountDownKillSelf"
                },
                {
                    "$type": "ApplyModifier",
                    "modifierName": "CountDownAttack"
                }
            ]
        }
    },
    {
        "Default": {
            "$type": "ConfigAbility",
            "abilityName": "SceneObj_Area_Common_Property_Ani_Prop_FireworksLauncher_01",
            "abilityMixins": [
                {
                    "$type": "FireworksLauncherMixin",
                    "CFMJGDFAMLN": "StartCountDownModifier",
                    "OMJOIHIEBFC": [
                        {
                            "$type": "ApplyModifier",
                            "modifierName": "StartCountDownModifier"
                        }
                    ],
                    "AGADNBCCIOL": [
                        {
                            "$type": "ApplyModifier",
                            "modifierName": "OnAllBulletsFired_Delay_ShowReminder_KillSelf"
                        }
                    ],
                    "GAFBPHMFEOH": "",
                    "INMLJELDLKG": "",
                    "CHDHPHLKKCI": "",
                    "OADNKHMJJCK": "",
                    "IKKMKLKGOEO": "",
                    "DDJMIMGDDAJ": "",
                    "BNMLBKCDODC": ""
                }
            ],
            "abilitySpecials": {
                "PrepareTime": 5.0
            },
            "modifiers": {
                "StartCountDownModifier": {
                    "modifierName": "",
                    "duration": "PrepareTime",
                    "bonusCritical": 100.0,
                    "onAdded": [
                        {
                            "$type": "EnableGadgetIntee"
                        },
                        {
                            "$type": "AttachEffect",
                            "healLimitedByCasterMaxHPRatio": "Eff_SceneObj_Fireworks_Pre",
                            "born": {
                                "$type": "IJCOFPNPJPK",
                                "attachPointName": "FireEffectPoint"
                            },
                            "JAOICKHDAKL": -1.0
                        },
                        {
                            "$type": "ApplyModifier",
                            "predicates": [
                                {
                                    "$type": "ENIPJPPDJPA",
                                    "JGGJHMGBMHJ": "SceneObj_Area_Common_Property_Ani_Prop_FireworksLauncher_01",
                                    "PGPNJKPHKMG": "PrepareTime",
                                    "NAKHCJOOOOE": 5.0
                                }
                            ],
                            "modifierName": "CountDown_5"
                        },
                        {
                            "$type": "ApplyModifier",
                            "predicates": [
                                {
                                    "$type": "ENIPJPPDJPA",
                                    "JGGJHMGBMHJ": "SceneObj_Area_Common_Property_Ani_Prop_FireworksLauncher_01",
                                    "PGPNJKPHKMG": "PrepareTime",
                                    "NAKHCJOOOOE": 10.0
                                }
                            ],
                            "modifierName": "CountDown_10"
                        },
                        {
                            "$type": "ApplyModifier",
                            "predicates": [
                                {
                                    "$type": "ENIPJPPDJPA",
                                    "JGGJHMGBMHJ": "SceneObj_Area_Common_Property_Ani_Prop_FireworksLauncher_01",
                                    "PGPNJKPHKMG": "PrepareTime",
                                    "NAKHCJOOOOE": 20.0
                                }
                            ],
                            "modifierName": "CountDown_20"
                        }
                    ],
                    "fireEventWhenApply": true,
                    "forceSyncToRemote": true
                },
                "CountDown_5": {
                    "modifierName": "",
                    "duration": [
                        "PrepareTime",
                        5.0,
                        "SUB"
                    ],
                    "bonusCritical": 100.0,
                    "onRemoved": [
                        {
                            "$type": "ShowReminder",
                            "id": 400104,
                            "DDIFKMADOLH": true
                        }
                    ]
                },
                "CountDown_10": {
                    "modifierName": "",
                    "duration": [
                        "PrepareTime",
                        10.0,
                        "SUB"
                    ],
                    "bonusCritical": 100.0,
                    "onRemoved": [
                        {
                            "$type": "ShowReminder",
                            "id": 400103,
                            "DDIFKMADOLH": true
                        }
                    ]
                },
                "CountDown_20": {
                    "modifierName": "",
                    "duration": [
                        "PrepareTime",
                        20.0,
                        "SUB"
                    ],
                    "bonusCritical": 100.0,
                    "onRemoved": [
                        {
                            "$type": "ShowReminder",
                            "id": 400102,
                            "DDIFKMADOLH": true
                        }
                    ]
                },
                "OnAllBulletsFired_Delay_ShowReminder_KillSelf": {
                    "modifierName": "",
                    "duration": 3.0,
                    "bonusCritical": 100.0,
                    "onRemoved": [
                        {
                            "$type": "SetGlobalValue",
                            "ratio": 1.0,
                            "key": "Is_BulletsFired",
                            "maxValue": 0.0,
                            "minValue": 0.0
                        },
                        {
                            "$type": "ShowReminder",
                            "id": 400117,
                            "DDIFKMADOLH": true
                        },
                        {
                            "$type": "KillSelf",
                            "hideEntity": true
                        }
                    ]
                }
            },
            "onAbilityStart": [
                {
                    "$type": "TriggerBullet",
                    "bulletID": 70800062,
                    "born": {
                        "$type": "IJCOFPNPJPK",
                        "offset": {
                            "HMHIOILIGBF": 0.0,
                            "DPPJGBOHAAL": 0.0,
                            "DDOAGBLBCEF": 0.0
                        },
                        "GDHMBIJKMEF": {
                            "$type": "CAMHJDKCEOP",
                            "attachPointName": "TriggerBullentPoint",
                            "BKOJLOPLKJE": "Self"
                        },
                        "attachPointName": "TriggerBullentPoint"
                    }
                },
                {
                    "$type": "FireEffect",
                    "healLimitedByCasterMaxHPRatio": "Eff_SceneObj_Fireworks_Shoot",
                    "born": {
                        "$type": "IJCOFPNPJPK",
                        "attachPointName": "FireEffectPoint"
                    },
                    "JAOICKHDAKL": -1.0
                },
                {
                    "$type": "SetAnimatorTrigger",
                    "triggerID": "Shoot"
                }
            ]
        }
    },
    {
        "Default": {
            "$type": "ConfigAbility",
            "abilityName": "SceneObj_Area_Common_Property_Ani_Prop_FireworksLauncher_Bullet_01",
            "abilitySpecials": {
                "BulletLifeTime": 3.0
            },
            "modifiers": {
                "BulletLifeTimeModifier": {
                    "modifierName": "",
                    "duration": "BulletLifeTime",
                    "bonusCritical": 100.0,
                    "onRemoved": [
                        {
                            "$type": "FireEffectFirework",
                            "predicates": [
                                {
                                    "$type": "GDCNLCKIJBG",
                                    "target": "Self",
                                    "key": "_BeHit",
                                    "ratio": 0.0,
                                    "AMOLMKMMOME": "LessAndEqual"
                                }
                            ],
                            "healLimitedByCasterMaxHPRatio": "Eff_SceneObj_Fireworks_01"
                        },
                        {
                            "$type": "KillSelf"
                        }
                    ]
                },
                "AttachTailEffectModifier": {
                    "modifierName": "",
                    "duration": [
                        "BulletLifeTime",
                        0.20000000298023224,
                        "SUB"
                    ],
                    "bonusCritical": 100.0,
                    "onAdded": [
                        {
                            "$type": "AttachEffectFirework",
                            "healLimitedByCasterMaxHPRatio": "Eff_SceneObj_Fireworks_Bullet"
                        }
                    ]
                }
            },
            "onAdded": [
                {
                    "$type": "SetGlobalValue",
                    "ratio": -1.0,
                    "key": "_BeHit",
                    "maxValue": 0.0,
                    "minValue": 0.0
                }
            ],
            "onAbilityStart": [
                {
                    "$type": "DebugLog",
                    "content": "碰撞！"
                },
                {
                    "$type": "SetGlobalValue",
                    "ratio": 1.0,
                    "key": "_BeHit",
                    "maxValue": 0.0,
                    "minValue": 0.0
                },
                {
                    "$type": "RemoveModifier",
                    "modifierName": "BulletLifeTimeModifier"
                },
                {
                    "$type": "RemoveModifier",
                    "modifierName": "AttachTailEffectModifier"
                }
            ]
        }
    },
    {
        "Default": {
            "$type": "ConfigAbility",
            "abilityName": "Team_Activity_QunyugeDebris_Skiff_Eff_Controller",
            "abilityMixins": [
                {
                    "$type": "ServerUpdateGlobalValueMixin",
                    "key": "Try_Mark_Skiff",
                    "maxValue": 0.0,
                    "minValue": 0.0
                },
                {
                    "$type": "AttachModifierToSelfGlobalValueMixin",
                    "globalValueKey": "Try_Mark_Skiff",
                    "defaultGlobalValueOnCreate": 0.0,
                    "valueSteps": [
                        0.5,
                        100.0
                    ],
                    "modifierNameSteps": [
                        "Try_Mark_Skiff"
                    ]
                },
                {
                    "$type": "ServerUpdateGlobalValueMixin",
                    "key": "Try_Add_Box",
                    "maxValue": 0.0,
                    "minValue": 0.0
                },
                {
                    "$type": "AttachModifierToSelfGlobalValueMixin",
                    "globalValueKey": "Try_Add_Box",
                    "defaultGlobalValueOnCreate": 0.0,
                    "valueSteps": [
                        0.5,
                        100.0
                    ],
                    "modifierNameSteps": [
                        "Team_Try_Add_Box"
                    ]
                },
                {
                    "$type": "ServerUpdateGlobalValueMixin",
                    "key": "Try_Reset_Box",
                    "maxValue": 0.0,
                    "minValue": 0.0
                },
                {
                    "$type": "AttachModifierToSelfGlobalValueMixin",
                    "globalValueKey": "Try_Reset_Box",
                    "defaultGlobalValueOnCreate": 0.0,
                    "valueSteps": [
                        0.5,
                        100.0
                    ],
                    "modifierNameSteps": [
                        "Team_Try_Reset_Box"
                    ]
                }
            ],
            "modifiers": {
                "Team_Attacher_Skiff_Eff_Controller": {
                    "modifierName": "",
                    "bonusCritical": 100.0,
                    "onAdded": [
                        {
                            "$type": "AttachModifier",
                            "target": "Vehicle",
                            "modifierName": "Skiff_Eff_Controller"
                        }
                    ]
                },
                "Team_Try_Reset_Box": {
                    "stacking": "Multiple",
                    "modifierName": "",
                    "duration": 0.10000000149011612,
                    "bonusCritical": 100.0,
                    "onAdded": [
                        {
                            "$type": "SetGlobalValue",
                            "ratio": 0.0,
                            "key": "Eff_Count",
                            "maxValue": 0.0,
                            "minValue": 0.0
                        }
                    ],
                    "onRemoved": [
                        {
                            "$type": "SetGlobalValue",
                            "ratio": 0.0,
                            "key": "Try_Reset_Box",
                            "maxValue": 0.0,
                            "minValue": 0.0
                        }
                    ]
                },
                "Try_Mark_Skiff": {
                    "stacking": "Multiple",
                    "modifierName": "",
                    "duration": 0.10000000149011612,
                    "bonusCritical": 100.0,
                    "onAdded": [
                        {
                            "$type": "TriggerAbility",
                            "abilityName": "Team_Activity_QunyugeDebris_Skiff_Eff_Controller"
                        }
                    ],
                    "onRemoved": [
                        {
                            "$type": "SetGlobalValue",
                            "ratio": 0.0,
                            "key": "Try_Mark_Skiff",
                            "maxValue": 0.0,
                            "minValue": 0.0
                        }
                    ]
                },
                "Team_Try_Add_Box": {
                    "modifierName": "",
                    "duration": 0.10000000149011612,
                    "bonusCritical": 100.0,
                    "onAdded": [
                        {
                            "$type": "AddGlobalValue",
                            "ratio": 1.0,
                            "key": "Eff_Count",
                            "maxValue": 0.0,
                            "minValue": 0.0
                        }
                    ],
                    "onRemoved": [
                        {
                            "$type": "SetGlobalValue",
                            "ratio": 0.0,
                            "key": "Try_Add_Box",
                            "maxValue": 0.0,
                            "minValue": 0.0
                        }
                    ]
                },
                "Skiff_Eff_Controller": {
                    "modifierName": "",
                    "bonusCritical": 100.0,
                    "modifierMixins": [
                        {
                            "$type": "AttachModifierToGlobalValueMixin",
                            "globalValueTarget": "Team",
                            "globalValueKey": "Eff_Count",
                            "valueSteps": [
                                0.5,
                                999.0
                            ],
                            "modifierNameSteps": [
                                "Eff_Count_1"
                            ]
                        },
                        {
                            "$type": "AttachModifierToGlobalValueMixin",
                            "globalValueTarget": "Team",
                            "globalValueKey": "Eff_Count",
                            "valueSteps": [
                                1.5,
                                999.0
                            ],
                            "modifierNameSteps": [
                                "Eff_Count_2"
                            ]
                        },
                        {
                            "$type": "AttachModifierToGlobalValueMixin",
                            "globalValueTarget": "Team",
                            "globalValueKey": "Eff_Count",
                            "valueSteps": [
                                2.5,
                                999.0
                            ],
                            "modifierNameSteps": [
                                "Eff_Count_3"
                            ]
                        },
                        {
                            "$type": "AttachModifierToGlobalValueMixin",
                            "globalValueTarget": "Team",
                            "globalValueKey": "Eff_Count",
                            "valueSteps": [
                                3.5,
                                999.0
                            ],
                            "modifierNameSteps": [
                                "Eff_Count_4"
                            ]
                        },
                        {
                            "$type": "AttachModifierToGlobalValueMixin",
                            "globalValueTarget": "Team",
                            "globalValueKey": "Eff_Count",
                            "valueSteps": [
                                4.5,
                                999.0
                            ],
                            "modifierNameSteps": [
                                "Eff_Count_5"
                            ]
                        },
                        {
                            "$type": "AttachModifierToGlobalValueMixin",
                            "globalValueTarget": "Team",
                            "globalValueKey": "Eff_Count",
                            "valueSteps": [
                                5.5,
                                999.0
                            ],
                            "modifierNameSteps": [
                                "Eff_Count_6"
                            ]
                        }
                    ],
                    "onKill": [
                        {
                            "$type": "ApplyModifier",
                            "target": "Team",
                            "modifierName": "Try_Set_Group_Fail"
                        }
                    ]
                },
                "Try_Set_Group_Fail": {
                    "modifierName": "",
                    "duration": 0.10000000149011612,
                    "bonusCritical": 100.0,
                    "onAdded": [
                        {
                            "$type": "ServerLuaCall",
                            "luaCallType": "SpecificGroup",
                            "CallParamList": [
                                111101233,
                                133108201,
                                133108253
                            ],
                            "funcName": "SLC_Skiff_Die",
                            "FDPBPIHKEGH": 0.0,
                            "FJCBPCIDMGJ": 0.0,
                            "NDCPJDDPIMD": 0.0
                        }
                    ]
                },
                "Eff_Count_1": {
                    "modifierName": "",
                    "bonusCritical": 100.0,
                    "onAdded": [
                        {
                            "$type": "AttachEffect",
                            "healLimitedByCasterMaxHPRatio": "Eff_SceneObj_QunyugeDebris_Box_Count_1",
                            "born": {
                                "$type": "IJCOFPNPJPK",
                                "attachPointName": "BoneRoot"
                            },
                            "JAOICKHDAKL": -1.0
                        },
                        {
                            "$type": "FireEffect",
                            "healLimitedByCasterMaxHPRatio": "Eff_SceneObj_Common_AppearMask_08",
                            "born": {
                                "$type": "IJCOFPNPJPK",
                                "offset": {
                                    "HMHIOILIGBF": -1.1649999618530273,
                                    "DPPJGBOHAAL": 0.5360000133514404,
                                    "DDOAGBLBCEF": -1.2790000438690186
                                },
                                "attachPointName": "BoneRoot"
                            },
                            "JAOICKHDAKL": -1.0
                        }
                    ]
                },
                "Eff_Count_2": {
                    "modifierName": "",
                    "bonusCritical": 100.0,
                    "onAdded": [
                        {
                            "$type": "AttachEffect",
                            "healLimitedByCasterMaxHPRatio": "Eff_SceneObj_QunyugeDebris_Box_Count_2",
                            "born": {
                                "$type": "IJCOFPNPJPK",
                                "attachPointName": "BoneRoot"
                            },
                            "JAOICKHDAKL": -1.0
                        },
                        {
                            "$type": "FireEffect",
                            "healLimitedByCasterMaxHPRatio": "Eff_SceneObj_Common_AppearMask_08",
                            "born": {
                                "$type": "IJCOFPNPJPK",
                                "offset": {
                                    "HMHIOILIGBF": 1.0920000076293945,
                                    "DPPJGBOHAAL": 0.5360000133514404,
                                    "DDOAGBLBCEF": -1.2330000400543213
                                },
                                "attachPointName": "BoneRoot"
                            },
                            "JAOICKHDAKL": -1.0
                        }
                    ]
                },
                "Eff_Count_3": {
                    "modifierName": "",
                    "bonusCritical": 100.0,
                    "onAdded": [
                        {
                            "$type": "AttachEffect",
                            "healLimitedByCasterMaxHPRatio": "Eff_SceneObj_QunyugeDebris_Box_Count_3",
                            "born": {
                                "$type": "IJCOFPNPJPK",
                                "attachPointName": "BoneRoot"
                            },
                            "JAOICKHDAKL": -1.0
                        },
                        {
                            "$type": "FireEffect",
                            "healLimitedByCasterMaxHPRatio": "Eff_SceneObj_Common_AppearMask_08",
                            "born": {
                                "$type": "IJCOFPNPJPK",
                                "offset": {
                                    "HMHIOILIGBF": -1.1390000581741333,
                                    "DPPJGBOHAAL": 0.5380038022994995,
                                    "DDOAGBLBCEF": -1.6620019674301147
                                },
                                "attachPointName": "BoneRoot"
                            },
                            "JAOICKHDAKL": -1.0
                        }
                    ]
                },
                "Eff_Count_4": {
                    "modifierName": "",
                    "bonusCritical": 100.0,
                    "onAdded": [
                        {
                            "$type": "AttachEffect",
                            "healLimitedByCasterMaxHPRatio": "Eff_SceneObj_QunyugeDebris_Box_Count_4",
                            "born": {
                                "$type": "IJCOFPNPJPK",
                                "attachPointName": "BoneRoot"
                            },
                            "JAOICKHDAKL": -1.0
                        },
                        {
                            "$type": "FireEffect",
                            "healLimitedByCasterMaxHPRatio": "Eff_SceneObj_Common_AppearMask_08",
                            "born": {
                                "$type": "IJCOFPNPJPK",
                                "offset": {
                                    "HMHIOILIGBF": 1.1269999742507935,
                                    "DPPJGBOHAAL": 0.5400000214576721,
                                    "DDOAGBLBCEF": -1.6169999837875366
                                },
                                "attachPointName": "BoneRoot"
                            },
                            "JAOICKHDAKL": -1.0
                        }
                    ]
                },
                "Eff_Count_5": {
                    "modifierName": "",
                    "bonusCritical": 100.0,
                    "onAdded": [
                        {
                            "$type": "AttachEffect",
                            "healLimitedByCasterMaxHPRatio": "Eff_SceneObj_QunyugeDebris_Box_Count_5",
                            "born": {
                                "$type": "IJCOFPNPJPK",
                                "attachPointName": "BoneRoot"
                            },
                            "JAOICKHDAKL": -1.0
                        },
                        {
                            "$type": "FireEffect",
                            "healLimitedByCasterMaxHPRatio": "Eff_SceneObj_Common_AppearMask_08",
                            "born": {
                                "$type": "IJCOFPNPJPK",
                                "offset": {
                                    "HMHIOILIGBF": -1.1549999713897705,
                                    "DPPJGBOHAAL": 0.781000018119812,
                                    "DDOAGBLBCEF": -1.7020000219345093
                                },
                                "attachPointName": "BoneRoot"
                            },
                            "JAOICKHDAKL": -1.0
                        }
                    ]
                },
                "Eff_Count_6": {
                    "modifierName": "",
                    "bonusCritical": 100.0,
                    "onAdded": [
                        {
                            "$type": "AttachEffect",
                            "healLimitedByCasterMaxHPRatio": "Eff_SceneObj_QunyugeDebris_Box_Count_6",
                            "born": {
                                "$type": "IJCOFPNPJPK",
                                "attachPointName": "BoneRoot"
                            },
                            "JAOICKHDAKL": -1.0
                        },
                        {
                            "$type": "FireEffect",
                            "healLimitedByCasterMaxHPRatio": "Eff_SceneObj_Common_AppearMask_08",
                            "born": {
                                "$type": "IJCOFPNPJPK",
                                "offset": {
                                    "HMHIOILIGBF": 1.121999979019165,
                                    "DPPJGBOHAAL": 0.7860000133514404,
                                    "DDOAGBLBCEF": -1.6820000410079956
                                },
                                "attachPointName": "BoneRoot"
                            },
                            "JAOICKHDAKL": -1.0
                        }
                    ]
                }
            },
            "onAdded": [
                {
                    "$type": "SetGlobalValue",
                    "ratio": 0.0,
                    "key": "Eff_Count",
                    "maxValue": 0.0,
                    "minValue": 0.0
                }
            ],
            "onAbilityStart": [
                {
                    "$type": "SetGlobalValue",
                    "target": "Team",
                    "ratio": 0.0,
                    "key": "Try_Mark_Skiff_Result",
                    "maxValue": 0.0,
                    "minValue": 0.0
                },
                {
                    "$type": "Predicated",
                    "target": "Vehicle",
                    "targetPredicates": [
                        {
                            "$type": "HKHCENMGHLH"
                        }
                    ],
                    "successActions": [
                        {
                            "$type": "DebugLog",
                            "content": "Try_Mark_Skiff_Suc"
                        },
                        {
                            "$type": "AttachModifier",
                            "modifierName": "Team_Attacher_Skiff_Eff_Controller"
                        },
                        {
                            "$type": "SetGlobalValue",
                            "target": "Team",
                            "ratio": 1.0,
                            "key": "Try_Mark_Skiff_Result",
                            "maxValue": 0.0,
                            "minValue": 0.0
                        },
                        {
                            "$type": "ServerLuaCall",
                            "luaCallType": "SpecificGroup",
                            "CallParamList": [
                                111101233,
                                133108201,
                                133108253
                            ],
                            "funcName": "SLC_Mark_Skiff_Suc",
                            "FDPBPIHKEGH": 0.0,
                            "FJCBPCIDMGJ": 0.0,
                            "NDCPJDDPIMD": 0.0
                        }
                    ]
                },
                {
                    "$type": "ServerLuaCall",
                    "predicates": [
                        {
                            "$type": "GDCNLCKIJBG",
                            "target": "Team",
                            "key": "Try_Mark_Skiff_Result",
                            "ratio": 0.0
                        }
                    ],
                    "luaCallType": "SpecificGroup",
                    "CallParamList": [
                        111101233,
                        133108201,
                        133108253
                    ],
                    "funcName": "SLC_Mark_Skiff_Fail",
                    "FDPBPIHKEGH": 0.0,
                    "FJCBPCIDMGJ": 0.0,
                    "NDCPJDDPIMD": 0.0
                },
                {
                    "$type": "ShowReminder",
                    "muteRemoteAction": true,
                    "predicates": [
                        {
                            "$type": "GDCNLCKIJBG",
                            "target": "Team",
                            "key": "Try_Mark_Skiff_Result",
                            "ratio": 0.0
                        }
                    ],
                    "id": 400041
                }
            ],
            "isDynamicAbility": true
        }
    },
    {
        "Default": {
            "$type": "ConfigAbility",
            "abilityName": "Team_Activity_QunyugeDebris_Stop_Ballon",
            "abilityMixins": [
                {
                    "$type": "ServerUpdateGlobalValueMixin",
                    "key": "Try_Detect_Skiff",
                    "maxValue": 0.0,
                    "minValue": 0.0
                },
                {
                    "$type": "DoActionOnGlobalValueChangeMixin",
                    "globalValueKey": "Try_Detect_Skiff",
                    "actions": [
                        {
                            "$type": "DebugLog",
                            "content": "Do Action"
                        },
                        {
                            "$type": "Predicated",
                            "targetPredicates": [
                                {
                                    "$type": "GDCNLCKIJBG",
                                    "key": "Try_Detect_Skiff",
                                    "ratio": 1.0
                                }
                            ],
                            "successActions": [
                                {
                                    "$type": "DebugLog",
                                    "content": "Do Action : Try_Detect_Skiff = 1"
                                },
                                {
                                    "$type": "SetGlobalValue",
                                    "target": "Team",
                                    "ratio": 0.0,
                                    "key": "Try_Mark_Skiff_Result",
                                    "maxValue": 0.0,
                                    "minValue": 0.0
                                },
                                {
                                    "$type": "Predicated",
                                    "target": "Vehicle",
                                    "targetPredicates": [
                                        {
                                            "$type": "HKHCENMGHLH"
                                        }
                                    ],
                                    "successActions": [
                                        {
                                            "$type": "DebugLog",
                                            "content": "Do Try_Mark_Skiff_Result : successActions"
                                        },
                                        {
                                            "$type": "SetGlobalValue",
                                            "target": "Team",
                                            "ratio": 1.0,
                                            "key": "Try_Mark_Skiff_Result",
                                            "maxValue": 0.0,
                                            "minValue": 0.0
                                        },
                                        {
                                            "$type": "ServerLuaCall",
                                            "luaCallType": "SpecificGroup",
                                            "CallParamList": [
                                                133108202,
                                                133108203
                                            ],
                                            "funcName": "SLC_Mark_Skiff_Suc",
                                            "FDPBPIHKEGH": 0.0,
                                            "FJCBPCIDMGJ": 0.0,
                                            "NDCPJDDPIMD": 0.0
                                        }
                                    ]
                                },
                                {
                                    "$type": "ServerLuaCall",
                                    "predicates": [
                                        {
                                            "$type": "GDCNLCKIJBG",
                                            "target": "Team",
                                            "key": "Try_Mark_Skiff_Result",
                                            "ratio": 0.0
                                        }
                                    ],
                                    "luaCallType": "SpecificGroup",
                                    "CallParamList": [
                                        133108202,
                                        133108203
                                    ],
                                    "funcName": "SLC_Mark_Skiff_Fail",
                                    "FDPBPIHKEGH": 0.0,
                                    "FJCBPCIDMGJ": 0.0,
                                    "NDCPJDDPIMD": 0.0
                                },
                                {
                                    "$type": "ShowReminder",
                                    "muteRemoteAction": true,
                                    "predicates": [
                                        {
                                            "$type": "GDCNLCKIJBG",
                                            "target": "Team",
                                            "key": "Try_Mark_Skiff_Result",
                                            "ratio": 0.0
                                        }
                                    ],
                                    "id": 400041
                                },
                                {
                                    "$type": "ApplyModifier",
                                    "modifierName": "Init_Try_Detect_Skiff"
                                }
                            ]
                        },
                        {
                            "$type": "DebugLog",
                            "content": "Do Action - End"
                        }
                    ]
                }
            ],
            "modifiers": {
                "Init_Try_Detect_Skiff": {
                    "modifierName": "",
                    "duration": 0.10000000149011612,
                    "bonusCritical": 100.0,
                    "onRemoved": [
                        {
                            "$type": "SetGlobalValue",
                            "ratio": 0.0,
                            "key": "Try_Detect_Skiff",
                            "maxValue": 0.0,
                            "minValue": 0.0
                        }
                    ]
                },
                "UNIQUE_Team_Skiff_DamageModifier_Applier": {
                    "modifierName": "",
                    "isUnique": true,
                    "bonusCritical": 100.0,
                    "thinkInterval": 1.0,
                    "onThinkInterval": [
                        {
                            "$type": "AttachModifier",
                            "target": "Vehicle",
                            "modifierName": "UNIQUE_Skiff_DamageModifier"
                        }
                    ]
                },
                "UNIQUE_Skiff_DamageModifier": {
                    "modifierName": "",
                    "isUnique": true,
                    "bonusCritical": 100.0,
                    "modifierMixins": [
                        {
                            "$type": "ModifyDamageMixin",
                            "attackTags": [
                                "Skiff_Cannon_Big",
                                "Skiff_Cannon_Small"
                            ],
                            "LCCBNOKMNFG": 19.0,
                            "predicates": [
                                {
                                    "$type": "GDCNLCKIJBG",
                                    "key": "_Mark_SeaLamp_Ballon_Cart",
                                    "ratio": 1.0
                                }
                            ]
                        }
                    ]
                }
            },
            "onAdded": [
                {
                    "$type": "AttachModifier",
                    "modifierName": "UNIQUE_Team_Skiff_DamageModifier_Applier"
                },
                {
                    "$type": "SetGlobalValue",
                    "ratio": 0.0,
                    "key": "Try_Detect_Skiff",
                    "maxValue": 0.0,
                    "minValue": 0.0
                }
            ]
        }
    },
    {
        "Default": {
            "$type": "ConfigAbility",
            "abilityName": "SceneObj_Area_Common_Property_Ani_Prop_SeekerCloseEye_01",
            "abilityMixins": [
                {
                    "$type": "AttachToGadgetStateMixin",
                    "modifierName": "ShowWall"
                },
                {
                    "$type": "AttachToGadgetStateMixin",
                    "gadgetState": 201,
                    "modifierName": "CloseWall"
                }
            ],
            "modifiers": {
                "ShowWall": {
                    "modifierName": "",
                    "bonusCritical": 100.0,
                    "onAdded": [
                        {
                            "$type": "EnableSceneTransformByName",
                            "transformNames": [
                                "col"
                            ],
                            "setEnable": true
                        }
                    ]
                },
                "CloseWall": {
                    "modifierName": "",
                    "bonusCritical": 100.0,
                    "onAdded": [
                        {
                            "$type": "EnableSceneTransformByName",
                            "transformNames": [
                                "col"
                            ]
                        },
                        {
                            "$type": "ApplyModifier",
                            "modifierName": "KillSelf_Duration"
                        }
                    ]
                },
                "KillSelf_Duration": {
                    "modifierName": "",
                    "duration": 0.5,
                    "bonusCritical": 100.0
                }
            }
        }
    },
    {
        "Default": {
            "$type": "ConfigAbility",
            "abilityName": "Team_SLCType_test",
            "abilityMixins": [
                {
                    "$type": "ServerUpdateGlobalValueMixin",
                    "key": "Team_SLCType_test_GV_01",
                    "maxValue": 0.0,
                    "minValue": 0.0
                },
                {
                    "$type": "AttachModifierToSelfGlobalValueMixin",
                    "globalValueKey": "Team_SLCType_test_GV_01",
                    "defaultGlobalValueOnCreate": 0.0,
                    "valueSteps": [
                        0.5,
                        100.0
                    ],
                    "modifierNameSteps": [
                        "UNIQUE_TryCall"
                    ]
                }
            ],
            "modifiers": {
                "UNIQUE_TryCall": {
                    "stacking": "Unique",
                    "modifierName": "",
                    "isUnique": true,
                    "bonusCritical": 100.0,
                    "onAdded": [
                        {
                            "$type": "ServerLuaCall",
                            "luaCallType": "AbilityGroupSourceGroup",
                            "funcName": "SLC_function_01",
                            "FDPBPIHKEGH": 0.0,
                            "FJCBPCIDMGJ": 0.0,
                            "NDCPJDDPIMD": 0.0
                        }
                    ]
                }
            }
        }
    },
    {
        "Default": {
            "$type": "ConfigAbility",
            "abilityName": "SceneObj_Area_Common_Property_Ani_Prop_FireworksLauncher_02",
            "abilityMixins": [
                {
                    "$type": "AttachToGadgetStateMixin",
                    "gadgetState": 201,
                    "modifierName": "state201"
                }
            ],
            "modifiers": {
                "state201": {
                    "modifierName": "",
                    "bonusCritical": 100.0,
                    "modifierMixins": [
                        {
                            "$type": "AttachToDayNightMixin",
                            "time": "Night",
                            "modifierName": "Activated"
                        }
                    ]
                },
                "Activated": {
                    "modifierName": "",
                    "bonusCritical": 100.0,
                    "onAdded": [
                        {
                            "$type": "SetAnimatorInt",
                            "canBeHandledOnRecover": true,
                            "intID": "State",
                            "ratio": 201.0
                        }
                    ],
                    "onRemoved": [
                        {
                            "$type": "SetAnimatorInt",
                            "canBeHandledOnRecover": true,
                            "intID": "State",
                            "ratio": 0.0
                        }
                    ]
                }
            }
        }
    },
    {
        "Default": {
            "$type": "ConfigAbility",
            "abilityName": "SceneObj_Area_Common_Property_Prop_SeaExplosiveBarrel_02",
            "abilityMixins": [
                {
                    "$type": "AttachToGadgetStateMixin",
                    "gadgetState": 201,
                    "modifierName": "Modifier_ChangeLockType"
                },
                {
                    "$type": "ModifyDamageMixin",
                    "attackTags": [
                        "Sea_Bomb_Barrel"
                    ],
                    "LCCBNOKMNFG": -0.9900000095367432,
                    "predicates": [
                        {
                            "$type": "GDCNLCKIJBG",
                            "key": "_ABILITY_Skiff_AvatarIn_Mark",
                            "ratio": 0.0,
                            "AMOLMKMMOME": "MoreThanAndEqual"
                        }
                    ]
                },
                {
                    "$type": "ModifyDamageMixin",
                    "attackTags": [
                        "Sea_Bomb_Barrel"
                    ],
                    "LCCBNOKMNFG": -0.6150000095367432,
                    "predicates": [
                        {
                            "$type": "HDOFEAAHAKF",
                            "entityTypes": [
                                "Avatar"
                            ]
                        }
                    ]
                },
                {
                    "$type": "ModifyDamageMixin",
                    "attackTags": [
                        "Sea_Bomb_Barrel"
                    ],
                    "LCCBNOKMNFG": 6.5,
                    "predicates": [
                        {
                            "$type": "GDCNLCKIJBG",
                            "key": "_Mark_SeaLamp_Ballon_Cart",
                            "ratio": 1.0
                        }
                    ]
                }
            ],
            "modifiers": {
                "Modifier_ChangeLockType": {
                    "modifierName": "",
                    "bonusCritical": 100.0,
                    "modifierMixins": [
                        {
                            "$type": "ChangeLockTypeMixin",
                            "lockType": "Boss_Lv5",
                            "overrideRange": 25.0
                        }
                    ]
                },
                "BombBoxLoop": {
                    "modifierName": "",
                    "elementType": "Fire",
                    "bonusCritical": 1.0,
                    "onRemoved": [
                        {
                            "$type": "FireEffect",
                            "healLimitedByCasterMaxHPRatio": "Eff_SceneObj_BombBarrel_01_ExplodeOnWater",
                            "JAOICKHDAKL": -1.0
                        },
                        {
                            "$type": "FireAISoundEvent"
                        },
                        {
                            "$type": "TriggerAttackEvent",
                            "attackEvent": {
                                "attackPattern": {
                                    "$type": "KKMHAMBPOBM",
                                    "triggerType": "TriggerNoRepeat",
                                    "GJKNLOPNAMC": true,
                                    "born": {
                                        "$type": "EOGLEDIIGHF",
                                        "offset": {
                                            "HMHIOILIGBF": 0.0,
                                            "DPPJGBOHAAL": 0.5,
                                            "DDOAGBLBCEF": 0.0
                                        }
                                    },
                                    "DFMMIGEMOHH": 6.0
                                },
                                "attackInfo": {
                                    "attackTag": "Sea_Bomb_Barrel",
                                    "attenuationTag": "",
                                    "attenuationGroup": "default",
                                    "attackProperty": {
                                        "PCFAAPMOCGJ": 1.0,
                                        "LCCBNOKMNFG": 0.0,
                                        "elementType": "Fire",
                                        "bonusCritical": 50.0,
                                        "strikeType": "Blunt",
                                        "enBreak": 9999999.0,
                                        "FKGFPFNOJMN": 0.0
                                    },
                                    "hitPattern": {
                                        "onHitEffectName": "default",
                                        "hitImpulseType": "LV6",
                                        "hitHaltTimeScale": 0.05000000074505806
                                    },
                                    "forceCameraShake": true,
                                    "cameraShake": {
                                        "shakeRange": 0.36000001430511475,
                                        "shakeTime": 0.36000001430511475
                                    }
                                }
                            },
                            "targetType": "All"
                        },
                        {
                            "$type": "TriggerAttackEvent",
                            "attackEvent": {
                                "attackPattern": {
                                    "$type": "KKMHAMBPOBM",
                                    "triggerType": "TriggerNoRepeat",
                                    "born": {
                                        "$type": "EOGLEDIIGHF"
                                    },
                                    "DFMMIGEMOHH": 4.0
                                },
                                "attackInfo": {
                                    "attackTag": "",
                                    "attenuationTag": "",
                                    "attenuationGroup": "default",
                                    "attackProperty": {
                                        "PCFAAPMOCGJ": 0.0,
                                        "LCCBNOKMNFG": 0.0,
                                        "elementType": "Fire",
                                        "bonusCritical": 50.0,
                                        "strikeType": "Blunt",
                                        "enBreak": 0.0,
                                        "FKGFPFNOJMN": 0.0
                                    }
                                }
                            },
                            "targetType": "All"
                        },
                        {
                            "$type": "KillSelf",
                            "duration": 1.0,
                            "hideEntity": true
                        }
                    ],
                    "onBeingHit": [
                        {
                            "$type": "RemoveModifier",
                            "predicates": [
                                {
                                    "$type": "KHIEIPGNOHJ",
                                    "predicates": [
                                        {
                                            "$type": "KHCOGAAJJMH",
                                            "logic": "Equal",
                                            "PNFDGKPJFKC": 0.0
                                        }
                                    ]
                                }
                            ],
                            "modifierName": "BombBoxLoop"
                        }
                    ],
                    "IFAEANINOCH": [
                        {
                            "$type": "RemoveModifier",
                            "modifierName": "BombBoxLoop"
                        }
                    ]
                }
            },
            "onAdded": [
                {
                    "$type": "ApplyModifier",
                    "modifierName": "BombBoxLoop"
                }
            ]
        }
    },
    {
        "Default": {
            "$type": "ConfigAbility",
            "abilityName": "SceneObj_Area_Common_Property_Ani_Prop_Jinyudeng_01",
            "abilityMixins": [
                {
                    "$type": "AttachToDayNightMixin",
                    "time": "Night",
                    "modifierName": "Activated"
                },
                {
                    "$type": "AttachToGadgetStateMixin",
                    "modifierName": "state0"
                },
                {
                    "$type": "AttachToGadgetStateMixin",
                    "gadgetState": 201,
                    "modifierName": "state201"
                }
            ],
            "modifiers": {
                "state0": {
                    "modifierName": "",
                    "bonusCritical": 100.0
                },
                "state201": {
                    "modifierName": "",
                    "bonusCritical": 100.0
                },
                "Activated": {
                    "modifierName": "",
                    "bonusCritical": 100.0,
                    "onAdded": [
                        {
                            "$type": "ExecuteGadgetLua",
                            "param1": 201
                        }
                    ],
                    "onRemoved": [
                        {
                            "$type": "ExecuteGadgetLua"
                        }
                    ]
                }
            }
        }
    },
    {
        "Default": {
            "$type": "ConfigAbility",
            "abilityName": "SceneObj_Item_Hili_Cart_SeaLampActivity",
            "onAdded": [
                {
                    "$type": "SetGlobalValue",
                    "ratio": 1.0,
                    "key": "_Mark_SeaLamp_Ballon_Cart",
                    "maxValue": 0.0,
                    "minValue": 0.0
                }
            ]
        }
    },
    {
        "Default": {
            "$type": "ConfigAbility",
            "abilityName": "Team_Activity_QunyugeDebris_Skiff_Eff_Controller_QuestVersion",
            "abilityMixins": [
                {
                    "$type": "ServerUpdateGlobalValueMixin",
                    "key": "GV_Mark_Skiff",
                    "useLimitRange": true,
                    "maxValue": 1.0,
                    "minValue": 0.0
                },
                {
                    "$type": "AttachModifierToGlobalValueMixin",
                    "globalValueKey": "GV_Mark_Skiff",
                    "valueSteps": [
                        -0.5,
                        0.5,
                        1.5
                    ],
                    "modifierNameSteps": [
                        "Empty",
                        "Mark_Skiff"
                    ]
                }
            ],
            "modifiers": {
                "Empty": {
                    "modifierName": "",
                    "bonusCritical": 100.0
                },
                "Mark_Skiff": {
                    "modifierName": "",
                    "duration": 1.0,
                    "bonusCritical": 100.0,
                    "onAdded": [
                        {
                            "$type": "TriggerAbility",
                            "abilityName": "Team_Activity_QunyugeDebris_Skiff_Eff_Controller_QuestVersion"
                        }
                    ],
                    "onRemoved": [
                        {
                            "$type": "SetGlobalValue",
                            "ratio": 0.0,
                            "key": "GV_Mark_Skiff",
                            "maxValue": 0.0,
                            "minValue": 0.0
                        }
                    ]
                },
                "Skiff_Activity_QunyugeDebris_Eff_Controller": {
                    "modifierName": "",
                    "bonusCritical": 100.0,
                    "modifierMixins": [
                        {
                            "$type": "AttachModifierToGlobalValueMixin",
                            "globalValueTarget": "Team",
                            "globalValueKey": "SGV_Box_Count",
                            "valueSteps": [
                                0.5,
                                6.5
                            ],
                            "modifierNameSteps": [
                                "Eff_Count_1"
                            ]
                        },
                        {
                            "$type": "AttachModifierToGlobalValueMixin",
                            "globalValueTarget": "Team",
                            "globalValueKey": "SGV_Box_Count",
                            "valueSteps": [
                                1.5,
                                6.5
                            ],
                            "modifierNameSteps": [
                                "Eff_Count_2"
                            ]
                        },
                        {
                            "$type": "AttachModifierToGlobalValueMixin",
                            "globalValueTarget": "Team",
                            "globalValueKey": "SGV_Box_Count",
                            "valueSteps": [
                                2.5,
                                6.5
                            ],
                            "modifierNameSteps": [
                                "Eff_Count_3"
                            ]
                        },
                        {
                            "$type": "AttachModifierToGlobalValueMixin",
                            "globalValueTarget": "Team",
                            "globalValueKey": "SGV_Box_Count",
                            "valueSteps": [
                                3.5,
                                6.5
                            ],
                            "modifierNameSteps": [
                                "Eff_Count_4"
                            ]
                        },
                        {
                            "$type": "AttachModifierToGlobalValueMixin",
                            "globalValueTarget": "Team",
                            "globalValueKey": "SGV_Box_Count",
                            "valueSteps": [
                                4.5,
                                6.5
                            ],
                            "modifierNameSteps": [
                                "Eff_Count_5"
                            ]
                        },
                        {
                            "$type": "AttachModifierToGlobalValueMixin",
                            "globalValueTarget": "Team",
                            "globalValueKey": "SGV_Box_Count",
                            "valueSteps": [
                                5.5,
                                6.5
                            ],
                            "modifierNameSteps": [
                                "Eff_Count_6"
                            ]
                        }
                    ]
                },
                "Eff_Count_1": {
                    "modifierName": "",
                    "bonusCritical": 100.0,
                    "onAdded": [
                        {
                            "$type": "AttachEffect",
                            "healLimitedByCasterMaxHPRatio": "Eff_SceneObj_QunyugeDebris_Box_Count_1",
                            "born": {
                                "$type": "IJCOFPNPJPK",
                                "attachPointName": "BoneRoot"
                            },
                            "JAOICKHDAKL": -1.0
                        },
                        {
                            "$type": "FireEffect",
                            "healLimitedByCasterMaxHPRatio": "Eff_SceneObj_Common_AppearMask_08",
                            "born": {
                                "$type": "IJCOFPNPJPK",
                                "offset": {
                                    "HMHIOILIGBF": -1.1649999618530273,
                                    "DPPJGBOHAAL": 0.5360000133514404,
                                    "DDOAGBLBCEF": -1.2790000438690186
                                },
                                "attachPointName": "BoneRoot"
                            },
                            "JAOICKHDAKL": -1.0
                        }
                    ]
                },
                "Eff_Count_2": {
                    "modifierName": "",
                    "bonusCritical": 100.0,
                    "onAdded": [
                        {
                            "$type": "AttachEffect",
                            "healLimitedByCasterMaxHPRatio": "Eff_SceneObj_QunyugeDebris_Box_Count_2",
                            "born": {
                                "$type": "IJCOFPNPJPK",
                                "attachPointName": "BoneRoot"
                            },
                            "JAOICKHDAKL": -1.0
                        },
                        {
                            "$type": "FireEffect",
                            "healLimitedByCasterMaxHPRatio": "Eff_SceneObj_Common_AppearMask_08",
                            "born": {
                                "$type": "IJCOFPNPJPK",
                                "offset": {
                                    "HMHIOILIGBF": 1.0920000076293945,
                                    "DPPJGBOHAAL": 0.5360000133514404,
                                    "DDOAGBLBCEF": -1.2330000400543213
                                },
                                "attachPointName": "BoneRoot"
                            },
                            "JAOICKHDAKL": -1.0
                        }
                    ]
                },
                "Eff_Count_3": {
                    "modifierName": "",
                    "bonusCritical": 100.0,
                    "onAdded": [
                        {
                            "$type": "AttachEffect",
                            "healLimitedByCasterMaxHPRatio": "Eff_SceneObj_QunyugeDebris_Box_Count_3",
                            "born": {
                                "$type": "IJCOFPNPJPK",
                                "attachPointName": "BoneRoot"
                            },
                            "JAOICKHDAKL": -1.0
                        },
                        {
                            "$type": "FireEffect",
                            "healLimitedByCasterMaxHPRatio": "Eff_SceneObj_Common_AppearMask_08",
                            "born": {
                                "$type": "IJCOFPNPJPK",
                                "offset": {
                                    "HMHIOILIGBF": -1.1390000581741333,
                                    "DPPJGBOHAAL": 0.5380038022994995,
                                    "DDOAGBLBCEF": -1.6620019674301147
                                },
                                "attachPointName": "BoneRoot"
                            },
                            "JAOICKHDAKL": -1.0
                        }
                    ]
                },
                "Eff_Count_4": {
                    "modifierName": "",
                    "bonusCritical": 100.0,
                    "onAdded": [
                        {
                            "$type": "AttachEffect",
                            "healLimitedByCasterMaxHPRatio": "Eff_SceneObj_QunyugeDebris_Box_Count_4",
                            "born": {
                                "$type": "IJCOFPNPJPK",
                                "attachPointName": "BoneRoot"
                            },
                            "JAOICKHDAKL": -1.0
                        },
                        {
                            "$type": "FireEffect",
                            "healLimitedByCasterMaxHPRatio": "Eff_SceneObj_Common_AppearMask_08",
                            "born": {
                                "$type": "IJCOFPNPJPK",
                                "offset": {
                                    "HMHIOILIGBF": 1.1269999742507935,
                                    "DPPJGBOHAAL": 0.5400000214576721,
                                    "DDOAGBLBCEF": -1.6169999837875366
                                },
                                "attachPointName": "BoneRoot"
                            },
                            "JAOICKHDAKL": -1.0
                        }
                    ]
                },
                "Eff_Count_5": {
                    "modifierName": "",
                    "bonusCritical": 100.0,
                    "onAdded": [
                        {
                            "$type": "AttachEffect",
                            "healLimitedByCasterMaxHPRatio": "Eff_SceneObj_QunyugeDebris_Box_Count_5",
                            "born": {
                                "$type": "IJCOFPNPJPK",
                                "attachPointName": "BoneRoot"
                            },
                            "JAOICKHDAKL": -1.0
                        },
                        {
                            "$type": "FireEffect",
                            "healLimitedByCasterMaxHPRatio": "Eff_SceneObj_Common_AppearMask_08",
                            "born": {
                                "$type": "IJCOFPNPJPK",
                                "offset": {
                                    "HMHIOILIGBF": -1.1549999713897705,
                                    "DPPJGBOHAAL": 0.781000018119812,
                                    "DDOAGBLBCEF": -1.7020000219345093
                                },
                                "attachPointName": "BoneRoot"
                            },
                            "JAOICKHDAKL": -1.0
                        }
                    ]
                },
                "Eff_Count_6": {
                    "modifierName": "",
                    "bonusCritical": 100.0,
                    "onAdded": [
                        {
                            "$type": "AttachEffect",
                            "healLimitedByCasterMaxHPRatio": "Eff_SceneObj_QunyugeDebris_Box_Count_6",
                            "born": {
                                "$type": "IJCOFPNPJPK",
                                "attachPointName": "BoneRoot"
                            },
                            "JAOICKHDAKL": -1.0
                        },
                        {
                            "$type": "FireEffect",
                            "healLimitedByCasterMaxHPRatio": "Eff_SceneObj_Common_AppearMask_08",
                            "born": {
                                "$type": "IJCOFPNPJPK",
                                "offset": {
                                    "HMHIOILIGBF": 1.121999979019165,
                                    "DPPJGBOHAAL": 0.7860000133514404,
                                    "DDOAGBLBCEF": -1.6820000410079956
                                },
                                "attachPointName": "BoneRoot"
                            },
                            "JAOICKHDAKL": -1.0
                        }
                    ]
                }
            },
            "onAdded": [
                {
                    "$type": "TriggerAbility",
                    "abilityName": "Team_Activity_QunyugeDebris_Skiff_Eff_Controller_QuestVersion"
                },
                {
                    "$type": "SetGlobalValue",
                    "ratio": 0.0,
                    "key": "GV_Mark_Skiff",
                    "maxValue": 0.0,
                    "minValue": 0.0
                }
            ],
            "onRemoved": [
                {
                    "$type": "Predicated",
                    "otherTargets": {
                        "$type": "OOMOJBAELMP",
                        "entityTypePriority": [
                            "Gadget"
                        ],
                        "sortType": "Nearest",
                        "shapeName": "CircleR50",
                        "campTargetType": "All",
                        "BDDJBGEIGMJ": "CurLocalAvatar",
                        "MAHBNNIIMMA": 1.0
                    },
                    "targetPredicates": [
                        {
                            "$type": "PPIDPJIMFMI",
                            "modifierName": "UNIQUE_Skiff_MuteIce"
                        }
                    ],
                    "successActions": [
                        {
                            "$type": "RemoveModifier",
                            "target": "Target",
                            "modifierName": "Skiff_Activity_QunyugeDebris_Eff_Controller"
                        }
                    ]
                }
            ],
            "onAbilityStart": [
                {
                    "$type": "Predicated",
                    "otherTargets": {
                        "$type": "OOMOJBAELMP",
                        "entityTypePriority": [
                            "Gadget"
                        ],
                        "sortType": "Nearest",
                        "shapeName": "CircleR50",
                        "campTargetType": "All",
                        "BDDJBGEIGMJ": "CurLocalAvatar",
                        "MAHBNNIIMMA": 1.0
                    },
                    "targetPredicates": [
                        {
                            "$type": "PPIDPJIMFMI",
                            "modifierName": "UNIQUE_Skiff_MuteIce"
                        }
                    ],
                    "successActions": [
                        {
                            "$type": "ApplyModifier",
                            "target": "Target",
                            "modifierName": "Skiff_Activity_QunyugeDebris_Eff_Controller"
                        }
                    ]
                }
            ]
        }
    },
    {
        "Default": {
            "$type": "ConfigAbility",
            "abilityName": "SceneObj_Area_Ly_Property_Prop_Raft_SeaLampActivity",
            "modifiers": {
                "SLC_CountDown": {
                    "modifierName": "",
                    "duration": 0.5,
                    "bonusCritical": 100.0,
                    "onRemoved": [
                        {
                            "$type": "ServerLuaCall",
                            "predicates": [
                                {
                                    "$type": "GDCNLCKIJBG",
                                    "key": "SGV_Need_SLC",
                                    "ratio": 1.0
                                }
                            ],
                            "luaCallType": "FromGroup",
                            "funcName": "SLC_Raft_Created",
                            "FDPBPIHKEGH": 0.0,
                            "FJCBPCIDMGJ": 0.0,
                            "NDCPJDDPIMD": 0.0
                        }
                    ]
                }
            },
            "onAdded": [
                {
                    "$type": "ApplyModifier",
                    "modifierName": "SLC_CountDown"
                }
            ]
        }
    }
]