{
    "luaDataPath": "",
    "dontUseDefaultFinish": true,
    "entityBan": "",
    "disableNpcLod": true,
    "isAutoBanNpc": true,
    "isBanWidgetPet": true,
    "protectNpcMobileLod": true,
    "MNHFNFDCEFG": 7,
    "startFade": {
        "startFadeOutDuration": 0.0
    },
    "endFade": {
        "startFadeOutDuration": 0.0
    },
    "actors": [
        {
            "alias": "Avatar",
            "visible": true,
            "bornPointName": "[3_5746:2904.566,441.616,4182.956]",
            "relativePosType": "AVATAR_NEW",
            "relativePosNpcAlias": "",
            "bindMovingTargetKey": ""
        },
        {
            "alias": "AvatarNpc",
            "visible": true,
            "bornPointName": "[3_5746:2904.566,441.616,4182.956]",
            "removeActorType": "NEW_REMOVE",
            "relativePosType": "AVATAR_NEW",
            "relativePosNpcAlias": "",
            "bindMovingTargetKey": ""
        },
        {
            "configID": 21029,
            "alias": "21029",
            "visible": true,
            "bornPointName": "[3_5536:2902.934,441.595,4185.005,0.000,142.259,0.000]",
            "removeActorType": "NEW_REMOVE",
            "relativePosType": "AVATAR_NEW",
            "relativePosNpcAlias": "",
            "bindMovingTargetKey": ""
        },
        {
            "configID": 1005,
            "alias": "1005",
            "visible": true,
            "bornPointName": "",
            "useRelativePos": true,
            "relativePos": {
                "x": 0.5,
                "z": 0.5
            },
            "removeActorType": "NEW_REMOVE_WITH_DISAPPEAR",
            "relativePosType": "AVATAR_NEW",
            "relativePosNpcAlias": "",
            "bindMovingTargetKey": ""
        },
        {
            "configID": 5254,
            "alias": "5254",
            "visible": true,
            "bornPointName": "[3_5536:2902.934,441.595,4185.005,0.000,142.259,0.000]",
            "removeActorType": "NEW_REMOVE",
            "relativePosType": "AVATAR_NEW",
            "relativePosNpcAlias": "",
            "bindMovingTargetKey": ""
        }
    ],
    "group": [
        [
            {
                "$type": "MoleMole.Config.ConfigTimeProtectAction",
                "type": "TIME_PROTECT",
                "duration": 1.0,
                "actionId": 104
            },
            {
                "$type": "MoleMole.Config.ConfigBlackScreenAction",
                "type": "BLACK_SCREEN",
                "duration": 1.0,
                "actionId": 166,
                "blackScreenType": "KEEP_BLACK",
                "durationToBlack": 0.5,
                "durationKeepBlack": 1.0,
                "durationFromBlack": 0.5,
                "inteePos": "",
                "textMapID": "",
                "useTextFade": true,
                "changeAudioState": true
            },
            {
                "$type": "MoleMole.Config.ConfigSitOrStandAction",
                "type": "SIT_OR_STAND",
                "aliasList": [
                    "Avatar"
                ],
                "actionId": 171,
                "banResetFreestyle": true
            },
            {
                "$type": "MoleMole.Config.ConfigVisibleInterAction",
                "type": "VISIBLE",
                "aliasList": [
                    "Avatar"
                ],
                "actionId": 176,
                "extraParam": ""
            },
            {
                "$type": "MoleMole.Config.ConfigPlayerNPCEnergyTypeAction",
                "type": "SET_PLAYER_NPC_ENERGY_TYPE",
                "aliasList": [
                    "AvatarNpc"
                ],
                "actionId": 172,
                "setHeroEngergyType": true
            },
            {
                "$type": "KCBOGFFHPBD",
                "type": "BODY_LANG",
                "aliasList": [
                    "AvatarNpc"
                ],
                "actionId": 173,
                "AHGOBCDHCMC": true,
                "FHLAMNNHMFA": true,
                "KCEHDJLKIAL": false,
                "AOFEDPBOOIE": ""
            },
            {
                "$type": "CNBNGFNKLGP",
                "type": "STEER_TO",
                "duration": 1.0,
                "aliasList": [
                    "AvatarNpc"
                ],
                "actionId": 239,
                "flag": 32,
                "DEMFHGAIELL": "ABSOLUTE",
                "KDKLEJFHDJG": {
                    "x": 2902.93408203125,
                    "y": 441.6050109863281,
                    "z": 4185.0048828125
                },
                "BBNLLCHBKAI": true,
                "COJBPJMLIFM": true,
                "NLIKMFJCLBP": true,
                "KIPMIDIKECP": "",
                "IDIIDHLNENJ": true,
                "FDLMFGAMGJK": true,
                "AOFBAGFCGPJ": ""
            },
            {
                "$type": "KCBOGFFHPBD",
                "type": "BODY_LANG",
                "aliasList": [
                    "1005"
                ],
                "actionId": 164,
                "AHGOBCDHCMC": true,
                "FHLAMNNHMFA": true,
                "KCEHDJLKIAL": false,
                "AOFEDPBOOIE": ""
            },
            {
                "$type": "MoleMole.Config.ConfigTeleportToAction",
                "type": "TELEPORT_TO",
                "aliasList": [
                    "1005"
                ],
                "actionId": 177,
                "position": {
                    "x": 2905.39990234375,
                    "y": 441.6000061035156,
                    "z": 4183.89990234375
                },
                "forward": {
                    "z": 1.0
                },
                "openLongDisTeleport": true,
                "syncForward": true,
                "posBindMovingTargetKey": "",
                "forwardBindMovingTargetKey": ""
            }
        ],
        [
            {
                "$type": "MoleMole.Config.ConfigBlackScreenAction",
                "type": "BLACK_SCREEN",
                "duration": 0.5,
                "actionId": 167,
                "blackScreenType": "FROM_BLACK",
                "durationToBlack": 0.5,
                "durationKeepBlack": 0.5,
                "durationFromBlack": 0.5,
                "inteePos": "",
                "textMapID": "",
                "useTextFade": true,
                "changeAudioState": true
            },
            {
                "$type": "BCJBNCJOPCE",
                "type": "CAMERA_MOVE",
                "duration": 1.0,
                "actionId": 238,
                "AKFGKKEOEFA": {
                    "x": 2908.89111328125,
                    "y": 443.90399169921875,
                    "z": 4183.19287109375
                },
                "NGEBMAEFFGJ": {
                    "x": 2907.958984375,
                    "y": 443.60198974609375,
                    "z": 4183.39501953125
                },
                "LIGHLBKBDEI": 52.255001068115234,
                "GFIOJGJJGCN": 6,
                "ABAEPHOGOFF": "EaseInOutCubic",
                "KFDBMBFFANN": {},
                "IEJBKHHEJEN": true,
                "CEDHIBLHMKP": false,
                "KIPMIDIKECP": "",
                "ANFHNPOCMNI": true,
                "BDLGHOJPJHD": "",
                "LCOJGFEOLCK": "",
                "BBBGAEDCJEL": ""
            },
            {
                "$type": "IBPNIIGAIPF",
                "type": "LOOK_AT",
                "aliasList": [
                    "Avatar"
                ],
                "actionId": 178,
                "flag": 64,
                "GGIENKFBOGL": true,
                "NDOMJCOFKDJ": 0.5,
                "KIPMIDIKECP": "21029",
                "FGPHOPBEJDE": true,
                "PEIIOFIBMAK": 10.0,
                "HJJAFGPMJNJ": "",
                "AOFBAGFCGPJ": ""
            },
            {
                "$type": "IBPNIIGAIPF",
                "type": "LOOK_AT",
                "aliasList": [
                    "AvatarNpc"
                ],
                "actionId": 179,
                "flag": 64,
                "GGIENKFBOGL": true,
                "NDOMJCOFKDJ": 0.5,
                "KIPMIDIKECP": "5254",
                "FGPHOPBEJDE": true,
                "PEIIOFIBMAK": 10.0,
                "HJJAFGPMJNJ": "",
                "AOFBAGFCGPJ": ""
            },
            {
                "$type": "CCEEIGNAILH",
                "type": "DIALOG",
                "aliasList": [
                    "21029"
                ],
                "actionId": 107,
                "KICBIOMGHIN": 741210701,
                "PNCCODDABKI": 1.0
            },
            {
                "$type": "IBPNIIGAIPF",
                "type": "LOOK_AT",
                "aliasList": [
                    "1005"
                ],
                "actionId": 180,
                "flag": 64,
                "GGIENKFBOGL": true,
                "NDOMJCOFKDJ": 0.5,
                "KIPMIDIKECP": "5254",
                "FGPHOPBEJDE": true,
                "PEIIOFIBMAK": 10.0,
                "HJJAFGPMJNJ": "",
                "AOFBAGFCGPJ": ""
            },
            {
                "$type": "CNBNGFNKLGP",
                "type": "STEER_TO",
                "duration": 1.0,
                "aliasList": [
                    "1005"
                ],
                "actionId": 240,
                "flag": 32,
                "DEMFHGAIELL": "ABSOLUTE",
                "KDKLEJFHDJG": {
                    "x": 2902.93408203125,
                    "y": 441.6050109863281,
                    "z": 4185.0048828125
                },
                "BBNLLCHBKAI": true,
                "COJBPJMLIFM": true,
                "NLIKMFJCLBP": true,
                "KIPMIDIKECP": "",
                "IDIIDHLNENJ": true,
                "FDLMFGAMGJK": true,
                "AOFBAGFCGPJ": ""
            },
            {
                "$type": "IBPNIIGAIPF",
                "type": "LOOK_AT",
                "aliasList": [
                    "5254"
                ],
                "actionId": 181,
                "flag": 64,
                "GGIENKFBOGL": true,
                "NDOMJCOFKDJ": 0.5,
                "KIPMIDIKECP": "AvatarNpc",
                "FGPHOPBEJDE": true,
                "PEIIOFIBMAK": 10.0,
                "HJJAFGPMJNJ": "",
                "AOFBAGFCGPJ": ""
            }
        ],
        [
            {
                "$type": "BCJBNCJOPCE",
                "type": "CAMERA_MOVE",
                "duration": 1.0,
                "actionId": 241,
                "AKFGKKEOEFA": {
                    "x": 2904.013916015625,
                    "y": 443.2359924316406,
                    "z": 4184.6767578125
                },
                "NGEBMAEFFGJ": {
                    "x": 2903.05908203125,
                    "y": 443.2349853515625,
                    "z": 4184.97216796875
                },
                "LIGHLBKBDEI": 52.255001068115234,
                "GFIOJGJJGCN": 6,
                "ABAEPHOGOFF": "EaseInOutCubic",
                "KFDBMBFFANN": {},
                "IEJBKHHEJEN": true,
                "CEDHIBLHMKP": false,
                "KIPMIDIKECP": "",
                "ANFHNPOCMNI": true,
                "BDLGHOJPJHD": "",
                "LCOJGFEOLCK": "",
                "BBBGAEDCJEL": ""
            },
            {
                "$type": "CCEEIGNAILH",
                "type": "DIALOG",
                "aliasList": [
                    "21029"
                ],
                "actionId": 109,
                "KICBIOMGHIN": 741210702,
                "PNCCODDABKI": 0.5
            },
            {
                "$type": "KCBOGFFHPBD",
                "type": "BODY_LANG",
                "delayTime": 1.5,
                "aliasList": [
                    "5254"
                ],
                "actionId": 242,
                "GPIEDGOMCGL": 4030,
                "FHLAMNNHMFA": true,
                "KCEHDJLKIAL": false,
                "AOFEDPBOOIE": ""
            }
        ],
        [
            {
                "$type": "BCJBNCJOPCE",
                "type": "CAMERA_MOVE",
                "duration": 1.0,
                "actionId": 243,
                "AKFGKKEOEFA": {
                    "x": 2904.24609375,
                    "y": 443.0379943847656,
                    "z": 4184.34912109375
                },
                "NGEBMAEFFGJ": {
                    "x": 2905.158935546875,
                    "y": 442.8290100097656,
                    "z": 4184.0009765625
                },
                "LIGHLBKBDEI": 52.255001068115234,
                "GFIOJGJJGCN": 6,
                "ABAEPHOGOFF": "EaseInOutCubic",
                "KFDBMBFFANN": {},
                "IEJBKHHEJEN": true,
                "CEDHIBLHMKP": false,
                "KIPMIDIKECP": "",
                "ANFHNPOCMNI": true,
                "BDLGHOJPJHD": "",
                "LCOJGFEOLCK": "",
                "BBBGAEDCJEL": ""
            },
            {
                "$type": "IBPNIIGAIPF",
                "type": "LOOK_AT",
                "aliasList": [
                    "Avatar"
                ],
                "actionId": 182,
                "flag": 64,
                "GGIENKFBOGL": true,
                "NDOMJCOFKDJ": 0.5,
                "KIPMIDIKECP": "1005",
                "FGPHOPBEJDE": true,
                "PEIIOFIBMAK": 10.0,
                "HJJAFGPMJNJ": "",
                "AOFBAGFCGPJ": ""
            },
            {
                "$type": "IBPNIIGAIPF",
                "type": "LOOK_AT",
                "aliasList": [
                    "AvatarNpc"
                ],
                "actionId": 183,
                "flag": 64,
                "GGIENKFBOGL": true,
                "NDOMJCOFKDJ": 0.5,
                "KIPMIDIKECP": "1005",
                "FGPHOPBEJDE": true,
                "PEIIOFIBMAK": 10.0,
                "HJJAFGPMJNJ": "",
                "AOFBAGFCGPJ": ""
            },
            {
                "$type": "IBPNIIGAIPF",
                "type": "LOOK_AT",
                "aliasList": [
                    "21029"
                ],
                "actionId": 184,
                "flag": 64,
                "GGIENKFBOGL": true,
                "NDOMJCOFKDJ": 0.5,
                "KIPMIDIKECP": "1005",
                "FGPHOPBEJDE": true,
                "PEIIOFIBMAK": 10.0,
                "HJJAFGPMJNJ": "",
                "AOFBAGFCGPJ": ""
            },
            {
                "$type": "CCEEIGNAILH",
                "type": "DIALOG",
                "aliasList": [
                    "1005"
                ],
                "actionId": 111,
                "KICBIOMGHIN": 741210703,
                "PNCCODDABKI": 0.5
            },
            {
                "$type": "KCBOGFFHPBD",
                "type": "BODY_LANG",
                "aliasList": [
                    "1005"
                ],
                "actionId": 244,
                "GPIEDGOMCGL": 1190,
                "FHLAMNNHMFA": true,
                "KCEHDJLKIAL": false,
                "AOFEDPBOOIE": ""
            },
            {
                "$type": "IBPNIIGAIPF",
                "type": "LOOK_AT",
                "aliasList": [
                    "5254"
                ],
                "actionId": 185,
                "flag": 64,
                "GGIENKFBOGL": true,
                "NDOMJCOFKDJ": 0.5,
                "KIPMIDIKECP": "1005",
                "FGPHOPBEJDE": true,
                "PEIIOFIBMAK": 10.0,
                "HJJAFGPMJNJ": "",
                "AOFBAGFCGPJ": ""
            }
        ],
        [
            {
                "$type": "BCJBNCJOPCE",
                "type": "CAMERA_MOVE",
                "duration": 1.0,
                "actionId": 245,
                "AKFGKKEOEFA": {
                    "x": 2904.06689453125,
                    "y": 443.3450012207031,
                    "z": 4184.46484375
                },
                "NGEBMAEFFGJ": {
                    "x": 2903.14208984375,
                    "y": 443.27301025390625,
                    "z": 4184.8359375
                },
                "LIGHLBKBDEI": 52.255001068115234,
                "GFIOJGJJGCN": 6,
                "ABAEPHOGOFF": "EaseInOutCubic",
                "KFDBMBFFANN": {},
                "IEJBKHHEJEN": true,
                "CEDHIBLHMKP": false,
                "KIPMIDIKECP": "",
                "ANFHNPOCMNI": true,
                "BDLGHOJPJHD": "",
                "LCOJGFEOLCK": "",
                "BBBGAEDCJEL": ""
            },
            {
                "$type": "IBPNIIGAIPF",
                "type": "LOOK_AT",
                "aliasList": [
                    "Avatar"
                ],
                "actionId": 186,
                "flag": 64,
                "GGIENKFBOGL": true,
                "NDOMJCOFKDJ": 0.5,
                "KIPMIDIKECP": "21029",
                "FGPHOPBEJDE": true,
                "PEIIOFIBMAK": 10.0,
                "HJJAFGPMJNJ": "",
                "AOFBAGFCGPJ": ""
            },
            {
                "$type": "IBPNIIGAIPF",
                "type": "LOOK_AT",
                "aliasList": [
                    "AvatarNpc"
                ],
                "actionId": 187,
                "flag": 64,
                "GGIENKFBOGL": true,
                "NDOMJCOFKDJ": 0.5,
                "KIPMIDIKECP": "5254",
                "FGPHOPBEJDE": true,
                "PEIIOFIBMAK": 10.0,
                "HJJAFGPMJNJ": "",
                "AOFBAGFCGPJ": ""
            },
            {
                "$type": "CCEEIGNAILH",
                "type": "DIALOG",
                "aliasList": [
                    "21029"
                ],
                "actionId": 113,
                "KICBIOMGHIN": 741210704,
                "PNCCODDABKI": 0.5
            },
            {
                "$type": "IBPNIIGAIPF",
                "type": "LOOK_AT",
                "aliasList": [
                    "1005"
                ],
                "actionId": 188,
                "flag": 64,
                "GGIENKFBOGL": true,
                "NDOMJCOFKDJ": 0.5,
                "KIPMIDIKECP": "5254",
                "FGPHOPBEJDE": true,
                "PEIIOFIBMAK": 10.0,
                "HJJAFGPMJNJ": "",
                "AOFBAGFCGPJ": ""
            },
            {
                "$type": "IBPNIIGAIPF",
                "type": "LOOK_AT",
                "delayTime": 2.0,
                "aliasList": [
                    "5254"
                ],
                "actionId": 189,
                "flag": 64,
                "GGIENKFBOGL": true,
                "MHMKIICCEDG": {
                    "y": 25.0
                },
                "NDOMJCOFKDJ": 0.5,
                "KIPMIDIKECP": "21029",
                "AHLPNEGAKGG": "NONE",
                "FGPHOPBEJDE": true,
                "PEIIOFIBMAK": 10.0,
                "HJJAFGPMJNJ": "",
                "AOFBAGFCGPJ": ""
            }
        ],
        [
            {
                "$type": "BCJBNCJOPCE",
                "type": "CAMERA_MOVE",
                "duration": 1.0,
                "actionId": 246,
                "AKFGKKEOEFA": {
                    "x": 2910.10009765625,
                    "y": 443.3909912109375,
                    "z": 4182.453125
                },
                "NGEBMAEFFGJ": {
                    "x": 2909.110107421875,
                    "y": 443.4410095214844,
                    "z": 4182.5869140625
                },
                "LIGHLBKBDEI": 52.255001068115234,
                "GFIOJGJJGCN": 6,
                "ABAEPHOGOFF": "EaseInOutCubic",
                "KFDBMBFFANN": {},
                "IEJBKHHEJEN": true,
                "CEDHIBLHMKP": false,
                "KIPMIDIKECP": "",
                "ANFHNPOCMNI": true,
                "BDLGHOJPJHD": "",
                "LCOJGFEOLCK": "",
                "BBBGAEDCJEL": ""
            },
            {
                "$type": "CCEEIGNAILH",
                "type": "DIALOG",
                "aliasList": [
                    "21029"
                ],
                "actionId": 115,
                "KICBIOMGHIN": 741210705,
                "PNCCODDABKI": 0.5
            },
            {
                "$type": "BCJBNCJOPCE",
                "type": "CAMERA_MOVE",
                "delayTime": 0.20000000298023224,
                "duration": 8.0,
                "actionId": 247,
                "AKFGKKEOEFA": {
                    "x": 2911.375,
                    "y": 443.32598876953125,
                    "z": 4185.02099609375
                },
                "NGEBMAEFFGJ": {
                    "x": 2910.3798828125,
                    "y": 443.3590087890625,
                    "z": 4184.93115234375
                },
                "LIGHLBKBDEI": 52.255001068115234,
                "ABAEPHOGOFF": "Linear",
                "KFDBMBFFANN": {},
                "IEJBKHHEJEN": true,
                "CEDHIBLHMKP": false,
                "KIPMIDIKECP": "",
                "ANFHNPOCMNI": true,
                "BDLGHOJPJHD": "",
                "LCOJGFEOLCK": "",
                "BBBGAEDCJEL": ""
            }
        ],
        [
            {
                "$type": "BCJBNCJOPCE",
                "type": "CAMERA_MOVE",
                "duration": 1.0,
                "actionId": 248,
                "AKFGKKEOEFA": {
                    "x": 2904.487060546875,
                    "y": 444.91400146484375,
                    "z": 4184.46484375
                },
                "NGEBMAEFFGJ": {
                    "x": 2903.847900390625,
                    "y": 444.1809997558594,
                    "z": 4184.69677734375
                },
                "LIGHLBKBDEI": 52.255001068115234,
                "GFIOJGJJGCN": 6,
                "ABAEPHOGOFF": "EaseInOutCubic",
                "KFDBMBFFANN": {},
                "IEJBKHHEJEN": true,
                "CEDHIBLHMKP": false,
                "KIPMIDIKECP": "",
                "ANFHNPOCMNI": true,
                "BDLGHOJPJHD": "",
                "LCOJGFEOLCK": "",
                "BBBGAEDCJEL": ""
            },
            {
                "$type": "CCEEIGNAILH",
                "type": "DIALOG",
                "aliasList": [
                    "21029"
                ],
                "actionId": 117,
                "KICBIOMGHIN": 741210706,
                "PNCCODDABKI": 0.5
            },
            {
                "$type": "IBPNIIGAIPF",
                "type": "LOOK_AT",
                "aliasList": [
                    "5254"
                ],
                "actionId": 249,
                "flag": 64,
                "GGIENKFBOGL": true,
                "MHMKIICCEDG": {
                    "y": 20.0
                },
                "NDOMJCOFKDJ": 0.5,
                "KIPMIDIKECP": "",
                "AHLPNEGAKGG": "NONE",
                "FGPHOPBEJDE": true,
                "PEIIOFIBMAK": 10.0,
                "HJJAFGPMJNJ": "",
                "AOFBAGFCGPJ": ""
            },
            {
                "$type": "IBPNIIGAIPF",
                "type": "LOOK_AT",
                "delayTime": 2.5,
                "aliasList": [
                    "5254"
                ],
                "actionId": 250,
                "flag": 64,
                "GGIENKFBOGL": true,
                "MHMKIICCEDG": {
                    "y": 20.0
                },
                "NDOMJCOFKDJ": 0.5,
                "KIPMIDIKECP": "",
                "FGPHOPBEJDE": true,
                "PEIIOFIBMAK": 10.0,
                "HJJAFGPMJNJ": "",
                "AOFBAGFCGPJ": ""
            }
        ],
        [
            {
                "$type": "BCJBNCJOPCE",
                "type": "CAMERA_MOVE",
                "duration": 1.0,
                "actionId": 251,
                "AKFGKKEOEFA": {
                    "x": 2904.6708984375,
                    "y": 443.28900146484375,
                    "z": 4184.40478515625
                },
                "NGEBMAEFFGJ": {
                    "x": 2903.7509765625,
                    "y": 443.1059875488281,
                    "z": 4184.7509765625
                },
                "LIGHLBKBDEI": 52.255001068115234,
                "GFIOJGJJGCN": 6,
                "ABAEPHOGOFF": "EaseInOutCubic",
                "KFDBMBFFANN": {},
                "IEJBKHHEJEN": true,
                "CEDHIBLHMKP": false,
                "KIPMIDIKECP": "",
                "ANFHNPOCMNI": true,
                "BDLGHOJPJHD": "",
                "LCOJGFEOLCK": "",
                "BBBGAEDCJEL": ""
            },
            {
                "$type": "CCEEIGNAILH",
                "type": "DIALOG",
                "aliasList": [
                    "21029"
                ],
                "actionId": 119,
                "KICBIOMGHIN": 741210707,
                "PNCCODDABKI": 0.5
            }
        ],
        [
            {
                "$type": "BCJBNCJOPCE",
                "type": "CAMERA_MOVE",
                "duration": 1.0,
                "actionId": 252,
                "AKFGKKEOEFA": {
                    "x": 2904.72998046875,
                    "y": 443.05999755859375,
                    "z": 4184.208984375
                },
                "NGEBMAEFFGJ": {
                    "x": 2905.631103515625,
                    "y": 442.8330078125,
                    "z": 4183.8388671875
                },
                "LIGHLBKBDEI": 52.255001068115234,
                "GFIOJGJJGCN": 6,
                "ABAEPHOGOFF": "EaseInOutCubic",
                "KFDBMBFFANN": {},
                "IEJBKHHEJEN": true,
                "CEDHIBLHMKP": false,
                "KIPMIDIKECP": "",
                "ANFHNPOCMNI": true,
                "BDLGHOJPJHD": "",
                "LCOJGFEOLCK": "",
                "BBBGAEDCJEL": ""
            },
            {
                "$type": "IBPNIIGAIPF",
                "type": "LOOK_AT",
                "aliasList": [
                    "Avatar"
                ],
                "actionId": 190,
                "flag": 64,
                "GGIENKFBOGL": true,
                "NDOMJCOFKDJ": 0.5,
                "KIPMIDIKECP": "1005",
                "FGPHOPBEJDE": true,
                "PEIIOFIBMAK": 10.0,
                "HJJAFGPMJNJ": "",
                "AOFBAGFCGPJ": ""
            },
            {
                "$type": "IBPNIIGAIPF",
                "type": "LOOK_AT",
                "aliasList": [
                    "AvatarNpc"
                ],
                "actionId": 191,
                "flag": 64,
                "GGIENKFBOGL": true,
                "NDOMJCOFKDJ": 0.5,
                "KIPMIDIKECP": "1005",
                "FGPHOPBEJDE": true,
                "PEIIOFIBMAK": 10.0,
                "HJJAFGPMJNJ": "",
                "AOFBAGFCGPJ": ""
            },
            {
                "$type": "IBPNIIGAIPF",
                "type": "LOOK_AT",
                "aliasList": [
                    "21029"
                ],
                "actionId": 192,
                "flag": 64,
                "GGIENKFBOGL": true,
                "NDOMJCOFKDJ": 0.5,
                "KIPMIDIKECP": "1005",
                "FGPHOPBEJDE": true,
                "PEIIOFIBMAK": 10.0,
                "HJJAFGPMJNJ": "",
                "AOFBAGFCGPJ": ""
            },
            {
                "$type": "CCEEIGNAILH",
                "type": "DIALOG",
                "aliasList": [
                    "1005"
                ],
                "actionId": 121,
                "KICBIOMGHIN": 741210708,
                "PNCCODDABKI": 0.5
            },
            {
                "$type": "KCBOGFFHPBD",
                "type": "BODY_LANG",
                "aliasList": [
                    "1005"
                ],
                "actionId": 253,
                "GPIEDGOMCGL": 1060,
                "FHLAMNNHMFA": true,
                "KCEHDJLKIAL": false,
                "AOFEDPBOOIE": ""
            },
            {
                "$type": "IBPNIIGAIPF",
                "type": "LOOK_AT",
                "aliasList": [
                    "5254"
                ],
                "actionId": 193,
                "flag": 64,
                "GGIENKFBOGL": true,
                "NDOMJCOFKDJ": 0.5,
                "KIPMIDIKECP": "1005",
                "FGPHOPBEJDE": true,
                "PEIIOFIBMAK": 10.0,
                "HJJAFGPMJNJ": "",
                "AOFBAGFCGPJ": ""
            }
        ],
        [
            {
                "$type": "BCJBNCJOPCE",
                "type": "CAMERA_MOVE",
                "duration": 1.0,
                "actionId": 254,
                "AKFGKKEOEFA": {
                    "x": 2904.075927734375,
                    "y": 443.4169921875,
                    "z": 4184.9599609375
                },
                "NGEBMAEFFGJ": {
                    "x": 2903.097900390625,
                    "y": 443.2080078125,
                    "z": 4184.98388671875
                },
                "LIGHLBKBDEI": 52.255001068115234,
                "GFIOJGJJGCN": 6,
                "ABAEPHOGOFF": "EaseInOutCubic",
                "KFDBMBFFANN": {},
                "IEJBKHHEJEN": true,
                "CEDHIBLHMKP": false,
                "KIPMIDIKECP": "",
                "ANFHNPOCMNI": true,
                "BDLGHOJPJHD": "",
                "LCOJGFEOLCK": "",
                "BBBGAEDCJEL": ""
            },
            {
                "$type": "IBPNIIGAIPF",
                "type": "LOOK_AT",
                "aliasList": [
                    "Avatar"
                ],
                "actionId": 194,
                "flag": 64,
                "GGIENKFBOGL": true,
                "NDOMJCOFKDJ": 0.5,
                "KIPMIDIKECP": "21029",
                "FGPHOPBEJDE": true,
                "PEIIOFIBMAK": 10.0,
                "HJJAFGPMJNJ": "",
                "AOFBAGFCGPJ": ""
            },
            {
                "$type": "IBPNIIGAIPF",
                "type": "LOOK_AT",
                "aliasList": [
                    "AvatarNpc"
                ],
                "actionId": 195,
                "flag": 64,
                "GGIENKFBOGL": true,
                "NDOMJCOFKDJ": 0.5,
                "KIPMIDIKECP": "21029",
                "FGPHOPBEJDE": true,
                "PEIIOFIBMAK": 10.0,
                "HJJAFGPMJNJ": "",
                "AOFBAGFCGPJ": ""
            },
            {
                "$type": "CCEEIGNAILH",
                "type": "DIALOG",
                "aliasList": [
                    "21029"
                ],
                "actionId": 123,
                "KICBIOMGHIN": 741210709,
                "PNCCODDABKI": 0.5
            },
            {
                "$type": "IBPNIIGAIPF",
                "type": "LOOK_AT",
                "aliasList": [
                    "1005"
                ],
                "actionId": 196,
                "flag": 64,
                "GGIENKFBOGL": true,
                "NDOMJCOFKDJ": 0.5,
                "KIPMIDIKECP": "21029",
                "FGPHOPBEJDE": true,
                "PEIIOFIBMAK": 10.0,
                "HJJAFGPMJNJ": "",
                "AOFBAGFCGPJ": ""
            },
            {
                "$type": "IBPNIIGAIPF",
                "type": "LOOK_AT",
                "aliasList": [
                    "5254"
                ],
                "actionId": 197,
                "flag": 64,
                "GGIENKFBOGL": true,
                "NDOMJCOFKDJ": 0.5,
                "KIPMIDIKECP": "AvatarNpc",
                "FGPHOPBEJDE": true,
                "PEIIOFIBMAK": 10.0,
                "HJJAFGPMJNJ": "",
                "AOFBAGFCGPJ": ""
            },
            {
                "$type": "KCBOGFFHPBD",
                "type": "BODY_LANG",
                "aliasList": [
                    "5254"
                ],
                "actionId": 256,
                "GPIEDGOMCGL": 4030,
                "FHLAMNNHMFA": true,
                "KCEHDJLKIAL": false,
                "AOFEDPBOOIE": ""
            },
            {
                "$type": "BCJBNCJOPCE",
                "type": "CAMERA_MOVE",
                "delayTime": 0.20000000298023224,
                "duration": 8.0,
                "actionId": 255,
                "AKFGKKEOEFA": {
                    "x": 2904.153076171875,
                    "y": 443.510009765625,
                    "z": 4184.81005859375
                },
                "NGEBMAEFFGJ": {
                    "x": 2903.200927734375,
                    "y": 443.2309875488281,
                    "z": 4184.93115234375
                },
                "LIGHLBKBDEI": 52.255001068115234,
                "ABAEPHOGOFF": "Linear",
                "KFDBMBFFANN": {},
                "IEJBKHHEJEN": true,
                "CEDHIBLHMKP": false,
                "KIPMIDIKECP": "",
                "ANFHNPOCMNI": true,
                "BDLGHOJPJHD": "",
                "LCOJGFEOLCK": "",
                "BBBGAEDCJEL": ""
            }
        ],
        [
            {
                "$type": "BCJBNCJOPCE",
                "type": "CAMERA_MOVE",
                "duration": 5.0,
                "actionId": 257,
                "AKFGKKEOEFA": {
                    "x": 2905.7509765625,
                    "y": 443.9779968261719,
                    "z": 4184.60693359375
                },
                "NGEBMAEFFGJ": {
                    "x": 2904.798095703125,
                    "y": 443.6990051269531,
                    "z": 4184.72802734375
                },
                "LIGHLBKBDEI": 52.255001068115234,
                "ABAEPHOGOFF": "Linear",
                "KFDBMBFFANN": {},
                "IEJBKHHEJEN": true,
                "CEDHIBLHMKP": false,
                "KIPMIDIKECP": "",
                "ANFHNPOCMNI": true,
                "BDLGHOJPJHD": "",
                "LCOJGFEOLCK": "",
                "BBBGAEDCJEL": ""
            },
            {
                "$type": "CCEEIGNAILH",
                "type": "DIALOG",
                "aliasList": [
                    "21029"
                ],
                "actionId": 125,
                "KICBIOMGHIN": 741210710,
                "PNCCODDABKI": 0.5
            }
        ],
        [
            {
                "$type": "BCJBNCJOPCE",
                "type": "CAMERA_MOVE",
                "duration": 1.0,
                "actionId": 258,
                "AKFGKKEOEFA": {
                    "x": 2903.541015625,
                    "y": 448.3940124511719,
                    "z": 4168.6337890625
                },
                "NGEBMAEFFGJ": {
                    "x": 2903.48291015625,
                    "y": 448.25299072265625,
                    "z": 4169.6220703125
                },
                "LIGHLBKBDEI": 52.255001068115234,
                "GFIOJGJJGCN": 6,
                "ABAEPHOGOFF": "EaseInOutCubic",
                "KFDBMBFFANN": {},
                "IEJBKHHEJEN": true,
                "CEDHIBLHMKP": false,
                "KIPMIDIKECP": "",
                "ANFHNPOCMNI": true,
                "BDLGHOJPJHD": "",
                "LCOJGFEOLCK": "",
                "BBBGAEDCJEL": ""
            },
            {
                "$type": "CCEEIGNAILH",
                "type": "DIALOG",
                "aliasList": [
                    "21029"
                ],
                "actionId": 127,
                "KICBIOMGHIN": 741210711,
                "PNCCODDABKI": 0.5
            },
            {
                "$type": "BCJBNCJOPCE",
                "type": "CAMERA_MOVE",
                "delayTime": 0.20000000298023224,
                "duration": 7.0,
                "actionId": 259,
                "AKFGKKEOEFA": {
                    "x": 2907.639892578125,
                    "y": 448.81298828125,
                    "z": 4168.93505859375
                },
                "NGEBMAEFFGJ": {
                    "x": 2907.341064453125,
                    "y": 448.60101318359375,
                    "z": 4169.865234375
                },
                "LIGHLBKBDEI": 52.255001068115234,
                "ABAEPHOGOFF": "Linear",
                "KFDBMBFFANN": {},
                "IEJBKHHEJEN": true,
                "CEDHIBLHMKP": false,
                "KIPMIDIKECP": "",
                "ANFHNPOCMNI": true,
                "BDLGHOJPJHD": "",
                "LCOJGFEOLCK": "",
                "BBBGAEDCJEL": ""
            }
        ],
        [
            {
                "$type": "BCJBNCJOPCE",
                "type": "CAMERA_MOVE",
                "duration": 1.0,
                "actionId": 260,
                "AKFGKKEOEFA": {
                    "x": 2904.0810546875,
                    "y": 443.31500244140625,
                    "z": 4185.93798828125
                },
                "NGEBMAEFFGJ": {
                    "x": 2903.31396484375,
                    "y": 443.09698486328125,
                    "z": 4185.3349609375
                },
                "LIGHLBKBDEI": 52.255001068115234,
                "GFIOJGJJGCN": 6,
                "ABAEPHOGOFF": "EaseInOutCubic",
                "KFDBMBFFANN": {},
                "IEJBKHHEJEN": true,
                "CEDHIBLHMKP": false,
                "KIPMIDIKECP": "",
                "ANFHNPOCMNI": true,
                "BDLGHOJPJHD": "",
                "LCOJGFEOLCK": "",
                "BBBGAEDCJEL": ""
            },
            {
                "$type": "CCEEIGNAILH",
                "type": "DIALOG",
                "aliasList": [
                    "21029"
                ],
                "actionId": 129,
                "KICBIOMGHIN": 741210712,
                "PNCCODDABKI": 0.5
            },
            {
                "$type": "IBPNIIGAIPF",
                "type": "LOOK_AT",
                "delayTime": 1.0,
                "aliasList": [
                    "5254"
                ],
                "actionId": 261,
                "flag": 64,
                "GGIENKFBOGL": true,
                "MHMKIICCEDG": {
                    "y": 25.0
                },
                "NDOMJCOFKDJ": 0.5,
                "KIPMIDIKECP": "",
                "AHLPNEGAKGG": "NONE",
                "FGPHOPBEJDE": true,
                "PEIIOFIBMAK": 10.0,
                "HJJAFGPMJNJ": "",
                "AOFBAGFCGPJ": ""
            }
        ],
        [
            {
                "$type": "BCJBNCJOPCE",
                "type": "CAMERA_MOVE",
                "duration": 1.0,
                "actionId": 262,
                "AKFGKKEOEFA": {
                    "x": 2904.31494140625,
                    "y": 442.9739990234375,
                    "z": 4184.8310546875
                },
                "NGEBMAEFFGJ": {
                    "x": 2905.070068359375,
                    "y": 442.8949890136719,
                    "z": 4184.18017578125
                },
                "LIGHLBKBDEI": 52.255001068115234,
                "GFIOJGJJGCN": 6,
                "ABAEPHOGOFF": "EaseInOutCubic",
                "KFDBMBFFANN": {},
                "IEJBKHHEJEN": true,
                "CEDHIBLHMKP": false,
                "KIPMIDIKECP": "",
                "ANFHNPOCMNI": true,
                "BDLGHOJPJHD": "",
                "LCOJGFEOLCK": "",
                "BBBGAEDCJEL": ""
            },
            {
                "$type": "IBPNIIGAIPF",
                "type": "LOOK_AT",
                "aliasList": [
                    "Avatar"
                ],
                "actionId": 198,
                "flag": 64,
                "GGIENKFBOGL": true,
                "NDOMJCOFKDJ": 0.5,
                "KIPMIDIKECP": "1005",
                "FGPHOPBEJDE": true,
                "PEIIOFIBMAK": 10.0,
                "HJJAFGPMJNJ": "",
                "AOFBAGFCGPJ": ""
            },
            {
                "$type": "IBPNIIGAIPF",
                "type": "LOOK_AT",
                "aliasList": [
                    "AvatarNpc"
                ],
                "actionId": 199,
                "flag": 64,
                "GGIENKFBOGL": true,
                "NDOMJCOFKDJ": 0.5,
                "KIPMIDIKECP": "1005",
                "FGPHOPBEJDE": true,
                "PEIIOFIBMAK": 10.0,
                "HJJAFGPMJNJ": "",
                "AOFBAGFCGPJ": ""
            },
            {
                "$type": "IBPNIIGAIPF",
                "type": "LOOK_AT",
                "aliasList": [
                    "21029"
                ],
                "actionId": 200,
                "flag": 64,
                "GGIENKFBOGL": true,
                "NDOMJCOFKDJ": 0.5,
                "KIPMIDIKECP": "1005",
                "FGPHOPBEJDE": true,
                "PEIIOFIBMAK": 10.0,
                "HJJAFGPMJNJ": "",
                "AOFBAGFCGPJ": ""
            },
            {
                "$type": "CCEEIGNAILH",
                "type": "DIALOG",
                "aliasList": [
                    "1005"
                ],
                "actionId": 131,
                "KICBIOMGHIN": 741210713,
                "PNCCODDABKI": 0.5
            },
            {
                "$type": "KCBOGFFHPBD",
                "type": "BODY_LANG",
                "aliasList": [
                    "1005"
                ],
                "actionId": 263,
                "GPIEDGOMCGL": 1170,
                "FHLAMNNHMFA": true,
                "KCEHDJLKIAL": false,
                "AOFEDPBOOIE": ""
            },
            {
                "$type": "IBPNIIGAIPF",
                "type": "LOOK_AT",
                "aliasList": [
                    "1005"
                ],
                "actionId": 287,
                "flag": 64,
                "GGIENKFBOGL": true,
                "NDOMJCOFKDJ": 0.5,
                "KIPMIDIKECP": "",
                "FGPHOPBEJDE": true,
                "PEIIOFIBMAK": 10.0,
                "HJJAFGPMJNJ": "",
                "AOFBAGFCGPJ": ""
            },
            {
                "$type": "IBPNIIGAIPF",
                "type": "LOOK_AT",
                "aliasList": [
                    "5254"
                ],
                "actionId": 201,
                "flag": 64,
                "GGIENKFBOGL": true,
                "NDOMJCOFKDJ": 0.5,
                "KIPMIDIKECP": "1005",
                "FGPHOPBEJDE": true,
                "PEIIOFIBMAK": 10.0,
                "HJJAFGPMJNJ": "",
                "AOFBAGFCGPJ": ""
            }
        ],
        [
            {
                "$type": "BCJBNCJOPCE",
                "type": "CAMERA_MOVE",
                "duration": 1.0,
                "actionId": 264,
                "AKFGKKEOEFA": {
                    "x": 2904.222900390625,
                    "y": 443.1700134277344,
                    "z": 4184.5751953125
                },
                "NGEBMAEFFGJ": {
                    "x": 2903.27001953125,
                    "y": 443.1789855957031,
                    "z": 4184.87890625
                },
                "LIGHLBKBDEI": 52.255001068115234,
                "GFIOJGJJGCN": 6,
                "ABAEPHOGOFF": "EaseInOutCubic",
                "KFDBMBFFANN": {},
                "IEJBKHHEJEN": true,
                "CEDHIBLHMKP": false,
                "KIPMIDIKECP": "",
                "ANFHNPOCMNI": true,
                "BDLGHOJPJHD": "",
                "LCOJGFEOLCK": "",
                "BBBGAEDCJEL": ""
            },
            {
                "$type": "IBPNIIGAIPF",
                "type": "LOOK_AT",
                "aliasList": [
                    "Avatar"
                ],
                "actionId": 202,
                "flag": 64,
                "GGIENKFBOGL": true,
                "NDOMJCOFKDJ": 0.5,
                "KIPMIDIKECP": "21029",
                "FGPHOPBEJDE": true,
                "PEIIOFIBMAK": 10.0,
                "HJJAFGPMJNJ": "",
                "AOFBAGFCGPJ": ""
            },
            {
                "$type": "IBPNIIGAIPF",
                "type": "LOOK_AT",
                "aliasList": [
                    "AvatarNpc"
                ],
                "actionId": 203,
                "flag": 64,
                "GGIENKFBOGL": true,
                "NDOMJCOFKDJ": 0.5,
                "KIPMIDIKECP": "21029",
                "FGPHOPBEJDE": true,
                "PEIIOFIBMAK": 10.0,
                "HJJAFGPMJNJ": "",
                "AOFBAGFCGPJ": ""
            },
            {
                "$type": "CCEEIGNAILH",
                "type": "DIALOG",
                "aliasList": [
                    "21029"
                ],
                "actionId": 133,
                "KICBIOMGHIN": 741210714,
                "PNCCODDABKI": 0.5
            },
            {
                "$type": "IBPNIIGAIPF",
                "type": "LOOK_AT",
                "aliasList": [
                    "1005"
                ],
                "actionId": 204,
                "flag": 64,
                "GGIENKFBOGL": true,
                "NDOMJCOFKDJ": 0.5,
                "KIPMIDIKECP": "21029",
                "FGPHOPBEJDE": true,
                "PEIIOFIBMAK": 10.0,
                "HJJAFGPMJNJ": "",
                "AOFBAGFCGPJ": ""
            },
            {
                "$type": "IBPNIIGAIPF",
                "type": "LOOK_AT",
                "aliasList": [
                    "5254"
                ],
                "actionId": 205,
                "flag": 64,
                "GGIENKFBOGL": true,
                "NDOMJCOFKDJ": 0.5,
                "KIPMIDIKECP": "AvatarNpc",
                "FGPHOPBEJDE": true,
                "PEIIOFIBMAK": 10.0,
                "HJJAFGPMJNJ": "",
                "AOFBAGFCGPJ": ""
            },
            {
                "$type": "KCBOGFFHPBD",
                "type": "BODY_LANG",
                "aliasList": [
                    "5254"
                ],
                "actionId": 265,
                "GPIEDGOMCGL": 4040,
                "FHLAMNNHMFA": true,
                "KCEHDJLKIAL": false,
                "AOFEDPBOOIE": ""
            },
            {
                "$type": "MEKNGCBGKEJ",
                "type": "DIALOG_SELECT",
                "delayTime": 0.4000000059604645,
                "aliasList": [
                    "AvatarNpc"
                ],
                "actionId": 169,
                "MLAABINGLAA": [
                    741210715
                ],
                "HPBPDBFGKID": [
                    961190299
                ],
                "CFJOJADDHHG": true,
                "APEOOMIGHNL": 2247763450
            }
        ],
        [
            {
                "$type": "CCEEIGNAILH",
                "type": "DIALOG",
                "aliasList": [
                    "21029"
                ],
                "actionId": 136,
                "KICBIOMGHIN": 741210716,
                "PNCCODDABKI": 0.5
            }
        ],
        [
            {
                "$type": "BCJBNCJOPCE",
                "type": "CAMERA_MOVE",
                "duration": 1.0,
                "actionId": 266,
                "AKFGKKEOEFA": {
                    "x": 2904.02294921875,
                    "y": 452.73199462890625,
                    "z": 4175.7001953125
                },
                "NGEBMAEFFGJ": {
                    "x": 2904.384033203125,
                    "y": 452.260986328125,
                    "z": 4176.5048828125
                },
                "LIGHLBKBDEI": 52.255001068115234,
                "GFIOJGJJGCN": 6,
                "ABAEPHOGOFF": "EaseInOutCubic",
                "KFDBMBFFANN": {},
                "IEJBKHHEJEN": true,
                "CEDHIBLHMKP": false,
                "KIPMIDIKECP": "",
                "ANFHNPOCMNI": true,
                "BDLGHOJPJHD": "",
                "LCOJGFEOLCK": "",
                "BBBGAEDCJEL": ""
            },
            {
                "$type": "CCEEIGNAILH",
                "type": "DIALOG",
                "aliasList": [
                    "21029"
                ],
                "actionId": 138,
                "KICBIOMGHIN": 741210717,
                "PNCCODDABKI": 0.5
            },
            {
                "$type": "BCJBNCJOPCE",
                "type": "CAMERA_MOVE",
                "delayTime": 0.20000000298023224,
                "duration": 8.0,
                "actionId": 267,
                "AKFGKKEOEFA": {
                    "x": 2905.068115234375,
                    "y": 459.50799560546875,
                    "z": 4177.2880859375
                },
                "NGEBMAEFFGJ": {
                    "x": 2905.444091796875,
                    "y": 459.22601318359375,
                    "z": 4178.169921875
                },
                "LIGHLBKBDEI": 52.255001068115234,
                "ABAEPHOGOFF": "Linear",
                "KFDBMBFFANN": {},
                "IEJBKHHEJEN": true,
                "CEDHIBLHMKP": false,
                "KIPMIDIKECP": "",
                "ANFHNPOCMNI": true,
                "BDLGHOJPJHD": "",
                "LCOJGFEOLCK": "",
                "BBBGAEDCJEL": ""
            }
        ],
        [
            {
                "$type": "BCJBNCJOPCE",
                "type": "CAMERA_MOVE",
                "duration": 1.0,
                "actionId": 268,
                "AKFGKKEOEFA": {
                    "x": 2904.131103515625,
                    "y": 443.4580078125,
                    "z": 4184.544921875
                },
                "NGEBMAEFFGJ": {
                    "x": 2903.235107421875,
                    "y": 443.2449951171875,
                    "z": 4184.93603515625
                },
                "LIGHLBKBDEI": 52.255001068115234,
                "GFIOJGJJGCN": 6,
                "ABAEPHOGOFF": "EaseInOutCubic",
                "KFDBMBFFANN": {},
                "IEJBKHHEJEN": true,
                "CEDHIBLHMKP": false,
                "KIPMIDIKECP": "",
                "ANFHNPOCMNI": true,
                "BDLGHOJPJHD": "",
                "LCOJGFEOLCK": "",
                "BBBGAEDCJEL": ""
            },
            {
                "$type": "CCEEIGNAILH",
                "type": "DIALOG",
                "aliasList": [
                    "21029"
                ],
                "actionId": 140,
                "KICBIOMGHIN": 741210718,
                "PNCCODDABKI": 0.5
            },
            {
                "$type": "MEKNGCBGKEJ",
                "type": "DIALOG_SELECT",
                "delayTime": 0.4000000059604645,
                "aliasList": [
                    "AvatarNpc"
                ],
                "actionId": 170,
                "MLAABINGLAA": [
                    741210719,
                    741210721,
                    741210722
                ],
                "HPBPDBFGKID": [
                    961190302,
                    961190326,
                    961190324
                ],
                "CFJOJADDHHG": true,
                "APEOOMIGHNL": 2247763450
            }
        ],
        [
            {
                "$type": "BCJBNCJOPCE",
                "type": "CAMERA_MOVE",
                "duration": 1.0,
                "actionId": 269,
                "AKFGKKEOEFA": {
                    "x": 2904.2900390625,
                    "y": 443.0190124511719,
                    "z": 4184.22216796875
                },
                "NGEBMAEFFGJ": {
                    "x": 2905.256103515625,
                    "y": 442.9129943847656,
                    "z": 4183.98583984375
                },
                "LIGHLBKBDEI": 52.255001068115234,
                "GFIOJGJJGCN": 6,
                "ABAEPHOGOFF": "EaseInOutCubic",
                "KFDBMBFFANN": {},
                "IEJBKHHEJEN": true,
                "CEDHIBLHMKP": false,
                "KIPMIDIKECP": "",
                "ANFHNPOCMNI": true,
                "BDLGHOJPJHD": "",
                "LCOJGFEOLCK": "",
                "BBBGAEDCJEL": ""
            },
            {
                "$type": "IBPNIIGAIPF",
                "type": "LOOK_AT",
                "aliasList": [
                    "Avatar"
                ],
                "actionId": 206,
                "flag": 64,
                "GGIENKFBOGL": true,
                "NDOMJCOFKDJ": 0.5,
                "KIPMIDIKECP": "1005",
                "FGPHOPBEJDE": true,
                "PEIIOFIBMAK": 10.0,
                "HJJAFGPMJNJ": "",
                "AOFBAGFCGPJ": ""
            },
            {
                "$type": "IBPNIIGAIPF",
                "type": "LOOK_AT",
                "aliasList": [
                    "AvatarNpc"
                ],
                "actionId": 207,
                "flag": 64,
                "GGIENKFBOGL": true,
                "NDOMJCOFKDJ": 0.5,
                "KIPMIDIKECP": "1005",
                "FGPHOPBEJDE": true,
                "PEIIOFIBMAK": 10.0,
                "HJJAFGPMJNJ": "",
                "AOFBAGFCGPJ": ""
            },
            {
                "$type": "IBPNIIGAIPF",
                "type": "LOOK_AT",
                "aliasList": [
                    "21029"
                ],
                "actionId": 208,
                "flag": 64,
                "GGIENKFBOGL": true,
                "NDOMJCOFKDJ": 0.5,
                "KIPMIDIKECP": "1005",
                "FGPHOPBEJDE": true,
                "PEIIOFIBMAK": 10.0,
                "HJJAFGPMJNJ": "",
                "AOFBAGFCGPJ": ""
            },
            {
                "$type": "CCEEIGNAILH",
                "type": "DIALOG",
                "aliasList": [
                    "1005"
                ],
                "actionId": 143,
                "KICBIOMGHIN": 741210720,
                "PNCCODDABKI": 0.5
            },
            {
                "$type": "KCBOGFFHPBD",
                "type": "BODY_LANG",
                "aliasList": [
                    "1005"
                ],
                "actionId": 270,
                "GPIEDGOMCGL": 1300,
                "FHLAMNNHMFA": true,
                "KCEHDJLKIAL": false,
                "AOFEDPBOOIE": ""
            },
            {
                "$type": "IBPNIIGAIPF",
                "type": "LOOK_AT",
                "aliasList": [
                    "5254"
                ],
                "actionId": 209,
                "flag": 64,
                "GGIENKFBOGL": true,
                "NDOMJCOFKDJ": 0.5,
                "KIPMIDIKECP": "1005",
                "FGPHOPBEJDE": true,
                "PEIIOFIBMAK": 10.0,
                "HJJAFGPMJNJ": "",
                "AOFBAGFCGPJ": ""
            }
        ],
        [
            {
                "$type": "IBPNIIGAIPF",
                "type": "LOOK_AT",
                "aliasList": [
                    "Avatar"
                ],
                "actionId": 210,
                "flag": 64,
                "GGIENKFBOGL": true,
                "NDOMJCOFKDJ": 0.5,
                "KIPMIDIKECP": "21029",
                "FGPHOPBEJDE": true,
                "PEIIOFIBMAK": 10.0,
                "HJJAFGPMJNJ": "",
                "AOFBAGFCGPJ": ""
            },
            {
                "$type": "IBPNIIGAIPF",
                "type": "LOOK_AT",
                "aliasList": [
                    "AvatarNpc"
                ],
                "actionId": 211,
                "flag": 64,
                "GGIENKFBOGL": true,
                "NDOMJCOFKDJ": 0.5,
                "KIPMIDIKECP": "5254",
                "FGPHOPBEJDE": true,
                "PEIIOFIBMAK": 10.0,
                "HJJAFGPMJNJ": "",
                "AOFBAGFCGPJ": ""
            },
            {
                "$type": "CCEEIGNAILH",
                "type": "DIALOG",
                "aliasList": [
                    "21029"
                ],
                "actionId": 145,
                "KICBIOMGHIN": 741210723,
                "PNCCODDABKI": 0.5
            },
            {
                "$type": "IBPNIIGAIPF",
                "type": "LOOK_AT",
                "aliasList": [
                    "1005"
                ],
                "actionId": 212,
                "flag": 64,
                "GGIENKFBOGL": true,
                "NDOMJCOFKDJ": 0.5,
                "KIPMIDIKECP": "5254",
                "FGPHOPBEJDE": true,
                "PEIIOFIBMAK": 10.0,
                "HJJAFGPMJNJ": "",
                "AOFBAGFCGPJ": ""
            },
            {
                "$type": "IBPNIIGAIPF",
                "type": "LOOK_AT",
                "aliasList": [
                    "5254"
                ],
                "actionId": 213,
                "flag": 64,
                "GGIENKFBOGL": true,
                "NDOMJCOFKDJ": 0.5,
                "KIPMIDIKECP": "AvatarNpc",
                "FGPHOPBEJDE": true,
                "PEIIOFIBMAK": 10.0,
                "HJJAFGPMJNJ": "",
                "AOFBAGFCGPJ": ""
            },
            {
                "$type": "KCBOGFFHPBD",
                "type": "BODY_LANG",
                "delayTime": 1.0,
                "aliasList": [
                    "5254"
                ],
                "actionId": 284,
                "GPIEDGOMCGL": 4030,
                "FHLAMNNHMFA": true,
                "KCEHDJLKIAL": false,
                "AOFEDPBOOIE": ""
            }
        ],
        [
            {
                "$type": "BCJBNCJOPCE",
                "type": "CAMERA_MOVE",
                "duration": 1.0,
                "actionId": 285,
                "AKFGKKEOEFA": {
                    "x": 2904.113037109375,
                    "y": 443.0580139160156,
                    "z": 4184.37890625
                },
                "NGEBMAEFFGJ": {
                    "x": 2905.0439453125,
                    "y": 442.9079895019531,
                    "z": 4184.046875
                },
                "LIGHLBKBDEI": 52.255001068115234,
                "GFIOJGJJGCN": 6,
                "ABAEPHOGOFF": "EaseInOutCubic",
                "KFDBMBFFANN": {},
                "IEJBKHHEJEN": true,
                "CEDHIBLHMKP": false,
                "KIPMIDIKECP": "",
                "ANFHNPOCMNI": true,
                "BDLGHOJPJHD": "",
                "LCOJGFEOLCK": "",
                "BBBGAEDCJEL": ""
            },
            {
                "$type": "IBPNIIGAIPF",
                "type": "LOOK_AT",
                "aliasList": [
                    "Avatar"
                ],
                "actionId": 214,
                "flag": 64,
                "GGIENKFBOGL": true,
                "NDOMJCOFKDJ": 0.5,
                "KIPMIDIKECP": "1005",
                "FGPHOPBEJDE": true,
                "PEIIOFIBMAK": 10.0,
                "HJJAFGPMJNJ": "",
                "AOFBAGFCGPJ": ""
            },
            {
                "$type": "IBPNIIGAIPF",
                "type": "LOOK_AT",
                "aliasList": [
                    "AvatarNpc"
                ],
                "actionId": 215,
                "flag": 64,
                "GGIENKFBOGL": true,
                "NDOMJCOFKDJ": 0.5,
                "KIPMIDIKECP": "1005",
                "FGPHOPBEJDE": true,
                "PEIIOFIBMAK": 10.0,
                "HJJAFGPMJNJ": "",
                "AOFBAGFCGPJ": ""
            },
            {
                "$type": "IBPNIIGAIPF",
                "type": "LOOK_AT",
                "aliasList": [
                    "21029"
                ],
                "actionId": 216,
                "flag": 64,
                "GGIENKFBOGL": true,
                "NDOMJCOFKDJ": 0.5,
                "KIPMIDIKECP": "1005",
                "FGPHOPBEJDE": true,
                "PEIIOFIBMAK": 10.0,
                "HJJAFGPMJNJ": "",
                "AOFBAGFCGPJ": ""
            },
            {
                "$type": "CCEEIGNAILH",
                "type": "DIALOG",
                "aliasList": [
                    "1005"
                ],
                "actionId": 147,
                "KICBIOMGHIN": 741210724,
                "PNCCODDABKI": 0.5
            },
            {
                "$type": "IBPNIIGAIPF",
                "type": "LOOK_AT",
                "aliasList": [
                    "5254"
                ],
                "actionId": 217,
                "flag": 64,
                "GGIENKFBOGL": true,
                "NDOMJCOFKDJ": 0.5,
                "KIPMIDIKECP": "1005",
                "FGPHOPBEJDE": true,
                "PEIIOFIBMAK": 10.0,
                "HJJAFGPMJNJ": "",
                "AOFBAGFCGPJ": ""
            },
            {
                "$type": "KCBOGFFHPBD",
                "type": "BODY_LANG",
                "delayTime": 1.0,
                "aliasList": [
                    "1005"
                ],
                "actionId": 286,
                "GPIEDGOMCGL": 1190,
                "FHLAMNNHMFA": true,
                "KCEHDJLKIAL": false,
                "AOFEDPBOOIE": ""
            }
        ],
        [
            {
                "$type": "BCJBNCJOPCE",
                "type": "CAMERA_MOVE",
                "duration": 1.0,
                "actionId": 271,
                "AKFGKKEOEFA": {
                    "x": 2904.781982421875,
                    "y": 443.23699951171875,
                    "z": 4184.22705078125
                },
                "NGEBMAEFFGJ": {
                    "x": 2903.861083984375,
                    "y": 443.16400146484375,
                    "z": 4184.60791015625
                },
                "LIGHLBKBDEI": 52.255001068115234,
                "GFIOJGJJGCN": 6,
                "ABAEPHOGOFF": "EaseInOutCubic",
                "KFDBMBFFANN": {},
                "IEJBKHHEJEN": true,
                "CEDHIBLHMKP": false,
                "KIPMIDIKECP": "",
                "ANFHNPOCMNI": true,
                "BDLGHOJPJHD": "",
                "LCOJGFEOLCK": "",
                "BBBGAEDCJEL": ""
            },
            {
                "$type": "IBPNIIGAIPF",
                "type": "LOOK_AT",
                "aliasList": [
                    "Avatar"
                ],
                "actionId": 218,
                "flag": 64,
                "GGIENKFBOGL": true,
                "NDOMJCOFKDJ": 0.5,
                "KIPMIDIKECP": "21029",
                "FGPHOPBEJDE": true,
                "PEIIOFIBMAK": 10.0,
                "HJJAFGPMJNJ": "",
                "AOFBAGFCGPJ": ""
            },
            {
                "$type": "IBPNIIGAIPF",
                "type": "LOOK_AT",
                "aliasList": [
                    "AvatarNpc"
                ],
                "actionId": 219,
                "flag": 64,
                "GGIENKFBOGL": true,
                "NDOMJCOFKDJ": 0.5,
                "KIPMIDIKECP": "5254",
                "FGPHOPBEJDE": true,
                "PEIIOFIBMAK": 10.0,
                "HJJAFGPMJNJ": "",
                "AOFBAGFCGPJ": ""
            },
            {
                "$type": "CCEEIGNAILH",
                "type": "DIALOG",
                "aliasList": [
                    "21029"
                ],
                "actionId": 149,
                "KICBIOMGHIN": 741210725,
                "PNCCODDABKI": 0.5
            },
            {
                "$type": "IBPNIIGAIPF",
                "type": "LOOK_AT",
                "aliasList": [
                    "1005"
                ],
                "actionId": 220,
                "flag": 64,
                "GGIENKFBOGL": true,
                "NDOMJCOFKDJ": 0.5,
                "KIPMIDIKECP": "5254",
                "FGPHOPBEJDE": true,
                "PEIIOFIBMAK": 10.0,
                "HJJAFGPMJNJ": "",
                "AOFBAGFCGPJ": ""
            },
            {
                "$type": "IBPNIIGAIPF",
                "type": "LOOK_AT",
                "aliasList": [
                    "5254"
                ],
                "actionId": 221,
                "flag": 64,
                "GGIENKFBOGL": true,
                "NDOMJCOFKDJ": 0.5,
                "KIPMIDIKECP": "AvatarNpc",
                "FGPHOPBEJDE": true,
                "PEIIOFIBMAK": 10.0,
                "HJJAFGPMJNJ": "",
                "AOFBAGFCGPJ": ""
            }
        ],
        [
            {
                "$type": "BCJBNCJOPCE",
                "type": "CAMERA_MOVE",
                "duration": 1.0,
                "actionId": 272,
                "AKFGKKEOEFA": {
                    "x": 2904.462890625,
                    "y": 443.21099853515625,
                    "z": 4184.38916015625
                },
                "NGEBMAEFFGJ": {
                    "x": 2905.344970703125,
                    "y": 442.9729919433594,
                    "z": 4183.98193359375
                },
                "LIGHLBKBDEI": 52.255001068115234,
                "GFIOJGJJGCN": 6,
                "ABAEPHOGOFF": "EaseInOutCubic",
                "KFDBMBFFANN": {},
                "IEJBKHHEJEN": true,
                "CEDHIBLHMKP": false,
                "KIPMIDIKECP": "",
                "ANFHNPOCMNI": true,
                "BDLGHOJPJHD": "",
                "LCOJGFEOLCK": "",
                "BBBGAEDCJEL": ""
            },
            {
                "$type": "IBPNIIGAIPF",
                "type": "LOOK_AT",
                "aliasList": [
                    "Avatar"
                ],
                "actionId": 222,
                "flag": 64,
                "GGIENKFBOGL": true,
                "NDOMJCOFKDJ": 0.5,
                "KIPMIDIKECP": "1005",
                "FGPHOPBEJDE": true,
                "PEIIOFIBMAK": 10.0,
                "HJJAFGPMJNJ": "",
                "AOFBAGFCGPJ": ""
            },
            {
                "$type": "IBPNIIGAIPF",
                "type": "LOOK_AT",
                "aliasList": [
                    "AvatarNpc"
                ],
                "actionId": 223,
                "flag": 64,
                "GGIENKFBOGL": true,
                "NDOMJCOFKDJ": 0.5,
                "KIPMIDIKECP": "1005",
                "FGPHOPBEJDE": true,
                "PEIIOFIBMAK": 10.0,
                "HJJAFGPMJNJ": "",
                "AOFBAGFCGPJ": ""
            },
            {
                "$type": "IBPNIIGAIPF",
                "type": "LOOK_AT",
                "aliasList": [
                    "21029"
                ],
                "actionId": 224,
                "flag": 64,
                "GGIENKFBOGL": true,
                "NDOMJCOFKDJ": 0.5,
                "KIPMIDIKECP": "1005",
                "FGPHOPBEJDE": true,
                "PEIIOFIBMAK": 10.0,
                "HJJAFGPMJNJ": "",
                "AOFBAGFCGPJ": ""
            },
            {
                "$type": "CCEEIGNAILH",
                "type": "DIALOG",
                "aliasList": [
                    "1005"
                ],
                "actionId": 151,
                "KICBIOMGHIN": 741210726,
                "PNCCODDABKI": 0.5
            },
            {
                "$type": "KCBOGFFHPBD",
                "type": "BODY_LANG",
                "aliasList": [
                    "1005"
                ],
                "actionId": 273,
                "GPIEDGOMCGL": 1190,
                "FHLAMNNHMFA": true,
                "KCEHDJLKIAL": false,
                "AOFEDPBOOIE": ""
            },
            {
                "$type": "IBPNIIGAIPF",
                "type": "LOOK_AT",
                "aliasList": [
                    "5254"
                ],
                "actionId": 225,
                "flag": 64,
                "GGIENKFBOGL": true,
                "NDOMJCOFKDJ": 0.5,
                "KIPMIDIKECP": "1005",
                "FGPHOPBEJDE": true,
                "PEIIOFIBMAK": 10.0,
                "HJJAFGPMJNJ": "",
                "AOFBAGFCGPJ": ""
            }
        ],
        [
            {
                "$type": "BCJBNCJOPCE",
                "type": "CAMERA_MOVE",
                "duration": 1.0,
                "actionId": 274,
                "AKFGKKEOEFA": {
                    "x": 2908.047119140625,
                    "y": 443.7380065917969,
                    "z": 4185.93115234375
                },
                "NGEBMAEFFGJ": {
                    "x": 2907.1240234375,
                    "y": 443.49700927734375,
                    "z": 4185.62890625
                },
                "LIGHLBKBDEI": 52.255001068115234,
                "GFIOJGJJGCN": 6,
                "ABAEPHOGOFF": "EaseInOutCubic",
                "KFDBMBFFANN": {},
                "IEJBKHHEJEN": true,
                "CEDHIBLHMKP": false,
                "KIPMIDIKECP": "",
                "ANFHNPOCMNI": true,
                "BDLGHOJPJHD": "",
                "LCOJGFEOLCK": "",
                "BBBGAEDCJEL": ""
            },
            {
                "$type": "IBPNIIGAIPF",
                "type": "LOOK_AT",
                "aliasList": [
                    "Avatar"
                ],
                "actionId": 226,
                "flag": 64,
                "GGIENKFBOGL": true,
                "NDOMJCOFKDJ": 0.5,
                "KIPMIDIKECP": "21029",
                "FGPHOPBEJDE": true,
                "PEIIOFIBMAK": 10.0,
                "HJJAFGPMJNJ": "",
                "AOFBAGFCGPJ": ""
            },
            {
                "$type": "IBPNIIGAIPF",
                "type": "LOOK_AT",
                "aliasList": [
                    "AvatarNpc"
                ],
                "actionId": 227,
                "flag": 64,
                "GGIENKFBOGL": true,
                "NDOMJCOFKDJ": 0.5,
                "KIPMIDIKECP": "5254",
                "FGPHOPBEJDE": true,
                "PEIIOFIBMAK": 10.0,
                "HJJAFGPMJNJ": "",
                "AOFBAGFCGPJ": ""
            },
            {
                "$type": "CCEEIGNAILH",
                "type": "DIALOG",
                "aliasList": [
                    "21029"
                ],
                "actionId": 153,
                "KICBIOMGHIN": 741210727,
                "PNCCODDABKI": 0.5
            },
            {
                "$type": "IBPNIIGAIPF",
                "type": "LOOK_AT",
                "aliasList": [
                    "1005"
                ],
                "actionId": 228,
                "flag": 64,
                "GGIENKFBOGL": true,
                "NDOMJCOFKDJ": 0.5,
                "KIPMIDIKECP": "5254",
                "FGPHOPBEJDE": true,
                "PEIIOFIBMAK": 10.0,
                "HJJAFGPMJNJ": "",
                "AOFBAGFCGPJ": ""
            },
            {
                "$type": "IBPNIIGAIPF",
                "type": "LOOK_AT",
                "aliasList": [
                    "5254"
                ],
                "actionId": 229,
                "flag": 64,
                "GGIENKFBOGL": true,
                "NDOMJCOFKDJ": 0.5,
                "KIPMIDIKECP": "AvatarNpc",
                "FGPHOPBEJDE": true,
                "PEIIOFIBMAK": 10.0,
                "HJJAFGPMJNJ": "",
                "AOFBAGFCGPJ": ""
            },
            {
                "$type": "BCJBNCJOPCE",
                "type": "CAMERA_MOVE",
                "delayTime": 0.20000000298023224,
                "duration": 8.0,
                "actionId": 275,
                "AKFGKKEOEFA": {
                    "x": 2908.376953125,
                    "y": 443.8800048828125,
                    "z": 4184.80810546875
                },
                "NGEBMAEFFGJ": {
                    "x": 2907.39990234375,
                    "y": 443.6679992675781,
                    "z": 4184.80078125
                },
                "LIGHLBKBDEI": 52.255001068115234,
                "ABAEPHOGOFF": "Linear",
                "KFDBMBFFANN": {},
                "IEJBKHHEJEN": true,
                "CEDHIBLHMKP": false,
                "KIPMIDIKECP": "",
                "ANFHNPOCMNI": true,
                "BDLGHOJPJHD": "",
                "LCOJGFEOLCK": "",
                "BBBGAEDCJEL": ""
            },
            {
                "$type": "KCBOGFFHPBD",
                "type": "BODY_LANG",
                "delayTime": 1.5,
                "aliasList": [
                    "5254"
                ],
                "actionId": 276,
                "GPIEDGOMCGL": 4030,
                "FHLAMNNHMFA": true,
                "KCEHDJLKIAL": false,
                "AOFEDPBOOIE": ""
            }
        ],
        [
            {
                "$type": "BCJBNCJOPCE",
                "type": "CAMERA_MOVE",
                "duration": 1.0,
                "actionId": 277,
                "AKFGKKEOEFA": {
                    "x": 2903.987060546875,
                    "y": 443.21600341796875,
                    "z": 4184.59716796875
                },
                "NGEBMAEFFGJ": {
                    "x": 2904.632080078125,
                    "y": 442.9830017089844,
                    "z": 4183.869140625
                },
                "LIGHLBKBDEI": 52.255001068115234,
                "GFIOJGJJGCN": 6,
                "ABAEPHOGOFF": "EaseInOutCubic",
                "KFDBMBFFANN": {},
                "IEJBKHHEJEN": true,
                "CEDHIBLHMKP": false,
                "KIPMIDIKECP": "",
                "ANFHNPOCMNI": true,
                "BDLGHOJPJHD": "",
                "LCOJGFEOLCK": "",
                "BBBGAEDCJEL": ""
            },
            {
                "$type": "IBPNIIGAIPF",
                "type": "LOOK_AT",
                "aliasList": [
                    "Avatar"
                ],
                "actionId": 230,
                "flag": 64,
                "GGIENKFBOGL": true,
                "NDOMJCOFKDJ": 0.5,
                "KIPMIDIKECP": "1005",
                "FGPHOPBEJDE": true,
                "PEIIOFIBMAK": 10.0,
                "HJJAFGPMJNJ": "",
                "AOFBAGFCGPJ": ""
            },
            {
                "$type": "IBPNIIGAIPF",
                "type": "LOOK_AT",
                "aliasList": [
                    "AvatarNpc"
                ],
                "actionId": 231,
                "flag": 64,
                "GGIENKFBOGL": true,
                "NDOMJCOFKDJ": 0.5,
                "KIPMIDIKECP": "1005",
                "FGPHOPBEJDE": true,
                "PEIIOFIBMAK": 10.0,
                "HJJAFGPMJNJ": "",
                "AOFBAGFCGPJ": ""
            },
            {
                "$type": "KCBOGFFHPBD",
                "type": "BODY_LANG",
                "aliasList": [
                    "AvatarNpc"
                ],
                "actionId": 280,
                "GPIEDGOMCGL": 4031,
                "FHLAMNNHMFA": true,
                "KCEHDJLKIAL": false,
                "AOFEDPBOOIE": ""
            },
            {
                "$type": "IBPNIIGAIPF",
                "type": "LOOK_AT",
                "aliasList": [
                    "21029"
                ],
                "actionId": 232,
                "flag": 64,
                "GGIENKFBOGL": true,
                "NDOMJCOFKDJ": 0.5,
                "KIPMIDIKECP": "1005",
                "FGPHOPBEJDE": true,
                "PEIIOFIBMAK": 10.0,
                "HJJAFGPMJNJ": "",
                "AOFBAGFCGPJ": ""
            },
            {
                "$type": "CCEEIGNAILH",
                "type": "DIALOG",
                "aliasList": [
                    "1005"
                ],
                "actionId": 155,
                "KICBIOMGHIN": 741210728,
                "PNCCODDABKI": 1.5199999809265137
            },
            {
                "$type": "KCBOGFFHPBD",
                "type": "BODY_LANG",
                "aliasList": [
                    "1005"
                ],
                "actionId": 278,
                "GPIEDGOMCGL": 1300,
                "FHLAMNNHMFA": true,
                "KCEHDJLKIAL": false,
                "AOFEDPBOOIE": ""
            },
            {
                "$type": "IBPNIIGAIPF",
                "type": "LOOK_AT",
                "aliasList": [
                    "5254"
                ],
                "actionId": 233,
                "flag": 64,
                "GGIENKFBOGL": true,
                "NDOMJCOFKDJ": 0.5,
                "KIPMIDIKECP": "1005",
                "FGPHOPBEJDE": true,
                "PEIIOFIBMAK": 10.0,
                "HJJAFGPMJNJ": "",
                "AOFBAGFCGPJ": ""
            },
            {
                "$type": "IBPNIIGAIPF",
                "type": "LOOK_AT",
                "delayTime": 0.5,
                "aliasList": [
                    "1005"
                ],
                "actionId": 279,
                "flag": 64,
                "GGIENKFBOGL": true,
                "NDOMJCOFKDJ": 0.5,
                "KIPMIDIKECP": "AvatarNpc",
                "FGPHOPBEJDE": true,
                "PEIIOFIBMAK": 10.0,
                "HJJAFGPMJNJ": "",
                "AOFBAGFCGPJ": ""
            },
            {
                "$type": "CNBNGFNKLGP",
                "type": "STEER_TO",
                "delayTime": 0.5,
                "duration": 1.0,
                "aliasList": [
                    "1005"
                ],
                "actionId": 288,
                "flag": 32,
                "DEMFHGAIELL": "ABSOLUTE",
                "KDKLEJFHDJG": {
                    "x": 2904.56591796875,
                    "y": 441.6159973144531,
                    "z": 4182.9560546875
                },
                "BBNLLCHBKAI": true,
                "COJBPJMLIFM": true,
                "NLIKMFJCLBP": true,
                "KIPMIDIKECP": "",
                "IDIIDHLNENJ": true,
                "FDLMFGAMGJK": true,
                "AOFBAGFCGPJ": ""
            }
        ],
        [
            {
                "$type": "CCEEIGNAILH",
                "type": "DIALOG",
                "aliasList": [
                    "1005"
                ],
                "actionId": 157,
                "KICBIOMGHIN": 741210729,
                "PNCCODDABKI": 0.5
            },
            {
                "$type": "IBPNIIGAIPF",
                "type": "LOOK_AT",
                "delayTime": 1.0,
                "aliasList": [
                    "1005"
                ],
                "actionId": 281,
                "flag": 64,
                "GGIENKFBOGL": true,
                "NDOMJCOFKDJ": 0.5,
                "KIPMIDIKECP": "5254",
                "FGPHOPBEJDE": true,
                "PEIIOFIBMAK": 10.0,
                "HJJAFGPMJNJ": "",
                "AOFBAGFCGPJ": ""
            }
        ],
        [
            {
                "$type": "BCJBNCJOPCE",
                "type": "CAMERA_MOVE",
                "duration": 1.0,
                "actionId": 282,
                "AKFGKKEOEFA": {
                    "x": 2903.987060546875,
                    "y": 443.21600341796875,
                    "z": 4184.59716796875
                },
                "NGEBMAEFFGJ": {
                    "x": 2903.06494140625,
                    "y": 443.16400146484375,
                    "z": 4184.98095703125
                },
                "LIGHLBKBDEI": 52.255001068115234,
                "GFIOJGJJGCN": 6,
                "ABAEPHOGOFF": "EaseInOutCubic",
                "KFDBMBFFANN": {},
                "IEJBKHHEJEN": true,
                "CEDHIBLHMKP": false,
                "KIPMIDIKECP": "",
                "ANFHNPOCMNI": true,
                "BDLGHOJPJHD": "",
                "LCOJGFEOLCK": "",
                "BBBGAEDCJEL": ""
            },
            {
                "$type": "IBPNIIGAIPF",
                "type": "LOOK_AT",
                "aliasList": [
                    "Avatar"
                ],
                "actionId": 234,
                "flag": 64,
                "GGIENKFBOGL": true,
                "NDOMJCOFKDJ": 0.5,
                "KIPMIDIKECP": "21029",
                "FGPHOPBEJDE": true,
                "PEIIOFIBMAK": 10.0,
                "HJJAFGPMJNJ": "",
                "AOFBAGFCGPJ": ""
            },
            {
                "$type": "IBPNIIGAIPF",
                "type": "LOOK_AT",
                "aliasList": [
                    "AvatarNpc"
                ],
                "actionId": 235,
                "flag": 64,
                "GGIENKFBOGL": true,
                "NDOMJCOFKDJ": 0.5,
                "KIPMIDIKECP": "21029",
                "FGPHOPBEJDE": true,
                "PEIIOFIBMAK": 10.0,
                "HJJAFGPMJNJ": "",
                "AOFBAGFCGPJ": ""
            },
            {
                "$type": "CCEEIGNAILH",
                "type": "DIALOG",
                "aliasList": [
                    "21029"
                ],
                "actionId": 159,
                "KICBIOMGHIN": 741210730,
                "PNCCODDABKI": 0.5
            },
            {
                "$type": "IBPNIIGAIPF",
                "type": "LOOK_AT",
                "aliasList": [
                    "1005"
                ],
                "actionId": 236,
                "flag": 64,
                "GGIENKFBOGL": true,
                "NDOMJCOFKDJ": 0.5,
                "KIPMIDIKECP": "21029",
                "FGPHOPBEJDE": true,
                "PEIIOFIBMAK": 10.0,
                "HJJAFGPMJNJ": "",
                "AOFBAGFCGPJ": ""
            },
            {
                "$type": "IBPNIIGAIPF",
                "type": "LOOK_AT",
                "aliasList": [
                    "5254"
                ],
                "actionId": 237,
                "flag": 64,
                "GGIENKFBOGL": true,
                "NDOMJCOFKDJ": 0.5,
                "KIPMIDIKECP": "21029",
                "AHLPNEGAKGG": "CAMERA",
                "FGPHOPBEJDE": true,
                "PEIIOFIBMAK": 10.0,
                "HJJAFGPMJNJ": "",
                "AOFBAGFCGPJ": ""
            },
            {
                "$type": "KCBOGFFHPBD",
                "type": "BODY_LANG",
                "delayTime": 1.0,
                "aliasList": [
                    "5254"
                ],
                "actionId": 283,
                "GPIEDGOMCGL": 4030,
                "FHLAMNNHMFA": true,
                "KCEHDJLKIAL": false,
                "AOFEDPBOOIE": ""
            }
        ],
        [
            {
                "$type": "MoleMole.Config.ConfigTimeProtectAction",
                "type": "TIME_PROTECT",
                "duration": 0.10000000149011612,
                "actionId": 105
            },
            {
                "$type": "MoleMole.Config.ConfigSimpleBlackScreenAction",
                "type": "SIMPLE_BLACK_SCREEN",
                "actionId": 160,
                "durationToBlack": 0.5,
                "durationKeepBlack": 1.5,
                "durationFromBlack": 0.5,
                "textMapID": ""
            },
            {
                "$type": "MoleMole.Config.ConfigTimeProtectAction",
                "type": "TIME_PROTECT",
                "duration": 0.699999988079071,
                "actionId": 161
            },
            {
                "$type": "BCJBNCJOPCE",
                "type": "CAMERA_MOVE",
                "delayTime": 0.5,
                "duration": 0.10000000149011612,
                "actionId": 168,
                "KNAICGCGOHN": "EXIT",
                "NGEBMAEFFGJ": {
                    "z": 1.0
                },
                "LIGHLBKBDEI": 30.0,
                "GFIOJGJJGCN": 5,
                "ABAEPHOGOFF": "EaseInOutCubic",
                "KFDBMBFFANN": {},
                "CEDHIBLHMKP": false,
                "KIPMIDIKECP": "",
                "ANFHNPOCMNI": true,
                "BDLGHOJPJHD": "",
                "LCOJGFEOLCK": "",
                "BBBGAEDCJEL": ""
            },
            {
                "$type": "MoleMole.Config.ConfigVisibleInterAction",
                "type": "VISIBLE",
                "delayTime": 0.6000000238418579,
                "aliasList": [
                    "Avatar"
                ],
                "actionId": 175,
                "isVisible": true,
                "extraParam": ""
            },
            {
                "$type": "KCBOGFFHPBD",
                "type": "BODY_LANG",
                "delayTime": 0.6000000238418579,
                "aliasList": [
                    "AvatarNpc"
                ],
                "actionId": 174,
                "AHGOBCDHCMC": true,
                "FHLAMNNHMFA": true,
                "KCEHDJLKIAL": false,
                "AOFEDPBOOIE": ""
            },
            {
                "$type": "KCBOGFFHPBD",
                "type": "BODY_LANG",
                "delayTime": 0.6000000238418579,
                "aliasList": [
                    "1005"
                ],
                "actionId": 165,
                "AHGOBCDHCMC": true,
                "FHLAMNNHMFA": true,
                "KCEHDJLKIAL": false,
                "AOFEDPBOOIE": ""
            }
        ]
    ],
    "groupId": [
        {
            "grpId": 2247763451,
            "nextGrpId": 2247763452
        },
        {
            "index": 1,
            "grpId": 2247763452,
            "nextGrpId": 2247763453
        },
        {
            "index": 2,
            "grpId": 2247763453,
            "nextGrpId": 2247763454
        },
        {
            "index": 3,
            "grpId": 2247763454,
            "nextGrpId": 2247763455
        },
        {
            "index": 4,
            "grpId": 2247763455,
            "nextGrpId": 2247763456
        },
        {
            "index": 5,
            "grpId": 2247763456,
            "nextGrpId": 2247763457
        },
        {
            "index": 6,
            "grpId": 2247763457,
            "nextGrpId": 2247763458
        },
        {
            "index": 7,
            "grpId": 2247763458,
            "nextGrpId": 2247763459
        },
        {
            "index": 8,
            "grpId": 2247763459,
            "nextGrpId": 961190293
        },
        {
            "index": 9,
            "grpId": 961190293,
            "nextGrpId": 961190294
        },
        {
            "index": 10,
            "grpId": 961190294,
            "nextGrpId": 961190295
        },
        {
            "index": 11,
            "grpId": 961190295,
            "nextGrpId": 961190296
        },
        {
            "index": 12,
            "grpId": 961190296,
            "nextGrpId": 961190297
        },
        {
            "index": 13,
            "grpId": 961190297,
            "nextGrpId": 961190298
        },
        {
            "index": 14,
            "grpId": 961190298,
            "nextGrpId": 961190299
        },
        {
            "index": 15,
            "grpId": 961190299,
            "nextGrpId": 961190300
        },
        {
            "index": 16,
            "grpId": 961190300,
            "nextGrpId": 961190301
        },
        {
            "index": 17,
            "grpId": 961190301,
            "nextGrpId": 961190302
        },
        {
            "index": 18,
            "grpId": 961190302,
            "nextGrpId": 961190326
        },
        {
            "index": 19,
            "grpId": 961190324,
            "nextGrpId": 961190325
        },
        {
            "index": 20,
            "grpId": 961190325,
            "nextGrpId": 961190326
        },
        {
            "index": 21,
            "grpId": 961190326,
            "nextGrpId": 961190327
        },
        {
            "index": 22,
            "grpId": 961190327,
            "nextGrpId": 961190328
        },
        {
            "index": 23,
            "grpId": 961190328,
            "nextGrpId": 961190329
        },
        {
            "index": 24,
            "grpId": 961190329,
            "nextGrpId": 961190330
        },
        {
            "index": 25,
            "grpId": 961190330,
            "nextGrpId": 961190331
        },
        {
            "index": 26,
            "grpId": 961190331,
            "nextGrpId": 961190332
        },
        {
            "index": 27,
            "grpId": 961190332,
            "nextGrpId": 961190333
        }
    ],
    "freeStyleDic": {
        "1025": [
            4031
        ],
        "1026": [
            4031
        ],
        "5254": [
            4030,
            4040
        ]
    }
}