{
    "luaDataPath": "",
    "dontUseDefaultFinish": true,
    "startBlackKeepTime": 0.5,
    "entityBan": "",
    "disableNpcLod": true,
    "isAutoBanNpc": true,
    "isBanWidgetPet": true,
    "protectNpcMobileLod": true,
    "MNHFNFDCEFG": 7,
    "startFade": {
        "startFadeInDuration": 0.5,
        "startFadeOutDuration": 0.5
    },
    "endFade": {
        "startFadeOutDuration": 0.0
    },
    "actors": [
        {
            "alias": "Avatar",
            "visible": true,
            "bornPointName": "[3_7113:3228.735,340.272,2789.745,0.000,99.654,0.000]",
            "relativePosType": "AVATAR_NEW",
            "relativePosNpcAlias": "",
            "bindMovingTargetKey": ""
        },
        {
            "alias": "AvatarNpc",
            "visible": true,
            "bornPointName": "[3_7113:3228.735,340.272,2789.745,0.000,99.654,0.000]",
            "removeActorType": "NEW_REMOVE",
            "relativePosType": "AVATAR_NEW",
            "relativePosNpcAlias": "",
            "bindMovingTargetKey": ""
        },
        {
            "configID": 5273,
            "alias": "5273",
            "visible": true,
            "bornPointName": "[3_6161:3230.511,340.133,2789.632,0.000,274.890,0.000]",
            "forceCreateDaily": true,
            "relativePosType": "AVATAR_NEW",
            "relativePosNpcAlias": "",
            "bindMovingTargetKey": ""
        },
        {
            "configID": 1005,
            "alias": "1005",
            "visible": true,
            "bornPointName": "[3_7114:3228.811,340.289,2788.976,0.000,65.215,0.000]",
            "removeActorType": "NEW_REMOVE_WITH_DISAPPEAR",
            "relativePosType": "AVATAR_NEW",
            "relativePosNpcAlias": "",
            "bindMovingTargetKey": ""
        },
        {
            "configID": 5275,
            "alias": "5275",
            "visible": true,
            "bornPointName": "[3_7115:3228.980,340.267,2790.480,0.000,113.622,0.000]",
            "removeActorType": "NEW_REMOVE",
            "forceCreateDaily": true,
            "relativePosType": "AVATAR_NEW",
            "relativePosNpcAlias": "",
            "bindMovingTargetKey": ""
        },
        {
            "configID": 5274,
            "alias": "5274",
            "visible": true,
            "bornPointName": "[3_7116:3231.140,340.143,2790.550,0.000,248.461,0.000]",
            "removeActorType": "NEW_REMOVE",
            "forceCreateDaily": true,
            "relativePosType": "AVATAR_NEW",
            "relativePosNpcAlias": "",
            "bindMovingTargetKey": ""
        }
    ],
    "group": [
        [
            {
                "$type": "MoleMole.Config.ConfigTimeProtectAction",
                "type": "TIME_PROTECT",
                "duration": 1.0,
                "actionId": 104
            },
            {
                "$type": "MoleMole.Config.ConfigBlackScreenAction",
                "type": "BLACK_SCREEN",
                "duration": 1.0,
                "actionId": 194,
                "flag": 2048,
                "blackScreenType": "KEEP_BLACK",
                "durationToBlack": 0.5,
                "durationKeepBlack": 1.0,
                "durationFromBlack": 0.5,
                "inteePos": "",
                "textMapID": "",
                "useTextFade": true,
                "changeAudioState": true
            },
            {
                "$type": "MoleMole.Config.ConfigSitOrStandAction",
                "type": "SIT_OR_STAND",
                "aliasList": [
                    "Avatar"
                ],
                "actionId": 200,
                "flag": 8192,
                "banResetFreestyle": true
            },
            {
                "$type": "MoleMole.Config.ConfigVisibleInterAction",
                "type": "VISIBLE",
                "aliasList": [
                    "Avatar"
                ],
                "actionId": 206,
                "extraParam": ""
            },
            {
                "$type": "MoleMole.Config.ConfigPlayerNPCEnergyTypeAction",
                "type": "SET_PLAYER_NPC_ENERGY_TYPE",
                "aliasList": [
                    "AvatarNpc"
                ],
                "actionId": 201,
                "setHeroEngergyType": true
            },
            {
                "$type": "KCBOGFFHPBD",
                "type": "BODY_LANG",
                "aliasList": [
                    "AvatarNpc"
                ],
                "actionId": 204,
                "AHGOBCDHCMC": true,
                "FHLAMNNHMFA": true,
                "KCEHDJLKIAL": false,
                "AOFEDPBOOIE": ""
            },
            {
                "$type": "KCBOGFFHPBD",
                "type": "BODY_LANG",
                "aliasList": [
                    "5273"
                ],
                "actionId": 186,
                "AHGOBCDHCMC": true,
                "FHLAMNNHMFA": true,
                "KCEHDJLKIAL": false,
                "AOFEDPBOOIE": ""
            },
            {
                "$type": "KCBOGFFHPBD",
                "type": "BODY_LANG",
                "aliasList": [
                    "1005"
                ],
                "actionId": 188,
                "AHGOBCDHCMC": true,
                "FHLAMNNHMFA": true,
                "KCEHDJLKIAL": false,
                "AOFEDPBOOIE": ""
            },
            {
                "$type": "KCBOGFFHPBD",
                "type": "BODY_LANG",
                "aliasList": [
                    "5275"
                ],
                "actionId": 190,
                "AHGOBCDHCMC": true,
                "FHLAMNNHMFA": true,
                "KCEHDJLKIAL": false,
                "AOFEDPBOOIE": ""
            },
            {
                "$type": "KCBOGFFHPBD",
                "type": "BODY_LANG",
                "aliasList": [
                    "5274"
                ],
                "actionId": 192,
                "AHGOBCDHCMC": true,
                "FHLAMNNHMFA": true,
                "KCEHDJLKIAL": false,
                "AOFEDPBOOIE": ""
            }
        ],
        [
            {
                "$type": "MoleMole.Config.ConfigBlackScreenAction",
                "type": "BLACK_SCREEN",
                "duration": 0.5,
                "actionId": 195,
                "flag": 2048,
                "blackScreenType": "FROM_BLACK",
                "durationToBlack": 0.5,
                "durationKeepBlack": 0.5,
                "durationFromBlack": 0.5,
                "inteePos": "",
                "textMapID": "",
                "useTextFade": true,
                "changeAudioState": true
            },
            {
                "$type": "CCEEIGNAILH",
                "type": "DIALOG",
                "aliasList": [
                    "5273"
                ],
                "actionId": 107,
                "KICBIOMGHIN": 741311001,
                "PNCCODDABKI": 0.5
            },
            {
                "$type": "KCBOGFFHPBD",
                "type": "BODY_LANG",
                "delayTime": 0.00800000037997961,
                "aliasList": [
                    "5273"
                ],
                "actionId": 207,
                "GPIEDGOMCGL": 1240,
                "FHLAMNNHMFA": true,
                "KCEHDJLKIAL": false,
                "KCOLHJBDILK": true,
                "AOFEDPBOOIE": ""
            }
        ],
        [
            {
                "$type": "CCEEIGNAILH",
                "type": "DIALOG",
                "aliasList": [
                    "5273"
                ],
                "actionId": 109,
                "KICBIOMGHIN": 741311002,
                "PNCCODDABKI": 0.5
            },
            {
                "$type": "KCBOGFFHPBD",
                "type": "BODY_LANG",
                "delayTime": 0.05000000074505806,
                "aliasList": [
                    "5273"
                ],
                "actionId": 208,
                "AHGOBCDHCMC": true,
                "FHLAMNNHMFA": true,
                "KCEHDJLKIAL": false,
                "KCOLHJBDILK": true,
                "AOFEDPBOOIE": ""
            }
        ],
        [
            {
                "$type": "CCEEIGNAILH",
                "type": "DIALOG",
                "aliasList": [
                    "1005"
                ],
                "actionId": 111,
                "KICBIOMGHIN": 741311003,
                "PNCCODDABKI": 0.5
            }
        ],
        [
            {
                "$type": "CCEEIGNAILH",
                "type": "DIALOG",
                "aliasList": [
                    "5275"
                ],
                "actionId": 113,
                "KICBIOMGHIN": 741311004,
                "PNCCODDABKI": 0.5
            }
        ],
        [
            {
                "$type": "CCEEIGNAILH",
                "type": "DIALOG",
                "aliasList": [
                    "5273"
                ],
                "actionId": 115,
                "KICBIOMGHIN": 741311005,
                "PNCCODDABKI": 0.5
            }
        ],
        [
            {
                "$type": "CCEEIGNAILH",
                "type": "DIALOG",
                "aliasList": [
                    "5275"
                ],
                "actionId": 117,
                "KICBIOMGHIN": 741311006,
                "PNCCODDABKI": 0.5
            }
        ],
        [
            {
                "$type": "MoleMole.Config.ConfigBlackScreenAction",
                "type": "BLACK_SCREEN",
                "actionId": 119,
                "flag": 2048,
                "durationToBlack": 0.5,
                "durationKeepBlack": 3.0,
                "durationFromBlack": 0.5,
                "inteePos": "",
                "textMapID": "",
                "useTextFade": true,
                "dialogID": 741311007,
                "needWaitClick": true,
                "changeAudioState": true
            },
            {
                "$type": "CCEEIGNAILH",
                "type": "DIALOG_CLEAR",
                "actionId": 120
            }
        ],
        [
            {
                "$type": "CCEEIGNAILH",
                "type": "DIALOG",
                "aliasList": [
                    "5273"
                ],
                "actionId": 122,
                "KICBIOMGHIN": 741311008,
                "PNCCODDABKI": 0.5
            }
        ],
        [
            {
                "$type": "CCEEIGNAILH",
                "type": "DIALOG",
                "aliasList": [
                    "5274"
                ],
                "actionId": 124,
                "KICBIOMGHIN": 741311009,
                "PNCCODDABKI": 0.5
            }
        ],
        [
            {
                "$type": "CCEEIGNAILH",
                "type": "DIALOG",
                "aliasList": [
                    "5274"
                ],
                "actionId": 126,
                "KICBIOMGHIN": 741311010,
                "PNCCODDABKI": 0.5
            }
        ],
        [
            {
                "$type": "CCEEIGNAILH",
                "type": "DIALOG",
                "aliasList": [
                    "5274"
                ],
                "actionId": 128,
                "KICBIOMGHIN": 741311011,
                "PNCCODDABKI": 0.5
            }
        ],
        [
            {
                "$type": "CCEEIGNAILH",
                "type": "DIALOG",
                "aliasList": [
                    "5275"
                ],
                "actionId": 130,
                "KICBIOMGHIN": 741311012,
                "PNCCODDABKI": 0.5
            }
        ],
        [
            {
                "$type": "CCEEIGNAILH",
                "type": "DIALOG",
                "aliasList": [
                    "5273"
                ],
                "actionId": 132,
                "KICBIOMGHIN": 741311013,
                "PNCCODDABKI": 0.5
            }
        ],
        [
            {
                "$type": "CCEEIGNAILH",
                "type": "DIALOG",
                "aliasList": [
                    "5273"
                ],
                "actionId": 134,
                "KICBIOMGHIN": 741311014,
                "PNCCODDABKI": 0.5
            },
            {
                "$type": "MEKNGCBGKEJ",
                "type": "DIALOG_SELECT",
                "delayTime": 0.4000000059604645,
                "aliasList": [
                    "AvatarNpc"
                ],
                "actionId": 197,
                "MLAABINGLAA": [
                    741311015
                ],
                "HPBPDBFGKID": [
                    1343850339
                ],
                "CFJOJADDHHG": true,
                "APEOOMIGHNL": 1983012658
            }
        ],
        [
            {
                "$type": "CCEEIGNAILH",
                "type": "DIALOG",
                "aliasList": [
                    "5273"
                ],
                "actionId": 137,
                "KICBIOMGHIN": 741311016,
                "PNCCODDABKI": 0.5
            }
        ],
        [
            {
                "$type": "CCEEIGNAILH",
                "type": "DIALOG",
                "aliasList": [
                    "5273"
                ],
                "actionId": 139,
                "KICBIOMGHIN": 741311017,
                "PNCCODDABKI": 0.5
            }
        ],
        [
            {
                "$type": "CCEEIGNAILH",
                "type": "DIALOG",
                "aliasList": [
                    "5273"
                ],
                "actionId": 141,
                "KICBIOMGHIN": 741311018,
                "PNCCODDABKI": 0.5
            }
        ],
        [
            {
                "$type": "CCEEIGNAILH",
                "type": "DIALOG",
                "aliasList": [
                    "1005"
                ],
                "actionId": 143,
                "KICBIOMGHIN": 741311019,
                "PNCCODDABKI": 0.5
            }
        ],
        [
            {
                "$type": "CCEEIGNAILH",
                "type": "DIALOG",
                "aliasList": [
                    "5275"
                ],
                "actionId": 145,
                "KICBIOMGHIN": 741311020,
                "PNCCODDABKI": 0.5
            }
        ],
        [
            {
                "$type": "CCEEIGNAILH",
                "type": "DIALOG",
                "aliasList": [
                    "5273"
                ],
                "actionId": 147,
                "KICBIOMGHIN": 741311021,
                "PNCCODDABKI": 0.5
            }
        ],
        [
            {
                "$type": "CCEEIGNAILH",
                "type": "DIALOG",
                "aliasList": [
                    "5275"
                ],
                "actionId": 149,
                "KICBIOMGHIN": 741311022,
                "PNCCODDABKI": 0.5
            }
        ],
        [
            {
                "$type": "CCEEIGNAILH",
                "type": "DIALOG",
                "aliasList": [
                    "1005"
                ],
                "actionId": 151,
                "KICBIOMGHIN": 741311023,
                "PNCCODDABKI": 0.5
            }
        ],
        [
            {
                "$type": "CCEEIGNAILH",
                "type": "DIALOG",
                "aliasList": [
                    "5275"
                ],
                "actionId": 153,
                "KICBIOMGHIN": 741311024,
                "PNCCODDABKI": 0.5
            }
        ],
        [
            {
                "$type": "CCEEIGNAILH",
                "type": "DIALOG",
                "aliasList": [
                    "5273"
                ],
                "actionId": 155,
                "KICBIOMGHIN": 741311025,
                "PNCCODDABKI": 0.5
            }
        ],
        [
            {
                "$type": "CCEEIGNAILH",
                "type": "DIALOG",
                "aliasList": [
                    "5273"
                ],
                "actionId": 157,
                "KICBIOMGHIN": 741311026,
                "PNCCODDABKI": 0.5
            },
            {
                "$type": "MEKNGCBGKEJ",
                "type": "DIALOG_SELECT",
                "delayTime": 0.4000000059604645,
                "aliasList": [
                    "AvatarNpc"
                ],
                "actionId": 198,
                "MLAABINGLAA": [
                    741311027
                ],
                "HPBPDBFGKID": [
                    1343850371
                ],
                "CFJOJADDHHG": true,
                "APEOOMIGHNL": 1983012658
            }
        ],
        [
            {
                "$type": "CCEEIGNAILH",
                "type": "DIALOG",
                "aliasList": [
                    "1005"
                ],
                "actionId": 160,
                "KICBIOMGHIN": 741311028,
                "PNCCODDABKI": 0.5
            }
        ],
        [
            {
                "$type": "CCEEIGNAILH",
                "type": "DIALOG",
                "aliasList": [
                    "1005"
                ],
                "actionId": 162,
                "KICBIOMGHIN": 741311029,
                "PNCCODDABKI": 0.5
            }
        ],
        [
            {
                "$type": "CCEEIGNAILH",
                "type": "DIALOG",
                "aliasList": [
                    "5273"
                ],
                "actionId": 164,
                "KICBIOMGHIN": 741311030,
                "PNCCODDABKI": 0.5
            }
        ],
        [
            {
                "$type": "CCEEIGNAILH",
                "type": "DIALOG",
                "aliasList": [
                    "5273"
                ],
                "actionId": 166,
                "KICBIOMGHIN": 741311031,
                "PNCCODDABKI": 0.5
            }
        ],
        [
            {
                "$type": "CCEEIGNAILH",
                "type": "DIALOG",
                "aliasList": [
                    "5273"
                ],
                "actionId": 168,
                "KICBIOMGHIN": 741311032,
                "PNCCODDABKI": 0.5
            }
        ],
        [
            {
                "$type": "CCEEIGNAILH",
                "type": "DIALOG",
                "aliasList": [
                    "5274"
                ],
                "actionId": 170,
                "KICBIOMGHIN": 741311033,
                "PNCCODDABKI": 0.5
            }
        ],
        [
            {
                "$type": "CCEEIGNAILH",
                "type": "DIALOG",
                "aliasList": [
                    "5273"
                ],
                "actionId": 172,
                "KICBIOMGHIN": 741311034,
                "PNCCODDABKI": 0.5
            }
        ],
        [
            {
                "$type": "CCEEIGNAILH",
                "type": "DIALOG",
                "aliasList": [
                    "1005"
                ],
                "actionId": 174,
                "KICBIOMGHIN": 741311035,
                "PNCCODDABKI": 0.5
            }
        ],
        [
            {
                "$type": "CCEEIGNAILH",
                "type": "DIALOG",
                "aliasList": [
                    "5275"
                ],
                "actionId": 176,
                "KICBIOMGHIN": 741311036,
                "PNCCODDABKI": 0.5
            }
        ],
        [
            {
                "$type": "CCEEIGNAILH",
                "type": "DIALOG",
                "aliasList": [
                    "5273"
                ],
                "actionId": 178,
                "KICBIOMGHIN": 741311037,
                "PNCCODDABKI": 0.5
            }
        ],
        [
            {
                "$type": "CCEEIGNAILH",
                "type": "DIALOG",
                "aliasList": [
                    "5273"
                ],
                "actionId": 180,
                "KICBIOMGHIN": 741311038,
                "PNCCODDABKI": 0.5
            },
            {
                "$type": "MEKNGCBGKEJ",
                "type": "DIALOG_SELECT",
                "delayTime": 0.4000000059604645,
                "aliasList": [
                    "AvatarNpc"
                ],
                "actionId": 199,
                "MLAABINGLAA": [
                    741311039
                ],
                "HPBPDBFGKID": [
                    1343850403
                ],
                "CFJOJADDHHG": true,
                "APEOOMIGHNL": 1983012658
            }
        ],
        [
            {
                "$type": "CCEEIGNAILH",
                "type": "DIALOG",
                "aliasList": [
                    "5273"
                ],
                "actionId": 183,
                "KICBIOMGHIN": 741311040,
                "PNCCODDABKI": 0.5
            }
        ],
        [
            {
                "$type": "MoleMole.Config.ConfigTimeProtectAction",
                "type": "TIME_PROTECT",
                "duration": 0.10000000149011612,
                "actionId": 105
            },
            {
                "$type": "MoleMole.Config.ConfigSimpleBlackScreenAction",
                "type": "SIMPLE_BLACK_SCREEN",
                "actionId": 184,
                "durationToBlack": 0.5,
                "durationKeepBlack": 1.5,
                "durationFromBlack": 0.5,
                "textMapID": ""
            },
            {
                "$type": "MoleMole.Config.ConfigTimeProtectAction",
                "type": "TIME_PROTECT",
                "duration": 0.699999988079071,
                "actionId": 185
            },
            {
                "$type": "BCJBNCJOPCE",
                "type": "CAMERA_MOVE",
                "delayTime": 0.5,
                "duration": 0.10000000149011612,
                "actionId": 196,
                "KNAICGCGOHN": "EXIT",
                "NGEBMAEFFGJ": {
                    "z": 1.0
                },
                "LIGHLBKBDEI": 30.0,
                "GFIOJGJJGCN": 5,
                "ABAEPHOGOFF": "EaseInOutCubic",
                "KFDBMBFFANN": {},
                "CEDHIBLHMKP": false,
                "KIPMIDIKECP": "",
                "ANFHNPOCMNI": true,
                "BDLGHOJPJHD": "",
                "LCOJGFEOLCK": "",
                "BBBGAEDCJEL": ""
            },
            {
                "$type": "MoleMole.Config.ConfigVisibleInterAction",
                "type": "VISIBLE",
                "delayTime": 0.6000000238418579,
                "aliasList": [
                    "Avatar"
                ],
                "actionId": 203,
                "isVisible": true,
                "extraParam": ""
            },
            {
                "$type": "MoleMole.Config.ConfigVisibleInterAction",
                "type": "VISIBLE",
                "delayTime": 0.6000000238418579,
                "aliasList": [
                    "AvatarNpc"
                ],
                "actionId": 202,
                "extraParam": ""
            },
            {
                "$type": "KCBOGFFHPBD",
                "type": "BODY_LANG",
                "delayTime": 0.6000000238418579,
                "aliasList": [
                    "AvatarNpc"
                ],
                "actionId": 205,
                "AHGOBCDHCMC": true,
                "FHLAMNNHMFA": true,
                "KCEHDJLKIAL": false,
                "AOFEDPBOOIE": ""
            },
            {
                "$type": "KCBOGFFHPBD",
                "type": "BODY_LANG",
                "delayTime": 0.6000000238418579,
                "aliasList": [
                    "5273"
                ],
                "actionId": 187,
                "AHGOBCDHCMC": true,
                "FHLAMNNHMFA": true,
                "KCEHDJLKIAL": false,
                "AOFEDPBOOIE": ""
            },
            {
                "$type": "KCBOGFFHPBD",
                "type": "BODY_LANG",
                "delayTime": 0.6000000238418579,
                "aliasList": [
                    "1005"
                ],
                "actionId": 189,
                "AHGOBCDHCMC": true,
                "FHLAMNNHMFA": true,
                "KCEHDJLKIAL": false,
                "AOFEDPBOOIE": ""
            },
            {
                "$type": "KCBOGFFHPBD",
                "type": "BODY_LANG",
                "delayTime": 0.6000000238418579,
                "aliasList": [
                    "5275"
                ],
                "actionId": 191,
                "AHGOBCDHCMC": true,
                "FHLAMNNHMFA": true,
                "KCEHDJLKIAL": false,
                "AOFEDPBOOIE": ""
            },
            {
                "$type": "KCBOGFFHPBD",
                "type": "BODY_LANG",
                "delayTime": 0.6000000238418579,
                "aliasList": [
                    "5274"
                ],
                "actionId": 193,
                "AHGOBCDHCMC": true,
                "FHLAMNNHMFA": true,
                "KCEHDJLKIAL": false,
                "AOFEDPBOOIE": ""
            }
        ]
    ],
    "groupId": [
        {
            "grpId": 1983012659,
            "nextGrpId": 1983012660
        },
        {
            "index": 1,
            "grpId": 1983012660,
            "nextGrpId": 1983012661
        },
        {
            "index": 2,
            "grpId": 1983012661,
            "nextGrpId": 1983012662
        },
        {
            "index": 3,
            "grpId": 1983012662,
            "nextGrpId": 1983012663
        },
        {
            "index": 4,
            "grpId": 1983012663,
            "nextGrpId": 1983012664
        },
        {
            "index": 5,
            "grpId": 1983012664,
            "nextGrpId": 1983012665
        },
        {
            "index": 6,
            "grpId": 1983012665,
            "nextGrpId": 1983012666
        },
        {
            "index": 7,
            "grpId": 1983012666,
            "nextGrpId": 1983012667
        },
        {
            "index": 8,
            "grpId": 1983012667,
            "nextGrpId": 1343850333
        },
        {
            "index": 9,
            "grpId": 1343850333,
            "nextGrpId": 1343850334
        },
        {
            "index": 10,
            "grpId": 1343850334,
            "nextGrpId": 1343850335
        },
        {
            "index": 11,
            "grpId": 1343850335,
            "nextGrpId": 1343850336
        },
        {
            "index": 12,
            "grpId": 1343850336,
            "nextGrpId": 1343850337
        },
        {
            "index": 13,
            "grpId": 1343850337,
            "nextGrpId": 1343850338
        },
        {
            "index": 14,
            "grpId": 1343850338,
            "nextGrpId": 1343850339
        },
        {
            "index": 15,
            "grpId": 1343850339,
            "nextGrpId": 1343850340
        },
        {
            "index": 16,
            "grpId": 1343850340,
            "nextGrpId": 1343850341
        },
        {
            "index": 17,
            "grpId": 1343850341,
            "nextGrpId": 1343850342
        },
        {
            "index": 18,
            "grpId": 1343850342,
            "nextGrpId": 1343850364
        },
        {
            "index": 19,
            "grpId": 1343850364,
            "nextGrpId": 1343850365
        },
        {
            "index": 20,
            "grpId": 1343850365,
            "nextGrpId": 1343850366
        },
        {
            "index": 21,
            "grpId": 1343850366,
            "nextGrpId": 1343850367
        },
        {
            "index": 22,
            "grpId": 1343850367,
            "nextGrpId": 1343850368
        },
        {
            "index": 23,
            "grpId": 1343850368,
            "nextGrpId": 1343850369
        },
        {
            "index": 24,
            "grpId": 1343850369,
            "nextGrpId": 1343850370
        },
        {
            "index": 25,
            "grpId": 1343850370,
            "nextGrpId": 1343850371
        },
        {
            "index": 26,
            "grpId": 1343850371,
            "nextGrpId": 1343850372
        },
        {
            "index": 27,
            "grpId": 1343850372,
            "nextGrpId": 1343850373
        },
        {
            "index": 28,
            "grpId": 1343850373,
            "nextGrpId": 1343850395
        },
        {
            "index": 29,
            "grpId": 1343850395,
            "nextGrpId": 1343850396
        },
        {
            "index": 30,
            "grpId": 1343850396,
            "nextGrpId": 1343850397
        },
        {
            "index": 31,
            "grpId": 1343850397,
            "nextGrpId": 1343850398
        },
        {
            "index": 32,
            "grpId": 1343850398,
            "nextGrpId": 1343850399
        },
        {
            "index": 33,
            "grpId": 1343850399,
            "nextGrpId": 1343850400
        },
        {
            "index": 34,
            "grpId": 1343850400,
            "nextGrpId": 1343850401
        },
        {
            "index": 35,
            "grpId": 1343850401,
            "nextGrpId": 1343850402
        },
        {
            "index": 36,
            "grpId": 1343850402,
            "nextGrpId": 1343850403
        },
        {
            "index": 37,
            "grpId": 1343850403,
            "nextGrpId": 1343850404
        },
        {
            "index": 38,
            "grpId": 1343850404,
            "nextGrpId": 1343850426
        }
    ],
    "freeStyleDic": {
        "1025": [],
        "1026": [],
        "5273": [
            1240
        ],
        "5275": [],
        "5274": []
    },
    "CKNKEEMIAPG": {
        "5273": [
            "SitChat01AS",
            "SitHoldArm01AS"
        ]
    }
}