{
    "talkId": 1400510,
    "dialogList": [
        {
            "id": 140051001,
            "nextDialogs": [
                140051002
            ],
            "talkRole": {
                "type": "TALK_ROLE_NPC",
                "id": "1078"
            },
            "talkContentTextMapHash": 657844026,
            "talkAssetPath": "",
            "talkAssetPathAlter": "",
            "talkAudioName": "",
            "actionBefore": "",
            "actionWhile": "",
            "actionAfter": "",
            "optionIcon": ""
        },
        {
            "id": 140051002,
            "nextDialogs": [
                140051003
            ],
            "talkRole": {
                "type": "TALK_ROLE_NPC",
                "id": "1005"
            },
            "talkContentTextMapHash": 2740552546,
            "talkAssetPath": "",
            "talkAssetPathAlter": "",
            "talkAudioName": "",
            "actionBefore": "",
            "actionWhile": "",
            "actionAfter": "",
            "optionIcon": ""
        },
        {
            "id": 140051003,
            "nextDialogs": [
                140051004
            ],
            "talkRole": {
                "type": "TALK_ROLE_NPC",
                "id": "1078"
            },
            "talkContentTextMapHash": 3020078706,
            "talkAssetPath": "",
            "talkAssetPathAlter": "",
            "talkAudioName": "",
            "actionBefore": "",
            "actionWhile": "",
            "actionAfter": "",
            "optionIcon": ""
        },
        {
            "id": 140051004,
            "nextDialogs": [
                140051005
            ],
            "talkRole": {
                "type": "TALK_ROLE_NPC",
                "id": "1078"
            },
            "talkContentTextMapHash": 2674815338,
            "talkAssetPath": "",
            "talkAssetPathAlter": "",
            "talkAudioName": "",
            "actionBefore": "",
            "actionWhile": "",
            "actionAfter": "",
            "optionIcon": ""
        },
        {
            "id": 140051005,
            "nextDialogs": [
                140051006
            ],
            "talkRole": {
                "type": "TALK_ROLE_NPC",
                "id": "1078"
            },
            "talkContentTextMapHash": 591139122,
            "talkAssetPath": "",
            "talkAssetPathAlter": "",
            "talkAudioName": "",
            "actionBefore": "",
            "actionWhile": "",
            "actionAfter": "",
            "optionIcon": ""
        },
        {
            "id": 140051006,
            "nextDialogs": [
                140051007
            ],
            "talkRole": {
                "type": "TALK_ROLE_NPC",
                "id": "1005"
            },
            "talkContentTextMapHash": 1003825162,
            "talkAssetPath": "",
            "talkAssetPathAlter": "",
            "talkAudioName": "",
            "actionBefore": "",
            "actionWhile": "",
            "actionAfter": "",
            "optionIcon": ""
        },
        {
            "id": 140051007,
            "nextDialogs": [
                140051008
            ],
            "talkRole": {
                "type": "TALK_ROLE_NPC",
                "id": "1078"
            },
            "talkContentTextMapHash": 1716201250,
            "talkAssetPath": "",
            "talkAssetPathAlter": "",
            "talkAudioName": "",
            "actionBefore": "",
            "actionWhile": "",
            "actionAfter": "",
            "optionIcon": ""
        },
        {
            "id": 140051008,
            "nextDialogs": [
                140051009
            ],
            "talkRole": {
                "type": "TALK_ROLE_NPC",
                "id": "1078"
            },
            "talkContentTextMapHash": 2914851090,
            "talkAssetPath": "",
            "talkAssetPathAlter": "",
            "talkAudioName": "",
            "actionBefore": "",
            "actionWhile": "",
            "actionAfter": "",
            "optionIcon": ""
        },
        {
            "id": 140051009,
            "nextDialogs": [
                140051010,
                140051011
            ],
            "talkRole": {
                "type": "TALK_ROLE_NPC",
                "id": "1078"
            },
            "talkContentTextMapHash": 1063309546,
            "talkAssetPath": "",
            "talkAssetPathAlter": "",
            "talkAudioName": "",
            "actionBefore": "",
            "actionWhile": "",
            "actionAfter": "",
            "optionIcon": ""
        },
        {
            "id": 140051010,
            "nextDialogs": [
                140051012
            ],
            "talkRole": {
                "type": "TALK_ROLE_PLAYER",
                "id": ""
            },
            "talkContentTextMapHash": 4145159306,
            "talkAssetPath": "",
            "talkAssetPathAlter": "",
            "talkAudioName": "",
            "actionBefore": "",
            "actionWhile": "",
            "actionAfter": "",
            "optionIcon": ""
        },
        {
            "id": 140051012,
            "nextDialogs": [
                140051013
            ],
            "talkRole": {
                "type": "TALK_ROLE_NPC",
                "id": "1078"
            },
            "talkContentTextMapHash": 188140458,
            "talkAssetPath": "",
            "talkAssetPathAlter": "",
            "talkAudioName": "",
            "actionBefore": "",
            "actionWhile": "",
            "actionAfter": "",
            "optionIcon": ""
        },
        {
            "id": 140051013,
            "nextDialogs": [
                140051014
            ],
            "talkRole": {
                "type": "TALK_ROLE_NPC",
                "id": "1078"
            },
            "talkContentTextMapHash": 2963594874,
            "talkAssetPath": "",
            "talkAssetPathAlter": "",
            "talkAudioName": "",
            "actionBefore": "",
            "actionWhile": "",
            "actionAfter": "",
            "optionIcon": ""
        },
        {
            "id": 140051014,
            "nextDialogs": [
                140051015
            ],
            "talkRole": {
                "type": "TALK_ROLE_NPC",
                "id": "1078"
            },
            "talkContentTextMapHash": 3306652706,
            "talkAssetPath": "",
            "talkAssetPathAlter": "",
            "talkAudioName": "",
            "actionBefore": "",
            "actionWhile": "",
            "actionAfter": "",
            "optionIcon": ""
        },
        {
            "id": 140051015,
            "nextDialogs": [
                140051016
            ],
            "talkRole": {
                "type": "TALK_ROLE_NPC",
                "id": "1078"
            },
            "talkContentTextMapHash": 3081417602,
            "talkAssetPath": "",
            "talkAssetPathAlter": "",
            "talkAudioName": "",
            "actionBefore": "",
            "actionWhile": "",
            "actionAfter": "",
            "optionIcon": ""
        },
        {
            "id": 140051016,
            "nextDialogs": [
                140051017
            ],
            "talkRole": {
                "type": "TALK_ROLE_NPC",
                "id": "1005"
            },
            "talkContentTextMapHash": 2721390010,
            "talkAssetPath": "",
            "talkAssetPathAlter": "",
            "talkAudioName": "",
            "actionBefore": "",
            "actionWhile": "",
            "actionAfter": "",
            "optionIcon": ""
        },
        {
            "id": 140051017,
            "nextDialogs": [
                140051018
            ],
            "talkShowType": "TALK_SHOW_FORCE_SELECT",
            "talkRole": {
                "type": "TALK_ROLE_PLAYER",
                "id": ""
            },
            "talkContentTextMapHash": 3972998050,
            "talkAssetPath": "",
            "talkAssetPathAlter": "",
            "talkAudioName": "",
            "actionBefore": "",
            "actionWhile": "",
            "actionAfter": "",
            "optionIcon": ""
        },
        {
            "id": 140051018,
            "nextDialogs": [
                140051019
            ],
            "talkRole": {
                "type": "TALK_ROLE_NPC",
                "id": "1078"
            },
            "talkContentTextMapHash": 2379227818,
            "talkAssetPath": "",
            "talkAssetPathAlter": "",
            "talkAudioName": "",
            "actionBefore": "",
            "actionWhile": "",
            "actionAfter": "",
            "optionIcon": ""
        },
        {
            "id": 140051019,
            "nextDialogs": [
                140051020
            ],
            "talkRole": {
                "type": "TALK_ROLE_NPC",
                "id": "1078"
            },
            "talkContentTextMapHash": 3468751578,
            "talkAssetPath": "",
            "talkAssetPathAlter": "",
            "talkAudioName": "",
            "actionBefore": "",
            "actionWhile": "",
            "actionAfter": "",
            "optionIcon": ""
        },
        {
            "id": 140051020,
            "nextDialogs": [
                140051021
            ],
            "talkRole": {
                "type": "TALK_ROLE_NPC",
                "id": "1078"
            },
            "talkContentTextMapHash": 3480145594,
            "talkAssetPath": "",
            "talkAssetPathAlter": "",
            "talkAudioName": "",
            "actionBefore": "",
            "actionWhile": "",
            "actionAfter": "",
            "optionIcon": ""
        },
        {
            "id": 140051021,
            "nextDialogs": [
                140051022
            ],
            "talkShowType": "TALK_SHOW_FORCE_SELECT",
            "talkRole": {
                "type": "TALK_ROLE_PLAYER",
                "id": ""
            },
            "talkContentTextMapHash": 699773138,
            "talkAssetPath": "",
            "talkAssetPathAlter": "",
            "talkAudioName": "",
            "actionBefore": "",
            "actionWhile": "",
            "actionAfter": "",
            "optionIcon": ""
        },
        {
            "id": 140051022,
            "nextDialogs": [
                140051023
            ],
            "talkRole": {
                "type": "TALK_ROLE_NPC",
                "id": "1078"
            },
            "talkContentTextMapHash": 1410311914,
            "talkAssetPath": "",
            "talkAssetPathAlter": "",
            "talkAudioName": "",
            "actionBefore": "",
            "actionWhile": "",
            "actionAfter": "",
            "optionIcon": ""
        },
        {
            "id": 140051023,
            "nextDialogs": [
                140051024
            ],
            "talkRole": {
                "type": "TALK_ROLE_NPC",
                "id": "1078"
            },
            "talkContentTextMapHash": 1607848098,
            "talkAssetPath": "",
            "talkAssetPathAlter": "",
            "talkAudioName": "",
            "actionBefore": "",
            "actionWhile": "",
            "actionAfter": "",
            "optionIcon": ""
        },
        {
            "id": 140051024,
            "nextDialogs": [
                140051025
            ],
            "talkRole": {
                "type": "TALK_ROLE_NPC",
                "id": "1078"
            },
            "talkContentTextMapHash": 3557671914,
            "talkAssetPath": "",
            "talkAssetPathAlter": "",
            "talkAudioName": "",
            "actionBefore": "",
            "actionWhile": "",
            "actionAfter": "",
            "optionIcon": ""
        },
        {
            "id": 140051025,
            "nextDialogs": [
                140051026
            ],
            "talkRole": {
                "type": "TALK_ROLE_NPC",
                "id": "1078"
            },
            "talkContentTextMapHash": 246565714,
            "talkAssetPath": "",
            "talkAssetPathAlter": "",
            "talkAudioName": "",
            "actionBefore": "",
            "actionWhile": "",
            "actionAfter": "",
            "optionIcon": ""
        },
        {
            "id": 140051026,
            "nextDialogs": [
                140051027
            ],
            "talkRole": {
                "type": "TALK_ROLE_NPC",
                "id": "1005"
            },
            "talkContentTextMapHash": 2317958866,
            "talkAssetPath": "",
            "talkAssetPathAlter": "",
            "talkAudioName": "",
            "actionBefore": "",
            "actionWhile": "",
            "actionAfter": "",
            "optionIcon": ""
        },
        {
            "id": 140051027,
            "nextDialogs": [
                140051028
            ],
            "talkRole": {
                "type": "TALK_ROLE_NPC",
                "id": "1078"
            },
            "talkContentTextMapHash": 293161690,
            "talkAssetPath": "",
            "talkAssetPathAlter": "",
            "talkAudioName": "",
            "actionBefore": "",
            "actionWhile": "",
            "actionAfter": "",
            "optionIcon": ""
        },
        {
            "id": 140051028,
            "nextDialogs": [
                140051029
            ],
            "talkRole": {
                "type": "TALK_ROLE_NPC",
                "id": "1078"
            },
            "talkContentTextMapHash": 1422494858,
            "talkAssetPath": "",
            "talkAssetPathAlter": "",
            "talkAudioName": "",
            "actionBefore": "",
            "actionWhile": "",
            "actionAfter": "",
            "optionIcon": ""
        },
        {
            "id": 140051029,
            "nextDialogs": [
                140051030
            ],
            "talkShowType": "TALK_SHOW_FORCE_SELECT",
            "talkRole": {
                "type": "TALK_ROLE_PLAYER",
                "id": ""
            },
            "talkContentTextMapHash": 1594175450,
            "talkAssetPath": "",
            "talkAssetPathAlter": "",
            "talkAudioName": "",
            "actionBefore": "",
            "actionWhile": "",
            "actionAfter": "",
            "optionIcon": ""
        },
        {
            "id": 140051030,
            "nextDialogs": [
                140051031
            ],
            "talkRole": {
                "type": "TALK_ROLE_NPC",
                "id": "1078"
            },
            "talkContentTextMapHash": 4053756458,
            "talkAssetPath": "",
            "talkAssetPathAlter": "",
            "talkAudioName": "",
            "actionBefore": "",
            "actionWhile": "",
            "actionAfter": "",
            "optionIcon": ""
        },
        {
            "id": 140051031,
            "nextDialogs": [
                140051032
            ],
            "talkRole": {
                "type": "TALK_ROLE_NPC",
                "id": "1078"
            },
            "talkContentTextMapHash": 2866908306,
            "talkAssetPath": "",
            "talkAssetPathAlter": "",
            "talkAudioName": "",
            "actionBefore": "",
            "actionWhile": "",
            "actionAfter": "",
            "optionIcon": ""
        },
        {
            "id": 140051032,
            "nextDialogs": [
                140051033
            ],
            "talkRole": {
                "type": "TALK_ROLE_NPC",
                "id": "1078"
            },
            "talkContentTextMapHash": 3966633882,
            "talkAssetPath": "",
            "talkAssetPathAlter": "",
            "talkAudioName": "",
            "actionBefore": "",
            "actionWhile": "",
            "actionAfter": "",
            "optionIcon": ""
        },
        {
            "id": 140051033,
            "nextDialogs": [
                140051034
            ],
            "talkRole": {
                "type": "TALK_ROLE_NPC",
                "id": "1005"
            },
            "talkContentTextMapHash": 84605602,
            "talkAssetPath": "",
            "talkAssetPathAlter": "",
            "talkAudioName": "",
            "actionBefore": "",
            "actionWhile": "",
            "actionAfter": "",
            "optionIcon": ""
        },
        {
            "id": 140051034,
            "nextDialogs": [
                140051035
            ],
            "talkShowType": "TALK_SHOW_FORCE_SELECT",
            "talkRole": {
                "type": "TALK_ROLE_PLAYER",
                "id": ""
            },
            "talkContentTextMapHash": 1059508274,
            "talkAssetPath": "",
            "talkAssetPathAlter": "",
            "talkAudioName": "",
            "actionBefore": "",
            "actionWhile": "",
            "actionAfter": "",
            "optionIcon": ""
        },
        {
            "id": 140051035,
            "nextDialogs": [
                140051036
            ],
            "talkRole": {
                "type": "TALK_ROLE_NPC",
                "id": "1078"
            },
            "talkContentTextMapHash": 1442811674,
            "talkAssetPath": "",
            "talkAssetPathAlter": "",
            "talkAudioName": "",
            "actionBefore": "",
            "actionWhile": "",
            "actionAfter": "",
            "optionIcon": ""
        },
        {
            "id": 140051036,
            "nextDialogs": [
                140051037
            ],
            "talkRole": {
                "type": "TALK_ROLE_NPC",
                "id": "1078"
            },
            "talkContentTextMapHash": 3379136450,
            "talkAssetPath": "",
            "talkAssetPathAlter": "",
            "talkAudioName": "",
            "actionBefore": "",
            "actionWhile": "",
            "actionAfter": "",
            "optionIcon": ""
        },
        {
            "id": 140051037,
            "nextDialogs": [
                140051038
            ],
            "talkRole": {
                "type": "TALK_ROLE_NPC",
                "id": "1078"
            },
            "talkContentTextMapHash": 3559204842,
            "talkAssetPath": "",
            "talkAssetPathAlter": "",
            "talkAudioName": "",
            "actionBefore": "",
            "actionWhile": "",
            "actionAfter": "",
            "optionIcon": ""
        },
        {
            "id": 140051038,
            "nextDialogs": [
                140051039
            ],
            "talkRole": {
                "type": "TALK_ROLE_NPC",
                "id": "1078"
            },
            "talkContentTextMapHash": 3465654178,
            "talkAssetPath": "",
            "talkAssetPathAlter": "",
            "talkAudioName": "",
            "actionBefore": "",
            "actionWhile": "",
            "actionAfter": "",
            "optionIcon": ""
        },
        {
            "id": 140051039,
            "nextDialogs": [
                140051040,
                140051041
            ],
            "talkRole": {
                "type": "TALK_ROLE_NPC",
                "id": "1005"
            },
            "talkContentTextMapHash": 3660700706,
            "talkAssetPath": "",
            "talkAssetPathAlter": "",
            "talkAudioName": "",
            "actionBefore": "",
            "actionWhile": "",
            "actionAfter": "",
            "optionIcon": ""
        },
        {
            "id": 140051040,
            "nextDialogs": [
                140051042
            ],
            "talkRole": {
                "type": "TALK_ROLE_PLAYER",
                "id": ""
            },
            "talkContentTextMapHash": 4030352786,
            "talkAssetPath": "",
            "talkAssetPathAlter": "",
            "talkAudioName": "",
            "actionBefore": "",
            "actionWhile": "",
            "actionAfter": "",
            "optionIcon": ""
        },
        {
            "id": 140051042,
            "nextDialogs": [
                140051043
            ],
            "talkRole": {
                "type": "TALK_ROLE_NPC",
                "id": "1078"
            },
            "talkContentTextMapHash": 230503714,
            "talkAssetPath": "",
            "talkAssetPathAlter": "",
            "talkAudioName": "",
            "actionBefore": "",
            "actionWhile": "",
            "actionAfter": "",
            "optionIcon": ""
        },
        {
            "id": 140051043,
            "nextDialogs": [
                140051044
            ],
            "talkRole": {
                "type": "TALK_ROLE_NPC",
                "id": "1078"
            },
            "talkContentTextMapHash": 1451805818,
            "talkAssetPath": "",
            "talkAssetPathAlter": "",
            "talkAudioName": "",
            "actionBefore": "",
            "actionWhile": "",
            "actionAfter": "",
            "optionIcon": ""
        },
        {
            "id": 140051044,
            "nextDialogs": [
                140051045
            ],
            "talkRole": {
                "type": "TALK_ROLE_NPC",
                "id": "1078"
            },
            "talkContentTextMapHash": 1907172386,
            "talkAssetPath": "",
            "talkAssetPathAlter": "",
            "talkAudioName": "",
            "actionBefore": "",
            "actionWhile": "",
            "actionAfter": "",
            "optionIcon": ""
        },
        {
            "id": 140051045,
            "nextDialogs": [
                140051046
            ],
            "talkRole": {
                "type": "TALK_ROLE_NPC",
                "id": "1078"
            },
            "talkContentTextMapHash": 3745478778,
            "talkAssetPath": "",
            "talkAssetPathAlter": "",
            "talkAudioName": "",
            "actionBefore": "",
            "actionWhile": "",
            "actionAfter": "",
            "optionIcon": ""
        },
        {
            "id": 140051046,
            "nextDialogs": [
                140051047
            ],
            "talkRole": {
                "type": "TALK_ROLE_NPC",
                "id": "1078"
            },
            "talkContentTextMapHash": 999999554,
            "talkAssetPath": "",
            "talkAssetPathAlter": "",
            "talkAudioName": "",
            "actionBefore": "",
            "actionWhile": "",
            "actionAfter": "",
            "optionIcon": ""
        },
        {
            "id": 140051047,
            "nextDialogs": [
                140051048
            ],
            "talkRole": {
                "type": "TALK_ROLE_NPC",
                "id": "1078"
            },
            "talkContentTextMapHash": 914657074,
            "talkAssetPath": "",
            "talkAssetPathAlter": "",
            "talkAudioName": "",
            "actionBefore": "",
            "actionWhile": "",
            "actionAfter": "",
            "optionIcon": ""
        },
        {
            "id": 140051048,
            "nextDialogs": [
                140051049
            ],
            "talkRole": {
                "type": "TALK_ROLE_BLACK_SCREEN",
                "id": ""
            },
            "talkContentTextMapHash": 3639151562,
            "talkAssetPath": "",
            "talkAssetPathAlter": "",
            "talkAudioName": "",
            "actionBefore": "",
            "actionWhile": "",
            "actionAfter": "",
            "optionIcon": ""
        },
        {
            "id": 140051049,
            "nextDialogs": [
                140051050
            ],
            "talkRole": {
                "type": "TALK_ROLE_NPC",
                "id": "13487"
            },
            "talkContentTextMapHash": 397695146,
            "talkAssetPath": "",
            "talkAssetPathAlter": "",
            "talkAudioName": "",
            "actionBefore": "",
            "actionWhile": "",
            "actionAfter": "",
            "optionIcon": ""
        },
        {
            "id": 140051050,
            "talkRole": {
                "type": "TALK_ROLE_NPC",
                "id": "1078"
            },
            "talkContentTextMapHash": 953469874,
            "talkAssetPath": "",
            "talkAssetPathAlter": "",
            "talkAudioName": "",
            "actionBefore": "",
            "actionWhile": "",
            "actionAfter": "",
            "optionIcon": ""
        },
        {
            "id": 140051041,
            "nextDialogs": [
                140051042
            ],
            "talkRole": {
                "type": "TALK_ROLE_PLAYER",
                "id": ""
            },
            "talkContentTextMapHash": 3093328834,
            "talkAssetPath": "",
            "talkAssetPathAlter": "",
            "talkAudioName": "",
            "actionBefore": "",
            "actionWhile": "",
            "actionAfter": "",
            "optionIcon": ""
        },
        {
            "id": 140051011,
            "nextDialogs": [
                140051012
            ],
            "talkRole": {
                "type": "TALK_ROLE_PLAYER",
                "id": ""
            },
            "talkContentTextMapHash": 1103691266,
            "talkAssetPath": "",
            "talkAssetPathAlter": "",
            "talkAudioName": "",
            "actionBefore": "",
            "actionWhile": "",
            "actionAfter": "",
            "optionIcon": ""
        }
    ]
}