{
    "talkId": 1400612,
    "dialogList": [
        {
            "id": 140061201,
            "nextDialogs": [
                140061202
            ],
            "talkRole": {
                "type": "TALK_ROLE_NPC",
                "id": "1005"
            },
            "talkContentTextMapHash": 1101474346,
            "talkAssetPath": "",
            "talkAssetPathAlter": "",
            "talkAudioName": "",
            "actionBefore": "",
            "actionWhile": "",
            "actionAfter": "",
            "optionIcon": ""
        },
        {
            "id": 140061202,
            "nextDialogs": [
                140061203
            ],
            "talkRole": {
                "type": "TALK_ROLE_NPC",
                "id": "1078"
            },
            "talkContentTextMapHash": 1431933010,
            "talkAssetPath": "",
            "talkAssetPathAlter": "",
            "talkAudioName": "",
            "actionBefore": "",
            "actionWhile": "",
            "actionAfter": "",
            "optionIcon": ""
        },
        {
            "id": 140061203,
            "nextDialogs": [
                140061204
            ],
            "talkRole": {
                "type": "TALK_ROLE_NPC",
                "id": "1078"
            },
            "talkContentTextMapHash": 3582347850,
            "talkAssetPath": "",
            "talkAssetPathAlter": "",
            "talkAudioName": "",
            "actionBefore": "",
            "actionWhile": "",
            "actionAfter": "",
            "optionIcon": ""
        },
        {
            "id": 140061204,
            "talkRole": {
                "type": "TALK_ROLE_NPC",
                "id": "1078"
            },
            "talkContentTextMapHash": 2866269890,
            "talkAssetPath": "",
            "talkAssetPathAlter": "",
            "talkAudioName": "",
            "actionBefore": "",
            "actionWhile": "",
            "actionAfter": "",
            "optionIcon": ""
        }
    ]
}