{
    "talkId": 1908048,
    "dialogList": [
        {
            "id": 190804801,
            "talkRole": {
                "type": "TALK_ROLE_NPC",
                "id": "13456"
            },
            "talkContentTextMapHash": 1625572354,
            "talkAssetPath": "",
            "talkAssetPathAlter": "",
            "talkAudioName": "",
            "actionBefore": "",
            "actionWhile": "",
            "actionAfter": "",
            "optionIcon": ""
        }
    ]
}