{
    "talkId": 2400812,
    "dialogList": [
        {
            "id": 240081201,
            "talkRole": {
                "type": "TALK_ROLE_NPC",
                "id": "5083"
            },
            "talkContentTextMapHash": 184980210,
            "talkAssetPath": "",
            "talkAssetPathAlter": "",
            "talkAudioName": "",
            "actionBefore": "",
            "actionWhile": "",
            "actionAfter": "",
            "optionIcon": ""
        }
    ]
}