{
    "talkId": 2401908,
    "dialogList": [
        {
            "id": 240190801,
            "nextDialogs": [
                240190802
            ],
            "talkRole": {
                "type": "TALK_ROLE_NPC",
                "id": "5084"
            },
            "talkContentTextMapHash": 4156752562,
            "talkAssetPath": "",
            "talkAssetPathAlter": "",
            "talkAudioName": "",
            "actionBefore": "",
            "actionWhile": "",
            "actionAfter": "",
            "optionIcon": ""
        },
        {
            "id": 240190802,
            "nextDialogs": [
                240190803
            ],
            "talkShowType": "TALK_SHOW_FORCE_SELECT",
            "talkRole": {
                "type": "TALK_ROLE_PLAYER",
                "id": ""
            },
            "talkContentTextMapHash": 1250843098,
            "talkAssetPath": "",
            "talkAssetPathAlter": "",
            "talkAudioName": "",
            "actionBefore": "",
            "actionWhile": "",
            "actionAfter": "",
            "optionIcon": ""
        },
        {
            "id": 240190803,
            "nextDialogs": [
                240190804
            ],
            "talkRole": {
                "type": "TALK_ROLE_NPC",
                "id": "5084"
            },
            "talkContentTextMapHash": 1437405218,
            "talkAssetPath": "",
            "talkAssetPathAlter": "",
            "talkAudioName": "",
            "actionBefore": "",
            "actionWhile": "",
            "actionAfter": "",
            "optionIcon": ""
        },
        {
            "id": 240190804,
            "talkRole": {
                "type": "TALK_ROLE_NPC",
                "id": "5084"
            },
            "talkContentTextMapHash": 3697535906,
            "talkAssetPath": "",
            "talkAssetPathAlter": "",
            "talkAudioName": "",
            "actionBefore": "",
            "actionWhile": "",
            "actionAfter": "",
            "optionIcon": ""
        }
    ]
}