{
    "talkId": 2401816,
    "dialogList": [
        {
            "id": 240181601,
            "nextDialogs": [
                240181602
            ],
            "talkRole": {
                "type": "TALK_ROLE_PLAYER",
                "id": ""
            },
            "talkContentTextMapHash": 731446194,
            "talkAssetPath": "",
            "talkAssetPathAlter": "",
            "talkAudioName": "",
            "actionBefore": "",
            "actionWhile": "",
            "actionAfter": "",
            "optionIcon": "UI_Icon_Quest_Once"
        },
        {
            "id": 240181602,
            "talkRole": {
                "type": "TALK_ROLE_NPC",
                "id": "5085"
            },
            "talkContentTextMapHash": 211769594,
            "talkAssetPath": "",
            "talkAssetPathAlter": "",
            "talkAudioName": "",
            "actionBefore": "",
            "actionWhile": "",
            "actionAfter": "UI/open_giving_page",
            "optionIcon": ""
        }
    ]
}