{
    "talkId": 2401287,
    "dialogList": [
        {
            "id": 240128701,
            "nextDialogs": [
                240128702,
                240128704
            ],
            "talkRole": {
                "type": "TALK_ROLE_NPC",
                "id": "5053"
            },
            "talkContentTextMapHash": 3978252578,
            "talkAssetPath": "",
            "talkAssetPathAlter": "",
            "talkAudioName": "",
            "actionBefore": "SimpleTalk/RandomTalk_Start",
            "actionWhile": "",
            "actionAfter": "",
            "optionIcon": ""
        },
        {
            "id": 240128702,
            "nextDialogs": [
                240128703
            ],
            "talkRole": {
                "type": "TALK_ROLE_PLAYER",
                "id": ""
            },
            "talkContentTextMapHash": 3735052394,
            "talkAssetPath": "",
            "talkAssetPathAlter": "",
            "talkAudioName": "",
            "actionBefore": "",
            "actionWhile": "",
            "actionAfter": "",
            "optionIcon": ""
        },
        {
            "id": 240128703,
            "talkRole": {
                "type": "TALK_ROLE_NPC",
                "id": "5053"
            },
            "talkContentTextMapHash": 9722858,
            "talkAssetPath": "",
            "talkAssetPathAlter": "",
            "talkAudioName": "",
            "actionBefore": "",
            "actionWhile": "",
            "actionAfter": "SimpleTalk/Idle_End",
            "optionIcon": ""
        },
        {
            "id": 240128704,
            "nextDialogs": [
                240128705
            ],
            "talkRole": {
                "type": "TALK_ROLE_PLAYER",
                "id": ""
            },
            "talkContentTextMapHash": 1079834482,
            "talkAssetPath": "",
            "talkAssetPathAlter": "",
            "talkAudioName": "",
            "actionBefore": "",
            "actionWhile": "",
            "actionAfter": "",
            "optionIcon": ""
        },
        {
            "id": 240128705,
            "talkRole": {
                "type": "TALK_ROLE_NPC",
                "id": "5053"
            },
            "talkContentTextMapHash": 3161961634,
            "talkAssetPath": "",
            "talkAssetPathAlter": "",
            "talkAudioName": "",
            "actionBefore": "",
            "actionWhile": "SimpleTalk/NodHead",
            "actionAfter": "SimpleTalk/Idle_End",
            "optionIcon": ""
        }
    ]
}