{
    "talkId": 2401506,
    "dialogList": [
        {
            "id": 240150601,
            "nextDialogs": [
                240150602
            ],
            "talkRole": {
                "type": "TALK_ROLE_NPC",
                "id": "5140"
            },
            "talkContentTextMapHash": 2661990394,
            "talkAssetPath": "",
            "talkAssetPathAlter": "",
            "talkAudioName": "",
            "actionBefore": "",
            "actionWhile": "",
            "actionAfter": "SimpleTalk/StrikeChest_Start",
            "optionIcon": ""
        },
        {
            "id": 240150602,
            "nextDialogs": [
                240150603
            ],
            "talkRole": {
                "type": "TALK_ROLE_NPC",
                "id": "5140"
            },
            "talkContentTextMapHash": 2340447730,
            "talkAssetPath": "",
            "talkAssetPathAlter": "",
            "talkAudioName": "",
            "actionBefore": "SimpleTalk/RandomTalk",
            "actionWhile": "",
            "actionAfter": "",
            "optionIcon": ""
        },
        {
            "id": 240150603,
            "nextDialogs": [
                240150604
            ],
            "talkRole": {
                "type": "TALK_ROLE_NPC",
                "id": "5140"
            },
            "talkContentTextMapHash": 2505912794,
            "talkAssetPath": "",
            "talkAssetPathAlter": "",
            "talkAudioName": "",
            "actionBefore": "SimpleTalk/RandomTalk",
            "actionWhile": "",
            "actionAfter": "",
            "optionIcon": ""
        },
        {
            "id": 240150604,
            "nextDialogs": [
                240150605
            ],
            "talkRole": {
                "type": "TALK_ROLE_NPC",
                "id": "5140"
            },
            "talkContentTextMapHash": 825193874,
            "talkAssetPath": "",
            "talkAssetPathAlter": "",
            "talkAudioName": "",
            "actionBefore": "SimpleTalk/RandomTalk",
            "actionWhile": "",
            "actionAfter": "",
            "optionIcon": ""
        },
        {
            "id": 240150605,
            "nextDialogs": [
                240150606,
                240150607
            ],
            "talkRole": {
                "type": "TALK_ROLE_NPC",
                "id": "5140"
            },
            "talkContentTextMapHash": 118495250,
            "talkAssetPath": "",
            "talkAssetPathAlter": "",
            "talkAudioName": "",
            "actionBefore": "SimpleTalk/RandomTalk",
            "actionWhile": "",
            "actionAfter": "",
            "optionIcon": ""
        },
        {
            "id": 240150606,
            "nextDialogs": [
                240150608
            ],
            "talkRole": {
                "type": "TALK_ROLE_PLAYER",
                "id": ""
            },
            "talkContentTextMapHash": 1577076738,
            "talkAssetPath": "",
            "talkAssetPathAlter": "",
            "talkAudioName": "",
            "actionBefore": "",
            "actionWhile": "",
            "actionAfter": "",
            "optionIcon": ""
        },
        {
            "id": 240150608,
            "nextDialogs": [
                240150609
            ],
            "talkRole": {
                "type": "TALK_ROLE_NPC",
                "id": "5140"
            },
            "talkContentTextMapHash": 1169474410,
            "talkAssetPath": "",
            "talkAssetPathAlter": "",
            "talkAudioName": "",
            "actionBefore": "SimpleTalk/RandomTalk",
            "actionWhile": "",
            "actionAfter": "",
            "optionIcon": ""
        },
        {
            "id": 240150609,
            "nextDialogs": [
                240150610
            ],
            "talkRole": {
                "type": "TALK_ROLE_NPC",
                "id": "5140"
            },
            "talkContentTextMapHash": 1503028578,
            "talkAssetPath": "",
            "talkAssetPathAlter": "",
            "talkAudioName": "",
            "actionBefore": "SimpleTalk/RandomTalk",
            "actionWhile": "",
            "actionAfter": "",
            "optionIcon": ""
        },
        {
            "id": 240150610,
            "nextDialogs": [
                240150611
            ],
            "talkRole": {
                "type": "TALK_ROLE_NPC",
                "id": "5140"
            },
            "talkContentTextMapHash": 215404890,
            "talkAssetPath": "",
            "talkAssetPathAlter": "",
            "talkAudioName": "",
            "actionBefore": "",
            "actionWhile": "SimpleTalk/HoldHead",
            "actionAfter": "",
            "optionIcon": ""
        },
        {
            "id": 240150611,
            "talkRole": {
                "type": "TALK_ROLE_NPC",
                "id": "5140"
            },
            "talkContentTextMapHash": 1757847962,
            "talkAssetPath": "",
            "talkAssetPathAlter": "",
            "talkAudioName": "",
            "actionBefore": "",
            "actionWhile": "",
            "actionAfter": "SimpleTalk/SimpleBlackScreen_End",
            "optionIcon": ""
        },
        {
            "id": 240150607,
            "nextDialogs": [
                240150608
            ],
            "talkRole": {
                "type": "TALK_ROLE_PLAYER",
                "id": ""
            },
            "talkContentTextMapHash": 1401496978,
            "talkAssetPath": "",
            "talkAssetPathAlter": "",
            "talkAudioName": "",
            "actionBefore": "",
            "actionWhile": "",
            "actionAfter": "",
            "optionIcon": ""
        }
    ]
}