{
    "talkId": 401006,
    "dialogList": [
        {
            "id": 40100601,
            "nextDialogs": [
                40100602
            ],
            "talkRole": {
                "type": "TALK_ROLE_NPC",
                "id": "1005"
            },
            "talkContentTextMapHash": 1582109898,
            "talkAssetPath": "",
            "talkAssetPathAlter": "",
            "talkAudioName": "",
            "actionBefore": "",
            "actionWhile": "",
            "actionAfter": "",
            "optionIcon": ""
        },
        {
            "id": 40100602,
            "nextDialogs": [
                40100603
            ],
            "talkRole": {
                "type": "TALK_ROLE_NPC",
                "id": "1076"
            },
            "talkContentTextMapHash": 747213018,
            "talkAssetPath": "",
            "talkAssetPathAlter": "",
            "talkAudioName": "",
            "actionBefore": "",
            "actionWhile": "",
            "actionAfter": "",
            "optionIcon": ""
        },
        {
            "id": 40100603,
            "nextDialogs": [
                40100604
            ],
            "talkRole": {
                "type": "TALK_ROLE_NPC",
                "id": "1076"
            },
            "talkContentTextMapHash": 1981434850,
            "talkAssetPath": "",
            "talkAssetPathAlter": "",
            "talkAudioName": "",
            "actionBefore": "",
            "actionWhile": "",
            "actionAfter": "",
            "optionIcon": ""
        },
        {
            "id": 40100604,
            "nextDialogs": [
                40100605
            ],
            "talkShowType": "TALK_SHOW_FORCE_SELECT",
            "talkRole": {
                "type": "TALK_ROLE_PLAYER",
                "id": ""
            },
            "talkContentTextMapHash": 2963828010,
            "talkAssetPath": "",
            "talkAssetPathAlter": "",
            "talkAudioName": "",
            "actionBefore": "",
            "actionWhile": "",
            "actionAfter": "",
            "optionIcon": ""
        },
        {
            "id": 40100605,
            "talkRole": {
                "type": "TALK_ROLE_NPC",
                "id": "1076"
            },
            "talkContentTextMapHash": 211802418,
            "talkAssetPath": "",
            "talkAssetPathAlter": "",
            "talkAudioName": "",
            "actionBefore": "",
            "actionWhile": "",
            "actionAfter": "",
            "optionIcon": ""
        }
    ]
}