{
    "talkId": 4011715,
    "dialogList": [
        {
            "id": 401171501,
            "nextDialogs": [
                401171502
            ],
            "talkRole": {
                "type": "TALK_ROLE_NPC",
                "id": "13247"
            },
            "talkContentTextMapHash": 2841389466,
            "talkAssetPath": "",
            "talkAssetPathAlter": "",
            "talkAudioName": "",
            "actionBefore": "",
            "actionWhile": "",
            "actionAfter": "",
            "optionIcon": ""
        },
        {
            "id": 401171502,
            "talkRole": {
                "type": "TALK_ROLE_NPC",
                "id": "13247"
            },
            "talkContentTextMapHash": 58803322,
            "talkAssetPath": "",
            "talkAssetPathAlter": "",
            "talkAudioName": "",
            "actionBefore": "",
            "actionWhile": "",
            "actionAfter": "",
            "optionIcon": ""
        }
    ]
}