{
    "talkId": 4012609,
    "dialogList": [
        {
            "id": 401260901,
            "nextDialogs": [
                401260902
            ],
            "talkRole": {
                "type": "TALK_ROLE_NPC",
                "id": "13431"
            },
            "talkContentTextMapHash": 703029746,
            "talkAssetPath": "",
            "talkAssetPathAlter": "",
            "talkAudioName": "",
            "actionBefore": "",
            "actionWhile": "",
            "actionAfter": "",
            "optionIcon": ""
        },
        {
            "id": 401260902,
            "nextDialogs": [
                401260903
            ],
            "talkRole": {
                "type": "TALK_ROLE_NPC",
                "id": "1061"
            },
            "talkContentTextMapHash": 3237589810,
            "talkAssetPath": "",
            "talkAssetPathAlter": "",
            "talkAudioName": "",
            "actionBefore": "",
            "actionWhile": "",
            "actionAfter": "",
            "optionIcon": ""
        },
        {
            "id": 401260903,
            "nextDialogs": [
                401260904
            ],
            "talkRole": {
                "type": "TALK_ROLE_NPC",
                "id": "1650"
            },
            "talkContentTextMapHash": 44780650,
            "talkAssetPath": "",
            "talkAssetPathAlter": "",
            "talkAudioName": "",
            "actionBefore": "",
            "actionWhile": "",
            "actionAfter": "",
            "optionIcon": ""
        },
        {
            "id": 401260904,
            "nextDialogs": [
                401260905
            ],
            "talkRole": {
                "type": "TALK_ROLE_NPC",
                "id": "1650"
            },
            "talkContentTextMapHash": 3073942290,
            "talkAssetPath": "",
            "talkAssetPathAlter": "",
            "talkAudioName": "",
            "actionBefore": "",
            "actionWhile": "",
            "actionAfter": "",
            "optionIcon": ""
        },
        {
            "id": 401260905,
            "nextDialogs": [
                401260906
            ],
            "talkRole": {
                "type": "TALK_ROLE_NPC",
                "id": "1650"
            },
            "talkContentTextMapHash": 931275850,
            "talkAssetPath": "",
            "talkAssetPathAlter": "",
            "talkAudioName": "",
            "actionBefore": "",
            "actionWhile": "",
            "actionAfter": "",
            "optionIcon": ""
        },
        {
            "id": 401260906,
            "nextDialogs": [
                401260907
            ],
            "talkRole": {
                "type": "TALK_ROLE_NPC",
                "id": "1023"
            },
            "talkContentTextMapHash": 2364611066,
            "talkAssetPath": "",
            "talkAssetPathAlter": "",
            "talkAudioName": "",
            "actionBefore": "",
            "actionWhile": "",
            "actionAfter": "",
            "optionIcon": ""
        },
        {
            "id": 401260907,
            "nextDialogs": [
                401260908
            ],
            "talkRole": {
                "type": "TALK_ROLE_NPC",
                "id": "13431"
            },
            "talkContentTextMapHash": 3232955154,
            "talkAssetPath": "",
            "talkAssetPathAlter": "",
            "talkAudioName": "",
            "actionBefore": "",
            "actionWhile": "",
            "actionAfter": "",
            "optionIcon": ""
        },
        {
            "id": 401260908,
            "nextDialogs": [
                401260909
            ],
            "talkRole": {
                "type": "TALK_ROLE_NPC",
                "id": "1650"
            },
            "talkContentTextMapHash": 263389186,
            "talkAssetPath": "",
            "talkAssetPathAlter": "",
            "talkAudioName": "",
            "actionBefore": "",
            "actionWhile": "",
            "actionAfter": "",
            "optionIcon": ""
        },
        {
            "id": 401260909,
            "nextDialogs": [
                401260910
            ],
            "talkRole": {
                "type": "TALK_ROLE_NPC",
                "id": "13431"
            },
            "talkContentTextMapHash": 1773264522,
            "talkAssetPath": "",
            "talkAssetPathAlter": "",
            "talkAudioName": "",
            "actionBefore": "",
            "actionWhile": "",
            "actionAfter": "",
            "optionIcon": ""
        },
        {
            "id": 401260910,
            "nextDialogs": [
                401260911
            ],
            "talkRole": {
                "type": "TALK_ROLE_NPC",
                "id": "1650"
            },
            "talkContentTextMapHash": 2707511386,
            "talkAssetPath": "",
            "talkAssetPathAlter": "",
            "talkAudioName": "",
            "actionBefore": "",
            "actionWhile": "",
            "actionAfter": "",
            "optionIcon": ""
        },
        {
            "id": 401260911,
            "nextDialogs": [
                401260912
            ],
            "talkRole": {
                "type": "TALK_ROLE_NPC",
                "id": "1650"
            },
            "talkContentTextMapHash": 2912865090,
            "talkAssetPath": "",
            "talkAssetPathAlter": "",
            "talkAudioName": "",
            "actionBefore": "",
            "actionWhile": "",
            "actionAfter": "",
            "optionIcon": ""
        },
        {
            "id": 401260912,
            "nextDialogs": [
                401260913
            ],
            "talkRole": {
                "type": "TALK_ROLE_NPC",
                "id": "1650"
            },
            "talkContentTextMapHash": 286771186,
            "talkAssetPath": "",
            "talkAssetPathAlter": "",
            "talkAudioName": "",
            "actionBefore": "",
            "actionWhile": "",
            "actionAfter": "",
            "optionIcon": ""
        },
        {
            "id": 401260913,
            "nextDialogs": [
                401260914
            ],
            "talkRole": {
                "type": "TALK_ROLE_NPC",
                "id": "13431"
            },
            "talkContentTextMapHash": 3714980362,
            "talkAssetPath": "",
            "talkAssetPathAlter": "",
            "talkAudioName": "",
            "actionBefore": "",
            "actionWhile": "",
            "actionAfter": "",
            "optionIcon": ""
        },
        {
            "id": 401260914,
            "nextDialogs": [
                401260915
            ],
            "talkRole": {
                "type": "TALK_ROLE_NPC",
                "id": "1650"
            },
            "talkContentTextMapHash": 2769988266,
            "talkAssetPath": "",
            "talkAssetPathAlter": "",
            "talkAudioName": "",
            "actionBefore": "",
            "actionWhile": "",
            "actionAfter": "",
            "optionIcon": ""
        },
        {
            "id": 401260915,
            "nextDialogs": [
                401260916
            ],
            "talkRole": {
                "type": "TALK_ROLE_NPC",
                "id": "13431"
            },
            "talkContentTextMapHash": 2611243298,
            "talkAssetPath": "",
            "talkAssetPathAlter": "",
            "talkAudioName": "",
            "actionBefore": "",
            "actionWhile": "",
            "actionAfter": "",
            "optionIcon": ""
        },
        {
            "id": 401260916,
            "nextDialogs": [
                401260917
            ],
            "talkRole": {
                "type": "TALK_ROLE_NPC",
                "id": "1650"
            },
            "talkContentTextMapHash": 1622873194,
            "talkAssetPath": "",
            "talkAssetPathAlter": "",
            "talkAudioName": "",
            "actionBefore": "",
            "actionWhile": "",
            "actionAfter": "",
            "optionIcon": ""
        },
        {
            "id": 401260917,
            "nextDialogs": [
                401260918
            ],
            "talkRole": {
                "type": "TALK_ROLE_NPC",
                "id": "13431"
            },
            "talkContentTextMapHash": 2191506066,
            "talkAssetPath": "",
            "talkAssetPathAlter": "",
            "talkAudioName": "",
            "actionBefore": "",
            "actionWhile": "",
            "actionAfter": "",
            "optionIcon": ""
        },
        {
            "id": 401260918,
            "nextDialogs": [
                401260919
            ],
            "talkRole": {
                "type": "TALK_ROLE_NPC",
                "id": "1650"
            },
            "talkContentTextMapHash": 2297769234,
            "talkAssetPath": "",
            "talkAssetPathAlter": "",
            "talkAudioName": "",
            "actionBefore": "",
            "actionWhile": "",
            "actionAfter": "",
            "optionIcon": ""
        },
        {
            "id": 401260919,
            "nextDialogs": [
                401260920
            ],
            "talkRole": {
                "type": "TALK_ROLE_NPC",
                "id": "13431"
            },
            "talkContentTextMapHash": 403199586,
            "talkAssetPath": "",
            "talkAssetPathAlter": "",
            "talkAudioName": "",
            "actionBefore": "",
            "actionWhile": "",
            "actionAfter": "",
            "optionIcon": ""
        },
        {
            "id": 401260920,
            "nextDialogs": [
                401260921
            ],
            "talkRole": {
                "type": "TALK_ROLE_NPC",
                "id": "1650"
            },
            "talkContentTextMapHash": 823431578,
            "talkAssetPath": "",
            "talkAssetPathAlter": "",
            "talkAudioName": "",
            "actionBefore": "",
            "actionWhile": "",
            "actionAfter": "",
            "optionIcon": ""
        },
        {
            "id": 401260921,
            "nextDialogs": [
                401260922
            ],
            "talkRole": {
                "type": "TALK_ROLE_NPC",
                "id": "1650"
            },
            "talkContentTextMapHash": 3648792082,
            "talkAssetPath": "",
            "talkAssetPathAlter": "",
            "talkAudioName": "",
            "actionBefore": "",
            "actionWhile": "",
            "actionAfter": "",
            "optionIcon": ""
        },
        {
            "id": 401260922,
            "nextDialogs": [
                401260923
            ],
            "talkRole": {
                "type": "TALK_ROLE_NPC",
                "id": "1650"
            },
            "talkContentTextMapHash": 3439036850,
            "talkAssetPath": "",
            "talkAssetPathAlter": "",
            "talkAudioName": "",
            "actionBefore": "",
            "actionWhile": "",
            "actionAfter": "",
            "optionIcon": ""
        },
        {
            "id": 401260923,
            "nextDialogs": [
                401260924
            ],
            "talkRole": {
                "type": "TALK_ROLE_NPC",
                "id": "13431"
            },
            "talkContentTextMapHash": 188957922,
            "talkAssetPath": "",
            "talkAssetPathAlter": "",
            "talkAudioName": "",
            "actionBefore": "",
            "actionWhile": "",
            "actionAfter": "",
            "optionIcon": ""
        },
        {
            "id": 401260924,
            "nextDialogs": [
                401260925
            ],
            "talkRole": {
                "type": "TALK_ROLE_NPC",
                "id": "1650"
            },
            "talkContentTextMapHash": 1711895394,
            "talkAssetPath": "",
            "talkAssetPathAlter": "",
            "talkAudioName": "",
            "actionBefore": "",
            "actionWhile": "",
            "actionAfter": "",
            "optionIcon": ""
        },
        {
            "id": 401260925,
            "nextDialogs": [
                401260926
            ],
            "talkRole": {
                "type": "TALK_ROLE_NPC",
                "id": "13431"
            },
            "talkContentTextMapHash": 1800623594,
            "talkAssetPath": "",
            "talkAssetPathAlter": "",
            "talkAudioName": "",
            "actionBefore": "",
            "actionWhile": "",
            "actionAfter": "",
            "optionIcon": ""
        },
        {
            "id": 401260926,
            "nextDialogs": [
                401260927
            ],
            "talkRole": {
                "type": "TALK_ROLE_NPC",
                "id": "1650"
            },
            "talkContentTextMapHash": 979172842,
            "talkAssetPath": "",
            "talkAssetPathAlter": "",
            "talkAudioName": "",
            "actionBefore": "",
            "actionWhile": "",
            "actionAfter": "",
            "optionIcon": ""
        },
        {
            "id": 401260927,
            "nextDialogs": [
                401260928
            ],
            "talkRole": {
                "type": "TALK_ROLE_NPC",
                "id": "13431"
            },
            "talkContentTextMapHash": 1829750346,
            "talkAssetPath": "",
            "talkAssetPathAlter": "",
            "talkAudioName": "",
            "actionBefore": "",
            "actionWhile": "",
            "actionAfter": "",
            "optionIcon": ""
        },
        {
            "id": 401260928,
            "nextDialogs": [
                401260929
            ],
            "talkRole": {
                "type": "TALK_ROLE_NPC",
                "id": "13431"
            },
            "talkContentTextMapHash": 2814813746,
            "talkAssetPath": "",
            "talkAssetPathAlter": "",
            "talkAudioName": "",
            "actionBefore": "",
            "actionWhile": "",
            "actionAfter": "",
            "optionIcon": ""
        },
        {
            "id": 401260929,
            "nextDialogs": [
                401260930
            ],
            "talkRole": {
                "type": "TALK_ROLE_NPC",
                "id": "13431"
            },
            "talkContentTextMapHash": 1708844258,
            "talkAssetPath": "",
            "talkAssetPathAlter": "",
            "talkAudioName": "",
            "actionBefore": "",
            "actionWhile": "",
            "actionAfter": "",
            "optionIcon": ""
        },
        {
            "id": 401260930,
            "nextDialogs": [
                401260931
            ],
            "talkRole": {
                "type": "TALK_ROLE_NPC",
                "id": "13431"
            },
            "talkContentTextMapHash": 3495561322,
            "talkAssetPath": "",
            "talkAssetPathAlter": "",
            "talkAudioName": "",
            "actionBefore": "",
            "actionWhile": "",
            "actionAfter": "",
            "optionIcon": ""
        },
        {
            "id": 401260931,
            "nextDialogs": [
                401260932
            ],
            "talkRole": {
                "type": "TALK_ROLE_PLAYER",
                "id": ""
            },
            "talkContentTextMapHash": 70824794,
            "talkAssetPath": "",
            "talkAssetPathAlter": "",
            "talkAudioName": "",
            "actionBefore": "",
            "actionWhile": "",
            "actionAfter": "",
            "optionIcon": ""
        },
        {
            "id": 401260932,
            "nextDialogs": [
                401260933
            ],
            "talkRole": {
                "type": "TALK_ROLE_NPC",
                "id": "1005"
            },
            "talkContentTextMapHash": 2550391170,
            "talkAssetPath": "",
            "talkAssetPathAlter": "",
            "talkAudioName": "",
            "actionBefore": "",
            "actionWhile": "",
            "actionAfter": "",
            "optionIcon": ""
        },
        {
            "id": 401260933,
            "nextDialogs": [
                401260934
            ],
            "talkShowType": "TALK_SHOW_FORCE_SELECT",
            "talkRole": {
                "type": "TALK_ROLE_PLAYER",
                "id": ""
            },
            "talkContentTextMapHash": 2852785258,
            "talkAssetPath": "",
            "talkAssetPathAlter": "",
            "talkAudioName": "",
            "actionBefore": "",
            "actionWhile": "",
            "actionAfter": "",
            "optionIcon": ""
        },
        {
            "id": 401260934,
            "nextDialogs": [
                401260935
            ],
            "talkRole": {
                "type": "TALK_ROLE_NPC",
                "id": "1650"
            },
            "talkContentTextMapHash": 1168997306,
            "talkAssetPath": "",
            "talkAssetPathAlter": "",
            "talkAudioName": "",
            "actionBefore": "",
            "actionWhile": "",
            "actionAfter": "",
            "optionIcon": ""
        },
        {
            "id": 401260935,
            "nextDialogs": [
                401260936
            ],
            "talkRole": {
                "type": "TALK_ROLE_NPC",
                "id": "13431"
            },
            "talkContentTextMapHash": 997054738,
            "talkAssetPath": "",
            "talkAssetPathAlter": "",
            "talkAudioName": "",
            "actionBefore": "",
            "actionWhile": "",
            "actionAfter": "",
            "optionIcon": ""
        },
        {
            "id": 401260936,
            "nextDialogs": [
                401260937
            ],
            "talkRole": {
                "type": "TALK_ROLE_NPC",
                "id": "1650"
            },
            "talkContentTextMapHash": 2171016818,
            "talkAssetPath": "",
            "talkAssetPathAlter": "",
            "talkAudioName": "",
            "actionBefore": "",
            "actionWhile": "",
            "actionAfter": "",
            "optionIcon": ""
        },
        {
            "id": 401260937,
            "nextDialogs": [
                401260938
            ],
            "talkRole": {
                "type": "TALK_ROLE_NPC",
                "id": "1650"
            },
            "talkContentTextMapHash": 3496747338,
            "talkAssetPath": "",
            "talkAssetPathAlter": "",
            "talkAudioName": "",
            "actionBefore": "",
            "actionWhile": "",
            "actionAfter": "",
            "optionIcon": ""
        },
        {
            "id": 401260938,
            "nextDialogs": [
                401260939
            ],
            "talkRole": {
                "type": "TALK_ROLE_NPC",
                "id": "13431"
            },
            "talkContentTextMapHash": 1953980210,
            "talkAssetPath": "",
            "talkAssetPathAlter": "",
            "talkAudioName": "",
            "actionBefore": "",
            "actionWhile": "",
            "actionAfter": "",
            "optionIcon": ""
        },
        {
            "id": 401260939,
            "nextDialogs": [
                401260940
            ],
            "talkRole": {
                "type": "TALK_ROLE_NPC",
                "id": "1650"
            },
            "talkContentTextMapHash": 1443697202,
            "talkAssetPath": "",
            "talkAssetPathAlter": "",
            "talkAudioName": "",
            "actionBefore": "",
            "actionWhile": "",
            "actionAfter": "",
            "optionIcon": ""
        },
        {
            "id": 401260940,
            "nextDialogs": [
                401260941
            ],
            "talkRole": {
                "type": "TALK_ROLE_NPC",
                "id": "13431"
            },
            "talkContentTextMapHash": 84505010,
            "talkAssetPath": "",
            "talkAssetPathAlter": "",
            "talkAudioName": "",
            "actionBefore": "",
            "actionWhile": "",
            "actionAfter": "",
            "optionIcon": ""
        },
        {
            "id": 401260941,
            "nextDialogs": [
                401260942
            ],
            "talkRole": {
                "type": "TALK_ROLE_NPC",
                "id": "1061"
            },
            "talkContentTextMapHash": 1738584978,
            "talkAssetPath": "",
            "talkAssetPathAlter": "",
            "talkAudioName": "",
            "actionBefore": "",
            "actionWhile": "",
            "actionAfter": "",
            "optionIcon": ""
        },
        {
            "id": 401260942,
            "nextDialogs": [
                401260943
            ],
            "talkRole": {
                "type": "TALK_ROLE_NPC",
                "id": "13431"
            },
            "talkContentTextMapHash": 3028713034,
            "talkAssetPath": "",
            "talkAssetPathAlter": "",
            "talkAudioName": "",
            "actionBefore": "",
            "actionWhile": "",
            "actionAfter": "",
            "optionIcon": ""
        },
        {
            "id": 401260943,
            "nextDialogs": [
                401260944
            ],
            "talkRole": {
                "type": "TALK_ROLE_NPC",
                "id": "1061"
            },
            "talkContentTextMapHash": 219521602,
            "talkAssetPath": "",
            "talkAssetPathAlter": "",
            "talkAudioName": "",
            "actionBefore": "",
            "actionWhile": "",
            "actionAfter": "",
            "optionIcon": ""
        },
        {
            "id": 401260944,
            "nextDialogs": [
                401260945
            ],
            "talkRole": {
                "type": "TALK_ROLE_NPC",
                "id": "13431"
            },
            "talkContentTextMapHash": 3317446130,
            "talkAssetPath": "",
            "talkAssetPathAlter": "",
            "talkAudioName": "",
            "actionBefore": "",
            "actionWhile": "",
            "actionAfter": "",
            "optionIcon": ""
        },
        {
            "id": 401260945,
            "nextDialogs": [
                401260946
            ],
            "talkRole": {
                "type": "TALK_ROLE_NPC",
                "id": "13431"
            },
            "talkContentTextMapHash": 410039178,
            "talkAssetPath": "",
            "talkAssetPathAlter": "",
            "talkAudioName": "",
            "actionBefore": "",
            "actionWhile": "",
            "actionAfter": "",
            "optionIcon": ""
        },
        {
            "id": 401260946,
            "nextDialogs": [
                401260947
            ],
            "talkRole": {
                "type": "TALK_ROLE_NPC",
                "id": "1061"
            },
            "talkContentTextMapHash": 4057269802,
            "talkAssetPath": "",
            "talkAssetPathAlter": "",
            "talkAudioName": "",
            "actionBefore": "",
            "actionWhile": "",
            "actionAfter": "",
            "optionIcon": ""
        },
        {
            "id": 401260947,
            "nextDialogs": [
                401260948
            ],
            "talkRole": {
                "type": "TALK_ROLE_NPC",
                "id": "1023"
            },
            "talkContentTextMapHash": 1280403138,
            "talkAssetPath": "",
            "talkAssetPathAlter": "",
            "talkAudioName": "",
            "actionBefore": "",
            "actionWhile": "",
            "actionAfter": "",
            "optionIcon": ""
        },
        {
            "id": 401260948,
            "nextDialogs": [
                401260949
            ],
            "talkRole": {
                "type": "TALK_ROLE_NPC",
                "id": "1023"
            },
            "talkContentTextMapHash": 4123263018,
            "talkAssetPath": "",
            "talkAssetPathAlter": "",
            "talkAudioName": "",
            "actionBefore": "",
            "actionWhile": "",
            "actionAfter": "",
            "optionIcon": ""
        },
        {
            "id": 401260949,
            "nextDialogs": [
                401260950
            ],
            "talkRole": {
                "type": "TALK_ROLE_NPC",
                "id": "13431"
            },
            "talkContentTextMapHash": 167256178,
            "talkAssetPath": "",
            "talkAssetPathAlter": "",
            "talkAudioName": "",
            "actionBefore": "",
            "actionWhile": "",
            "actionAfter": "",
            "optionIcon": ""
        },
        {
            "id": 401260950,
            "nextDialogs": [
                401260951
            ],
            "talkRole": {
                "type": "TALK_ROLE_NPC",
                "id": "13431"
            },
            "talkContentTextMapHash": 1825678226,
            "talkAssetPath": "",
            "talkAssetPathAlter": "",
            "talkAudioName": "",
            "actionBefore": "",
            "actionWhile": "",
            "actionAfter": "",
            "optionIcon": ""
        },
        {
            "id": 401260951,
            "nextDialogs": [
                401260952
            ],
            "talkRole": {
                "type": "TALK_ROLE_NPC",
                "id": "13431"
            },
            "talkContentTextMapHash": 109131698,
            "talkAssetPath": "",
            "talkAssetPathAlter": "",
            "talkAudioName": "",
            "actionBefore": "",
            "actionWhile": "",
            "actionAfter": "",
            "optionIcon": ""
        },
        {
            "id": 401260952,
            "nextDialogs": [
                401260953
            ],
            "talkRole": {
                "type": "TALK_ROLE_NPC",
                "id": "1650"
            },
            "talkContentTextMapHash": 4034585306,
            "talkAssetPath": "",
            "talkAssetPathAlter": "",
            "talkAudioName": "",
            "actionBefore": "",
            "actionWhile": "",
            "actionAfter": "",
            "optionIcon": ""
        },
        {
            "id": 401260953,
            "nextDialogs": [
                401260954
            ],
            "talkRole": {
                "type": "TALK_ROLE_NPC",
                "id": "13431"
            },
            "talkContentTextMapHash": 2443221490,
            "talkAssetPath": "",
            "talkAssetPathAlter": "",
            "talkAudioName": "",
            "actionBefore": "",
            "actionWhile": "",
            "actionAfter": "",
            "optionIcon": ""
        },
        {
            "id": 401260954,
            "nextDialogs": [
                401260955
            ],
            "talkRole": {
                "type": "TALK_ROLE_NPC",
                "id": "1650"
            },
            "talkContentTextMapHash": 3559827938,
            "talkAssetPath": "",
            "talkAssetPathAlter": "",
            "talkAudioName": "",
            "actionBefore": "",
            "actionWhile": "",
            "actionAfter": "",
            "optionIcon": ""
        },
        {
            "id": 401260955,
            "nextDialogs": [
                401260956
            ],
            "talkRole": {
                "type": "TALK_ROLE_NPC",
                "id": "13431"
            },
            "talkContentTextMapHash": 2178167370,
            "talkAssetPath": "",
            "talkAssetPathAlter": "",
            "talkAudioName": "",
            "actionBefore": "",
            "actionWhile": "",
            "actionAfter": "",
            "optionIcon": ""
        },
        {
            "id": 401260956,
            "nextDialogs": [
                401260957,
                401260959
            ],
            "talkRole": {
                "type": "TALK_ROLE_NPC",
                "id": "13431"
            },
            "talkContentTextMapHash": 1569910714,
            "talkAssetPath": "",
            "talkAssetPathAlter": "",
            "talkAudioName": "",
            "actionBefore": "",
            "actionWhile": "",
            "actionAfter": "",
            "optionIcon": ""
        },
        {
            "id": 401260957,
            "nextDialogs": [
                401260958
            ],
            "talkRole": {
                "type": "TALK_ROLE_PLAYER",
                "id": ""
            },
            "talkContentTextMapHash": 2768043506,
            "talkAssetPath": "",
            "talkAssetPathAlter": "",
            "talkAudioName": "",
            "actionBefore": "",
            "actionWhile": "",
            "actionAfter": "",
            "optionIcon": ""
        },
        {
            "id": 401260958,
            "nextDialogs": [
                401260961
            ],
            "talkRole": {
                "type": "TALK_ROLE_NPC",
                "id": "1005"
            },
            "talkContentTextMapHash": 410591090,
            "talkAssetPath": "",
            "talkAssetPathAlter": "",
            "talkAudioName": "",
            "actionBefore": "",
            "actionWhile": "",
            "actionAfter": "",
            "optionIcon": ""
        },
        {
            "id": 401260961,
            "nextDialogs": [
                401260962
            ],
            "talkRole": {
                "type": "TALK_ROLE_BLACK_SCREEN",
                "id": ""
            },
            "talkContentTextMapHash": 120361490,
            "talkAssetPath": "",
            "talkAssetPathAlter": "",
            "talkAudioName": "",
            "actionBefore": "",
            "actionWhile": "",
            "actionAfter": "",
            "optionIcon": ""
        },
        {
            "id": 401260962,
            "nextDialogs": [
                401260963
            ],
            "talkRole": {
                "type": "TALK_ROLE_NPC",
                "id": "1650"
            },
            "talkContentTextMapHash": 3475791786,
            "talkAssetPath": "",
            "talkAssetPathAlter": "",
            "talkAudioName": "",
            "actionBefore": "",
            "actionWhile": "",
            "actionAfter": "",
            "optionIcon": ""
        },
        {
            "id": 401260963,
            "nextDialogs": [
                401260964
            ],
            "talkRole": {
                "type": "TALK_ROLE_NPC",
                "id": "1650"
            },
            "talkContentTextMapHash": 2049089770,
            "talkAssetPath": "",
            "talkAssetPathAlter": "",
            "talkAudioName": "",
            "actionBefore": "",
            "actionWhile": "",
            "actionAfter": "",
            "optionIcon": ""
        },
        {
            "id": 401260964,
            "nextDialogs": [
                401260965
            ],
            "talkRole": {
                "type": "TALK_ROLE_NPC",
                "id": "1005"
            },
            "talkContentTextMapHash": 3180793226,
            "talkAssetPath": "",
            "talkAssetPathAlter": "",
            "talkAudioName": "",
            "actionBefore": "",
            "actionWhile": "",
            "actionAfter": "",
            "optionIcon": ""
        },
        {
            "id": 401260965,
            "nextDialogs": [
                401260966
            ],
            "talkRole": {
                "type": "TALK_ROLE_NPC",
                "id": "1061"
            },
            "talkContentTextMapHash": 2968392762,
            "talkAssetPath": "",
            "talkAssetPathAlter": "",
            "talkAudioName": "",
            "actionBefore": "",
            "actionWhile": "",
            "actionAfter": "",
            "optionIcon": ""
        },
        {
            "id": 401260966,
            "nextDialogs": [
                401260967
            ],
            "talkRole": {
                "type": "TALK_ROLE_NPC",
                "id": "1650"
            },
            "talkContentTextMapHash": 2239379674,
            "talkAssetPath": "",
            "talkAssetPathAlter": "",
            "talkAudioName": "",
            "actionBefore": "",
            "actionWhile": "",
            "actionAfter": "",
            "optionIcon": ""
        },
        {
            "id": 401260967,
            "talkRole": {
                "type": "TALK_ROLE_NPC",
                "id": "1650"
            },
            "talkContentTextMapHash": 1514468810,
            "talkAssetPath": "",
            "talkAssetPathAlter": "",
            "talkAudioName": "",
            "actionBefore": "",
            "actionWhile": "",
            "actionAfter": "",
            "optionIcon": ""
        },
        {
            "id": 401260959,
            "nextDialogs": [
                401260960
            ],
            "talkRole": {
                "type": "TALK_ROLE_PLAYER",
                "id": ""
            },
            "talkContentTextMapHash": 3199044210,
            "talkAssetPath": "",
            "talkAssetPathAlter": "",
            "talkAudioName": "",
            "actionBefore": "",
            "actionWhile": "",
            "actionAfter": "",
            "optionIcon": ""
        },
        {
            "id": 401260960,
            "nextDialogs": [
                401260961
            ],
            "talkRole": {
                "type": "TALK_ROLE_NPC",
                "id": "1061"
            },
            "talkContentTextMapHash": 1052430730,
            "talkAssetPath": "",
            "talkAssetPathAlter": "",
            "talkAudioName": "",
            "actionBefore": "",
            "actionWhile": "",
            "actionAfter": "",
            "optionIcon": ""
        }
    ]
}