{
    "talkId": 7401609,
    "dialogList": [
        {
            "id": 740160901,
            "nextDialogs": [
                740160902
            ],
            "talkRole": {
                "type": "TALK_ROLE_NPC",
                "id": "21035"
            },
            "talkContentTextMapHash": 320018658,
            "talkAssetPath": "",
            "talkAssetPathAlter": "",
            "talkAudioName": "",
            "actionBefore": "",
            "actionWhile": "",
            "actionAfter": "",
            "optionIcon": ""
        },
        {
            "id": 740160902,
            "nextDialogs": [
                740160903
            ],
            "talkRole": {
                "type": "TALK_ROLE_NPC",
                "id": "1005"
            },
            "talkContentTextMapHash": 1689261114,
            "talkAssetPath": "",
            "talkAssetPathAlter": "",
            "talkAudioName": "",
            "actionBefore": "",
            "actionWhile": "",
            "actionAfter": "",
            "optionIcon": ""
        },
        {
            "id": 740160903,
            "nextDialogs": [
                740160904
            ],
            "talkRole": {
                "type": "TALK_ROLE_NPC",
                "id": "21035"
            },
            "talkContentTextMapHash": 3807335714,
            "talkAssetPath": "",
            "talkAssetPathAlter": "",
            "talkAudioName": "",
            "actionBefore": "",
            "actionWhile": "",
            "actionAfter": "",
            "optionIcon": ""
        },
        {
            "id": 740160904,
            "nextDialogs": [
                740160905
            ],
            "talkRole": {
                "type": "TALK_ROLE_NPC",
                "id": "21035"
            },
            "talkContentTextMapHash": 2739054922,
            "talkAssetPath": "",
            "talkAssetPathAlter": "",
            "talkAudioName": "",
            "actionBefore": "",
            "actionWhile": "",
            "actionAfter": "",
            "optionIcon": ""
        },
        {
            "id": 740160905,
            "nextDialogs": [
                740160906
            ],
            "talkRole": {
                "type": "TALK_ROLE_NPC",
                "id": "21035"
            },
            "talkContentTextMapHash": 3500674242,
            "talkAssetPath": "",
            "talkAssetPathAlter": "",
            "talkAudioName": "",
            "actionBefore": "",
            "actionWhile": "",
            "actionAfter": "",
            "optionIcon": ""
        },
        {
            "id": 740160906,
            "nextDialogs": [
                740160907
            ],
            "talkRole": {
                "type": "TALK_ROLE_NPC",
                "id": "21035"
            },
            "talkContentTextMapHash": 1936831818,
            "talkAssetPath": "",
            "talkAssetPathAlter": "",
            "talkAudioName": "",
            "actionBefore": "",
            "actionWhile": "",
            "actionAfter": "",
            "optionIcon": ""
        },
        {
            "id": 740160907,
            "nextDialogs": [
                740160908
            ],
            "talkRole": {
                "type": "TALK_ROLE_NPC",
                "id": "21035"
            },
            "talkContentTextMapHash": 2648340882,
            "talkAssetPath": "",
            "talkAssetPathAlter": "",
            "talkAudioName": "",
            "actionBefore": "",
            "actionWhile": "",
            "actionAfter": "",
            "optionIcon": ""
        },
        {
            "id": 740160908,
            "nextDialogs": [
                740160909
            ],
            "talkRole": {
                "type": "TALK_ROLE_NPC",
                "id": "21035"
            },
            "talkContentTextMapHash": 3098737178,
            "talkAssetPath": "",
            "talkAssetPathAlter": "",
            "talkAudioName": "",
            "actionBefore": "",
            "actionWhile": "",
            "actionAfter": "",
            "optionIcon": ""
        },
        {
            "id": 740160909,
            "nextDialogs": [
                740160910,
                740160912
            ],
            "talkRole": {
                "type": "TALK_ROLE_NPC",
                "id": "21035"
            },
            "talkContentTextMapHash": 1734696314,
            "talkAssetPath": "",
            "talkAssetPathAlter": "",
            "talkAudioName": "",
            "actionBefore": "",
            "actionWhile": "",
            "actionAfter": "",
            "optionIcon": ""
        },
        {
            "id": 740160910,
            "nextDialogs": [
                740160911
            ],
            "talkRole": {
                "type": "TALK_ROLE_PLAYER",
                "id": ""
            },
            "talkContentTextMapHash": 2741186730,
            "talkAssetPath": "",
            "talkAssetPathAlter": "",
            "talkAudioName": "",
            "actionBefore": "",
            "actionWhile": "",
            "actionAfter": "",
            "optionIcon": ""
        },
        {
            "id": 740160911,
            "nextDialogs": [
                740160914
            ],
            "talkRole": {
                "type": "TALK_ROLE_NPC",
                "id": "1005"
            },
            "talkContentTextMapHash": 471171754,
            "talkAssetPath": "",
            "talkAssetPathAlter": "",
            "talkAudioName": "",
            "actionBefore": "",
            "actionWhile": "",
            "actionAfter": "",
            "optionIcon": ""
        },
        {
            "id": 740160914,
            "nextDialogs": [
                740160915
            ],
            "talkRole": {
                "type": "TALK_ROLE_NPC",
                "id": "21035"
            },
            "talkContentTextMapHash": 694333802,
            "talkAssetPath": "",
            "talkAssetPathAlter": "",
            "talkAudioName": "",
            "actionBefore": "",
            "actionWhile": "",
            "actionAfter": "",
            "optionIcon": ""
        },
        {
            "id": 740160915,
            "nextDialogs": [
                740160916
            ],
            "talkRole": {
                "type": "TALK_ROLE_NPC",
                "id": "21035"
            },
            "talkContentTextMapHash": 422035354,
            "talkAssetPath": "",
            "talkAssetPathAlter": "",
            "talkAudioName": "",
            "actionBefore": "",
            "actionWhile": "",
            "actionAfter": "",
            "optionIcon": ""
        },
        {
            "id": 740160916,
            "nextDialogs": [
                740160917
            ],
            "talkRole": {
                "type": "TALK_ROLE_NPC",
                "id": "1005"
            },
            "talkContentTextMapHash": 3821222082,
            "talkAssetPath": "",
            "talkAssetPathAlter": "",
            "talkAudioName": "",
            "actionBefore": "",
            "actionWhile": "",
            "actionAfter": "",
            "optionIcon": ""
        },
        {
            "id": 740160917,
            "nextDialogs": [
                740160918,
                740160920
            ],
            "talkRole": {
                "type": "TALK_ROLE_NPC",
                "id": "21035"
            },
            "talkContentTextMapHash": 100109210,
            "talkAssetPath": "",
            "talkAssetPathAlter": "",
            "talkAudioName": "",
            "actionBefore": "",
            "actionWhile": "",
            "actionAfter": "",
            "optionIcon": ""
        },
        {
            "id": 740160918,
            "nextDialogs": [
                740160919
            ],
            "talkRole": {
                "type": "TALK_ROLE_PLAYER",
                "id": ""
            },
            "talkContentTextMapHash": 1515223770,
            "talkAssetPath": "",
            "talkAssetPathAlter": "",
            "talkAudioName": "",
            "actionBefore": "",
            "actionWhile": "",
            "actionAfter": "",
            "optionIcon": ""
        },
        {
            "id": 740160919,
            "nextDialogs": [
                740160922
            ],
            "talkRole": {
                "type": "TALK_ROLE_NPC",
                "id": "21035"
            },
            "talkContentTextMapHash": 3156476946,
            "talkAssetPath": "",
            "talkAssetPathAlter": "",
            "talkAudioName": "",
            "actionBefore": "",
            "actionWhile": "",
            "actionAfter": "",
            "optionIcon": ""
        },
        {
            "id": 740160922,
            "talkRole": {
                "type": "TALK_ROLE_NEED_CLICK_BLACK_SCREEN",
                "id": ""
            },
            "talkContentTextMapHash": 1918059594,
            "talkAssetPath": "",
            "talkAssetPathAlter": "",
            "talkAudioName": "",
            "actionBefore": "",
            "actionWhile": "",
            "actionAfter": "",
            "optionIcon": ""
        },
        {
            "id": 740160920,
            "nextDialogs": [
                740160921
            ],
            "talkRole": {
                "type": "TALK_ROLE_PLAYER",
                "id": ""
            },
            "talkContentTextMapHash": 615940738,
            "talkAssetPath": "",
            "talkAssetPathAlter": "",
            "talkAudioName": "",
            "actionBefore": "",
            "actionWhile": "",
            "actionAfter": "",
            "optionIcon": ""
        },
        {
            "id": 740160921,
            "nextDialogs": [
                740160922
            ],
            "talkRole": {
                "type": "TALK_ROLE_NPC",
                "id": "21035"
            },
            "talkContentTextMapHash": 2059720386,
            "talkAssetPath": "",
            "talkAssetPathAlter": "",
            "talkAudioName": "",
            "actionBefore": "",
            "actionWhile": "",
            "actionAfter": "",
            "optionIcon": ""
        },
        {
            "id": 740160912,
            "nextDialogs": [
                740160913
            ],
            "talkRole": {
                "type": "TALK_ROLE_PLAYER",
                "id": ""
            },
            "talkContentTextMapHash": 4285590386,
            "talkAssetPath": "",
            "talkAssetPathAlter": "",
            "talkAudioName": "",
            "actionBefore": "",
            "actionWhile": "",
            "actionAfter": "",
            "optionIcon": ""
        },
        {
            "id": 740160913,
            "nextDialogs": [
                740160914
            ],
            "talkRole": {
                "type": "TALK_ROLE_NPC",
                "id": "21035"
            },
            "talkContentTextMapHash": 4282659538,
            "talkAssetPath": "",
            "talkAssetPathAlter": "",
            "talkAudioName": "",
            "actionBefore": "",
            "actionWhile": "",
            "actionAfter": "",
            "optionIcon": ""
        }
    ]
}