{
    "talkId": 7401838,
    "dialogList": [
        {
            "id": 740183801,
            "nextDialogs": [
                740183802
            ],
            "talkRole": {
                "type": "TALK_ROLE_NPC",
                "id": "21040"
            },
            "talkContentTextMapHash": 1379815514,
            "talkAssetPath": "",
            "talkAssetPathAlter": "",
            "talkAudioName": "",
            "actionBefore": "",
            "actionWhile": "",
            "actionAfter": "",
            "optionIcon": ""
        },
        {
            "id": 740183802,
            "nextDialogs": [
                740183803
            ],
            "talkRole": {
                "type": "TALK_ROLE_NPC",
                "id": "21040"
            },
            "talkContentTextMapHash": 2891705890,
            "talkAssetPath": "",
            "talkAssetPathAlter": "",
            "talkAudioName": "",
            "actionBefore": "",
            "actionWhile": "",
            "actionAfter": "",
            "optionIcon": ""
        },
        {
            "id": 740183803,
            "nextDialogs": [
                740183804
            ],
            "talkRole": {
                "type": "TALK_ROLE_NPC",
                "id": "1005"
            },
            "talkContentTextMapHash": 3843966378,
            "talkAssetPath": "",
            "talkAssetPathAlter": "",
            "talkAudioName": "",
            "actionBefore": "",
            "actionWhile": "",
            "actionAfter": "",
            "optionIcon": ""
        },
        {
            "id": 740183804,
            "nextDialogs": [
                740183805
            ],
            "talkRole": {
                "type": "TALK_ROLE_NPC",
                "id": "21039"
            },
            "talkContentTextMapHash": 2791964450,
            "talkAssetPath": "",
            "talkAssetPathAlter": "",
            "talkAudioName": "",
            "actionBefore": "",
            "actionWhile": "",
            "actionAfter": "",
            "optionIcon": ""
        },
        {
            "id": 740183805,
            "nextDialogs": [
                740183806
            ],
            "talkRole": {
                "type": "TALK_ROLE_NPC",
                "id": "1005"
            },
            "talkContentTextMapHash": 2647617898,
            "talkAssetPath": "",
            "talkAssetPathAlter": "",
            "talkAudioName": "",
            "actionBefore": "",
            "actionWhile": "",
            "actionAfter": "",
            "optionIcon": ""
        },
        {
            "id": 740183806,
            "nextDialogs": [
                740183807
            ],
            "talkRole": {
                "type": "TALK_ROLE_NPC",
                "id": "21040"
            },
            "talkContentTextMapHash": 1987389962,
            "talkAssetPath": "",
            "talkAssetPathAlter": "",
            "talkAudioName": "",
            "actionBefore": "",
            "actionWhile": "",
            "actionAfter": "",
            "optionIcon": ""
        },
        {
            "id": 740183807,
            "nextDialogs": [
                740183808
            ],
            "talkRole": {
                "type": "TALK_ROLE_NPC",
                "id": "21039"
            },
            "talkContentTextMapHash": 2126056258,
            "talkAssetPath": "",
            "talkAssetPathAlter": "",
            "talkAudioName": "",
            "actionBefore": "",
            "actionWhile": "",
            "actionAfter": "",
            "optionIcon": ""
        },
        {
            "id": 740183808,
            "nextDialogs": [
                740183809
            ],
            "talkRole": {
                "type": "TALK_ROLE_NPC",
                "id": "21040"
            },
            "talkContentTextMapHash": 1910353938,
            "talkAssetPath": "",
            "talkAssetPathAlter": "",
            "talkAudioName": "",
            "actionBefore": "",
            "actionWhile": "",
            "actionAfter": "",
            "optionIcon": ""
        },
        {
            "id": 740183809,
            "nextDialogs": [
                740183810
            ],
            "talkRole": {
                "type": "TALK_ROLE_NPC",
                "id": "1005"
            },
            "talkContentTextMapHash": 3883225642,
            "talkAssetPath": "",
            "talkAssetPathAlter": "",
            "talkAudioName": "",
            "actionBefore": "",
            "actionWhile": "",
            "actionAfter": "",
            "optionIcon": ""
        },
        {
            "id": 740183810,
            "nextDialogs": [
                740183811
            ],
            "talkRole": {
                "type": "TALK_ROLE_NPC",
                "id": "21040"
            },
            "talkContentTextMapHash": 4290260802,
            "talkAssetPath": "",
            "talkAssetPathAlter": "",
            "talkAudioName": "",
            "actionBefore": "",
            "actionWhile": "",
            "actionAfter": "",
            "optionIcon": ""
        },
        {
            "id": 740183811,
            "nextDialogs": [
                740183812
            ],
            "talkRole": {
                "type": "TALK_ROLE_NPC",
                "id": "21039"
            },
            "talkContentTextMapHash": 83928738,
            "talkAssetPath": "",
            "talkAssetPathAlter": "",
            "talkAudioName": "",
            "actionBefore": "",
            "actionWhile": "",
            "actionAfter": "",
            "optionIcon": ""
        },
        {
            "id": 740183812,
            "nextDialogs": [
                740183813
            ],
            "talkRole": {
                "type": "TALK_ROLE_NPC",
                "id": "21040"
            },
            "talkContentTextMapHash": 2487075170,
            "talkAssetPath": "",
            "talkAssetPathAlter": "",
            "talkAudioName": "",
            "actionBefore": "",
            "actionWhile": "",
            "actionAfter": "",
            "optionIcon": ""
        },
        {
            "id": 740183813,
            "nextDialogs": [
                740183814
            ],
            "talkRole": {
                "type": "TALK_ROLE_NPC",
                "id": "21040"
            },
            "talkContentTextMapHash": 3772245010,
            "talkAssetPath": "",
            "talkAssetPathAlter": "",
            "talkAudioName": "",
            "actionBefore": "",
            "actionWhile": "",
            "actionAfter": "",
            "optionIcon": ""
        },
        {
            "id": 740183814,
            "nextDialogs": [
                740183815
            ],
            "talkRole": {
                "type": "TALK_ROLE_NPC",
                "id": "21040"
            },
            "talkContentTextMapHash": 350821666,
            "talkAssetPath": "",
            "talkAssetPathAlter": "",
            "talkAudioName": "",
            "actionBefore": "",
            "actionWhile": "",
            "actionAfter": "",
            "optionIcon": ""
        },
        {
            "id": 740183815,
            "nextDialogs": [
                740183816
            ],
            "talkRole": {
                "type": "TALK_ROLE_NPC",
                "id": "21040"
            },
            "talkContentTextMapHash": 2474539522,
            "talkAssetPath": "",
            "talkAssetPathAlter": "",
            "talkAudioName": "",
            "actionBefore": "",
            "actionWhile": "",
            "actionAfter": "",
            "optionIcon": ""
        },
        {
            "id": 740183816,
            "nextDialogs": [
                740183817
            ],
            "talkRole": {
                "type": "TALK_ROLE_NPC",
                "id": "1005"
            },
            "talkContentTextMapHash": 1554079834,
            "talkAssetPath": "",
            "talkAssetPathAlter": "",
            "talkAudioName": "",
            "actionBefore": "",
            "actionWhile": "",
            "actionAfter": "",
            "optionIcon": ""
        },
        {
            "id": 740183817,
            "nextDialogs": [
                740183818
            ],
            "talkRole": {
                "type": "TALK_ROLE_NPC",
                "id": "21039"
            },
            "talkContentTextMapHash": 1236860410,
            "talkAssetPath": "",
            "talkAssetPathAlter": "",
            "talkAudioName": "",
            "actionBefore": "",
            "actionWhile": "",
            "actionAfter": "",
            "optionIcon": ""
        },
        {
            "id": 740183818,
            "nextDialogs": [
                740183819
            ],
            "talkRole": {
                "type": "TALK_ROLE_NPC",
                "id": "21040"
            },
            "talkContentTextMapHash": 1772928954,
            "talkAssetPath": "",
            "talkAssetPathAlter": "",
            "talkAudioName": "",
            "actionBefore": "",
            "actionWhile": "",
            "actionAfter": "",
            "optionIcon": ""
        },
        {
            "id": 740183819,
            "nextDialogs": [
                740183820
            ],
            "talkRole": {
                "type": "TALK_ROLE_NPC",
                "id": "21039"
            },
            "talkContentTextMapHash": 1636870274,
            "talkAssetPath": "",
            "talkAssetPathAlter": "",
            "talkAudioName": "",
            "actionBefore": "",
            "actionWhile": "",
            "actionAfter": "",
            "optionIcon": ""
        },
        {
            "id": 740183820,
            "nextDialogs": [
                740183821
            ],
            "talkRole": {
                "type": "TALK_ROLE_NPC",
                "id": "21040"
            },
            "talkContentTextMapHash": 931067666,
            "talkAssetPath": "",
            "talkAssetPathAlter": "",
            "talkAudioName": "",
            "actionBefore": "",
            "actionWhile": "",
            "actionAfter": "",
            "optionIcon": ""
        },
        {
            "id": 740183821,
            "nextDialogs": [
                740183822
            ],
            "talkRole": {
                "type": "TALK_ROLE_NPC",
                "id": "21039"
            },
            "talkContentTextMapHash": 704775322,
            "talkAssetPath": "",
            "talkAssetPathAlter": "",
            "talkAudioName": "",
            "actionBefore": "",
            "actionWhile": "",
            "actionAfter": "",
            "optionIcon": ""
        },
        {
            "id": 740183822,
            "nextDialogs": [
                740183823
            ],
            "talkRole": {
                "type": "TALK_ROLE_NPC",
                "id": "1005"
            },
            "talkContentTextMapHash": 4147201698,
            "talkAssetPath": "",
            "talkAssetPathAlter": "",
            "talkAudioName": "",
            "actionBefore": "",
            "actionWhile": "",
            "actionAfter": "",
            "optionIcon": ""
        },
        {
            "id": 740183823,
            "nextDialogs": [
                740183824
            ],
            "talkRole": {
                "type": "TALK_ROLE_NPC",
                "id": "1005"
            },
            "talkContentTextMapHash": 523687642,
            "talkAssetPath": "",
            "talkAssetPathAlter": "",
            "talkAudioName": "",
            "actionBefore": "",
            "actionWhile": "",
            "actionAfter": "",
            "optionIcon": ""
        },
        {
            "id": 740183824,
            "nextDialogs": [
                740183825
            ],
            "talkRole": {
                "type": "TALK_ROLE_NPC",
                "id": "21040"
            },
            "talkContentTextMapHash": 1053641026,
            "talkAssetPath": "",
            "talkAssetPathAlter": "",
            "talkAudioName": "",
            "actionBefore": "",
            "actionWhile": "",
            "actionAfter": "",
            "optionIcon": ""
        },
        {
            "id": 740183825,
            "nextDialogs": [
                740183826
            ],
            "talkRole": {
                "type": "TALK_ROLE_NPC",
                "id": "21040"
            },
            "talkContentTextMapHash": 3918135250,
            "talkAssetPath": "",
            "talkAssetPathAlter": "",
            "talkAudioName": "",
            "actionBefore": "",
            "actionWhile": "",
            "actionAfter": "",
            "optionIcon": ""
        },
        {
            "id": 740183826,
            "nextDialogs": [
                740183827
            ],
            "talkRole": {
                "type": "TALK_ROLE_NPC",
                "id": "1005"
            },
            "talkContentTextMapHash": 4208562162,
            "talkAssetPath": "",
            "talkAssetPathAlter": "",
            "talkAudioName": "",
            "actionBefore": "",
            "actionWhile": "",
            "actionAfter": "",
            "optionIcon": ""
        },
        {
            "id": 740183827,
            "nextDialogs": [
                740183828
            ],
            "talkRole": {
                "type": "TALK_ROLE_NPC",
                "id": "21040"
            },
            "talkContentTextMapHash": 563922474,
            "talkAssetPath": "",
            "talkAssetPathAlter": "",
            "talkAudioName": "",
            "actionBefore": "",
            "actionWhile": "",
            "actionAfter": "",
            "optionIcon": ""
        },
        {
            "id": 740183828,
            "nextDialogs": [
                740183829
            ],
            "talkShowType": "TALK_SHOW_FORCE_SELECT",
            "talkRole": {
                "type": "TALK_ROLE_PLAYER",
                "id": ""
            },
            "talkContentTextMapHash": 3628427202,
            "talkAssetPath": "",
            "talkAssetPathAlter": "",
            "talkAudioName": "",
            "actionBefore": "",
            "actionWhile": "",
            "actionAfter": "",
            "optionIcon": ""
        },
        {
            "id": 740183829,
            "nextDialogs": [
                740183830
            ],
            "talkRole": {
                "type": "TALK_ROLE_NPC",
                "id": "21040"
            },
            "talkContentTextMapHash": 3864526146,
            "talkAssetPath": "",
            "talkAssetPathAlter": "",
            "talkAudioName": "",
            "actionBefore": "",
            "actionWhile": "",
            "actionAfter": "",
            "optionIcon": ""
        },
        {
            "id": 740183830,
            "talkRole": {
                "type": "TALK_ROLE_NPC",
                "id": "1005"
            },
            "talkContentTextMapHash": 354205938,
            "talkAssetPath": "",
            "talkAssetPathAlter": "",
            "talkAudioName": "",
            "actionBefore": "",
            "actionWhile": "",
            "actionAfter": "",
            "optionIcon": ""
        }
    ]
}