{
    "talkId": 7402808,
    "dialogList": [
        {
            "id": 740280801,
            "nextDialogs": [
                740280802
            ],
            "talkRole": {
                "type": "TALK_ROLE_NPC",
                "id": "21033"
            },
            "talkContentTextMapHash": 2147938282,
            "talkAssetPath": "",
            "talkAssetPathAlter": "",
            "talkAudioName": "",
            "actionBefore": "",
            "actionWhile": "",
            "actionAfter": "",
            "optionIcon": ""
        },
        {
            "id": 740280802,
            "nextDialogs": [
                740280803
            ],
            "talkRole": {
                "type": "TALK_ROLE_NPC",
                "id": "1005"
            },
            "talkContentTextMapHash": 3407957282,
            "talkAssetPath": "",
            "talkAssetPathAlter": "",
            "talkAudioName": "",
            "actionBefore": "",
            "actionWhile": "",
            "actionAfter": "",
            "optionIcon": ""
        },
        {
            "id": 740280803,
            "talkRole": {
                "type": "TALK_ROLE_NPC",
                "id": "21033"
            },
            "talkContentTextMapHash": 4105003282,
            "talkAssetPath": "",
            "talkAssetPathAlter": "",
            "talkAudioName": "",
            "actionBefore": "",
            "actionWhile": "",
            "actionAfter": "",
            "optionIcon": ""
        }
    ]
}