{
    "talkId": 7402610,
    "dialogList": [
        {
            "id": 740261001,
            "nextDialogs": [
                740261002
            ],
            "talkRole": {
                "type": "TALK_ROLE_NPC",
                "id": "21172"
            },
            "talkContentTextMapHash": 3441754458,
            "talkAssetPath": "",
            "talkAssetPathAlter": "",
            "talkAudioName": "",
            "actionBefore": "",
            "actionWhile": "",
            "actionAfter": "",
            "optionIcon": ""
        },
        {
            "id": 740261002,
            "nextDialogs": [
                740261003
            ],
            "talkShowType": "TALK_SHOW_FORCE_SELECT",
            "talkRole": {
                "type": "TALK_ROLE_PLAYER",
                "id": ""
            },
            "talkContentTextMapHash": 2631654810,
            "talkAssetPath": "",
            "talkAssetPathAlter": "",
            "talkAudioName": "",
            "actionBefore": "",
            "actionWhile": "",
            "actionAfter": "",
            "optionIcon": ""
        },
        {
            "id": 740261003,
            "nextDialogs": [
                740261004
            ],
            "talkRole": {
                "type": "TALK_ROLE_NPC",
                "id": "21172"
            },
            "talkContentTextMapHash": 521862282,
            "talkAssetPath": "",
            "talkAssetPathAlter": "",
            "talkAudioName": "",
            "actionBefore": "",
            "actionWhile": "",
            "actionAfter": "",
            "optionIcon": ""
        },
        {
            "id": 740261004,
            "nextDialogs": [
                740261005
            ],
            "talkRole": {
                "type": "TALK_ROLE_NPC",
                "id": "1005"
            },
            "talkContentTextMapHash": 4193811986,
            "talkAssetPath": "",
            "talkAssetPathAlter": "",
            "talkAudioName": "",
            "actionBefore": "",
            "actionWhile": "",
            "actionAfter": "",
            "optionIcon": ""
        },
        {
            "id": 740261005,
            "nextDialogs": [
                740261006
            ],
            "talkRole": {
                "type": "TALK_ROLE_NPC",
                "id": "21172"
            },
            "talkContentTextMapHash": 2465268978,
            "talkAssetPath": "",
            "talkAssetPathAlter": "",
            "talkAudioName": "",
            "actionBefore": "",
            "actionWhile": "",
            "actionAfter": "",
            "optionIcon": ""
        },
        {
            "id": 740261006,
            "nextDialogs": [
                740261007
            ],
            "talkRole": {
                "type": "TALK_ROLE_NPC",
                "id": "1005"
            },
            "talkContentTextMapHash": 649316882,
            "talkAssetPath": "",
            "talkAssetPathAlter": "",
            "talkAudioName": "",
            "actionBefore": "",
            "actionWhile": "",
            "actionAfter": "",
            "optionIcon": ""
        },
        {
            "id": 740261007,
            "nextDialogs": [
                740261008
            ],
            "talkRole": {
                "type": "TALK_ROLE_NPC",
                "id": "21172"
            },
            "talkContentTextMapHash": 1730328890,
            "talkAssetPath": "",
            "talkAssetPathAlter": "",
            "talkAudioName": "",
            "actionBefore": "",
            "actionWhile": "",
            "actionAfter": "",
            "optionIcon": ""
        },
        {
            "id": 740261008,
            "nextDialogs": [
                740261009
            ],
            "talkRole": {
                "type": "TALK_ROLE_NPC",
                "id": "1005"
            },
            "talkContentTextMapHash": 3494034914,
            "talkAssetPath": "",
            "talkAssetPathAlter": "",
            "talkAudioName": "",
            "actionBefore": "",
            "actionWhile": "",
            "actionAfter": "",
            "optionIcon": ""
        },
        {
            "id": 740261009,
            "nextDialogs": [
                740261010
            ],
            "talkRole": {
                "type": "TALK_ROLE_NPC",
                "id": "1005"
            },
            "talkContentTextMapHash": 955109554,
            "talkAssetPath": "",
            "talkAssetPathAlter": "",
            "talkAudioName": "",
            "actionBefore": "",
            "actionWhile": "",
            "actionAfter": "",
            "optionIcon": ""
        },
        {
            "id": 740261010,
            "nextDialogs": [
                740261011
            ],
            "talkRole": {
                "type": "TALK_ROLE_NPC",
                "id": "1005"
            },
            "talkContentTextMapHash": 2490122754,
            "talkAssetPath": "",
            "talkAssetPathAlter": "",
            "talkAudioName": "",
            "actionBefore": "",
            "actionWhile": "",
            "actionAfter": "",
            "optionIcon": ""
        },
        {
            "id": 740261011,
            "nextDialogs": [
                740261012
            ],
            "talkRole": {
                "type": "TALK_ROLE_NPC",
                "id": "21172"
            },
            "talkContentTextMapHash": 826136866,
            "talkAssetPath": "",
            "talkAssetPathAlter": "",
            "talkAudioName": "",
            "actionBefore": "",
            "actionWhile": "",
            "actionAfter": "",
            "optionIcon": ""
        },
        {
            "id": 740261012,
            "nextDialogs": [
                740261013
            ],
            "talkRole": {
                "type": "TALK_ROLE_NPC",
                "id": "1005"
            },
            "talkContentTextMapHash": 847837210,
            "talkAssetPath": "",
            "talkAssetPathAlter": "",
            "talkAudioName": "",
            "actionBefore": "",
            "actionWhile": "",
            "actionAfter": "",
            "optionIcon": ""
        },
        {
            "id": 740261013,
            "nextDialogs": [
                740261014
            ],
            "talkShowType": "TALK_SHOW_FORCE_SELECT",
            "talkRole": {
                "type": "TALK_ROLE_PLAYER",
                "id": ""
            },
            "talkContentTextMapHash": 1931948066,
            "talkAssetPath": "",
            "talkAssetPathAlter": "",
            "talkAudioName": "",
            "actionBefore": "",
            "actionWhile": "",
            "actionAfter": "",
            "optionIcon": ""
        },
        {
            "id": 740261014,
            "nextDialogs": [
                740261015
            ],
            "talkRole": {
                "type": "TALK_ROLE_NPC",
                "id": "21172"
            },
            "talkContentTextMapHash": 437691410,
            "talkAssetPath": "",
            "talkAssetPathAlter": "",
            "talkAudioName": "",
            "actionBefore": "",
            "actionWhile": "",
            "actionAfter": "",
            "optionIcon": ""
        },
        {
            "id": 740261015,
            "nextDialogs": [
                740261016
            ],
            "talkShowType": "TALK_SHOW_FORCE_SELECT",
            "talkRole": {
                "type": "TALK_ROLE_PLAYER",
                "id": ""
            },
            "talkContentTextMapHash": 3268106834,
            "talkAssetPath": "",
            "talkAssetPathAlter": "",
            "talkAudioName": "",
            "actionBefore": "",
            "actionWhile": "",
            "actionAfter": "",
            "optionIcon": ""
        },
        {
            "id": 740261016,
            "nextDialogs": [
                740261017
            ],
            "talkRole": {
                "type": "TALK_ROLE_NPC",
                "id": "21172"
            },
            "talkContentTextMapHash": 3231744530,
            "talkAssetPath": "",
            "talkAssetPathAlter": "",
            "talkAudioName": "",
            "actionBefore": "",
            "actionWhile": "",
            "actionAfter": "",
            "optionIcon": ""
        },
        {
            "id": 740261017,
            "nextDialogs": [
                740261018
            ],
            "talkRole": {
                "type": "TALK_ROLE_NPC",
                "id": "1005"
            },
            "talkContentTextMapHash": 1008101882,
            "talkAssetPath": "",
            "talkAssetPathAlter": "",
            "talkAudioName": "",
            "actionBefore": "",
            "actionWhile": "",
            "actionAfter": "",
            "optionIcon": ""
        },
        {
            "id": 740261018,
            "nextDialogs": [
                740261019
            ],
            "talkRole": {
                "type": "TALK_ROLE_NPC",
                "id": "1005"
            },
            "talkContentTextMapHash": 2927680378,
            "talkAssetPath": "",
            "talkAssetPathAlter": "",
            "talkAudioName": "",
            "actionBefore": "",
            "actionWhile": "",
            "actionAfter": "",
            "optionIcon": ""
        },
        {
            "id": 740261019,
            "nextDialogs": [
                740261020
            ],
            "talkShowType": "TALK_SHOW_FORCE_SELECT",
            "talkRole": {
                "type": "TALK_ROLE_PLAYER",
                "id": ""
            },
            "talkContentTextMapHash": 3551018210,
            "talkAssetPath": "",
            "talkAssetPathAlter": "",
            "talkAudioName": "",
            "actionBefore": "",
            "actionWhile": "",
            "actionAfter": "",
            "optionIcon": ""
        },
        {
            "id": 740261020,
            "nextDialogs": [
                740261021
            ],
            "talkRole": {
                "type": "TALK_ROLE_NPC",
                "id": "21172"
            },
            "talkContentTextMapHash": 3394828442,
            "talkAssetPath": "",
            "talkAssetPathAlter": "",
            "talkAudioName": "",
            "actionBefore": "",
            "actionWhile": "",
            "actionAfter": "",
            "optionIcon": ""
        },
        {
            "id": 740261021,
            "nextDialogs": [
                740261022
            ],
            "talkRole": {
                "type": "TALK_ROLE_NPC",
                "id": "21172"
            },
            "talkContentTextMapHash": 202165554,
            "talkAssetPath": "",
            "talkAssetPathAlter": "",
            "talkAudioName": "",
            "actionBefore": "",
            "actionWhile": "",
            "actionAfter": "",
            "optionIcon": ""
        },
        {
            "id": 740261022,
            "nextDialogs": [
                740261023
            ],
            "talkRole": {
                "type": "TALK_ROLE_NPC",
                "id": "21172"
            },
            "talkContentTextMapHash": 1361239890,
            "talkAssetPath": "",
            "talkAssetPathAlter": "",
            "talkAudioName": "",
            "actionBefore": "",
            "actionWhile": "",
            "actionAfter": "",
            "optionIcon": ""
        },
        {
            "id": 740261023,
            "nextDialogs": [
                740261024
            ],
            "talkShowType": "TALK_SHOW_FORCE_SELECT",
            "talkRole": {
                "type": "TALK_ROLE_PLAYER",
                "id": ""
            },
            "talkContentTextMapHash": 2186667746,
            "talkAssetPath": "",
            "talkAssetPathAlter": "",
            "talkAudioName": "",
            "actionBefore": "",
            "actionWhile": "",
            "actionAfter": "",
            "optionIcon": ""
        },
        {
            "id": 740261024,
            "nextDialogs": [
                740261025
            ],
            "talkRole": {
                "type": "TALK_ROLE_NPC",
                "id": "21172"
            },
            "talkContentTextMapHash": 1324593058,
            "talkAssetPath": "",
            "talkAssetPathAlter": "",
            "talkAudioName": "",
            "actionBefore": "",
            "actionWhile": "",
            "actionAfter": "",
            "optionIcon": ""
        },
        {
            "id": 740261025,
            "nextDialogs": [
                740261026
            ],
            "talkRole": {
                "type": "TALK_ROLE_NPC",
                "id": "1005"
            },
            "talkContentTextMapHash": 2200919162,
            "talkAssetPath": "",
            "talkAssetPathAlter": "",
            "talkAudioName": "",
            "actionBefore": "",
            "actionWhile": "",
            "actionAfter": "",
            "optionIcon": ""
        },
        {
            "id": 740261026,
            "nextDialogs": [
                740261027
            ],
            "talkRole": {
                "type": "TALK_ROLE_NPC",
                "id": "21172"
            },
            "talkContentTextMapHash": 505981538,
            "talkAssetPath": "",
            "talkAssetPathAlter": "",
            "talkAudioName": "",
            "actionBefore": "",
            "actionWhile": "",
            "actionAfter": "",
            "optionIcon": ""
        },
        {
            "id": 740261027,
            "nextDialogs": [
                740261028
            ],
            "talkRole": {
                "type": "TALK_ROLE_NPC",
                "id": "21172"
            },
            "talkContentTextMapHash": 313409466,
            "talkAssetPath": "",
            "talkAssetPathAlter": "",
            "talkAudioName": "",
            "actionBefore": "",
            "actionWhile": "",
            "actionAfter": "",
            "optionIcon": ""
        },
        {
            "id": 740261028,
            "nextDialogs": [
                740261029
            ],
            "talkRole": {
                "type": "TALK_ROLE_NPC",
                "id": "21172"
            },
            "talkContentTextMapHash": 666680858,
            "talkAssetPath": "",
            "talkAssetPathAlter": "",
            "talkAudioName": "",
            "actionBefore": "",
            "actionWhile": "",
            "actionAfter": "",
            "optionIcon": ""
        },
        {
            "id": 740261029,
            "nextDialogs": [
                740261030
            ],
            "talkRole": {
                "type": "TALK_ROLE_NPC",
                "id": "21172"
            },
            "talkContentTextMapHash": 267553018,
            "talkAssetPath": "",
            "talkAssetPathAlter": "",
            "talkAudioName": "",
            "actionBefore": "",
            "actionWhile": "",
            "actionAfter": "",
            "optionIcon": ""
        },
        {
            "id": 740261030,
            "nextDialogs": [
                740261031
            ],
            "talkRole": {
                "type": "TALK_ROLE_NPC",
                "id": "21172"
            },
            "talkContentTextMapHash": 1736846122,
            "talkAssetPath": "",
            "talkAssetPathAlter": "",
            "talkAudioName": "",
            "actionBefore": "",
            "actionWhile": "",
            "actionAfter": "",
            "optionIcon": ""
        },
        {
            "id": 740261031,
            "nextDialogs": [
                740261032
            ],
            "talkRole": {
                "type": "TALK_ROLE_NPC",
                "id": "21172"
            },
            "talkContentTextMapHash": 2433337218,
            "talkAssetPath": "",
            "talkAssetPathAlter": "",
            "talkAudioName": "",
            "actionBefore": "",
            "actionWhile": "",
            "actionAfter": "",
            "optionIcon": ""
        },
        {
            "id": 740261032,
            "nextDialogs": [
                740261033
            ],
            "talkRole": {
                "type": "TALK_ROLE_NPC",
                "id": "21172"
            },
            "talkContentTextMapHash": 1578367810,
            "talkAssetPath": "",
            "talkAssetPathAlter": "",
            "talkAudioName": "",
            "actionBefore": "",
            "actionWhile": "",
            "actionAfter": "",
            "optionIcon": ""
        },
        {
            "id": 740261033,
            "nextDialogs": [
                740261034
            ],
            "talkRole": {
                "type": "TALK_ROLE_NPC",
                "id": "21172"
            },
            "talkContentTextMapHash": 4244658410,
            "talkAssetPath": "",
            "talkAssetPathAlter": "",
            "talkAudioName": "",
            "actionBefore": "",
            "actionWhile": "",
            "actionAfter": "",
            "optionIcon": ""
        },
        {
            "id": 740261034,
            "nextDialogs": [
                740261035
            ],
            "talkRole": {
                "type": "TALK_ROLE_NPC",
                "id": "21172"
            },
            "talkContentTextMapHash": 2947533722,
            "talkAssetPath": "",
            "talkAssetPathAlter": "",
            "talkAudioName": "",
            "actionBefore": "",
            "actionWhile": "",
            "actionAfter": "",
            "optionIcon": ""
        },
        {
            "id": 740261035,
            "nextDialogs": [
                740261036
            ],
            "talkShowType": "TALK_SHOW_FORCE_SELECT",
            "talkRole": {
                "type": "TALK_ROLE_PLAYER",
                "id": ""
            },
            "talkContentTextMapHash": 3632520506,
            "talkAssetPath": "",
            "talkAssetPathAlter": "",
            "talkAudioName": "",
            "actionBefore": "",
            "actionWhile": "",
            "actionAfter": "",
            "optionIcon": ""
        },
        {
            "id": 740261036,
            "nextDialogs": [
                740261037
            ],
            "talkRole": {
                "type": "TALK_ROLE_NPC",
                "id": "21172"
            },
            "talkContentTextMapHash": 409217850,
            "talkAssetPath": "",
            "talkAssetPathAlter": "",
            "talkAudioName": "",
            "actionBefore": "",
            "actionWhile": "",
            "actionAfter": "",
            "optionIcon": ""
        },
        {
            "id": 740261037,
            "nextDialogs": [
                740261038
            ],
            "talkRole": {
                "type": "TALK_ROLE_NPC",
                "id": "21172"
            },
            "talkContentTextMapHash": 80993602,
            "talkAssetPath": "",
            "talkAssetPathAlter": "",
            "talkAudioName": "",
            "actionBefore": "",
            "actionWhile": "",
            "actionAfter": "",
            "optionIcon": ""
        },
        {
            "id": 740261038,
            "nextDialogs": [
                740261039
            ],
            "talkRole": {
                "type": "TALK_ROLE_NPC",
                "id": "1005"
            },
            "talkContentTextMapHash": 331323882,
            "talkAssetPath": "",
            "talkAssetPathAlter": "",
            "talkAudioName": "",
            "actionBefore": "",
            "actionWhile": "",
            "actionAfter": "",
            "optionIcon": ""
        },
        {
            "id": 740261039,
            "nextDialogs": [
                740261040
            ],
            "talkRole": {
                "type": "TALK_ROLE_NPC",
                "id": "21172"
            },
            "talkContentTextMapHash": 1498523946,
            "talkAssetPath": "",
            "talkAssetPathAlter": "",
            "talkAudioName": "",
            "actionBefore": "",
            "actionWhile": "",
            "actionAfter": "",
            "optionIcon": ""
        },
        {
            "id": 740261040,
            "nextDialogs": [
                740261041
            ],
            "talkRole": {
                "type": "TALK_ROLE_NPC",
                "id": "21172"
            },
            "talkContentTextMapHash": 2980142482,
            "talkAssetPath": "",
            "talkAssetPathAlter": "",
            "talkAudioName": "",
            "actionBefore": "",
            "actionWhile": "",
            "actionAfter": "",
            "optionIcon": ""
        },
        {
            "id": 740261041,
            "nextDialogs": [
                740261042
            ],
            "talkRole": {
                "type": "TALK_ROLE_NPC",
                "id": "21172"
            },
            "talkContentTextMapHash": 3994044778,
            "talkAssetPath": "",
            "talkAssetPathAlter": "",
            "talkAudioName": "",
            "actionBefore": "",
            "actionWhile": "",
            "actionAfter": "",
            "optionIcon": ""
        },
        {
            "id": 740261042,
            "nextDialogs": [
                740261043
            ],
            "talkRole": {
                "type": "TALK_ROLE_NPC",
                "id": "21172"
            },
            "talkContentTextMapHash": 1184139842,
            "talkAssetPath": "",
            "talkAssetPathAlter": "",
            "talkAudioName": "",
            "actionBefore": "",
            "actionWhile": "",
            "actionAfter": "",
            "optionIcon": ""
        },
        {
            "id": 740261043,
            "nextDialogs": [
                740261044
            ],
            "talkRole": {
                "type": "TALK_ROLE_NPC",
                "id": "21172"
            },
            "talkContentTextMapHash": 3057685722,
            "talkAssetPath": "",
            "talkAssetPathAlter": "",
            "talkAudioName": "",
            "actionBefore": "",
            "actionWhile": "",
            "actionAfter": "",
            "optionIcon": ""
        },
        {
            "id": 740261044,
            "nextDialogs": [
                740261045
            ],
            "talkRole": {
                "type": "TALK_ROLE_NPC",
                "id": "21172"
            },
            "talkContentTextMapHash": 220547842,
            "talkAssetPath": "",
            "talkAssetPathAlter": "",
            "talkAudioName": "",
            "actionBefore": "",
            "actionWhile": "",
            "actionAfter": "",
            "optionIcon": ""
        },
        {
            "id": 740261045,
            "nextDialogs": [
                740261046
            ],
            "talkRole": {
                "type": "TALK_ROLE_NPC",
                "id": "21172"
            },
            "talkContentTextMapHash": 3866952858,
            "talkAssetPath": "",
            "talkAssetPathAlter": "",
            "talkAudioName": "",
            "actionBefore": "",
            "actionWhile": "",
            "actionAfter": "",
            "optionIcon": ""
        },
        {
            "id": 740261046,
            "nextDialogs": [
                740261047
            ],
            "talkShowType": "TALK_SHOW_FORCE_SELECT",
            "talkRole": {
                "type": "TALK_ROLE_PLAYER",
                "id": ""
            },
            "talkContentTextMapHash": 2407473594,
            "talkAssetPath": "",
            "talkAssetPathAlter": "",
            "talkAudioName": "",
            "actionBefore": "",
            "actionWhile": "",
            "actionAfter": "",
            "optionIcon": ""
        },
        {
            "id": 740261047,
            "nextDialogs": [
                740261048
            ],
            "talkRole": {
                "type": "TALK_ROLE_NPC",
                "id": "21172"
            },
            "talkContentTextMapHash": 4062782394,
            "talkAssetPath": "",
            "talkAssetPathAlter": "",
            "talkAudioName": "",
            "actionBefore": "",
            "actionWhile": "",
            "actionAfter": "",
            "optionIcon": ""
        },
        {
            "id": 740261048,
            "nextDialogs": [
                740261049
            ],
            "talkRole": {
                "type": "TALK_ROLE_NPC",
                "id": "1005"
            },
            "talkContentTextMapHash": 2445800642,
            "talkAssetPath": "",
            "talkAssetPathAlter": "",
            "talkAudioName": "",
            "actionBefore": "",
            "actionWhile": "",
            "actionAfter": "",
            "optionIcon": ""
        },
        {
            "id": 740261049,
            "nextDialogs": [
                740261050
            ],
            "talkRole": {
                "type": "TALK_ROLE_NPC",
                "id": "21172"
            },
            "talkContentTextMapHash": 1912013682,
            "talkAssetPath": "",
            "talkAssetPathAlter": "",
            "talkAudioName": "",
            "actionBefore": "",
            "actionWhile": "",
            "actionAfter": "",
            "optionIcon": ""
        },
        {
            "id": 740261050,
            "nextDialogs": [
                740261051
            ],
            "talkRole": {
                "type": "TALK_ROLE_NPC",
                "id": "21172"
            },
            "talkContentTextMapHash": 2950783250,
            "talkAssetPath": "",
            "talkAssetPathAlter": "",
            "talkAudioName": "",
            "actionBefore": "",
            "actionWhile": "",
            "actionAfter": "",
            "optionIcon": ""
        },
        {
            "id": 740261051,
            "nextDialogs": [
                740261052
            ],
            "talkRole": {
                "type": "TALK_ROLE_NPC",
                "id": "1005"
            },
            "talkContentTextMapHash": 446413114,
            "talkAssetPath": "",
            "talkAssetPathAlter": "",
            "talkAudioName": "",
            "actionBefore": "",
            "actionWhile": "",
            "actionAfter": "",
            "optionIcon": ""
        },
        {
            "id": 740261052,
            "nextDialogs": [
                740261053
            ],
            "talkRole": {
                "type": "TALK_ROLE_NPC",
                "id": "1005"
            },
            "talkContentTextMapHash": 1839635890,
            "talkAssetPath": "",
            "talkAssetPathAlter": "",
            "talkAudioName": "",
            "actionBefore": "",
            "actionWhile": "",
            "actionAfter": "",
            "optionIcon": ""
        },
        {
            "id": 740261053,
            "nextDialogs": [
                740261054
            ],
            "talkShowType": "TALK_SHOW_FORCE_SELECT",
            "talkRole": {
                "type": "TALK_ROLE_PLAYER",
                "id": ""
            },
            "talkContentTextMapHash": 1589513906,
            "talkAssetPath": "",
            "talkAssetPathAlter": "",
            "talkAudioName": "",
            "actionBefore": "",
            "actionWhile": "",
            "actionAfter": "",
            "optionIcon": ""
        },
        {
            "id": 740261054,
            "nextDialogs": [
                740261055
            ],
            "talkRole": {
                "type": "TALK_ROLE_NPC",
                "id": "1005"
            },
            "talkContentTextMapHash": 2748640058,
            "talkAssetPath": "",
            "talkAssetPathAlter": "",
            "talkAudioName": "",
            "actionBefore": "",
            "actionWhile": "",
            "actionAfter": "",
            "optionIcon": ""
        },
        {
            "id": 740261055,
            "nextDialogs": [
                740261056
            ],
            "talkRole": {
                "type": "TALK_ROLE_NPC",
                "id": "1005"
            },
            "talkContentTextMapHash": 3377377850,
            "talkAssetPath": "",
            "talkAssetPathAlter": "",
            "talkAudioName": "",
            "actionBefore": "",
            "actionWhile": "",
            "actionAfter": "",
            "optionIcon": ""
        },
        {
            "id": 740261056,
            "nextDialogs": [
                740261057,
                740261058
            ],
            "talkRole": {
                "type": "TALK_ROLE_NPC",
                "id": "1005"
            },
            "talkContentTextMapHash": 2866360242,
            "talkAssetPath": "",
            "talkAssetPathAlter": "",
            "talkAudioName": "",
            "actionBefore": "",
            "actionWhile": "",
            "actionAfter": "",
            "optionIcon": ""
        },
        {
            "id": 740261057,
            "nextDialogs": [
                740261059
            ],
            "talkShowType": "TALK_SHOW_FORCE_SELECT",
            "talkRole": {
                "type": "TALK_ROLE_PLAYER",
                "id": ""
            },
            "talkContentTextMapHash": 1472623882,
            "talkAssetPath": "",
            "talkAssetPathAlter": "",
            "talkAudioName": "",
            "actionBefore": "",
            "actionWhile": "",
            "actionAfter": "",
            "optionIcon": ""
        },
        {
            "id": 740261059,
            "nextDialogs": [
                740261060
            ],
            "talkRole": {
                "type": "TALK_ROLE_NPC",
                "id": "1005"
            },
            "talkContentTextMapHash": 1981955018,
            "talkAssetPath": "",
            "talkAssetPathAlter": "",
            "talkAudioName": "",
            "actionBefore": "",
            "actionWhile": "",
            "actionAfter": "",
            "optionIcon": ""
        },
        {
            "id": 740261060,
            "nextDialogs": [
                740261061
            ],
            "talkShowType": "TALK_SHOW_FORCE_SELECT",
            "talkRole": {
                "type": "TALK_ROLE_PLAYER",
                "id": ""
            },
            "talkContentTextMapHash": 184403770,
            "talkAssetPath": "",
            "talkAssetPathAlter": "",
            "talkAudioName": "",
            "actionBefore": "",
            "actionWhile": "",
            "actionAfter": "",
            "optionIcon": ""
        },
        {
            "id": 740261061,
            "nextDialogs": [
                740261062
            ],
            "talkRole": {
                "type": "TALK_ROLE_NPC",
                "id": "21172"
            },
            "talkContentTextMapHash": 3435404218,
            "talkAssetPath": "",
            "talkAssetPathAlter": "",
            "talkAudioName": "",
            "actionBefore": "",
            "actionWhile": "",
            "actionAfter": "",
            "optionIcon": ""
        },
        {
            "id": 740261062,
            "nextDialogs": [
                740261063
            ],
            "talkRole": {
                "type": "TALK_ROLE_NPC",
                "id": "1005"
            },
            "talkContentTextMapHash": 3702496570,
            "talkAssetPath": "",
            "talkAssetPathAlter": "",
            "talkAudioName": "",
            "actionBefore": "",
            "actionWhile": "",
            "actionAfter": "",
            "optionIcon": ""
        },
        {
            "id": 740261063,
            "nextDialogs": [
                740261064
            ],
            "talkRole": {
                "type": "TALK_ROLE_NPC",
                "id": "21172"
            },
            "talkContentTextMapHash": 1703055034,
            "talkAssetPath": "",
            "talkAssetPathAlter": "",
            "talkAudioName": "",
            "actionBefore": "",
            "actionWhile": "",
            "actionAfter": "",
            "optionIcon": ""
        },
        {
            "id": 740261064,
            "talkRole": {
                "type": "TALK_ROLE_NPC",
                "id": "1005"
            },
            "talkContentTextMapHash": 3627034242,
            "talkAssetPath": "",
            "talkAssetPathAlter": "",
            "talkAudioName": "",
            "actionBefore": "",
            "actionWhile": "",
            "actionAfter": "",
            "optionIcon": ""
        },
        {
            "id": 740261058,
            "nextDialogs": [
                740261059
            ],
            "talkShowType": "TALK_SHOW_FORCE_SELECT",
            "talkRole": {
                "type": "TALK_ROLE_PLAYER",
                "id": ""
            },
            "talkContentTextMapHash": 2468800370,
            "talkAssetPath": "",
            "talkAssetPathAlter": "",
            "talkAudioName": "",
            "actionBefore": "",
            "actionWhile": "",
            "actionAfter": "",
            "optionIcon": ""
        }
    ]
}