{
    "talkId": 7402415,
    "dialogList": [
        {
            "id": 740241501,
            "nextDialogs": [
                740241502
            ],
            "talkRole": {
                "type": "TALK_ROLE_NPC",
                "id": "5316"
            },
            "talkContentTextMapHash": 2647642354,
            "talkAssetPath": "",
            "talkAssetPathAlter": "",
            "talkAudioName": "",
            "actionBefore": "",
            "actionWhile": "",
            "actionAfter": "",
            "optionIcon": ""
        },
        {
            "id": 740241502,
            "talkRole": {
                "type": "TALK_ROLE_NPC",
                "id": "1005"
            },
            "talkContentTextMapHash": 334673570,
            "talkAssetPath": "",
            "talkAssetPathAlter": "",
            "talkAudioName": "",
            "actionBefore": "",
            "actionWhile": "",
            "actionAfter": "",
            "optionIcon": ""
        }
    ]
}