{
    "talkId": 7402622,
    "dialogList": [
        {
            "id": 740262201,
            "nextDialogs": [
                740262202
            ],
            "talkRole": {
                "type": "TALK_ROLE_NPC",
                "id": "21072"
            },
            "talkContentTextMapHash": 2045372154,
            "talkAssetPath": "",
            "talkAssetPathAlter": "",
            "talkAudioName": "",
            "actionBefore": "",
            "actionWhile": "",
            "actionAfter": "",
            "optionIcon": ""
        },
        {
            "id": 740262202,
            "nextDialogs": [
                740262203
            ],
            "talkRole": {
                "type": "TALK_ROLE_NPC",
                "id": "21034"
            },
            "talkContentTextMapHash": 220555050,
            "talkAssetPath": "",
            "talkAssetPathAlter": "",
            "talkAudioName": "",
            "actionBefore": "",
            "actionWhile": "",
            "actionAfter": "",
            "optionIcon": ""
        },
        {
            "id": 740262203,
            "nextDialogs": [
                740262204
            ],
            "talkRole": {
                "type": "TALK_ROLE_NPC",
                "id": "21034"
            },
            "talkContentTextMapHash": 3644160666,
            "talkAssetPath": "",
            "talkAssetPathAlter": "",
            "talkAudioName": "",
            "actionBefore": "",
            "actionWhile": "",
            "actionAfter": "",
            "optionIcon": ""
        },
        {
            "id": 740262204,
            "nextDialogs": [
                740262205
            ],
            "talkRole": {
                "type": "TALK_ROLE_NPC",
                "id": "21034"
            },
            "talkContentTextMapHash": 703146922,
            "talkAssetPath": "",
            "talkAssetPathAlter": "",
            "talkAudioName": "",
            "actionBefore": "",
            "actionWhile": "",
            "actionAfter": "",
            "optionIcon": ""
        },
        {
            "id": 740262205,
            "nextDialogs": [
                740262206
            ],
            "talkRole": {
                "type": "TALK_ROLE_NPC",
                "id": "21034"
            },
            "talkContentTextMapHash": 2086314802,
            "talkAssetPath": "",
            "talkAssetPathAlter": "",
            "talkAudioName": "",
            "actionBefore": "",
            "actionWhile": "",
            "actionAfter": "",
            "optionIcon": ""
        },
        {
            "id": 740262206,
            "nextDialogs": [
                740262207
            ],
            "talkRole": {
                "type": "TALK_ROLE_NPC",
                "id": "21072"
            },
            "talkContentTextMapHash": 3013083658,
            "talkAssetPath": "",
            "talkAssetPathAlter": "",
            "talkAudioName": "",
            "actionBefore": "",
            "actionWhile": "",
            "actionAfter": "",
            "optionIcon": ""
        },
        {
            "id": 740262207,
            "nextDialogs": [
                740262208
            ],
            "talkRole": {
                "type": "TALK_ROLE_NPC",
                "id": "5248"
            },
            "talkContentTextMapHash": 1666660522,
            "talkAssetPath": "",
            "talkAssetPathAlter": "",
            "talkAudioName": "",
            "actionBefore": "",
            "actionWhile": "",
            "actionAfter": "",
            "optionIcon": ""
        },
        {
            "id": 740262208,
            "nextDialogs": [
                740262209,
                740262211
            ],
            "talkRole": {
                "type": "TALK_ROLE_NPC",
                "id": "1005"
            },
            "talkContentTextMapHash": 1856072874,
            "talkAssetPath": "",
            "talkAssetPathAlter": "",
            "talkAudioName": "",
            "actionBefore": "",
            "actionWhile": "",
            "actionAfter": "",
            "optionIcon": ""
        },
        {
            "id": 740262209,
            "nextDialogs": [
                740262210
            ],
            "talkShowType": "TALK_SHOW_FORCE_SELECT",
            "talkRole": {
                "type": "TALK_ROLE_PLAYER",
                "id": ""
            },
            "talkContentTextMapHash": 336806474,
            "talkAssetPath": "",
            "talkAssetPathAlter": "",
            "talkAudioName": "",
            "actionBefore": "",
            "actionWhile": "",
            "actionAfter": "",
            "optionIcon": ""
        },
        {
            "id": 740262210,
            "nextDialogs": [
                740262213
            ],
            "talkRole": {
                "type": "TALK_ROLE_NPC",
                "id": "5248"
            },
            "talkContentTextMapHash": 2669656466,
            "talkAssetPath": "",
            "talkAssetPathAlter": "",
            "talkAudioName": "",
            "actionBefore": "",
            "actionWhile": "",
            "actionAfter": "",
            "optionIcon": ""
        },
        {
            "id": 740262213,
            "nextDialogs": [
                740262214
            ],
            "talkRole": {
                "type": "TALK_ROLE_NPC",
                "id": "5248"
            },
            "talkContentTextMapHash": 1772737538,
            "talkAssetPath": "",
            "talkAssetPathAlter": "",
            "talkAudioName": "",
            "actionBefore": "",
            "actionWhile": "",
            "actionAfter": "",
            "optionIcon": ""
        },
        {
            "id": 740262214,
            "nextDialogs": [
                740262215
            ],
            "talkRole": {
                "type": "TALK_ROLE_NPC",
                "id": "5248"
            },
            "talkContentTextMapHash": 1819561418,
            "talkAssetPath": "",
            "talkAssetPathAlter": "",
            "talkAudioName": "",
            "actionBefore": "",
            "actionWhile": "",
            "actionAfter": "",
            "optionIcon": ""
        },
        {
            "id": 740262215,
            "nextDialogs": [
                740262216
            ],
            "talkRole": {
                "type": "TALK_ROLE_NPC",
                "id": "5248"
            },
            "talkContentTextMapHash": 1017043194,
            "talkAssetPath": "",
            "talkAssetPathAlter": "",
            "talkAudioName": "",
            "actionBefore": "",
            "actionWhile": "",
            "actionAfter": "",
            "optionIcon": ""
        },
        {
            "id": 740262216,
            "nextDialogs": [
                740262217
            ],
            "talkRole": {
                "type": "TALK_ROLE_NPC",
                "id": "5248"
            },
            "talkContentTextMapHash": 3596157810,
            "talkAssetPath": "",
            "talkAssetPathAlter": "",
            "talkAudioName": "",
            "actionBefore": "",
            "actionWhile": "",
            "actionAfter": "",
            "optionIcon": ""
        },
        {
            "id": 740262217,
            "nextDialogs": [
                740262218
            ],
            "talkRole": {
                "type": "TALK_ROLE_NPC",
                "id": "21172"
            },
            "talkContentTextMapHash": 3279099506,
            "talkAssetPath": "",
            "talkAssetPathAlter": "",
            "talkAudioName": "",
            "actionBefore": "",
            "actionWhile": "",
            "actionAfter": "",
            "optionIcon": ""
        },
        {
            "id": 740262218,
            "nextDialogs": [
                740262219
            ],
            "talkRole": {
                "type": "TALK_ROLE_NPC",
                "id": "5248"
            },
            "talkContentTextMapHash": 551473690,
            "talkAssetPath": "",
            "talkAssetPathAlter": "",
            "talkAudioName": "",
            "actionBefore": "",
            "actionWhile": "",
            "actionAfter": "",
            "optionIcon": ""
        },
        {
            "id": 740262219,
            "nextDialogs": [
                740262220
            ],
            "talkRole": {
                "type": "TALK_ROLE_BLACK_SCREEN",
                "id": ""
            },
            "talkContentTextMapHash": 309626650,
            "talkAssetPath": "",
            "talkAssetPathAlter": "",
            "talkAudioName": "",
            "actionBefore": "",
            "actionWhile": "",
            "actionAfter": "",
            "optionIcon": ""
        },
        {
            "id": 740262220,
            "nextDialogs": [
                740262221
            ],
            "talkRole": {
                "type": "TALK_ROLE_NPC",
                "id": "1005"
            },
            "talkContentTextMapHash": 1211392474,
            "talkAssetPath": "",
            "talkAssetPathAlter": "",
            "talkAudioName": "",
            "actionBefore": "",
            "actionWhile": "",
            "actionAfter": "",
            "optionIcon": ""
        },
        {
            "id": 740262221,
            "nextDialogs": [
                740262222,
                740262225
            ],
            "talkRole": {
                "type": "TALK_ROLE_NPC",
                "id": "21034"
            },
            "talkContentTextMapHash": 3195966026,
            "talkAssetPath": "",
            "talkAssetPathAlter": "",
            "talkAudioName": "",
            "actionBefore": "",
            "actionWhile": "",
            "actionAfter": "",
            "optionIcon": ""
        },
        {
            "id": 740262222,
            "nextDialogs": [
                740262223
            ],
            "talkShowType": "TALK_SHOW_FORCE_SELECT",
            "talkRole": {
                "type": "TALK_ROLE_PLAYER",
                "id": ""
            },
            "talkContentTextMapHash": 1942721266,
            "talkAssetPath": "",
            "talkAssetPathAlter": "",
            "talkAudioName": "",
            "actionBefore": "",
            "actionWhile": "",
            "actionAfter": "",
            "optionIcon": ""
        },
        {
            "id": 740262223,
            "nextDialogs": [
                740262224
            ],
            "talkRole": {
                "type": "TALK_ROLE_NPC",
                "id": "21034"
            },
            "talkContentTextMapHash": 286745826,
            "talkAssetPath": "",
            "talkAssetPathAlter": "",
            "talkAudioName": "",
            "actionBefore": "",
            "actionWhile": "",
            "actionAfter": "",
            "optionIcon": ""
        },
        {
            "id": 740262224,
            "nextDialogs": [
                740262227
            ],
            "talkRole": {
                "type": "TALK_ROLE_NPC",
                "id": "1005"
            },
            "talkContentTextMapHash": 3533067682,
            "talkAssetPath": "",
            "talkAssetPathAlter": "",
            "talkAudioName": "",
            "actionBefore": "",
            "actionWhile": "",
            "actionAfter": "",
            "optionIcon": ""
        },
        {
            "id": 740262227,
            "talkRole": {
                "type": "TALK_ROLE_NPC",
                "id": "21034"
            },
            "talkContentTextMapHash": 3777174402,
            "talkAssetPath": "",
            "talkAssetPathAlter": "",
            "talkAudioName": "",
            "actionBefore": "",
            "actionWhile": "",
            "actionAfter": "",
            "optionIcon": ""
        },
        {
            "id": 740262225,
            "nextDialogs": [
                740262226
            ],
            "talkShowType": "TALK_SHOW_FORCE_SELECT",
            "talkRole": {
                "type": "TALK_ROLE_PLAYER",
                "id": ""
            },
            "talkContentTextMapHash": 3583615082,
            "talkAssetPath": "",
            "talkAssetPathAlter": "",
            "talkAudioName": "",
            "actionBefore": "",
            "actionWhile": "",
            "actionAfter": "",
            "optionIcon": ""
        },
        {
            "id": 740262226,
            "nextDialogs": [
                740262227
            ],
            "talkRole": {
                "type": "TALK_ROLE_NPC",
                "id": "1005"
            },
            "talkContentTextMapHash": 773492826,
            "talkAssetPath": "",
            "talkAssetPathAlter": "",
            "talkAudioName": "",
            "actionBefore": "",
            "actionWhile": "",
            "actionAfter": "",
            "optionIcon": ""
        },
        {
            "id": 740262211,
            "nextDialogs": [
                740262212
            ],
            "talkShowType": "TALK_SHOW_FORCE_SELECT",
            "talkRole": {
                "type": "TALK_ROLE_PLAYER",
                "id": ""
            },
            "talkContentTextMapHash": 4069215114,
            "talkAssetPath": "",
            "talkAssetPathAlter": "",
            "talkAudioName": "",
            "actionBefore": "",
            "actionWhile": "",
            "actionAfter": "",
            "optionIcon": ""
        },
        {
            "id": 740262212,
            "nextDialogs": [
                740262213
            ],
            "talkRole": {
                "type": "TALK_ROLE_NPC",
                "id": "5248"
            },
            "talkContentTextMapHash": 2692465106,
            "talkAssetPath": "",
            "talkAssetPathAlter": "",
            "talkAudioName": "",
            "actionBefore": "",
            "actionWhile": "",
            "actionAfter": "",
            "optionIcon": ""
        }
    ]
}