{
    "talkId": 7403180,
    "dialogList": [
        {
            "id": 740318001,
            "nextDialogs": [
                740318002
            ],
            "talkRole": {
                "type": "TALK_ROLE_PLAYER",
                "id": ""
            },
            "talkContentTextMapHash": 2882946914,
            "talkAssetPath": "",
            "talkAssetPathAlter": "",
            "talkAudioName": "",
            "actionBefore": "",
            "actionWhile": "",
            "actionAfter": "",
            "optionIcon": ""
        },
        {
            "id": 740318002,
            "nextDialogs": [
                740318003
            ],
            "talkRole": {
                "type": "TALK_ROLE_NPC",
                "id": "5251"
            },
            "talkContentTextMapHash": 3415149858,
            "talkAssetPath": "",
            "talkAssetPathAlter": "",
            "talkAudioName": "",
            "actionBefore": "",
            "actionWhile": "",
            "actionAfter": "",
            "optionIcon": ""
        },
        {
            "id": 740318003,
            "talkRole": {
                "type": "TALK_ROLE_NPC",
                "id": "5251"
            },
            "talkContentTextMapHash": 3487050738,
            "talkAssetPath": "",
            "talkAssetPathAlter": "",
            "talkAudioName": "",
            "actionBefore": "",
            "actionWhile": "",
            "actionAfter": "",
            "optionIcon": ""
        }
    ]
}