{
    "talkId": 7404209,
    "dialogList": [
        {
            "id": 740420901,
            "nextDialogs": [
                740420902
            ],
            "talkShowType": "TALK_SHOW_FORCE_SELECT",
            "talkRole": {
                "type": "TALK_ROLE_PLAYER",
                "id": ""
            },
            "talkContentTextMapHash": 1214216970,
            "talkAssetPath": "",
            "talkAssetPathAlter": "",
            "talkAudioName": "",
            "actionBefore": "",
            "actionWhile": "",
            "actionAfter": "",
            "optionIcon": "UI_Icon_Quest_Once"
        },
        {
            "id": 740420902,
            "nextDialogs": [
                740420903
            ],
            "talkRole": {
                "type": "TALK_ROLE_NPC",
                "id": "5073"
            },
            "talkContentTextMapHash": 788983386,
            "talkAssetPath": "",
            "talkAssetPathAlter": "",
            "talkAudioName": "",
            "actionBefore": "",
            "actionWhile": "",
            "actionAfter": "",
            "optionIcon": ""
        },
        {
            "id": 740420903,
            "nextDialogs": [
                740420904
            ],
            "talkRole": {
                "type": "TALK_ROLE_NPC",
                "id": "1005"
            },
            "talkContentTextMapHash": 3899146538,
            "talkAssetPath": "",
            "talkAssetPathAlter": "",
            "talkAudioName": "",
            "actionBefore": "",
            "actionWhile": "",
            "actionAfter": "",
            "optionIcon": ""
        },
        {
            "id": 740420904,
            "nextDialogs": [
                740421001,
                740421101
            ],
            "talkRole": {
                "type": "TALK_ROLE_NPC",
                "id": "1005"
            },
            "talkContentTextMapHash": 1652110978,
            "talkAssetPath": "",
            "talkAssetPathAlter": "",
            "talkAudioName": "",
            "actionBefore": "",
            "actionWhile": "",
            "actionAfter": "",
            "optionIcon": ""
        },
        {
            "id": 740421001,
            "nextDialogs": [
                740421002
            ],
            "talkRole": {
                "type": "TALK_ROLE_PLAYER",
                "id": ""
            },
            "talkContentTextMapHash": 1551563178,
            "talkAssetPath": "",
            "talkAssetPathAlter": "",
            "talkAudioName": "",
            "actionBefore": "",
            "actionWhile": "",
            "actionAfter": "",
            "optionIcon": ""
        },
        {
            "id": 740421002,
            "nextDialogs": [
                740421003
            ],
            "talkRole": {
                "type": "TALK_ROLE_NPC",
                "id": "1005"
            },
            "talkContentTextMapHash": 3926304026,
            "talkAssetPath": "",
            "talkAssetPathAlter": "",
            "talkAudioName": "",
            "actionBefore": "",
            "actionWhile": "",
            "actionAfter": "",
            "optionIcon": ""
        },
        {
            "id": 740421003,
            "nextDialogs": [
                740421004
            ],
            "talkRole": {
                "type": "TALK_ROLE_NEED_CLICK_BLACK_SCREEN",
                "id": ""
            },
            "talkContentTextMapHash": 731471370,
            "talkAssetPath": "",
            "talkAssetPathAlter": "",
            "talkAudioName": "",
            "actionBefore": "",
            "actionWhile": "",
            "actionAfter": "",
            "optionIcon": ""
        },
        {
            "id": 740421004,
            "nextDialogs": [
                740421005
            ],
            "talkRole": {
                "type": "TALK_ROLE_NEED_CLICK_BLACK_SCREEN",
                "id": ""
            },
            "talkContentTextMapHash": 3809219538,
            "talkAssetPath": "",
            "talkAssetPathAlter": "",
            "talkAudioName": "",
            "actionBefore": "",
            "actionWhile": "",
            "actionAfter": "",
            "optionIcon": ""
        },
        {
            "id": 740421005,
            "nextDialogs": [
                740421006
            ],
            "talkRole": {
                "type": "TALK_ROLE_NEED_CLICK_BLACK_SCREEN",
                "id": ""
            },
            "talkContentTextMapHash": 3101266802,
            "talkAssetPath": "",
            "talkAssetPathAlter": "",
            "talkAudioName": "",
            "actionBefore": "",
            "actionWhile": "",
            "actionAfter": "",
            "optionIcon": ""
        },
        {
            "id": 740421006,
            "nextDialogs": [
                740421007
            ],
            "talkRole": {
                "type": "TALK_ROLE_NPC",
                "id": "5073"
            },
            "talkContentTextMapHash": 3146300282,
            "talkAssetPath": "",
            "talkAssetPathAlter": "",
            "talkAudioName": "",
            "actionBefore": "",
            "actionWhile": "",
            "actionAfter": "",
            "optionIcon": ""
        },
        {
            "id": 740421007,
            "nextDialogs": [
                740421008
            ],
            "talkRole": {
                "type": "TALK_ROLE_NPC",
                "id": "5073"
            },
            "talkContentTextMapHash": 3209989458,
            "talkAssetPath": "",
            "talkAssetPathAlter": "",
            "talkAudioName": "",
            "actionBefore": "",
            "actionWhile": "",
            "actionAfter": "",
            "optionIcon": ""
        },
        {
            "id": 740421008,
            "nextDialogs": [
                740421009
            ],
            "talkRole": {
                "type": "TALK_ROLE_NPC",
                "id": "5073"
            },
            "talkContentTextMapHash": 1381655234,
            "talkAssetPath": "",
            "talkAssetPathAlter": "",
            "talkAudioName": "",
            "actionBefore": "",
            "actionWhile": "",
            "actionAfter": "",
            "optionIcon": ""
        },
        {
            "id": 740421009,
            "nextDialogs": [
                740421010
            ],
            "talkRole": {
                "type": "TALK_ROLE_NPC",
                "id": "5073"
            },
            "talkContentTextMapHash": 3704006578,
            "talkAssetPath": "",
            "talkAssetPathAlter": "",
            "talkAudioName": "",
            "actionBefore": "",
            "actionWhile": "",
            "actionAfter": "",
            "optionIcon": ""
        },
        {
            "id": 740421010,
            "nextDialogs": [
                740421011,
                740421012
            ],
            "talkRole": {
                "type": "TALK_ROLE_NPC",
                "id": "5073"
            },
            "talkContentTextMapHash": 4059647722,
            "talkAssetPath": "",
            "talkAssetPathAlter": "",
            "talkAudioName": "",
            "actionBefore": "",
            "actionWhile": "",
            "actionAfter": "",
            "optionIcon": ""
        },
        {
            "id": 740421011,
            "nextDialogs": [
                740421013
            ],
            "talkRole": {
                "type": "TALK_ROLE_PLAYER",
                "id": ""
            },
            "talkContentTextMapHash": 2705716746,
            "talkAssetPath": "",
            "talkAssetPathAlter": "",
            "talkAudioName": "",
            "actionBefore": "",
            "actionWhile": "",
            "actionAfter": "",
            "optionIcon": ""
        },
        {
            "id": 740421013,
            "nextDialogs": [
                740421014
            ],
            "talkRole": {
                "type": "TALK_ROLE_NPC",
                "id": "1005"
            },
            "talkContentTextMapHash": 2902804874,
            "talkAssetPath": "",
            "talkAssetPathAlter": "",
            "talkAudioName": "",
            "actionBefore": "",
            "actionWhile": "",
            "actionAfter": "",
            "optionIcon": ""
        },
        {
            "id": 740421014,
            "nextDialogs": [
                740421015,
                740421016
            ],
            "talkRole": {
                "type": "TALK_ROLE_NPC",
                "id": "1005"
            },
            "talkContentTextMapHash": 2657663098,
            "talkAssetPath": "",
            "talkAssetPathAlter": "",
            "talkAudioName": "",
            "actionBefore": "",
            "actionWhile": "",
            "actionAfter": "",
            "optionIcon": ""
        },
        {
            "id": 740421015,
            "nextDialogs": [
                740421017
            ],
            "talkRole": {
                "type": "TALK_ROLE_PLAYER",
                "id": ""
            },
            "talkContentTextMapHash": 4166193690,
            "talkAssetPath": "",
            "talkAssetPathAlter": "",
            "talkAudioName": "",
            "actionBefore": "",
            "actionWhile": "",
            "actionAfter": "",
            "optionIcon": ""
        },
        {
            "id": 740421017,
            "nextDialogs": [
                740421018
            ],
            "talkRole": {
                "type": "TALK_ROLE_NPC",
                "id": "5073"
            },
            "talkContentTextMapHash": 1953895306,
            "talkAssetPath": "",
            "talkAssetPathAlter": "",
            "talkAudioName": "",
            "actionBefore": "",
            "actionWhile": "",
            "actionAfter": "",
            "optionIcon": ""
        },
        {
            "id": 740421018,
            "nextDialogs": [
                740421019
            ],
            "talkRole": {
                "type": "TALK_ROLE_NPC",
                "id": "5073"
            },
            "talkContentTextMapHash": 859674194,
            "talkAssetPath": "",
            "talkAssetPathAlter": "",
            "talkAudioName": "",
            "actionBefore": "",
            "actionWhile": "",
            "actionAfter": "",
            "optionIcon": ""
        },
        {
            "id": 740421019,
            "nextDialogs": [
                740421020
            ],
            "talkRole": {
                "type": "TALK_ROLE_NPC",
                "id": "1005"
            },
            "talkContentTextMapHash": 1451891122,
            "talkAssetPath": "",
            "talkAssetPathAlter": "",
            "talkAudioName": "",
            "actionBefore": "",
            "actionWhile": "",
            "actionAfter": "",
            "optionIcon": ""
        },
        {
            "id": 740421020,
            "nextDialogs": [
                740421021
            ],
            "talkRole": {
                "type": "TALK_ROLE_NPC",
                "id": "1005"
            },
            "talkContentTextMapHash": 1990286434,
            "talkAssetPath": "",
            "talkAssetPathAlter": "",
            "talkAudioName": "",
            "actionBefore": "",
            "actionWhile": "",
            "actionAfter": "",
            "optionIcon": ""
        },
        {
            "id": 740421021,
            "nextDialogs": [
                740421022
            ],
            "talkRole": {
                "type": "TALK_ROLE_NPC",
                "id": "5073"
            },
            "talkContentTextMapHash": 1200347802,
            "talkAssetPath": "",
            "talkAssetPathAlter": "",
            "talkAudioName": "",
            "actionBefore": "",
            "actionWhile": "",
            "actionAfter": "",
            "optionIcon": ""
        },
        {
            "id": 740421022,
            "nextDialogs": [
                740421023
            ],
            "talkRole": {
                "type": "TALK_ROLE_NPC",
                "id": "5073"
            },
            "talkContentTextMapHash": 3825118170,
            "talkAssetPath": "",
            "talkAssetPathAlter": "",
            "talkAudioName": "",
            "actionBefore": "",
            "actionWhile": "",
            "actionAfter": "",
            "optionIcon": ""
        },
        {
            "id": 740421023,
            "talkRole": {
                "type": "TALK_ROLE_NPC",
                "id": "5073"
            },
            "talkContentTextMapHash": 454198842,
            "talkAssetPath": "",
            "talkAssetPathAlter": "",
            "talkAudioName": "",
            "actionBefore": "",
            "actionWhile": "",
            "actionAfter": "",
            "optionIcon": ""
        },
        {
            "id": 740421016,
            "nextDialogs": [
                740421017
            ],
            "talkRole": {
                "type": "TALK_ROLE_PLAYER",
                "id": ""
            },
            "talkContentTextMapHash": 861620946,
            "talkAssetPath": "",
            "talkAssetPathAlter": "",
            "talkAudioName": "",
            "actionBefore": "",
            "actionWhile": "",
            "actionAfter": "",
            "optionIcon": ""
        },
        {
            "id": 740421012,
            "nextDialogs": [
                740421013
            ],
            "talkRole": {
                "type": "TALK_ROLE_PLAYER",
                "id": ""
            },
            "talkContentTextMapHash": 807787754,
            "talkAssetPath": "",
            "talkAssetPathAlter": "",
            "talkAudioName": "",
            "actionBefore": "",
            "actionWhile": "",
            "actionAfter": "",
            "optionIcon": ""
        },
        {
            "id": 740421101,
            "nextDialogs": [
                740421102
            ],
            "talkRole": {
                "type": "TALK_ROLE_PLAYER",
                "id": ""
            },
            "talkContentTextMapHash": 1645324050,
            "talkAssetPath": "",
            "talkAssetPathAlter": "",
            "talkAudioName": "",
            "actionBefore": "",
            "actionWhile": "",
            "actionAfter": "",
            "optionIcon": ""
        },
        {
            "id": 740421102,
            "nextDialogs": [
                740421103
            ],
            "talkRole": {
                "type": "TALK_ROLE_NPC",
                "id": "1005"
            },
            "talkContentTextMapHash": 3155161618,
            "talkAssetPath": "",
            "talkAssetPathAlter": "",
            "talkAudioName": "",
            "actionBefore": "",
            "actionWhile": "",
            "actionAfter": "",
            "optionIcon": ""
        },
        {
            "id": 740421103,
            "nextDialogs": [
                740421104
            ],
            "talkRole": {
                "type": "TALK_ROLE_NEED_CLICK_BLACK_SCREEN",
                "id": ""
            },
            "talkContentTextMapHash": 2703299098,
            "talkAssetPath": "",
            "talkAssetPathAlter": "",
            "talkAudioName": "",
            "actionBefore": "",
            "actionWhile": "",
            "actionAfter": "",
            "optionIcon": ""
        },
        {
            "id": 740421104,
            "nextDialogs": [
                740421105
            ],
            "talkRole": {
                "type": "TALK_ROLE_NEED_CLICK_BLACK_SCREEN",
                "id": ""
            },
            "talkContentTextMapHash": 1851028154,
            "talkAssetPath": "",
            "talkAssetPathAlter": "",
            "talkAudioName": "",
            "actionBefore": "",
            "actionWhile": "",
            "actionAfter": "",
            "optionIcon": ""
        },
        {
            "id": 740421105,
            "nextDialogs": [
                740421106
            ],
            "talkRole": {
                "type": "TALK_ROLE_NEED_CLICK_BLACK_SCREEN",
                "id": ""
            },
            "talkContentTextMapHash": 3068949450,
            "talkAssetPath": "",
            "talkAssetPathAlter": "",
            "talkAudioName": "",
            "actionBefore": "",
            "actionWhile": "",
            "actionAfter": "",
            "optionIcon": ""
        },
        {
            "id": 740421106,
            "nextDialogs": [
                740421107
            ],
            "talkRole": {
                "type": "TALK_ROLE_NPC",
                "id": "1005"
            },
            "talkContentTextMapHash": 1663695314,
            "talkAssetPath": "",
            "talkAssetPathAlter": "",
            "talkAudioName": "",
            "actionBefore": "",
            "actionWhile": "",
            "actionAfter": "",
            "optionIcon": ""
        },
        {
            "id": 740421107,
            "nextDialogs": [
                740421108
            ],
            "talkRole": {
                "type": "TALK_ROLE_NPC",
                "id": "5073"
            },
            "talkContentTextMapHash": 889669994,
            "talkAssetPath": "",
            "talkAssetPathAlter": "",
            "talkAudioName": "",
            "actionBefore": "",
            "actionWhile": "",
            "actionAfter": "",
            "optionIcon": ""
        },
        {
            "id": 740421108,
            "nextDialogs": [
                740421109
            ],
            "talkRole": {
                "type": "TALK_ROLE_NPC",
                "id": "5073"
            },
            "talkContentTextMapHash": 3675961810,
            "talkAssetPath": "",
            "talkAssetPathAlter": "",
            "talkAudioName": "",
            "actionBefore": "",
            "actionWhile": "",
            "actionAfter": "",
            "optionIcon": ""
        },
        {
            "id": 740421109,
            "nextDialogs": [
                740421110
            ],
            "talkRole": {
                "type": "TALK_ROLE_NPC",
                "id": "5073"
            },
            "talkContentTextMapHash": 15491770,
            "talkAssetPath": "",
            "talkAssetPathAlter": "",
            "talkAudioName": "",
            "actionBefore": "",
            "actionWhile": "",
            "actionAfter": "",
            "optionIcon": ""
        },
        {
            "id": 740421110,
            "nextDialogs": [
                740421111
            ],
            "talkRole": {
                "type": "TALK_ROLE_NPC",
                "id": "1005"
            },
            "talkContentTextMapHash": 138892162,
            "talkAssetPath": "",
            "talkAssetPathAlter": "",
            "talkAudioName": "",
            "actionBefore": "",
            "actionWhile": "",
            "actionAfter": "",
            "optionIcon": ""
        },
        {
            "id": 740421111,
            "nextDialogs": [
                740421112,
                740421113
            ],
            "talkRole": {
                "type": "TALK_ROLE_NPC",
                "id": "1005"
            },
            "talkContentTextMapHash": 3152837898,
            "talkAssetPath": "",
            "talkAssetPathAlter": "",
            "talkAudioName": "",
            "actionBefore": "",
            "actionWhile": "",
            "actionAfter": "",
            "optionIcon": ""
        },
        {
            "id": 740421112,
            "nextDialogs": [
                740421114
            ],
            "talkRole": {
                "type": "TALK_ROLE_PLAYER",
                "id": ""
            },
            "talkContentTextMapHash": 3567606594,
            "talkAssetPath": "",
            "talkAssetPathAlter": "",
            "talkAudioName": "",
            "actionBefore": "",
            "actionWhile": "",
            "actionAfter": "",
            "optionIcon": ""
        },
        {
            "id": 740421114,
            "nextDialogs": [
                740421115
            ],
            "talkRole": {
                "type": "TALK_ROLE_NPC",
                "id": "5073"
            },
            "talkContentTextMapHash": 1398340874,
            "talkAssetPath": "",
            "talkAssetPathAlter": "",
            "talkAudioName": "",
            "actionBefore": "",
            "actionWhile": "",
            "actionAfter": "",
            "optionIcon": ""
        },
        {
            "id": 740421115,
            "nextDialogs": [
                740421116
            ],
            "talkRole": {
                "type": "TALK_ROLE_NPC",
                "id": "5073"
            },
            "talkContentTextMapHash": 4229451978,
            "talkAssetPath": "",
            "talkAssetPathAlter": "",
            "talkAudioName": "",
            "actionBefore": "",
            "actionWhile": "",
            "actionAfter": "",
            "optionIcon": ""
        },
        {
            "id": 740421116,
            "nextDialogs": [
                740421117
            ],
            "talkRole": {
                "type": "TALK_ROLE_NPC",
                "id": "1005"
            },
            "talkContentTextMapHash": 3505490986,
            "talkAssetPath": "",
            "talkAssetPathAlter": "",
            "talkAudioName": "",
            "actionBefore": "",
            "actionWhile": "",
            "actionAfter": "",
            "optionIcon": ""
        },
        {
            "id": 740421117,
            "nextDialogs": [
                740421118
            ],
            "talkRole": {
                "type": "TALK_ROLE_NPC",
                "id": "1005"
            },
            "talkContentTextMapHash": 4044706330,
            "talkAssetPath": "",
            "talkAssetPathAlter": "",
            "talkAudioName": "",
            "actionBefore": "",
            "actionWhile": "",
            "actionAfter": "",
            "optionIcon": ""
        },
        {
            "id": 740421118,
            "nextDialogs": [
                740421119
            ],
            "talkRole": {
                "type": "TALK_ROLE_NPC",
                "id": "5073"
            },
            "talkContentTextMapHash": 3417460938,
            "talkAssetPath": "",
            "talkAssetPathAlter": "",
            "talkAudioName": "",
            "actionBefore": "",
            "actionWhile": "",
            "actionAfter": "",
            "optionIcon": ""
        },
        {
            "id": 740421119,
            "nextDialogs": [
                740421120
            ],
            "talkRole": {
                "type": "TALK_ROLE_NPC",
                "id": "5073"
            },
            "talkContentTextMapHash": 1602908090,
            "talkAssetPath": "",
            "talkAssetPathAlter": "",
            "talkAudioName": "",
            "actionBefore": "",
            "actionWhile": "",
            "actionAfter": "",
            "optionIcon": ""
        },
        {
            "id": 740421120,
            "talkRole": {
                "type": "TALK_ROLE_NPC",
                "id": "5073"
            },
            "talkContentTextMapHash": 4213058594,
            "talkAssetPath": "",
            "talkAssetPathAlter": "",
            "talkAudioName": "",
            "actionBefore": "",
            "actionWhile": "",
            "actionAfter": "",
            "optionIcon": ""
        },
        {
            "id": 740421113,
            "nextDialogs": [
                740421114
            ],
            "talkRole": {
                "type": "TALK_ROLE_PLAYER",
                "id": ""
            },
            "talkContentTextMapHash": 223214986,
            "talkAssetPath": "",
            "talkAssetPathAlter": "",
            "talkAudioName": "",
            "actionBefore": "",
            "actionWhile": "",
            "actionAfter": "",
            "optionIcon": ""
        }
    ]
}