{
    "talkId": 7404904,
    "dialogList": [
        {
            "id": 740490401,
            "talkRole": {
                "type": "TALK_ROLE_NPC",
                "id": "5315"
            },
            "talkContentTextMapHash": 3935490722,
            "talkAssetPath": "",
            "talkAssetPathAlter": "",
            "talkAudioName": "",
            "actionBefore": "",
            "actionWhile": "",
            "actionAfter": "",
            "optionIcon": ""
        }
    ]
}