{
    "talkId": 7404008,
    "dialogList": [
        {
            "id": 740400801,
            "nextDialogs": [
                740400802
            ],
            "talkRole": {
                "type": "TALK_ROLE_NPC",
                "id": "21070"
            },
            "talkContentTextMapHash": 2604398026,
            "talkAssetPath": "",
            "talkAssetPathAlter": "",
            "talkAudioName": "",
            "actionBefore": "",
            "actionWhile": "",
            "actionAfter": "",
            "optionIcon": ""
        },
        {
            "id": 740400802,
            "nextDialogs": [
                740400803
            ],
            "talkRole": {
                "type": "TALK_ROLE_NPC",
                "id": "21070"
            },
            "talkContentTextMapHash": 1057499818,
            "talkAssetPath": "",
            "talkAssetPathAlter": "",
            "talkAudioName": "",
            "actionBefore": "",
            "actionWhile": "",
            "actionAfter": "",
            "optionIcon": ""
        },
        {
            "id": 740400803,
            "nextDialogs": [
                740400804
            ],
            "talkRole": {
                "type": "TALK_ROLE_NPC",
                "id": "21070"
            },
            "talkContentTextMapHash": 1505220858,
            "talkAssetPath": "",
            "talkAssetPathAlter": "",
            "talkAudioName": "",
            "actionBefore": "",
            "actionWhile": "",
            "actionAfter": "",
            "optionIcon": ""
        },
        {
            "id": 740400804,
            "nextDialogs": [
                740400805
            ],
            "talkRole": {
                "type": "TALK_ROLE_NPC",
                "id": "21070"
            },
            "talkContentTextMapHash": 4292466922,
            "talkAssetPath": "",
            "talkAssetPathAlter": "",
            "talkAudioName": "",
            "actionBefore": "",
            "actionWhile": "",
            "actionAfter": "",
            "optionIcon": ""
        },
        {
            "id": 740400805,
            "talkRole": {
                "type": "TALK_ROLE_NPC",
                "id": "21070"
            },
            "talkContentTextMapHash": 2746277266,
            "talkAssetPath": "",
            "talkAssetPathAlter": "",
            "talkAudioName": "",
            "actionBefore": "",
            "actionWhile": "",
            "actionAfter": "",
            "optionIcon": ""
        }
    ]
}