{
    "talkId": 7406037,
    "dialogList": [
        {
            "id": 740603701,
            "talkRole": {
                "type": "TALK_ROLE_NPC",
                "id": "5262"
            },
            "talkContentTextMapHash": 1399425466,
            "talkAssetPath": "",
            "talkAssetPathAlter": "",
            "talkAudioName": "",
            "actionBefore": "",
            "actionWhile": "",
            "actionAfter": "",
            "optionIcon": ""
        }
    ]
}