{
    "talkId": 7407707,
    "dialogList": [
        {
            "id": 740770701,
            "nextDialogs": [
                740770702
            ],
            "talkRole": {
                "type": "TALK_ROLE_NPC",
                "id": "21048"
            },
            "talkContentTextMapHash": 2287552250,
            "talkAssetPath": "",
            "talkAssetPathAlter": "",
            "talkAudioName": "",
            "actionBefore": "",
            "actionWhile": "",
            "actionAfter": "",
            "optionIcon": ""
        },
        {
            "id": 740770702,
            "nextDialogs": [
                740770703
            ],
            "talkShowType": "TALK_SHOW_FORCE_SELECT",
            "talkRole": {
                "type": "TALK_ROLE_PLAYER",
                "id": ""
            },
            "talkContentTextMapHash": 3385059538,
            "talkAssetPath": "",
            "talkAssetPathAlter": "",
            "talkAudioName": "",
            "actionBefore": "",
            "actionWhile": "",
            "actionAfter": "",
            "optionIcon": ""
        },
        {
            "id": 740770703,
            "nextDialogs": [
                740770704
            ],
            "talkRole": {
                "type": "TALK_ROLE_NPC",
                "id": "21048"
            },
            "talkContentTextMapHash": 4191068050,
            "talkAssetPath": "",
            "talkAssetPathAlter": "",
            "talkAudioName": "",
            "actionBefore": "",
            "actionWhile": "",
            "actionAfter": "",
            "optionIcon": ""
        },
        {
            "id": 740770704,
            "nextDialogs": [
                740770705
            ],
            "talkShowType": "TALK_SHOW_FORCE_SELECT",
            "talkRole": {
                "type": "TALK_ROLE_PLAYER",
                "id": ""
            },
            "talkContentTextMapHash": 2586208962,
            "talkAssetPath": "",
            "talkAssetPathAlter": "",
            "talkAudioName": "",
            "actionBefore": "",
            "actionWhile": "",
            "actionAfter": "",
            "optionIcon": ""
        },
        {
            "id": 740770705,
            "nextDialogs": [
                740770706
            ],
            "talkShowType": "TALK_SHOW_FORCE_SELECT",
            "talkRole": {
                "type": "TALK_ROLE_PLAYER",
                "id": ""
            },
            "talkContentTextMapHash": 4152188162,
            "talkAssetPath": "",
            "talkAssetPathAlter": "",
            "talkAudioName": "",
            "actionBefore": "",
            "actionWhile": "",
            "actionAfter": "",
            "optionIcon": ""
        },
        {
            "id": 740770706,
            "nextDialogs": [
                740770707
            ],
            "talkRole": {
                "type": "TALK_ROLE_NPC",
                "id": "21048"
            },
            "talkContentTextMapHash": 491061978,
            "talkAssetPath": "",
            "talkAssetPathAlter": "",
            "talkAudioName": "",
            "actionBefore": "",
            "actionWhile": "",
            "actionAfter": "",
            "optionIcon": ""
        },
        {
            "id": 740770707,
            "nextDialogs": [
                740770708
            ],
            "talkRole": {
                "type": "TALK_ROLE_NPC",
                "id": "21048"
            },
            "talkContentTextMapHash": 1439538762,
            "talkAssetPath": "",
            "talkAssetPathAlter": "",
            "talkAudioName": "",
            "actionBefore": "",
            "actionWhile": "",
            "actionAfter": "",
            "optionIcon": ""
        },
        {
            "id": 740770708,
            "nextDialogs": [
                740770709
            ],
            "talkRole": {
                "type": "TALK_ROLE_NPC",
                "id": "21048"
            },
            "talkContentTextMapHash": 1655777002,
            "talkAssetPath": "",
            "talkAssetPathAlter": "",
            "talkAudioName": "",
            "actionBefore": "",
            "actionWhile": "",
            "actionAfter": "",
            "optionIcon": ""
        },
        {
            "id": 740770709,
            "nextDialogs": [
                740770710
            ],
            "talkShowType": "TALK_SHOW_FORCE_SELECT",
            "talkRole": {
                "type": "TALK_ROLE_PLAYER",
                "id": ""
            },
            "talkContentTextMapHash": 3293886354,
            "talkAssetPath": "",
            "talkAssetPathAlter": "",
            "talkAudioName": "",
            "actionBefore": "",
            "actionWhile": "",
            "actionAfter": "",
            "optionIcon": ""
        },
        {
            "id": 740770710,
            "talkRole": {
                "type": "TALK_ROLE_NPC",
                "id": "21048"
            },
            "talkContentTextMapHash": 3173686466,
            "talkAssetPath": "",
            "talkAssetPathAlter": "",
            "talkAudioName": "",
            "actionBefore": "",
            "actionWhile": "",
            "actionAfter": "",
            "optionIcon": ""
        }
    ]
}