{
    "talkId": 7410010,
    "dialogList": [
        {
            "id": 741001001,
            "talkRole": {
                "type": "TALK_ROLE_NPC",
                "id": "20995"
            },
            "talkContentTextMapHash": 645071218,
            "talkAssetPath": "",
            "talkAssetPathAlter": "",
            "talkAudioName": "",
            "actionBefore": "",
            "actionWhile": "",
            "actionAfter": "",
            "optionIcon": ""
        }
    ]
}