{
    "talkId": 7411401,
    "dialogList": [
        {
            "id": 741140101,
            "nextDialogs": [
                741140102
            ],
            "talkRole": {
                "type": "TALK_ROLE_NPC",
                "id": "13489"
            },
            "talkContentTextMapHash": 2702745602,
            "talkAssetPath": "",
            "talkAssetPathAlter": "",
            "talkAudioName": "",
            "actionBefore": "",
            "actionWhile": "",
            "actionAfter": "",
            "optionIcon": ""
        },
        {
            "id": 741140102,
            "nextDialogs": [
                741140103
            ],
            "talkRole": {
                "type": "TALK_ROLE_NPC",
                "id": "13490"
            },
            "talkContentTextMapHash": 2402367914,
            "talkAssetPath": "",
            "talkAssetPathAlter": "",
            "talkAudioName": "",
            "actionBefore": "",
            "actionWhile": "",
            "actionAfter": "",
            "optionIcon": ""
        },
        {
            "id": 741140103,
            "nextDialogs": [
                741140104
            ],
            "talkRole": {
                "type": "TALK_ROLE_NPC",
                "id": "13491"
            },
            "talkContentTextMapHash": 306551954,
            "talkAssetPath": "",
            "talkAssetPathAlter": "",
            "talkAudioName": "",
            "actionBefore": "",
            "actionWhile": "",
            "actionAfter": "",
            "optionIcon": ""
        },
        {
            "id": 741140104,
            "nextDialogs": [
                741140105
            ],
            "talkRole": {
                "type": "TALK_ROLE_NPC",
                "id": "13489"
            },
            "talkContentTextMapHash": 3853741626,
            "talkAssetPath": "",
            "talkAssetPathAlter": "",
            "talkAudioName": "",
            "actionBefore": "",
            "actionWhile": "",
            "actionAfter": "",
            "optionIcon": ""
        },
        {
            "id": 741140105,
            "nextDialogs": [
                741140106
            ],
            "talkRole": {
                "type": "TALK_ROLE_NPC",
                "id": "13491"
            },
            "talkContentTextMapHash": 1456641210,
            "talkAssetPath": "",
            "talkAssetPathAlter": "",
            "talkAudioName": "",
            "actionBefore": "",
            "actionWhile": "",
            "actionAfter": "",
            "optionIcon": ""
        },
        {
            "id": 741140106,
            "nextDialogs": [
                741140107
            ],
            "talkRole": {
                "type": "TALK_ROLE_NPC",
                "id": "13490"
            },
            "talkContentTextMapHash": 3216798834,
            "talkAssetPath": "",
            "talkAssetPathAlter": "",
            "talkAudioName": "",
            "actionBefore": "",
            "actionWhile": "",
            "actionAfter": "",
            "optionIcon": ""
        },
        {
            "id": 741140107,
            "nextDialogs": [
                741140108,
                741140109
            ],
            "talkRole": {
                "type": "TALK_ROLE_NPC",
                "id": "13489"
            },
            "talkContentTextMapHash": 2280133570,
            "talkAssetPath": "",
            "talkAssetPathAlter": "",
            "talkAudioName": "",
            "actionBefore": "",
            "actionWhile": "",
            "actionAfter": "",
            "optionIcon": ""
        },
        {
            "id": 741140108,
            "nextDialogs": [
                741140110
            ],
            "talkShowType": "TALK_SHOW_FORCE_SELECT",
            "talkRole": {
                "type": "TALK_ROLE_PLAYER",
                "id": ""
            },
            "talkContentTextMapHash": 2841779138,
            "talkAssetPath": "",
            "talkAssetPathAlter": "",
            "talkAudioName": "",
            "actionBefore": "",
            "actionWhile": "",
            "actionAfter": "",
            "optionIcon": ""
        },
        {
            "id": 741140110,
            "nextDialogs": [
                741140111
            ],
            "talkRole": {
                "type": "TALK_ROLE_NPC",
                "id": "13489"
            },
            "talkContentTextMapHash": 3092916066,
            "talkAssetPath": "",
            "talkAssetPathAlter": "",
            "talkAudioName": "",
            "actionBefore": "",
            "actionWhile": "",
            "actionAfter": "",
            "optionIcon": ""
        },
        {
            "id": 741140111,
            "nextDialogs": [
                741140112
            ],
            "talkRole": {
                "type": "TALK_ROLE_NPC",
                "id": "13489"
            },
            "talkContentTextMapHash": 2161358242,
            "talkAssetPath": "",
            "talkAssetPathAlter": "",
            "talkAudioName": "",
            "actionBefore": "",
            "actionWhile": "",
            "actionAfter": "",
            "optionIcon": ""
        },
        {
            "id": 741140112,
            "nextDialogs": [
                741140113
            ],
            "talkShowType": "TALK_SHOW_FORCE_SELECT",
            "talkRole": {
                "type": "TALK_ROLE_PLAYER",
                "id": ""
            },
            "talkContentTextMapHash": 4259534138,
            "talkAssetPath": "",
            "talkAssetPathAlter": "",
            "talkAudioName": "",
            "actionBefore": "",
            "actionWhile": "",
            "actionAfter": "",
            "optionIcon": ""
        },
        {
            "id": 741140113,
            "nextDialogs": [
                741140114
            ],
            "talkRole": {
                "type": "TALK_ROLE_NPC",
                "id": "13491"
            },
            "talkContentTextMapHash": 3357880562,
            "talkAssetPath": "",
            "talkAssetPathAlter": "",
            "talkAudioName": "",
            "actionBefore": "",
            "actionWhile": "",
            "actionAfter": "",
            "optionIcon": ""
        },
        {
            "id": 741140114,
            "nextDialogs": [
                741140115
            ],
            "talkRole": {
                "type": "TALK_ROLE_NPC",
                "id": "13490"
            },
            "talkContentTextMapHash": 590590522,
            "talkAssetPath": "",
            "talkAssetPathAlter": "",
            "talkAudioName": "",
            "actionBefore": "",
            "actionWhile": "",
            "actionAfter": "",
            "optionIcon": ""
        },
        {
            "id": 741140115,
            "nextDialogs": [
                741140116
            ],
            "talkRole": {
                "type": "TALK_ROLE_NPC",
                "id": "13489"
            },
            "talkContentTextMapHash": 1724945026,
            "talkAssetPath": "",
            "talkAssetPathAlter": "",
            "talkAudioName": "",
            "actionBefore": "",
            "actionWhile": "",
            "actionAfter": "",
            "optionIcon": ""
        },
        {
            "id": 741140116,
            "talkRole": {
                "type": "TALK_ROLE_NPC",
                "id": "13489"
            },
            "talkContentTextMapHash": 2455883850,
            "talkAssetPath": "",
            "talkAssetPathAlter": "",
            "talkAudioName": "",
            "actionBefore": "",
            "actionWhile": "",
            "actionAfter": "",
            "optionIcon": ""
        },
        {
            "id": 741140109,
            "nextDialogs": [
                741140110
            ],
            "talkShowType": "TALK_SHOW_FORCE_SELECT",
            "talkRole": {
                "type": "TALK_ROLE_PLAYER",
                "id": ""
            },
            "talkContentTextMapHash": 143019154,
            "talkAssetPath": "",
            "talkAssetPathAlter": "",
            "talkAudioName": "",
            "actionBefore": "",
            "actionWhile": "",
            "actionAfter": "",
            "optionIcon": ""
        }
    ]
}