{
    "talkId": 7411601,
    "dialogList": [
        {
            "id": 741160101,
            "nextDialogs": [
                741160102
            ],
            "talkRole": {
                "type": "TALK_ROLE_NPC",
                "id": "21161"
            },
            "talkContentTextMapHash": 2345673362,
            "talkAssetPath": "",
            "talkAssetPathAlter": "",
            "talkAudioName": "",
            "actionBefore": "",
            "actionWhile": "",
            "actionAfter": "",
            "optionIcon": ""
        },
        {
            "id": 741160102,
            "nextDialogs": [
                741160103
            ],
            "talkShowType": "TALK_SHOW_FORCE_SELECT",
            "talkRole": {
                "type": "TALK_ROLE_PLAYER",
                "id": ""
            },
            "talkContentTextMapHash": 3918896402,
            "talkAssetPath": "",
            "talkAssetPathAlter": "",
            "talkAudioName": "",
            "actionBefore": "",
            "actionWhile": "",
            "actionAfter": "",
            "optionIcon": ""
        },
        {
            "id": 741160103,
            "nextDialogs": [
                741160104
            ],
            "talkRole": {
                "type": "TALK_ROLE_NPC",
                "id": "21161"
            },
            "talkContentTextMapHash": 2082518490,
            "talkAssetPath": "",
            "talkAssetPathAlter": "",
            "talkAudioName": "",
            "actionBefore": "",
            "actionWhile": "",
            "actionAfter": "",
            "optionIcon": ""
        },
        {
            "id": 741160104,
            "nextDialogs": [
                741160105
            ],
            "talkShowType": "TALK_SHOW_FORCE_SELECT",
            "talkRole": {
                "type": "TALK_ROLE_PLAYER",
                "id": ""
            },
            "talkContentTextMapHash": 3595648258,
            "talkAssetPath": "",
            "talkAssetPathAlter": "",
            "talkAudioName": "",
            "actionBefore": "",
            "actionWhile": "",
            "actionAfter": "",
            "optionIcon": ""
        },
        {
            "id": 741160105,
            "nextDialogs": [
                741160106
            ],
            "talkRole": {
                "type": "TALK_ROLE_NPC",
                "id": "21161"
            },
            "talkContentTextMapHash": 2050177474,
            "talkAssetPath": "",
            "talkAssetPathAlter": "",
            "talkAudioName": "",
            "actionBefore": "",
            "actionWhile": "",
            "actionAfter": "",
            "optionIcon": ""
        },
        {
            "id": 741160106,
            "nextDialogs": [
                741160107
            ],
            "talkRole": {
                "type": "TALK_ROLE_NPC",
                "id": "21161"
            },
            "talkContentTextMapHash": 2412931602,
            "talkAssetPath": "",
            "talkAssetPathAlter": "",
            "talkAudioName": "",
            "actionBefore": "",
            "actionWhile": "",
            "actionAfter": "",
            "optionIcon": ""
        },
        {
            "id": 741160107,
            "nextDialogs": [
                741160108,
                741160109
            ],
            "talkRole": {
                "type": "TALK_ROLE_NPC",
                "id": "21161"
            },
            "talkContentTextMapHash": 3978534642,
            "talkAssetPath": "",
            "talkAssetPathAlter": "",
            "talkAudioName": "",
            "actionBefore": "",
            "actionWhile": "",
            "actionAfter": "",
            "optionIcon": ""
        },
        {
            "id": 741160108,
            "nextDialogs": [
                741160111
            ],
            "talkRole": {
                "type": "TALK_ROLE_PLAYER",
                "id": ""
            },
            "talkContentTextMapHash": 1984495922,
            "talkAssetPath": "",
            "talkAssetPathAlter": "",
            "talkAudioName": "",
            "actionBefore": "",
            "actionWhile": "",
            "actionAfter": "",
            "optionIcon": ""
        },
        {
            "id": 741160111,
            "nextDialogs": [
                741160112
            ],
            "talkRole": {
                "type": "TALK_ROLE_NPC",
                "id": "21161"
            },
            "talkContentTextMapHash": 3618433866,
            "talkAssetPath": "",
            "talkAssetPathAlter": "",
            "talkAudioName": "",
            "actionBefore": "",
            "actionWhile": "",
            "actionAfter": "",
            "optionIcon": ""
        },
        {
            "id": 741160112,
            "nextDialogs": [
                741160113
            ],
            "talkRole": {
                "type": "TALK_ROLE_NPC",
                "id": "21171"
            },
            "talkContentTextMapHash": 2211744994,
            "talkAssetPath": "",
            "talkAssetPathAlter": "",
            "talkAudioName": "",
            "actionBefore": "",
            "actionWhile": "",
            "actionAfter": "",
            "optionIcon": ""
        },
        {
            "id": 741160113,
            "nextDialogs": [
                741160114
            ],
            "talkRole": {
                "type": "TALK_ROLE_NPC",
                "id": "21161"
            },
            "talkContentTextMapHash": 1856959482,
            "talkAssetPath": "",
            "talkAssetPathAlter": "",
            "talkAudioName": "",
            "actionBefore": "",
            "actionWhile": "",
            "actionAfter": "",
            "optionIcon": ""
        },
        {
            "id": 741160114,
            "nextDialogs": [
                741160115
            ],
            "talkRole": {
                "type": "TALK_ROLE_NPC",
                "id": "21171"
            },
            "talkContentTextMapHash": 2595592138,
            "talkAssetPath": "",
            "talkAssetPathAlter": "",
            "talkAudioName": "",
            "actionBefore": "",
            "actionWhile": "",
            "actionAfter": "",
            "optionIcon": ""
        },
        {
            "id": 741160115,
            "nextDialogs": [
                741160116
            ],
            "talkRole": {
                "type": "TALK_ROLE_NPC",
                "id": "21161"
            },
            "talkContentTextMapHash": 395813586,
            "talkAssetPath": "",
            "talkAssetPathAlter": "",
            "talkAudioName": "",
            "actionBefore": "",
            "actionWhile": "",
            "actionAfter": "",
            "optionIcon": ""
        },
        {
            "id": 741160116,
            "talkRole": {
                "type": "TALK_ROLE_NPC",
                "id": "21171"
            },
            "talkContentTextMapHash": 2992721386,
            "talkAssetPath": "",
            "talkAssetPathAlter": "",
            "talkAudioName": "",
            "actionBefore": "",
            "actionWhile": "",
            "actionAfter": "",
            "optionIcon": ""
        },
        {
            "id": 741160109,
            "nextDialogs": [
                741160110
            ],
            "talkRole": {
                "type": "TALK_ROLE_PLAYER",
                "id": ""
            },
            "talkContentTextMapHash": 2376164242,
            "talkAssetPath": "",
            "talkAssetPathAlter": "",
            "talkAudioName": "",
            "actionBefore": "",
            "actionWhile": "",
            "actionAfter": "",
            "optionIcon": ""
        },
        {
            "id": 741160110,
            "nextDialogs": [
                741160111
            ],
            "talkRole": {
                "type": "TALK_ROLE_NPC",
                "id": "1005"
            },
            "talkContentTextMapHash": 1395997962,
            "talkAssetPath": "",
            "talkAssetPathAlter": "",
            "talkAudioName": "",
            "actionBefore": "",
            "actionWhile": "",
            "actionAfter": "",
            "optionIcon": ""
        }
    ]
}