{
    "talkId": 7412704,
    "dialogList": [
        {
            "id": 741270401,
            "nextDialogs": [
                741270402
            ],
            "talkRole": {
                "type": "TALK_ROLE_NPC",
                "id": "5084"
            },
            "talkContentTextMapHash": 4065440458,
            "talkAssetPath": "",
            "talkAssetPathAlter": "",
            "talkAudioName": "",
            "actionBefore": "",
            "actionWhile": "",
            "actionAfter": "",
            "optionIcon": ""
        },
        {
            "id": 741270402,
            "nextDialogs": [
                741270403
            ],
            "talkShowType": "TALK_SHOW_FORCE_SELECT",
            "talkRole": {
                "type": "TALK_ROLE_PLAYER",
                "id": ""
            },
            "talkContentTextMapHash": 3748034850,
            "talkAssetPath": "",
            "talkAssetPathAlter": "",
            "talkAudioName": "",
            "actionBefore": "",
            "actionWhile": "",
            "actionAfter": "",
            "optionIcon": ""
        },
        {
            "id": 741270403,
            "nextDialogs": [
                741270404
            ],
            "talkRole": {
                "type": "TALK_ROLE_NPC",
                "id": "5084"
            },
            "talkContentTextMapHash": 1125135762,
            "talkAssetPath": "",
            "talkAssetPathAlter": "",
            "talkAudioName": "",
            "actionBefore": "",
            "actionWhile": "",
            "actionAfter": "",
            "optionIcon": ""
        },
        {
            "id": 741270404,
            "nextDialogs": [
                741270405
            ],
            "talkRole": {
                "type": "TALK_ROLE_NPC",
                "id": "5084"
            },
            "talkContentTextMapHash": 2916249722,
            "talkAssetPath": "",
            "talkAssetPathAlter": "",
            "talkAudioName": "",
            "actionBefore": "",
            "actionWhile": "",
            "actionAfter": "",
            "optionIcon": ""
        },
        {
            "id": 741270405,
            "nextDialogs": [
                741270406
            ],
            "talkRole": {
                "type": "TALK_ROLE_NPC",
                "id": "5084"
            },
            "talkContentTextMapHash": 82227194,
            "talkAssetPath": "",
            "talkAssetPathAlter": "",
            "talkAudioName": "",
            "actionBefore": "",
            "actionWhile": "",
            "actionAfter": "",
            "optionIcon": ""
        },
        {
            "id": 741270406,
            "nextDialogs": [
                741270407
            ],
            "talkShowType": "TALK_SHOW_FORCE_SELECT",
            "talkRole": {
                "type": "TALK_ROLE_PLAYER",
                "id": ""
            },
            "talkContentTextMapHash": 3561989786,
            "talkAssetPath": "",
            "talkAssetPathAlter": "",
            "talkAudioName": "",
            "actionBefore": "",
            "actionWhile": "",
            "actionAfter": "",
            "optionIcon": ""
        },
        {
            "id": 741270407,
            "nextDialogs": [
                741270408
            ],
            "talkRole": {
                "type": "TALK_ROLE_NPC",
                "id": "5084"
            },
            "talkContentTextMapHash": 503588114,
            "talkAssetPath": "",
            "talkAssetPathAlter": "",
            "talkAudioName": "",
            "actionBefore": "",
            "actionWhile": "",
            "actionAfter": "",
            "optionIcon": ""
        },
        {
            "id": 741270408,
            "nextDialogs": [
                741270409
            ],
            "talkShowType": "TALK_SHOW_FORCE_SELECT",
            "talkRole": {
                "type": "TALK_ROLE_PLAYER",
                "id": ""
            },
            "talkContentTextMapHash": 2512394738,
            "talkAssetPath": "",
            "talkAssetPathAlter": "",
            "talkAudioName": "",
            "actionBefore": "",
            "actionWhile": "",
            "actionAfter": "",
            "optionIcon": ""
        },
        {
            "id": 741270409,
            "nextDialogs": [
                741270410
            ],
            "talkRole": {
                "type": "TALK_ROLE_NPC",
                "id": "5084"
            },
            "talkContentTextMapHash": 78178698,
            "talkAssetPath": "",
            "talkAssetPathAlter": "",
            "talkAudioName": "",
            "actionBefore": "",
            "actionWhile": "",
            "actionAfter": "",
            "optionIcon": ""
        },
        {
            "id": 741270410,
            "nextDialogs": [
                741270411
            ],
            "talkRole": {
                "type": "TALK_ROLE_NPC",
                "id": "1005"
            },
            "talkContentTextMapHash": 2129005162,
            "talkAssetPath": "",
            "talkAssetPathAlter": "",
            "talkAudioName": "",
            "actionBefore": "",
            "actionWhile": "",
            "actionAfter": "",
            "optionIcon": ""
        },
        {
            "id": 741270411,
            "nextDialogs": [
                741270412
            ],
            "talkRole": {
                "type": "TALK_ROLE_NPC",
                "id": "5084"
            },
            "talkContentTextMapHash": 842860290,
            "talkAssetPath": "",
            "talkAssetPathAlter": "",
            "talkAudioName": "",
            "actionBefore": "",
            "actionWhile": "",
            "actionAfter": "",
            "optionIcon": ""
        },
        {
            "id": 741270412,
            "nextDialogs": [
                741270413
            ],
            "talkRole": {
                "type": "TALK_ROLE_NPC",
                "id": "5084"
            },
            "talkContentTextMapHash": 1873384442,
            "talkAssetPath": "",
            "talkAssetPathAlter": "",
            "talkAudioName": "",
            "actionBefore": "",
            "actionWhile": "",
            "actionAfter": "",
            "optionIcon": ""
        },
        {
            "id": 741270413,
            "talkRole": {
                "type": "TALK_ROLE_NPC",
                "id": "5084"
            },
            "talkContentTextMapHash": 1606297610,
            "talkAssetPath": "",
            "talkAssetPathAlter": "",
            "talkAudioName": "",
            "actionBefore": "",
            "actionWhile": "",
            "actionAfter": "",
            "optionIcon": ""
        }
    ]
}