{
    "talkId": 7413613,
    "dialogList": [
        {
            "id": 741361301,
            "nextDialogs": [
                741361302,
                741361305,
                741361309
            ],
            "talkRole": {
                "type": "TALK_ROLE_NPC",
                "id": "5258"
            },
            "talkContentTextMapHash": 1413441202,
            "talkAssetPath": "",
            "talkAssetPathAlter": "",
            "talkAudioName": "",
            "actionBefore": "",
            "actionWhile": "",
            "actionAfter": "",
            "optionIcon": ""
        },
        {
            "id": 741361302,
            "nextDialogs": [
                741361303
            ],
            "talkRole": {
                "type": "TALK_ROLE_PLAYER",
                "id": ""
            },
            "talkContentTextMapHash": 3459260218,
            "talkAssetPath": "",
            "talkAssetPathAlter": "",
            "talkAudioName": "",
            "actionBefore": "",
            "actionWhile": "",
            "actionAfter": "",
            "optionIcon": ""
        },
        {
            "id": 741361303,
            "nextDialogs": [
                741361304
            ],
            "talkRole": {
                "type": "TALK_ROLE_NPC",
                "id": "5258"
            },
            "talkContentTextMapHash": 2598753674,
            "talkAssetPath": "",
            "talkAssetPathAlter": "",
            "talkAudioName": "",
            "actionBefore": "",
            "actionWhile": "",
            "actionAfter": "",
            "optionIcon": ""
        },
        {
            "id": 741361304,
            "talkRole": {
                "type": "TALK_ROLE_NPC",
                "id": "5258"
            },
            "talkContentTextMapHash": 1064487650,
            "talkAssetPath": "",
            "talkAssetPathAlter": "",
            "talkAudioName": "",
            "actionBefore": "",
            "actionWhile": "",
            "actionAfter": "",
            "optionIcon": ""
        },
        {
            "id": 741361305,
            "nextDialogs": [
                741361306
            ],
            "talkRole": {
                "type": "TALK_ROLE_PLAYER",
                "id": ""
            },
            "talkContentTextMapHash": 1761765362,
            "talkAssetPath": "",
            "talkAssetPathAlter": "",
            "talkAudioName": "",
            "actionBefore": "",
            "actionWhile": "",
            "actionAfter": "",
            "optionIcon": ""
        },
        {
            "id": 741361306,
            "nextDialogs": [
                741361307
            ],
            "talkRole": {
                "type": "TALK_ROLE_NPC",
                "id": "5258"
            },
            "talkContentTextMapHash": 109242522,
            "talkAssetPath": "",
            "talkAssetPathAlter": "",
            "talkAudioName": "",
            "actionBefore": "",
            "actionWhile": "",
            "actionAfter": "",
            "optionIcon": ""
        },
        {
            "id": 741361307,
            "nextDialogs": [
                741361308
            ],
            "talkRole": {
                "type": "TALK_ROLE_NPC",
                "id": "5258"
            },
            "talkContentTextMapHash": 3493594802,
            "talkAssetPath": "",
            "talkAssetPathAlter": "",
            "talkAudioName": "",
            "actionBefore": "",
            "actionWhile": "",
            "actionAfter": "",
            "optionIcon": ""
        },
        {
            "id": 741361308,
            "talkRole": {
                "type": "TALK_ROLE_NPC",
                "id": "5258"
            },
            "talkContentTextMapHash": 20968810,
            "talkAssetPath": "",
            "talkAssetPathAlter": "",
            "talkAudioName": "",
            "actionBefore": "",
            "actionWhile": "",
            "actionAfter": "",
            "optionIcon": ""
        },
        {
            "id": 741361309,
            "nextDialogs": [
                741361310
            ],
            "talkRole": {
                "type": "TALK_ROLE_PLAYER",
                "id": ""
            },
            "talkContentTextMapHash": 1111882426,
            "talkAssetPath": "",
            "talkAssetPathAlter": "",
            "talkAudioName": "",
            "actionBefore": "",
            "actionWhile": "",
            "actionAfter": "",
            "optionIcon": ""
        },
        {
            "id": 741361310,
            "talkRole": {
                "type": "TALK_ROLE_NPC",
                "id": "5258"
            },
            "talkContentTextMapHash": 1625022826,
            "talkAssetPath": "",
            "talkAssetPathAlter": "",
            "talkAudioName": "",
            "actionBefore": "",
            "actionWhile": "",
            "actionAfter": "",
            "optionIcon": ""
        }
    ]
}