{
    "talkId": 7415308,
    "dialogList": [
        {
            "id": 741530801,
            "nextDialogs": [
                741530802
            ],
            "talkRole": {
                "type": "TALK_ROLE_NPC",
                "id": "21250"
            },
            "talkContentTextMapHash": 2289722418,
            "talkAssetPath": "",
            "talkAssetPathAlter": "",
            "talkAudioName": "",
            "actionBefore": "",
            "actionWhile": "",
            "actionAfter": "",
            "optionIcon": ""
        },
        {
            "id": 741530802,
            "nextDialogs": [
                741530803
            ],
            "talkRole": {
                "type": "TALK_ROLE_NPC",
                "id": "21250"
            },
            "talkContentTextMapHash": 887624658,
            "talkAssetPath": "",
            "talkAssetPathAlter": "",
            "talkAudioName": "",
            "actionBefore": "",
            "actionWhile": "",
            "actionAfter": "",
            "optionIcon": ""
        },
        {
            "id": 741530803,
            "nextDialogs": [
                741530804
            ],
            "talkRole": {
                "type": "TALK_ROLE_NPC",
                "id": "1005"
            },
            "talkContentTextMapHash": 3541534674,
            "talkAssetPath": "",
            "talkAssetPathAlter": "",
            "talkAudioName": "",
            "actionBefore": "",
            "actionWhile": "",
            "actionAfter": "",
            "optionIcon": ""
        },
        {
            "id": 741530804,
            "nextDialogs": [
                741530805
            ],
            "talkShowType": "TALK_SHOW_FORCE_SELECT",
            "talkRole": {
                "type": "TALK_ROLE_PLAYER",
                "id": ""
            },
            "talkContentTextMapHash": 132046114,
            "talkAssetPath": "",
            "talkAssetPathAlter": "",
            "talkAudioName": "",
            "actionBefore": "",
            "actionWhile": "",
            "actionAfter": "",
            "optionIcon": ""
        },
        {
            "id": 741530805,
            "nextDialogs": [
                741530806
            ],
            "talkRole": {
                "type": "TALK_ROLE_NPC",
                "id": "21250"
            },
            "talkContentTextMapHash": 631147050,
            "talkAssetPath": "",
            "talkAssetPathAlter": "",
            "talkAudioName": "",
            "actionBefore": "",
            "actionWhile": "",
            "actionAfter": "",
            "optionIcon": ""
        },
        {
            "id": 741530806,
            "nextDialogs": [
                741530807
            ],
            "talkRole": {
                "type": "TALK_ROLE_NPC",
                "id": "21250"
            },
            "talkContentTextMapHash": 2032009346,
            "talkAssetPath": "",
            "talkAssetPathAlter": "",
            "talkAudioName": "",
            "actionBefore": "",
            "actionWhile": "",
            "actionAfter": "",
            "optionIcon": ""
        },
        {
            "id": 741530807,
            "nextDialogs": [
                741530808
            ],
            "talkRole": {
                "type": "TALK_ROLE_NPC",
                "id": "21250"
            },
            "talkContentTextMapHash": 623061274,
            "talkAssetPath": "",
            "talkAssetPathAlter": "",
            "talkAudioName": "",
            "actionBefore": "",
            "actionWhile": "",
            "actionAfter": "",
            "optionIcon": ""
        },
        {
            "id": 741530808,
            "nextDialogs": [
                741530809
            ],
            "talkRole": {
                "type": "TALK_ROLE_NPC",
                "id": "21250"
            },
            "talkContentTextMapHash": 2890258346,
            "talkAssetPath": "",
            "talkAssetPathAlter": "",
            "talkAudioName": "",
            "actionBefore": "",
            "actionWhile": "",
            "actionAfter": "",
            "optionIcon": ""
        },
        {
            "id": 741530809,
            "nextDialogs": [
                741530810
            ],
            "talkRole": {
                "type": "TALK_ROLE_NEED_CLICK_BLACK_SCREEN",
                "id": ""
            },
            "talkContentTextMapHash": 249550922,
            "talkAssetPath": "",
            "talkAssetPathAlter": "",
            "talkAudioName": "",
            "actionBefore": "",
            "actionWhile": "",
            "actionAfter": "",
            "optionIcon": ""
        },
        {
            "id": 741530810,
            "nextDialogs": [
                741530811
            ],
            "talkRole": {
                "type": "TALK_ROLE_NEED_CLICK_BLACK_SCREEN",
                "id": ""
            },
            "talkContentTextMapHash": 2962315786,
            "talkAssetPath": "",
            "talkAssetPathAlter": "",
            "talkAudioName": "",
            "actionBefore": "",
            "actionWhile": "",
            "actionAfter": "",
            "optionIcon": ""
        },
        {
            "id": 741530811,
            "nextDialogs": [
                741530812,
                741530813
            ],
            "talkRole": {
                "type": "TALK_ROLE_NPC",
                "id": "1005"
            },
            "talkContentTextMapHash": 2673422858,
            "talkAssetPath": "",
            "talkAssetPathAlter": "",
            "talkAudioName": "",
            "actionBefore": "",
            "actionWhile": "",
            "actionAfter": "",
            "optionIcon": ""
        },
        {
            "id": 741530812,
            "nextDialogs": [
                741530814
            ],
            "talkRole": {
                "type": "TALK_ROLE_PLAYER",
                "id": ""
            },
            "talkContentTextMapHash": 2151865818,
            "talkAssetPath": "",
            "talkAssetPathAlter": "",
            "talkAudioName": "",
            "actionBefore": "",
            "actionWhile": "",
            "actionAfter": "",
            "optionIcon": ""
        },
        {
            "id": 741530814,
            "nextDialogs": [
                741530815
            ],
            "talkRole": {
                "type": "TALK_ROLE_NPC",
                "id": "1005"
            },
            "talkContentTextMapHash": 1492519658,
            "talkAssetPath": "",
            "talkAssetPathAlter": "",
            "talkAudioName": "",
            "actionBefore": "",
            "actionWhile": "",
            "actionAfter": "",
            "optionIcon": ""
        },
        {
            "id": 741530815,
            "nextDialogs": [
                741530816,
                741530817,
                741530818
            ],
            "talkRole": {
                "type": "TALK_ROLE_NPC",
                "id": "1005"
            },
            "talkContentTextMapHash": 235626154,
            "talkAssetPath": "",
            "talkAssetPathAlter": "",
            "talkAudioName": "",
            "actionBefore": "",
            "actionWhile": "",
            "actionAfter": "",
            "optionIcon": ""
        },
        {
            "id": 741530816,
            "nextDialogs": [
                741530819
            ],
            "talkRole": {
                "type": "TALK_ROLE_PLAYER",
                "id": ""
            },
            "talkContentTextMapHash": 1732057890,
            "talkAssetPath": "",
            "talkAssetPathAlter": "",
            "talkAudioName": "",
            "actionBefore": "",
            "actionWhile": "",
            "actionAfter": "",
            "optionIcon": ""
        },
        {
            "id": 741530819,
            "nextDialogs": [
                741530820
            ],
            "talkRole": {
                "type": "TALK_ROLE_NPC",
                "id": "1005"
            },
            "talkContentTextMapHash": 3255235050,
            "talkAssetPath": "",
            "talkAssetPathAlter": "",
            "talkAudioName": "",
            "actionBefore": "",
            "actionWhile": "",
            "actionAfter": "",
            "optionIcon": ""
        },
        {
            "id": 741530820,
            "nextDialogs": [
                741530821
            ],
            "talkRole": {
                "type": "TALK_ROLE_NPC",
                "id": "1005"
            },
            "talkContentTextMapHash": 2184141850,
            "talkAssetPath": "",
            "talkAssetPathAlter": "",
            "talkAudioName": "",
            "actionBefore": "",
            "actionWhile": "",
            "actionAfter": "",
            "optionIcon": ""
        },
        {
            "id": 741530821,
            "nextDialogs": [
                741530822,
                741530824
            ],
            "talkRole": {
                "type": "TALK_ROLE_NPC",
                "id": "1005"
            },
            "talkContentTextMapHash": 2607873242,
            "talkAssetPath": "",
            "talkAssetPathAlter": "",
            "talkAudioName": "",
            "actionBefore": "",
            "actionWhile": "",
            "actionAfter": "",
            "optionIcon": ""
        },
        {
            "id": 741530822,
            "nextDialogs": [
                741530823
            ],
            "talkRole": {
                "type": "TALK_ROLE_PLAYER",
                "id": ""
            },
            "talkContentTextMapHash": 1103833130,
            "talkAssetPath": "",
            "talkAssetPathAlter": "",
            "talkAudioName": "",
            "actionBefore": "",
            "actionWhile": "",
            "actionAfter": "",
            "optionIcon": ""
        },
        {
            "id": 741530823,
            "nextDialogs": [
                741530826
            ],
            "talkRole": {
                "type": "TALK_ROLE_NPC",
                "id": "1005"
            },
            "talkContentTextMapHash": 3274822906,
            "talkAssetPath": "",
            "talkAssetPathAlter": "",
            "talkAudioName": "",
            "actionBefore": "",
            "actionWhile": "",
            "actionAfter": "",
            "optionIcon": ""
        },
        {
            "id": 741530826,
            "nextDialogs": [
                741530827
            ],
            "talkRole": {
                "type": "TALK_ROLE_NPC",
                "id": "1005"
            },
            "talkContentTextMapHash": 4142904338,
            "talkAssetPath": "",
            "talkAssetPathAlter": "",
            "talkAudioName": "",
            "actionBefore": "",
            "actionWhile": "",
            "actionAfter": "",
            "optionIcon": ""
        },
        {
            "id": 741530827,
            "nextDialogs": [
                741530828
            ],
            "talkRole": {
                "type": "TALK_ROLE_NPC",
                "id": "1005"
            },
            "talkContentTextMapHash": 4239540890,
            "talkAssetPath": "",
            "talkAssetPathAlter": "",
            "talkAudioName": "",
            "actionBefore": "",
            "actionWhile": "",
            "actionAfter": "",
            "optionIcon": ""
        },
        {
            "id": 741530828,
            "nextDialogs": [
                741530829
            ],
            "talkRole": {
                "type": "TALK_ROLE_NPC",
                "id": "1005"
            },
            "talkContentTextMapHash": 677852986,
            "talkAssetPath": "",
            "talkAssetPathAlter": "",
            "talkAudioName": "",
            "actionBefore": "",
            "actionWhile": "",
            "actionAfter": "",
            "optionIcon": ""
        },
        {
            "id": 741530829,
            "nextDialogs": [
                741530830
            ],
            "talkShowType": "TALK_SHOW_FORCE_SELECT",
            "talkRole": {
                "type": "TALK_ROLE_PLAYER",
                "id": ""
            },
            "talkContentTextMapHash": 284561658,
            "talkAssetPath": "",
            "talkAssetPathAlter": "",
            "talkAudioName": "",
            "actionBefore": "",
            "actionWhile": "",
            "actionAfter": "",
            "optionIcon": ""
        },
        {
            "id": 741530830,
            "talkRole": {
                "type": "TALK_ROLE_NPC",
                "id": "1005"
            },
            "talkContentTextMapHash": 1170382842,
            "talkAssetPath": "",
            "talkAssetPathAlter": "",
            "talkAudioName": "",
            "actionBefore": "",
            "actionWhile": "",
            "actionAfter": "",
            "optionIcon": ""
        },
        {
            "id": 741530824,
            "nextDialogs": [
                741530825
            ],
            "talkRole": {
                "type": "TALK_ROLE_PLAYER",
                "id": ""
            },
            "talkContentTextMapHash": 1719803186,
            "talkAssetPath": "",
            "talkAssetPathAlter": "",
            "talkAudioName": "",
            "actionBefore": "",
            "actionWhile": "",
            "actionAfter": "",
            "optionIcon": ""
        },
        {
            "id": 741530825,
            "nextDialogs": [
                741530826
            ],
            "talkRole": {
                "type": "TALK_ROLE_NPC",
                "id": "1005"
            },
            "talkContentTextMapHash": 2476114602,
            "talkAssetPath": "",
            "talkAssetPathAlter": "",
            "talkAudioName": "",
            "actionBefore": "",
            "actionWhile": "",
            "actionAfter": "",
            "optionIcon": ""
        },
        {
            "id": 741530817,
            "nextDialogs": [
                741530819
            ],
            "talkRole": {
                "type": "TALK_ROLE_PLAYER",
                "id": ""
            },
            "talkContentTextMapHash": 1586461258,
            "talkAssetPath": "",
            "talkAssetPathAlter": "",
            "talkAudioName": "",
            "actionBefore": "",
            "actionWhile": "",
            "actionAfter": "",
            "optionIcon": ""
        },
        {
            "id": 741530818,
            "nextDialogs": [
                741530819
            ],
            "talkShowType": "TALK_SHOW_FORCE_SELECT",
            "talkRole": {
                "type": "TALK_ROLE_PLAYER",
                "id": ""
            },
            "talkContentTextMapHash": 408442674,
            "talkAssetPath": "",
            "talkAssetPathAlter": "",
            "talkAudioName": "",
            "actionBefore": "",
            "actionWhile": "",
            "actionAfter": "",
            "optionIcon": ""
        },
        {
            "id": 741530813,
            "nextDialogs": [
                741530814
            ],
            "talkRole": {
                "type": "TALK_ROLE_PLAYER",
                "id": ""
            },
            "talkContentTextMapHash": 2777115994,
            "talkAssetPath": "",
            "talkAssetPathAlter": "",
            "talkAudioName": "",
            "actionBefore": "",
            "actionWhile": "",
            "actionAfter": "",
            "optionIcon": ""
        }
    ]
}