{
    "talkId": 7416421,
    "dialogList": [
        {
            "id": 741642101,
            "nextDialogs": [
                741642102
            ],
            "talkRole": {
                "type": "TALK_ROLE_NPC",
                "id": "21278"
            },
            "talkContentTextMapHash": 4092809314,
            "talkAssetPath": "",
            "talkAssetPathAlter": "",
            "talkAudioName": "",
            "actionBefore": "",
            "actionWhile": "",
            "actionAfter": "",
            "optionIcon": ""
        },
        {
            "id": 741642102,
            "nextDialogs": [
                741642103
            ],
            "talkRole": {
                "type": "TALK_ROLE_NPC",
                "id": "5290"
            },
            "talkContentTextMapHash": 3254973722,
            "talkAssetPath": "",
            "talkAssetPathAlter": "",
            "talkAudioName": "",
            "actionBefore": "",
            "actionWhile": "",
            "actionAfter": "",
            "optionIcon": ""
        },
        {
            "id": 741642103,
            "nextDialogs": [
                741642104
            ],
            "talkRole": {
                "type": "TALK_ROLE_NPC",
                "id": "1005"
            },
            "talkContentTextMapHash": 1006223954,
            "talkAssetPath": "",
            "talkAssetPathAlter": "",
            "talkAudioName": "",
            "actionBefore": "",
            "actionWhile": "",
            "actionAfter": "",
            "optionIcon": ""
        },
        {
            "id": 741642104,
            "nextDialogs": [
                741642105
            ],
            "talkRole": {
                "type": "TALK_ROLE_NPC",
                "id": "21278"
            },
            "talkContentTextMapHash": 3837306850,
            "talkAssetPath": "",
            "talkAssetPathAlter": "",
            "talkAudioName": "",
            "actionBefore": "",
            "actionWhile": "",
            "actionAfter": "",
            "optionIcon": ""
        },
        {
            "id": 741642105,
            "nextDialogs": [
                741642106
            ],
            "talkRole": {
                "type": "TALK_ROLE_NPC",
                "id": "5290"
            },
            "talkContentTextMapHash": 521870898,
            "talkAssetPath": "",
            "talkAssetPathAlter": "",
            "talkAudioName": "",
            "actionBefore": "",
            "actionWhile": "",
            "actionAfter": "",
            "optionIcon": ""
        },
        {
            "id": 741642106,
            "nextDialogs": [
                741642107
            ],
            "talkRole": {
                "type": "TALK_ROLE_NPC",
                "id": "21278"
            },
            "talkContentTextMapHash": 3669679602,
            "talkAssetPath": "",
            "talkAssetPathAlter": "",
            "talkAudioName": "",
            "actionBefore": "",
            "actionWhile": "",
            "actionAfter": "",
            "optionIcon": ""
        },
        {
            "id": 741642107,
            "nextDialogs": [
                741642108
            ],
            "talkRole": {
                "type": "TALK_ROLE_NPC",
                "id": "21278"
            },
            "talkContentTextMapHash": 1285667930,
            "talkAssetPath": "",
            "talkAssetPathAlter": "",
            "talkAudioName": "",
            "actionBefore": "",
            "actionWhile": "",
            "actionAfter": "",
            "optionIcon": ""
        },
        {
            "id": 741642108,
            "nextDialogs": [
                741642109
            ],
            "talkRole": {
                "type": "TALK_ROLE_NPC",
                "id": "1005"
            },
            "talkContentTextMapHash": 1045778050,
            "talkAssetPath": "",
            "talkAssetPathAlter": "",
            "talkAudioName": "",
            "actionBefore": "",
            "actionWhile": "",
            "actionAfter": "",
            "optionIcon": ""
        },
        {
            "id": 741642109,
            "nextDialogs": [
                741642110
            ],
            "talkRole": {
                "type": "TALK_ROLE_NPC",
                "id": "5290"
            },
            "talkContentTextMapHash": 3537281106,
            "talkAssetPath": "",
            "talkAssetPathAlter": "",
            "talkAudioName": "",
            "actionBefore": "",
            "actionWhile": "",
            "actionAfter": "",
            "optionIcon": ""
        },
        {
            "id": 741642110,
            "nextDialogs": [
                741642111
            ],
            "talkRole": {
                "type": "TALK_ROLE_NPC",
                "id": "5290"
            },
            "talkContentTextMapHash": 3679088130,
            "talkAssetPath": "",
            "talkAssetPathAlter": "",
            "talkAudioName": "",
            "actionBefore": "",
            "actionWhile": "",
            "actionAfter": "",
            "optionIcon": ""
        },
        {
            "id": 741642111,
            "nextDialogs": [
                741642112
            ],
            "talkRole": {
                "type": "TALK_ROLE_NPC",
                "id": "1005"
            },
            "talkContentTextMapHash": 3304330498,
            "talkAssetPath": "",
            "talkAssetPathAlter": "",
            "talkAudioName": "",
            "actionBefore": "",
            "actionWhile": "",
            "actionAfter": "",
            "optionIcon": ""
        },
        {
            "id": 741642112,
            "nextDialogs": [
                741642113
            ],
            "talkRole": {
                "type": "TALK_ROLE_NPC",
                "id": "21278"
            },
            "talkContentTextMapHash": 428788618,
            "talkAssetPath": "",
            "talkAssetPathAlter": "",
            "talkAudioName": "",
            "actionBefore": "",
            "actionWhile": "",
            "actionAfter": "",
            "optionIcon": ""
        },
        {
            "id": 741642113,
            "nextDialogs": [
                741642114,
                741642116
            ],
            "talkRole": {
                "type": "TALK_ROLE_NPC",
                "id": "5290"
            },
            "talkContentTextMapHash": 417104594,
            "talkAssetPath": "",
            "talkAssetPathAlter": "",
            "talkAudioName": "",
            "actionBefore": "",
            "actionWhile": "",
            "actionAfter": "",
            "optionIcon": ""
        },
        {
            "id": 741642114,
            "nextDialogs": [
                741642115
            ],
            "talkRole": {
                "type": "TALK_ROLE_PLAYER",
                "id": ""
            },
            "talkContentTextMapHash": 1980069626,
            "talkAssetPath": "",
            "talkAssetPathAlter": "",
            "talkAudioName": "",
            "actionBefore": "",
            "actionWhile": "",
            "actionAfter": "",
            "optionIcon": ""
        },
        {
            "id": 741642115,
            "nextDialogs": [
                741642118
            ],
            "talkRole": {
                "type": "TALK_ROLE_NPC",
                "id": "1005"
            },
            "talkContentTextMapHash": 968078562,
            "talkAssetPath": "",
            "talkAssetPathAlter": "",
            "talkAudioName": "",
            "actionBefore": "",
            "actionWhile": "",
            "actionAfter": "",
            "optionIcon": ""
        },
        {
            "id": 741642118,
            "nextDialogs": [
                741642119
            ],
            "talkRole": {
                "type": "TALK_ROLE_NPC",
                "id": "5290"
            },
            "talkContentTextMapHash": 4179725442,
            "talkAssetPath": "",
            "talkAssetPathAlter": "",
            "talkAudioName": "",
            "actionBefore": "",
            "actionWhile": "",
            "actionAfter": "",
            "optionIcon": ""
        },
        {
            "id": 741642119,
            "talkRole": {
                "type": "TALK_ROLE_NPC",
                "id": "1005"
            },
            "talkContentTextMapHash": 1658244498,
            "talkAssetPath": "",
            "talkAssetPathAlter": "",
            "talkAudioName": "",
            "actionBefore": "",
            "actionWhile": "",
            "actionAfter": "",
            "optionIcon": ""
        },
        {
            "id": 741642116,
            "nextDialogs": [
                741642117
            ],
            "talkRole": {
                "type": "TALK_ROLE_PLAYER",
                "id": ""
            },
            "talkContentTextMapHash": 2282236314,
            "talkAssetPath": "",
            "talkAssetPathAlter": "",
            "talkAudioName": "",
            "actionBefore": "",
            "actionWhile": "",
            "actionAfter": "",
            "optionIcon": ""
        },
        {
            "id": 741642117,
            "nextDialogs": [
                741642118
            ],
            "talkRole": {
                "type": "TALK_ROLE_NPC",
                "id": "1005"
            },
            "talkContentTextMapHash": 1710111634,
            "talkAssetPath": "",
            "talkAssetPathAlter": "",
            "talkAudioName": "",
            "actionBefore": "",
            "actionWhile": "",
            "actionAfter": "",
            "optionIcon": ""
        }
    ]
}