{
    "talkId": 7904113,
    "dialogList": [
        {
            "id": 790411301,
            "nextDialogs": [
                790411302
            ],
            "talkRole": {
                "type": "TALK_ROLE_NPC",
                "id": "13247"
            },
            "talkContentTextMapHash": 421374890,
            "talkAssetPath": "",
            "talkAssetPathAlter": "",
            "talkAudioName": "",
            "actionBefore": "SimpleTalk/Greet_Start",
            "actionWhile": "",
            "actionAfter": "",
            "optionIcon": ""
        },
        {
            "id": 790411302,
            "nextDialogs": [
                790411303
            ],
            "talkShowType": "TALK_SHOW_FORCE_SELECT",
            "talkRole": {
                "type": "TALK_ROLE_PLAYER",
                "id": ""
            },
            "talkContentTextMapHash": 2304638970,
            "talkAssetPath": "",
            "talkAssetPathAlter": "",
            "talkAudioName": "",
            "actionBefore": "",
            "actionWhile": "",
            "actionAfter": "",
            "optionIcon": ""
        },
        {
            "id": 790411303,
            "nextDialogs": [
                790411304
            ],
            "talkRole": {
                "type": "TALK_ROLE_NPC",
                "id": "13247"
            },
            "talkContentTextMapHash": 2098206946,
            "talkAssetPath": "",
            "talkAssetPathAlter": "",
            "talkAudioName": "",
            "actionBefore": "",
            "actionWhile": "SimpleTalk/RandomTalk",
            "actionAfter": "",
            "optionIcon": ""
        },
        {
            "id": 790411304,
            "nextDialogs": [
                790411305
            ],
            "talkRole": {
                "type": "TALK_ROLE_NPC",
                "id": "13247"
            },
            "talkContentTextMapHash": 2704919298,
            "talkAssetPath": "",
            "talkAssetPathAlter": "",
            "talkAudioName": "",
            "actionBefore": "",
            "actionWhile": "",
            "actionAfter": "",
            "optionIcon": ""
        },
        {
            "id": 790411305,
            "nextDialogs": [
                790411306
            ],
            "talkRole": {
                "type": "TALK_ROLE_NPC",
                "id": "13247"
            },
            "talkContentTextMapHash": 1104299210,
            "talkAssetPath": "",
            "talkAssetPathAlter": "",
            "talkAudioName": "",
            "actionBefore": "",
            "actionWhile": "",
            "actionAfter": "",
            "optionIcon": ""
        },
        {
            "id": 790411306,
            "nextDialogs": [
                790411307
            ],
            "talkShowType": "TALK_SHOW_FORCE_SELECT",
            "talkRole": {
                "type": "TALK_ROLE_PLAYER",
                "id": ""
            },
            "talkContentTextMapHash": 2578417330,
            "talkAssetPath": "",
            "talkAssetPathAlter": "",
            "talkAudioName": "",
            "actionBefore": "",
            "actionWhile": "",
            "actionAfter": "",
            "optionIcon": ""
        },
        {
            "id": 790411307,
            "talkRole": {
                "type": "TALK_ROLE_NPC",
                "id": "13247"
            },
            "talkContentTextMapHash": 3184936482,
            "talkAssetPath": "",
            "talkAssetPathAlter": "",
            "talkAudioName": "",
            "actionBefore": "",
            "actionWhile": "",
            "actionAfter": "SimpleTalk/Idle_End",
            "optionIcon": ""
        }
    ]
}