{
    "talkId": 7904120,
    "dialogList": [
        {
            "id": 790412001,
            "nextDialogs": [
                790412002
            ],
            "talkRole": {
                "type": "TALK_ROLE_NPC",
                "id": "13247"
            },
            "talkContentTextMapHash": 692256730,
            "talkAssetPath": "",
            "talkAssetPathAlter": "",
            "talkAudioName": "",
            "actionBefore": "",
            "actionWhile": "",
            "actionAfter": "",
            "optionIcon": ""
        },
        {
            "id": 790412002,
            "talkRole": {
                "type": "TALK_ROLE_NPC",
                "id": "13247"
            },
            "talkContentTextMapHash": 3299143130,
            "talkAssetPath": "",
            "talkAssetPathAlter": "",
            "talkAudioName": "",
            "actionBefore": "",
            "actionWhile": "",
            "actionAfter": "",
            "optionIcon": ""
        }
    ]
}