{
    "luaDataPath": "",
    "startBlackKeepTime": 0.5,
    "entityBan": "",
    "disableNpcLod": true,
    "isAutoBanNpc": true,
    "isBanWidgetPet": true,
    "protectNpcMobileLod": true,
    "startFade": {
        "startFadeInDuration": 0.5,
        "startFadeOutDuration": 0.5
    },
    "endFade": {
        "startFadeOutDuration": 0.0
    },
    "actors": [
        {
            "alias": "Avatar",
            "visible": true,
            "bornPointName": "guide_Q7301821_player",
            "relativePosNpcAlias": "",
            "bindMovingTargetKey": ""
        },
        {
            "configID": 1005,
            "alias": "1005",
            "visible": true,
            "bornPointName": "guide_Q7301821_paimon",
            "relativePos": {
                "x": 0.5,
                "z": 0.5
            },
            "removeActorType": "REMOVE_WITH_DISAPPEAR",
            "relativePosNpcAlias": "",
            "bindMovingTargetKey": ""
        },
        {
            "configID": 20605,
            "alias": "20605",
            "visible": true,
            "bornPointName": "guide_Q7301821",
            "relativePosNpcAlias": "",
            "bindMovingTargetKey": ""
        },
        {
            "configID": 20607,
            "alias": "20607",
            "visible": true,
            "bornPointName": "guide_Q7301821_3",
            "relativePosNpcAlias": "",
            "bindMovingTargetKey": ""
        },
        {
            "configID": 20606,
            "alias": "20606",
            "visible": true,
            "bornPointName": "guide_Q7301821_2",
            "relativePosNpcAlias": "",
            "bindMovingTargetKey": ""
        },
        {
            "configID": 20608,
            "alias": "20608",
            "visible": true,
            "bornPointName": "guide_Q7301821_4",
            "relativePosNpcAlias": "",
            "bindMovingTargetKey": ""
        }
    ],
    "group": [
        [
            {
                "$type": "MoleMole.Config.ConfigTimeProtectAction",
                "type": "TIME_PROTECT",
                "duration": 1.0
            },
            {
                "$type": "MoleMole.Config.ConfigBlackScreenAction",
                "type": "BLACK_SCREEN",
                "actionId": 174,
                "blackScreenType": "KEEP_BLACK",
                "durationKeepBlack": 1.0,
                "inteePos": "",
                "textMapID": "",
                "useTextFade": true
            },
            {
                "$type": "MoleMole.Config.ConfigTeleportToAction",
                "type": "TELEPORT_TO",
                "aliasList": [
                    "Avatar"
                ],
                "actionId": 166,
                "position": {
                    "x": -1843.010986328125,
                    "y": -4.423999786376953,
                    "z": 3292.097900390625
                },
                "forward": {
                    "x": 0.996999979019165,
                    "z": -0.07199999690055847
                },
                "openLongDisTeleport": true,
                "posBindMovingTargetKey": "",
                "forwardBindMovingTargetKey": ""
            },
            {
                "$type": "IBPNIIGAIPF",
                "type": "LOOK_AT",
                "aliasList": [
                    "Avatar"
                ],
                "actionId": 176,
                "GGIENKFBOGL": true,
                "useTargetPos": true,
                "GCOONJBHNIM": true,
                "JHNJNNOPJKG": {
                    "x": -1840.6240234375,
                    "y": -4.044000148773193,
                    "z": 3292.2900390625
                },
                "NDOMJCOFKDJ": 0.5,
                "KIPMIDIKECP": "",
                "AHLPNEGAKGG": "NONE",
                "FGPHOPBEJDE": true,
                "HJJAFGPMJNJ": "",
                "AOFBAGFCGPJ": ""
            },
            {
                "$type": "MoleMole.Config.ConfigTeleportToAction",
                "type": "TELEPORT_TO",
                "aliasList": [
                    "1005"
                ],
                "actionId": 167,
                "position": {
                    "x": -1842.9110107421875,
                    "y": -4.38700008392334,
                    "z": 3290.85888671875
                },
                "forward": {
                    "x": 0.9710000157356262,
                    "z": -0.23899999260902405
                },
                "openLongDisTeleport": true,
                "posBindMovingTargetKey": "",
                "forwardBindMovingTargetKey": ""
            },
            {
                "$type": "IBPNIIGAIPF",
                "type": "LOOK_AT",
                "aliasList": [
                    "1005"
                ],
                "actionId": 177,
                "GGIENKFBOGL": true,
                "useTargetPos": true,
                "GCOONJBHNIM": true,
                "JHNJNNOPJKG": {
                    "x": -1840.656005859375,
                    "y": -4.0,
                    "z": 3292.160888671875
                },
                "NDOMJCOFKDJ": 0.5,
                "KIPMIDIKECP": "",
                "AHLPNEGAKGG": "NONE",
                "FGPHOPBEJDE": true,
                "HJJAFGPMJNJ": "",
                "AOFBAGFCGPJ": ""
            },
            {
                "$type": "MoleMole.Config.ConfigTeleportToAction",
                "type": "TELEPORT_TO",
                "aliasList": [
                    "20605"
                ],
                "actionId": 168,
                "position": {
                    "x": -1840.7440185546875,
                    "y": -4.491000175476074,
                    "z": 3292.180908203125
                },
                "forward": {
                    "x": -0.972000002861023,
                    "z": -0.2370000034570694
                },
                "openLongDisTeleport": true,
                "posBindMovingTargetKey": "",
                "forwardBindMovingTargetKey": ""
            },
            {
                "$type": "MoleMole.Config.ConfigTeleportToAction",
                "type": "TELEPORT_TO",
                "aliasList": [
                    "20607"
                ],
                "actionId": 170,
                "position": {
                    "x": -1842.02197265625,
                    "y": -4.385000228881836,
                    "z": 3290.237060546875
                },
                "forward": {
                    "x": -0.7319999933242798,
                    "z": 0.6809999942779541
                },
                "openLongDisTeleport": true,
                "posBindMovingTargetKey": "",
                "forwardBindMovingTargetKey": ""
            },
            {
                "$type": "MoleMole.Config.ConfigTeleportToAction",
                "type": "TELEPORT_TO",
                "aliasList": [
                    "20606"
                ],
                "actionId": 165,
                "position": {
                    "x": -1840.7030029296875,
                    "y": -4.445000171661377,
                    "z": 3290.965087890625
                },
                "forward": {
                    "x": -0.8960000276565552,
                    "z": 0.4449999928474426
                },
                "openLongDisTeleport": true,
                "posBindMovingTargetKey": "",
                "forwardBindMovingTargetKey": ""
            },
            {
                "$type": "MoleMole.Config.ConfigTeleportToAction",
                "type": "TELEPORT_TO",
                "aliasList": [
                    "20608"
                ],
                "actionId": 172,
                "position": {
                    "x": -1841.7080078125,
                    "y": -4.498000144958496,
                    "z": 3292.9560546875
                },
                "forward": {
                    "x": -0.8159999847412109,
                    "z": -0.5789999961853027
                },
                "openLongDisTeleport": true,
                "posBindMovingTargetKey": "",
                "forwardBindMovingTargetKey": ""
            }
        ],
        [
            {
                "$type": "MoleMole.Config.ConfigBlackScreenAction",
                "type": "BLACK_SCREEN",
                "actionId": 175,
                "blackScreenType": "FROM_BLACK",
                "durationFromBlack": 0.5,
                "inteePos": "",
                "textMapID": "",
                "useTextFade": true
            },
            {
                "$type": "BCJBNCJOPCE",
                "type": "CAMERA_MOVE",
                "duration": 1.0,
                "actionId": 183,
                "AKFGKKEOEFA": {
                    "x": -1841.3570556640625,
                    "y": -2.1559998989105225,
                    "z": 3290.368896484375
                },
                "NGEBMAEFFGJ": {
                    "x": -1842.0389404296875,
                    "y": -2.684000015258789,
                    "z": 3290.875
                },
                "GFIOJGJJGCN": 6,
                "ABAEPHOGOFF": "EaseOutQuad",
                "KFDBMBFFANN": {},
                "IEJBKHHEJEN": true,
                "CEDHIBLHMKP": false,
                "KIPMIDIKECP": "",
                "ANFHNPOCMNI": true,
                "BDLGHOJPJHD": "",
                "LCOJGFEOLCK": "",
                "BBBGAEDCJEL": ""
            },
            {
                "$type": "IBPNIIGAIPF",
                "type": "LOOK_AT",
                "aliasList": [
                    "Avatar"
                ],
                "actionId": 180,
                "GGIENKFBOGL": true,
                "useTargetPos": true,
                "GCOONJBHNIM": true,
                "JHNJNNOPJKG": {
                    "x": -1845.9840087890625,
                    "y": -2.2079999446868896,
                    "z": 3294.3779296875
                },
                "NDOMJCOFKDJ": 0.5,
                "KIPMIDIKECP": "",
                "AHLPNEGAKGG": "NONE",
                "FGPHOPBEJDE": true,
                "HJJAFGPMJNJ": "",
                "AOFBAGFCGPJ": ""
            },
            {
                "$type": "CCEEIGNAILH",
                "type": "DIALOG",
                "aliasList": [
                    "1005"
                ],
                "KICBIOMGHIN": 730182201,
                "PNCCODDABKI": 0.5
            },
            {
                "$type": "KCBOGFFHPBD",
                "type": "BODY_LANG",
                "aliasList": [
                    "1005"
                ],
                "actionId": 179,
                "GPIEDGOMCGL": 1400,
                "FHLAMNNHMFA": true,
                "KCEHDJLKIAL": false,
                "KCOLHJBDILK": true,
                "AOFEDPBOOIE": ""
            },
            {
                "$type": "BCJBNCJOPCE",
                "type": "CAMERA_MOVE",
                "delayTime": 0.11800000071525574,
                "duration": 10.131999969482422,
                "actionId": 184,
                "AKFGKKEOEFA": {
                    "x": -1840.9749755859375,
                    "y": -2.1760001182556152,
                    "z": 3291.1640625
                },
                "NGEBMAEFFGJ": {
                    "x": -1841.8060302734375,
                    "y": -2.697000026702881,
                    "z": 3291.35888671875
                },
                "ABAEPHOGOFF": "EaseOutQuad",
                "KFDBMBFFANN": {},
                "IEJBKHHEJEN": true,
                "CEDHIBLHMKP": false,
                "KIPMIDIKECP": "",
                "ANFHNPOCMNI": true,
                "BDLGHOJPJHD": "",
                "LCOJGFEOLCK": "",
                "BBBGAEDCJEL": ""
            },
            {
                "$type": "MEKNGCBGKEJ",
                "type": "DIALOG_SELECT",
                "delayTime": 0.4000000059604645,
                "aliasList": [
                    "Avatar"
                ],
                "MLAABINGLAA": [
                    730182202
                ],
                "HPBPDBFGKID": [
                    3547489543
                ],
                "CFJOJADDHHG": true
            },
            {
                "$type": "IBPNIIGAIPF",
                "type": "LOOK_AT",
                "delayTime": 1.3580000400543213,
                "aliasList": [
                    "Avatar"
                ],
                "actionId": 181,
                "GGIENKFBOGL": true,
                "useTargetPos": true,
                "GCOONJBHNIM": true,
                "JHNJNNOPJKG": {
                    "x": -1845.35595703125,
                    "y": -2.7170000076293945,
                    "z": 3297.2470703125
                },
                "NDOMJCOFKDJ": 0.5,
                "KIPMIDIKECP": "",
                "AHLPNEGAKGG": "NONE",
                "FGPHOPBEJDE": true,
                "HJJAFGPMJNJ": "",
                "AOFBAGFCGPJ": ""
            },
            {
                "$type": "KCBOGFFHPBD",
                "type": "BODY_LANG",
                "delayTime": 2.7720000743865967,
                "aliasList": [
                    "Avatar"
                ],
                "actionId": 178,
                "GPIEDGOMCGL": 1230,
                "FHLAMNNHMFA": true,
                "KCEHDJLKIAL": false,
                "KCOLHJBDILK": true,
                "AOFEDPBOOIE": ""
            },
            {
                "$type": "IBPNIIGAIPF",
                "type": "LOOK_AT",
                "delayTime": 2.7750000953674316,
                "aliasList": [
                    "Avatar"
                ],
                "actionId": 182,
                "GGIENKFBOGL": true,
                "useTargetPos": true,
                "GCOONJBHNIM": true,
                "JHNJNNOPJKG": {
                    "x": -1844.56103515625,
                    "y": -2.7170000076293945,
                    "z": 3295.554931640625
                },
                "NDOMJCOFKDJ": 0.5,
                "KIPMIDIKECP": "",
                "AHLPNEGAKGG": "NONE",
                "FGPHOPBEJDE": true,
                "HJJAFGPMJNJ": "",
                "AOFBAGFCGPJ": ""
            }
        ],
        [
            {
                "$type": "BCJBNCJOPCE",
                "type": "CAMERA_MOVE",
                "duration": 1.0,
                "actionId": 186,
                "AKFGKKEOEFA": {
                    "x": -1842.416015625,
                    "y": -2.9019999504089355,
                    "z": 3292.669921875
                },
                "NGEBMAEFFGJ": {
                    "x": -1842.946044921875,
                    "y": -3.0739998817443848,
                    "z": 3291.839111328125
                },
                "LIGHLBKBDEI": 35.0,
                "GFIOJGJJGCN": 6,
                "ABAEPHOGOFF": "EaseInOutCubic",
                "KFDBMBFFANN": {},
                "IEJBKHHEJEN": true,
                "CEDHIBLHMKP": false,
                "KIPMIDIKECP": "",
                "ANFHNPOCMNI": true,
                "BDLGHOJPJHD": "",
                "LCOJGFEOLCK": "",
                "BBBGAEDCJEL": ""
            },
            {
                "$type": "KCBOGFFHPBD",
                "type": "BODY_LANG",
                "aliasList": [
                    "Avatar"
                ],
                "actionId": 193,
                "AHGOBCDHCMC": true,
                "FHLAMNNHMFA": true,
                "KCEHDJLKIAL": false,
                "KCOLHJBDILK": true,
                "AOFEDPBOOIE": ""
            },
            {
                "$type": "IBPNIIGAIPF",
                "type": "LOOK_AT",
                "aliasList": [
                    "Avatar"
                ],
                "actionId": 199,
                "GGIENKFBOGL": true,
                "useTargetPos": true,
                "GCOONJBHNIM": true,
                "JHNJNNOPJKG": {
                    "x": -1842.9449462890625,
                    "y": -3.191999912261963,
                    "z": 3290.862060546875
                },
                "NDOMJCOFKDJ": 0.5,
                "KIPMIDIKECP": "",
                "AHLPNEGAKGG": "NONE",
                "FGPHOPBEJDE": true,
                "HJJAFGPMJNJ": "",
                "AOFBAGFCGPJ": ""
            },
            {
                "$type": "CCEEIGNAILH",
                "type": "DIALOG",
                "aliasList": [
                    "1005"
                ],
                "KICBIOMGHIN": 730182203,
                "PNCCODDABKI": 1.0700000524520874
            },
            {
                "$type": "IBPNIIGAIPF",
                "type": "LOOK_AT",
                "aliasList": [
                    "1005"
                ],
                "actionId": 195,
                "GGIENKFBOGL": true,
                "useTargetPos": true,
                "GCOONJBHNIM": true,
                "JHNJNNOPJKG": {
                    "x": -1843.0030517578125,
                    "y": -3.121000051498413,
                    "z": 3292.10009765625
                },
                "NDOMJCOFKDJ": 0.5,
                "KIPMIDIKECP": "",
                "AHLPNEGAKGG": "NONE",
                "FGPHOPBEJDE": true,
                "HJJAFGPMJNJ": "",
                "AOFBAGFCGPJ": ""
            },
            {
                "$type": "CNBNGFNKLGP",
                "type": "STEER_TO",
                "delayTime": 0.17100000381469727,
                "duration": 1.0,
                "aliasList": [
                    "1005"
                ],
                "actionId": 194,
                "DEMFHGAIELL": "ABSOLUTE",
                "KDKLEJFHDJG": {
                    "x": -1845.4620361328125,
                    "y": -4.485000133514404,
                    "z": 3295.3310546875
                },
                "BBNLLCHBKAI": true,
                "COJBPJMLIFM": true,
                "NLIKMFJCLBP": true,
                "KIPMIDIKECP": "",
                "PAFGDAOHLFL": true,
                "AOFBAGFCGPJ": ""
            }
        ],
        [
            {
                "$type": "BCJBNCJOPCE",
                "type": "CAMERA_MOVE",
                "duration": 1.0,
                "actionId": 188,
                "AKFGKKEOEFA": {
                    "x": -1841.85498046875,
                    "y": -3.559999942779541,
                    "z": 3291.85498046875
                },
                "NGEBMAEFFGJ": {
                    "x": -1840.97705078125,
                    "y": -3.9830000400543213,
                    "z": 3292.080078125
                },
                "LIGHLBKBDEI": 35.0,
                "GFIOJGJJGCN": 6,
                "ABAEPHOGOFF": "EaseInOutCubic",
                "KFDBMBFFANN": {},
                "IEJBKHHEJEN": true,
                "CEDHIBLHMKP": false,
                "KIPMIDIKECP": "",
                "ANFHNPOCMNI": true,
                "BDLGHOJPJHD": "",
                "LCOJGFEOLCK": "",
                "BBBGAEDCJEL": ""
            },
            {
                "$type": "CCEEIGNAILH",
                "type": "DIALOG",
                "aliasList": [
                    "20605"
                ],
                "KICBIOMGHIN": 730182204,
                "PNCCODDABKI": 0.5
            }
        ],
        [
            {
                "$type": "BCJBNCJOPCE",
                "type": "CAMERA_MOVE",
                "duration": 1.0,
                "actionId": 190,
                "AKFGKKEOEFA": {
                    "x": -1845.22802734375,
                    "y": -0.12999999523162842,
                    "z": 3292.3720703125
                },
                "NGEBMAEFFGJ": {
                    "x": -1844.5909423828125,
                    "y": -0.8820000290870667,
                    "z": 3292.202880859375
                },
                "LIGHLBKBDEI": 35.0,
                "GFIOJGJJGCN": 6,
                "ABAEPHOGOFF": "EaseInOutCubic",
                "KFDBMBFFANN": {},
                "IEJBKHHEJEN": true,
                "CEDHIBLHMKP": false,
                "KIPMIDIKECP": "",
                "ANFHNPOCMNI": true,
                "BDLGHOJPJHD": "",
                "LCOJGFEOLCK": "",
                "BBBGAEDCJEL": ""
            },
            {
                "$type": "IBPNIIGAIPF",
                "type": "LOOK_AT",
                "aliasList": [
                    "Avatar"
                ],
                "actionId": 302,
                "GGIENKFBOGL": true,
                "useTargetPos": true,
                "GCOONJBHNIM": true,
                "JHNJNNOPJKG": {
                    "x": -1842.3280029296875,
                    "y": -4.0,
                    "z": 3290.52197265625
                },
                "NDOMJCOFKDJ": 0.5,
                "KIPMIDIKECP": "",
                "AHLPNEGAKGG": "NONE",
                "FGPHOPBEJDE": true,
                "HJJAFGPMJNJ": "",
                "AOFBAGFCGPJ": ""
            },
            {
                "$type": "MoleMole.Config.ConfigTeleportToAction",
                "type": "TELEPORT_TO",
                "aliasList": [
                    "1005"
                ],
                "actionId": 297,
                "position": {
                    "x": -1843.1209716796875,
                    "y": -4.388999938964844,
                    "z": 3291.14990234375
                },
                "forward": {
                    "x": 0.8109999895095825,
                    "z": 0.5849999785423279
                },
                "openLongDisTeleport": true,
                "posBindMovingTargetKey": "",
                "forwardBindMovingTargetKey": ""
            },
            {
                "$type": "IBPNIIGAIPF",
                "type": "LOOK_AT",
                "aliasList": [
                    "1005"
                ],
                "actionId": 299,
                "GGIENKFBOGL": true,
                "useTargetPos": true,
                "GCOONJBHNIM": true,
                "JHNJNNOPJKG": {
                    "x": -1842.3280029296875,
                    "y": -4.0,
                    "z": 3290.52197265625
                },
                "NDOMJCOFKDJ": 0.5,
                "KIPMIDIKECP": "",
                "AHLPNEGAKGG": "NONE",
                "FGPHOPBEJDE": true,
                "HJJAFGPMJNJ": "",
                "AOFBAGFCGPJ": ""
            },
            {
                "$type": "CCEEIGNAILH",
                "type": "DIALOG",
                "aliasList": [
                    "20607"
                ],
                "KICBIOMGHIN": 730182205,
                "PNCCODDABKI": 0.5
            },
            {
                "$type": "KCBOGFFHPBD",
                "type": "BODY_LANG",
                "aliasList": [
                    "20607"
                ],
                "actionId": 292,
                "GPIEDGOMCGL": 4030,
                "FHLAMNNHMFA": true,
                "KCEHDJLKIAL": false,
                "KCOLHJBDILK": true,
                "AOFEDPBOOIE": ""
            },
            {
                "$type": "BCJBNCJOPCE",
                "type": "CAMERA_MOVE",
                "delayTime": 0.2809999883174896,
                "duration": 23.738000869750977,
                "actionId": 293,
                "AKFGKKEOEFA": {
                    "x": -1845.3289794921875,
                    "y": -0.14100000262260437,
                    "z": 3291.843017578125
                },
                "NGEBMAEFFGJ": {
                    "x": -1844.6689453125,
                    "y": -0.8889999985694885,
                    "z": 3291.77490234375
                },
                "LIGHLBKBDEI": 35.0,
                "ABAEPHOGOFF": "EaseOutQuad",
                "KFDBMBFFANN": {},
                "IEJBKHHEJEN": true,
                "CEDHIBLHMKP": false,
                "KIPMIDIKECP": "",
                "ANFHNPOCMNI": true,
                "BDLGHOJPJHD": "",
                "LCOJGFEOLCK": "",
                "BBBGAEDCJEL": ""
            }
        ],
        [
            {
                "$type": "BCJBNCJOPCE",
                "type": "CAMERA_MOVE",
                "duration": 23.738000869750977,
                "actionId": 294,
                "AKFGKKEOEFA": {
                    "x": -1845.33203125,
                    "y": -0.13899999856948853,
                    "z": 3291.781982421875
                },
                "NGEBMAEFFGJ": {
                    "x": -1844.6700439453125,
                    "y": -0.8870000243186951,
                    "z": 3291.72802734375
                },
                "LIGHLBKBDEI": 35.0,
                "ABAEPHOGOFF": "EaseOutQuad",
                "KFDBMBFFANN": {},
                "IEJBKHHEJEN": true,
                "CEDHIBLHMKP": false,
                "KIPMIDIKECP": "",
                "ANFHNPOCMNI": true,
                "BDLGHOJPJHD": "",
                "LCOJGFEOLCK": "",
                "BBBGAEDCJEL": ""
            },
            {
                "$type": "IBPNIIGAIPF",
                "type": "LOOK_AT",
                "aliasList": [
                    "Avatar"
                ],
                "actionId": 301,
                "GGIENKFBOGL": true,
                "useTargetPos": true,
                "GCOONJBHNIM": true,
                "JHNJNNOPJKG": {
                    "x": -1841.0780029296875,
                    "y": -4.059999942779541,
                    "z": 3291.15087890625
                },
                "NDOMJCOFKDJ": 0.5,
                "KIPMIDIKECP": "",
                "AHLPNEGAKGG": "NONE",
                "FGPHOPBEJDE": true,
                "HJJAFGPMJNJ": "",
                "AOFBAGFCGPJ": ""
            },
            {
                "$type": "IBPNIIGAIPF",
                "type": "LOOK_AT",
                "aliasList": [
                    "1005"
                ],
                "actionId": 300,
                "GGIENKFBOGL": true,
                "useTargetPos": true,
                "GCOONJBHNIM": true,
                "JHNJNNOPJKG": {
                    "x": -1841.0780029296875,
                    "y": -4.059999942779541,
                    "z": 3291.15087890625
                },
                "NDOMJCOFKDJ": 0.5,
                "KIPMIDIKECP": "",
                "AHLPNEGAKGG": "NONE",
                "FGPHOPBEJDE": true,
                "HJJAFGPMJNJ": "",
                "AOFBAGFCGPJ": ""
            },
            {
                "$type": "CCEEIGNAILH",
                "type": "DIALOG",
                "aliasList": [
                    "20606"
                ],
                "KICBIOMGHIN": 730182206,
                "PNCCODDABKI": 0.5
            },
            {
                "$type": "KCBOGFFHPBD",
                "type": "BODY_LANG",
                "aliasList": [
                    "20606"
                ],
                "actionId": 205,
                "GPIEDGOMCGL": 4040,
                "FHLAMNNHMFA": true,
                "KCEHDJLKIAL": false,
                "KCOLHJBDILK": true,
                "AOFEDPBOOIE": ""
            }
        ],
        [
            {
                "$type": "BCJBNCJOPCE",
                "type": "CAMERA_MOVE",
                "duration": 1.0,
                "actionId": 196,
                "AKFGKKEOEFA": {
                    "x": -1843.5970458984375,
                    "y": -2.7960000038146973,
                    "z": 3291.537109375
                },
                "NGEBMAEFFGJ": {
                    "x": -1842.7860107421875,
                    "y": -3.2219998836517334,
                    "z": 3291.135009765625
                },
                "LIGHLBKBDEI": 35.0,
                "GFIOJGJJGCN": 6,
                "ABAEPHOGOFF": "EaseInOutCubic",
                "KFDBMBFFANN": {},
                "IEJBKHHEJEN": true,
                "CEDHIBLHMKP": false,
                "KIPMIDIKECP": "",
                "ANFHNPOCMNI": true,
                "BDLGHOJPJHD": "",
                "LCOJGFEOLCK": "",
                "BBBGAEDCJEL": ""
            },
            {
                "$type": "IBPNIIGAIPF",
                "type": "LOOK_AT",
                "aliasList": [
                    "Avatar"
                ],
                "actionId": 201,
                "GGIENKFBOGL": true,
                "useTargetPos": true,
                "GCOONJBHNIM": true,
                "JHNJNNOPJKG": {
                    "x": -1840.6090087890625,
                    "y": -4.059999942779541,
                    "z": 3290.988037109375
                },
                "NDOMJCOFKDJ": 0.5,
                "KIPMIDIKECP": "",
                "AHLPNEGAKGG": "NONE",
                "FGPHOPBEJDE": true,
                "HJJAFGPMJNJ": "",
                "AOFBAGFCGPJ": ""
            },
            {
                "$type": "CCEEIGNAILH",
                "type": "DIALOG",
                "aliasList": [
                    "1005"
                ],
                "KICBIOMGHIN": 730182207,
                "PNCCODDABKI": 1.6299999952316284
            },
            {
                "$type": "IBPNIIGAIPF",
                "type": "LOOK_AT",
                "aliasList": [
                    "1005"
                ],
                "actionId": 202,
                "GGIENKFBOGL": true,
                "useTargetPos": true,
                "GCOONJBHNIM": true,
                "JHNJNNOPJKG": {
                    "x": -1841.1099853515625,
                    "y": -4.059999942779541,
                    "z": 3291.06298828125
                },
                "NDOMJCOFKDJ": 0.5,
                "KIPMIDIKECP": "",
                "AHLPNEGAKGG": "NONE",
                "FGPHOPBEJDE": true,
                "HJJAFGPMJNJ": "",
                "AOFBAGFCGPJ": ""
            },
            {
                "$type": "KCBOGFFHPBD",
                "type": "BODY_LANG",
                "aliasList": [
                    "1005"
                ],
                "actionId": 203,
                "GPIEDGOMCGL": 1120,
                "FHLAMNNHMFA": true,
                "KCEHDJLKIAL": false,
                "KCOLHJBDILK": true,
                "AOFEDPBOOIE": ""
            },
            {
                "$type": "DNAEECJNBFB",
                "type": "EMO_SYNC",
                "aliasList": [
                    "1005"
                ],
                "actionId": 204,
                "EOGJDJKPPGE": "",
                "IHCBGPABDLE": "Cs_Emo_Pet_Common/Cs_Emo_Paimon_None",
                "CIKPDMODFPL": "Cs_Emo_Pet_Common/Cs_Emo_Paimon_Sad02",
                "HDIAHFFHNGE": "",
                "BOAAGJEEFDD": "",
                "PFDPJKHPADE": "",
                "MJAONEKDECJ": [
                    1796869206626684908,
                    2049648015653630001,
                    14015965774222061559,
                    873259039409222856
                ],
                "DAALMFGCAOO": [
                    79699632502135402,
                    16884691761580677388,
                    4742872187485414175,
                    1284008518365681284
                ]
            },
            {
                "$type": "CNBNGFNKLGP",
                "type": "STEER_TO",
                "duration": 1.0,
                "aliasList": [
                    "1005"
                ],
                "actionId": 303,
                "DEMFHGAIELL": "ABSOLUTE",
                "KDKLEJFHDJG": {
                    "x": -1841.6820068359375,
                    "y": -4.427999973297119,
                    "z": 3291.028076171875
                },
                "KIPMIDIKECP": "",
                "AOFBAGFCGPJ": ""
            },
            {
                "$type": "MoleMole.Config.ConfigTeleportToAction",
                "type": "TELEPORT_TO",
                "aliasList": [
                    "20606"
                ],
                "actionId": 305,
                "position": {
                    "x": -1840.7030029296875,
                    "y": -4.445000171661377,
                    "z": 3290.965087890625
                },
                "forward": {
                    "x": -0.972000002861023,
                    "z": 0.23399999737739563
                },
                "openLongDisTeleport": true,
                "posBindMovingTargetKey": "",
                "forwardBindMovingTargetKey": ""
            }
        ],
        [
            {
                "$type": "BCJBNCJOPCE",
                "type": "CAMERA_MOVE",
                "duration": 1.0,
                "actionId": 197,
                "AKFGKKEOEFA": {
                    "x": -1842.1109619140625,
                    "y": -3.3480000495910645,
                    "z": 3291.48193359375
                },
                "NGEBMAEFFGJ": {
                    "x": -1841.281982421875,
                    "y": -3.756999969482422,
                    "z": 3291.10107421875
                },
                "LIGHLBKBDEI": 35.0,
                "GFIOJGJJGCN": 6,
                "ABAEPHOGOFF": "EaseInOutCubic",
                "KFDBMBFFANN": {},
                "IEJBKHHEJEN": true,
                "CEDHIBLHMKP": false,
                "KIPMIDIKECP": "",
                "ANFHNPOCMNI": true,
                "BDLGHOJPJHD": "",
                "LCOJGFEOLCK": "",
                "BBBGAEDCJEL": ""
            },
            {
                "$type": "CCEEIGNAILH",
                "type": "DIALOG",
                "aliasList": [
                    "20606"
                ],
                "KICBIOMGHIN": 730182208,
                "PNCCODDABKI": 1.3300000429153442
            },
            {
                "$type": "CNBNGFNKLGP",
                "type": "STEER_TO",
                "duration": 1.0,
                "aliasList": [
                    "20606"
                ],
                "actionId": 207,
                "DEMFHGAIELL": "ABSOLUTE",
                "KDKLEJFHDJG": {
                    "x": -1838.79296875,
                    "y": -4.500999927520752,
                    "z": 3292.028076171875
                },
                "BBNLLCHBKAI": true,
                "COJBPJMLIFM": true,
                "NLIKMFJCLBP": true,
                "KIPMIDIKECP": "",
                "PAFGDAOHLFL": true,
                "AOFBAGFCGPJ": ""
            },
            {
                "$type": "MEKNGCBGKEJ",
                "type": "DIALOG_SELECT",
                "delayTime": 0.4000000059604645,
                "aliasList": [
                    "Avatar"
                ],
                "MLAABINGLAA": [
                    730182209
                ],
                "HPBPDBFGKID": [
                    3547489549
                ],
                "CFJOJADDHHG": true
            }
        ],
        [
            {
                "$type": "BCJBNCJOPCE",
                "type": "CAMERA_MOVE",
                "duration": 1.0,
                "actionId": 198,
                "AKFGKKEOEFA": {
                    "x": -1839.501953125,
                    "y": -3.9110000133514404,
                    "z": 3291.43408203125
                },
                "NGEBMAEFFGJ": {
                    "x": -1840.47802734375,
                    "y": -3.753999948501587,
                    "z": 3291.283935546875
                },
                "LIGHLBKBDEI": 35.0,
                "GFIOJGJJGCN": 6,
                "ABAEPHOGOFF": "EaseInOutCubic",
                "KFDBMBFFANN": {},
                "IEJBKHHEJEN": true,
                "CEDHIBLHMKP": false,
                "KIPMIDIKECP": "",
                "ANFHNPOCMNI": true,
                "BDLGHOJPJHD": "",
                "LCOJGFEOLCK": "",
                "BBBGAEDCJEL": ""
            },
            {
                "$type": "CCEEIGNAILH",
                "type": "DIALOG",
                "aliasList": [
                    "1005"
                ],
                "KICBIOMGHIN": 730182210,
                "PNCCODDABKI": 0.5
            },
            {
                "$type": "BCJBNCJOPCE",
                "type": "CAMERA_MOVE",
                "delayTime": 0.2549999952316284,
                "duration": 8.800000190734863,
                "actionId": 208,
                "AKFGKKEOEFA": {
                    "x": -1839.509033203125,
                    "y": -3.9110000133514404,
                    "z": 3291.47998046875
                },
                "NGEBMAEFFGJ": {
                    "x": -1840.4849853515625,
                    "y": -3.753999948501587,
                    "z": 3291.330078125
                },
                "LIGHLBKBDEI": 35.0,
                "ABAEPHOGOFF": "EaseOutQuad",
                "KFDBMBFFANN": {},
                "IEJBKHHEJEN": true,
                "CEDHIBLHMKP": false,
                "KIPMIDIKECP": "",
                "ANFHNPOCMNI": true,
                "BDLGHOJPJHD": "",
                "LCOJGFEOLCK": "",
                "BBBGAEDCJEL": ""
            }
        ],
        [
            {
                "$type": "BCJBNCJOPCE",
                "type": "CAMERA_MOVE",
                "duration": 1.0,
                "actionId": 209,
                "AKFGKKEOEFA": {
                    "x": -1844.5689697265625,
                    "y": -2.4179999828338623,
                    "z": 3291.931884765625
                },
                "NGEBMAEFFGJ": {
                    "x": -1843.68701171875,
                    "y": -2.8440001010894775,
                    "z": 3291.73095703125
                },
                "LIGHLBKBDEI": 35.0,
                "GFIOJGJJGCN": 6,
                "ABAEPHOGOFF": "EaseInOutCubic",
                "KFDBMBFFANN": {},
                "IEJBKHHEJEN": true,
                "CEDHIBLHMKP": false,
                "KIPMIDIKECP": "",
                "ANFHNPOCMNI": true,
                "BDLGHOJPJHD": "",
                "LCOJGFEOLCK": "",
                "BBBGAEDCJEL": ""
            },
            {
                "$type": "IBPNIIGAIPF",
                "type": "LOOK_AT",
                "aliasList": [
                    "Avatar"
                ],
                "actionId": 215,
                "GGIENKFBOGL": true,
                "useTargetPos": true,
                "GCOONJBHNIM": true,
                "JHNJNNOPJKG": {
                    "x": -1844.4229736328125,
                    "y": -3.7950000762939453,
                    "z": 3294.593994140625
                },
                "NDOMJCOFKDJ": 0.5,
                "KIPMIDIKECP": "",
                "AHLPNEGAKGG": "NONE",
                "FGPHOPBEJDE": true,
                "HJJAFGPMJNJ": "",
                "AOFBAGFCGPJ": ""
            },
            {
                "$type": "CCEEIGNAILH",
                "type": "DIALOG",
                "aliasList": [
                    "20606"
                ],
                "KICBIOMGHIN": 730182211,
                "PNCCODDABKI": 0.5
            },
            {
                "$type": "CNBNGFNKLGP",
                "type": "STEER_TO",
                "duration": 1.0,
                "aliasList": [
                    "20606"
                ],
                "actionId": 211,
                "DEMFHGAIELL": "ABSOLUTE",
                "KDKLEJFHDJG": {
                    "x": -1842.5340576171875,
                    "y": -4.427000045776367,
                    "z": 3291.469970703125
                },
                "BBNLLCHBKAI": true,
                "COJBPJMLIFM": true,
                "NLIKMFJCLBP": true,
                "KIPMIDIKECP": "",
                "PAFGDAOHLFL": true,
                "AOFBAGFCGPJ": ""
            },
            {
                "$type": "KCBOGFFHPBD",
                "type": "BODY_LANG",
                "aliasList": [
                    "20606"
                ],
                "actionId": 295,
                "GPIEDGOMCGL": 4040,
                "FHLAMNNHMFA": true,
                "KCEHDJLKIAL": false,
                "KCOLHJBDILK": true,
                "AOFEDPBOOIE": ""
            }
        ],
        [
            {
                "$type": "BCJBNCJOPCE",
                "type": "CAMERA_MOVE",
                "duration": 1.0,
                "actionId": 212,
                "AKFGKKEOEFA": {
                    "x": -1839.35205078125,
                    "y": -3.3980000019073486,
                    "z": 3290.657958984375
                },
                "NGEBMAEFFGJ": {
                    "x": -1840.3179931640625,
                    "y": -3.4179999828338623,
                    "z": 3290.9169921875
                },
                "LIGHLBKBDEI": 30.0,
                "GFIOJGJJGCN": 6,
                "ABAEPHOGOFF": "EaseInOutCubic",
                "KFDBMBFFANN": {},
                "IEJBKHHEJEN": true,
                "CEDHIBLHMKP": false,
                "KIPMIDIKECP": "",
                "ANFHNPOCMNI": true,
                "BDLGHOJPJHD": "",
                "LCOJGFEOLCK": "",
                "BBBGAEDCJEL": ""
            },
            {
                "$type": "IBPNIIGAIPF",
                "type": "LOOK_AT",
                "aliasList": [
                    "Avatar"
                ],
                "actionId": 241,
                "GGIENKFBOGL": true,
                "useTargetPos": true,
                "GCOONJBHNIM": true,
                "JHNJNNOPJKG": {
                    "x": -1841.10595703125,
                    "y": -4.059999942779541,
                    "z": 3291.075927734375
                },
                "NDOMJCOFKDJ": 0.5,
                "KIPMIDIKECP": "",
                "AHLPNEGAKGG": "NONE",
                "FGPHOPBEJDE": true,
                "HJJAFGPMJNJ": "",
                "AOFBAGFCGPJ": ""
            },
            {
                "$type": "CCEEIGNAILH",
                "type": "DIALOG",
                "aliasList": [
                    "1005"
                ],
                "KICBIOMGHIN": 730182212,
                "PNCCODDABKI": 1.3240000009536743
            },
            {
                "$type": "KCBOGFFHPBD",
                "type": "BODY_LANG",
                "aliasList": [
                    "1005"
                ],
                "actionId": 216,
                "AHGOBCDHCMC": true,
                "FHLAMNNHMFA": true,
                "KCEHDJLKIAL": false,
                "KCOLHJBDILK": true,
                "AOFEDPBOOIE": ""
            },
            {
                "$type": "DNAEECJNBFB",
                "type": "EMO_SYNC",
                "aliasList": [
                    "1005"
                ],
                "actionId": 217,
                "EOGJDJKPPGE": "",
                "IHCBGPABDLE": "Cs_Emo_Pet_Common/Cs_Emo_Paimon_None",
                "CIKPDMODFPL": "Cs_Emo_Pet_Common/Cs_Emo_Paimon_Normal01_B",
                "HDIAHFFHNGE": "",
                "BOAAGJEEFDD": "",
                "PFDPJKHPADE": "",
                "MJAONEKDECJ": [
                    1796869206626684908,
                    2049648015653630001,
                    14015965774222061559,
                    873259039409222856
                ],
                "DAALMFGCAOO": [
                    14892026956990897578,
                    7647528750435710781,
                    2171559387429051042,
                    15358483104891988261
                ]
            },
            {
                "$type": "IBPNIIGAIPF",
                "type": "LOOK_AT",
                "aliasList": [
                    "1005"
                ],
                "actionId": 304,
                "GGIENKFBOGL": true,
                "useTargetPos": true,
                "GCOONJBHNIM": true,
                "JHNJNNOPJKG": {
                    "x": -1841.0780029296875,
                    "y": -4.059999942779541,
                    "z": 3291.15087890625
                },
                "NDOMJCOFKDJ": 0.5,
                "KIPMIDIKECP": "",
                "AHLPNEGAKGG": "NONE",
                "FGPHOPBEJDE": true,
                "HJJAFGPMJNJ": "",
                "AOFBAGFCGPJ": ""
            },
            {
                "$type": "MEKNGCBGKEJ",
                "type": "DIALOG_SELECT",
                "delayTime": 0.4300000071525574,
                "aliasList": [
                    "Avatar"
                ],
                "MLAABINGLAA": [
                    730182213
                ],
                "HPBPDBFGKID": [
                    2597993421
                ],
                "CFJOJADDHHG": true
            },
            {
                "$type": "KCBOGFFHPBD",
                "type": "BODY_LANG",
                "delayTime": 0.6179999709129333,
                "aliasList": [
                    "1005"
                ],
                "actionId": 218,
                "GPIEDGOMCGL": 4030,
                "FHLAMNNHMFA": true,
                "KCEHDJLKIAL": false,
                "KCOLHJBDILK": true,
                "AOFEDPBOOIE": ""
            }
        ],
        [
            {
                "$type": "BCJBNCJOPCE",
                "type": "CAMERA_MOVE",
                "duration": 1.0,
                "actionId": 219,
                "AKFGKKEOEFA": {
                    "x": -1841.9439697265625,
                    "y": -3.049999952316284,
                    "z": 3292.635986328125
                },
                "NGEBMAEFFGJ": {
                    "x": -1842.720947265625,
                    "y": -3.0850000381469727,
                    "z": 3292.007080078125
                },
                "LIGHLBKBDEI": 30.0,
                "GFIOJGJJGCN": 6,
                "ABAEPHOGOFF": "EaseInOutCubic",
                "KFDBMBFFANN": {},
                "IEJBKHHEJEN": true,
                "CEDHIBLHMKP": false,
                "KIPMIDIKECP": "",
                "ANFHNPOCMNI": true,
                "BDLGHOJPJHD": "",
                "LCOJGFEOLCK": "",
                "BBBGAEDCJEL": ""
            },
            {
                "$type": "IBPNIIGAIPF",
                "type": "LOOK_AT",
                "aliasList": [
                    "Avatar"
                ],
                "actionId": 306,
                "GGIENKFBOGL": true,
                "useTargetPos": true,
                "GCOONJBHNIM": true,
                "JHNJNNOPJKG": {
                    "x": -1843.0419921875,
                    "y": -3.430000066757202,
                    "z": 3291.197998046875
                },
                "NDOMJCOFKDJ": 0.5,
                "KIPMIDIKECP": "",
                "AHLPNEGAKGG": "NONE",
                "FGPHOPBEJDE": true,
                "HJJAFGPMJNJ": "",
                "AOFBAGFCGPJ": ""
            },
            {
                "$type": "CCEEIGNAILH",
                "type": "DIALOG",
                "aliasList": [
                    "1005"
                ],
                "KICBIOMGHIN": 730182214,
                "PNCCODDABKI": 1.0199999809265137
            },
            {
                "$type": "CNBNGFNKLGP",
                "type": "STEER_TO",
                "duration": 1.0,
                "aliasList": [
                    "1005"
                ],
                "actionId": 232,
                "DEMFHGAIELL": "ABSOLUTE",
                "KDKLEJFHDJG": {
                    "x": -1843.2840576171875,
                    "y": -4.388999938964844,
                    "z": 3292.135986328125
                },
                "COJBPJMLIFM": true,
                "NLIKMFJCLBP": true,
                "KIPMIDIKECP": "",
                "AOFBAGFCGPJ": ""
            },
            {
                "$type": "IBPNIIGAIPF",
                "type": "LOOK_AT",
                "aliasList": [
                    "1005"
                ],
                "actionId": 233,
                "GGIENKFBOGL": true,
                "useTargetPos": true,
                "GCOONJBHNIM": true,
                "JHNJNNOPJKG": {
                    "x": -1843.0030517578125,
                    "y": -3.121999979019165,
                    "z": 3292.06689453125
                },
                "NDOMJCOFKDJ": 0.5,
                "KIPMIDIKECP": "",
                "AHLPNEGAKGG": "NONE",
                "FGPHOPBEJDE": true,
                "HJJAFGPMJNJ": "",
                "AOFBAGFCGPJ": ""
            },
            {
                "$type": "BCJBNCJOPCE",
                "type": "CAMERA_MOVE",
                "delayTime": 0.14499999582767487,
                "duration": 8.88599967956543,
                "actionId": 220,
                "AKFGKKEOEFA": {
                    "x": -1841.9649658203125,
                    "y": -3.052000045776367,
                    "z": 3292.6630859375
                },
                "NGEBMAEFFGJ": {
                    "x": -1842.741943359375,
                    "y": -3.0869998931884766,
                    "z": 3292.033935546875
                },
                "LIGHLBKBDEI": 30.0,
                "ABAEPHOGOFF": "EaseOutQuad",
                "KFDBMBFFANN": {},
                "IEJBKHHEJEN": true,
                "CEDHIBLHMKP": false,
                "KIPMIDIKECP": "",
                "ANFHNPOCMNI": true,
                "BDLGHOJPJHD": "",
                "LCOJGFEOLCK": "",
                "BBBGAEDCJEL": ""
            },
            {
                "$type": "KCBOGFFHPBD",
                "type": "BODY_LANG",
                "delayTime": 0.8029999732971191,
                "aliasList": [
                    "1005"
                ],
                "actionId": 234,
                "GPIEDGOMCGL": 1090,
                "FHLAMNNHMFA": true,
                "KCEHDJLKIAL": false,
                "KCOLHJBDILK": true,
                "AOFEDPBOOIE": ""
            },
            {
                "$type": "MEKNGCBGKEJ",
                "type": "DIALOG_SELECT",
                "delayTime": 1.1019999980926514,
                "aliasList": [
                    "Avatar"
                ],
                "MLAABINGLAA": [
                    730182215
                ],
                "HPBPDBFGKID": [
                    2597993422
                ],
                "CFJOJADDHHG": true
            },
            {
                "$type": "IBPNIIGAIPF",
                "type": "LOOK_AT",
                "delayTime": 1.9869999885559082,
                "aliasList": [
                    "Avatar"
                ],
                "actionId": 321,
                "GGIENKFBOGL": true,
                "JHNJNNOPJKG": {
                    "x": -1841.1500244140625,
                    "y": -4.105999946594238,
                    "z": 3292.08203125
                },
                "NDOMJCOFKDJ": 0.5,
                "KIPMIDIKECP": "20605",
                "FGPHOPBEJDE": true,
                "HJJAFGPMJNJ": "",
                "AOFBAGFCGPJ": ""
            }
        ],
        [
            {
                "$type": "BCJBNCJOPCE",
                "type": "CAMERA_MOVE",
                "duration": 1.0,
                "actionId": 221,
                "AKFGKKEOEFA": {
                    "x": -1844.0579833984375,
                    "y": 0.8690000176429749,
                    "z": 3294.946044921875
                },
                "NGEBMAEFFGJ": {
                    "x": -1843.7650146484375,
                    "y": 0.0860000029206276,
                    "z": 3294.39697265625
                },
                "LIGHLBKBDEI": 30.0,
                "GFIOJGJJGCN": 6,
                "ABAEPHOGOFF": "EaseInOutCubic",
                "KFDBMBFFANN": {},
                "IEJBKHHEJEN": true,
                "CEDHIBLHMKP": false,
                "KIPMIDIKECP": "",
                "ANFHNPOCMNI": true,
                "BDLGHOJPJHD": "",
                "LCOJGFEOLCK": "",
                "BBBGAEDCJEL": ""
            },
            {
                "$type": "IBPNIIGAIPF",
                "type": "LOOK_AT",
                "aliasList": [
                    "Avatar"
                ],
                "actionId": 235,
                "GGIENKFBOGL": true,
                "NDOMJCOFKDJ": 0.5,
                "KIPMIDIKECP": "20605",
                "FGPHOPBEJDE": true,
                "HJJAFGPMJNJ": "",
                "AOFBAGFCGPJ": ""
            },
            {
                "$type": "CCEEIGNAILH",
                "type": "DIALOG",
                "aliasList": [
                    "1005"
                ],
                "KICBIOMGHIN": 730182216,
                "PNCCODDABKI": 2.8499999046325684
            },
            {
                "$type": "IBPNIIGAIPF",
                "type": "LOOK_AT",
                "aliasList": [
                    "1005"
                ],
                "actionId": 236,
                "GGIENKFBOGL": true,
                "NDOMJCOFKDJ": 0.5,
                "KIPMIDIKECP": "20605",
                "FGPHOPBEJDE": true,
                "HJJAFGPMJNJ": "",
                "AOFBAGFCGPJ": ""
            },
            {
                "$type": "KCBOGFFHPBD",
                "type": "BODY_LANG",
                "aliasList": [
                    "1005"
                ],
                "actionId": 242,
                "GPIEDGOMCGL": 1170,
                "FHLAMNNHMFA": true,
                "KCEHDJLKIAL": false,
                "KCOLHJBDILK": true,
                "AOFEDPBOOIE": ""
            },
            {
                "$type": "CNBNGFNKLGP",
                "type": "STEER_TO",
                "duration": 2.5,
                "aliasList": [
                    "1005"
                ],
                "actionId": 307,
                "DEMFHGAIELL": "ABSOLUTE",
                "KDKLEJFHDJG": {
                    "x": -1841.10498046875,
                    "y": -4.480999946594238,
                    "z": 3291.968994140625
                },
                "KIPMIDIKECP": "",
                "AOFBAGFCGPJ": ""
            },
            {
                "$type": "BCJBNCJOPCE",
                "type": "CAMERA_MOVE",
                "delayTime": 0.21699999272823334,
                "duration": 20.799999237060547,
                "actionId": 222,
                "AKFGKKEOEFA": {
                    "x": -1844.4339599609375,
                    "y": 0.9020000100135803,
                    "z": 3294.6640625
                },
                "NGEBMAEFFGJ": {
                    "x": -1844.0789794921875,
                    "y": 0.11400000005960464,
                    "z": 3294.162109375
                },
                "LIGHLBKBDEI": 30.0,
                "ABAEPHOGOFF": "EaseOutQuad",
                "KFDBMBFFANN": {},
                "IEJBKHHEJEN": true,
                "CEDHIBLHMKP": false,
                "KIPMIDIKECP": "",
                "ANFHNPOCMNI": true,
                "BDLGHOJPJHD": "",
                "LCOJGFEOLCK": "",
                "BBBGAEDCJEL": ""
            },
            {
                "$type": "KCBOGFFHPBD",
                "type": "BODY_LANG",
                "delayTime": 1.4910000562667847,
                "aliasList": [
                    "1005"
                ],
                "actionId": 243,
                "GPIEDGOMCGL": 1180,
                "FHLAMNNHMFA": true,
                "KCEHDJLKIAL": false,
                "KCOLHJBDILK": true,
                "AOFEDPBOOIE": ""
            },
            {
                "$type": "KCBOGFFHPBD",
                "type": "BODY_LANG",
                "delayTime": 4.2179999351501465,
                "aliasList": [
                    "1005"
                ],
                "actionId": 308,
                "AHGOBCDHCMC": true,
                "FHLAMNNHMFA": true,
                "KCEHDJLKIAL": false,
                "KCOLHJBDILK": true,
                "AOFEDPBOOIE": ""
            }
        ],
        [
            {
                "$type": "BCJBNCJOPCE",
                "type": "CAMERA_MOVE",
                "duration": 20.799999237060547,
                "actionId": 310,
                "AKFGKKEOEFA": {
                    "x": -1844.4339599609375,
                    "y": 0.9020000100135803,
                    "z": 3294.6640625
                },
                "NGEBMAEFFGJ": {
                    "x": -1844.0789794921875,
                    "y": 0.11400000005960464,
                    "z": 3294.162109375
                },
                "LIGHLBKBDEI": 30.0,
                "ABAEPHOGOFF": "EaseOutQuad",
                "KFDBMBFFANN": {},
                "IEJBKHHEJEN": true,
                "CEDHIBLHMKP": false,
                "KIPMIDIKECP": "",
                "ANFHNPOCMNI": true,
                "BDLGHOJPJHD": "",
                "LCOJGFEOLCK": "",
                "BBBGAEDCJEL": ""
            },
            {
                "$type": "CCEEIGNAILH",
                "type": "DIALOG",
                "aliasList": [
                    "1005"
                ],
                "KICBIOMGHIN": 730182217,
                "PNCCODDABKI": 0.5
            },
            {
                "$type": "KCBOGFFHPBD",
                "type": "BODY_LANG",
                "aliasList": [
                    "1005"
                ],
                "actionId": 244,
                "AHGOBCDHCMC": true,
                "FHLAMNNHMFA": true,
                "KCEHDJLKIAL": false,
                "KCOLHJBDILK": true,
                "AOFEDPBOOIE": ""
            },
            {
                "$type": "KCBOGFFHPBD",
                "type": "BODY_LANG",
                "delayTime": 0.9290000200271606,
                "aliasList": [
                    "1005"
                ],
                "actionId": 311,
                "GPIEDGOMCGL": 1030,
                "FHLAMNNHMFA": true,
                "KCEHDJLKIAL": false,
                "KCOLHJBDILK": true,
                "AOFEDPBOOIE": ""
            },
            {
                "$type": "KCBOGFFHPBD",
                "type": "BODY_LANG",
                "delayTime": 4.290999889373779,
                "aliasList": [
                    "1005"
                ],
                "actionId": 312,
                "AHGOBCDHCMC": true,
                "FHLAMNNHMFA": true,
                "KCEHDJLKIAL": false,
                "KCOLHJBDILK": true,
                "AOFEDPBOOIE": ""
            }
        ],
        [
            {
                "$type": "BCJBNCJOPCE",
                "type": "CAMERA_MOVE",
                "duration": 1.0,
                "actionId": 225,
                "AKFGKKEOEFA": {
                    "x": -1842.14794921875,
                    "y": -3.3389999866485596,
                    "z": 3291.821044921875
                },
                "NGEBMAEFFGJ": {
                    "x": -1841.2879638671875,
                    "y": -3.812999963760376,
                    "z": 3292.009033203125
                },
                "LIGHLBKBDEI": 30.0,
                "GFIOJGJJGCN": 6,
                "ABAEPHOGOFF": "EaseInOutCubic",
                "KFDBMBFFANN": {},
                "IEJBKHHEJEN": true,
                "CEDHIBLHMKP": false,
                "KIPMIDIKECP": "",
                "ANFHNPOCMNI": true,
                "BDLGHOJPJHD": "",
                "LCOJGFEOLCK": "",
                "BBBGAEDCJEL": ""
            },
            {
                "$type": "KCBOGFFHPBD",
                "type": "BODY_LANG",
                "aliasList": [
                    "1005"
                ],
                "actionId": 313,
                "AHGOBCDHCMC": true,
                "FHLAMNNHMFA": true,
                "KCEHDJLKIAL": false,
                "KCOLHJBDILK": true,
                "AOFEDPBOOIE": ""
            },
            {
                "$type": "CCEEIGNAILH",
                "type": "DIALOG",
                "aliasList": [
                    "20605"
                ],
                "KICBIOMGHIN": 730182218,
                "PNCCODDABKI": 0.5
            },
            {
                "$type": "KCBOGFFHPBD",
                "type": "BODY_LANG",
                "aliasList": [
                    "20605"
                ],
                "actionId": 226,
                "GPIEDGOMCGL": 4040,
                "FHLAMNNHMFA": true,
                "KCEHDJLKIAL": false,
                "KCOLHJBDILK": true,
                "AOFEDPBOOIE": ""
            }
        ],
        [
            {
                "$type": "CCEEIGNAILH",
                "type": "DIALOG",
                "aliasList": [
                    "20605"
                ],
                "KICBIOMGHIN": 730182219,
                "PNCCODDABKI": 0.5
            },
            {
                "$type": "KCBOGFFHPBD",
                "type": "BODY_LANG",
                "aliasList": [
                    "20605"
                ],
                "actionId": 246,
                "FHLAMNNHMFA": true,
                "KCEHDJLKIAL": false,
                "KCOLHJBDILK": true,
                "AOFEDPBOOIE": ""
            }
        ],
        [
            {
                "$type": "BCJBNCJOPCE",
                "type": "CAMERA_MOVE",
                "duration": 1.0,
                "actionId": 227,
                "AKFGKKEOEFA": {
                    "x": -1839.8289794921875,
                    "y": -4.176000118255615,
                    "z": 3293.02197265625
                },
                "NGEBMAEFFGJ": {
                    "x": -1840.655029296875,
                    "y": -3.946000099182129,
                    "z": 3292.507080078125
                },
                "LIGHLBKBDEI": 30.0,
                "GFIOJGJJGCN": 6,
                "ABAEPHOGOFF": "EaseInOutCubic",
                "KFDBMBFFANN": {},
                "IEJBKHHEJEN": true,
                "CEDHIBLHMKP": false,
                "KIPMIDIKECP": "",
                "ANFHNPOCMNI": true,
                "BDLGHOJPJHD": "",
                "LCOJGFEOLCK": "",
                "BBBGAEDCJEL": ""
            },
            {
                "$type": "CCEEIGNAILH",
                "type": "DIALOG",
                "aliasList": [
                    "20605"
                ],
                "KICBIOMGHIN": 730182220,
                "PNCCODDABKI": 0.5
            },
            {
                "$type": "KCBOGFFHPBD",
                "type": "BODY_LANG",
                "aliasList": [
                    "20605"
                ],
                "actionId": 245,
                "GPIEDGOMCGL": 4030,
                "FHLAMNNHMFA": true,
                "KCEHDJLKIAL": false,
                "KCOLHJBDILK": true,
                "AOFEDPBOOIE": ""
            },
            {
                "$type": "BCJBNCJOPCE",
                "type": "CAMERA_MOVE",
                "delayTime": 0.25999999046325684,
                "duration": 15.390000343322754,
                "actionId": 247,
                "AKFGKKEOEFA": {
                    "x": -1839.8809814453125,
                    "y": -4.166999816894531,
                    "z": 3293.10888671875
                },
                "NGEBMAEFFGJ": {
                    "x": -1840.70703125,
                    "y": -3.937000036239624,
                    "z": 3292.593994140625
                },
                "LIGHLBKBDEI": 30.0,
                "ABAEPHOGOFF": "EaseOutQuad",
                "KFDBMBFFANN": {},
                "IEJBKHHEJEN": true,
                "CEDHIBLHMKP": false,
                "KIPMIDIKECP": "",
                "ANFHNPOCMNI": true,
                "BDLGHOJPJHD": "",
                "LCOJGFEOLCK": "",
                "BBBGAEDCJEL": ""
            }
        ],
        [
            {
                "$type": "CCEEIGNAILH",
                "type": "DIALOG",
                "aliasList": [
                    "1005"
                ],
                "KICBIOMGHIN": 730182221,
                "PNCCODDABKI": 0.9700000286102295
            },
            {
                "$type": "IBPNIIGAIPF",
                "type": "LOOK_AT",
                "aliasList": [
                    "1005"
                ],
                "actionId": 248,
                "GGIENKFBOGL": true,
                "useTargetPos": true,
                "GCOONJBHNIM": true,
                "JHNJNNOPJKG": {
                    "x": -1846.8070068359375,
                    "y": -3.1549999713897705,
                    "z": 3295.926025390625
                },
                "NDOMJCOFKDJ": 0.5,
                "KIPMIDIKECP": "",
                "AHLPNEGAKGG": "NONE",
                "FGPHOPBEJDE": true,
                "HJJAFGPMJNJ": "",
                "AOFBAGFCGPJ": ""
            },
            {
                "$type": "CNBNGFNKLGP",
                "type": "STEER_TO",
                "duration": 2.0,
                "aliasList": [
                    "1005"
                ],
                "actionId": 249,
                "DEMFHGAIELL": "ABSOLUTE",
                "KDKLEJFHDJG": {
                    "x": -1842.718017578125,
                    "y": -4.432000160217285,
                    "z": 3291.9140625
                },
                "COJBPJMLIFM": true,
                "NLIKMFJCLBP": true,
                "KIPMIDIKECP": "",
                "PAFGDAOHLFL": true,
                "AOFBAGFCGPJ": ""
            },
            {
                "$type": "KCBOGFFHPBD",
                "type": "BODY_LANG",
                "aliasList": [
                    "1005"
                ],
                "actionId": 252,
                "GPIEDGOMCGL": 1170,
                "FHLAMNNHMFA": true,
                "KCEHDJLKIAL": false,
                "KCOLHJBDILK": true,
                "AOFEDPBOOIE": ""
            },
            {
                "$type": "IBPNIIGAIPF",
                "type": "LOOK_AT",
                "delayTime": 0.15700000524520874,
                "aliasList": [
                    "Avatar"
                ],
                "actionId": 250,
                "GGIENKFBOGL": true,
                "useTargetPos": true,
                "GCOONJBHNIM": true,
                "JHNJNNOPJKG": {
                    "x": -1842.7900390625,
                    "y": -3.4649999141693115,
                    "z": 3291.1650390625
                },
                "NDOMJCOFKDJ": 0.5,
                "KIPMIDIKECP": "",
                "AHLPNEGAKGG": "NONE",
                "FGPHOPBEJDE": true,
                "HJJAFGPMJNJ": "",
                "AOFBAGFCGPJ": ""
            },
            {
                "$type": "KCBOGFFHPBD",
                "type": "BODY_LANG",
                "delayTime": 1.3259999752044678,
                "aliasList": [
                    "1005"
                ],
                "actionId": 253,
                "GPIEDGOMCGL": 1180,
                "FHLAMNNHMFA": true,
                "KCEHDJLKIAL": false,
                "KCOLHJBDILK": true,
                "AOFEDPBOOIE": ""
            },
            {
                "$type": "KCBOGFFHPBD",
                "type": "BODY_LANG",
                "delayTime": 3.3469998836517334,
                "aliasList": [
                    "1005"
                ],
                "actionId": 254,
                "AHGOBCDHCMC": true,
                "FHLAMNNHMFA": true,
                "KCEHDJLKIAL": false,
                "KCOLHJBDILK": true,
                "AOFEDPBOOIE": ""
            },
            {
                "$type": "IBPNIIGAIPF",
                "type": "LOOK_AT",
                "delayTime": 3.6540000438690186,
                "aliasList": [
                    "Avatar"
                ],
                "actionId": 256,
                "GGIENKFBOGL": true,
                "useTargetPos": true,
                "GCOONJBHNIM": true,
                "JHNJNNOPJKG": {
                    "x": -1841.1500244140625,
                    "y": -4.105999946594238,
                    "z": 3292.08203125
                },
                "NDOMJCOFKDJ": 0.5,
                "KIPMIDIKECP": "",
                "AHLPNEGAKGG": "NONE",
                "FGPHOPBEJDE": true,
                "HJJAFGPMJNJ": "",
                "AOFBAGFCGPJ": ""
            },
            {
                "$type": "CNBNGFNKLGP",
                "type": "STEER_TO",
                "delayTime": 4.059999942779541,
                "duration": 2.0,
                "aliasList": [
                    "1005"
                ],
                "actionId": 259,
                "DEMFHGAIELL": "ABSOLUTE",
                "KDKLEJFHDJG": {
                    "x": -1842.1949462890625,
                    "y": -4.388999938964844,
                    "z": 3291.52587890625
                },
                "COJBPJMLIFM": true,
                "NLIKMFJCLBP": true,
                "KIPMIDIKECP": "",
                "PAFGDAOHLFL": true,
                "AOFBAGFCGPJ": ""
            },
            {
                "$type": "IBPNIIGAIPF",
                "type": "LOOK_AT",
                "delayTime": 4.114999771118164,
                "aliasList": [
                    "1005"
                ],
                "actionId": 260,
                "GGIENKFBOGL": true,
                "useTargetPos": true,
                "GCOONJBHNIM": true,
                "JHNJNNOPJKG": {
                    "x": -1841.1500244140625,
                    "y": -4.105999946594238,
                    "z": 3292.08203125
                },
                "NDOMJCOFKDJ": 0.5,
                "KIPMIDIKECP": "",
                "AHLPNEGAKGG": "NONE",
                "FGPHOPBEJDE": true,
                "HJJAFGPMJNJ": "",
                "AOFBAGFCGPJ": ""
            }
        ],
        [
            {
                "$type": "BCJBNCJOPCE",
                "type": "CAMERA_MOVE",
                "duration": 1.0,
                "actionId": 229,
                "AKFGKKEOEFA": {
                    "x": -1844.593017578125,
                    "y": -2.4660000801086426,
                    "z": 3291.239013671875
                },
                "NGEBMAEFFGJ": {
                    "x": -1843.6920166015625,
                    "y": -2.8510000705718994,
                    "z": 3291.43798828125
                },
                "LIGHLBKBDEI": 30.0,
                "GFIOJGJJGCN": 6,
                "ABAEPHOGOFF": "EaseInOutCubic",
                "KFDBMBFFANN": {},
                "IEJBKHHEJEN": true,
                "CEDHIBLHMKP": false,
                "KIPMIDIKECP": "",
                "ANFHNPOCMNI": true,
                "BDLGHOJPJHD": "",
                "LCOJGFEOLCK": "",
                "BBBGAEDCJEL": ""
            },
            {
                "$type": "IBPNIIGAIPF",
                "type": "LOOK_AT",
                "aliasList": [
                    "Avatar"
                ],
                "actionId": 258,
                "GGIENKFBOGL": true,
                "useTargetPos": true,
                "GCOONJBHNIM": true,
                "JHNJNNOPJKG": {
                    "x": -1844.698974609375,
                    "y": -4.163000106811523,
                    "z": 3295.7900390625
                },
                "NDOMJCOFKDJ": 0.5,
                "KIPMIDIKECP": "",
                "AHLPNEGAKGG": "NONE",
                "FGPHOPBEJDE": true,
                "HJJAFGPMJNJ": "",
                "AOFBAGFCGPJ": ""
            },
            {
                "$type": "KCBOGFFHPBD",
                "type": "BODY_LANG",
                "aliasList": [
                    "1005"
                ],
                "actionId": 255,
                "AHGOBCDHCMC": true,
                "FHLAMNNHMFA": true,
                "KCEHDJLKIAL": false,
                "KCOLHJBDILK": true,
                "AOFEDPBOOIE": ""
            },
            {
                "$type": "IBPNIIGAIPF",
                "type": "LOOK_AT",
                "aliasList": [
                    "1005"
                ],
                "actionId": 261,
                "GGIENKFBOGL": true,
                "useTargetPos": true,
                "GCOONJBHNIM": true,
                "JHNJNNOPJKG": {
                    "x": -1841.1500244140625,
                    "y": -4.105999946594238,
                    "z": 3292.08203125
                },
                "NDOMJCOFKDJ": 0.5,
                "KIPMIDIKECP": "",
                "AHLPNEGAKGG": "NONE",
                "FGPHOPBEJDE": true,
                "HJJAFGPMJNJ": "",
                "AOFBAGFCGPJ": ""
            },
            {
                "$type": "MoleMole.Config.ConfigTeleportToAction",
                "type": "TELEPORT_TO",
                "aliasList": [
                    "1005"
                ],
                "actionId": 309,
                "position": {
                    "x": -1843.1209716796875,
                    "y": -4.388999938964844,
                    "z": 3291.14990234375
                },
                "forward": {
                    "x": 0.9269999861717224,
                    "z": 0.37599998712539673
                },
                "openLongDisTeleport": true,
                "posBindMovingTargetKey": "",
                "forwardBindMovingTargetKey": ""
            },
            {
                "$type": "CNBNGFNKLGP",
                "type": "STEER_TO",
                "duration": 1.0,
                "aliasList": [
                    "1005"
                ],
                "actionId": 322,
                "DEMFHGAIELL": "ABSOLUTE",
                "KDKLEJFHDJG": {
                    "x": -1842.1949462890625,
                    "y": -4.388999938964844,
                    "z": 3291.52587890625
                },
                "COJBPJMLIFM": true,
                "NLIKMFJCLBP": true,
                "KIPMIDIKECP": "",
                "PAFGDAOHLFL": true,
                "AOFBAGFCGPJ": ""
            },
            {
                "$type": "CCEEIGNAILH",
                "type": "DIALOG",
                "aliasList": [
                    "20605"
                ],
                "KICBIOMGHIN": 730182222,
                "PNCCODDABKI": 1.159999966621399
            },
            {
                "$type": "BCJBNCJOPCE",
                "type": "CAMERA_MOVE",
                "delayTime": 0.2709999978542328,
                "duration": 11.611000061035156,
                "actionId": 262,
                "AKFGKKEOEFA": {
                    "x": -1844.552978515625,
                    "y": -2.4830000400543213,
                    "z": 3291.248046875
                },
                "NGEBMAEFFGJ": {
                    "x": -1843.6519775390625,
                    "y": -2.868000030517578,
                    "z": 3291.447998046875
                },
                "LIGHLBKBDEI": 30.0,
                "ABAEPHOGOFF": "EaseOutQuad",
                "KFDBMBFFANN": {},
                "IEJBKHHEJEN": true,
                "CEDHIBLHMKP": false,
                "KIPMIDIKECP": "",
                "ANFHNPOCMNI": true,
                "BDLGHOJPJHD": "",
                "LCOJGFEOLCK": "",
                "BBBGAEDCJEL": ""
            }
        ],
        [
            {
                "$type": "BCJBNCJOPCE",
                "type": "CAMERA_MOVE",
                "duration": 11.611000061035156,
                "actionId": 263,
                "AKFGKKEOEFA": {
                    "x": -1844.5059814453125,
                    "y": -2.503000020980835,
                    "z": 3291.258056640625
                },
                "NGEBMAEFFGJ": {
                    "x": -1843.60498046875,
                    "y": -2.888000011444092,
                    "z": 3291.4580078125
                },
                "LIGHLBKBDEI": 30.0,
                "ABAEPHOGOFF": "EaseOutQuad",
                "KFDBMBFFANN": {},
                "IEJBKHHEJEN": true,
                "CEDHIBLHMKP": false,
                "KIPMIDIKECP": "",
                "ANFHNPOCMNI": true,
                "BDLGHOJPJHD": "",
                "LCOJGFEOLCK": "",
                "BBBGAEDCJEL": ""
            },
            {
                "$type": "CCEEIGNAILH",
                "type": "DIALOG",
                "aliasList": [
                    "20605"
                ],
                "KICBIOMGHIN": 730182223,
                "PNCCODDABKI": 0.5
            },
            {
                "$type": "KCBOGFFHPBD",
                "type": "BODY_LANG",
                "aliasList": [
                    "20605"
                ],
                "actionId": 271,
                "GPIEDGOMCGL": 4030,
                "FHLAMNNHMFA": true,
                "KCEHDJLKIAL": false,
                "KCOLHJBDILK": true,
                "AOFEDPBOOIE": ""
            }
        ],
        [
            {
                "$type": "BCJBNCJOPCE",
                "type": "CAMERA_MOVE",
                "duration": 1.0,
                "actionId": 264,
                "AKFGKKEOEFA": {
                    "x": -1842.4720458984375,
                    "y": -2.7869999408721924,
                    "z": 3286.001953125
                },
                "NGEBMAEFFGJ": {
                    "x": -1842.3919677734375,
                    "y": -2.950000047683716,
                    "z": 3286.985107421875
                },
                "LIGHLBKBDEI": 30.0,
                "GFIOJGJJGCN": 6,
                "ABAEPHOGOFF": "EaseInOutCubic",
                "KFDBMBFFANN": {},
                "IEJBKHHEJEN": true,
                "CEDHIBLHMKP": false,
                "KIPMIDIKECP": "",
                "ANFHNPOCMNI": true,
                "BDLGHOJPJHD": "",
                "LCOJGFEOLCK": "",
                "BBBGAEDCJEL": ""
            },
            {
                "$type": "IBPNIIGAIPF",
                "type": "LOOK_AT",
                "aliasList": [
                    "Avatar"
                ],
                "actionId": 316,
                "GGIENKFBOGL": true,
                "useTargetPos": true,
                "GCOONJBHNIM": true,
                "JHNJNNOPJKG": {
                    "x": -1841.1500244140625,
                    "y": -4.105999946594238,
                    "z": 3292.08203125
                },
                "NDOMJCOFKDJ": 0.5,
                "KIPMIDIKECP": "",
                "AHLPNEGAKGG": "NONE",
                "FGPHOPBEJDE": true,
                "HJJAFGPMJNJ": "",
                "AOFBAGFCGPJ": ""
            },
            {
                "$type": "CCEEIGNAILH",
                "type": "DIALOG",
                "aliasList": [
                    "1005"
                ],
                "KICBIOMGHIN": 730182224,
                "PNCCODDABKI": 0.5
            },
            {
                "$type": "MoleMole.Config.ConfigTeleportToAction",
                "type": "TELEPORT_TO",
                "aliasList": [
                    "1005"
                ],
                "actionId": 314,
                "position": {
                    "x": -1843.2149658203125,
                    "y": -4.382999897003174,
                    "z": 3291.095947265625
                },
                "forward": {
                    "x": 0.9810000061988831,
                    "z": 0.1940000057220459
                },
                "openLongDisTeleport": true,
                "posBindMovingTargetKey": "",
                "forwardBindMovingTargetKey": ""
            },
            {
                "$type": "IBPNIIGAIPF",
                "type": "LOOK_AT",
                "aliasList": [
                    "1005"
                ],
                "actionId": 315,
                "GGIENKFBOGL": true,
                "useTargetPos": true,
                "GCOONJBHNIM": true,
                "JHNJNNOPJKG": {
                    "x": -1841.1500244140625,
                    "y": -4.105999946594238,
                    "z": 3292.08203125
                },
                "NDOMJCOFKDJ": 0.5,
                "KIPMIDIKECP": "",
                "AHLPNEGAKGG": "NONE",
                "FGPHOPBEJDE": true,
                "HJJAFGPMJNJ": "",
                "AOFBAGFCGPJ": ""
            },
            {
                "$type": "KCBOGFFHPBD",
                "type": "BODY_LANG",
                "aliasList": [
                    "1005"
                ],
                "actionId": 317,
                "GPIEDGOMCGL": 1260,
                "FHLAMNNHMFA": true,
                "KCEHDJLKIAL": false,
                "KCOLHJBDILK": true,
                "AOFEDPBOOIE": ""
            },
            {
                "$type": "BCJBNCJOPCE",
                "type": "CAMERA_MOVE",
                "delayTime": 0.15399999916553497,
                "duration": 11.409000396728516,
                "actionId": 272,
                "AKFGKKEOEFA": {
                    "x": -1842.2869873046875,
                    "y": -2.7739999294281006,
                    "z": 3285.989013671875
                },
                "NGEBMAEFFGJ": {
                    "x": -1842.20703125,
                    "y": -2.937000036239624,
                    "z": 3286.971923828125
                },
                "LIGHLBKBDEI": 30.0,
                "ABAEPHOGOFF": "EaseOutQuad",
                "KFDBMBFFANN": {},
                "IEJBKHHEJEN": true,
                "CEDHIBLHMKP": false,
                "KIPMIDIKECP": "",
                "ANFHNPOCMNI": true,
                "BDLGHOJPJHD": "",
                "LCOJGFEOLCK": "",
                "BBBGAEDCJEL": ""
            },
            {
                "$type": "KCBOGFFHPBD",
                "type": "BODY_LANG",
                "delayTime": 1.6269999742507935,
                "aliasList": [
                    "1005"
                ],
                "actionId": 274,
                "GPIEDGOMCGL": 1090,
                "FHLAMNNHMFA": true,
                "KCEHDJLKIAL": false,
                "KCOLHJBDILK": true,
                "AOFEDPBOOIE": ""
            }
        ],
        [
            {
                "$type": "BCJBNCJOPCE",
                "type": "CAMERA_MOVE",
                "duration": 1.0,
                "actionId": 265,
                "AKFGKKEOEFA": {
                    "x": -1842.800048828125,
                    "y": -3.3589999675750732,
                    "z": 3291.927001953125
                },
                "NGEBMAEFFGJ": {
                    "x": -1842.1669921875,
                    "y": -3.816999912261963,
                    "z": 3292.551025390625
                },
                "LIGHLBKBDEI": 30.0,
                "GFIOJGJJGCN": 6,
                "ABAEPHOGOFF": "EaseInOutCubic",
                "KFDBMBFFANN": {},
                "IEJBKHHEJEN": true,
                "CEDHIBLHMKP": false,
                "KIPMIDIKECP": "",
                "ANFHNPOCMNI": true,
                "BDLGHOJPJHD": "",
                "LCOJGFEOLCK": "",
                "BBBGAEDCJEL": ""
            },
            {
                "$type": "CCEEIGNAILH",
                "type": "DIALOG",
                "aliasList": [
                    "20608"
                ],
                "KICBIOMGHIN": 730182225,
                "PNCCODDABKI": 0.5
            },
            {
                "$type": "MEKNGCBGKEJ",
                "type": "DIALOG_SELECT",
                "delayTime": 0.4000000059604645,
                "aliasList": [
                    "Avatar"
                ],
                "MLAABINGLAA": [
                    730182226
                ],
                "HPBPDBFGKID": [
                    2597993453
                ],
                "CFJOJADDHHG": true
            }
        ],
        [
            {
                "$type": "BCJBNCJOPCE",
                "type": "CAMERA_MOVE",
                "duration": 1.0,
                "actionId": 266,
                "AKFGKKEOEFA": {
                    "x": -1840.218994140625,
                    "y": -4.136000156402588,
                    "z": 3293.12109375
                },
                "NGEBMAEFFGJ": {
                    "x": -1841.1490478515625,
                    "y": -3.8970000743865967,
                    "z": 3292.842041015625
                },
                "LIGHLBKBDEI": 30.0,
                "GFIOJGJJGCN": 6,
                "ABAEPHOGOFF": "EaseInOutCubic",
                "KFDBMBFFANN": {},
                "IEJBKHHEJEN": true,
                "CEDHIBLHMKP": false,
                "KIPMIDIKECP": "",
                "ANFHNPOCMNI": true,
                "BDLGHOJPJHD": "",
                "LCOJGFEOLCK": "",
                "BBBGAEDCJEL": ""
            },
            {
                "$type": "IBPNIIGAIPF",
                "type": "LOOK_AT",
                "aliasList": [
                    "Avatar"
                ],
                "actionId": 281,
                "GGIENKFBOGL": true,
                "useTargetPos": true,
                "GCOONJBHNIM": true,
                "JHNJNNOPJKG": {
                    "x": -1842.0489501953125,
                    "y": -4.11299991607666,
                    "z": 3292.714111328125
                },
                "NDOMJCOFKDJ": 0.5,
                "KIPMIDIKECP": "",
                "AHLPNEGAKGG": "NONE",
                "FGPHOPBEJDE": true,
                "HJJAFGPMJNJ": "",
                "AOFBAGFCGPJ": ""
            },
            {
                "$type": "CCEEIGNAILH",
                "type": "DIALOG",
                "aliasList": [
                    "1005"
                ],
                "KICBIOMGHIN": 730182227,
                "PNCCODDABKI": 0.5
            },
            {
                "$type": "KCBOGFFHPBD",
                "type": "BODY_LANG",
                "aliasList": [
                    "1005"
                ],
                "actionId": 278,
                "GPIEDGOMCGL": 1230,
                "FHLAMNNHMFA": true,
                "KCEHDJLKIAL": false,
                "KCOLHJBDILK": true,
                "AOFEDPBOOIE": ""
            },
            {
                "$type": "IBPNIIGAIPF",
                "type": "LOOK_AT",
                "aliasList": [
                    "1005"
                ],
                "actionId": 283,
                "GGIENKFBOGL": true,
                "useTargetPos": true,
                "GCOONJBHNIM": true,
                "JHNJNNOPJKG": {
                    "x": -1842.0489501953125,
                    "y": -4.11299991607666,
                    "z": 3292.714111328125
                },
                "NDOMJCOFKDJ": 0.5,
                "KIPMIDIKECP": "",
                "AHLPNEGAKGG": "NONE",
                "FGPHOPBEJDE": true,
                "HJJAFGPMJNJ": "",
                "AOFBAGFCGPJ": ""
            }
        ],
        [
            {
                "$type": "MoleMole.Config.ConfigSimpleBlackScreenAction",
                "type": "SIMPLE_BLACK_SCREEN",
                "durationToBlack": 0.5,
                "durationKeepBlack": 3.0,
                "durationFromBlack": 0.5,
                "textMapID": "",
                "useTextFade": true,
                "dialogID": 730182228
            },
            {
                "$type": "CCEEIGNAILH",
                "type": "DIALOG_CLEAR"
            },
            {
                "$type": "MoleMole.Config.ConfigTimeProtectAction",
                "type": "TIME_PROTECT",
                "duration": 3.0,
                "actionId": 267
            },
            {
                "$type": "KCBOGFFHPBD",
                "type": "BODY_LANG",
                "delayTime": 1.4609999656677246,
                "aliasList": [
                    "1005"
                ],
                "actionId": 284,
                "AHGOBCDHCMC": true,
                "FHLAMNNHMFA": true,
                "KCEHDJLKIAL": false,
                "KCOLHJBDILK": true,
                "AOFEDPBOOIE": ""
            }
        ],
        [
            {
                "$type": "BCJBNCJOPCE",
                "type": "CAMERA_MOVE",
                "duration": 1.0,
                "actionId": 268,
                "AKFGKKEOEFA": {
                    "x": -1846.137939453125,
                    "y": 1.9500000476837158,
                    "z": 3290.09912109375
                },
                "NGEBMAEFFGJ": {
                    "x": -1845.5579833984375,
                    "y": 1.1490000486373901,
                    "z": 3290.2490234375
                },
                "LIGHLBKBDEI": 30.0,
                "GFIOJGJJGCN": 6,
                "ABAEPHOGOFF": "EaseInOutCubic",
                "KFDBMBFFANN": {},
                "IEJBKHHEJEN": true,
                "CEDHIBLHMKP": false,
                "KIPMIDIKECP": "",
                "ANFHNPOCMNI": true,
                "BDLGHOJPJHD": "",
                "LCOJGFEOLCK": "",
                "BBBGAEDCJEL": ""
            },
            {
                "$type": "IBPNIIGAIPF",
                "type": "LOOK_AT",
                "aliasList": [
                    "Avatar"
                ],
                "actionId": 324,
                "GGIENKFBOGL": true,
                "useTargetPos": true,
                "GCOONJBHNIM": true,
                "JHNJNNOPJKG": {
                    "x": -1841.1500244140625,
                    "y": -4.105999946594238,
                    "z": 3292.08203125
                },
                "NDOMJCOFKDJ": 0.5,
                "KIPMIDIKECP": "",
                "AHLPNEGAKGG": "NONE",
                "FGPHOPBEJDE": true,
                "HJJAFGPMJNJ": "",
                "AOFBAGFCGPJ": ""
            },
            {
                "$type": "IBPNIIGAIPF",
                "type": "LOOK_AT",
                "aliasList": [
                    "1005"
                ],
                "actionId": 325,
                "GGIENKFBOGL": true,
                "useTargetPos": true,
                "GCOONJBHNIM": true,
                "JHNJNNOPJKG": {
                    "x": -1841.1500244140625,
                    "y": -4.105999946594238,
                    "z": 3292.08203125
                },
                "NDOMJCOFKDJ": 0.5,
                "KIPMIDIKECP": "",
                "AHLPNEGAKGG": "NONE",
                "FGPHOPBEJDE": true,
                "HJJAFGPMJNJ": "",
                "AOFBAGFCGPJ": ""
            },
            {
                "$type": "CCEEIGNAILH",
                "type": "DIALOG",
                "aliasList": [
                    "20605"
                ],
                "KICBIOMGHIN": 730182229,
                "PNCCODDABKI": 0.5
            },
            {
                "$type": "BCJBNCJOPCE",
                "type": "CAMERA_MOVE",
                "delayTime": 0.13500000536441803,
                "duration": 14.074999809265137,
                "actionId": 269,
                "AKFGKKEOEFA": {
                    "x": -1846.008056640625,
                    "y": 1.9500000476837158,
                    "z": 3289.697021484375
                },
                "NGEBMAEFFGJ": {
                    "x": -1845.449951171875,
                    "y": 1.1490000486373901,
                    "z": 3289.9130859375
                },
                "LIGHLBKBDEI": 30.0,
                "ABAEPHOGOFF": "EaseOutQuad",
                "KFDBMBFFANN": {},
                "IEJBKHHEJEN": true,
                "CEDHIBLHMKP": false,
                "KIPMIDIKECP": "",
                "ANFHNPOCMNI": true,
                "BDLGHOJPJHD": "",
                "LCOJGFEOLCK": "",
                "BBBGAEDCJEL": ""
            },
            {
                "$type": "MEKNGCBGKEJ",
                "type": "DIALOG_SELECT",
                "delayTime": 0.4000000059604645,
                "aliasList": [
                    "Avatar"
                ],
                "MLAABINGLAA": [
                    730182230
                ],
                "HPBPDBFGKID": [
                    2597993456
                ],
                "CFJOJADDHHG": true
            }
        ],
        [
            {
                "$type": "BCJBNCJOPCE",
                "type": "CAMERA_MOVE",
                "duration": 14.074999809265137,
                "actionId": 323,
                "AKFGKKEOEFA": {
                    "x": -1846.0069580078125,
                    "y": 1.9290000200271606,
                    "z": 3289.614990234375
                },
                "NGEBMAEFFGJ": {
                    "x": -1845.448974609375,
                    "y": 1.1319999694824219,
                    "z": 3289.844970703125
                },
                "LIGHLBKBDEI": 30.0,
                "ABAEPHOGOFF": "EaseOutQuad",
                "KFDBMBFFANN": {},
                "IEJBKHHEJEN": true,
                "CEDHIBLHMKP": false,
                "KIPMIDIKECP": "",
                "ANFHNPOCMNI": true,
                "BDLGHOJPJHD": "",
                "LCOJGFEOLCK": "",
                "BBBGAEDCJEL": ""
            },
            {
                "$type": "CCEEIGNAILH",
                "type": "DIALOG",
                "aliasList": [
                    "20605"
                ],
                "KICBIOMGHIN": 730182231,
                "PNCCODDABKI": 0.5
            },
            {
                "$type": "KCBOGFFHPBD",
                "type": "BODY_LANG",
                "aliasList": [
                    "20605"
                ],
                "actionId": 289,
                "GPIEDGOMCGL": 4030,
                "FHLAMNNHMFA": true,
                "KCEHDJLKIAL": false,
                "KCOLHJBDILK": true,
                "AOFEDPBOOIE": ""
            }
        ],
        [
            {
                "$type": "MoleMole.Config.ConfigSimpleBlackScreenAction",
                "type": "SIMPLE_BLACK_SCREEN",
                "durationToBlack": 0.5,
                "durationKeepBlack": 1.0,
                "durationFromBlack": 0.5,
                "textMapID": ""
            },
            {
                "$type": "MoleMole.Config.ConfigTimeProtectAction",
                "type": "TIME_PROTECT",
                "duration": 0.699999988079071
            },
            {
                "$type": "BCJBNCJOPCE",
                "type": "CAMERA_MOVE",
                "delayTime": 0.6000000238418579,
                "duration": 0.10000000149011612,
                "actionId": 287,
                "AKFGKKEOEFA": {
                    "x": -1848.823974609375,
                    "y": -1.9149999618530273,
                    "z": 3292.287109375
                },
                "NGEBMAEFFGJ": {
                    "x": -1847.8580322265625,
                    "y": -2.1689999103546143,
                    "z": 3292.240966796875
                },
                "GFIOJGJJGCN": 6,
                "ABAEPHOGOFF": "EaseInOutCubic",
                "KFDBMBFFANN": {},
                "IEJBKHHEJEN": true,
                "CEDHIBLHMKP": false,
                "KIPMIDIKECP": "",
                "ANFHNPOCMNI": true,
                "BDLGHOJPJHD": "",
                "LCOJGFEOLCK": "",
                "BBBGAEDCJEL": ""
            }
        ]
    ],
    "groupId": [
        {
            "grpId": 3547489541,
            "nextGrpId": 3547489542
        },
        {
            "index": 1,
            "grpId": 3547489542,
            "nextGrpId": 3547489543
        },
        {
            "index": 2,
            "grpId": 3547489543,
            "nextGrpId": 3547489544
        },
        {
            "index": 3,
            "grpId": 3547489544,
            "nextGrpId": 3547489545
        },
        {
            "index": 4,
            "grpId": 3547489545,
            "nextGrpId": 3547489546
        },
        {
            "index": 5,
            "grpId": 3547489546,
            "nextGrpId": 3547489547
        },
        {
            "index": 6,
            "grpId": 3547489547,
            "nextGrpId": 3547489548
        },
        {
            "index": 7,
            "grpId": 3547489548,
            "nextGrpId": 3547489549
        },
        {
            "index": 8,
            "grpId": 3547489549,
            "nextGrpId": 2597993419
        },
        {
            "index": 9,
            "grpId": 2597993419,
            "nextGrpId": 2597993420
        },
        {
            "index": 10,
            "grpId": 2597993420,
            "nextGrpId": 2597993421
        },
        {
            "index": 11,
            "grpId": 2597993421,
            "nextGrpId": 2597993422
        },
        {
            "index": 12,
            "grpId": 2597993422,
            "nextGrpId": 2597993423
        },
        {
            "index": 13,
            "grpId": 2597993423,
            "nextGrpId": 2597993424
        },
        {
            "index": 14,
            "grpId": 2597993424,
            "nextGrpId": 2597993425
        },
        {
            "index": 15,
            "grpId": 2597993425,
            "nextGrpId": 2597993426
        },
        {
            "index": 16,
            "grpId": 2597993426,
            "nextGrpId": 2597993427
        },
        {
            "index": 17,
            "grpId": 2597993427,
            "nextGrpId": 2597993428
        },
        {
            "index": 18,
            "grpId": 2597993428,
            "nextGrpId": 2597993450
        },
        {
            "index": 19,
            "grpId": 2597993450,
            "nextGrpId": 2597993451
        },
        {
            "index": 20,
            "grpId": 2597993451,
            "nextGrpId": 2597993452
        },
        {
            "index": 21,
            "grpId": 2597993452,
            "nextGrpId": 2597993453
        },
        {
            "index": 22,
            "grpId": 2597993453,
            "nextGrpId": 2597993454
        },
        {
            "index": 23,
            "grpId": 2597993454,
            "nextGrpId": 2597993455
        },
        {
            "index": 24,
            "grpId": 2597993455,
            "nextGrpId": 2597993456
        },
        {
            "index": 25,
            "grpId": 2597993456,
            "nextGrpId": 2597993457
        },
        {
            "index": 26,
            "grpId": 2597993457,
            "nextGrpId": 2597993458
        }
    ],
    "freeStyleDic": {
        "20605": [
            4040,
            4030
        ],
        "20607": [
            4030
        ],
        "20606": [
            4040
        ],
        "20608": []
    }
}