{
    "luaDataPath": "",
    "isSimpleTalk": true,
    "startBlackKeepTime": 0.5,
    "entityBan": "",
    "disableNpcLod": true,
    "protectNpcMobileLod": true,
    "startFade": {
        "startFadeInDuration": 0.5,
        "startFadeOutDuration": 0.5
    },
    "endFade": {
        "startFadeOutDuration": 0.0
    },
    "actors": [
        {
            "alias": "Avatar",
            "visible": true,
            "bornPointName": "T7321111",
            "relativePosType": "AVATAR_NEW",
            "relativePosNpcAlias": "",
            "bindMovingTargetKey": ""
        }
    ],
    "group": [
        [
            {
                "$type": "MoleMole.Config.ConfigTimeProtectAction",
                "type": "TIME_PROTECT",
                "duration": 1.0,
                "actionId": 110
            },
            {
                "$type": "MoleMole.Config.ConfigBlackScreenAction",
                "type": "BLACK_SCREEN",
                "actionId": 111,
                "blackScreenType": "KEEP_BLACK",
                "durationKeepBlack": 0.5,
                "inteePos": "",
                "textMapID": "",
                "useTextFade": true
            },
            {
                "$type": "MoleMole.Config.ConfigTeleportToAction",
                "type": "TELEPORT_TO",
                "aliasList": [
                    "Avatar"
                ],
                "actionId": 117,
                "position": {
                    "x": -2291.947998046875,
                    "y": 246.34500122070312,
                    "z": 3943.4189453125
                },
                "forward": {
                    "x": 0.5649999976158142,
                    "z": -0.824999988079071
                },
                "openLongDisTeleport": true,
                "posBindMovingTargetKey": "",
                "forwardBindMovingTargetKey": ""
            },
            {
                "$type": "BCJBNCJOPCE",
                "type": "CAMERA_MOVE",
                "delayTime": 0.550000011920929,
                "duration": 0.10000000149011612,
                "actionId": 115,
                "AKFGKKEOEFA": {
                    "x": -2293.868896484375,
                    "y": 284.3399963378906,
                    "z": 3945.48095703125
                },
                "NGEBMAEFFGJ": {
                    "x": -2293.7900390625,
                    "y": 283.3559875488281,
                    "z": 3945.319091796875
                },
                "GFIOJGJJGCN": 6,
                "ABAEPHOGOFF": "EaseInOutCubic",
                "KFDBMBFFANN": {},
                "IEJBKHHEJEN": true,
                "CEDHIBLHMKP": false,
                "KIPMIDIKECP": "",
                "ANFHNPOCMNI": true,
                "BDLGHOJPJHD": "",
                "LCOJGFEOLCK": "",
                "BBBGAEDCJEL": ""
            }
        ],
        [
            {
                "$type": "MoleMole.Config.ConfigBlackScreenAction",
                "type": "BLACK_SCREEN",
                "actionId": 112,
                "blackScreenType": "FROM_BLACK",
                "durationFromBlack": 0.5,
                "inteePos": "",
                "textMapID": "",
                "useTextFade": true
            },
            {
                "$type": "BCJBNCJOPCE",
                "type": "CAMERA_MOVE",
                "duration": 0.5,
                "actionId": 113,
                "AKFGKKEOEFA": {
                    "x": -2293.868896484375,
                    "y": 284.3399963378906,
                    "z": 3945.48095703125
                },
                "NGEBMAEFFGJ": {
                    "x": -2293.7900390625,
                    "y": 283.3559875488281,
                    "z": 3945.319091796875
                },
                "GFIOJGJJGCN": 6,
                "ABAEPHOGOFF": "EaseInOutCubic",
                "KFDBMBFFANN": {},
                "IEJBKHHEJEN": true,
                "CEDHIBLHMKP": false,
                "KIPMIDIKECP": "",
                "ANFHNPOCMNI": true,
                "BDLGHOJPJHD": "",
                "LCOJGFEOLCK": "",
                "BBBGAEDCJEL": ""
            },
            {
                "$type": "MoleMole.Config.ConfigTimeProtectAction",
                "type": "TIME_PROTECT",
                "duration": 4.192999839782715,
                "actionId": 122
            },
            {
                "$type": "MoleMole.Config.ConfigTeleportToAction",
                "type": "TELEPORT_TO",
                "aliasList": [
                    "Avatar"
                ],
                "actionId": 107,
                "position": {
                    "x": -2291.947998046875,
                    "y": 246.34500122070312,
                    "z": 3943.4189453125
                },
                "forward": {
                    "x": 0.5649999976158142,
                    "z": -0.824999988079071
                },
                "openLongDisTeleport": true,
                "posBindMovingTargetKey": "",
                "forwardBindMovingTargetKey": ""
            },
            {
                "$type": "BCJBNCJOPCE",
                "type": "CAMERA_MOVE",
                "delayTime": 0.04399999976158142,
                "duration": 8.048999786376953,
                "actionId": 114,
                "AKFGKKEOEFA": {
                    "x": -2293.64599609375,
                    "y": 281.572998046875,
                    "z": 3945.02587890625
                },
                "NGEBMAEFFGJ": {
                    "x": -2293.56689453125,
                    "y": 280.5889892578125,
                    "z": 3944.864013671875
                },
                "ABAEPHOGOFF": "EaseOutQuad",
                "KFDBMBFFANN": {},
                "IEJBKHHEJEN": true,
                "CEDHIBLHMKP": false,
                "KIPMIDIKECP": "",
                "ANFHNPOCMNI": true,
                "BDLGHOJPJHD": "",
                "LCOJGFEOLCK": "",
                "BBBGAEDCJEL": ""
            }
        ],
        [
            {
                "$type": "MoleMole.Config.ConfigTimeProtectAction",
                "type": "TIME_PROTECT",
                "duration": 1.0,
                "actionId": 105
            },
            {
                "$type": "MoleMole.Config.ConfigSimpleBlackScreenAction",
                "type": "SIMPLE_BLACK_SCREEN",
                "actionId": 120,
                "durationToBlack": 0.5,
                "durationKeepBlack": 1.0,
                "durationFromBlack": 0.5,
                "textMapID": "",
                "useTextFade": true
            },
            {
                "$type": "BCJBNCJOPCE",
                "type": "CAMERA_MOVE",
                "delayTime": 0.550000011920929,
                "duration": 0.10000000149011612,
                "actionId": 121,
                "AKFGKKEOEFA": {
                    "x": -2292.85595703125,
                    "y": 247.66299438476562,
                    "z": 3944.7119140625
                },
                "NGEBMAEFFGJ": {
                    "x": -2292.259033203125,
                    "y": 247.56700134277344,
                    "z": 3943.916015625
                },
                "GFIOJGJJGCN": 6,
                "ABAEPHOGOFF": "EaseInOutCubic",
                "KFDBMBFFANN": {},
                "IEJBKHHEJEN": true,
                "CEDHIBLHMKP": false,
                "KIPMIDIKECP": "",
                "ANFHNPOCMNI": true,
                "BDLGHOJPJHD": "",
                "LCOJGFEOLCK": "",
                "BBBGAEDCJEL": ""
            }
        ]
    ],
    "groupId": [
        {
            "grpId": 3401305221,
            "nextGrpId": 3401305222
        },
        {
            "index": 1,
            "grpId": 3401305222,
            "nextGrpId": 3401305223
        },
        {
            "index": 2,
            "grpId": 3401305223,
            "nextGrpId": 3401305224
        }
    ]
}