{
    "luaDataPath": "",
    "isSimpleTalk": true,
    "entityBan": "",
    "disableNpcLod": true,
    "startFade": {
        "startFadeOutDuration": 0.0
    },
    "endFade": {
        "startFadeOutDuration": 0.0
    },
    "actors": [
        {
            "alias": "Avatar",
            "visible": true,
            "bornPointName": "",
            "relativePosNpcAlias": "",
            "bindMovingTargetKey": ""
        },
        {
            "configID": 20394,
            "alias": "20394",
            "visible": true,
            "bornPointName": "",
            "relativePosNpcAlias": "",
            "bindMovingTargetKey": ""
        },
        {
            "configID": 1005,
            "alias": "1005",
            "visible": true,
            "bornPointName": "",
            "useRelativePos": true,
            "relativePos": {
                "x": 0.5,
                "z": 0.5
            },
            "removeActorType": "REMOVE_WITH_DISAPPEAR",
            "relativePosNpcAlias": "",
            "bindMovingTargetKey": ""
        }
    ],
    "group": [
        [
            {
                "$type": "BCJBNCJOPCE",
                "type": "CAMERA_FOCUS",
                "duration": 0.10000000149011612,
                "KIPMIDIKECP": "",
                "BDLGHOJPJHD": "",
                "LCOJGFEOLCK": "",
                "BBBGAEDCJEL": ""
            },
            {
                "$type": "MoleMole.Config.ConfigTimeProtectAction",
                "type": "TIME_PROTECT",
                "duration": 0.10000000149011612
            }
        ],
        [
            {
                "$type": "MEKNGCBGKEJ",
                "type": "DIALOG_SELECT",
                "delayTime": 0.4000000059604645,
                "aliasList": [
                    "Avatar"
                ],
                "MLAABINGLAA": [
                    721891002,
                    721891005,
                    721891021
                ],
                "HPBPDBFGKID": [
                    1788443519,
                    1788443521,
                    3902141530
                ],
                "CFJOJADDHHG": true
            },
            {
                "$type": "CCEEIGNAILH",
                "type": "DIALOG",
                "aliasList": [
                    "20394"
                ],
                "KICBIOMGHIN": 721891001,
                "PNCCODDABKI": 0.5
            },
            {
                "$type": "CNBNGFNKLGP",
                "type": "STEER_TO",
                "duration": 0.800000011920929,
                "aliasList": [
                    "20394"
                ],
                "DEMFHGAIELL": "TO_LOCAL_AVATAR",
                "BBNLLCHBKAI": true,
                "KIPMIDIKECP": "",
                "AOFBAGFCGPJ": ""
            },
            {
                "$type": "IBPNIIGAIPF",
                "type": "LOOK_AT",
                "aliasList": [
                    "20394"
                ],
                "NDOMJCOFKDJ": 0.5,
                "KIPMIDIKECP": "",
                "AHLPNEGAKGG": "NONE",
                "HJJAFGPMJNJ": "",
                "AOFBAGFCGPJ": ""
            },
            {
                "$type": "IBPNIIGAIPF",
                "type": "LOOK_AT",
                "delayTime": 0.6833332777023315,
                "aliasList": [
                    "20394"
                ],
                "GGIENKFBOGL": true,
                "NDOMJCOFKDJ": 0.5,
                "KIPMIDIKECP": "Avatar",
                "HJJAFGPMJNJ": "",
                "AOFBAGFCGPJ": ""
            }
        ],
        [
            {
                "$type": "CCEEIGNAILH",
                "type": "DIALOG",
                "aliasList": [
                    "20394"
                ],
                "KICBIOMGHIN": 721891003,
                "PNCCODDABKI": 0.5
            }
        ],
        [
            {
                "$type": "CCEEIGNAILH",
                "type": "DIALOG",
                "aliasList": [
                    "20394"
                ],
                "KICBIOMGHIN": 721891004,
                "PNCCODDABKI": 0.5
            }
        ],
        [
            {
                "$type": "MEKNGCBGKEJ",
                "type": "DIALOG_SELECT",
                "delayTime": 0.4000000059604645,
                "aliasList": [
                    "Avatar"
                ],
                "MLAABINGLAA": [
                    721891007,
                    721891011,
                    721891016
                ],
                "HPBPDBFGKID": [
                    1788443522,
                    1788443525,
                    3902141526
                ],
                "CFJOJADDHHG": true
            },
            {
                "$type": "CCEEIGNAILH",
                "type": "DIALOG",
                "aliasList": [
                    "20394"
                ],
                "KICBIOMGHIN": 721891006,
                "PNCCODDABKI": 0.5
            }
        ],
        [
            {
                "$type": "CCEEIGNAILH",
                "type": "DIALOG",
                "aliasList": [
                    "20394"
                ],
                "KICBIOMGHIN": 721891008,
                "PNCCODDABKI": 0.5
            }
        ],
        [
            {
                "$type": "CCEEIGNAILH",
                "type": "DIALOG",
                "aliasList": [
                    "20394"
                ],
                "KICBIOMGHIN": 721891009,
                "PNCCODDABKI": 0.5
            }
        ],
        [
            {
                "$type": "CCEEIGNAILH",
                "type": "DIALOG",
                "aliasList": [
                    "1005"
                ],
                "KICBIOMGHIN": 721891010,
                "PNCCODDABKI": 0.5
            }
        ],
        [
            {
                "$type": "CCEEIGNAILH",
                "type": "DIALOG",
                "aliasList": [
                    "20394"
                ],
                "KICBIOMGHIN": 721891012,
                "PNCCODDABKI": 0.5
            }
        ],
        [
            {
                "$type": "CCEEIGNAILH",
                "type": "DIALOG",
                "aliasList": [
                    "20394"
                ],
                "KICBIOMGHIN": 721891013,
                "PNCCODDABKI": 0.5
            }
        ],
        [
            {
                "$type": "CCEEIGNAILH",
                "type": "DIALOG",
                "aliasList": [
                    "20394"
                ],
                "KICBIOMGHIN": 721891014,
                "PNCCODDABKI": 0.5
            }
        ],
        [
            {
                "$type": "CCEEIGNAILH",
                "type": "DIALOG",
                "aliasList": [
                    "20394"
                ],
                "KICBIOMGHIN": 721891015,
                "PNCCODDABKI": 0.5
            }
        ],
        [
            {
                "$type": "CCEEIGNAILH",
                "type": "DIALOG",
                "aliasList": [
                    "20394"
                ],
                "KICBIOMGHIN": 721891017,
                "PNCCODDABKI": 0.5
            }
        ],
        [
            {
                "$type": "CCEEIGNAILH",
                "type": "DIALOG",
                "aliasList": [
                    "20394"
                ],
                "KICBIOMGHIN": 721891018,
                "PNCCODDABKI": 0.5
            }
        ],
        [
            {
                "$type": "CCEEIGNAILH",
                "type": "DIALOG",
                "aliasList": [
                    "20394"
                ],
                "KICBIOMGHIN": 721891019,
                "PNCCODDABKI": 0.5
            }
        ],
        [
            {
                "$type": "CCEEIGNAILH",
                "type": "DIALOG",
                "aliasList": [
                    "20394"
                ],
                "KICBIOMGHIN": 721891020,
                "PNCCODDABKI": 0.5
            }
        ],
        [
            {
                "$type": "CCEEIGNAILH",
                "type": "DIALOG",
                "aliasList": [
                    "20394"
                ],
                "KICBIOMGHIN": 721891022,
                "PNCCODDABKI": 0.5
            }
        ],
        [
            {
                "$type": "MoleMole.Config.ConfigTimeProtectAction",
                "type": "TIME_PROTECT",
                "duration": 0.10000000149011612
            },
            {
                "$type": "CNBNGFNKLGP",
                "type": "STEER_TO",
                "duration": 0.800000011920929,
                "aliasList": [
                    "20394"
                ],
                "DEMFHGAIELL": "RETURN",
                "BBNLLCHBKAI": true,
                "KIPMIDIKECP": "",
                "AOFBAGFCGPJ": ""
            },
            {
                "$type": "IBPNIIGAIPF",
                "type": "LOOK_AT",
                "aliasList": [
                    "20394"
                ],
                "NDOMJCOFKDJ": 0.5,
                "KIPMIDIKECP": "",
                "AHLPNEGAKGG": "NONE",
                "HJJAFGPMJNJ": "",
                "AOFBAGFCGPJ": ""
            }
        ],
        [
            {
                "$type": "MoleMole.Config.ConfigTimeProtectAction",
                "type": "TIME_PROTECT",
                "duration": 0.10000000149011612
            }
        ]
    ],
    "groupId": [
        {
            "grpId": 1788443517,
            "nextGrpId": 1788443518
        },
        {
            "index": 1,
            "grpId": 1788443518,
            "nextGrpId": 1788443519
        },
        {
            "index": 2,
            "grpId": 1788443519,
            "nextGrpId": 1788443520
        },
        {
            "index": 3,
            "grpId": 1788443520,
            "nextGrpId": 3902141531
        },
        {
            "index": 4,
            "grpId": 1788443521,
            "nextGrpId": 1788443522
        },
        {
            "index": 5,
            "grpId": 1788443522,
            "nextGrpId": 1788443523
        },
        {
            "index": 6,
            "grpId": 1788443523,
            "nextGrpId": 1788443524
        },
        {
            "index": 7,
            "grpId": 1788443524,
            "nextGrpId": 3902141531
        },
        {
            "index": 8,
            "grpId": 1788443525,
            "nextGrpId": 3902141523
        },
        {
            "index": 9,
            "grpId": 3902141523,
            "nextGrpId": 3902141524
        },
        {
            "index": 10,
            "grpId": 3902141524,
            "nextGrpId": 3902141525
        },
        {
            "index": 11,
            "grpId": 3902141525,
            "nextGrpId": 3902141531
        },
        {
            "index": 12,
            "grpId": 3902141526,
            "nextGrpId": 3902141527
        },
        {
            "index": 13,
            "grpId": 3902141527,
            "nextGrpId": 3902141528
        },
        {
            "index": 14,
            "grpId": 3902141528,
            "nextGrpId": 3902141529
        },
        {
            "index": 15,
            "grpId": 3902141529,
            "nextGrpId": 3902141531
        },
        {
            "index": 16,
            "grpId": 3902141530,
            "nextGrpId": 3902141531
        },
        {
            "index": 17,
            "grpId": 3902141531,
            "nextGrpId": 3902141532
        },
        {
            "index": 18,
            "grpId": 3902141532,
            "nextGrpId": 3902141554
        }
    ],
    "freeStyleDic": {
        "20394": []
    }
}