{
    "luaDataPath": "",
    "entityBan": "",
    "startFade": {
        "startFadeInDuration": 0.5,
        "startFadeOutDuration": 0.5
    },
    "endFade": {
        "startFadeOutDuration": 0.0
    },
    "actors": [
        {
            "alias": "Avatar",
            "visible": true,
            "bornPointName": "Q1100501Player",
            "relativePosNpcAlias": "",
            "bindMovingTargetKey": ""
        },
        {
            "configID": 163001,
            "alias": "163001",
            "visible": true,
            "bornPointName": "Q1100501Olaf",
            "relativePosNpcAlias": "",
            "bindMovingTargetKey": ""
        },
        {
            "configID": 153701,
            "alias": "153701",
            "visible": true,
            "bornPointName": "Q1100501Draff",
            "relativePosNpcAlias": "",
            "bindMovingTargetKey": ""
        },
        {
            "configID": 1005,
            "alias": "1005",
            "visible": true,
            "bornPointName": "Q1100501Paimon",
            "relativePosNpcAlias": "",
            "bindMovingTargetKey": ""
        },
        {
            "configID": 1012,
            "alias": "1012",
            "visible": true,
            "bornPointName": "Q1100501XL",
            "relativePosNpcAlias": "",
            "bindMovingTargetKey": ""
        }
    ],
    "group": [
        [
            {
                "$type": "BCJBNCJOPCE",
                "type": "CAMERA_MOVE",
                "duration": 1.0,
                "AKFGKKEOEFA": {
                    "x": 1929.3624267578125,
                    "y": 225.75665283203125,
                    "z": -940.72314453125
                },
                "NGEBMAEFFGJ": {
                    "x": 1930.01513671875,
                    "y": 225.527099609375,
                    "z": -940.0010986328125
                },
                "LIGHLBKBDEI": 30.0,
                "GFIOJGJJGCN": 6,
                "ABAEPHOGOFF": "EaseInOutCubic",
                "KFDBMBFFANN": {},
                "KIPMIDIKECP": "",
                "BDLGHOJPJHD": "",
                "LCOJGFEOLCK": "",
                "BBBGAEDCJEL": ""
            },
            {
                "$type": "MoleMole.Config.ConfigCameraDOFAction",
                "type": "CAMERA_DOF",
                "duration": 1.0,
                "enabled": true,
                "focusDistance": 10.0,
                "focusRange": 10.0,
                "quality": 3
            },
            {
                "$type": "BCJBNCJOPCE",
                "type": "CAMERA_MOVE",
                "delayTime": 0.10000000149011612,
                "duration": 10.0,
                "AKFGKKEOEFA": {
                    "x": 1929.3134765625,
                    "y": 225.75515747070312,
                    "z": -940.677001953125
                },
                "NGEBMAEFFGJ": {
                    "x": 1929.987548828125,
                    "y": 225.52560424804688,
                    "z": -939.974853515625
                },
                "LIGHLBKBDEI": 30.0,
                "ABAEPHOGOFF": "EaseInOutQuad",
                "KFDBMBFFANN": {},
                "KIPMIDIKECP": "",
                "BDLGHOJPJHD": "",
                "LCOJGFEOLCK": "",
                "BBBGAEDCJEL": ""
            },
            {
                "$type": "MoleMole.Config.ConfigTimeProtectAction",
                "type": "TIME_PROTECT",
                "duration": 1.0
            },
            {
                "$type": "MoleMole.Config.ConfigMoveToAction",
                "type": "MOVE_TO",
                "aliasList": [
                    "Avatar"
                ],
                "routeList": [
                    {
                        "x": 1928.76904296875,
                        "y": 223.82615661621094,
                        "z": -938.7698364257812
                    }
                ],
                "bindMovingTargetKey": ""
            },
            {
                "$type": "IBPNIIGAIPF",
                "type": "LOOK_AT",
                "aliasList": [
                    "Avatar"
                ],
                "GGIENKFBOGL": true,
                "useTargetPos": true,
                "GCOONJBHNIM": true,
                "JHNJNNOPJKG": {
                    "x": 1930.53125,
                    "y": 225.6408233642578,
                    "z": -939.8209228515625
                },
                "NDOMJCOFKDJ": 0.3499999940395355,
                "KIPMIDIKECP": "",
                "HJJAFGPMJNJ": "",
                "AOFBAGFCGPJ": ""
            },
            {
                "$type": "CCEEIGNAILH",
                "type": "DIALOG",
                "delayTime": 0.8999999761581421,
                "aliasList": [
                    "163001"
                ],
                "KICBIOMGHIN": 110050101,
                "PNCCODDABKI": 0.5
            },
            {
                "$type": "KCBOGFFHPBD",
                "type": "BODY_LANG",
                "aliasList": [
                    "163001"
                ],
                "GPIEDGOMCGL": 1120,
                "AOFEDPBOOIE": ""
            },
            {
                "$type": "IBPNIIGAIPF",
                "type": "LOOK_AT",
                "aliasList": [
                    "163001"
                ],
                "GGIENKFBOGL": true,
                "useTargetPos": true,
                "GCOONJBHNIM": true,
                "JHNJNNOPJKG": {
                    "x": 1930.53125,
                    "y": 225.6408233642578,
                    "z": -939.8209228515625
                },
                "NDOMJCOFKDJ": 0.3499999940395355,
                "KIPMIDIKECP": "",
                "HJJAFGPMJNJ": "",
                "AOFBAGFCGPJ": ""
            },
            {
                "$type": "MoleMole.Config.ConfigMoveToAction",
                "type": "MOVE_TO",
                "aliasList": [
                    "163001"
                ],
                "routeList": [
                    {
                        "x": 1930.9005126953125,
                        "y": 223.82615661621094,
                        "z": -938.4161987304688
                    }
                ],
                "bindMovingTargetKey": ""
            },
            {
                "$type": "DNAEECJNBFB",
                "type": "EMO_SYNC",
                "delayTime": 0.8999999761581421,
                "aliasList": [
                    "163001"
                ],
                "EOGJDJKPPGE": "Cs_Emo_Avatar_Simple_Common_Set/Cs_Emo_Avatar_Talk/Cs_Emo_Avatar_PersonalLine/Cs_Emo_Avatar_XiangLing/Cs_Emo_110050101",
                "IHCBGPABDLE": "",
                "CIKPDMODFPL": "",
                "HDIAHFFHNGE": "",
                "BOAAGJEEFDD": "",
                "PFDPJKHPADE": "",
                "DALINBJAHOC": [
                    13288208930204986633,
                    11747501932632830437,
                    15596446344492607316,
                    116825574201977076
                ]
            },
            {
                "$type": "MoleMole.Config.ConfigMoveToAction",
                "type": "MOVE_TO",
                "aliasList": [
                    "153701"
                ],
                "routeList": [
                    {
                        "x": 1930.531982421875,
                        "y": 223.82615661621094,
                        "z": -939.8308715820312
                    }
                ],
                "bindMovingTargetKey": ""
            },
            {
                "$type": "IBPNIIGAIPF",
                "type": "LOOK_AT",
                "aliasList": [
                    "153701"
                ],
                "GGIENKFBOGL": true,
                "useTargetPos": true,
                "GCOONJBHNIM": true,
                "JHNJNNOPJKG": {
                    "x": 1930.8983154296875,
                    "y": 225.6439666748047,
                    "z": -938.4259643554688
                },
                "NDOMJCOFKDJ": 0.3499999940395355,
                "KIPMIDIKECP": "",
                "HJJAFGPMJNJ": "",
                "AOFBAGFCGPJ": ""
            },
            {
                "$type": "KCBOGFFHPBD",
                "type": "BODY_LANG",
                "aliasList": [
                    "153701"
                ],
                "GPIEDGOMCGL": 1230,
                "AOFEDPBOOIE": ""
            },
            {
                "$type": "MoleMole.Config.ConfigMoveToAction",
                "type": "MOVE_TO",
                "aliasList": [
                    "1005"
                ],
                "routeList": [
                    {
                        "x": 1928.922607421875,
                        "y": 223.82615661621094,
                        "z": -939.6788330078125
                    }
                ],
                "bindMovingTargetKey": ""
            },
            {
                "$type": "IBPNIIGAIPF",
                "type": "LOOK_AT",
                "aliasList": [
                    "1005"
                ],
                "GGIENKFBOGL": true,
                "useTargetPos": true,
                "GCOONJBHNIM": true,
                "JHNJNNOPJKG": {
                    "x": 1930.53125,
                    "y": 225.6408233642578,
                    "z": -939.8209228515625
                },
                "NDOMJCOFKDJ": 0.3499999940395355,
                "KIPMIDIKECP": "",
                "HJJAFGPMJNJ": "",
                "AOFBAGFCGPJ": ""
            },
            {
                "$type": "MoleMole.Config.ConfigMoveToAction",
                "type": "MOVE_TO",
                "aliasList": [
                    "1012"
                ],
                "routeList": [
                    {
                        "x": 1929.70556640625,
                        "y": 223.82615661621094,
                        "z": -937.8690185546875
                    }
                ],
                "bindMovingTargetKey": ""
            },
            {
                "$type": "IBPNIIGAIPF",
                "type": "LOOK_AT",
                "aliasList": [
                    "1012"
                ],
                "GGIENKFBOGL": true,
                "useTargetPos": true,
                "GCOONJBHNIM": true,
                "JHNJNNOPJKG": {
                    "x": 1930.53125,
                    "y": 225.6408233642578,
                    "z": -939.8209228515625
                },
                "NDOMJCOFKDJ": 0.3499999940395355,
                "KIPMIDIKECP": "",
                "HJJAFGPMJNJ": "",
                "AOFBAGFCGPJ": ""
            }
        ],
        [
            {
                "$type": "CCEEIGNAILH",
                "type": "DIALOG",
                "aliasList": [
                    "153701"
                ],
                "KICBIOMGHIN": 110050102,
                "PNCCODDABKI": 1.0
            },
            {
                "$type": "KCBOGFFHPBD",
                "type": "BODY_LANG",
                "aliasList": [
                    "153701"
                ],
                "AHGOBCDHCMC": true,
                "AOFEDPBOOIE": ""
            },
            {
                "$type": "KCBOGFFHPBD",
                "type": "BODY_LANG",
                "delayTime": 0.699999988079071,
                "aliasList": [
                    "153701"
                ],
                "GPIEDGOMCGL": 1180,
                "AOFEDPBOOIE": ""
            },
            {
                "$type": "DNAEECJNBFB",
                "type": "EMO_SYNC",
                "aliasList": [
                    "153701"
                ],
                "EOGJDJKPPGE": "Cs_Emo_Avatar_Simple_Common_Set/Cs_Emo_Avatar_Talk/Cs_Emo_Avatar_PersonalLine/Cs_Emo_Avatar_XiangLing/Cs_Emo_110050102",
                "IHCBGPABDLE": "",
                "CIKPDMODFPL": "",
                "HDIAHFFHNGE": "",
                "BOAAGJEEFDD": "",
                "PFDPJKHPADE": "",
                "DALINBJAHOC": [
                    11966671470549452551,
                    14511068492418337725,
                    4954165309368856778,
                    16032850631312379884
                ]
            }
        ],
        [
            {
                "$type": "CCEEIGNAILH",
                "type": "DIALOG",
                "aliasList": [
                    "163001"
                ],
                "KICBIOMGHIN": 110050103,
                "PNCCODDABKI": 1.5
            },
            {
                "$type": "KCBOGFFHPBD",
                "type": "BODY_LANG",
                "delayTime": 1.0,
                "aliasList": [
                    "163001"
                ],
                "GPIEDGOMCGL": 1130,
                "AOFEDPBOOIE": ""
            },
            {
                "$type": "KCBOGFFHPBD",
                "type": "BODY_LANG",
                "aliasList": [
                    "163001"
                ],
                "AHGOBCDHCMC": true,
                "AOFEDPBOOIE": ""
            },
            {
                "$type": "DNAEECJNBFB",
                "type": "EMO_SYNC",
                "aliasList": [
                    "163001"
                ],
                "EOGJDJKPPGE": "Cs_Emo_Avatar_Simple_Common_Set/Cs_Emo_Avatar_Talk/Cs_Emo_Avatar_PersonalLine/Cs_Emo_Avatar_XiangLing/Cs_Emo_110050103",
                "IHCBGPABDLE": "",
                "CIKPDMODFPL": "",
                "HDIAHFFHNGE": "",
                "BOAAGJEEFDD": "",
                "PFDPJKHPADE": "",
                "DALINBJAHOC": [
                    811413032414154419,
                    16534199689595303955,
                    13376927480507408490,
                    17810030801477477747
                ]
            },
            {
                "$type": "KCBOGFFHPBD",
                "type": "BODY_LANG",
                "delayTime": 0.5166666507720947,
                "aliasList": [
                    "153701"
                ],
                "AHGOBCDHCMC": true,
                "AOFEDPBOOIE": ""
            }
        ],
        [
            {
                "$type": "BCJBNCJOPCE",
                "type": "CAMERA_MOVE",
                "duration": 1.0,
                "AKFGKKEOEFA": {
                    "x": 1932.890380859375,
                    "y": 226.5115509033203,
                    "z": -937.4838256835938
                },
                "NGEBMAEFFGJ": {
                    "x": 1932.10791015625,
                    "y": 226.07601928710938,
                    "z": -937.9288940429688
                },
                "LIGHLBKBDEI": 30.0,
                "GFIOJGJJGCN": 6,
                "ABAEPHOGOFF": "EaseInOutCubic",
                "KFDBMBFFANN": {},
                "KIPMIDIKECP": "",
                "BDLGHOJPJHD": "",
                "LCOJGFEOLCK": "",
                "BBBGAEDCJEL": ""
            },
            {
                "$type": "BCJBNCJOPCE",
                "type": "CAMERA_MOVE",
                "delayTime": 0.10000000149011612,
                "duration": 10.0,
                "AKFGKKEOEFA": {
                    "x": 1933.3365478515625,
                    "y": 226.38140869140625,
                    "z": -938.4583129882812
                },
                "NGEBMAEFFGJ": {
                    "x": 1932.4361572265625,
                    "y": 225.9703369140625,
                    "z": -938.6010131835938
                },
                "LIGHLBKBDEI": 30.0,
                "ABAEPHOGOFF": "EaseInOutQuad",
                "KFDBMBFFANN": {},
                "KIPMIDIKECP": "",
                "BDLGHOJPJHD": "",
                "LCOJGFEOLCK": "",
                "BBBGAEDCJEL": ""
            },
            {
                "$type": "MEKNGCBGKEJ",
                "type": "DIALOG_SELECT",
                "delayTime": 0.5,
                "aliasList": [
                    "Avatar"
                ],
                "MLAABINGLAA": [
                    110050105,
                    110050106
                ],
                "HPBPDBFGKID": [
                    522766976,
                    522766976
                ],
                "CFJOJADDHHG": true
            },
            {
                "$type": "KCBOGFFHPBD",
                "type": "BODY_LANG",
                "delayTime": 0.8750000596046448,
                "aliasList": [
                    "Avatar"
                ],
                "GPIEDGOMCGL": 1230,
                "AOFEDPBOOIE": ""
            },
            {
                "$type": "KCBOGFFHPBD",
                "type": "BODY_LANG",
                "delayTime": 0.4000000059604645,
                "aliasList": [
                    "163001"
                ],
                "AHGOBCDHCMC": true,
                "AOFEDPBOOIE": ""
            },
            {
                "$type": "IBPNIIGAIPF",
                "type": "LOOK_AT",
                "delayTime": 1.6403011083602905,
                "aliasList": [
                    "163001"
                ],
                "GGIENKFBOGL": true,
                "useTargetPos": true,
                "GCOONJBHNIM": true,
                "JHNJNNOPJKG": {
                    "x": 1928.807373046875,
                    "y": 225.20713806152344,
                    "z": -938.7721557617188
                },
                "NDOMJCOFKDJ": 0.3499999940395355,
                "KIPMIDIKECP": "",
                "HJJAFGPMJNJ": "",
                "AOFBAGFCGPJ": ""
            },
            {
                "$type": "CCEEIGNAILH",
                "type": "DIALOG",
                "aliasList": [
                    "153701"
                ],
                "KICBIOMGHIN": 110050104,
                "PNCCODDABKI": 2.0
            },
            {
                "$type": "KCBOGFFHPBD",
                "type": "BODY_LANG",
                "aliasList": [
                    "153701"
                ],
                "GPIEDGOMCGL": 1190,
                "AOFEDPBOOIE": ""
            },
            {
                "$type": "IBPNIIGAIPF",
                "type": "LOOK_AT",
                "aliasList": [
                    "153701"
                ],
                "GGIENKFBOGL": true,
                "useTargetPos": true,
                "GCOONJBHNIM": true,
                "JHNJNNOPJKG": {
                    "x": 1930.650634765625,
                    "y": 225.37867736816406,
                    "z": -939.3917236328125
                },
                "NDOMJCOFKDJ": 0.3499999940395355,
                "KIPMIDIKECP": "",
                "HJJAFGPMJNJ": "",
                "AOFBAGFCGPJ": ""
            },
            {
                "$type": "DNAEECJNBFB",
                "type": "EMO_SYNC",
                "aliasList": [
                    "153701"
                ],
                "EOGJDJKPPGE": "Cs_Emo_Avatar_Simple_Common_Set/Cs_Emo_Avatar_Talk/Cs_Emo_Avatar_PersonalLine/Cs_Emo_Avatar_XiangLing/Cs_Emo_110050104",
                "IHCBGPABDLE": "",
                "CIKPDMODFPL": "",
                "HDIAHFFHNGE": "",
                "BOAAGJEEFDD": "",
                "PFDPJKHPADE": "",
                "DALINBJAHOC": [
                    2622513774212822806,
                    15734993861371575949,
                    4672958626705661203,
                    9143346233076784594
                ]
            },
            {
                "$type": "IBPNIIGAIPF",
                "type": "LOOK_AT",
                "delayTime": 1.437771201133728,
                "aliasList": [
                    "1005"
                ],
                "GGIENKFBOGL": true,
                "useTargetPos": true,
                "GCOONJBHNIM": true,
                "JHNJNNOPJKG": {
                    "x": 1928.807373046875,
                    "y": 225.20713806152344,
                    "z": -938.7721557617188
                },
                "NDOMJCOFKDJ": 0.3499999940395355,
                "KIPMIDIKECP": "",
                "HJJAFGPMJNJ": "",
                "AOFBAGFCGPJ": ""
            },
            {
                "$type": "IBPNIIGAIPF",
                "type": "LOOK_AT",
                "delayTime": 1.5319663286209106,
                "aliasList": [
                    "1012"
                ],
                "GGIENKFBOGL": true,
                "useTargetPos": true,
                "GCOONJBHNIM": true,
                "JHNJNNOPJKG": {
                    "x": 1928.807373046875,
                    "y": 225.20713806152344,
                    "z": -938.7721557617188
                },
                "NDOMJCOFKDJ": 0.3499999940395355,
                "KIPMIDIKECP": "",
                "HJJAFGPMJNJ": "",
                "AOFBAGFCGPJ": ""
            }
        ],
        [
            {
                "$type": "MEKNGCBGKEJ",
                "type": "DIALOG_SELECT",
                "delayTime": 0.5,
                "aliasList": [
                    "Avatar"
                ],
                "MLAABINGLAA": [
                    110050108,
                    110050110
                ],
                "HPBPDBFGKID": [
                    522766977,
                    522766978
                ],
                "CFJOJADDHHG": true
            },
            {
                "$type": "IBPNIIGAIPF",
                "type": "LOOK_AT",
                "delayTime": 0.49814578890800476,
                "aliasList": [
                    "153701"
                ],
                "GGIENKFBOGL": true,
                "useTargetPos": true,
                "GCOONJBHNIM": true,
                "JHNJNNOPJKG": {
                    "x": 1928.807373046875,
                    "y": 225.20713806152344,
                    "z": -938.7721557617188
                },
                "NDOMJCOFKDJ": 0.3499999940395355,
                "KIPMIDIKECP": "",
                "HJJAFGPMJNJ": "",
                "AOFBAGFCGPJ": ""
            },
            {
                "$type": "CCEEIGNAILH",
                "type": "DIALOG",
                "aliasList": [
                    "1005"
                ],
                "KICBIOMGHIN": 110050107,
                "PNCCODDABKI": 1.0
            },
            {
                "$type": "KCBOGFFHPBD",
                "type": "BODY_LANG",
                "aliasList": [
                    "1005"
                ],
                "GPIEDGOMCGL": 1090,
                "AOFEDPBOOIE": ""
            },
            {
                "$type": "DNAEECJNBFB",
                "type": "EMO_SYNC",
                "aliasList": [
                    "1005"
                ],
                "EOGJDJKPPGE": "Cs_Emo_Avatar_Simple_Common_Set/Cs_Emo_Avatar_Talk/Cs_Emo_Avatar_PersonalLine/Cs_Emo_Avatar_XiangLing/Cs_Emo_110050107",
                "IHCBGPABDLE": "",
                "CIKPDMODFPL": "",
                "HDIAHFFHNGE": "",
                "BOAAGJEEFDD": "",
                "PFDPJKHPADE": "",
                "DALINBJAHOC": [
                    4955326835458448601,
                    7891392126904542403,
                    7292577467190239921,
                    7891542299006495164
                ]
            }
        ],
        [
            {
                "$type": "KCBOGFFHPBD",
                "type": "BODY_LANG",
                "delayTime": 0.4000000059604645,
                "aliasList": [
                    "Avatar"
                ],
                "AHGOBCDHCMC": true,
                "AOFEDPBOOIE": ""
            },
            {
                "$type": "CCEEIGNAILH",
                "type": "DIALOG",
                "aliasList": [
                    "1005"
                ],
                "KICBIOMGHIN": 110050109,
                "PNCCODDABKI": 0.5
            },
            {
                "$type": "KCBOGFFHPBD",
                "type": "BODY_LANG",
                "aliasList": [
                    "1005"
                ],
                "GPIEDGOMCGL": 1040,
                "AOFEDPBOOIE": ""
            },
            {
                "$type": "DNAEECJNBFB",
                "type": "EMO_SYNC",
                "aliasList": [
                    "1005"
                ],
                "EOGJDJKPPGE": "Cs_Emo_Avatar_Simple_Common_Set/Cs_Emo_Avatar_Talk/Cs_Emo_Avatar_PersonalLine/Cs_Emo_Avatar_XiangLing/Cs_Emo_110050109",
                "IHCBGPABDLE": "",
                "CIKPDMODFPL": "",
                "HDIAHFFHNGE": "",
                "BOAAGJEEFDD": "",
                "PFDPJKHPADE": "",
                "DALINBJAHOC": [
                    1128801137650520716,
                    12478743125064504826,
                    6956205872112907133,
                    1539994674380319160
                ]
            }
        ],
        [
            {
                "$type": "KCBOGFFHPBD",
                "type": "BODY_LANG",
                "delayTime": 0.4000000059604645,
                "aliasList": [
                    "Avatar"
                ],
                "AHGOBCDHCMC": true,
                "AOFEDPBOOIE": ""
            },
            {
                "$type": "CCEEIGNAILH",
                "type": "DIALOG",
                "aliasList": [
                    "1005"
                ],
                "KICBIOMGHIN": 110050111,
                "PNCCODDABKI": 2.5
            },
            {
                "$type": "KCBOGFFHPBD",
                "type": "BODY_LANG",
                "aliasList": [
                    "1005"
                ],
                "GPIEDGOMCGL": 1120,
                "AOFEDPBOOIE": ""
            },
            {
                "$type": "KCBOGFFHPBD",
                "type": "BODY_LANG",
                "delayTime": 2.125000238418579,
                "aliasList": [
                    "1005"
                ],
                "GPIEDGOMCGL": 1060,
                "AOFEDPBOOIE": ""
            },
            {
                "$type": "DNAEECJNBFB",
                "type": "EMO_SYNC",
                "aliasList": [
                    "1005"
                ],
                "EOGJDJKPPGE": "Cs_Emo_Avatar_Simple_Common_Set/Cs_Emo_Avatar_Talk/Cs_Emo_Avatar_PersonalLine/Cs_Emo_Avatar_XiangLing/Cs_Emo_110050111",
                "IHCBGPABDLE": "",
                "CIKPDMODFPL": "",
                "HDIAHFFHNGE": "",
                "BOAAGJEEFDD": "",
                "PFDPJKHPADE": "",
                "DALINBJAHOC": [
                    12404015116741825719,
                    6564551910368526209,
                    9926128068470151717,
                    8184356170078268099
                ]
            }
        ],
        [
            {
                "$type": "BCJBNCJOPCE",
                "type": "CAMERA_MOVE",
                "duration": 1.0,
                "AKFGKKEOEFA": {
                    "x": 1930.1370849609375,
                    "y": 225.8634490966797,
                    "z": -941.0813598632812
                },
                "NGEBMAEFFGJ": {
                    "x": 1929.71142578125,
                    "y": 225.50218200683594,
                    "z": -940.251708984375
                },
                "LIGHLBKBDEI": 30.0,
                "GFIOJGJJGCN": 6,
                "ABAEPHOGOFF": "EaseInOutCubic",
                "KFDBMBFFANN": {},
                "KIPMIDIKECP": "",
                "BDLGHOJPJHD": "",
                "LCOJGFEOLCK": "",
                "BBBGAEDCJEL": ""
            },
            {
                "$type": "BCJBNCJOPCE",
                "type": "CAMERA_MOVE",
                "delayTime": 0.10000000149011612,
                "duration": 10.0,
                "AKFGKKEOEFA": {
                    "x": 1930.2259521484375,
                    "y": 225.63189697265625,
                    "z": -941.1488647460938
                },
                "NGEBMAEFFGJ": {
                    "x": 1929.7955322265625,
                    "y": 225.33291625976562,
                    "z": -940.2972412109375
                },
                "LIGHLBKBDEI": 30.0,
                "ABAEPHOGOFF": "EaseInOutQuad",
                "KFDBMBFFANN": {},
                "KIPMIDIKECP": "",
                "BDLGHOJPJHD": "",
                "LCOJGFEOLCK": "",
                "BBBGAEDCJEL": ""
            },
            {
                "$type": "MEKNGCBGKEJ",
                "type": "DIALOG_SELECT",
                "delayTime": 0.5,
                "aliasList": [
                    "Avatar"
                ],
                "MLAABINGLAA": [
                    110050113,
                    110050115
                ],
                "HPBPDBFGKID": [
                    522766980,
                    3320874292
                ],
                "CFJOJADDHHG": true
            },
            {
                "$type": "IBPNIIGAIPF",
                "type": "LOOK_AT",
                "aliasList": [
                    "Avatar"
                ],
                "GGIENKFBOGL": true,
                "useTargetPos": true,
                "GCOONJBHNIM": true,
                "JHNJNNOPJKG": {
                    "x": 1929.713134765625,
                    "y": 225.18702697753906,
                    "z": -937.880859375
                },
                "NDOMJCOFKDJ": 0.3499999940395355,
                "KIPMIDIKECP": "",
                "HJJAFGPMJNJ": "",
                "AOFBAGFCGPJ": ""
            },
            {
                "$type": "KCBOGFFHPBD",
                "type": "BODY_LANG",
                "delayTime": 0.875,
                "aliasList": [
                    "Avatar"
                ],
                "GPIEDGOMCGL": 1030,
                "AOFEDPBOOIE": ""
            },
            {
                "$type": "KCBOGFFHPBD",
                "type": "BODY_LANG",
                "delayTime": 0.4000000059604645,
                "aliasList": [
                    "1005"
                ],
                "AHGOBCDHCMC": true,
                "AOFEDPBOOIE": ""
            },
            {
                "$type": "CCEEIGNAILH",
                "type": "DIALOG",
                "aliasList": [
                    "1012"
                ],
                "KICBIOMGHIN": 110050112,
                "PNCCODDABKI": 1.0
            },
            {
                "$type": "KCBOGFFHPBD",
                "type": "BODY_LANG",
                "aliasList": [
                    "1012"
                ],
                "GPIEDGOMCGL": 1040,
                "AOFEDPBOOIE": ""
            },
            {
                "$type": "DNAEECJNBFB",
                "type": "EMO_SYNC",
                "aliasList": [
                    "1012"
                ],
                "EOGJDJKPPGE": "Cs_Emo_Avatar_Simple_Common_Set/Cs_Emo_Avatar_Talk/Cs_Emo_Avatar_PersonalLine/Cs_Emo_Avatar_XiangLing/Cs_Emo_110050112",
                "IHCBGPABDLE": "",
                "CIKPDMODFPL": "",
                "HDIAHFFHNGE": "",
                "BOAAGJEEFDD": "",
                "PFDPJKHPADE": "",
                "DALINBJAHOC": [
                    8143549142021876116,
                    5876820328974629713,
                    14810644489407026141,
                    14619086598972979333
                ]
            }
        ],
        [
            {
                "$type": "CCEEIGNAILH",
                "type": "DIALOG",
                "aliasList": [
                    "1012"
                ],
                "KICBIOMGHIN": 110050114
            },
            {
                "$type": "KCBOGFFHPBD",
                "type": "BODY_LANG",
                "aliasList": [
                    "1012"
                ],
                "AHGOBCDHCMC": true,
                "AOFEDPBOOIE": ""
            },
            {
                "$type": "KCBOGFFHPBD",
                "type": "BODY_LANG",
                "delayTime": 0.699999988079071,
                "aliasList": [
                    "1012"
                ],
                "GPIEDGOMCGL": 1170,
                "AOFEDPBOOIE": ""
            },
            {
                "$type": "DNAEECJNBFB",
                "type": "EMO_SYNC",
                "aliasList": [
                    "1012"
                ],
                "EOGJDJKPPGE": "Cs_Emo_Avatar_Simple_Common_Set/Cs_Emo_Avatar_Talk/Cs_Emo_Avatar_PersonalLine/Cs_Emo_Avatar_XiangLing/Cs_Emo_110050114",
                "IHCBGPABDLE": "",
                "CIKPDMODFPL": "",
                "HDIAHFFHNGE": "",
                "BOAAGJEEFDD": "",
                "PFDPJKHPADE": "",
                "DALINBJAHOC": [
                    98226956348145000,
                    15673019633167469702,
                    4378794816482104314,
                    8134956463586311475
                ]
            }
        ],
        [
            {
                "$type": "CCEEIGNAILH",
                "type": "DIALOG",
                "aliasList": [
                    "1012"
                ],
                "KICBIOMGHIN": 110050116
            },
            {
                "$type": "KCBOGFFHPBD",
                "type": "BODY_LANG",
                "aliasList": [
                    "1012"
                ],
                "AHGOBCDHCMC": true,
                "AOFEDPBOOIE": ""
            },
            {
                "$type": "KCBOGFFHPBD",
                "type": "BODY_LANG",
                "delayTime": 0.699999988079071,
                "aliasList": [
                    "1012"
                ],
                "GPIEDGOMCGL": 1220,
                "AOFEDPBOOIE": ""
            },
            {
                "$type": "DNAEECJNBFB",
                "type": "EMO_SYNC",
                "aliasList": [
                    "1012"
                ],
                "EOGJDJKPPGE": "Cs_Emo_Avatar_Simple_Common_Set/Cs_Emo_Avatar_Talk/Cs_Emo_Avatar_PersonalLine/Cs_Emo_Avatar_XiangLing/Cs_Emo_110050116",
                "IHCBGPABDLE": "",
                "CIKPDMODFPL": "",
                "HDIAHFFHNGE": "",
                "BOAAGJEEFDD": "",
                "PFDPJKHPADE": "",
                "DALINBJAHOC": [
                    5809503515507579840,
                    6508358974015139767,
                    5436168765037911141,
                    3858867828758118126
                ]
            }
        ],
        [
            {
                "$type": "BCJBNCJOPCE",
                "type": "CAMERA_MOVE",
                "duration": 1.0,
                "AKFGKKEOEFA": {
                    "x": 1932.089599609375,
                    "y": 225.94717407226562,
                    "z": -939.414306640625
                },
                "NGEBMAEFFGJ": {
                    "x": 1931.1619873046875,
                    "y": 225.57752990722656,
                    "z": -939.4683837890625
                },
                "LIGHLBKBDEI": 30.0,
                "GFIOJGJJGCN": 6,
                "ABAEPHOGOFF": "EaseInOutCubic",
                "KFDBMBFFANN": {},
                "KIPMIDIKECP": "",
                "BDLGHOJPJHD": "",
                "LCOJGFEOLCK": "",
                "BBBGAEDCJEL": ""
            },
            {
                "$type": "BCJBNCJOPCE",
                "type": "CAMERA_MOVE",
                "delayTime": 0.10000000149011612,
                "duration": 10.0,
                "AKFGKKEOEFA": {
                    "x": 1932.056640625,
                    "y": 226.01031494140625,
                    "z": -938.7239990234375
                },
                "NGEBMAEFFGJ": {
                    "x": 1931.1824951171875,
                    "y": 225.64625549316406,
                    "z": -939.0452880859375
                },
                "LIGHLBKBDEI": 30.0,
                "ABAEPHOGOFF": "EaseInOutQuad",
                "KFDBMBFFANN": {},
                "KIPMIDIKECP": "",
                "BDLGHOJPJHD": "",
                "LCOJGFEOLCK": "",
                "BBBGAEDCJEL": ""
            },
            {
                "$type": "IBPNIIGAIPF",
                "type": "LOOK_AT",
                "delayTime": 0.5257125496864319,
                "aliasList": [
                    "Avatar"
                ],
                "GGIENKFBOGL": true,
                "useTargetPos": true,
                "GCOONJBHNIM": true,
                "JHNJNNOPJKG": {
                    "x": 1930.53125,
                    "y": 225.6408233642578,
                    "z": -939.8209228515625
                },
                "NDOMJCOFKDJ": 0.3499999940395355,
                "KIPMIDIKECP": "",
                "HJJAFGPMJNJ": "",
                "AOFBAGFCGPJ": ""
            },
            {
                "$type": "KCBOGFFHPBD",
                "type": "BODY_LANG",
                "delayTime": 0.30000001192092896,
                "aliasList": [
                    "Avatar"
                ],
                "AHGOBCDHCMC": true,
                "AOFEDPBOOIE": ""
            },
            {
                "$type": "CCEEIGNAILH",
                "type": "DIALOG",
                "aliasList": [
                    "153701"
                ],
                "KICBIOMGHIN": 110050117,
                "PNCCODDABKI": 1.0
            },
            {
                "$type": "KCBOGFFHPBD",
                "type": "BODY_LANG",
                "delayTime": 0.699999988079071,
                "aliasList": [
                    "153701"
                ],
                "GPIEDGOMCGL": 1110,
                "AOFEDPBOOIE": ""
            },
            {
                "$type": "KCBOGFFHPBD",
                "type": "BODY_LANG",
                "aliasList": [
                    "153701"
                ],
                "AHGOBCDHCMC": true,
                "AOFEDPBOOIE": ""
            },
            {
                "$type": "DNAEECJNBFB",
                "type": "EMO_SYNC",
                "aliasList": [
                    "153701"
                ],
                "EOGJDJKPPGE": "Cs_Emo_Avatar_Simple_Common_Set/Cs_Emo_Avatar_Talk/Cs_Emo_Avatar_PersonalLine/Cs_Emo_Avatar_XiangLing/Cs_Emo_110050117",
                "IHCBGPABDLE": "",
                "CIKPDMODFPL": "",
                "HDIAHFFHNGE": "",
                "BOAAGJEEFDD": "",
                "PFDPJKHPADE": "",
                "DALINBJAHOC": [
                    3873795725716758274,
                    14585937303205531159,
                    18398564114748654279,
                    8609326727548751811
                ]
            },
            {
                "$type": "IBPNIIGAIPF",
                "type": "LOOK_AT",
                "delayTime": 0.6257115602493286,
                "aliasList": [
                    "1005"
                ],
                "GGIENKFBOGL": true,
                "useTargetPos": true,
                "GCOONJBHNIM": true,
                "JHNJNNOPJKG": {
                    "x": 1930.53125,
                    "y": 225.6408233642578,
                    "z": -939.8209228515625
                },
                "NDOMJCOFKDJ": 0.3499999940395355,
                "KIPMIDIKECP": "",
                "HJJAFGPMJNJ": "",
                "AOFBAGFCGPJ": ""
            },
            {
                "$type": "KCBOGFFHPBD",
                "type": "BODY_LANG",
                "delayTime": 0.4000000059604645,
                "aliasList": [
                    "1012"
                ],
                "AHGOBCDHCMC": true,
                "AOFEDPBOOIE": ""
            }
        ],
        [
            {
                "$type": "IBPNIIGAIPF",
                "type": "LOOK_AT",
                "delayTime": 0.44842931628227234,
                "aliasList": [
                    "163001"
                ],
                "GGIENKFBOGL": true,
                "useTargetPos": true,
                "GCOONJBHNIM": true,
                "JHNJNNOPJKG": {
                    "x": 1930.53125,
                    "y": 225.6408233642578,
                    "z": -939.8209228515625
                },
                "NDOMJCOFKDJ": 0.3499999940395355,
                "KIPMIDIKECP": "",
                "HJJAFGPMJNJ": "",
                "AOFBAGFCGPJ": ""
            },
            {
                "$type": "KCBOGFFHPBD",
                "type": "BODY_LANG",
                "delayTime": 0.4000000059604645,
                "aliasList": [
                    "153701"
                ],
                "AHGOBCDHCMC": true,
                "AOFEDPBOOIE": ""
            },
            {
                "$type": "CCEEIGNAILH",
                "type": "DIALOG",
                "aliasList": [
                    "1005"
                ],
                "KICBIOMGHIN": 110050118,
                "PNCCODDABKI": 1.5
            },
            {
                "$type": "KCBOGFFHPBD",
                "type": "BODY_LANG",
                "delayTime": 1.1500002145767212,
                "aliasList": [
                    "1005"
                ],
                "GPIEDGOMCGL": 1110,
                "AOFEDPBOOIE": ""
            },
            {
                "$type": "DNAEECJNBFB",
                "type": "EMO_SYNC",
                "aliasList": [
                    "1005"
                ],
                "EOGJDJKPPGE": "Cs_Emo_Avatar_Simple_Common_Set/Cs_Emo_Avatar_Talk/Cs_Emo_Avatar_PersonalLine/Cs_Emo_Avatar_XiangLing/Cs_Emo_110050118",
                "IHCBGPABDLE": "",
                "CIKPDMODFPL": "",
                "HDIAHFFHNGE": "",
                "BOAAGJEEFDD": "",
                "PFDPJKHPADE": "",
                "DALINBJAHOC": [
                    4935733920282734673,
                    15037534016295068611,
                    7126923098370821831,
                    11359234440438994901
                ]
            }
        ],
        [
            {
                "$type": "BCJBNCJOPCE",
                "type": "CAMERA_MOVE",
                "delayTime": 1.7000000476837158,
                "duration": 1.0,
                "AKFGKKEOEFA": {
                    "x": 1929.839599609375,
                    "y": 225.5483856201172,
                    "z": -939.9382934570312
                },
                "NGEBMAEFFGJ": {
                    "x": 1930.4127197265625,
                    "y": 225.4012908935547,
                    "z": -939.1321411132812
                },
                "LIGHLBKBDEI": 30.0,
                "GFIOJGJJGCN": 6,
                "ABAEPHOGOFF": "EaseInOutCubic",
                "KFDBMBFFANN": {},
                "KIPMIDIKECP": "",
                "BDLGHOJPJHD": "",
                "LCOJGFEOLCK": "",
                "BBBGAEDCJEL": ""
            },
            {
                "$type": "CCEEIGNAILH",
                "type": "DIALOG",
                "duration": 1.7000000476837158,
                "aliasList": [
                    "153701"
                ],
                "KICBIOMGHIN": 110050119,
                "PNCCODDABKI": 1.7000000476837158
            },
            {
                "$type": "KCBOGFFHPBD",
                "type": "BODY_LANG",
                "aliasList": [
                    "153701"
                ],
                "GPIEDGOMCGL": 1170,
                "AOFEDPBOOIE": ""
            },
            {
                "$type": "IBPNIIGAIPF",
                "type": "LOOK_AT",
                "aliasList": [
                    "153701"
                ],
                "GGIENKFBOGL": true,
                "useTargetPos": true,
                "GCOONJBHNIM": true,
                "JHNJNNOPJKG": {
                    "x": 1930.8983154296875,
                    "y": 225.6439666748047,
                    "z": -938.4259643554688
                },
                "NDOMJCOFKDJ": 0.3499999940395355,
                "KIPMIDIKECP": "",
                "HJJAFGPMJNJ": "",
                "AOFBAGFCGPJ": ""
            },
            {
                "$type": "DNAEECJNBFB",
                "type": "EMO_SYNC",
                "aliasList": [
                    "153701"
                ],
                "EOGJDJKPPGE": "Cs_Emo_Avatar_Simple_Common_Set/Cs_Emo_Avatar_Talk/Cs_Emo_Avatar_PersonalLine/Cs_Emo_Avatar_XiangLing/Cs_Emo_110050119",
                "IHCBGPABDLE": "",
                "CIKPDMODFPL": "",
                "HDIAHFFHNGE": "",
                "BOAAGJEEFDD": "",
                "PFDPJKHPADE": "",
                "DALINBJAHOC": [
                    17218132639492716586,
                    11712162348170198003,
                    16143978218122365814,
                    8212574155138453268
                ]
            }
        ],
        [
            {
                "$type": "CCEEIGNAILH",
                "type": "DIALOG",
                "aliasList": [
                    "163001"
                ],
                "KICBIOMGHIN": 110050120,
                "PNCCODDABKI": 0.5
            },
            {
                "$type": "KCBOGFFHPBD",
                "type": "BODY_LANG",
                "aliasList": [
                    "163001"
                ],
                "GPIEDGOMCGL": 1130,
                "AOFEDPBOOIE": ""
            },
            {
                "$type": "DNAEECJNBFB",
                "type": "EMO_SYNC",
                "aliasList": [
                    "163001"
                ],
                "EOGJDJKPPGE": "Cs_Emo_Avatar_Simple_Common_Set/Cs_Emo_Avatar_Talk/Cs_Emo_Avatar_PersonalLine/Cs_Emo_Avatar_XiangLing/Cs_Emo_110050120",
                "IHCBGPABDLE": "",
                "CIKPDMODFPL": "",
                "HDIAHFFHNGE": "",
                "BOAAGJEEFDD": "",
                "PFDPJKHPADE": "",
                "DALINBJAHOC": [
                    10097036052566594919,
                    18168467814658603963,
                    1244931967271255515,
                    9326693958539787667
                ]
            },
            {
                "$type": "KCBOGFFHPBD",
                "type": "BODY_LANG",
                "delayTime": 0.4000000059604645,
                "aliasList": [
                    "153701"
                ],
                "AHGOBCDHCMC": true,
                "AOFEDPBOOIE": ""
            },
            {
                "$type": "IBPNIIGAIPF",
                "type": "LOOK_AT",
                "delayTime": 0.36662036180496216,
                "aliasList": [
                    "153701"
                ],
                "GGIENKFBOGL": true,
                "useTargetPos": true,
                "GCOONJBHNIM": true,
                "JHNJNNOPJKG": {
                    "x": 1930.8983154296875,
                    "y": 225.6439666748047,
                    "z": -938.4259643554688
                },
                "NDOMJCOFKDJ": 0.3499999940395355,
                "KIPMIDIKECP": "",
                "HJJAFGPMJNJ": "",
                "AOFBAGFCGPJ": ""
            }
        ],
        [
            {
                "$type": "BCJBNCJOPCE",
                "type": "CAMERA_MOVE",
                "duration": 1.0,
                "AKFGKKEOEFA": {
                    "x": 1930.092529296875,
                    "y": 225.7357635498047,
                    "z": -937.1578369140625
                },
                "NGEBMAEFFGJ": {
                    "x": 1930.3935546875,
                    "y": 225.49163818359375,
                    "z": -938.0797119140625
                },
                "LIGHLBKBDEI": 30.0,
                "GFIOJGJJGCN": 6,
                "ABAEPHOGOFF": "EaseInOutCubic",
                "KFDBMBFFANN": {},
                "KIPMIDIKECP": "",
                "BDLGHOJPJHD": "",
                "LCOJGFEOLCK": "",
                "BBBGAEDCJEL": ""
            },
            {
                "$type": "IBPNIIGAIPF",
                "type": "LOOK_AT",
                "aliasList": [
                    "Avatar"
                ],
                "GGIENKFBOGL": true,
                "useTargetPos": true,
                "GCOONJBHNIM": true,
                "JHNJNNOPJKG": {
                    "x": 1930.53125,
                    "y": 225.6408233642578,
                    "z": -939.8209228515625
                },
                "NDOMJCOFKDJ": 0.3499999940395355,
                "KIPMIDIKECP": "",
                "HJJAFGPMJNJ": "",
                "AOFBAGFCGPJ": ""
            },
            {
                "$type": "KCBOGFFHPBD",
                "type": "BODY_LANG",
                "aliasList": [
                    "Avatar"
                ],
                "AHGOBCDHCMC": true,
                "AOFEDPBOOIE": ""
            },
            {
                "$type": "KCBOGFFHPBD",
                "type": "BODY_LANG",
                "delayTime": 0.4000000059604645,
                "aliasList": [
                    "163001"
                ],
                "AHGOBCDHCMC": true,
                "AOFEDPBOOIE": ""
            },
            {
                "$type": "CCEEIGNAILH",
                "type": "DIALOG",
                "aliasList": [
                    "153701"
                ],
                "KICBIOMGHIN": 110050121,
                "PNCCODDABKI": 0.5
            },
            {
                "$type": "KCBOGFFHPBD",
                "type": "BODY_LANG",
                "aliasList": [
                    "153701"
                ],
                "GPIEDGOMCGL": 1180,
                "AOFEDPBOOIE": ""
            },
            {
                "$type": "DNAEECJNBFB",
                "type": "EMO_SYNC",
                "aliasList": [
                    "153701"
                ],
                "EOGJDJKPPGE": "Cs_Emo_Avatar_Simple_Common_Set/Cs_Emo_Avatar_Talk/Cs_Emo_Avatar_PersonalLine/Cs_Emo_Avatar_XiangLing/Cs_Emo_110050121",
                "IHCBGPABDLE": "",
                "CIKPDMODFPL": "",
                "HDIAHFFHNGE": "",
                "BOAAGJEEFDD": "",
                "PFDPJKHPADE": "",
                "DALINBJAHOC": [
                    16572216646904052565,
                    12748055823295263143,
                    15109065717415962614,
                    16619072249881996272
                ]
            },
            {
                "$type": "KCBOGFFHPBD",
                "type": "BODY_LANG",
                "aliasList": [
                    "1005"
                ],
                "AHGOBCDHCMC": true,
                "AOFEDPBOOIE": ""
            },
            {
                "$type": "IBPNIIGAIPF",
                "type": "LOOK_AT",
                "aliasList": [
                    "1005"
                ],
                "GGIENKFBOGL": true,
                "useTargetPos": true,
                "GCOONJBHNIM": true,
                "JHNJNNOPJKG": {
                    "x": 1930.53125,
                    "y": 225.6408233642578,
                    "z": -939.8209228515625
                },
                "NDOMJCOFKDJ": 0.3499999940395355,
                "KIPMIDIKECP": "",
                "HJJAFGPMJNJ": "",
                "AOFBAGFCGPJ": ""
            },
            {
                "$type": "IBPNIIGAIPF",
                "type": "LOOK_AT",
                "aliasList": [
                    "1012"
                ],
                "GGIENKFBOGL": true,
                "useTargetPos": true,
                "GCOONJBHNIM": true,
                "JHNJNNOPJKG": {
                    "x": 1930.53125,
                    "y": 225.6408233642578,
                    "z": -939.8209228515625
                },
                "NDOMJCOFKDJ": 0.3499999940395355,
                "KIPMIDIKECP": "",
                "HJJAFGPMJNJ": "",
                "AOFBAGFCGPJ": ""
            }
        ],
        [
            {
                "$type": "CCEEIGNAILH",
                "type": "DIALOG",
                "aliasList": [
                    "153701"
                ],
                "KICBIOMGHIN": 110050122
            },
            {
                "$type": "DNAEECJNBFB",
                "type": "EMO_SYNC",
                "aliasList": [
                    "153701"
                ],
                "EOGJDJKPPGE": "Cs_Emo_Avatar_Simple_Common_Set/Cs_Emo_Avatar_Talk/Cs_Emo_Avatar_PersonalLine/Cs_Emo_Avatar_XiangLing/Cs_Emo_110050122",
                "IHCBGPABDLE": "",
                "CIKPDMODFPL": "",
                "HDIAHFFHNGE": "",
                "BOAAGJEEFDD": "",
                "PFDPJKHPADE": "",
                "DALINBJAHOC": [
                    9128933862454606525,
                    1264951020354413041,
                    4849900092849338859,
                    6452790589120578564
                ]
            }
        ],
        [
            {
                "$type": "BCJBNCJOPCE",
                "type": "CAMERA_MOVE",
                "duration": 1.0,
                "AKFGKKEOEFA": {
                    "x": 1930.9383544921875,
                    "y": 225.49298095703125,
                    "z": -937.3770141601562
                },
                "NGEBMAEFFGJ": {
                    "x": 1930.1531982421875,
                    "y": 225.2430419921875,
                    "z": -937.9437255859375
                },
                "LIGHLBKBDEI": 30.0,
                "GFIOJGJJGCN": 6,
                "ABAEPHOGOFF": "EaseInOutCubic",
                "KFDBMBFFANN": {},
                "KIPMIDIKECP": "",
                "BDLGHOJPJHD": "",
                "LCOJGFEOLCK": "",
                "BBBGAEDCJEL": ""
            },
            {
                "$type": "BCJBNCJOPCE",
                "type": "CAMERA_MOVE",
                "delayTime": 0.10000000149011612,
                "duration": 10.0,
                "AKFGKKEOEFA": {
                    "x": 1931.117919921875,
                    "y": 225.32997131347656,
                    "z": -937.5836181640625
                },
                "NGEBMAEFFGJ": {
                    "x": 1930.235107421875,
                    "y": 225.15919494628906,
                    "z": -938.021240234375
                },
                "LIGHLBKBDEI": 30.0,
                "ABAEPHOGOFF": "EaseInOutQuad",
                "KFDBMBFFANN": {},
                "KIPMIDIKECP": "",
                "BDLGHOJPJHD": "",
                "LCOJGFEOLCK": "",
                "BBBGAEDCJEL": ""
            },
            {
                "$type": "MEKNGCBGKEJ",
                "type": "DIALOG_SELECT",
                "delayTime": 0.5,
                "aliasList": [
                    "Avatar"
                ],
                "MLAABINGLAA": [
                    110050124
                ],
                "HPBPDBFGKID": [
                    3320874300
                ],
                "CFJOJADDHHG": true
            },
            {
                "$type": "KCBOGFFHPBD",
                "type": "BODY_LANG",
                "delayTime": 0.4000000059604645,
                "aliasList": [
                    "153701"
                ],
                "AHGOBCDHCMC": true,
                "AOFEDPBOOIE": ""
            },
            {
                "$type": "CCEEIGNAILH",
                "type": "DIALOG",
                "aliasList": [
                    "1012"
                ],
                "KICBIOMGHIN": 110050123
            },
            {
                "$type": "KCBOGFFHPBD",
                "type": "BODY_LANG",
                "aliasList": [
                    "1012"
                ],
                "GPIEDGOMCGL": 1230,
                "AOFEDPBOOIE": ""
            },
            {
                "$type": "DNAEECJNBFB",
                "type": "EMO_SYNC",
                "aliasList": [
                    "1012"
                ],
                "EOGJDJKPPGE": "Cs_Emo_Avatar_Simple_Common_Set/Cs_Emo_Avatar_Talk/Cs_Emo_Avatar_PersonalLine/Cs_Emo_Avatar_XiangLing/Cs_Emo_110050123",
                "IHCBGPABDLE": "",
                "CIKPDMODFPL": "",
                "HDIAHFFHNGE": "",
                "BOAAGJEEFDD": "",
                "PFDPJKHPADE": "",
                "DALINBJAHOC": [
                    2921338142319871535,
                    8878826427868292389,
                    16451772955383610320,
                    9564467278313604588
                ]
            }
        ],
        [
            {
                "$type": "CCEEIGNAILH",
                "type": "DIALOG",
                "aliasList": [
                    "1005"
                ],
                "KICBIOMGHIN": 110050125
            },
            {
                "$type": "KCBOGFFHPBD",
                "type": "BODY_LANG",
                "aliasList": [
                    "1005"
                ],
                "GPIEDGOMCGL": 1060,
                "AOFEDPBOOIE": ""
            },
            {
                "$type": "IBPNIIGAIPF",
                "type": "LOOK_AT",
                "aliasList": [
                    "1005"
                ],
                "GGIENKFBOGL": true,
                "useTargetPos": true,
                "GCOONJBHNIM": true,
                "JHNJNNOPJKG": {
                    "x": 1928.8099365234375,
                    "y": 225.20046997070312,
                    "z": -938.8057250976562
                },
                "NDOMJCOFKDJ": 0.3499999940395355,
                "KIPMIDIKECP": "",
                "HJJAFGPMJNJ": "",
                "AOFBAGFCGPJ": ""
            },
            {
                "$type": "DNAEECJNBFB",
                "type": "EMO_SYNC",
                "aliasList": [
                    "1005"
                ],
                "EOGJDJKPPGE": "Cs_Emo_Avatar_Simple_Common_Set/Cs_Emo_Avatar_Talk/Cs_Emo_Avatar_PersonalLine/Cs_Emo_Avatar_XiangLing/Cs_Emo_110050125",
                "IHCBGPABDLE": "",
                "CIKPDMODFPL": "",
                "HDIAHFFHNGE": "",
                "BOAAGJEEFDD": "",
                "PFDPJKHPADE": "",
                "DALINBJAHOC": [
                    9677473439996228357,
                    17947423612604640732,
                    12591668094097618855,
                    22339679544887792
                ]
            }
        ],
        [
            {
                "$type": "KCBOGFFHPBD",
                "type": "BODY_LANG",
                "delayTime": 0.3500000238418579,
                "aliasList": [
                    "1005"
                ],
                "AHGOBCDHCMC": true,
                "AOFEDPBOOIE": ""
            },
            {
                "$type": "IBPNIIGAIPF",
                "type": "LOOK_AT",
                "delayTime": 0.6268463134765625,
                "aliasList": [
                    "1005"
                ],
                "GGIENKFBOGL": true,
                "useTargetPos": true,
                "GCOONJBHNIM": true,
                "JHNJNNOPJKG": {
                    "x": 1930.53125,
                    "y": 225.6408233642578,
                    "z": -939.8209228515625
                },
                "NDOMJCOFKDJ": 0.3499999940395355,
                "KIPMIDIKECP": "",
                "HJJAFGPMJNJ": "",
                "AOFBAGFCGPJ": ""
            },
            {
                "$type": "CCEEIGNAILH",
                "type": "DIALOG",
                "aliasList": [
                    "1012"
                ],
                "KICBIOMGHIN": 110050126,
                "PNCCODDABKI": 1.0
            },
            {
                "$type": "KCBOGFFHPBD",
                "type": "BODY_LANG",
                "aliasList": [
                    "1012"
                ],
                "GPIEDGOMCGL": 1260,
                "AOFEDPBOOIE": ""
            },
            {
                "$type": "DNAEECJNBFB",
                "type": "EMO_SYNC",
                "aliasList": [
                    "1012"
                ],
                "EOGJDJKPPGE": "Cs_Emo_Avatar_Simple_Common_Set/Cs_Emo_Avatar_Talk/Cs_Emo_Avatar_PersonalLine/Cs_Emo_Avatar_XiangLing/Cs_Emo_110050126",
                "IHCBGPABDLE": "",
                "CIKPDMODFPL": "",
                "HDIAHFFHNGE": "",
                "BOAAGJEEFDD": "",
                "PFDPJKHPADE": "",
                "DALINBJAHOC": [
                    13261301287868996036,
                    4492406097897728956,
                    3356795035570824200,
                    4736784287465707691
                ]
            }
        ],
        [
            {
                "$type": "BCJBNCJOPCE",
                "type": "CAMERA_MOVE",
                "duration": 1.0,
                "AKFGKKEOEFA": {
                    "x": 1929.6219482421875,
                    "y": 225.42626953125,
                    "z": -940.3372192382812
                },
                "NGEBMAEFFGJ": {
                    "x": 1929.921875,
                    "y": 225.29998779296875,
                    "z": -939.3916625976562
                },
                "LIGHLBKBDEI": 30.0,
                "GFIOJGJJGCN": 6,
                "ABAEPHOGOFF": "EaseInOutCubic",
                "KFDBMBFFANN": {},
                "KIPMIDIKECP": "",
                "BDLGHOJPJHD": "",
                "LCOJGFEOLCK": "",
                "BBBGAEDCJEL": ""
            },
            {
                "$type": "IBPNIIGAIPF",
                "type": "LOOK_AT",
                "delayTime": 0.36331892013549805,
                "aliasList": [
                    "163001"
                ],
                "GGIENKFBOGL": true,
                "useTargetPos": true,
                "GCOONJBHNIM": true,
                "JHNJNNOPJKG": {
                    "x": 1929.713134765625,
                    "y": 225.1912384033203,
                    "z": -937.880859375
                },
                "NDOMJCOFKDJ": 0.3499999940395355,
                "KIPMIDIKECP": "",
                "HJJAFGPMJNJ": "",
                "AOFBAGFCGPJ": ""
            },
            {
                "$type": "IBPNIIGAIPF",
                "type": "LOOK_AT",
                "delayTime": 0.37496185302734375,
                "aliasList": [
                    "153701"
                ],
                "GGIENKFBOGL": true,
                "useTargetPos": true,
                "GCOONJBHNIM": true,
                "JHNJNNOPJKG": {
                    "x": 1929.713134765625,
                    "y": 225.1912384033203,
                    "z": -937.880859375
                },
                "NDOMJCOFKDJ": 0.3499999940395355,
                "KIPMIDIKECP": "",
                "HJJAFGPMJNJ": "",
                "AOFBAGFCGPJ": ""
            },
            {
                "$type": "CCEEIGNAILH",
                "type": "DIALOG",
                "aliasList": [
                    "1012"
                ],
                "KICBIOMGHIN": 110050127,
                "PNCCODDABKI": 1.0
            },
            {
                "$type": "KCBOGFFHPBD",
                "type": "BODY_LANG",
                "aliasList": [
                    "1012"
                ],
                "AHGOBCDHCMC": true,
                "AOFEDPBOOIE": ""
            },
            {
                "$type": "KCBOGFFHPBD",
                "type": "BODY_LANG",
                "delayTime": 0.699999988079071,
                "aliasList": [
                    "1012"
                ],
                "GPIEDGOMCGL": 1120,
                "AOFEDPBOOIE": ""
            },
            {
                "$type": "IBPNIIGAIPF",
                "type": "LOOK_AT",
                "aliasList": [
                    "1012"
                ],
                "GGIENKFBOGL": true,
                "useTargetPos": true,
                "GCOONJBHNIM": true,
                "JHNJNNOPJKG": {
                    "x": 1930.8983154296875,
                    "y": 225.6439666748047,
                    "z": -938.4259643554688
                },
                "NDOMJCOFKDJ": 0.3499999940395355,
                "KIPMIDIKECP": "",
                "HJJAFGPMJNJ": "",
                "AOFBAGFCGPJ": ""
            },
            {
                "$type": "DNAEECJNBFB",
                "type": "EMO_SYNC",
                "aliasList": [
                    "1012"
                ],
                "EOGJDJKPPGE": "Cs_Emo_Avatar_Simple_Common_Set/Cs_Emo_Avatar_Talk/Cs_Emo_Avatar_PersonalLine/Cs_Emo_Avatar_XiangLing/Cs_Emo_110050127",
                "IHCBGPABDLE": "",
                "CIKPDMODFPL": "",
                "HDIAHFFHNGE": "",
                "BOAAGJEEFDD": "",
                "PFDPJKHPADE": "",
                "DALINBJAHOC": [
                    7444210522001781019,
                    4294703251293038482,
                    3607745434513485094,
                    372217093704675988
                ]
            }
        ],
        [
            {
                "$type": "BCJBNCJOPCE",
                "type": "CAMERA_MOVE",
                "duration": 1.0,
                "AKFGKKEOEFA": {
                    "x": 1929.6544189453125,
                    "y": 225.64642333984375,
                    "z": -936.67919921875
                },
                "NGEBMAEFFGJ": {
                    "x": 1929.968017578125,
                    "y": 225.43734741210938,
                    "z": -937.60546875
                },
                "LIGHLBKBDEI": 30.0,
                "GFIOJGJJGCN": 6,
                "ABAEPHOGOFF": "EaseInOutQuad",
                "KFDBMBFFANN": {},
                "KIPMIDIKECP": "",
                "BDLGHOJPJHD": "",
                "LCOJGFEOLCK": "",
                "BBBGAEDCJEL": ""
            },
            {
                "$type": "IBPNIIGAIPF",
                "type": "LOOK_AT",
                "delayTime": 0.41082000732421875,
                "aliasList": [
                    "163001"
                ],
                "GGIENKFBOGL": true,
                "useTargetPos": true,
                "GCOONJBHNIM": true,
                "JHNJNNOPJKG": {
                    "x": 1930.53125,
                    "y": 225.6408233642578,
                    "z": -939.8209228515625
                },
                "NDOMJCOFKDJ": 0.3499999940395355,
                "KIPMIDIKECP": "",
                "HJJAFGPMJNJ": "",
                "AOFBAGFCGPJ": ""
            },
            {
                "$type": "CCEEIGNAILH",
                "type": "DIALOG",
                "aliasList": [
                    "153701"
                ],
                "KICBIOMGHIN": 110050128,
                "PNCCODDABKI": 0.5
            },
            {
                "$type": "KCBOGFFHPBD",
                "type": "BODY_LANG",
                "aliasList": [
                    "153701"
                ],
                "GPIEDGOMCGL": 1130,
                "AOFEDPBOOIE": ""
            },
            {
                "$type": "DNAEECJNBFB",
                "type": "EMO_SYNC",
                "aliasList": [
                    "153701"
                ],
                "EOGJDJKPPGE": "Cs_Emo_Avatar_Simple_Common_Set/Cs_Emo_Avatar_Talk/Cs_Emo_Avatar_PersonalLine/Cs_Emo_Avatar_XiangLing/Cs_Emo_110050128",
                "IHCBGPABDLE": "",
                "CIKPDMODFPL": "",
                "HDIAHFFHNGE": "",
                "BOAAGJEEFDD": "",
                "PFDPJKHPADE": "",
                "DALINBJAHOC": [
                    3017299021574235009,
                    2079705715922347498,
                    15028643447638766649,
                    1767303161031068509
                ]
            },
            {
                "$type": "KCBOGFFHPBD",
                "type": "BODY_LANG",
                "delayTime": 0.4000000059604645,
                "aliasList": [
                    "1012"
                ],
                "AHGOBCDHCMC": true,
                "AOFEDPBOOIE": ""
            },
            {
                "$type": "IBPNIIGAIPF",
                "type": "LOOK_AT",
                "delayTime": 0.39962923526763916,
                "aliasList": [
                    "1012"
                ],
                "GGIENKFBOGL": true,
                "useTargetPos": true,
                "GCOONJBHNIM": true,
                "JHNJNNOPJKG": {
                    "x": 1930.53125,
                    "y": 225.6408233642578,
                    "z": -939.8209228515625
                },
                "NDOMJCOFKDJ": 0.3499999940395355,
                "KIPMIDIKECP": "",
                "HJJAFGPMJNJ": "",
                "AOFBAGFCGPJ": ""
            }
        ],
        [
            {
                "$type": "CCEEIGNAILH",
                "type": "DIALOG",
                "aliasList": [
                    "153701"
                ],
                "KICBIOMGHIN": 110050129
            },
            {
                "$type": "DNAEECJNBFB",
                "type": "EMO_SYNC",
                "aliasList": [
                    "153701"
                ],
                "EOGJDJKPPGE": "Cs_Emo_Avatar_Simple_Common_Set/Cs_Emo_Avatar_Talk/Cs_Emo_Avatar_PersonalLine/Cs_Emo_Avatar_XiangLing/Cs_Emo_110050129",
                "IHCBGPABDLE": "",
                "CIKPDMODFPL": "",
                "HDIAHFFHNGE": "",
                "BOAAGJEEFDD": "",
                "PFDPJKHPADE": "",
                "DALINBJAHOC": [
                    5845266581887534550,
                    14806392809694138073,
                    16815952520207049060,
                    530691951547530122
                ]
            }
        ],
        [
            {
                "$type": "CCEEIGNAILH",
                "type": "DIALOG_CLEAR",
                "delayTime": 0.20000000298023224,
                "KICBIOMGHIN": 110050129
            },
            {
                "$type": "BCJBNCJOPCE",
                "type": "CAMERA_MOVE",
                "delayTime": 0.5,
                "duration": 0.5,
                "KNAICGCGOHN": "EXIT",
                "KOPGEAIDOOE": "TO_INTEE",
                "LIGHLBKBDEI": 30.0,
                "GFIOJGJJGCN": 6,
                "ABAEPHOGOFF": "EaseInOutCubic",
                "KFDBMBFFANN": {},
                "KIPMIDIKECP": "",
                "BDLGHOJPJHD": "",
                "LCOJGFEOLCK": "",
                "BBBGAEDCJEL": ""
            },
            {
                "$type": "MoleMole.Config.ConfigBlackScreenAction",
                "type": "BLACK_SCREEN",
                "duration": 1.0,
                "durationToBlack": 0.4000000059604645,
                "durationKeepBlack": 0.20000000298023224,
                "durationFromBlack": 0.4000000059604645,
                "inteePos": "",
                "textMapID": ""
            },
            {
                "$type": "MoleMole.Config.ConfigTimeProtectAction",
                "type": "TIME_PROTECT",
                "duration": 1.0
            },
            {
                "$type": "MoleMole.Config.ConfigVisibleInterAction",
                "type": "VISIBLE",
                "delayTime": 0.5,
                "aliasList": [
                    "163001"
                ],
                "extraParam": ""
            },
            {
                "$type": "MoleMole.Config.ConfigVisibleInterAction",
                "type": "VISIBLE",
                "delayTime": 0.5,
                "aliasList": [
                    "153701"
                ],
                "extraParam": ""
            },
            {
                "$type": "MoleMole.Config.ConfigVisibleInterAction",
                "type": "VISIBLE",
                "delayTime": 0.5,
                "aliasList": [
                    "1012"
                ],
                "extraParam": ""
            }
        ],
        [
            {
                "$type": "IBPNIIGAIPF",
                "type": "LOOK_AT",
                "aliasList": [
                    "Avatar"
                ],
                "KIPMIDIKECP": "",
                "HJJAFGPMJNJ": "",
                "AOFBAGFCGPJ": ""
            },
            {
                "$type": "IBPNIIGAIPF",
                "type": "LOOK_AT",
                "aliasList": [
                    "163001"
                ],
                "KIPMIDIKECP": "",
                "HJJAFGPMJNJ": "",
                "AOFBAGFCGPJ": ""
            },
            {
                "$type": "IBPNIIGAIPF",
                "type": "LOOK_AT",
                "aliasList": [
                    "153701"
                ],
                "KIPMIDIKECP": "",
                "HJJAFGPMJNJ": "",
                "AOFBAGFCGPJ": ""
            },
            {
                "$type": "IBPNIIGAIPF",
                "type": "LOOK_AT",
                "aliasList": [
                    "1005"
                ],
                "KIPMIDIKECP": "",
                "HJJAFGPMJNJ": "",
                "AOFBAGFCGPJ": ""
            },
            {
                "$type": "IBPNIIGAIPF",
                "type": "LOOK_AT",
                "aliasList": [
                    "1012"
                ],
                "KIPMIDIKECP": "",
                "HJJAFGPMJNJ": "",
                "AOFBAGFCGPJ": ""
            }
        ]
    ],
    "groupId": [
        {
            "grpId": 522766972,
            "nextGrpId": 522766973
        },
        {
            "index": 1,
            "grpId": 522766973,
            "nextGrpId": 522766974
        },
        {
            "index": 2,
            "grpId": 522766974,
            "nextGrpId": 522766975
        },
        {
            "index": 3,
            "grpId": 522766975,
            "nextGrpId": 522766976
        },
        {
            "index": 4,
            "grpId": 522766976,
            "nextGrpId": 522766977
        },
        {
            "index": 5,
            "grpId": 522766977,
            "nextGrpId": 522766979
        },
        {
            "index": 6,
            "grpId": 522766978,
            "nextGrpId": 522766979
        },
        {
            "index": 7,
            "grpId": 522766979,
            "nextGrpId": 522766980
        },
        {
            "index": 8,
            "grpId": 522766980,
            "nextGrpId": 3320874293
        },
        {
            "index": 9,
            "grpId": 3320874292,
            "nextGrpId": 3320874293
        },
        {
            "index": 10,
            "grpId": 3320874293,
            "nextGrpId": 3320874294
        },
        {
            "index": 11,
            "grpId": 3320874294,
            "nextGrpId": 3320874295
        },
        {
            "index": 12,
            "grpId": 3320874295,
            "nextGrpId": 3320874296
        },
        {
            "index": 13,
            "grpId": 3320874296,
            "nextGrpId": 3320874297
        },
        {
            "index": 14,
            "grpId": 3320874297,
            "nextGrpId": 3320874298
        },
        {
            "index": 15,
            "grpId": 3320874298,
            "nextGrpId": 3320874299
        },
        {
            "index": 16,
            "grpId": 3320874299,
            "nextGrpId": 3320874300
        },
        {
            "index": 17,
            "grpId": 3320874300,
            "nextGrpId": 3320874301
        },
        {
            "index": 18,
            "grpId": 3320874301,
            "nextGrpId": 3320874323
        },
        {
            "index": 19,
            "grpId": 3320874323,
            "nextGrpId": 3320874324
        },
        {
            "index": 20,
            "grpId": 3320874324,
            "nextGrpId": 3320874325
        },
        {
            "index": 21,
            "grpId": 3320874325,
            "nextGrpId": 3320874326
        },
        {
            "index": 22,
            "grpId": 3320874326,
            "nextGrpId": 3320874327
        },
        {
            "index": 23,
            "grpId": 3320874327,
            "nextGrpId": 3320874328
        }
    ],
    "freeStyleDic": {
        "163001": [
            1120,
            1130
        ],
        "153701": [
            1230,
            1180,
            1190,
            1110,
            1170,
            1130
        ],
        "1012": [
            1040,
            1170,
            1220,
            1230,
            1260,
            1120
        ]
    }
}