{
    "buttonSequence": [
        {
            "button": "Left_Down",
            "time": 1920,
            "isLongPress": true,
            "longPressTime": 480
        },
        {
            "button": "Left_Down",
            "time": 3600,
            "isLongPress": true,
            "longPressTime": 240
        },
        {
            "button": "Left_Down",
            "time": 5760,
            "isLongPress": true,
            "longPressTime": 480
        },
        {
            "button": "Left_Down",
            "time": 7680
        },
        {
            "button": "Left_Down",
            "time": 7800
        },
        {
            "button": "Left_Down",
            "time": 8400
        },
        {
            "button": "Left_Down",
            "time": 9600
        },
        {
            "button": "Left_Down",
            "time": 9720
        },
        {
            "button": "Left_Down",
            "time": 10320
        },
        {
            "button": "Left_Down",
            "time": 11520
        },
        {
            "button": "Left_Down",
            "time": 11640
        },
        {
            "button": "Left_Down",
            "time": 12240
        },
        {
            "button": "Left_Down",
            "time": 15360
        },
        {
            "button": "Left_Down",
            "time": 15480
        },
        {
            "button": "Left_Down",
            "time": 16080
        },
        {
            "button": "Left_Down",
            "time": 17280
        },
        {
            "button": "Left_Down",
            "time": 17400
        },
        {
            "button": "Left_Down",
            "time": 18000
        },
        {
            "button": "Left_Down",
            "time": 20400,
            "isLongPress": true,
            "longPressTime": 720
        },
        {
            "button": "Left_Down",
            "time": 21360
        },
        {
            "button": "Left_Down",
            "time": 21720
        },
        {
            "button": "Left_Down",
            "time": 22080
        },
        {
            "button": "Left_Down",
            "time": 22440
        },
        {
            "button": "Left_Down",
            "time": 23040,
            "isLongPress": true,
            "longPressTime": 1440
        },
        {
            "button": "Left_Down",
            "time": 28800,
            "isLongPress": true,
            "longPressTime": 1440
        },
        {
            "button": "Left_Down",
            "time": 30720,
            "isLongPress": true,
            "longPressTime": 1680
        },
        {
            "button": "Left_Down",
            "time": 32640,
            "isLongPress": true,
            "longPressTime": 480
        },
        {
            "button": "Left_Down",
            "time": 33600,
            "isLongPress": true,
            "longPressTime": 480
        },
        {
            "button": "Left_Down",
            "time": 34560
        },
        {
            "button": "Left_Down",
            "time": 36480,
            "isLongPress": true,
            "longPressTime": 960
        },
        {
            "button": "Left_Down",
            "time": 39360,
            "isLongPress": true,
            "longPressTime": 960
        },
        {
            "button": "Left_Down",
            "time": 40800,
            "isLongPress": true,
            "longPressTime": 480
        },
        {
            "button": "Left_Down",
            "time": 41760,
            "isLongPress": true,
            "longPressTime": 480
        },
        {
            "button": "Left_Down",
            "time": 43200,
            "isLongPress": true,
            "longPressTime": 480
        },
        {
            "button": "Left_Down",
            "time": 44160,
            "isLongPress": true,
            "longPressTime": 480
        },
        {
            "button": "Left_Down",
            "time": 45120,
            "isLongPress": true,
            "longPressTime": 480
        },
        {
            "button": "Left_Down",
            "time": 46080,
            "isLongPress": true,
            "longPressTime": 1920
        },
        {
            "button": "Left_Down",
            "time": 48480,
            "isLongPress": true,
            "longPressTime": 480
        },
        {
            "button": "Left_Down",
            "time": 49440,
            "isLongPress": true,
            "longPressTime": 480
        },
        {
            "button": "Left_Down",
            "time": 50880,
            "isLongPress": true,
            "longPressTime": 480
        },
        {
            "button": "Left_Down",
            "time": 51840
        },
        {
            "button": "Left_Down",
            "time": 52200
        },
        {
            "button": "Left_Down",
            "time": 52560
        },
        {
            "button": "Left_Down",
            "time": 52800,
            "isLongPress": true,
            "longPressTime": 480
        },
        {
            "button": "Left_Down",
            "time": 53760
        },
        {
            "button": "Left_Down",
            "time": 54480
        },
        {
            "button": "Left_Down",
            "time": 54720
        },
        {
            "button": "Left_Down",
            "time": 55200
        },
        {
            "button": "Left_Down",
            "time": 55680,
            "isLongPress": true,
            "longPressTime": 1920
        },
        {
            "button": "Left_Down",
            "time": 58320
        },
        {
            "button": "Left_Down",
            "time": 58560
        },
        {
            "button": "Left_Down",
            "time": 59520,
            "isLongPress": true,
            "longPressTime": 1920
        },
        {
            "button": "Left_Down",
            "time": 62160
        },
        {
            "button": "Left_Down",
            "time": 62400
        },
        {
            "button": "Left_Down",
            "time": 62880
        },
        {
            "button": "Left_Down",
            "time": 63360,
            "isLongPress": true,
            "longPressTime": 1920
        },
        {
            "button": "Left_Down",
            "time": 66000
        },
        {
            "button": "Left_Down",
            "time": 66240
        },
        {
            "button": "Left_Down",
            "time": 66720
        },
        {
            "button": "Left_Down",
            "time": 68160
        },
        {
            "button": "Left_Down",
            "time": 68640
        },
        {
            "button": "Left_Down",
            "time": 69120,
            "isLongPress": true,
            "longPressTime": 1440
        },
        {
            "button": "Left_Down",
            "time": 72960,
            "isLongPress": true,
            "longPressTime": 1440
        },
        {
            "button": "Left_Down",
            "time": 74880,
            "isLongPress": true,
            "longPressTime": 1440
        },
        {
            "button": "Left_Down",
            "time": 84480
        },
        {
            "button": "Left_Down",
            "time": 84960
        },
        {
            "button": "Left_Down",
            "time": 85200
        },
        {
            "button": "Left_Down",
            "time": 86400
        },
        {
            "button": "Left_Down",
            "time": 86763
        },
        {
            "button": "Left_Down",
            "time": 87127
        },
        {
            "button": "Left_Down",
            "time": 87490,
            "isLongPress": true,
            "longPressTime": 3273
        },
        {
            "button": "Left_Down",
            "time": 94036,
            "isLongPress": true,
            "longPressTime": 2182
        },
        {
            "button": "Left_Down",
            "time": 99218,
            "isLongPress": true,
            "longPressTime": 2182
        },
        {
            "button": "Left_Down",
            "time": 102218,
            "isLongPress": true,
            "longPressTime": 3272
        },
        {
            "button": "Left_Down",
            "time": 105900
        },
        {
            "button": "Left_Right",
            "time": 13440
        },
        {
            "button": "Left_Right",
            "time": 13560
        },
        {
            "button": "Left_Right",
            "time": 14160
        },
        {
            "button": "Left_Right",
            "time": 14280
        },
        {
            "button": "Left_Right",
            "time": 14880
        },
        {
            "button": "Left_Right",
            "time": 19560
        },
        {
            "button": "Left_Right",
            "time": 19680
        },
        {
            "button": "Left_Right",
            "time": 24960,
            "isLongPress": true,
            "longPressTime": 1440
        },
        {
            "button": "Left_Right",
            "time": 26880,
            "isLongPress": true,
            "longPressTime": 1440
        },
        {
            "button": "Left_Right",
            "time": 34920
        },
        {
            "button": "Left_Right",
            "time": 36240
        },
        {
            "button": "Left_Right",
            "time": 67200
        },
        {
            "button": "Left_Right",
            "time": 67560
        },
        {
            "button": "Left_Right",
            "time": 67920
        },
        {
            "button": "Left_Right",
            "time": 71040,
            "isLongPress": true,
            "longPressTime": 1440
        },
        {
            "button": "Left_Right",
            "time": 76800
        },
        {
            "button": "Left_Right",
            "time": 77520
        },
        {
            "button": "Left_Right",
            "time": 77640
        },
        {
            "button": "Left_Right",
            "time": 77760
        },
        {
            "button": "Left_Right",
            "time": 79080
        },
        {
            "button": "Left_Right",
            "time": 79440
        },
        {
            "button": "Left_Right",
            "time": 79680
        },
        {
            "button": "Left_Right",
            "time": 81600,
            "isLongPress": true,
            "longPressTime": 960
        },
        {
            "button": "Left_Right",
            "time": 83520,
            "isLongPress": true,
            "longPressTime": 480
        },
        {
            "button": "Left_Right",
            "time": 85440
        },
        {
            "button": "Left_Right",
            "time": 85800
        },
        {
            "button": "Left_Right",
            "time": 86160
        },
        {
            "button": "Right_Left",
            "time": 13800
        },
        {
            "button": "Right_Left",
            "time": 13920
        },
        {
            "button": "Right_Left",
            "time": 14520
        },
        {
            "button": "Right_Left",
            "time": 14640
        },
        {
            "button": "Right_Left",
            "time": 15120
        },
        {
            "button": "Right_Left",
            "time": 19200
        },
        {
            "button": "Right_Left",
            "time": 19320
        },
        {
            "button": "Right_Left",
            "time": 19920
        },
        {
            "button": "Right_Left",
            "time": 24960,
            "isLongPress": true,
            "longPressTime": 1440
        },
        {
            "button": "Right_Left",
            "time": 26880,
            "isLongPress": true,
            "longPressTime": 1440
        },
        {
            "button": "Right_Left",
            "time": 35280
        },
        {
            "button": "Right_Left",
            "time": 35880
        },
        {
            "button": "Right_Left",
            "time": 67200
        },
        {
            "button": "Right_Left",
            "time": 67560
        },
        {
            "button": "Right_Left",
            "time": 67920
        },
        {
            "button": "Right_Left",
            "time": 71040,
            "isLongPress": true,
            "longPressTime": 1440
        },
        {
            "button": "Right_Left",
            "time": 78120
        },
        {
            "button": "Right_Left",
            "time": 78480
        },
        {
            "button": "Right_Left",
            "time": 78720
        },
        {
            "button": "Right_Left",
            "time": 80160
        },
        {
            "button": "Right_Left",
            "time": 80400
        },
        {
            "button": "Right_Left",
            "time": 80640,
            "isLongPress": true,
            "longPressTime": 960
        },
        {
            "button": "Right_Left",
            "time": 82560,
            "isLongPress": true,
            "longPressTime": 960
        },
        {
            "button": "Right_Left",
            "time": 85440
        },
        {
            "button": "Right_Left",
            "time": 85800
        },
        {
            "button": "Right_Left",
            "time": 86160
        },
        {
            "button": "Right_Down",
            "time": 1920,
            "isLongPress": true,
            "longPressTime": 480
        },
        {
            "button": "Right_Down",
            "time": 4680,
            "isLongPress": true,
            "longPressTime": 240
        },
        {
            "button": "Right_Down",
            "time": 5760,
            "isLongPress": true,
            "longPressTime": 480
        },
        {
            "button": "Right_Down",
            "time": 8040
        },
        {
            "button": "Right_Down",
            "time": 8160
        },
        {
            "button": "Right_Down",
            "time": 8880
        },
        {
            "button": "Right_Down",
            "time": 9120
        },
        {
            "button": "Right_Down",
            "time": 9360
        },
        {
            "button": "Right_Down",
            "time": 9960
        },
        {
            "button": "Right_Down",
            "time": 10080
        },
        {
            "button": "Right_Down",
            "time": 10800
        },
        {
            "button": "Right_Down",
            "time": 11040
        },
        {
            "button": "Right_Down",
            "time": 11280
        },
        {
            "button": "Right_Down",
            "time": 11880
        },
        {
            "button": "Right_Down",
            "time": 12000
        },
        {
            "button": "Right_Down",
            "time": 12720
        },
        {
            "button": "Right_Down",
            "time": 12960
        },
        {
            "button": "Right_Down",
            "time": 13200
        },
        {
            "button": "Right_Down",
            "time": 15720
        },
        {
            "button": "Right_Down",
            "time": 15840
        },
        {
            "button": "Right_Down",
            "time": 16560
        },
        {
            "button": "Right_Down",
            "time": 16800
        },
        {
            "button": "Right_Down",
            "time": 17040
        },
        {
            "button": "Right_Down",
            "time": 17640
        },
        {
            "button": "Right_Down",
            "time": 17760
        },
        {
            "button": "Right_Down",
            "time": 18480
        },
        {
            "button": "Right_Down",
            "time": 18720
        },
        {
            "button": "Right_Down",
            "time": 18960
        },
        {
            "button": "Right_Down",
            "time": 21120
        },
        {
            "button": "Right_Down",
            "time": 21480
        },
        {
            "button": "Right_Down",
            "time": 21840
        },
        {
            "button": "Right_Down",
            "time": 22200
        },
        {
            "button": "Right_Down",
            "time": 22560
        },
        {
            "button": "Right_Down",
            "time": 23040,
            "isLongPress": true,
            "longPressTime": 1440
        },
        {
            "button": "Right_Down",
            "time": 28800,
            "isLongPress": true,
            "longPressTime": 1440
        },
        {
            "button": "Right_Down",
            "time": 30720
        },
        {
            "button": "Right_Down",
            "time": 31440
        },
        {
            "button": "Right_Down",
            "time": 31680
        },
        {
            "button": "Right_Down",
            "time": 32040
        },
        {
            "button": "Right_Down",
            "time": 32400
        },
        {
            "button": "Right_Down",
            "time": 33120,
            "isLongPress": true,
            "longPressTime": 480
        },
        {
            "button": "Right_Down",
            "time": 35520
        },
        {
            "button": "Right_Down",
            "time": 37440,
            "isLongPress": true,
            "longPressTime": 480
        },
        {
            "button": "Right_Down",
            "time": 38400,
            "isLongPress": true,
            "longPressTime": 2400
        },
        {
            "button": "Right_Down",
            "time": 41280,
            "isLongPress": true,
            "longPressTime": 480
        },
        {
            "button": "Right_Down",
            "time": 42240,
            "isLongPress": true,
            "longPressTime": 1920
        },
        {
            "button": "Right_Down",
            "time": 44640,
            "isLongPress": true,
            "longPressTime": 480
        },
        {
            "button": "Right_Down",
            "time": 45600,
            "isLongPress": true,
            "longPressTime": 480
        },
        {
            "button": "Right_Down",
            "time": 47040,
            "isLongPress": true,
            "longPressTime": 480
        },
        {
            "button": "Right_Down",
            "time": 48000,
            "isLongPress": true,
            "longPressTime": 480
        },
        {
            "button": "Right_Down",
            "time": 48960,
            "isLongPress": true,
            "longPressTime": 480
        },
        {
            "button": "Right_Down",
            "time": 49920,
            "isLongPress": true,
            "longPressTime": 960
        },
        {
            "button": "Right_Down",
            "time": 51840
        },
        {
            "button": "Right_Down",
            "time": 52200
        },
        {
            "button": "Right_Down",
            "time": 52560
        },
        {
            "button": "Right_Down",
            "time": 52800,
            "isLongPress": true,
            "longPressTime": 480
        },
        {
            "button": "Right_Down",
            "time": 53760,
            "isLongPress": true,
            "longPressTime": 1920
        },
        {
            "button": "Right_Down",
            "time": 56400
        },
        {
            "button": "Right_Down",
            "time": 56640
        },
        {
            "button": "Right_Down",
            "time": 57120
        },
        {
            "button": "Right_Down",
            "time": 57600,
            "isLongPress": true,
            "longPressTime": 1920
        },
        {
            "button": "Right_Down",
            "time": 60240
        },
        {
            "button": "Right_Down",
            "time": 60480
        },
        {
            "button": "Right_Down",
            "time": 60960
        },
        {
            "button": "Right_Down",
            "time": 61440,
            "isLongPress": true,
            "longPressTime": 1920
        },
        {
            "button": "Right_Down",
            "time": 64320
        },
        {
            "button": "Right_Down",
            "time": 64800
        },
        {
            "button": "Right_Down",
            "time": 65280,
            "isLongPress": true,
            "longPressTime": 1440
        },
        {
            "button": "Right_Down",
            "time": 68160
        },
        {
            "button": "Right_Down",
            "time": 68640
        },
        {
            "button": "Right_Down",
            "time": 69120,
            "isLongPress": true,
            "longPressTime": 1440
        },
        {
            "button": "Right_Down",
            "time": 72960,
            "isLongPress": true,
            "longPressTime": 1440
        },
        {
            "button": "Right_Down",
            "time": 74880,
            "isLongPress": true,
            "longPressTime": 1440
        },
        {
            "button": "Right_Down",
            "time": 84480
        },
        {
            "button": "Right_Down",
            "time": 84960
        },
        {
            "button": "Right_Down",
            "time": 85200
        },
        {
            "button": "Right_Down",
            "time": 86400
        },
        {
            "button": "Right_Down",
            "time": 86763
        },
        {
            "button": "Right_Down",
            "time": 87127
        },
        {
            "button": "Right_Down",
            "time": 87490,
            "isLongPress": true,
            "longPressTime": 3273
        },
        {
            "button": "Right_Down",
            "time": 96218,
            "isLongPress": true,
            "longPressTime": 3000
        },
        {
            "button": "Right_Down",
            "time": 102218,
            "isLongPress": true,
            "longPressTime": 3272
        },
        {
            "button": "Right_Down",
            "time": 105900
        }
    ],
    "playMusicEvent": {
        "text": "Play_ui_activity_FleurFairV2_musicgame_BGM_Eula"
    },
    "stopMusicEvent": {
        "text": "Stop_ui_activity_FleurFairV2_musicgame_BGM_Eula"
    },
    "pauseMusicEvent": {
        "text": "Pause_ui_activity_FleurFairV2_musicgame_BGM_Eula"
    },
    "resumeMusicEvent": {
        "text": "Resume_ui_activity_FleurFairV2_musicgame_BGM_Eula"
    },
    "EAGLIGOCIKP": {
        "text": "Play_ui_activity_FleurFairV2_musicgame_BGM_Eula_Preview"
    },
    "LJEBJFDJNKN": {
        "text": "Stop_ui_activity_FleurFairV2_musicgame_BGM_Eula_Preview"
    }
}