{
    "luaDataPath": "",
    "startBlackKeepTime": 0.4000000059604645,
    "entityBan": "",
    "disableNpcLod": true,
    "startFade": {
        "startFadeInDuration": 0.30000001192092896,
        "startFadeOutDuration": 0.30000001192092896
    },
    "endFade": {
        "startFadeOutDuration": 0.0
    },
    "actors": [
        {
            "alias": "Avatar",
            "visible": true,
            "bornPointName": "Q1903001Born",
            "relativePosNpcAlias": "",
            "bindMovingTargetKey": ""
        },
        {
            "configID": 1023,
            "alias": "1023",
            "visible": true,
            "bornPointName": "Q1903001Cy",
            "relativePosNpcAlias": "",
            "bindMovingTargetKey": ""
        }
    ],
    "group": [
        [
            {
                "$type": "MoleMole.Config.ConfigTimeProtectAction",
                "type": "TIME_PROTECT",
                "duration": 0.10000000149011612
            },
            {
                "$type": "BCJBNCJOPCE",
                "type": "CAMERA_MOVE",
                "duration": 1.0,
                "AKFGKKEOEFA": {
                    "x": 1534.153564453125,
                    "y": 238.2512664794922,
                    "z": 507.13995361328125
                },
                "NGEBMAEFFGJ": {
                    "x": 1534.8079833984375,
                    "y": 237.94943237304688,
                    "z": 506.4466857910156
                },
                "LIGHLBKBDEI": 53.008827209472656,
                "GFIOJGJJGCN": 6,
                "ABAEPHOGOFF": "EaseInOutCubic",
                "KFDBMBFFANN": {},
                "KIPMIDIKECP": "",
                "BDLGHOJPJHD": "",
                "LCOJGFEOLCK": "",
                "BBBGAEDCJEL": ""
            }
        ],
        [
            {
                "$type": "CCEEIGNAILH",
                "type": "DIALOG",
                "aliasList": [
                    "1023"
                ],
                "KICBIOMGHIN": 1903001301
            }
        ]
    ],
    "groupId": [
        {
            "grpId": 1591153643,
            "nextGrpId": 1591153644
        },
        {
            "index": 1,
            "grpId": 1591153644,
            "nextGrpId": 1591153645
        }
    ],
    "freeStyleDic": {
        "1023": []
    }
}