{
    "AOOGPAEJDFN": {
        "x": 2039.55908203125,
        "z": -814.545166015625
    },
    "ELJHMKDBOIJ": {
        "x": 2046.5162353515625,
        "z": -798.2275390625
    },
    "DELPMEEHPHO": [
        {
            "x": 2044.8897705078125,
            "y": 202.39999389648438,
            "z": -814.1983642578125
        },
        {
            "x": 2044.6031494140625,
            "y": 205.02804565429688,
            "z": -809.5134887695312
        },
        {
            "x": 2043.1834716796875,
            "y": 205.6484375,
            "z": -807.5362548828125
        },
        {
            "x": 2043.7989501953125,
            "y": 204.9160614013672,
            "z": -803.1237182617188
        },
        {
            "x": 2045.83935546875,
            "y": 205.10943603515625,
            "z": -800.9859619140625
        },
        {
            "x": 2046.5162353515625,
            "y": 203.06895446777344,
            "z": -798.2275390625
        },
        {
            "x": 2042.6392822265625,
            "y": 204.74887084960938,
            "z": -798.4301147460938
        },
        {
            "x": 2040.0740966796875,
            "y": 204.6917266845703,
            "z": -801.8377075195312
        },
        {
            "x": 2039.55908203125,
            "y": 205.84405517578125,
            "z": -806.9246215820312
        },
        {
            "x": 2040.5142822265625,
            "y": 207.17799377441406,
            "z": -811.0504760742188
        },
        {
            "x": 2041.7471923828125,
            "y": 207.11956787109375,
            "z": -814.545166015625
        }
    ]
}