[
    {
        "position": {
            "z": -1653499008.0
        },
        "musicSubStates": {}
    },
    {
        "position": {
            "x": 2.868149048410023e-34,
            "z": 9.86099288764976e-32
        }
    },
    {
        "position": {
            "x": 9.740060426845638e-30,
            "z": 4.6721124999385713e-32
        },
        "rotation": {
            "x": 67.69287872314453,
            "z": 4491.9990234375
        }
    },
    {
        "position": {
            "y": 2.9079718024133342e+22
        },
        "rotation": {
            "y": 1419344.75,
            "z": -2379724609290240.0
        },
        "musicSubStates": {
            "x": 1.832561338233063e-07,
            "z": -6.75482343224867e+28
        }
    },
    {
        "musicSubStates": {
            "x": 4.615455963502526e-28,
            "z": -3.471847544408581e-32
        }
    },
    {
        "rotation": {
            "x": 1.4861810663700942e-34
        }
    },
    {
        "position": {
            "z": -8.411366344506737e+17
        },
        "rotation": {
            "y": -8.521977868673285e-32,
            "z": -1.1276326217632585e+23
        },
        "musicSubStates": {}
    },
    {
        "position": {
            "x": 12464.705078125,
            "z": 1.4861467428534052e-34
        },
        "musicSubStates": {
            "z": 1.3677423222932636e-15
        }
    },
    {
        "position": {
            "x": -1.6638068264393586e-33,
            "y": -2.3402783318038516e-32
        },
        "rotation": {
            "z": 1.2338373237218537e-21
        },
        "musicSubStates": {
            "y": 4325.82958984375
        }
    },
    {
        "position": {
            "x": 4.54413589429776e+20,
            "z": -816697792.0
        },
        "rotation": {},
        "musicSubStates": {
            "x": -2.0214410530332173e+24
        }
    },
    {
        "position": {
            "x": 83.99208068847656,
            "z": 4200.69873046875
        },
        "rotation": {
            "x": -2179.9375,
            "y": 62.203033447265625,
            "z": 4212.4501953125
        }
    },
    {
        "position": {
            "x": -2.1362061741912598e-17,
            "y": -0.0001854990841820836,
            "z": 1.4859837348477247e-34
        },
        "rotation": {
            "y": -7.992810619187668e+33,
            "z": -2.3971308986149166e-30
        },
        "musicSubStates": {
            "z": 135.27157592773438
        }
    },
    {},
    {
        "position": {
            "x": 55.47941589355469,
            "z": 4330.61962890625
        },
        "rotation": {
            "x": -2256.91943359375,
            "y": 63.3720817565918,
            "z": 4439.31640625
        }
    }
]