{
    "AOOGPAEJDFN": {
        "x": 394.34307861328125,
        "z": 2358.12255859375
    },
    "ELJHMKDBOIJ": {
        "x": 423.3780212402344,
        "z": 2388.482421875
    },
    "DELPMEEHPHO": [
        {
            "x": 404.7808532714844,
            "y": 276.4826354980469,
            "z": 2358.12255859375
        },
        {
            "x": 415.104736328125,
            "y": 276.927490234375,
            "z": 2360.024169921875
        },
        {
            "x": 422.9610290527344,
            "y": 276.2824401855469,
            "z": 2367.883056640625
        },
        {
            "x": 423.3780212402344,
            "y": 276.1397399902344,
            "z": 2376.7998046875
        },
        {
            "x": 420.71795654296875,
            "y": 277.63079833984375,
            "z": 2384.156982421875
        },
        {
            "x": 410.6055908203125,
            "y": 276.3515319824219,
            "z": 2388.482421875
        },
        {
            "x": 399.8433532714844,
            "y": 277.210693359375,
            "z": 2387.849853515625
        },
        {
            "x": 394.34307861328125,
            "y": 277.376220703125,
            "z": 2376.656982421875
        },
        {
            "x": 395.85333251953125,
            "y": 277.4229431152344,
            "z": 2364.68359375
        }
    ]
}