{
    "AOOGPAEJDFN": {
        "x": -4444.2822265625,
        "z": -4066.226318359375
    },
    "ELJHMKDBOIJ": {
        "x": -4415.123046875,
        "z": -4053.598876953125
    },
    "DELPMEEHPHO": [
        {
            "x": -4419.3720703125,
            "y": 200.0,
            "z": -4066.226318359375
        },
        {
            "x": -4417.00439453125,
            "y": 200.0,
            "z": -4065.396240234375
        },
        {
            "x": -4415.123046875,
            "y": 200.0,
            "z": -4063.808837890625
        },
        {
            "x": -4418.2021484375,
            "y": 193.52655029296875,
            "z": -4060.3447265625
        },
        {
            "x": -4432.09130859375,
            "y": 200.56631469726562,
            "z": -4053.598876953125
        },
        {
            "x": -4442.72607421875,
            "y": 200.31436157226562,
            "z": -4057.518798828125
        },
        {
            "x": -4444.2822265625,
            "y": 200.0,
            "z": -4063.156494140625
        }
    ]
}