{
    "AOOGPAEJDFN": {
        "x": 2507.64501953125,
        "z": -1117.36669921875
    },
    "ELJHMKDBOIJ": {
        "x": 2528.59912109375,
        "z": -1104.0423583984375
    },
    "DELPMEEHPHO": [
        {
            "x": 2524.1240234375,
            "y": 202.67013549804688,
            "z": -1108.8592529296875
        },
        {
            "x": 2518.414794921875,
            "y": 202.3625946044922,
            "z": -1112.1446533203125
        },
        {
            "x": 2510.869384765625,
            "y": 204.98472595214844,
            "z": -1104.265380859375
        },
        {
            "x": 2510.105712890625,
            "y": 202.3625946044922,
            "z": -1104.0423583984375
        },
        {
            "x": 2507.64501953125,
            "y": 201.3389129638672,
            "z": -1107.834716796875
        },
        {
            "x": 2509.669921875,
            "y": 202.80259704589844,
            "z": -1109.825927734375
        },
        {
            "x": 2520.28662109375,
            "y": 203.90780639648438,
            "z": -1117.36669921875
        },
        {
            "x": 2527.917724609375,
            "y": 202.3625946044922,
            "z": -1116.3365478515625
        },
        {
            "x": 2528.59912109375,
            "y": 202.3625946044922,
            "z": -1110.1607666015625
        }
    ]
}