[
    {
        "position": {
            "x": -4.2781205563536254e-17,
            "y": 9.272605653268706e-36,
            "z": 3262.939697265625
        }
    },
    {},
    {
        "position": {
            "x": 2.6007027869463937e-32,
            "z": -9.540630209480877e+26
        },
        "radius": -4.247036763295108e-17
    },
    {
        "radius": -1.833254749002286e-18
    },
    {
        "position": {
            "x": -1.850489923656745e+17,
            "y": 4.57805157338953e-07
        }
    },
    {
        "position": {
            "x": 3250.138427734375,
            "y": 440.0563659667969,
            "z": 2897.824951171875
        }
    },
    {
        "position": {
            "y": -12.330875396728516,
            "z": 1.824083568635615e-07
        },
        "radius": 1.4836248253345365e-34
    },
    {
        "position": {
            "x": 1.0178724817135665e-20,
            "y": 8.439204217056281e-20,
            "z": 7.873770080379927e-09
        }
    },
    {},
    {
        "position": {
            "x": 440.08123779296875,
            "z": 2897.075439453125
        },
        "radius": 25489934.0
    },
    {
        "position": {
            "y": -200560.28125,
            "z": 1.483621611092171e-34
        }
    },
    {
        "position": {
            "y": 1.3886742225116534e-36
        },
        "radius": -7.253101227518657e+37
    },
    {},
    {
        "position": {
            "x": 3262.939697265625,
            "y": 440.0559387207031,
            "z": 2894.718505859375
        }
    }
]