{
    "AOOGPAEJDFN": {
        "x": -5231.34716796875,
        "y": -1000.0,
        "z": -5295.96826171875
    },
    "ELJHMKDBOIJ": {
        "x": 3074.49462890625,
        "y": 1000.0,
        "z": 2005.010498046875
    },
    "DELPMEEHPHO": [
        {
            "x": 1732.840087890625,
            "y": 226.63357543945312,
            "z": 972.336669921875
        },
        {
            "x": 1761.3865966796875,
            "y": 269.44171142578125,
            "z": 980.8800659179688
        },
        {
            "x": 1793.75830078125,
            "y": 200.0,
            "z": 957.4022827148438
        },
        {
            "x": 1827.869140625,
            "y": 200.0,
            "z": 949.2718505859375
        },
        {
            "x": 1856.017578125,
            "y": 260.109619140625,
            "z": 932.2117919921875
        },
        {
            "x": 1884.785888671875,
            "y": 200.00001525878906,
            "z": 907.8209838867188
        },
        {
            "x": 1907.3719482421875,
            "y": 261.49554443359375,
            "z": 915.0652465820312
        },
        {
            "x": 1932.5068359375,
            "y": 266.93939208984375,
            "z": 907.0387573242188
        },
        {
            "x": 1991.2403564453125,
            "y": 277.4169006347656,
            "z": 880.7681884765625
        },
        {
            "x": 2046.8375244140625,
            "y": 254.28372192382812,
            "z": 884.2045288085938
        },
        {
            "x": 2091.59765625,
            "y": 256.0594482421875,
            "z": 868.091064453125
        },
        {
            "x": 2109.104736328125,
            "y": 256.36285400390625,
            "z": 838.576171875
        },
        {
            "x": 2115.522216796875,
            "y": 286.37994384765625,
            "z": 799.8432006835938
        },
        {
            "x": 2148.10888671875,
            "y": 265.34002685546875,
            "z": 784.5545654296875
        },
        {
            "x": 2172.679443359375,
            "y": 270.966552734375,
            "z": 761.3052368164062
        },
        {
            "x": 2173.913818359375,
            "y": 266.45953369140625,
            "z": 740.2594604492188
        },
        {
            "x": 2165.57373046875,
            "y": 269.58447265625,
            "z": 721.5332641601562
        },
        {
            "x": 2138.05419921875,
            "y": 269.69830322265625,
            "z": 697.8182373046875
        },
        {
            "x": 2115.91552734375,
            "y": 271.27337646484375,
            "z": 696.6549682617188
        },
        {
            "x": 2079.372314453125,
            "y": 296.6772766113281,
            "z": 687.670166015625
        },
        {
            "x": 2037.668701171875,
            "y": 296.0343017578125,
            "z": 660.6986083984375
        },
        {
            "x": 2008.3062744140625,
            "y": 307.8465576171875,
            "z": 643.3729248046875
        },
        {
            "x": 1987.100341796875,
            "y": 290.3230285644531,
            "z": 619.347412109375
        },
        {
            "x": 1980.9031982421875,
            "y": 291.374267578125,
            "z": 586.56005859375
        },
        {
            "x": 1972.609619140625,
            "y": 290.735107421875,
            "z": 557.6591796875
        },
        {
            "x": 1953.3323974609375,
            "y": 291.875,
            "z": 531.8163452148438
        },
        {
            "x": 1919.86181640625,
            "y": 287.28875732421875,
            "z": 531.4203491210938
        },
        {
            "x": 1864.7869873046875,
            "y": 240.52500915527344,
            "z": 523.2882080078125
        },
        {
            "x": 1865.33447265625,
            "y": 283.1057434082031,
            "z": 504.440673828125
        },
        {
            "x": 1871.0419921875,
            "y": 291.5108947753906,
            "z": 484.13427734375
        },
        {
            "x": 1894.4716796875,
            "y": 260.4967956542969,
            "z": 447.2811279296875
        },
        {
            "x": 1870.6300048828125,
            "y": 268.7020263671875,
            "z": 401.559326171875
        },
        {
            "x": 1840.065185546875,
            "y": 283.69024658203125,
            "z": 409.78802490234375
        },
        {
            "x": 1817.7598876953125,
            "y": 273.6370849609375,
            "z": 391.55645751953125
        },
        {
            "x": 1823.9293212890625,
            "y": 274.2488708496094,
            "z": 353.7405090332031
        },
        {
            "x": 1854.1790771484375,
            "y": 259.9352722167969,
            "z": 334.45648193359375
        },
        {
            "x": 1884.7034912109375,
            "y": 255.4912109375,
            "z": 260.8448181152344
        },
        {
            "x": 1912.9346923828125,
            "y": 286.76373291015625,
            "z": 225.00732421875
        },
        {
            "x": 1897.03173828125,
            "y": 254.09051513671875,
            "z": 197.59190368652344
        },
        {
            "x": 1874.1640625,
            "y": 238.2784423828125,
            "z": 183.67813110351562
        },
        {
            "x": 1846.2489013671875,
            "y": 278.94378662109375,
            "z": 172.31092834472656
        },
        {
            "x": 1825.7603759765625,
            "y": 286.5888671875,
            "z": 152.1899871826172
        },
        {
            "x": 1833.0643310546875,
            "y": 277.4857177734375,
            "z": 114.32271575927734
        },
        {
            "x": 1844.5074462890625,
            "y": 283.98944091796875,
            "z": 73.85942077636719
        },
        {
            "x": 1864.949462890625,
            "y": 279.2300720214844,
            "z": 44.39044952392578
        },
        {
            "x": 1867.799560546875,
            "y": 275.255126953125,
            "z": 17.395004272460938
        },
        {
            "x": 1868.552978515625,
            "y": 270.8417663574219,
            "z": -14.481624603271484
        },
        {
            "x": 1872.7900390625,
            "y": 263.34466552734375,
            "z": -40.9173583984375
        },
        {
            "x": 1881.1309814453125,
            "y": 272.4822082519531,
            "z": -66.9093017578125
        },
        {
            "x": 1940.9681396484375,
            "y": 249.0428466796875,
            "z": -66.1219482421875
        },
        {
            "x": 2018.23193359375,
            "y": 229.00473022460938,
            "z": -27.304040908813477
        },
        {
            "x": 2044.6934814453125,
            "y": 272.60491943359375,
            "z": 82.26777648925781
        },
        {
            "x": 2210.57373046875,
            "y": 295.3830871582031,
            "z": 87.35589599609375
        },
        {
            "x": 2326.06982421875,
            "y": 353.1159362792969,
            "z": 20.034265518188477
        },
        {
            "x": 2351.348388671875,
            "y": 309.80303955078125,
            "z": 61.10813903808594
        },
        {
            "x": 2317.29638671875,
            "y": 382.601806640625,
            "z": 205.02117919921875
        },
        {
            "x": 2313.68505859375,
            "y": 264.82867431640625,
            "z": 379.7912292480469
        },
        {
            "x": 2335.34326171875,
            "y": 267.928466796875,
            "z": 470.0426940917969
        },
        {
            "x": 2607.652099609375,
            "y": 261.0000305175781,
            "z": 633.36572265625
        },
        {
            "x": 2697.666748046875,
            "y": 263.5404968261719,
            "z": 649.6121215820312
        },
        {
            "x": 2829.65673828125,
            "y": 225.76377868652344,
            "z": 622.0611572265625
        },
        {
            "x": 2972.483642578125,
            "y": 283.8919677734375,
            "z": 502.7484130859375
        },
        {
            "x": 3074.49462890625,
            "y": 269.3707275390625,
            "z": 262.0942077636719
        },
        {
            "x": 3071.20361328125,
            "y": 303.3076171875,
            "z": 32.78437423706055
        },
        {
            "x": 2820.771240234375,
            "y": 300.1104431152344,
            "z": -325.8688659667969
        },
        {
            "x": 2847.161865234375,
            "y": 202.39996337890625,
            "z": -398.5662841796875
        },
        {
            "x": 2852.470703125,
            "y": 202.39996337890625,
            "z": -448.550537109375
        },
        {
            "x": 2834.98876953125,
            "y": 202.3999786376953,
            "z": -501.52490234375
        },
        {
            "x": 2789.239501953125,
            "y": 250.78765869140625,
            "z": -553.4755249023438
        },
        {
            "x": 2750.829345703125,
            "y": 202.39999389648438,
            "z": -597.4688110351562
        },
        {
            "x": 2730.3740234375,
            "y": 202.39999389648438,
            "z": -674.2721557617188
        },
        {
            "x": 2826.392822265625,
            "y": 202.40003967285156,
            "z": -869.9691772460938
        },
        {
            "x": 2911.69287109375,
            "y": 207.7040252685547,
            "z": -1052.482421875
        },
        {
            "x": 2996.133544921875,
            "y": 194.49993896484375,
            "z": -1461.5482177734375
        },
        {
            "x": 3028.68359375,
            "y": 194.49998474121094,
            "z": -1712.8984375
        },
        {
            "x": 2910.412841796875,
            "y": 194.50003051757812,
            "z": -2014.759033203125
        },
        {
            "x": 2920.1767578125,
            "y": 194.50006103515625,
            "z": -2243.6865234375
        },
        {
            "x": 2745.901123046875,
            "y": 194.50009155273438,
            "z": -2449.497314453125
        },
        {
            "x": 2494.98193359375,
            "y": 194.60000610351562,
            "z": -2409.614990234375
        },
        {
            "x": 2222.215576171875,
            "y": 194.6000213623047,
            "z": -2510.50537109375
        },
        {
            "x": 1891.5980224609375,
            "y": 194.6000213623047,
            "z": -2549.313720703125
        },
        {
            "x": 1803.040283203125,
            "y": 194.60003662109375,
            "z": -2598.807861328125
        },
        {
            "x": 1735.0458984375,
            "y": 194.6000518798828,
            "z": -2721.703125
        },
        {
            "x": 1635.9847412109375,
            "y": 194.6000518798828,
            "z": -2756.270263671875
        },
        {
            "x": 1366.372802734375,
            "y": -0.0009163708309642971,
            "z": -3061.721435546875
        },
        {
            "x": 970.1254272460938,
            "y": 194.5999755859375,
            "z": -3711.5322265625
        },
        {
            "x": 569.36572265625,
            "y": 194.5999298095703,
            "z": -4226.35595703125
        },
        {
            "x": 43.631614685058594,
            "y": 194.6000518798828,
            "z": -4688.720703125
        },
        {
            "x": -608.7037963867188,
            "y": 302.6753234863281,
            "z": -5203.0458984375
        },
        {
            "x": -833.85400390625,
            "y": 200.00006103515625,
            "z": -5295.96826171875
        },
        {
            "x": -1720.5333251953125,
            "y": 200.0000762939453,
            "z": -5189.4052734375
        },
        {
            "x": -2166.553466796875,
            "y": 200.0000762939453,
            "z": -5191.33447265625
        },
        {
            "x": -2780.84814453125,
            "y": 156.7908172607422,
            "z": -5153.6259765625
        },
        {
            "x": -3414.59033203125,
            "y": 200.0000762939453,
            "z": -5122.41015625
        },
        {
            "x": -3747.95947265625,
            "z": -4758.955078125
        },
        {
            "x": -4283.56494140625,
            "y": -0.001032025902532041,
            "z": -5047.9775390625
        },
        {
            "x": -4933.3955078125,
            "y": -0.001031428691931069,
            "z": -5034.26513671875
        },
        {
            "x": -5119.787109375,
            "y": -0.001012041699141264,
            "z": -4698.2080078125
        },
        {
            "x": -5196.41162109375,
            "y": -0.0010032105492427945,
            "z": -4506.16455078125
        },
        {
            "x": -5196.41162109375,
            "y": -0.0010032105492427945,
            "z": -4506.16455078125
        },
        {
            "x": -5231.34716796875,
            "y": -0.0009864240419119596,
            "z": -4275.279296875
        },
        {
            "x": -5231.34716796875,
            "y": -0.0009864240419119596,
            "z": -4275.279296875
        },
        {
            "x": -5222.69091796875,
            "y": -0.000975644332356751,
            "z": -4098.67724609375
        },
        {
            "x": -5222.69091796875,
            "y": -0.000975644332356751,
            "z": -4098.67724609375
        },
        {
            "x": -5196.3359375,
            "y": -0.0009676319896243513,
            "z": -3909.76025390625
        },
        {
            "x": -5196.3359375,
            "y": -0.0009676319896243513,
            "z": -3909.76025390625
        },
        {
            "x": -5121.99658203125,
            "y": -0.0009555110009387136,
            "z": -3773.3798828125
        },
        {
            "x": -5121.99658203125,
            "y": -0.0009555110009387136,
            "z": -3773.3798828125
        },
        {
            "x": -5008.26123046875,
            "y": -0.0009405939490534365,
            "z": -3641.036865234375
        },
        {
            "x": -4896.38525390625,
            "y": -0.0009405939490534365,
            "z": -3465.49169921875
        },
        {
            "x": -4404.1953125,
            "z": -3393.467041015625
        },
        {
            "x": -4198.83984375,
            "z": -3325.7431640625
        },
        {
            "x": -4221.3525390625,
            "y": -0.000908657384570688,
            "z": -3028.137939453125
        },
        {
            "x": -4221.3525390625,
            "y": -0.000908657384570688,
            "z": -3028.137939453125
        },
        {
            "x": -4199.005859375,
            "z": -2783.691650390625
        },
        {
            "x": -4370.01953125,
            "z": -2480.550537109375
        },
        {
            "x": -4374.50927734375,
            "y": -0.0008619283325970173,
            "z": -2303.85888671875
        },
        {
            "x": -4374.50927734375,
            "y": -0.0008619283325970173,
            "z": -2303.85888671875
        },
        {
            "x": -4350.6044921875,
            "y": -0.0008519917028024793,
            "z": -1977.6739501953125
        },
        {
            "x": -4350.6044921875,
            "y": -0.0008519917028024793,
            "z": -1977.6739501953125
        },
        {
            "x": -4464.16650390625,
            "y": -0.0008269203244708478,
            "z": -1386.171875
        },
        {
            "x": -4464.16650390625,
            "y": -0.0008269203244708478,
            "z": -1386.171875
        },
        {
            "x": -4393.857421875,
            "y": -0.0007907425751909614,
            "z": -1001.9647827148438
        },
        {
            "x": -4393.857421875,
            "y": -0.0007907425751909614,
            "z": -1001.9647827148438
        },
        {
            "x": -4327.50830078125,
            "y": -0.0007625105790793896,
            "z": -502.619140625
        },
        {
            "x": -3905.106689453125,
            "y": -0.0007436969317495823,
            "z": -92.95716857910156
        },
        {
            "x": -3536.37353515625,
            "y": -0.0007427548407576978,
            "z": -89.33895111083984
        },
        {
            "x": -3536.37353515625,
            "y": -0.0007427548407576978,
            "z": -89.33895111083984
        },
        {
            "x": -2613.499267578125,
            "z": -578.0946655273438
        },
        {
            "x": -2613.499267578125,
            "z": -578.0946655273438
        },
        {
            "x": -1896.912109375,
            "z": -199.68649291992188
        },
        {
            "x": -1896.912109375,
            "z": -199.68649291992188
        },
        {
            "x": -1504.750244140625,
            "y": -21.3160400390625,
            "z": -138.97581481933594
        },
        {
            "x": -1019.92041015625,
            "y": 3.6283931732177734,
            "z": -124.14482879638672
        },
        {
            "x": -835.2816772460938,
            "y": 224.34500122070312,
            "z": -115.98085021972656
        },
        {
            "x": -835.4187622070312,
            "y": 220.03836059570312,
            "z": 21.527143478393555
        },
        {
            "x": -841.8687744140625,
            "y": 321.39593505859375,
            "z": 108.15658569335938
        },
        {
            "x": -828.9596557617188,
            "y": 247.08929443359375,
            "z": 144.92047119140625
        },
        {
            "x": -834.4782104492188,
            "y": 306.33740234375,
            "z": 191.0928497314453
        },
        {
            "x": -890.1163940429688,
            "y": 285.99896240234375,
            "z": 184.78555297851562
        },
        {
            "x": -930.9637451171875,
            "y": 276.88531494140625,
            "z": 211.19308471679688
        },
        {
            "x": -973.869384765625,
            "y": 0.856353759765625,
            "z": 252.43862915039062
        },
        {
            "x": -964.4052124023438,
            "y": 275.0718994140625,
            "z": 298.4254455566406
        },
        {
            "x": -922.0341186523438,
            "y": 271.38873291015625,
            "z": 345.0859069824219
        },
        {
            "x": -912.3909912109375,
            "y": 275.39654541015625,
            "z": 403.13177490234375
        },
        {
            "x": -926.5494384765625,
            "y": 302.0496826171875,
            "z": 458.076416015625
        },
        {
            "x": -932.0914916992188,
            "y": 332.6802062988281,
            "z": 531.5572509765625
        },
        {
            "x": -958.390869140625,
            "y": 352.43072509765625,
            "z": 637.9481811523438
        },
        {
            "x": -985.399169921875,
            "y": 298.5386657714844,
            "z": 693.874267578125
        },
        {
            "x": -991.538330078125,
            "y": 242.50453186035156,
            "z": 765.4987182617188
        },
        {
            "x": -990.2250366210938,
            "y": 196.7041778564453,
            "z": 853.0198364257812
        },
        {
            "x": -1039.351806640625,
            "y": 194.50086975097656,
            "z": 917.6347045898438
        },
        {
            "x": -1058.00927734375,
            "y": 199.28053283691406,
            "z": 962.7992553710938
        },
        {
            "x": -1109.758544921875,
            "y": 197.0334014892578,
            "z": 979.7178344726562
        },
        {
            "x": -1147.844482421875,
            "y": 285.5687561035156,
            "z": 1116.8228759765625
        },
        {
            "x": -1118.036865234375,
            "y": 284.4975891113281,
            "z": 1203.318359375
        },
        {
            "x": -1056.7576904296875,
            "y": 306.8365478515625,
            "z": 1267.8702392578125
        },
        {
            "x": -1027.553955078125,
            "y": 230.62136840820312,
            "z": 1299.8486328125
        },
        {
            "x": -1000.3219604492188,
            "y": 242.4603729248047,
            "z": 1315.17578125
        },
        {
            "x": -987.884765625,
            "y": 255.84393310546875,
            "z": 1342.5931396484375
        },
        {
            "x": -945.0188598632812,
            "y": 249.1301727294922,
            "z": 1412.028076171875
        },
        {
            "x": -895.453369140625,
            "y": 215.561279296875,
            "z": 1409.5626220703125
        },
        {
            "x": -861.0763549804688,
            "y": 235.08297729492188,
            "z": 1428.8497314453125
        },
        {
            "x": -766.3411254882812,
            "y": 260.1274108886719,
            "z": 1384.443115234375
        },
        {
            "x": -725.657958984375,
            "y": 215.4797821044922,
            "z": 1385.583740234375
        },
        {
            "x": -664.7803955078125,
            "y": 220.5423583984375,
            "z": 1397.8192138671875
        },
        {
            "x": -625.4346923828125,
            "y": 248.4879150390625,
            "z": 1404.76708984375
        },
        {
            "x": -575.9617919921875,
            "y": 312.4640808105469,
            "z": 1371.6434326171875
        },
        {
            "x": -532.4764404296875,
            "y": 301.2775573730469,
            "z": 1347.2626953125
        },
        {
            "x": -482.68853759765625,
            "y": 279.9456787109375,
            "z": 1323.8558349609375
        },
        {
            "x": -449.25933837890625,
            "y": 240.1527862548828,
            "z": 1289.7127685546875
        },
        {
            "x": -408.5621337890625,
            "y": 259.32684326171875,
            "z": 1257.6357421875
        },
        {
            "x": -355.503173828125,
            "y": 275.8217468261719,
            "z": 1233.5068359375
        },
        {
            "x": -263.0204162597656,
            "y": 285.3768310546875,
            "z": 1278.09814453125
        },
        {
            "x": -136.12222290039062,
            "y": 276.37646484375,
            "z": 1316.411865234375
        },
        {
            "x": -42.94071578979492,
            "y": 216.45103454589844,
            "z": 1333.6717529296875
        },
        {
            "x": 22.069194793701172,
            "y": 251.363525390625,
            "z": 1348.5130615234375
        },
        {
            "x": 34.4898796081543,
            "y": 235.17742919921875,
            "z": 1362.71435546875
        },
        {
            "x": 57.69377136230469,
            "y": 238.3572235107422,
            "z": 1385.9267578125
        },
        {
            "x": 76.79474639892578,
            "y": 263.2239074707031,
            "z": 1407.6644287109375
        },
        {
            "x": 99.53347778320312,
            "y": 239.0575408935547,
            "z": 1427.4451904296875
        },
        {
            "x": 114.81163024902344,
            "y": 283.18798828125,
            "z": 1447.0181884765625
        },
        {
            "x": 126.54228210449219,
            "y": 272.24273681640625,
            "z": 1475.8558349609375
        },
        {
            "x": 120.36005401611328,
            "y": 209.0613250732422,
            "z": 1498.3824462890625
        },
        {
            "x": 136.69851684570312,
            "y": 209.04537963867188,
            "z": 1534.8453369140625
        },
        {
            "x": 169.695556640625,
            "y": 216.81683349609375,
            "z": 1566.2783203125
        },
        {
            "x": 191.8000030517578,
            "y": 224.69827270507812,
            "z": 1577.1822509765625
        },
        {
            "x": 200.3901824951172,
            "y": 246.23876953125,
            "z": 1583.3271484375
        },
        {
            "x": 207.15625,
            "y": 240.74717712402344,
            "z": 1589.151611328125
        },
        {
            "x": 217.40139770507812,
            "y": 246.7892303466797,
            "z": 1592.8890380859375
        },
        {
            "x": 224.6485595703125,
            "y": 239.82708740234375,
            "z": 1598.3690185546875
        },
        {
            "x": 237.87911987304688,
            "y": 237.8423309326172,
            "z": 1609.8057861328125
        },
        {
            "x": 244.0655517578125,
            "y": 275.582763671875,
            "z": 1624.4739990234375
        },
        {
            "x": 241.85411071777344,
            "y": 248.0257568359375,
            "z": 1645.6971435546875
        },
        {
            "x": 240.77069091796875,
            "y": 275.9400329589844,
            "z": 1672.484375
        },
        {
            "x": 241.38656616210938,
            "y": 285.36138916015625,
            "z": 1718.4302978515625
        },
        {
            "x": 294.36932373046875,
            "y": 299.45379638671875,
            "z": 1755.7303466796875
        },
        {
            "x": 366.4095458984375,
            "y": 296.3930969238281,
            "z": 1814.6566162109375
        },
        {
            "x": 396.3398132324219,
            "y": 301.37994384765625,
            "z": 1848.86962890625
        },
        {
            "x": 417.29229736328125,
            "y": 298.4049377441406,
            "z": 1848.928955078125
        },
        {
            "x": 498.9073486328125,
            "y": 335.59600830078125,
            "z": 1838.957275390625
        },
        {
            "x": 528.0603637695312,
            "y": 239.1510772705078,
            "z": 1976.943115234375
        },
        {
            "x": 588.9386596679688,
            "y": 292.4441223144531,
            "z": 1986.91357421875
        },
        {
            "x": 670.9797973632812,
            "y": 293.49652099609375,
            "z": 2005.010498046875
        },
        {
            "x": 742.2237548828125,
            "y": 257.3624267578125,
            "z": 1990.8682861328125
        },
        {
            "x": 770.5624389648438,
            "y": 268.14459228515625,
            "z": 1956.581787109375
        },
        {
            "x": 860.2666015625,
            "y": 357.11248779296875,
            "z": 1861.86767578125
        },
        {
            "x": 903.2286376953125,
            "y": 279.15277099609375,
            "z": 1841.6773681640625
        },
        {
            "x": 986.8030395507812,
            "y": 264.9910888671875,
            "z": 1831.385986328125
        },
        {
            "x": 1060.1885986328125,
            "y": 262.73358154296875,
            "z": 1776.954345703125
        },
        {
            "x": 1114.146484375,
            "y": 273.8604736328125,
            "z": 1715.740234375
        },
        {
            "x": 1169.744140625,
            "y": 273.8604736328125,
            "z": 1698.517333984375
        },
        {
            "x": 1248.7384033203125,
            "y": 269.0,
            "z": 1665.820556640625
        },
        {
            "x": 1294.5335693359375,
            "y": 282.73681640625,
            "z": 1642.68310546875
        },
        {
            "x": 1318.691162109375,
            "y": 269.0,
            "z": 1611.571533203125
        },
        {
            "x": 1355.2313232421875,
            "y": 269.0,
            "z": 1583.6126708984375
        },
        {
            "x": 1391.4593505859375,
            "y": 269.0,
            "z": 1568.118896484375
        },
        {
            "x": 1592.9547119140625,
            "y": 237.32455444335938,
            "z": 1483.6988525390625
        },
        {
            "x": 1692.805908203125,
            "y": 223.92144775390625,
            "z": 1357.890380859375
        },
        {
            "x": 1696.8515625,
            "y": 220.77413940429688,
            "z": 1343.08447265625
        },
        {
            "x": 1697.4483642578125,
            "y": 223.0,
            "z": 1332.9832763671875
        },
        {
            "x": 1696.745361328125,
            "y": 223.0,
            "z": 1321.1912841796875
        },
        {
            "x": 1703.1572265625,
            "y": 223.0,
            "z": 1310.854248046875
        },
        {
            "x": 1698.77978515625,
            "y": 243.8658447265625,
            "z": 1299.114013671875
        },
        {
            "x": 1699.496337890625,
            "y": 223.0,
            "z": 1291.4381103515625
        },
        {
            "x": 1704.316650390625,
            "y": 223.0,
            "z": 1285.0260009765625
        },
        {
            "x": 1704.3944091796875,
            "y": 223.0,
            "z": 1271.79638671875
        },
        {
            "x": 1706.648681640625,
            "y": 223.0,
            "z": 1262.288818359375
        },
        {
            "x": 1702.4541015625,
            "y": 223.0,
            "z": 1254.191650390625
        },
        {
            "x": 1703.557373046875,
            "y": 211.0928955078125,
            "z": 1240.2724609375
        },
        {
            "x": 1696.699462890625,
            "y": 211.6287841796875,
            "z": 1225.447265625
        },
        {
            "x": 1682.3770751953125,
            "y": 212.39395141601562,
            "z": 1206.0960693359375
        },
        {
            "x": 1674.7088623046875,
            "y": 213.39010620117188,
            "z": 1190.275146484375
        },
        {
            "x": 1670.267333984375,
            "y": 199.9999542236328,
            "z": 1175.0517578125
        },
        {
            "x": 1658.8038330078125,
            "y": 203.353271484375,
            "z": 1160.068359375
        },
        {
            "x": 1655.443115234375,
            "y": 201.4808807373047,
            "z": 1143.02197265625
        },
        {
            "x": 1655.5279541015625,
            "y": 201.1916046142578,
            "z": 1123.9527587890625
        },
        {
            "x": 1659.333251953125,
            "y": 201.96469116210938,
            "z": 1113.0252685546875
        },
        {
            "x": 1666.9805908203125,
            "y": 200.2869873046875,
            "z": 1101.48974609375
        },
        {
            "x": 1677.5362548828125,
            "y": 199.9999542236328,
            "z": 1088.66748046875
        },
        {
            "x": 1684.41845703125,
            "y": 200.88116455078125,
            "z": 1077.9384765625
        },
        {
            "x": 1696.3331298828125,
            "y": 200.63711547851562,
            "z": 1069.497314453125
        },
        {
            "x": 1703.2335205078125,
            "y": 199.99996948242188,
            "z": 1057.2767333984375
        },
        {
            "x": 1710.0855712890625,
            "y": 199.99996948242188,
            "z": 1037.5592041015625
        },
        {
            "x": 1721.777099609375,
            "y": 269.376708984375,
            "z": 1000.316162109375
        }
    ]
}