{
    "KFHNDFDIBPH": [
        {
            "LIJAPOJNJBM": {
                "y": 2.473572049226167e-41,
                "z": -8.038128377866276e+24
            }
        },
        {
            "IOLEJAJECDF": 964,
            "LIJAPOJNJBM": {
                "y": 6.33769460355578e-39,
                "z": -4.1605530450192186e-20
            },
            "AHKECMKKFOM": {
                "z": 1.013880752356642e-34
            }
        },
        {
            "IOLEJAJECDF": 109,
            "AHKECMKKFOM": {
                "x": 7858850.0,
                "z": -6.462307004486334e-15
            }
        },
        {
            "AHKECMKKFOM": {
                "x": 1957.8463134765625,
                "y": 196.58010864257812,
                "z": -1294.823974609375
            }
        },
        {
            "IOLEJAJECDF": 144513890,
            "LIJAPOJNJBM": {
                "x": -6.309237043361985e-25,
                "y": 2.958071840771784e-34,
                "z": 2030.02734375
            },
            "AHKECMKKFOM": {
                "y": -4.1350875143799494e-20,
                "z": 2.9577467431153845e-34
            }
        },
        {},
        {
            "IOLEJAJECDF": 2,
            "LIJAPOJNJBM": {
                "x": 202.19076538085938,
                "z": -1223.755615234375
            },
            "AHKECMKKFOM": {
                "x": 2094.68310546875,
                "y": 209.1580352783203,
                "z": -1293.418701171875
            }
        }
    ]
}