{
    "AOOGPAEJDFN": {
        "x": -2389.71044921875,
        "y": 95.0,
        "z": 5196.44384765625
    },
    "ELJHMKDBOIJ": {
        "x": -2311.57421875,
        "y": 140.0,
        "z": 5296.2099609375
    },
    "DELPMEEHPHO": [
        {
            "x": -2389.515869140625,
            "y": 99.42970275878906,
            "z": 5254.05224609375
        },
        {
            "x": -2389.71044921875,
            "y": 99.01229858398438,
            "z": 5295.6513671875
        },
        {
            "x": -2311.6044921875,
            "y": 104.9168930053711,
            "z": 5296.2099609375
        },
        {
            "x": -2311.57421875,
            "y": 102.38495635986328,
            "z": 5212.3642578125
        },
        {
            "x": -2343.27392578125,
            "y": 109.41070556640625,
            "z": 5196.58349609375
        },
        {
            "x": -2357.656005859375,
            "y": 98.84967041015625,
            "z": 5196.44384765625
        },
        {
            "x": -2387.464111328125,
            "y": 100.53644561767578,
            "z": 5212.6689453125
        }
    ]
}