{
    "AOOGPAEJDFN": {
        "x": -6920.31298828125,
        "y": -1000.0,
        "z": -5295.96826171875
    },
    "ELJHMKDBOIJ": {
        "x": 3074.49462890625,
        "y": 1000.0,
        "z": 4134.7646484375
    },
    "DELPMEEHPHO": [
        {
            "x": 1732.840087890625,
            "y": 226.63357543945312,
            "z": 972.336669921875
        },
        {
            "x": 1761.3865966796875,
            "y": 269.44171142578125,
            "z": 980.8800659179688
        },
        {
            "x": 1793.75830078125,
            "y": 200.0,
            "z": 957.4022827148438
        },
        {
            "x": 1827.869140625,
            "y": 200.0,
            "z": 949.2718505859375
        },
        {
            "x": 1856.017578125,
            "y": 260.109619140625,
            "z": 932.2117919921875
        },
        {
            "x": 1884.785888671875,
            "y": 200.00001525878906,
            "z": 907.8209838867188
        },
        {
            "x": 1907.3719482421875,
            "y": 261.49554443359375,
            "z": 915.0652465820312
        },
        {
            "x": 1932.5068359375,
            "y": 266.93939208984375,
            "z": 907.0387573242188
        },
        {
            "x": 1991.2403564453125,
            "y": 277.4169006347656,
            "z": 880.7681884765625
        },
        {
            "x": 2046.8375244140625,
            "y": 254.28372192382812,
            "z": 884.2045288085938
        },
        {
            "x": 2091.59765625,
            "y": 256.0594482421875,
            "z": 868.091064453125
        },
        {
            "x": 2109.104736328125,
            "y": 256.36285400390625,
            "z": 838.576171875
        },
        {
            "x": 2115.522216796875,
            "y": 286.37994384765625,
            "z": 799.8432006835938
        },
        {
            "x": 2148.10888671875,
            "y": 265.34002685546875,
            "z": 784.5545654296875
        },
        {
            "x": 2172.679443359375,
            "y": 270.966552734375,
            "z": 761.3052368164062
        },
        {
            "x": 2173.913818359375,
            "y": 266.45953369140625,
            "z": 740.2594604492188
        },
        {
            "x": 2165.57373046875,
            "y": 269.58447265625,
            "z": 721.5332641601562
        },
        {
            "x": 2138.05419921875,
            "y": 269.69830322265625,
            "z": 697.8182373046875
        },
        {
            "x": 2115.91552734375,
            "y": 271.27337646484375,
            "z": 696.6549682617188
        },
        {
            "x": 2079.372314453125,
            "y": 296.6772766113281,
            "z": 687.670166015625
        },
        {
            "x": 2037.668701171875,
            "y": 296.0343017578125,
            "z": 660.6986083984375
        },
        {
            "x": 2008.3062744140625,
            "y": 307.8465576171875,
            "z": 643.3729248046875
        },
        {
            "x": 1987.100341796875,
            "y": 290.3230285644531,
            "z": 619.347412109375
        },
        {
            "x": 1980.9031982421875,
            "y": 291.374267578125,
            "z": 586.56005859375
        },
        {
            "x": 1972.609619140625,
            "y": 290.735107421875,
            "z": 557.6591796875
        },
        {
            "x": 1953.3323974609375,
            "y": 291.875,
            "z": 531.8163452148438
        },
        {
            "x": 1919.86181640625,
            "y": 287.28875732421875,
            "z": 531.4203491210938
        },
        {
            "x": 1864.7869873046875,
            "y": 240.52500915527344,
            "z": 523.2882080078125
        },
        {
            "x": 1865.33447265625,
            "y": 283.1057434082031,
            "z": 504.440673828125
        },
        {
            "x": 1871.0419921875,
            "y": 291.5108947753906,
            "z": 484.13427734375
        },
        {
            "x": 1894.4716796875,
            "y": 260.4967956542969,
            "z": 447.2811279296875
        },
        {
            "x": 1870.6300048828125,
            "y": 268.7020263671875,
            "z": 401.559326171875
        },
        {
            "x": 1840.065185546875,
            "y": 283.69024658203125,
            "z": 409.78802490234375
        },
        {
            "x": 1817.7598876953125,
            "y": 273.6370849609375,
            "z": 391.55645751953125
        },
        {
            "x": 1823.9293212890625,
            "y": 274.2488708496094,
            "z": 353.7405090332031
        },
        {
            "x": 1854.1790771484375,
            "y": 259.9352722167969,
            "z": 334.45648193359375
        },
        {
            "x": 1884.7034912109375,
            "y": 255.4912109375,
            "z": 260.8448181152344
        },
        {
            "x": 1912.9346923828125,
            "y": 286.76373291015625,
            "z": 225.00732421875
        },
        {
            "x": 1897.03173828125,
            "y": 254.09051513671875,
            "z": 197.59190368652344
        },
        {
            "x": 1874.1640625,
            "y": 238.2784423828125,
            "z": 183.67813110351562
        },
        {
            "x": 1846.2489013671875,
            "y": 278.94378662109375,
            "z": 172.31092834472656
        },
        {
            "x": 1825.7603759765625,
            "y": 286.5888671875,
            "z": 152.1899871826172
        },
        {
            "x": 1833.0643310546875,
            "y": 277.4857177734375,
            "z": 114.32271575927734
        },
        {
            "x": 1844.5074462890625,
            "y": 283.98944091796875,
            "z": 73.85942077636719
        },
        {
            "x": 1864.949462890625,
            "y": 279.2300720214844,
            "z": 44.39044952392578
        },
        {
            "x": 1867.799560546875,
            "y": 275.255126953125,
            "z": 17.395004272460938
        },
        {
            "x": 1868.552978515625,
            "y": 270.8417663574219,
            "z": -14.481624603271484
        },
        {
            "x": 1872.7900390625,
            "y": 263.34466552734375,
            "z": -40.9173583984375
        },
        {
            "x": 1881.1309814453125,
            "y": 272.4822082519531,
            "z": -66.9093017578125
        },
        {
            "x": 1940.9681396484375,
            "y": 249.0428466796875,
            "z": -66.1219482421875
        },
        {
            "x": 2018.23193359375,
            "y": 229.00473022460938,
            "z": -27.304040908813477
        },
        {
            "x": 2044.6934814453125,
            "y": 272.60491943359375,
            "z": 82.26777648925781
        },
        {
            "x": 2210.57373046875,
            "y": 295.3830871582031,
            "z": 87.35589599609375
        },
        {
            "x": 2326.06982421875,
            "y": 353.1159362792969,
            "z": 20.034265518188477
        },
        {
            "x": 2351.348388671875,
            "y": 309.80303955078125,
            "z": 61.10813903808594
        },
        {
            "x": 2317.29638671875,
            "y": 382.601806640625,
            "z": 205.02117919921875
        },
        {
            "x": 2313.68505859375,
            "y": 264.82867431640625,
            "z": 379.7912292480469
        },
        {
            "x": 2335.34326171875,
            "y": 267.928466796875,
            "z": 470.0426940917969
        },
        {
            "x": 2607.652099609375,
            "y": 261.0000305175781,
            "z": 633.36572265625
        },
        {
            "x": 2697.666748046875,
            "y": 263.5404968261719,
            "z": 649.6121215820312
        },
        {
            "x": 2829.65673828125,
            "y": 225.76377868652344,
            "z": 622.0611572265625
        },
        {
            "x": 2972.483642578125,
            "y": 283.8919677734375,
            "z": 502.7484130859375
        },
        {
            "x": 3074.49462890625,
            "y": 269.3707275390625,
            "z": 262.0942077636719
        },
        {
            "x": 3071.20361328125,
            "y": 303.3076171875,
            "z": 32.78437423706055
        },
        {
            "x": 2820.771240234375,
            "y": 300.1104431152344,
            "z": -325.8688659667969
        },
        {
            "x": 2847.161865234375,
            "y": 202.39996337890625,
            "z": -398.5662841796875
        },
        {
            "x": 2852.470703125,
            "y": 202.39996337890625,
            "z": -448.550537109375
        },
        {
            "x": 2834.98876953125,
            "y": 202.3999786376953,
            "z": -501.52490234375
        },
        {
            "x": 2789.239501953125,
            "y": 250.78765869140625,
            "z": -553.4755249023438
        },
        {
            "x": 2750.829345703125,
            "y": 202.39999389648438,
            "z": -597.4688110351562
        },
        {
            "x": 2730.3740234375,
            "y": 202.39999389648438,
            "z": -674.2721557617188
        },
        {
            "x": 2826.392822265625,
            "y": 202.40003967285156,
            "z": -869.9691772460938
        },
        {
            "x": 2911.69287109375,
            "y": 207.7040252685547,
            "z": -1052.482421875
        },
        {
            "x": 2996.133544921875,
            "y": 194.49993896484375,
            "z": -1461.5482177734375
        },
        {
            "x": 3028.68359375,
            "y": 194.49998474121094,
            "z": -1712.8984375
        },
        {
            "x": 2910.412841796875,
            "y": 194.50003051757812,
            "z": -2014.759033203125
        },
        {
            "x": 2920.1767578125,
            "y": 194.50006103515625,
            "z": -2243.6865234375
        },
        {
            "x": 2745.901123046875,
            "y": 194.50009155273438,
            "z": -2449.497314453125
        },
        {
            "x": 2494.98193359375,
            "y": 194.60000610351562,
            "z": -2409.614990234375
        },
        {
            "x": 2222.215576171875,
            "y": 194.6000213623047,
            "z": -2510.50537109375
        },
        {
            "x": 1891.5980224609375,
            "y": 194.6000213623047,
            "z": -2549.313720703125
        },
        {
            "x": 1803.040283203125,
            "y": 194.60003662109375,
            "z": -2598.807861328125
        },
        {
            "x": 1735.0458984375,
            "y": 194.6000518798828,
            "z": -2721.703125
        },
        {
            "x": 1635.9847412109375,
            "y": 194.6000518798828,
            "z": -2756.270263671875
        },
        {
            "x": 1366.372802734375,
            "y": -0.0009163708309642971,
            "z": -3061.721435546875
        },
        {
            "x": 970.1254272460938,
            "y": 194.5999755859375,
            "z": -3711.5322265625
        },
        {
            "x": 569.36572265625,
            "y": 194.5999298095703,
            "z": -4226.35595703125
        },
        {
            "x": 43.631614685058594,
            "y": 194.6000518798828,
            "z": -4688.720703125
        },
        {
            "x": -608.7037963867188,
            "y": 302.6753234863281,
            "z": -5203.0458984375
        },
        {
            "x": -833.85400390625,
            "y": 200.00006103515625,
            "z": -5295.96826171875
        },
        {
            "x": -1720.5333251953125,
            "y": 200.0000762939453,
            "z": -5189.4052734375
        },
        {
            "x": -2166.553466796875,
            "y": 200.0000762939453,
            "z": -5191.33447265625
        },
        {
            "x": -2780.84814453125,
            "y": 156.7908172607422,
            "z": -5153.6259765625
        },
        {
            "x": -3414.588134765625,
            "y": -0.0010377410799264908,
            "z": -5122.40576171875
        },
        {
            "x": -3747.955078125,
            "y": -0.0010160772362723947,
            "z": -4758.9482421875
        },
        {
            "x": -4297.12060546875,
            "y": -0.0010278098052367568,
            "z": -5000.62890625
        },
        {
            "x": -4933.39208984375,
            "y": -0.0010324871400371194,
            "z": -5034.26025390625
        },
        {
            "x": -5119.78271484375,
            "y": -0.0010124566033482552,
            "z": -4698.203125
        },
        {
            "x": -5196.40869140625,
            "y": -0.0010010099504143,
            "z": -4506.15966796875
        },
        {
            "x": -5231.34326171875,
            "y": -0.0009872481459751725,
            "z": -4275.2744140625
        },
        {
            "x": -5214.2431640625,
            "y": -0.0009731138707138598,
            "z": -4038.14111328125
        },
        {
            "x": -5160.78173828125,
            "y": -0.0009615742019377649,
            "z": -3844.5380859375
        },
        {
            "x": -5313.75,
            "y": -0.0009609403205104172,
            "z": -3833.90283203125
        },
        {
            "x": -5520.9140625,
            "y": -0.0009494442492723465,
            "z": -3783.557373046875
        },
        {
            "x": -6000.61962890625,
            "y": -0.000975644332356751,
            "z": -3722.991455078125
        },
        {
            "x": -6520.29541015625,
            "y": -0.0009676319896243513,
            "z": -3475.339111328125
        },
        {
            "x": -6843.42626953125,
            "y": -0.0009555110009387136,
            "z": -3120.058349609375
        },
        {
            "x": -6920.31298828125,
            "z": -2810.989990234375
        },
        {
            "x": -6918.12548828125,
            "y": -0.0008809844730421901,
            "z": -2523.434814453125
        },
        {
            "x": -6757.02978515625,
            "y": -0.0008708554087206721,
            "z": -2283.302734375
        },
        {
            "x": -6542.00146484375,
            "y": -0.0008547331672161818,
            "z": -2147.010986328125
        },
        {
            "x": -6184.4775390625,
            "y": -0.0008547331672161818,
            "z": -1977.3590087890625
        },
        {
            "x": -5986.671875,
            "y": -0.0008536542300134897,
            "z": -1870.1063232421875
        },
        {
            "x": -5813.84423828125,
            "y": -0.0008536542300134897,
            "z": -1817.142822265625
        },
        {
            "x": -5534.64599609375,
            "y": -0.0008356793550774455,
            "z": -1712.318359375
        },
        {
            "x": -4945.8486328125,
            "y": -0.0008219617884606123,
            "z": -1582.787353515625
        },
        {
            "x": -4381.734375,
            "y": -0.000820221146568656,
            "z": -1473.0263671875
        },
        {
            "x": -4350.1025390625,
            "y": -0.0007907425751909614,
            "z": -974.120361328125
        },
        {
            "x": -4327.50830078125,
            "y": -0.0007625105790793896,
            "z": -502.619140625
        },
        {
            "x": -3905.106689453125,
            "y": -0.0007436969317495823,
            "z": -92.95716857910156
        },
        {
            "x": -3536.37353515625,
            "y": -0.0007427548407576978,
            "z": -89.33895111083984
        },
        {
            "x": -2613.499267578125,
            "z": -578.0946655273438
        },
        {
            "x": -1896.912109375,
            "z": -199.68649291992188
        },
        {
            "x": -1504.750244140625,
            "y": -21.3160400390625,
            "z": -138.97581481933594
        },
        {
            "x": -1019.92041015625,
            "y": 3.6283931732177734,
            "z": -124.14482879638672
        },
        {
            "x": -835.2816772460938,
            "y": 224.34500122070312,
            "z": -115.98085021972656
        },
        {
            "x": -835.4187622070312,
            "y": 220.03836059570312,
            "z": 21.527143478393555
        },
        {
            "x": -841.8687744140625,
            "y": 321.39593505859375,
            "z": 108.15658569335938
        },
        {
            "x": -828.9596557617188,
            "y": 247.08929443359375,
            "z": 144.92047119140625
        },
        {
            "x": -834.4782104492188,
            "y": 306.33740234375,
            "z": 191.0928497314453
        },
        {
            "x": -890.1163940429688,
            "y": 285.99896240234375,
            "z": 184.78555297851562
        },
        {
            "x": -930.9637451171875,
            "y": 276.88531494140625,
            "z": 211.19308471679688
        },
        {
            "x": -973.869384765625,
            "y": 0.856353759765625,
            "z": 252.43862915039062
        },
        {
            "x": -964.4052124023438,
            "y": 275.0718994140625,
            "z": 298.4254455566406
        },
        {
            "x": -922.0341186523438,
            "y": 271.38873291015625,
            "z": 345.0859069824219
        },
        {
            "x": -912.3909912109375,
            "y": 275.39654541015625,
            "z": 403.13177490234375
        },
        {
            "x": -926.5494384765625,
            "y": 302.0496826171875,
            "z": 458.076416015625
        },
        {
            "x": -932.0914916992188,
            "y": 332.6802062988281,
            "z": 531.5572509765625
        },
        {
            "x": -958.390869140625,
            "y": 352.43072509765625,
            "z": 637.9481811523438
        },
        {
            "x": -985.399169921875,
            "y": 298.5386657714844,
            "z": 693.874267578125
        },
        {
            "x": -991.538330078125,
            "y": 242.50453186035156,
            "z": 765.4987182617188
        },
        {
            "x": -990.2250366210938,
            "y": 196.7041778564453,
            "z": 853.0198364257812
        },
        {
            "x": -1039.351806640625,
            "y": 194.50086975097656,
            "z": 917.6347045898438
        },
        {
            "x": -1058.00927734375,
            "y": 199.28053283691406,
            "z": 962.7992553710938
        },
        {
            "x": -1109.758544921875,
            "y": 197.0334014892578,
            "z": 979.7178344726562
        },
        {
            "x": -1149.24169921875,
            "y": 285.5687561035156,
            "z": 1116.34765625
        },
        {
            "x": -1120.41943359375,
            "y": 387.19775390625,
            "z": 1202.911376953125
        },
        {
            "x": -977.3930053710938,
            "y": 234.83816528320312,
            "z": 1354.8475341796875
        },
        {
            "x": -968.6812744140625,
            "y": 236.93057250976562,
            "z": 1419.0872802734375
        },
        {
            "x": -929.066650390625,
            "y": 283.4449768066406,
            "z": 1517.681396484375
        },
        {
            "x": -1097.3724365234375,
            "y": 284.50555419921875,
            "z": 1666.1700439453125
        },
        {
            "x": -1068.9053955078125,
            "z": 1977.403076171875
        },
        {
            "x": -1175.287841796875,
            "y": 284.4975891113281,
            "z": 2025.0743408203125
        },
        {
            "x": -1228.76025390625,
            "y": 338.5639343261719,
            "z": 2006.6573486328125
        },
        {
            "x": -1255.799560546875,
            "y": 366.4034423828125,
            "z": 1972.0933837890625
        },
        {
            "x": -1261.9410400390625,
            "z": 1926.525634765625
        },
        {
            "x": -1251.7301025390625,
            "y": 387.134765625,
            "z": 1867.0849609375
        },
        {
            "x": -1271.8826904296875,
            "z": 1837.0145263671875
        },
        {
            "x": -1307.1575927734375,
            "y": -0.0006224541575647891,
            "z": 1830.19580078125
        },
        {
            "x": -1361.3734130859375,
            "y": -0.0006207422120496631,
            "z": 1873.674072265625
        },
        {
            "x": -1387.672119140625,
            "y": 432.065673828125,
            "z": 1909.337158203125
        },
        {
            "x": -1409.902099609375,
            "y": 429.879638671875,
            "z": 1944.6640625
        },
        {
            "x": -1423.771484375,
            "y": 333.2546691894531,
            "z": 1990.8990478515625
        },
        {
            "x": -1653.9234619140625,
            "y": 120.68366241455078,
            "z": 2029.3641357421875
        },
        {
            "x": -1759.7425537109375,
            "y": 197.433837890625,
            "z": 2082.537841796875
        },
        {
            "x": -1811.52294921875,
            "y": 181.71202087402344,
            "z": 2208.91455078125
        },
        {
            "x": -1835.315673828125,
            "y": 164.26475524902344,
            "z": 2270.143798828125
        },
        {
            "x": -2085.63818359375,
            "y": 195.69720458984375,
            "z": 2329.15380859375
        },
        {
            "x": -2270.739013671875,
            "y": 200.0,
            "z": 2476.649169921875
        },
        {
            "x": -2283.17578125,
            "y": 200.0,
            "z": 2567.95654296875
        },
        {
            "x": -2021.130615234375,
            "y": 230.62136840820312,
            "z": 2860.70703125
        },
        {
            "x": -1999.5576171875,
            "z": 2974.676513671875
        },
        {
            "x": -1956.4019775390625,
            "z": 3014.229248046875
        },
        {
            "x": -1865.5723876953125,
            "z": 3039.8388671875
        },
        {
            "x": -1858.6217041015625,
            "z": 3075.810546875
        },
        {
            "x": -1865.322509765625,
            "z": 3109.138427734375
        },
        {
            "x": -1900.779052734375,
            "y": 192.44393920898438,
            "z": 3118.005126953125
        },
        {
            "x": -1931.8175048828125,
            "y": 184.41644287109375,
            "z": 3115.868408203125
        },
        {
            "x": -1933.4288330078125,
            "y": 202.2296905517578,
            "z": 3135.78125
        },
        {
            "x": -1966.611083984375,
            "y": 212.70672607421875,
            "z": 3177.998046875
        },
        {
            "x": -1981.25732421875,
            "y": 220.1956329345703,
            "z": 3226.889404296875
        },
        {
            "x": -1995.0052490234375,
            "y": 220.1956329345703,
            "z": 3293.77978515625
        },
        {
            "x": -2046.419677734375,
            "z": 3367.406005859375
        },
        {
            "x": -2045.923583984375,
            "y": 278.8366394042969,
            "z": 3403.4892578125
        },
        {
            "x": -2017.233154296875,
            "y": 284.13421630859375,
            "z": 3420.29052734375
        },
        {
            "x": -1996.7481689453125,
            "y": 253.1937255859375,
            "z": 3437.47802734375
        },
        {
            "x": -2008.66845703125,
            "y": 366.8623352050781,
            "z": 3478.78076171875
        },
        {
            "x": -2032.699951171875,
            "z": 3561.060791015625
        },
        {
            "x": -2058.09814453125,
            "z": 3603.13427734375
        },
        {
            "x": -2048.8642578125,
            "y": 242.4603729248047,
            "z": 3661.552001953125
        },
        {
            "x": -2048.599609375,
            "z": 3719.284423828125
        },
        {
            "x": -1999.9556884765625,
            "z": 3763.73046875
        },
        {
            "x": -1972.8101806640625,
            "z": 3783.6513671875
        },
        {
            "x": -1917.818603515625,
            "z": 3815.16259765625
        },
        {
            "x": -1855.8375244140625,
            "y": 255.84393310546875,
            "z": 3849.6533203125
        },
        {
            "x": -1824.041259765625,
            "y": 249.1301727294922,
            "z": 3896.658935546875
        },
        {
            "x": -1737.1727294921875,
            "y": 215.561279296875,
            "z": 3882.441162109375
        },
        {
            "x": -1672.2022705078125,
            "y": 235.08297729492188,
            "z": 3902.5732421875
        },
        {
            "x": -1645.2100830078125,
            "z": 3913.6142578125
        },
        {
            "x": -1597.914306640625,
            "z": 3920.720703125
        },
        {
            "x": -1540.3037109375,
            "z": 3912.785888671875
        },
        {
            "x": -1456.037109375,
            "z": 3916.61181640625
        },
        {
            "x": -1389.5357666015625,
            "z": 3963.8115234375
        },
        {
            "x": -1375.96728515625,
            "z": 4001.658203125
        },
        {
            "x": -1331.2752685546875,
            "z": 4036.036865234375
        },
        {
            "x": -1250.1627197265625,
            "z": 4049.38525390625
        },
        {
            "x": -1161.4007568359375,
            "z": 4035.486572265625
        },
        {
            "x": -1060.60205078125,
            "z": 4062.444091796875
        },
        {
            "x": -1014.4693603515625,
            "z": 4066.25048828125
        },
        {
            "x": -952.3926391601562,
            "y": 260.1274108886719,
            "z": 4077.63232421875
        },
        {
            "x": -793.8927612304688,
            "y": 171.79307556152344,
            "z": 4088.236572265625
        },
        {
            "x": -759.7855224609375,
            "y": 215.4797821044922,
            "z": 4122.529296875
        },
        {
            "x": -698.907958984375,
            "y": 220.5423583984375,
            "z": 4134.7646484375
        },
        {
            "x": -664.4463500976562,
            "y": 248.4879150390625,
            "z": 4128.6875
        },
        {
            "x": -605.2052001953125,
            "y": 312.4640808105469,
            "z": 4118.35693359375
        },
        {
            "x": -563.1912231445312,
            "y": 301.2775573730469,
            "z": 4111.5107421875
        },
        {
            "x": -503.16510009765625,
            "y": 279.9456787109375,
            "z": 4122.228515625
        },
        {
            "x": -466.3231506347656,
            "y": 240.1527862548828,
            "z": 4111.9755859375
        },
        {
            "x": -125.3031234741211,
            "y": 259.32684326171875,
            "z": 4110.6123046875
        },
        {
            "x": -72.24414825439453,
            "y": 275.8217468261719,
            "z": 4086.48388671875
        },
        {
            "x": -34.365543365478516,
            "y": 285.3768310546875,
            "z": 4018.369384765625
        },
        {
            "x": -74.69255828857422,
            "y": 276.37646484375,
            "z": 3944.06201171875
        },
        {
            "x": -36.115196228027344,
            "y": 216.45103454589844,
            "z": 3869.17724609375
        },
        {
            "x": -66.17001342773438,
            "y": 251.363525390625,
            "z": 3688.81591796875
        },
        {
            "x": -61.35900115966797,
            "z": 3616.193115234375
        },
        {
            "x": 24.069143295288086,
            "z": 3464.295166015625
        },
        {
            "x": 10.403112411499023,
            "z": 3373.513671875
        },
        {
            "x": 17.55496597290039,
            "z": 3270.100341796875
        },
        {
            "x": 20.772981643676758,
            "z": 3159.569580078125
        },
        {
            "x": 46.24788284301758,
            "z": 3076.71728515625
        },
        {
            "x": 147.12322998046875,
            "y": 115.38601684570312,
            "z": 3055.63427734375
        },
        {
            "x": 208.24720764160156,
            "y": 98.24163818359375,
            "z": 3041.658447265625
        },
        {
            "x": 271.4241943359375,
            "z": 3021.0791015625
        },
        {
            "x": 285.5351867675781,
            "y": 265.4195556640625,
            "z": 2948.3876953125
        },
        {
            "x": 253.5292205810547,
            "y": 138.68563842773438,
            "z": 2907.75732421875
        },
        {
            "x": 243.00839233398438,
            "y": 93.01162719726562,
            "z": 2858.82763671875
        },
        {
            "x": 225.53427124023438,
            "y": 107.37484741210938,
            "z": 2813.4306640625
        },
        {
            "x": 196.99691772460938,
            "y": 176.50238037109375,
            "z": 2765.548828125
        },
        {
            "x": 194.61439514160156,
            "z": 2694.42041015625
        },
        {
            "x": 198.74871826171875,
            "y": 290.8633728027344,
            "z": 2642.79541015625
        },
        {
            "x": 237.2819061279297,
            "y": 300.98724365234375,
            "z": 2585.14208984375
        },
        {
            "x": 360.296875,
            "y": 238.3572235107422,
            "z": 2602.053466796875
        },
        {
            "x": 393.45318603515625,
            "y": 287.63311767578125,
            "z": 2551.861083984375
        },
        {
            "x": 424.4990234375,
            "y": 135.01739501953125,
            "z": 2551.405029296875
        },
        {
            "x": 454.5631408691406,
            "y": 123.50712585449219,
            "z": 2573.466064453125
        },
        {
            "x": 551.78662109375,
            "y": 118.51129150390625,
            "z": 2610.65283203125
        },
        {
            "x": 599.7083740234375,
            "y": 134.42807006835938,
            "z": 2596.368896484375
        },
        {
            "x": 650.5723266601562,
            "y": 117.711669921875,
            "z": 2548.599365234375
        },
        {
            "x": 621.578857421875,
            "y": 97.0,
            "z": 2509.635498046875
        },
        {
            "x": 623.5388793945312,
            "y": 154.56439208984375,
            "z": 2494.739990234375
        },
        {
            "x": 587.184814453125,
            "y": 151.36355590820312,
            "z": 2436.58740234375
        },
        {
            "x": 558.2843017578125,
            "y": 159.79693603515625,
            "z": 2382.630859375
        },
        {
            "x": 525.30712890625,
            "y": 164.57809448242188,
            "z": 2342.802001953125
        },
        {
            "x": 497.65057373046875,
            "y": 161.5276336669922,
            "z": 2323.086181640625
        },
        {
            "x": 487.0414733886719,
            "y": 234.22865295410156,
            "z": 2269.26611328125
        },
        {
            "x": 485.6667175292969,
            "y": 258.65936279296875,
            "z": 2250.49951171875
        },
        {
            "x": 525.4078369140625,
            "y": 239.1510772705078,
            "z": 2191.535888671875
        },
        {
            "x": 511.41943359375,
            "y": 290.9264221191406,
            "z": 2141.4873046875
        },
        {
            "x": 520.1138916015625,
            "y": 257.6035461425781,
            "z": 2095.613037109375
        },
        {
            "x": 588.9386596679688,
            "y": 292.4441223144531,
            "z": 1986.91357421875
        },
        {
            "x": 670.9797973632812,
            "y": 293.49652099609375,
            "z": 2005.010498046875
        },
        {
            "x": 742.2237548828125,
            "y": 257.3624267578125,
            "z": 1990.8682861328125
        },
        {
            "x": 770.5624389648438,
            "y": 268.14459228515625,
            "z": 1956.581787109375
        },
        {
            "x": 860.2666015625,
            "y": 357.11248779296875,
            "z": 1861.86767578125
        },
        {
            "x": 903.2286376953125,
            "y": 279.15277099609375,
            "z": 1841.6773681640625
        },
        {
            "x": 986.8030395507812,
            "y": 264.9910888671875,
            "z": 1831.385986328125
        },
        {
            "x": 1060.1885986328125,
            "y": 262.73358154296875,
            "z": 1776.954345703125
        },
        {
            "x": 1114.146484375,
            "y": 273.8604736328125,
            "z": 1715.740234375
        },
        {
            "x": 1169.744140625,
            "y": 273.8604736328125,
            "z": 1698.517333984375
        },
        {
            "x": 1248.7384033203125,
            "y": 269.0,
            "z": 1665.820556640625
        },
        {
            "x": 1294.5335693359375,
            "y": 282.73681640625,
            "z": 1642.68310546875
        },
        {
            "x": 1318.691162109375,
            "y": 269.0,
            "z": 1611.571533203125
        },
        {
            "x": 1355.2313232421875,
            "y": 269.0,
            "z": 1583.6126708984375
        },
        {
            "x": 1391.4593505859375,
            "y": 269.0,
            "z": 1568.118896484375
        },
        {
            "x": 1592.9547119140625,
            "y": 237.32455444335938,
            "z": 1483.6988525390625
        },
        {
            "x": 1692.805908203125,
            "y": 223.92144775390625,
            "z": 1357.890380859375
        },
        {
            "x": 1696.8515625,
            "y": 220.77413940429688,
            "z": 1343.08447265625
        },
        {
            "x": 1697.4483642578125,
            "y": 223.0,
            "z": 1332.9832763671875
        },
        {
            "x": 1696.745361328125,
            "y": 223.0,
            "z": 1321.1912841796875
        },
        {
            "x": 1703.1572265625,
            "y": 223.0,
            "z": 1310.854248046875
        },
        {
            "x": 1698.77978515625,
            "y": 243.8658447265625,
            "z": 1299.114013671875
        },
        {
            "x": 1699.496337890625,
            "y": 223.0,
            "z": 1291.4381103515625
        },
        {
            "x": 1704.316650390625,
            "y": 223.0,
            "z": 1285.0260009765625
        },
        {
            "x": 1704.3944091796875,
            "y": 223.0,
            "z": 1271.79638671875
        },
        {
            "x": 1706.648681640625,
            "y": 223.0,
            "z": 1262.288818359375
        },
        {
            "x": 1702.4541015625,
            "y": 223.0,
            "z": 1254.191650390625
        },
        {
            "x": 1703.557373046875,
            "y": 211.0928955078125,
            "z": 1240.2724609375
        },
        {
            "x": 1696.699462890625,
            "y": 211.6287841796875,
            "z": 1225.447265625
        },
        {
            "x": 1682.3770751953125,
            "y": 212.39395141601562,
            "z": 1206.0960693359375
        },
        {
            "x": 1674.7088623046875,
            "y": 213.39010620117188,
            "z": 1190.275146484375
        },
        {
            "x": 1670.267333984375,
            "y": 199.9999542236328,
            "z": 1175.0517578125
        },
        {
            "x": 1658.8038330078125,
            "y": 203.353271484375,
            "z": 1160.068359375
        },
        {
            "x": 1655.443115234375,
            "y": 201.4808807373047,
            "z": 1143.02197265625
        },
        {
            "x": 1655.5279541015625,
            "y": 201.1916046142578,
            "z": 1123.9527587890625
        },
        {
            "x": 1659.333251953125,
            "y": 201.96469116210938,
            "z": 1113.0252685546875
        },
        {
            "x": 1666.9805908203125,
            "y": 200.2869873046875,
            "z": 1101.48974609375
        },
        {
            "x": 1677.5362548828125,
            "y": 199.9999542236328,
            "z": 1088.66748046875
        },
        {
            "x": 1684.41845703125,
            "y": 200.88116455078125,
            "z": 1077.9384765625
        },
        {
            "x": 1696.3331298828125,
            "y": 200.63711547851562,
            "z": 1069.497314453125
        },
        {
            "x": 1703.2335205078125,
            "y": 199.99996948242188,
            "z": 1057.2767333984375
        },
        {
            "x": 1710.0855712890625,
            "y": 199.99996948242188,
            "z": 1037.5592041015625
        },
        {
            "x": 1721.777099609375,
            "y": 269.376708984375,
            "z": 1000.316162109375
        }
    ]
}