{
    "crowdSpawnInfos": [
        {
            "crowdTypeID": 85,
            "spawnPosition": {
                "x": -2564.4970703125,
                "y": 202.0032958984375,
                "z": -3734.35595703125
            },
            "spawnFaceFwd": {
                "x": 0.9851195216178894,
                "z": -0.17187070846557617
            },
            "hairColor": {
                "r": 0.25882354378700256,
                "g": 0.25882354378700256,
                "b": 0.25882354378700256,
                "a": 1.0
            },
            "bodyColors": [
                {
                    "r": 0.9333333373069763,
                    "g": 0.8666666746139526,
                    "b": 0.843137264251709,
                    "a": 1.0
                },
                {
                    "r": 0.2235294133424759,
                    "g": 0.2705882489681244,
                    "b": 0.3607843220233917,
                    "a": 1.0
                },
                {
                    "r": 0.5686274766921997,
                    "g": 0.572549045085907,
                    "b": 0.6117647290229797,
                    "a": 1.0
                },
                {
                    "r": 0.3137255012989044,
                    "g": 0.38823530077934265,
                    "b": 0.47843137383461,
                    "a": 1.0
                }
            ],
            "instanceId": 80005
        },
        {
            "crowdTypeID": 103,
            "animConfigID": 1,
            "spawnPosition": {
                "x": -2564.116943359375,
                "y": 202.0032958984375,
                "z": -3733.575927734375
            },
            "spawnFaceFwd": {
                "x": 0.39718952775001526,
                "z": -0.9177365303039551
            },
            "hairColor": {
                "r": 0.4274509847164154,
                "g": 0.37254902720451355,
                "b": 0.3019607961177826,
                "a": 1.0
            },
            "bodyColors": [
                {
                    "r": 0.9333333373069763,
                    "g": 0.8666666746139526,
                    "b": 0.843137264251709,
                    "a": 1.0
                },
                {
                    "r": 0.3686274588108063,
                    "g": 0.24313725531101227,
                    "b": 0.24313725531101227,
                    "a": 1.0
                },
                {
                    "r": 0.8235294222831726,
                    "g": 0.8235294222831726,
                    "b": 0.8235294222831726,
                    "a": 1.0
                },
                {
                    "r": 0.3686274588108063,
                    "g": 0.24313725531101227,
                    "b": 0.24313725531101227,
                    "a": 1.0
                }
            ],
            "instanceId": 80006
        }
    ]
}