{
    "crowdSpawnInfos": [
        {
            "crowdTypeID": 155,
            "animConfigID": 12,
            "spawnPosition": {
                "x": -3032.64208984375,
                "y": 221.2888946533203,
                "z": -4373.97412109375
            },
            "spawnFaceFwd": {
                "x": -0.7423350214958191,
                "z": 0.6700289249420166
            },
            "hairColor": {
                "r": 0.25882354378700256,
                "g": 0.25882354378700256,
                "b": 0.25882354378700256,
                "a": 1.0
            },
            "bodyColors": [
                {
                    "r": 0.9058823585510254,
                    "g": 0.7882353067398071,
                    "b": 0.7333333492279053,
                    "a": 1.0
                },
                {
                    "r": 0.545098066329956,
                    "g": 0.3529411852359772,
                    "b": 0.37254902720451355,
                    "a": 1.0
                },
                {
                    "r": 0.7411764860153198,
                    "g": 0.686274528503418,
                    "b": 0.615686297416687,
                    "a": 1.0
                },
                {
                    "r": 0.3176470696926117,
                    "g": 0.2666666805744171,
                    "b": 0.23137255012989044,
                    "a": 1.0
                }
            ],
            "instanceId": 200001
        },
        {
            "crowdTypeID": 145,
            "animConfigID": 2,
            "spawnPosition": {
                "x": -3033.4619140625,
                "y": 221.22030639648438,
                "z": -4374.0830078125
            },
            "spawnFaceFwd": {
                "x": 0.23590880632400513,
                "z": 0.9717751741409302
            },
            "hairColor": {
                "r": 0.32156863808631897,
                "g": 0.21568627655506134,
                "b": 0.18039216101169586,
                "a": 1.0
            },
            "bodyColors": [
                {
                    "r": 0.9333333373069763,
                    "g": 0.8666666746139526,
                    "b": 0.843137264251709,
                    "a": 1.0
                },
                {
                    "r": 0.5372549295425415,
                    "g": 0.364705890417099,
                    "b": 0.34117648005485535,
                    "a": 1.0
                },
                {
                    "r": 0.26274511218070984,
                    "g": 0.2078431397676468,
                    "b": 0.18039216101169586,
                    "a": 1.0
                },
                {
                    "r": 0.41960784792900085,
                    "g": 0.43529412150382996,
                    "b": 0.4941176474094391,
                    "a": 1.0
                }
            ],
            "instanceId": 200002
        }
    ]
}