{
    "normal": {
        "type": "VIDEO",
        "videoConfig": {
            "heroDiff": true,
            "videoName": "Cs_MD_EQ400731001_FischlFantasy.usm",
            "videoNameOther": "Cs_MD_EQ400731001_FischlFantasy.usm",
            "subtitleId": 300087,
            "subtitleIdOther": 300087,
            "canSkip": true,
            "bgColor": {
                "a": 1.0
            },
            "fadeInDuration": 1.5,
            "fadeOutDuration": 3.5,
            "videoScreenAdaptation": 1
        }
    }
}