{
    "luaDataPath": "",
    "entityBan": "",
    "group": [
        [
            {
                "$type": "KCBOGFFHPBD",
                "type": "BODY_LANG",
                "GPIEDGOMCGL": 5010,
                "AOFEDPBOOIE": ""
            }
        ]
    ]
}