{
    "talkId": 6504005,
    "type": "FREE",
    "dialogList": [
        {
            "id": 650400501,
            "nextDialogs": [
                650400502
            ],
            "talkShowType": "TALK_SHOW_FORCE_SELECT",
            "talkRole": {
                "type": "TALK_ROLE_PLAYER",
                "id": ""
            },
            "talkContentTextMapHash": 508100450,
            "talkAssetPath": "",
            "talkAssetPathAlter": "",
            "talkAudioName": "",
            "actionBefore": "",
            "actionWhile": "",
            "actionAfter": "SimpleTalk/SteerOnly",
            "optionIcon": ""
        },
        {
            "id": 650400502,
            "nextDialogs": [
                650400503
            ],
            "talkRole": {
                "type": "TALK_ROLE_NPC",
                "id": "5040"
            },
            "talkContentTextMapHash": 1305658650,
            "talkAssetPath": "",
            "talkAssetPathAlter": "",
            "talkAudioName": "",
            "actionBefore": "",
            "actionWhile": "SimpleTalk/NodHead",
            "actionAfter": "",
            "optionIcon": ""
        },
        {
            "id": 650400503,
            "nextDialogs": [
                650400504
            ],
            "talkRole": {
                "type": "TALK_ROLE_NPC",
                "id": "5040"
            },
            "talkContentTextMapHash": 2332541546,
            "talkAssetPath": "",
            "talkAssetPathAlter": "",
            "talkAudioName": "",
            "actionBefore": "",
            "actionWhile": "SimpleTalk/RandomTalk",
            "actionAfter": "",
            "optionIcon": ""
        },
        {
            "id": 650400504,
            "nextDialogs": [
                650400505
            ],
            "talkRole": {
                "type": "TALK_ROLE_NPC",
                "id": "5040"
            },
            "talkContentTextMapHash": 3897383106,
            "talkAssetPath": "",
            "talkAssetPathAlter": "",
            "talkAudioName": "",
            "actionBefore": "",
            "actionWhile": "SimpleTalk/StrikeChest",
            "actionAfter": "",
            "optionIcon": ""
        },
        {
            "id": 650400505,
            "talkRole": {
                "type": "TALK_ROLE_NPC",
                "id": "5040"
            },
            "talkContentTextMapHash": 1299469610,
            "talkAssetPath": "",
            "talkAssetPathAlter": "",
            "talkAudioName": "",
            "actionBefore": "",
            "actionWhile": "SimpleTalk/ShakeHead",
            "actionAfter": "SimpleTalk/Idle_End",
            "optionIcon": ""
        }
    ]
}