{
    "talkId": 6504120,
    "type": "FREE",
    "dialogList": [
        {
            "id": 650412001,
            "nextDialogs": [
                650412002
            ],
            "talkRole": {
                "type": "TALK_ROLE_NPC",
                "id": "5041"
            },
            "talkContentTextMapHash": 1317777226,
            "talkAssetPath": "",
            "talkAssetPathAlter": "",
            "talkAudioName": "",
            "actionBefore": "",
            "actionWhile": "SimpleTalk/VapourBird_Talk01_Start",
            "actionAfter": "",
            "optionIcon": ""
        },
        {
            "id": 650412002,
            "nextDialogs": [
                650412003
            ],
            "talkRole": {
                "type": "TALK_ROLE_NPC",
                "id": "5041"
            },
            "talkContentTextMapHash": 13454850,
            "talkAssetPath": "",
            "talkAssetPathAlter": "",
            "talkAudioName": "",
            "actionBefore": "",
            "actionWhile": "",
            "actionAfter": "",
            "optionIcon": ""
        },
        {
            "id": 650412003,
            "talkRole": {
                "type": "TALK_ROLE_NPC",
                "id": "5041"
            },
            "talkContentTextMapHash": 4087986722,
            "talkAssetPath": "",
            "talkAssetPathAlter": "",
            "talkAudioName": "",
            "actionBefore": "",
            "actionWhile": "",
            "actionAfter": "SimpleTalk/LerpOutNpcNoSteer_End",
            "optionIcon": ""
        }
    ]
}