{
    "talkId": 6505001,
    "type": "FREE",
    "dialogList": [
        {
            "id": 650500101,
            "talkRole": {
                "type": "TALK_ROLE_NPC",
                "id": "5050"
            },
            "talkContentTextMapHash": 1722451242,
            "talkAssetPath": "",
            "talkAssetPathAlter": "",
            "talkAudioName": "",
            "actionBefore": "",
            "actionWhile": "TEST/LerpInNpc",
            "actionAfter": "",
            "optionIcon": ""
        }
    ]
}