{
    "talkId": 6510602,
    "type": "FREE",
    "dialogList": [
        {
            "id": 651060201,
            "nextDialogs": [
                651060202
            ],
            "talkShowType": "TALK_SHOW_FORCE_SELECT",
            "talkRole": {
                "type": "TALK_ROLE_PLAYER",
                "id": ""
            },
            "talkContentTextMapHash": 718417674,
            "talkAssetPath": "",
            "talkAssetPathAlter": "",
            "talkAudioName": "",
            "actionBefore": "",
            "actionWhile": "",
            "actionAfter": "SimpleTalk/SteerOnly",
            "optionIcon": ""
        },
        {
            "id": 651060202,
            "nextDialogs": [
                651060203
            ],
            "talkRole": {
                "type": "TALK_ROLE_NPC",
                "id": "5106"
            },
            "talkContentTextMapHash": 804825290,
            "talkAssetPath": "",
            "talkAssetPathAlter": "",
            "talkAudioName": "",
            "actionBefore": "",
            "actionWhile": "SimpleTalk/RandomTalk",
            "actionAfter": "",
            "optionIcon": ""
        },
        {
            "id": 651060203,
            "talkRole": {
                "type": "TALK_ROLE_NPC",
                "id": "5106"
            },
            "talkContentTextMapHash": 3593741314,
            "talkAssetPath": "",
            "talkAssetPathAlter": "",
            "talkAudioName": "",
            "actionBefore": "",
            "actionWhile": "SimpleTalk/Confuse",
            "actionAfter": "",
            "optionIcon": ""
        }
    ]
}