{
    "talkId": 6510603,
    "type": "FREE",
    "dialogList": [
        {
            "id": 651060301,
            "nextDialogs": [
                651060302
            ],
            "talkShowType": "TALK_SHOW_FORCE_SELECT",
            "talkRole": {
                "type": "TALK_ROLE_PLAYER",
                "id": ""
            },
            "talkContentTextMapHash": 3770907378,
            "talkAssetPath": "",
            "talkAssetPathAlter": "",
            "talkAudioName": "",
            "actionBefore": "",
            "actionWhile": "",
            "actionAfter": "",
            "optionIcon": ""
        },
        {
            "id": 651060302,
            "talkRole": {
                "type": "TALK_ROLE_NPC",
                "id": "5106"
            },
            "talkContentTextMapHash": 2715007938,
            "talkAssetPath": "",
            "talkAssetPathAlter": "",
            "talkAudioName": "",
            "actionBefore": "",
            "actionWhile": "",
            "actionAfter": "SimpleTalk/LerpOutNpcNoSteer_End",
            "optionIcon": ""
        }
    ]
}