{
    "talkId": 6511402,
    "type": "FREE",
    "dialogList": [
        {
            "id": 651140201,
            "nextDialogs": [
                651140202
            ],
            "talkShowType": "TALK_SHOW_FORCE_SELECT",
            "talkRole": {
                "type": "TALK_ROLE_PLAYER",
                "id": ""
            },
            "talkContentTextMapHash": 1902287450,
            "talkAssetPath": "",
            "talkAssetPathAlter": "",
            "talkAudioName": "",
            "actionBefore": "",
            "actionWhile": "",
            "actionAfter": "",
            "optionIcon": ""
        },
        {
            "id": 651140202,
            "nextDialogs": [
                651140203
            ],
            "talkRole": {
                "type": "TALK_ROLE_NPC",
                "id": "5114"
            },
            "talkContentTextMapHash": 2266894874,
            "talkAssetPath": "",
            "talkAssetPathAlter": "",
            "talkAudioName": "",
            "actionBefore": "",
            "actionWhile": "SimpleTalk/NodHead",
            "actionAfter": "",
            "optionIcon": ""
        },
        {
            "id": 651140203,
            "nextDialogs": [
                651140204
            ],
            "talkRole": {
                "type": "TALK_ROLE_NPC",
                "id": "5114"
            },
            "talkContentTextMapHash": 2935560922,
            "talkAssetPath": "",
            "talkAssetPathAlter": "",
            "talkAudioName": "",
            "actionBefore": "",
            "actionWhile": "SimpleTalk/PutHand",
            "actionAfter": "",
            "optionIcon": ""
        },
        {
            "id": 651140204,
            "talkRole": {
                "type": "TALK_ROLE_NPC",
                "id": "5114"
            },
            "talkContentTextMapHash": 1717488170,
            "talkAssetPath": "",
            "talkAssetPathAlter": "",
            "talkAudioName": "",
            "actionBefore": "",
            "actionWhile": "SimpleTalk/Think",
            "actionAfter": "SimpleTalk/Idle_End",
            "optionIcon": ""
        }
    ]
}