{
    "talkId": 6512306,
    "type": "FREE",
    "dialogList": [
        {
            "id": 651230601,
            "nextDialogs": [
                651230602
            ],
            "talkShowType": "TALK_SHOW_FORCE_SELECT",
            "talkRole": {
                "type": "TALK_ROLE_PLAYER",
                "id": ""
            },
            "talkContentTextMapHash": 266090850,
            "talkAssetPath": "",
            "talkAssetPathAlter": "",
            "talkAudioName": "",
            "actionBefore": "",
            "actionWhile": "",
            "actionAfter": "",
            "optionIcon": ""
        },
        {
            "id": 651230602,
            "nextDialogs": [
                651230603
            ],
            "talkRole": {
                "type": "TALK_ROLE_NPC",
                "id": "5123"
            },
            "talkContentTextMapHash": 466200362,
            "talkAssetPath": "",
            "talkAssetPathAlter": "",
            "talkAudioName": "",
            "actionBefore": "",
            "actionWhile": "SimpleTalk/RandomTalk",
            "actionAfter": "",
            "optionIcon": ""
        },
        {
            "id": 651230603,
            "nextDialogs": [
                651230604
            ],
            "talkRole": {
                "type": "TALK_ROLE_NPC",
                "id": "5123"
            },
            "talkContentTextMapHash": 106277506,
            "talkAssetPath": "",
            "talkAssetPathAlter": "",
            "talkAudioName": "",
            "actionBefore": "",
            "actionWhile": "",
            "actionAfter": "",
            "optionIcon": ""
        },
        {
            "id": 651230604,
            "talkRole": {
                "type": "TALK_ROLE_NPC",
                "id": "5123"
            },
            "talkContentTextMapHash": 782187666,
            "talkAssetPath": "",
            "talkAssetPathAlter": "",
            "talkAudioName": "",
            "actionBefore": "",
            "actionWhile": "",
            "actionAfter": "",
            "optionIcon": ""
        }
    ]
}