{
    "talkId": 6519903,
    "type": "FREE",
    "dialogList": [
        {
            "id": 651990301,
            "nextDialogs": [
                651990302
            ],
            "talkShowType": "TALK_SHOW_FORCE_SELECT",
            "talkRole": {
                "type": "TALK_ROLE_PLAYER",
                "id": ""
            },
            "talkContentTextMapHash": 445563194,
            "talkAssetPath": "",
            "talkAssetPathAlter": "",
            "talkAudioName": "",
            "actionBefore": "",
            "actionWhile": "",
            "actionAfter": "",
            "optionIcon": ""
        },
        {
            "id": 651990302,
            "talkRole": {
                "type": "TALK_ROLE_NPC",
                "id": "5199"
            },
            "talkContentTextMapHash": 4049318978,
            "talkAssetPath": "",
            "talkAssetPathAlter": "",
            "talkAudioName": "",
            "actionBefore": "",
            "actionWhile": "",
            "actionAfter": "",
            "optionIcon": ""
        }
    ]
}