{
    "talkId": 6519104,
    "type": "FREE",
    "dialogList": [
        {
            "id": 651910401,
            "nextDialogs": [
                651910402
            ],
            "talkShowType": "TALK_SHOW_FORCE_SELECT",
            "talkRole": {
                "type": "TALK_ROLE_PLAYER",
                "id": ""
            },
            "talkContentTextMapHash": 1233155218,
            "talkAssetPath": "",
            "talkAssetPathAlter": "",
            "talkAudioName": "",
            "actionBefore": "",
            "actionWhile": "",
            "actionAfter": "",
            "optionIcon": ""
        },
        {
            "id": 651910402,
            "nextDialogs": [
                651910403
            ],
            "talkRole": {
                "type": "TALK_ROLE_NPC",
                "id": "5191"
            },
            "talkContentTextMapHash": 1940277386,
            "talkAssetPath": "",
            "talkAssetPathAlter": "",
            "talkAudioName": "",
            "actionBefore": "",
            "actionWhile": "",
            "actionAfter": "",
            "optionIcon": ""
        },
        {
            "id": 651910403,
            "nextDialogs": [
                651910404
            ],
            "talkRole": {
                "type": "TALK_ROLE_NPC",
                "id": "5191"
            },
            "talkContentTextMapHash": 560830650,
            "talkAssetPath": "",
            "talkAssetPathAlter": "",
            "talkAudioName": "",
            "actionBefore": "",
            "actionWhile": "SimpleTalk/PutHand",
            "actionAfter": "",
            "optionIcon": ""
        },
        {
            "id": 651910404,
            "nextDialogs": [
                651910405
            ],
            "talkRole": {
                "type": "TALK_ROLE_NPC",
                "id": "5191"
            },
            "talkContentTextMapHash": 3326157378,
            "talkAssetPath": "",
            "talkAssetPathAlter": "",
            "talkAudioName": "",
            "actionBefore": "",
            "actionWhile": "",
            "actionAfter": "",
            "optionIcon": ""
        },
        {
            "id": 651910405,
            "talkRole": {
                "type": "TALK_ROLE_NPC",
                "id": "5191"
            },
            "talkContentTextMapHash": 995559234,
            "talkAssetPath": "",
            "talkAssetPathAlter": "",
            "talkAudioName": "",
            "actionBefore": "",
            "actionWhile": "SimpleTalk/Think",
            "actionAfter": "SimpleTalk/Idle_End",
            "optionIcon": ""
        }
    ]
}