{
    "talkId": 6521303,
    "type": "FREE",
    "dialogList": [
        {
            "id": 652130301,
            "nextDialogs": [
                652130302
            ],
            "talkShowType": "TALK_SHOW_FORCE_SELECT",
            "talkRole": {
                "type": "TALK_ROLE_PLAYER",
                "id": ""
            },
            "talkContentTextMapHash": 4061061330,
            "talkAssetPath": "",
            "talkAssetPathAlter": "",
            "talkAudioName": "",
            "actionBefore": "",
            "actionWhile": "",
            "actionAfter": "",
            "optionIcon": ""
        },
        {
            "id": 652130302,
            "nextDialogs": [
                652130303
            ],
            "talkRole": {
                "type": "TALK_ROLE_NPC",
                "id": "5213"
            },
            "talkContentTextMapHash": 3637546058,
            "talkAssetPath": "",
            "talkAssetPathAlter": "",
            "talkAudioName": "",
            "actionBefore": "",
            "actionWhile": "",
            "actionAfter": "",
            "optionIcon": ""
        },
        {
            "id": 652130303,
            "talkRole": {
                "type": "TALK_ROLE_NPC",
                "id": "5213"
            },
            "talkContentTextMapHash": 3939455842,
            "talkAssetPath": "",
            "talkAssetPathAlter": "",
            "talkAudioName": "",
            "actionBefore": "",
            "actionWhile": "",
            "actionAfter": "",
            "optionIcon": ""
        }
    ]
}