{
    "talkId": 6523103,
    "type": "FREE",
    "dialogList": [
        {
            "id": 652310301,
            "nextDialogs": [
                652310302
            ],
            "talkShowType": "TALK_SHOW_FORCE_SELECT",
            "talkRole": {
                "type": "TALK_ROLE_PLAYER",
                "id": ""
            },
            "talkContentTextMapHash": 2679679314,
            "talkAssetPath": "",
            "talkAssetPathAlter": "",
            "talkAudioName": "",
            "actionBefore": "",
            "actionWhile": "",
            "actionAfter": "SimpleTalk/SteerOnly",
            "optionIcon": ""
        },
        {
            "id": 652310302,
            "nextDialogs": [
                652310303
            ],
            "talkRole": {
                "type": "TALK_ROLE_NPC",
                "id": "5231"
            },
            "talkContentTextMapHash": 975060770,
            "talkAssetPath": "",
            "talkAssetPathAlter": "",
            "talkAudioName": "",
            "actionBefore": "",
            "actionWhile": "SimpleTalk/NodHead",
            "actionAfter": "",
            "optionIcon": ""
        },
        {
            "id": 652310303,
            "talkRole": {
                "type": "TALK_ROLE_NPC",
                "id": "5231"
            },
            "talkContentTextMapHash": 3022163266,
            "talkAssetPath": "",
            "talkAssetPathAlter": "",
            "talkAudioName": "",
            "actionBefore": "",
            "actionWhile": "SimpleTalk/Think",
            "actionAfter": "",
            "optionIcon": ""
        }
    ]
}