{
    "talkId": 6525205,
    "type": "FREE",
    "dialogList": [
        {
            "id": 652520501,
            "talkRole": {
                "type": "TALK_ROLE_NPC",
                "id": "5252"
            },
            "talkContentTextMapHash": 2113844578,
            "talkAssetPath": "",
            "talkAssetPathAlter": "",
            "talkAudioName": "",
            "actionBefore": "",
            "actionWhile": "SimpleTalk/LerpInNpcDailyTalk_Start",
            "actionAfter": "",
            "optionIcon": ""
        }
    ]
}