{
    "talkId": 6525303,
    "type": "FREE",
    "dialogList": [
        {
            "id": 652530301,
            "nextDialogs": [
                652530302
            ],
            "talkShowType": "TALK_SHOW_FORCE_SELECT",
            "talkRole": {
                "type": "TALK_ROLE_PLAYER",
                "id": ""
            },
            "talkContentTextMapHash": 3097439506,
            "talkAssetPath": "",
            "talkAssetPathAlter": "",
            "talkAudioName": "",
            "actionBefore": "",
            "actionWhile": "",
            "actionAfter": "",
            "optionIcon": ""
        },
        {
            "id": 652530302,
            "talkRole": {
                "type": "TALK_ROLE_NPC",
                "id": "5253"
            },
            "talkContentTextMapHash": 4052186882,
            "talkAssetPath": "",
            "talkAssetPathAlter": "",
            "talkAudioName": "",
            "actionBefore": "",
            "actionWhile": "",
            "actionAfter": "",
            "optionIcon": ""
        }
    ]
}