{
    "talkId": 6528301,
    "type": "FREE",
    "dialogList": [
        {
            "id": 652830101,
            "talkRole": {
                "type": "TALK_ROLE_NPC",
                "id": "5283"
            },
            "talkContentTextMapHash": 4198397306,
            "talkAssetPath": "",
            "talkAssetPathAlter": "",
            "talkAudioName": "",
            "actionBefore": "",
            "actionWhile": "SimpleTalk/RandomTalk_Start",
            "actionAfter": "",
            "optionIcon": ""
        }
    ]
}