{
    "talkId": 6530703,
    "type": "FREE",
    "dialogList": [
        {
            "id": 653070301,
            "nextDialogs": [
                653070302
            ],
            "talkShowType": "TALK_SHOW_FORCE_SELECT",
            "talkRole": {
                "type": "TALK_ROLE_PLAYER",
                "id": ""
            },
            "talkContentTextMapHash": 4287699610,
            "talkAssetPath": "",
            "talkAssetPathAlter": "",
            "talkAudioName": "",
            "actionBefore": "",
            "actionWhile": "",
            "actionAfter": "",
            "optionIcon": ""
        },
        {
            "id": 653070302,
            "nextDialogs": [
                653070303
            ],
            "talkRole": {
                "type": "TALK_ROLE_NPC",
                "id": "5307"
            },
            "talkContentTextMapHash": 2918122386,
            "talkAssetPath": "",
            "talkAssetPathAlter": "",
            "talkAudioName": "",
            "actionBefore": "",
            "actionWhile": "",
            "actionAfter": "",
            "optionIcon": ""
        },
        {
            "id": 653070303,
            "talkRole": {
                "type": "TALK_ROLE_NPC",
                "id": "5307"
            },
            "talkContentTextMapHash": 1230830858,
            "talkAssetPath": "",
            "talkAssetPathAlter": "",
            "talkAudioName": "",
            "actionBefore": "",
            "actionWhile": "",
            "actionAfter": "",
            "optionIcon": ""
        }
    ]
}