{
    "talkId": 6531501,
    "type": "FREE",
    "dialogList": [
        {
            "id": 653150101,
            "talkRole": {
                "type": "TALK_ROLE_NPC",
                "id": "5315"
            },
            "talkContentTextMapHash": 1647890010,
            "talkAssetPath": "",
            "talkAssetPathAlter": "",
            "talkAudioName": "",
            "actionBefore": "",
            "actionWhile": "",
            "actionAfter": "",
            "optionIcon": ""
        }
    ]
}