{
    "talkId": 6908403,
    "type": "FREE",
    "dialogList": [
        {
            "id": 690840301,
            "nextDialogs": [
                690840302
            ],
            "talkShowType": "TALK_SHOW_FORCE_SELECT",
            "talkRole": {
                "type": "TALK_ROLE_PLAYER",
                "id": ""
            },
            "talkContentTextMapHash": 2269003282,
            "talkAssetPath": "",
            "talkAssetPathAlter": "",
            "talkAudioName": "",
            "actionBefore": "",
            "actionWhile": "",
            "actionAfter": "",
            "optionIcon": ""
        },
        {
            "id": 690840302,
            "nextDialogs": [
                690840303
            ],
            "talkRole": {
                "type": "TALK_ROLE_NPC",
                "id": "9084"
            },
            "talkContentTextMapHash": 1882694098,
            "talkAssetPath": "",
            "talkAssetPathAlter": "",
            "talkAudioName": "",
            "actionBefore": "",
            "actionWhile": "",
            "actionAfter": "",
            "optionIcon": ""
        },
        {
            "id": 690840303,
            "nextDialogs": [
                690840304
            ],
            "talkShowType": "TALK_SHOW_FORCE_SELECT",
            "talkRole": {
                "type": "TALK_ROLE_PLAYER",
                "id": ""
            },
            "talkContentTextMapHash": 645432818,
            "talkAssetPath": "",
            "talkAssetPathAlter": "",
            "talkAudioName": "",
            "actionBefore": "",
            "actionWhile": "",
            "actionAfter": "",
            "optionIcon": ""
        },
        {
            "id": 690840304,
            "nextDialogs": [
                690840305
            ],
            "talkRole": {
                "type": "TALK_ROLE_NPC",
                "id": "9084"
            },
            "talkContentTextMapHash": 3725211818,
            "talkAssetPath": "",
            "talkAssetPathAlter": "",
            "talkAudioName": "",
            "actionBefore": "",
            "actionWhile": "",
            "actionAfter": "",
            "optionIcon": ""
        },
        {
            "id": 690840305,
            "nextDialogs": [
                690840306
            ],
            "talkShowType": "TALK_SHOW_FORCE_SELECT",
            "talkRole": {
                "type": "TALK_ROLE_PLAYER",
                "id": ""
            },
            "talkContentTextMapHash": 2378671682,
            "talkAssetPath": "",
            "talkAssetPathAlter": "",
            "talkAudioName": "",
            "actionBefore": "",
            "actionWhile": "",
            "actionAfter": "",
            "optionIcon": ""
        },
        {
            "id": 690840306,
            "nextDialogs": [
                690840307,
                690840309
            ],
            "talkRole": {
                "type": "TALK_ROLE_NPC",
                "id": "9084"
            },
            "talkContentTextMapHash": 1273354666,
            "talkAssetPath": "",
            "talkAssetPathAlter": "",
            "talkAudioName": "",
            "actionBefore": "",
            "actionWhile": "",
            "actionAfter": "",
            "optionIcon": ""
        },
        {
            "id": 690840307,
            "nextDialogs": [
                690840308
            ],
            "talkShowType": "TALK_SHOW_FORCE_SELECT",
            "talkRole": {
                "type": "TALK_ROLE_PLAYER",
                "id": ""
            },
            "talkContentTextMapHash": 699338498,
            "talkAssetPath": "",
            "talkAssetPathAlter": "",
            "talkAudioName": "",
            "actionBefore": "",
            "actionWhile": "",
            "actionAfter": "",
            "optionIcon": ""
        },
        {
            "id": 690840308,
            "nextDialogs": [
                690840311
            ],
            "talkRole": {
                "type": "TALK_ROLE_NPC",
                "id": "9084"
            },
            "talkContentTextMapHash": 84147066,
            "talkAssetPath": "",
            "talkAssetPathAlter": "",
            "talkAudioName": "",
            "actionBefore": "",
            "actionWhile": "",
            "actionAfter": "",
            "optionIcon": ""
        },
        {
            "id": 690840311,
            "nextDialogs": [
                690840312
            ],
            "talkRole": {
                "type": "TALK_ROLE_NPC",
                "id": "9084"
            },
            "talkContentTextMapHash": 2902885266,
            "talkAssetPath": "",
            "talkAssetPathAlter": "",
            "talkAudioName": "",
            "actionBefore": "",
            "actionWhile": "",
            "actionAfter": "",
            "optionIcon": ""
        },
        {
            "id": 690840312,
            "nextDialogs": [
                690840313,
                690840316,
                690840319
            ],
            "talkRole": {
                "type": "TALK_ROLE_NPC",
                "id": "9084"
            },
            "talkContentTextMapHash": 3224991642,
            "talkAssetPath": "",
            "talkAssetPathAlter": "",
            "talkAudioName": "",
            "actionBefore": "",
            "actionWhile": "",
            "actionAfter": "",
            "optionIcon": ""
        },
        {
            "id": 690840313,
            "nextDialogs": [
                690840314
            ],
            "talkShowType": "TALK_SHOW_FORCE_SELECT",
            "talkRole": {
                "type": "TALK_ROLE_PLAYER",
                "id": ""
            },
            "talkContentTextMapHash": 1166388890,
            "talkAssetPath": "",
            "talkAssetPathAlter": "",
            "talkAudioName": "",
            "actionBefore": "",
            "actionWhile": "",
            "actionAfter": "",
            "optionIcon": ""
        },
        {
            "id": 690840314,
            "nextDialogs": [
                690840315
            ],
            "talkRole": {
                "type": "TALK_ROLE_NPC",
                "id": "9084"
            },
            "talkContentTextMapHash": 2884408250,
            "talkAssetPath": "",
            "talkAssetPathAlter": "",
            "talkAudioName": "",
            "actionBefore": "",
            "actionWhile": "",
            "actionAfter": "",
            "optionIcon": ""
        },
        {
            "id": 690840315,
            "nextDialogs": [
                690840321
            ],
            "talkRole": {
                "type": "TALK_ROLE_NPC",
                "id": "9084"
            },
            "talkContentTextMapHash": 3368734866,
            "talkAssetPath": "",
            "talkAssetPathAlter": "",
            "talkAudioName": "",
            "actionBefore": "",
            "actionWhile": "",
            "actionAfter": "",
            "optionIcon": ""
        },
        {
            "id": 690840321,
            "nextDialogs": [
                690840322
            ],
            "talkRole": {
                "type": "TALK_ROLE_NPC",
                "id": "9084"
            },
            "talkContentTextMapHash": 2441114618,
            "talkAssetPath": "",
            "talkAssetPathAlter": "",
            "talkAudioName": "",
            "actionBefore": "",
            "actionWhile": "",
            "actionAfter": "",
            "optionIcon": ""
        },
        {
            "id": 690840322,
            "talkRole": {
                "type": "TALK_ROLE_NPC",
                "id": "9084"
            },
            "talkContentTextMapHash": 2221590818,
            "talkAssetPath": "",
            "talkAssetPathAlter": "",
            "talkAudioName": "",
            "actionBefore": "",
            "actionWhile": "",
            "actionAfter": "",
            "optionIcon": ""
        },
        {
            "id": 690840316,
            "nextDialogs": [
                690840317
            ],
            "talkShowType": "TALK_SHOW_FORCE_SELECT",
            "talkRole": {
                "type": "TALK_ROLE_PLAYER",
                "id": ""
            },
            "talkContentTextMapHash": 379495306,
            "talkAssetPath": "",
            "talkAssetPathAlter": "",
            "talkAudioName": "",
            "actionBefore": "",
            "actionWhile": "",
            "actionAfter": "",
            "optionIcon": ""
        },
        {
            "id": 690840317,
            "nextDialogs": [
                690840318
            ],
            "talkRole": {
                "type": "TALK_ROLE_NPC",
                "id": "9084"
            },
            "talkContentTextMapHash": 2069575666,
            "talkAssetPath": "",
            "talkAssetPathAlter": "",
            "talkAudioName": "",
            "actionBefore": "",
            "actionWhile": "",
            "actionAfter": "",
            "optionIcon": ""
        },
        {
            "id": 690840318,
            "nextDialogs": [
                690840321
            ],
            "talkRole": {
                "type": "TALK_ROLE_NPC",
                "id": "9084"
            },
            "talkContentTextMapHash": 807207962,
            "talkAssetPath": "",
            "talkAssetPathAlter": "",
            "talkAudioName": "",
            "actionBefore": "",
            "actionWhile": "",
            "actionAfter": "",
            "optionIcon": ""
        },
        {
            "id": 690840319,
            "nextDialogs": [
                690840320
            ],
            "talkShowType": "TALK_SHOW_FORCE_SELECT",
            "talkRole": {
                "type": "TALK_ROLE_PLAYER",
                "id": ""
            },
            "talkContentTextMapHash": 672661410,
            "talkAssetPath": "",
            "talkAssetPathAlter": "",
            "talkAudioName": "",
            "actionBefore": "",
            "actionWhile": "",
            "actionAfter": "",
            "optionIcon": ""
        },
        {
            "id": 690840320,
            "nextDialogs": [
                690840321
            ],
            "talkRole": {
                "type": "TALK_ROLE_NPC",
                "id": "9084"
            },
            "talkContentTextMapHash": 1448622402,
            "talkAssetPath": "",
            "talkAssetPathAlter": "",
            "talkAudioName": "",
            "actionBefore": "",
            "actionWhile": "",
            "actionAfter": "",
            "optionIcon": ""
        },
        {
            "id": 690840309,
            "nextDialogs": [
                690840310
            ],
            "talkShowType": "TALK_SHOW_FORCE_SELECT",
            "talkRole": {
                "type": "TALK_ROLE_PLAYER",
                "id": ""
            },
            "talkContentTextMapHash": 1261456242,
            "talkAssetPath": "",
            "talkAssetPathAlter": "",
            "talkAudioName": "",
            "actionBefore": "",
            "actionWhile": "",
            "actionAfter": "",
            "optionIcon": ""
        },
        {
            "id": 690840310,
            "nextDialogs": [
                690840311
            ],
            "talkRole": {
                "type": "TALK_ROLE_NPC",
                "id": "9084"
            },
            "talkContentTextMapHash": 394475530,
            "talkAssetPath": "",
            "talkAssetPathAlter": "",
            "talkAudioName": "",
            "actionBefore": "",
            "actionWhile": "",
            "actionAfter": "",
            "optionIcon": ""
        }
    ]
}