{
    "talkId": 6954716,
    "type": "FREE",
    "dialogList": [
        {
            "id": 695471601,
            "talkRole": {
                "type": "TALK_ROLE_NPC",
                "id": "9547"
            },
            "talkContentTextMapHash": 1304438530,
            "talkAssetPath": "",
            "talkAssetPathAlter": "",
            "talkAudioName": "",
            "actionBefore": "",
            "actionWhile": "",
            "actionAfter": "",
            "optionIcon": ""
        }
    ]
}