{
    "talkId": 6954917,
    "type": "FREE",
    "dialogList": [
        {
            "id": 695491701,
            "talkRole": {
                "type": "TALK_ROLE_NPC",
                "id": "9549"
            },
            "talkContentTextMapHash": 2304419354,
            "talkAssetPath": "",
            "talkAssetPathAlter": "",
            "talkAudioName": "",
            "actionBefore": "",
            "actionWhile": "",
            "actionAfter": "",
            "optionIcon": ""
        }
    ]
}