{
    "talkId": 6954813,
    "type": "FREE",
    "dialogList": [
        {
            "id": 695481201,
            "talkRole": {
                "type": "TALK_ROLE_NPC",
                "id": "9548"
            },
            "talkContentTextMapHash": 2738101698,
            "talkAssetPath": "",
            "talkAssetPathAlter": "",
            "talkAudioName": "",
            "actionBefore": "",
            "actionWhile": "",
            "actionAfter": "",
            "optionIcon": ""
        }
    ]
}