{
    "talkId": 6955017,
    "type": "FREE",
    "dialogList": [
        {
            "id": 695501701,
            "talkRole": {
                "type": "TALK_ROLE_NPC",
                "id": "9550"
            },
            "talkContentTextMapHash": 2849512138,
            "talkAssetPath": "",
            "talkAssetPathAlter": "",
            "talkAudioName": "",
            "actionBefore": "",
            "actionWhile": "",
            "actionAfter": "",
            "optionIcon": ""
        }
    ]
}