{
    "talkId": 7410850,
    "type": "FREE",
    "dialogList": [
        {
            "id": 741085001,
            "nextDialogs": [
                741085002
            ],
            "talkShowType": "TALK_SHOW_FORCE_SELECT",
            "talkRole": {
                "type": "TALK_ROLE_PLAYER",
                "id": ""
            },
            "talkContentTextMapHash": 1027511050,
            "talkAssetPath": "",
            "talkAssetPathAlter": "",
            "talkAudioName": "",
            "actionBefore": "",
            "actionWhile": "",
            "actionAfter": "",
            "optionIcon": "UI_Icon_Intee_Mechanism"
        },
        {
            "id": 741085002,
            "talkRole": {
                "type": "TALK_ROLE_NPC",
                "id": "21129"
            },
            "talkContentTextMapHash": 1882726842,
            "talkAssetPath": "",
            "talkAssetPathAlter": "",
            "talkAudioName": "",
            "actionBefore": "",
            "actionWhile": "",
            "actionAfter": "",
            "optionIcon": ""
        }
    ]
}