{
    "talkId": 7410838,
    "type": "FREE",
    "dialogList": [
        {
            "id": 741083801,
            "nextDialogs": [
                741083802
            ],
            "talkShowType": "TALK_SHOW_FORCE_SELECT",
            "talkRole": {
                "type": "TALK_ROLE_PLAYER",
                "id": ""
            },
            "talkContentTextMapHash": 1127698914,
            "talkAssetPath": "",
            "talkAssetPathAlter": "",
            "talkAudioName": "",
            "actionBefore": "",
            "actionWhile": "",
            "actionAfter": "",
            "optionIcon": ""
        },
        {
            "id": 741083802,
            "talkRole": {
                "type": "TALK_ROLE_NPC",
                "id": "21129"
            },
            "talkContentTextMapHash": 641959906,
            "talkAssetPath": "",
            "talkAssetPathAlter": "",
            "talkAudioName": "",
            "actionBefore": "",
            "actionWhile": "",
            "actionAfter": "",
            "optionIcon": ""
        }
    ]
}