{
    "talkId": 7410871,
    "type": "FREE",
    "dialogList": [
        {
            "id": 741087101,
            "nextDialogs": [
                741087102
            ],
            "talkShowType": "TALK_SHOW_FORCE_SELECT",
            "talkRole": {
                "type": "TALK_ROLE_PLAYER",
                "id": ""
            },
            "talkContentTextMapHash": 2655586178,
            "talkAssetPath": "",
            "talkAssetPathAlter": "",
            "talkAudioName": "",
            "actionBefore": "",
            "actionWhile": "",
            "actionAfter": "",
            "optionIcon": ""
        },
        {
            "id": 741087102,
            "nextDialogs": [
                741087103
            ],
            "talkRole": {
                "type": "TALK_ROLE_NPC",
                "id": "21129"
            },
            "talkContentTextMapHash": 1372097258,
            "talkAssetPath": "",
            "talkAssetPathAlter": "",
            "talkAudioName": "",
            "actionBefore": "",
            "actionWhile": "",
            "actionAfter": "",
            "optionIcon": ""
        },
        {
            "id": 741087103,
            "nextDialogs": [
                741087104
            ],
            "talkRole": {
                "type": "TALK_ROLE_NPC",
                "id": "21129"
            },
            "talkContentTextMapHash": 1317820298,
            "talkAssetPath": "",
            "talkAssetPathAlter": "",
            "talkAudioName": "",
            "actionBefore": "",
            "actionWhile": "",
            "actionAfter": "",
            "optionIcon": ""
        },
        {
            "id": 741087104,
            "talkRole": {
                "type": "TALK_ROLE_NPC",
                "id": "21129"
            },
            "talkContentTextMapHash": 32993242,
            "talkAssetPath": "",
            "talkAssetPathAlter": "",
            "talkAudioName": "",
            "actionBefore": "",
            "actionWhile": "",
            "actionAfter": "",
            "optionIcon": ""
        }
    ]
}