{
    "talkId": 7492501,
    "type": "FREE",
    "dialogList": [
        {
            "id": 749250101,
            "nextDialogs": [
                749250102
            ],
            "talkShowType": "TALK_SHOW_FORCE_SELECT",
            "talkRole": {
                "type": "TALK_ROLE_PLAYER",
                "id": ""
            },
            "talkContentTextMapHash": 4196039578,
            "talkAssetPath": "",
            "talkAssetPathAlter": "",
            "talkAudioName": "",
            "actionBefore": "",
            "actionWhile": "",
            "actionAfter": "",
            "optionIcon": "UI_Icon_Intee_TreasureBox"
        },
        {
            "id": 749250102,
            "nextDialogs": [
                749250103
            ],
            "talkRole": {
                "type": "TALK_ROLE_NPC",
                "id": "5030"
            },
            "talkContentTextMapHash": 1542047090,
            "talkAssetPath": "",
            "talkAssetPathAlter": "",
            "talkAudioName": "",
            "actionBefore": "",
            "actionWhile": "",
            "actionAfter": "",
            "optionIcon": ""
        },
        {
            "id": 749250103,
            "nextDialogs": [
                749250104
            ],
            "talkRole": {
                "type": "TALK_ROLE_NPC",
                "id": "5030"
            },
            "talkContentTextMapHash": 3930818882,
            "talkAssetPath": "",
            "talkAssetPathAlter": "",
            "talkAudioName": "",
            "actionBefore": "",
            "actionWhile": "",
            "actionAfter": "",
            "optionIcon": ""
        },
        {
            "id": 749250104,
            "talkRole": {
                "type": "TALK_ROLE_NPC",
                "id": "5030"
            },
            "talkContentTextMapHash": 392254074,
            "talkAssetPath": "",
            "talkAssetPathAlter": "",
            "talkAudioName": "",
            "actionBefore": "",
            "actionWhile": "",
            "actionAfter": "",
            "optionIcon": ""
        }
    ]
}