{
    "luaDataPath": "",
    "isSimpleTalk": true,
    "entityBan": "",
    "disableNpcLod": true,
    "protectNpcMobileLod": true,
    "MNHFNFDCEFG": 7,
    "startFade": {
        "startFadeOutDuration": 0.0
    },
    "endFade": {
        "startFadeOutDuration": 0.0
    },
    "actors": [
        {
            "alias": "Avatar",
            "visible": true,
            "bornPointName": "",
            "relativePosType": "AVATAR_NEW",
            "relativePosNpcAlias": "",
            "bindMovingTargetKey": ""
        }
    ],
    "group": [
        [
            {
                "$type": "BCJBNCJOPCE",
                "type": "CAMERA_FOCUS",
                "duration": 0.10000000149011612,
                "actionId": 103,
                "KIPMIDIKECP": "",
                "BDLGHOJPJHD": "",
                "LCOJGFEOLCK": "",
                "BBBGAEDCJEL": ""
            },
            {
                "$type": "MoleMole.Config.ConfigTimeProtectAction",
                "type": "TIME_PROTECT",
                "duration": 0.10000000149011612,
                "actionId": 104
            },
            {
                "$type": "CNBNGFNKLGP",
                "type": "STEER_TO",
                "delayTime": 0.30000001192092896,
                "duration": 0.800000011920929,
                "aliasList": [
                    "Avatar"
                ],
                "actionId": 106,
                "flag": 32,
                "DEMFHGAIELL": "TO_TARGET_ADVANCED",
                "BBNLLCHBKAI": true,
                "COJBPJMLIFM": true,
                "NLIKMFJCLBP": true,
                "KIPMIDIKECP": "",
                "FDLMFGAMGJK": true,
                "AOFBAGFCGPJ": ""
            }
        ],
        [
            {
                "$type": "MoleMole.Config.ConfigUITriggerInterAction",
                "type": "UI_TRIGGER",
                "actionId": 108,
                "contextName": "QuestReadingDialog",
                "param": "120589"
            }
        ],
        [
            {
                "$type": "MoleMole.Config.ConfigTimeProtectAction",
                "type": "TIME_PROTECT",
                "duration": 0.10000000149011612,
                "actionId": 105
            }
        ]
    ],
    "groupId": [
        {
            "grpId": 2777335188,
            "nextGrpId": 2777335189
        },
        {
            "index": 1,
            "grpId": 2777335189,
            "nextGrpId": 2777335190
        },
        {
            "index": 2,
            "grpId": 2777335190,
            "nextGrpId": 2777335191
        }
    ]
}