{
    "luaDataPath": "",
    "startBlackKeepTime": 0.5,
    "entityBan": "",
    "disableNpcLod": true,
    "isAutoBanNpc": true,
    "isBanWidgetPet": true,
    "protectNpcMobileLod": true,
    "startFade": {
        "startFadeInDuration": 0.5,
        "startFadeOutDuration": 0.5
    },
    "endFade": {
        "startFadeOutDuration": 0.0
    },
    "actors": [
        {
            "alias": "Avatar",
            "visible": true,
            "bornPointName": "Q3007IndoorHomePlayerPos",
            "relativePosType": "AVATAR_NEW",
            "relativePosNpcAlias": "",
            "bindMovingTargetKey": ""
        },
        {
            "configID": 1005,
            "alias": "1005",
            "visible": true,
            "bornPointName": "Q3007IndoorHomePaimonPos",
            "relativePosType": "AVATAR_NEW",
            "relativePosNpcAlias": "",
            "bindMovingTargetKey": ""
        },
        {
            "alias": "AvatarNpc",
            "visible": true,
            "bornPointName": "Q3007IndoorHomePlayerPos",
            "removeActorType": "REMOVE",
            "relativePosType": "AVATAR_NEW",
            "relativePosNpcAlias": "",
            "bindMovingTargetKey": ""
        }
    ],
    "group": [
        [
            {
                "$type": "MoleMole.Config.ConfigTimeProtectAction",
                "type": "TIME_PROTECT",
                "duration": 0.10000000149011612
            },
            {
                "$type": "MoleMole.Config.ConfigChangeTimeInterAction",
                "type": "CHANGE_TIME",
                "toTime": 10.0,
                "force": true
            },
            {
                "$type": "IBPNIIGAIPF",
                "type": "LOOK_AT",
                "aliasList": [
                    "Avatar"
                ],
                "actionId": 119,
                "NDOMJCOFKDJ": 0.5,
                "KIPMIDIKECP": "",
                "FGPHOPBEJDE": true,
                "HJJAFGPMJNJ": "",
                "AOFBAGFCGPJ": ""
            },
            {
                "$type": "MoleMole.Config.ConfigTeleportToAction",
                "type": "TELEPORT_TO",
                "aliasList": [
                    "Avatar"
                ],
                "actionId": 121,
                "position": {
                    "x": -322.2799987792969,
                    "y": 249.62100219726562,
                    "z": 2750.383056640625
                },
                "forward": {
                    "x": 0.8199999928474426,
                    "z": -0.26100000739097595
                },
                "openLongDisTeleport": true,
                "posBindMovingTargetKey": "",
                "forwardBindMovingTargetKey": ""
            },
            {
                "$type": "MoleMole.Config.ConfigVisibleInterAction",
                "type": "VISIBLE",
                "aliasList": [
                    "Avatar"
                ],
                "actionId": 151,
                "extraParam": ""
            },
            {
                "$type": "IBPNIIGAIPF",
                "type": "LOOK_AT",
                "aliasList": [
                    "1005"
                ],
                "actionId": 118,
                "NDOMJCOFKDJ": 0.5,
                "KIPMIDIKECP": "",
                "FGPHOPBEJDE": true,
                "HJJAFGPMJNJ": "",
                "AOFBAGFCGPJ": ""
            },
            {
                "$type": "MoleMole.Config.ConfigTeleportToAction",
                "type": "TELEPORT_TO",
                "aliasList": [
                    "1005"
                ],
                "actionId": 120,
                "position": {
                    "x": -320.468994140625,
                    "y": 249.62100219726562,
                    "z": 2748.215087890625
                },
                "forward": {
                    "x": 0.5569999814033508,
                    "z": 0.8759999871253967
                },
                "openLongDisTeleport": true,
                "posBindMovingTargetKey": "",
                "forwardBindMovingTargetKey": ""
            },
            {
                "$type": "MoleMole.Config.ConfigVisibleInterAction",
                "type": "VISIBLE",
                "aliasList": [
                    "AvatarNpc"
                ],
                "actionId": 149,
                "extraParam": ""
            },
            {
                "$type": "IBPNIIGAIPF",
                "type": "LOOK_AT",
                "aliasList": [
                    "AvatarNpc"
                ],
                "actionId": 152,
                "NDOMJCOFKDJ": 0.5,
                "KIPMIDIKECP": "",
                "FGPHOPBEJDE": true,
                "HJJAFGPMJNJ": "",
                "AOFBAGFCGPJ": ""
            },
            {
                "$type": "MoleMole.Config.ConfigPlayerNPCEnergyTypeAction",
                "type": "SET_PLAYER_NPC_ENERGY_TYPE",
                "aliasList": [
                    "AvatarNpc"
                ],
                "actionId": 155,
                "setHeroEngergyType": true
            }
        ],
        [
            {
                "$type": "MoleMole.Config.ConfigSimpleUIShowInterAction",
                "type": "SIMPLE_UI_SHOW",
                "actionId": 114,
                "contextName": "BlinkDialog",
                "param": ""
            },
            {
                "$type": "BCJBNCJOPCE",
                "type": "CAMERA_MOVE",
                "duration": 1.0,
                "actionId": 117,
                "AKFGKKEOEFA": {
                    "x": -319.6310119628906,
                    "y": 250.25799560546875,
                    "z": 2749.611083984375
                },
                "NGEBMAEFFGJ": {
                    "x": -320.02301025390625,
                    "y": 251.06399536132812,
                    "z": 2749.16796875
                },
                "LIGHLBKBDEI": 35.0,
                "GFIOJGJJGCN": 6,
                "ABAEPHOGOFF": "EaseInOutCubic",
                "KFDBMBFFANN": {},
                "IEJBKHHEJEN": true,
                "GDHBGCNKHDE": 13.486000061035156,
                "CEDHIBLHMKP": false,
                "KIPMIDIKECP": "",
                "ANFHNPOCMNI": true,
                "BDLGHOJPJHD": "",
                "LCOJGFEOLCK": "",
                "BBBGAEDCJEL": ""
            },
            {
                "$type": "MoleMole.Config.ConfigCameraDOFAction",
                "type": "CAMERA_DOF",
                "actionId": 134,
                "enabled": true,
                "focusDistance": 4.900000095367432,
                "focusRange": 3.950000047683716,
                "nearFocalDistance": 8.15999984741211,
                "nearFocalTransDistance": 1.7899999618530273,
                "dofBlurAmount": 25.0,
                "quality": 3
            },
            {
                "$type": "MoleMole.Config.ConfigTeleportToAction",
                "type": "TELEPORT_TO",
                "aliasList": [
                    "1005"
                ],
                "actionId": 116,
                "position": {
                    "x": -320.468994140625,
                    "y": 249.62100219726562,
                    "z": 2748.215087890625
                },
                "forward": {
                    "x": 0.5569999814033508,
                    "z": 0.8759999871253967
                },
                "openLongDisTeleport": true,
                "posBindMovingTargetKey": "",
                "forwardBindMovingTargetKey": ""
            },
            {
                "$type": "MoleMole.Config.ConfigPlayPostEffectAction",
                "type": "PLAY_POST_EFFECT",
                "actionId": 166,
                "assetName": "PostEffect_Scene_MemoryEffect02"
            },
            {
                "$type": "MoleMole.Config.ConfigTimeProtectAction",
                "type": "TIME_PROTECT",
                "duration": 1.621999979019165,
                "actionId": 173
            },
            {
                "$type": "KCBOGFFHPBD",
                "type": "BODY_LANG",
                "delayTime": 1.4910000562667847,
                "aliasList": [
                    "1005"
                ],
                "actionId": 123,
                "GPIEDGOMCGL": 1410,
                "FHLAMNNHMFA": true,
                "KCEHDJLKIAL": false,
                "KCOLHJBDILK": true,
                "AOFEDPBOOIE": ""
            },
            {
                "$type": "CCEEIGNAILH",
                "type": "DIALOG",
                "delayTime": 1.4910000562667847,
                "aliasList": [
                    "1005"
                ],
                "KICBIOMGHIN": 30091001,
                "PNCCODDABKI": 3.821000099182129
            },
            {
                "$type": "DNAEECJNBFB",
                "type": "EMO_SYNC",
                "delayTime": 1.4910000562667847,
                "aliasList": [
                    "1005"
                ],
                "EOGJDJKPPGE": "Cs_Emo_Avatar_Simple_Common_Set/Cs_Emo_Avatar_Talk/Cs_Emo_Avatar_MainLine/Cs_Emo_Avatar_Sumeru1/Cs_Emo_30091001",
                "IHCBGPABDLE": "",
                "CIKPDMODFPL": "",
                "HDIAHFFHNGE": "",
                "BOAAGJEEFDD": "",
                "PFDPJKHPADE": "",
                "DALINBJAHOC": [
                    4086007076339377591,
                    11079037166322963423,
                    7813144453887660411,
                    5606849415449345444
                ]
            },
            {
                "$type": "MoleMole.Config.ConfigPlayPostEffectAction",
                "type": "PLAY_POST_EFFECT",
                "delayTime": 1.930999994277954,
                "actionId": 167,
                "assetName": "PostEffect_Scene_MemoryEffect02",
                "isRemove": true
            },
            {
                "$type": "MoleMole.Config.ConfigPlayPostEffectAction",
                "type": "PLAY_POST_EFFECT",
                "delayTime": 2.4700000286102295,
                "actionId": 168,
                "assetName": "PostEffect_Scene_MemoryEffect02"
            },
            {
                "$type": "MoleMole.Config.ConfigPlayPostEffectAction",
                "type": "PLAY_POST_EFFECT",
                "delayTime": 2.569999933242798,
                "actionId": 169,
                "assetName": "PostEffect_Scene_MemoryEffect02",
                "isRemove": true
            },
            {
                "$type": "MoleMole.Config.ConfigPlayPostEffectAction",
                "type": "PLAY_POST_EFFECT",
                "delayTime": 2.6700000762939453,
                "actionId": 170,
                "assetName": "PostEffect_Scene_MemoryEffect02"
            },
            {
                "$type": "MoleMole.Config.ConfigPlayPostEffectAction",
                "type": "PLAY_POST_EFFECT",
                "delayTime": 2.7699999809265137,
                "actionId": 171,
                "assetName": "PostEffect_Scene_MemoryEffect02",
                "isRemove": true
            },
            {
                "$type": "MoleMole.Config.ConfigCameraDOFAction",
                "type": "CAMERA_DOF",
                "delayTime": 3.2360000610351562,
                "duration": 0.5,
                "actionId": 136,
                "enabled": true,
                "dofBlurAmount": 5.0,
                "quality": 3
            },
            {
                "$type": "BCJBNCJOPCE",
                "type": "CAMERA_MOVE",
                "delayTime": 3.4539999961853027,
                "duration": 1.9479999542236328,
                "actionId": 115,
                "AKFGKKEOEFA": {
                    "x": -319.6310119628906,
                    "y": 250.25799560546875,
                    "z": 2749.611083984375
                },
                "NGEBMAEFFGJ": {
                    "x": -320.12298583984375,
                    "y": 250.56100463867188,
                    "z": 2748.794921875
                },
                "LIGHLBKBDEI": 35.0,
                "ABAEPHOGOFF": "EaseInOutCubic",
                "KFDBMBFFANN": {},
                "IEJBKHHEJEN": true,
                "CEDHIBLHMKP": false,
                "KIPMIDIKECP": "",
                "ANFHNPOCMNI": true,
                "BDLGHOJPJHD": "",
                "LCOJGFEOLCK": "",
                "BBBGAEDCJEL": ""
            },
            {
                "$type": "MoleMole.Config.ConfigCameraDOFAction",
                "type": "CAMERA_DOF",
                "delayTime": 3.7909998893737793,
                "actionId": 176,
                "dofBlurAmount": 1.0,
                "quality": 3
            },
            {
                "$type": "KCBOGFFHPBD",
                "type": "BODY_LANG",
                "delayTime": 4.0289998054504395,
                "aliasList": [
                    "1005"
                ],
                "actionId": 133,
                "AHGOBCDHCMC": true,
                "FHLAMNNHMFA": true,
                "KCEHDJLKIAL": false,
                "KCOLHJBDILK": true,
                "AOFEDPBOOIE": ""
            },
            {
                "$type": "KCBOGFFHPBD",
                "type": "BODY_LANG",
                "delayTime": 4.868000030517578,
                "aliasList": [
                    "1005"
                ],
                "actionId": 126,
                "GPIEDGOMCGL": 1100,
                "FHLAMNNHMFA": true,
                "KCEHDJLKIAL": false,
                "KCOLHJBDILK": true,
                "AOFEDPBOOIE": ""
            },
            {
                "$type": "IBPNIIGAIPF",
                "type": "LOOK_AT",
                "delayTime": 6.940000057220459,
                "aliasList": [
                    "1005"
                ],
                "actionId": 124,
                "GGIENKFBOGL": true,
                "useTargetPos": true,
                "GCOONJBHNIM": true,
                "JHNJNNOPJKG": {
                    "x": -319.84600830078125,
                    "y": 250.66400146484375,
                    "z": 2749.422119140625
                },
                "NDOMJCOFKDJ": 0.5,
                "KIPMIDIKECP": "",
                "AHLPNEGAKGG": "NONE",
                "FGPHOPBEJDE": true,
                "HJJAFGPMJNJ": "",
                "AOFBAGFCGPJ": ""
            },
            {
                "$type": "OMPHNKNPPJO",
                "type": "LOOK_AT_EYECTRL",
                "delayTime": 6.940000057220459,
                "aliasList": [
                    "1005"
                ],
                "actionId": 129,
                "useTargetPos": false,
                "MHBPPJNDKJC": 1.0,
                "KIPMIDIKECP": "",
                "JJEGGHOEIPD": "Face"
            }
        ],
        [
            {
                "$type": "BCJBNCJOPCE",
                "type": "CAMERA_MOVE",
                "duration": 1.684000015258789,
                "actionId": 128,
                "AKFGKKEOEFA": {
                    "x": -319.79901123046875,
                    "y": 250.66900634765625,
                    "z": 2749.805908203125
                },
                "NGEBMAEFFGJ": {
                    "x": -320.19000244140625,
                    "y": 250.60400390625,
                    "z": 2748.887939453125
                },
                "LIGHLBKBDEI": 35.0,
                "ABAEPHOGOFF": "EaseInOutCubic",
                "KFDBMBFFANN": {},
                "IEJBKHHEJEN": true,
                "GDHBGCNKHDE": 357.7250061035156,
                "CEDHIBLHMKP": false,
                "KIPMIDIKECP": "",
                "ANFHNPOCMNI": true,
                "BDLGHOJPJHD": "",
                "LCOJGFEOLCK": "",
                "BBBGAEDCJEL": ""
            },
            {
                "$type": "MoleMole.Config.ConfigPlayPostEffectAction",
                "type": "PLAY_POST_EFFECT",
                "actionId": 172,
                "assetName": "PostEffect_Scene_MemoryEffect02",
                "isRemove": true
            },
            {
                "$type": "CCEEIGNAILH",
                "type": "DIALOG",
                "aliasList": [
                    "1005"
                ],
                "KICBIOMGHIN": 30091002,
                "PNCCODDABKI": 0.5
            },
            {
                "$type": "KCBOGFFHPBD",
                "type": "BODY_LANG",
                "aliasList": [
                    "1005"
                ],
                "actionId": 127,
                "GPIEDGOMCGL": 1230,
                "FHLAMNNHMFA": true,
                "KCEHDJLKIAL": false,
                "KCOLHJBDILK": true,
                "AOFEDPBOOIE": ""
            },
            {
                "$type": "DNAEECJNBFB",
                "type": "EMO_SYNC",
                "delayTime": 0.00800000037997961,
                "aliasList": [
                    "1005"
                ],
                "EOGJDJKPPGE": "Cs_Emo_Avatar_Simple_Common_Set/Cs_Emo_Avatar_Talk/Cs_Emo_Avatar_MainLine/Cs_Emo_Avatar_Sumeru1/Cs_Emo_30091002",
                "IHCBGPABDLE": "",
                "CIKPDMODFPL": "",
                "HDIAHFFHNGE": "",
                "BOAAGJEEFDD": "",
                "PFDPJKHPADE": "",
                "DALINBJAHOC": [
                    16308030732906075786,
                    12265148196634806505,
                    4113241601716594663,
                    3739423065529708487
                ]
            },
            {
                "$type": "IBPNIIGAIPF",
                "type": "LOOK_AT",
                "delayTime": 0.4189999997615814,
                "aliasList": [
                    "1005"
                ],
                "actionId": 130,
                "GGIENKFBOGL": true,
                "useTargetPos": true,
                "GCOONJBHNIM": true,
                "JHNJNNOPJKG": {
                    "x": -320.0150146484375,
                    "y": 250.9320068359375,
                    "z": 2749.31201171875
                },
                "NDOMJCOFKDJ": 0.5,
                "KIPMIDIKECP": "",
                "AHLPNEGAKGG": "NONE",
                "FGPHOPBEJDE": true,
                "HJJAFGPMJNJ": "",
                "AOFBAGFCGPJ": ""
            },
            {
                "$type": "OMPHNKNPPJO",
                "type": "LOOK_AT_EYECTRL",
                "delayTime": 0.4320000112056732,
                "aliasList": [
                    "1005"
                ],
                "actionId": 131,
                "useTargetPos": false,
                "MHBPPJNDKJC": 1.0,
                "KIPMIDIKECP": "",
                "JJEGGHOEIPD": "Face"
            },
            {
                "$type": "BCJBNCJOPCE",
                "type": "CAMERA_MOVE",
                "delayTime": 1.7109999656677246,
                "duration": 1.2430000305175781,
                "actionId": 132,
                "AKFGKKEOEFA": {
                    "x": -319.79901123046875,
                    "y": 250.66900634765625,
                    "z": 2749.805908203125
                },
                "NGEBMAEFFGJ": {
                    "x": -320.1629943847656,
                    "y": 250.76100158691406,
                    "z": 2748.87890625
                },
                "LIGHLBKBDEI": 35.0,
                "ABAEPHOGOFF": "EaseInOutCubic",
                "KFDBMBFFANN": {},
                "IEJBKHHEJEN": true,
                "CEDHIBLHMKP": false,
                "KIPMIDIKECP": "",
                "ANFHNPOCMNI": true,
                "BDLGHOJPJHD": "",
                "LCOJGFEOLCK": "",
                "BBBGAEDCJEL": ""
            }
        ],
        [
            {
                "$type": "BCJBNCJOPCE",
                "type": "CAMERA_MOVE",
                "duration": 1.0,
                "actionId": 141,
                "AKFGKKEOEFA": {
                    "x": -322.75,
                    "y": 251.4010009765625,
                    "z": 2745.966064453125
                },
                "NGEBMAEFFGJ": {
                    "x": -322.1719970703125,
                    "y": 251.21099853515625,
                    "z": 2746.759033203125
                },
                "LIGHLBKBDEI": 25.0,
                "GFIOJGJJGCN": 6,
                "ABAEPHOGOFF": "EaseInOutCubic",
                "KFDBMBFFANN": {},
                "IEJBKHHEJEN": true,
                "GDHBGCNKHDE": 359.531005859375,
                "CEDHIBLHMKP": false,
                "KIPMIDIKECP": "",
                "ANFHNPOCMNI": true,
                "BDLGHOJPJHD": "",
                "LCOJGFEOLCK": "",
                "BBBGAEDCJEL": ""
            },
            {
                "$type": "MoleMole.Config.ConfigTimeProtectAction",
                "type": "TIME_PROTECT",
                "duration": 5.065000057220459,
                "actionId": 147
            },
            {
                "$type": "KCBOGFFHPBD",
                "type": "BODY_LANG",
                "aliasList": [
                    "Avatar"
                ],
                "actionId": 142,
                "FHLAMNNHMFA": true,
                "KCEHDJLKIAL": false,
                "KCOLHJBDILK": true,
                "AOFEDPBOOIE": ""
            },
            {
                "$type": "KCBOGFFHPBD",
                "type": "BODY_LANG",
                "aliasList": [
                    "1005"
                ],
                "actionId": 146,
                "AHGOBCDHCMC": true,
                "FHLAMNNHMFA": true,
                "KCEHDJLKIAL": false,
                "KCOLHJBDILK": true,
                "AOFEDPBOOIE": ""
            },
            {
                "$type": "DNAEECJNBFB",
                "type": "EMO_SYNC",
                "aliasList": [
                    "1005"
                ],
                "actionId": 174,
                "EOGJDJKPPGE": "",
                "IHCBGPABDLE": "Cs_Emo_Pet_Common/Cs_Emo_Paimon_Smile01",
                "CIKPDMODFPL": "Cs_Emo_Pet_Common/Cs_Emo_Paimon_Normal01",
                "HDIAHFFHNGE": "",
                "BOAAGJEEFDD": "",
                "PFDPJKHPADE": "",
                "MJAONEKDECJ": [
                    14444568113189515118,
                    6334906583242748066,
                    8352861918685421043,
                    6062231986990823827
                ],
                "DAALMFGCAOO": [
                    312453201720762420,
                    9562322946389574798,
                    18422542724361145117,
                    17949024460815132449
                ]
            },
            {
                "$type": "MoleMole.Config.ConfigTeleportToAction",
                "type": "TELEPORT_TO",
                "aliasList": [
                    "AvatarNpc"
                ],
                "actionId": 148,
                "position": {
                    "x": -321.0979919433594,
                    "y": 249.63099670410156,
                    "z": 2748.55908203125
                },
                "forward": {
                    "x": -0.460999995470047,
                    "z": -0.8870000243186951
                },
                "openLongDisTeleport": true,
                "posBindMovingTargetKey": "",
                "forwardBindMovingTargetKey": ""
            },
            {
                "$type": "MoleMole.Config.ConfigVisibleInterAction",
                "type": "VISIBLE",
                "aliasList": [
                    "AvatarNpc"
                ],
                "actionId": 150,
                "isVisible": true,
                "extraParam": ""
            },
            {
                "$type": "KCBOGFFHPBD",
                "type": "BODY_LANG",
                "aliasList": [
                    "AvatarNpc"
                ],
                "actionId": 153,
                "GPIEDGOMCGL": 1343,
                "FHLAMNNHMFA": true,
                "KCEHDJLKIAL": false,
                "KCOLHJBDILK": true,
                "AOFEDPBOOIE": ""
            },
            {
                "$type": "DNAEECJNBFB",
                "type": "EMO_SYNC",
                "aliasList": [
                    "AvatarNpc"
                ],
                "actionId": 162,
                "EOGJDJKPPGE": "",
                "IHCBGPABDLE": "Cs_Emo_Avatar_Common/Cs_Emo_Avatar_Default01",
                "CIKPDMODFPL": "Cs_Emo_Avatar_Common/Cs_Emo_Avatar_LowClosed01",
                "HDIAHFFHNGE": "",
                "BOAAGJEEFDD": "",
                "PFDPJKHPADE": "",
                "MIDKJONOACI": false,
                "MJAONEKDECJ": [
                    1010565500959774114,
                    17914558573000180712,
                    14498871351621154070,
                    14348654671849899985
                ],
                "DAALMFGCAOO": [
                    13948284213264595615,
                    7688108384441439599,
                    13936602145956991039,
                    10261157731837374257
                ]
            },
            {
                "$type": "BCJBNCJOPCE",
                "type": "CAMERA_MOVE",
                "delayTime": 0.10000000149011612,
                "duration": 6.798999786376953,
                "actionId": 161,
                "AKFGKKEOEFA": {
                    "x": -322.010009765625,
                    "y": 251.2689971923828,
                    "z": 2747.0390625
                },
                "NGEBMAEFFGJ": {
                    "x": -321.4320068359375,
                    "y": 251.07899475097656,
                    "z": 2747.83203125
                },
                "LIGHLBKBDEI": 25.0,
                "ABAEPHOGOFF": "Linear",
                "KFDBMBFFANN": {},
                "IEJBKHHEJEN": true,
                "GDHBGCNKHDE": 359.531005859375,
                "CEDHIBLHMKP": false,
                "KIPMIDIKECP": "",
                "ANFHNPOCMNI": true,
                "BDLGHOJPJHD": "",
                "LCOJGFEOLCK": "",
                "BBBGAEDCJEL": ""
            },
            {
                "$type": "CNBNGFNKLGP",
                "type": "STEER_TO",
                "delayTime": 0.5730000138282776,
                "duration": 1.0,
                "aliasList": [
                    "1005"
                ],
                "actionId": 140,
                "DEMFHGAIELL": "ABSOLUTE",
                "KDKLEJFHDJG": {
                    "x": -320.9309997558594,
                    "y": 249.63099670410156,
                    "z": 2747.72412109375
                },
                "BBNLLCHBKAI": true,
                "KIPMIDIKECP": "",
                "FDLMFGAMGJK": true,
                "AOFBAGFCGPJ": ""
            },
            {
                "$type": "IBPNIIGAIPF",
                "type": "LOOK_AT",
                "delayTime": 0.9890000224113464,
                "aliasList": [
                    "1005"
                ],
                "actionId": 160,
                "NDOMJCOFKDJ": 0.5,
                "KIPMIDIKECP": "",
                "FGPHOPBEJDE": true,
                "HJJAFGPMJNJ": "",
                "AOFBAGFCGPJ": ""
            },
            {
                "$type": "MoleMole.Config.ConfigMoveToAction",
                "type": "MOVE_TO",
                "delayTime": 1.8179999589920044,
                "aliasList": [
                    "1005"
                ],
                "actionId": 144,
                "moveType": "WALK",
                "routeList": [
                    {
                        "x": -323.3689880371094,
                        "y": 249.63099670410156,
                        "z": 2746.14404296875
                    }
                ],
                "exactlyMove": true,
                "closeNavMesh": true,
                "bindMovingTargetKey": ""
            },
            {
                "$type": "DNAEECJNBFB",
                "type": "EMO_SYNC",
                "delayTime": 4.671999931335449,
                "aliasList": [
                    "AvatarNpc"
                ],
                "actionId": 163,
                "EOGJDJKPPGE": "",
                "IHCBGPABDLE": "Cs_Emo_Avatar_Common/Cs_Emo_Avatar_Default01",
                "CIKPDMODFPL": "Cs_Emo_Avatar_Common/Cs_Emo_Avatar_Default01_B",
                "HDIAHFFHNGE": "",
                "BOAAGJEEFDD": "",
                "PFDPJKHPADE": "",
                "MJAONEKDECJ": [
                    1010565500959774114,
                    17914558573000180712,
                    14498871351621154070,
                    14348654671849899985
                ],
                "DAALMFGCAOO": [
                    12199605016063642592,
                    6659610500948409138,
                    10783156204328777859,
                    13383650154785247612
                ]
            }
        ],
        [
            {
                "$type": "MoleMole.Config.ConfigSimpleBlackScreenAction",
                "type": "SIMPLE_BLACK_SCREEN",
                "durationToBlack": 0.5,
                "durationKeepBlack": 1.0,
                "durationFromBlack": 0.5,
                "textMapID": ""
            },
            {
                "$type": "MoleMole.Config.ConfigTimeProtectAction",
                "type": "TIME_PROTECT",
                "duration": 0.699999988079071
            },
            {
                "$type": "MoleMole.Config.ConfigTeleportToAction",
                "type": "TELEPORT_TO",
                "aliasList": [
                    "Avatar"
                ],
                "actionId": 137,
                "position": {
                    "x": -320.7040100097656,
                    "y": 249.63099670410156,
                    "z": 2748.5849609375
                },
                "forward": {
                    "x": -0.6600000262260437,
                    "z": -0.7639999985694885
                },
                "openLongDisTeleport": true,
                "posBindMovingTargetKey": "",
                "forwardBindMovingTargetKey": ""
            },
            {
                "$type": "BCJBNCJOPCE",
                "type": "CAMERA_MOVE",
                "delayTime": 0.6000000238418579,
                "duration": 0.20000000298023224,
                "actionId": 154,
                "AKFGKKEOEFA": {
                    "x": -319.7619934082031,
                    "y": 251.0709991455078,
                    "z": 2751.302978515625
                },
                "NGEBMAEFFGJ": {
                    "x": -320.14300537109375,
                    "y": 250.99899291992188,
                    "z": 2750.381103515625
                },
                "GFIOJGJJGCN": 6,
                "ABAEPHOGOFF": "EaseInOutCubic",
                "KFDBMBFFANN": {},
                "IEJBKHHEJEN": true,
                "GDHBGCNKHDE": 359.5379943847656,
                "CEDHIBLHMKP": false,
                "KIPMIDIKECP": "",
                "ANFHNPOCMNI": true,
                "BDLGHOJPJHD": "",
                "LCOJGFEOLCK": "",
                "BBBGAEDCJEL": ""
            },
            {
                "$type": "MoleMole.Config.ConfigVisibleInterAction",
                "type": "VISIBLE",
                "delayTime": 0.6000000238418579,
                "aliasList": [
                    "Avatar"
                ],
                "actionId": 158,
                "isVisible": true,
                "extraParam": ""
            },
            {
                "$type": "MoleMole.Config.ConfigPlayerNPCEnergyTypeAction",
                "type": "SET_PLAYER_NPC_ENERGY_TYPE",
                "delayTime": 0.6000000238418579,
                "aliasList": [
                    "AvatarNpc"
                ],
                "actionId": 156
            },
            {
                "$type": "MoleMole.Config.ConfigVisibleInterAction",
                "type": "VISIBLE",
                "delayTime": 0.6000000238418579,
                "aliasList": [
                    "AvatarNpc"
                ],
                "actionId": 157,
                "extraParam": ""
            }
        ]
    ],
    "groupId": [
        {
            "grpId": 1113129473,
            "nextGrpId": 1113129474
        },
        {
            "index": 1,
            "grpId": 1113129474,
            "nextGrpId": 1113129475
        },
        {
            "index": 2,
            "grpId": 1113129475,
            "nextGrpId": 1113129476
        },
        {
            "index": 3,
            "grpId": 1113129476,
            "nextGrpId": 1113129477
        },
        {
            "index": 4,
            "grpId": 1113129477,
            "nextGrpId": 1113129478
        }
    ],
    "freeStyleDic": {
        "1025": [
            1343
        ],
        "1026": [
            1343
        ]
    }
}