{
    "luaDataPath": "",
    "dontUseDefaultFinish": true,
    "startBlackKeepTime": 0.5,
    "entityBan": "",
    "disableNpcLod": true,
    "isAutoBanNpc": true,
    "isBanWidgetPet": true,
    "protectNpcMobileLod": true,
    "startFade": {
        "startFadeInDuration": 0.5,
        "startFadeOutDuration": 0.5
    },
    "endFade": {
        "startFadeOutDuration": 0.0
    },
    "actors": [
        {
            "alias": "Avatar",
            "visible": true,
            "bornPointName": "Q3007Day1EscapePlayer",
            "relativePosType": "AVATAR_NEW",
            "relativePosNpcAlias": "",
            "bindMovingTargetKey": ""
        },
        {
            "configID": 1052,
            "alias": "1052",
            "visible": true,
            "bornPointName": "Q3007Day1EscapeDicia",
            "relativePosType": "AVATAR_NEW",
            "relativePosNpcAlias": "",
            "bindMovingTargetKey": ""
        },
        {
            "configID": 1005,
            "alias": "1005",
            "visible": true,
            "bornPointName": "Q3007Day1EscapePaimon",
            "removeActorType": "REMOVE_WITH_DISAPPEAR",
            "relativePosType": "AVATAR_NEW",
            "relativePosNpcAlias": "",
            "bindMovingTargetKey": ""
        },
        {
            "configID": 12555,
            "alias": "12555",
            "visible": true,
            "bornPointName": "Q3007Day1EscapeDina",
            "relativePosType": "AVATAR_NEW",
            "relativePosNpcAlias": "",
            "bindMovingTargetKey": ""
        }
    ],
    "group": [
        [
            {
                "$type": "MoleMole.Config.ConfigTimeProtectAction",
                "type": "TIME_PROTECT",
                "duration": 1.0
            },
            {
                "$type": "MoleMole.Config.ConfigBlackScreenAction",
                "type": "BLACK_SCREEN",
                "actionId": 130,
                "blackScreenType": "KEEP_BLACK",
                "durationKeepBlack": 1.0,
                "inteePos": "",
                "textMapID": "",
                "useTextFade": true
            },
            {
                "$type": "BCJBNCJOPCE",
                "type": "CAMERA_MOVE",
                "duration": 0.20000000298023224,
                "actionId": 152,
                "AKFGKKEOEFA": {
                    "x": -457.10400390625,
                    "y": 238.16799926757812,
                    "z": 2766.06005859375
                },
                "NGEBMAEFFGJ": {
                    "x": -456.19500732421875,
                    "y": 238.14700317382812,
                    "z": 2766.47607421875
                },
                "LIGHLBKBDEI": 20.0,
                "GFIOJGJJGCN": 6,
                "ABAEPHOGOFF": "EaseInOutCubic",
                "KFDBMBFFANN": {},
                "IEJBKHHEJEN": true,
                "CEDHIBLHMKP": false,
                "KIPMIDIKECP": "",
                "ANFHNPOCMNI": true,
                "BDLGHOJPJHD": "",
                "LCOJGFEOLCK": "",
                "BBBGAEDCJEL": ""
            },
            {
                "$type": "MoleMole.Config.ConfigTeleportToAction",
                "type": "TELEPORT_TO",
                "aliasList": [
                    "Avatar"
                ],
                "actionId": 128,
                "position": {
                    "x": -447.71099853515625,
                    "y": 236.69700622558594,
                    "z": 2763.735107421875
                },
                "forward": {
                    "x": -2.450000047683716,
                    "z": 1.2259999513626099
                },
                "openLongDisTeleport": true,
                "posBindMovingTargetKey": "",
                "forwardBindMovingTargetKey": ""
            },
            {
                "$type": "IBPNIIGAIPF",
                "type": "LOOK_AT",
                "aliasList": [
                    "Avatar"
                ],
                "actionId": 133,
                "NDOMJCOFKDJ": 0.5,
                "KIPMIDIKECP": "",
                "FGPHOPBEJDE": true,
                "HJJAFGPMJNJ": "",
                "AOFBAGFCGPJ": ""
            },
            {
                "$type": "MoleMole.Config.ConfigVisibleInterAction",
                "type": "VISIBLE",
                "aliasList": [
                    "Avatar"
                ],
                "actionId": 145,
                "extraParam": ""
            },
            {
                "$type": "MoleMole.Config.ConfigTeleportToAction",
                "type": "TELEPORT_TO",
                "aliasList": [
                    "1052"
                ],
                "actionId": 124,
                "position": {
                    "x": -454.739013671875,
                    "y": 236.69700622558594,
                    "z": 2767.48291015625
                },
                "forward": {
                    "x": -0.7210000157356262,
                    "z": -0.6840000152587891
                },
                "openLongDisTeleport": true,
                "posBindMovingTargetKey": "",
                "forwardBindMovingTargetKey": ""
            },
            {
                "$type": "IBPNIIGAIPF",
                "type": "LOOK_AT",
                "aliasList": [
                    "1052"
                ],
                "actionId": 127,
                "GGIENKFBOGL": true,
                "useTargetPos": true,
                "GCOONJBHNIM": true,
                "JHNJNNOPJKG": {
                    "x": -456.15899658203125,
                    "y": 238.27699279785156,
                    "z": 2766.345947265625
                },
                "NDOMJCOFKDJ": 0.5,
                "KIPMIDIKECP": "",
                "AHLPNEGAKGG": "NONE",
                "FGPHOPBEJDE": true,
                "HJJAFGPMJNJ": "",
                "AOFBAGFCGPJ": ""
            },
            {
                "$type": "MoleMole.Config.ConfigChangeNPCMatAction",
                "type": "CHANGE_NPC_MAT",
                "aliasList": [
                    "1052"
                ],
                "actionId": 197,
                "rendererName": "Body",
                "matIndex": 1,
                "matPath": "Assets/OriginalResRepos/ART/Char/Avatar/Avatar_Lady_Claymore_Dehya/Material/Avatar_Lady_Claymore_DehyaInjured_Mat_Body"
            },
            {
                "$type": "IBPNIIGAIPF",
                "type": "LOOK_AT",
                "aliasList": [
                    "1005"
                ],
                "actionId": 132,
                "NDOMJCOFKDJ": 0.5,
                "KIPMIDIKECP": "",
                "FGPHOPBEJDE": true,
                "HJJAFGPMJNJ": "",
                "AOFBAGFCGPJ": ""
            },
            {
                "$type": "MoleMole.Config.ConfigVisibleInterAction",
                "type": "VISIBLE",
                "aliasList": [
                    "1005"
                ],
                "actionId": 139,
                "extraParam": ""
            },
            {
                "$type": "MoleMole.Config.ConfigTeleportToAction",
                "type": "TELEPORT_TO",
                "aliasList": [
                    "1005"
                ],
                "actionId": 151,
                "position": {
                    "x": -447.71099853515625,
                    "y": 236.69700622558594,
                    "z": 2762.625
                },
                "forward": {
                    "x": -2.944000005722046,
                    "z": 1.5529999732971191
                },
                "openLongDisTeleport": true,
                "posBindMovingTargetKey": "",
                "forwardBindMovingTargetKey": ""
            },
            {
                "$type": "MoleMole.Config.ConfigTeleportToAction",
                "type": "TELEPORT_TO",
                "aliasList": [
                    "12555"
                ],
                "actionId": 126,
                "position": {
                    "x": -456.2300109863281,
                    "y": 236.69700622558594,
                    "z": 2766.27392578125
                },
                "forward": {
                    "x": 1.2710000276565552,
                    "z": 0.9929999709129333
                },
                "openLongDisTeleport": true,
                "posBindMovingTargetKey": "",
                "forwardBindMovingTargetKey": ""
            },
            {
                "$type": "IBPNIIGAIPF",
                "type": "LOOK_AT",
                "aliasList": [
                    "12555"
                ],
                "actionId": 129,
                "GGIENKFBOGL": true,
                "useTargetPos": true,
                "GCOONJBHNIM": true,
                "JHNJNNOPJKG": {
                    "x": -454.7349853515625,
                    "y": 238.2259979248047,
                    "z": 2767.47705078125
                },
                "NDOMJCOFKDJ": 0.5,
                "KIPMIDIKECP": "",
                "AHLPNEGAKGG": "NONE",
                "FGPHOPBEJDE": true,
                "HJJAFGPMJNJ": "",
                "AOFBAGFCGPJ": ""
            }
        ],
        [
            {
                "$type": "MoleMole.Config.ConfigBlackScreenAction",
                "type": "BLACK_SCREEN",
                "actionId": 131,
                "blackScreenType": "FROM_BLACK",
                "durationFromBlack": 0.5,
                "inteePos": "",
                "textMapID": "",
                "useTextFade": true
            },
            {
                "$type": "BCJBNCJOPCE",
                "type": "CAMERA_MOVE",
                "duration": 1.0,
                "actionId": 134,
                "AKFGKKEOEFA": {
                    "x": -457.10400390625,
                    "y": 238.16799926757812,
                    "z": 2766.06005859375
                },
                "NGEBMAEFFGJ": {
                    "x": -456.19500732421875,
                    "y": 238.14700317382812,
                    "z": 2766.47607421875
                },
                "LIGHLBKBDEI": 20.0,
                "GFIOJGJJGCN": 6,
                "ABAEPHOGOFF": "EaseInOutCubic",
                "KFDBMBFFANN": {},
                "IEJBKHHEJEN": true,
                "CEDHIBLHMKP": false,
                "KIPMIDIKECP": "",
                "ANFHNPOCMNI": true,
                "BDLGHOJPJHD": "",
                "LCOJGFEOLCK": "",
                "BBBGAEDCJEL": ""
            },
            {
                "$type": "CCEEIGNAILH",
                "type": "DIALOG",
                "aliasList": [
                    "1052"
                ],
                "KICBIOMGHIN": 30090801,
                "PNCCODDABKI": 0.5
            },
            {
                "$type": "KCBOGFFHPBD",
                "type": "BODY_LANG",
                "aliasList": [
                    "1052"
                ],
                "actionId": 138,
                "GPIEDGOMCGL": 4041,
                "FHLAMNNHMFA": true,
                "KCEHDJLKIAL": false,
                "KCOLHJBDILK": true,
                "AOFEDPBOOIE": ""
            },
            {
                "$type": "DNAEECJNBFB",
                "type": "EMO_SYNC",
                "aliasList": [
                    "1052"
                ],
                "EOGJDJKPPGE": "Cs_Emo_Avatar_Simple_Common_Set/Cs_Emo_Avatar_Talk/Cs_Emo_Avatar_MainLine/Cs_Emo_Avatar_Sumeru1/Cs_Emo_30090801",
                "IHCBGPABDLE": "",
                "CIKPDMODFPL": "",
                "HDIAHFFHNGE": "",
                "BOAAGJEEFDD": "",
                "PFDPJKHPADE": "",
                "DALINBJAHOC": [
                    13115883431404009609,
                    16506934536677541748,
                    5419572855627589030,
                    14556581323140239387
                ]
            }
        ],
        [
            {
                "$type": "BCJBNCJOPCE",
                "type": "CAMERA_MOVE",
                "duration": 1.0,
                "actionId": 155,
                "AKFGKKEOEFA": {
                    "x": -467.6109924316406,
                    "y": 242.01100158691406,
                    "z": 2762.201904296875
                },
                "NGEBMAEFFGJ": {
                    "x": -466.6830139160156,
                    "y": 241.718994140625,
                    "z": 2762.43505859375
                },
                "LIGHLBKBDEI": 25.0,
                "GFIOJGJJGCN": 6,
                "ABAEPHOGOFF": "EaseInOutCubic",
                "KFDBMBFFANN": {},
                "IEJBKHHEJEN": true,
                "CEDHIBLHMKP": false,
                "KIPMIDIKECP": "",
                "ANFHNPOCMNI": true,
                "BDLGHOJPJHD": "",
                "LCOJGFEOLCK": "",
                "BBBGAEDCJEL": ""
            },
            {
                "$type": "MoleMole.Config.ConfigMoveToAction",
                "type": "MOVE_TO",
                "aliasList": [
                    "Avatar"
                ],
                "actionId": 144,
                "moveType": "WALK",
                "routeList": [
                    {
                        "x": -452.3919982910156,
                        "y": 236.69700622558594,
                        "z": 2766.64990234375
                    }
                ],
                "exactlyMove": true,
                "closeNavMesh": true,
                "closeAvatarNavMesh": true,
                "bindMovingTargetKey": ""
            },
            {
                "$type": "MoleMole.Config.ConfigVisibleInterAction",
                "type": "VISIBLE",
                "aliasList": [
                    "Avatar"
                ],
                "actionId": 146,
                "isVisible": true,
                "extraParam": ""
            },
            {
                "$type": "CCEEIGNAILH",
                "type": "DIALOG",
                "aliasList": [
                    "1005"
                ],
                "KICBIOMGHIN": 30090802,
                "PNCCODDABKI": 1.0549999475479126
            },
            {
                "$type": "MoleMole.Config.ConfigVisibleInterAction",
                "type": "VISIBLE",
                "aliasList": [
                    "1005"
                ],
                "actionId": 141,
                "isVisible": true,
                "extraParam": ""
            },
            {
                "$type": "MoleMole.Config.ConfigMoveToAction",
                "type": "MOVE_TO",
                "aliasList": [
                    "1005"
                ],
                "actionId": 143,
                "moveType": "WALK",
                "routeList": [
                    {
                        "x": -452.9649963378906,
                        "y": 236.69700622558594,
                        "z": 2765.868896484375
                    }
                ],
                "exactlyMove": true,
                "closeNavMesh": true,
                "bindMovingTargetKey": ""
            },
            {
                "$type": "DNAEECJNBFB",
                "type": "EMO_SYNC",
                "aliasList": [
                    "1005"
                ],
                "EOGJDJKPPGE": "Cs_Emo_Avatar_Simple_Common_Set/Cs_Emo_Avatar_Talk/Cs_Emo_Avatar_MainLine/Cs_Emo_Avatar_Sumeru1/Cs_Emo_30090802",
                "IHCBGPABDLE": "",
                "CIKPDMODFPL": "",
                "HDIAHFFHNGE": "",
                "BOAAGJEEFDD": "",
                "PFDPJKHPADE": "",
                "DALINBJAHOC": [
                    10102131752935918136,
                    10997023072724886116,
                    12608560255776111789,
                    9378466429679916180
                ]
            },
            {
                "$type": "BCJBNCJOPCE",
                "type": "CAMERA_MOVE",
                "delayTime": 0.10000000149011612,
                "duration": 4.745999813079834,
                "actionId": 196,
                "AKFGKKEOEFA": {
                    "x": -467.739013671875,
                    "y": 242.01100158691406,
                    "z": 2762.791015625
                },
                "NGEBMAEFFGJ": {
                    "x": -466.79901123046875,
                    "y": 241.718994140625,
                    "z": 2762.965087890625
                },
                "LIGHLBKBDEI": 25.0,
                "ABAEPHOGOFF": "EaseOutQuad",
                "KFDBMBFFANN": {},
                "IEJBKHHEJEN": true,
                "CEDHIBLHMKP": false,
                "KIPMIDIKECP": "",
                "ANFHNPOCMNI": true,
                "BDLGHOJPJHD": "",
                "LCOJGFEOLCK": "",
                "BBBGAEDCJEL": ""
            },
            {
                "$type": "IBPNIIGAIPF",
                "type": "LOOK_AT",
                "delayTime": 0.6380000114440918,
                "aliasList": [
                    "1052"
                ],
                "actionId": 147,
                "GGIENKFBOGL": true,
                "useTargetPos": true,
                "GCOONJBHNIM": true,
                "JHNJNNOPJKG": {
                    "x": -453.00201416015625,
                    "y": 238.00399780273438,
                    "z": 2765.8759765625
                },
                "NDOMJCOFKDJ": 0.5,
                "KIPMIDIKECP": "",
                "AHLPNEGAKGG": "NONE",
                "FGPHOPBEJDE": true,
                "HJJAFGPMJNJ": "",
                "AOFBAGFCGPJ": ""
            },
            {
                "$type": "CNBNGFNKLGP",
                "type": "STEER_TO",
                "delayTime": 0.6380000114440918,
                "duration": 1.0,
                "aliasList": [
                    "1052"
                ],
                "actionId": 148,
                "DEMFHGAIELL": "ABSOLUTE",
                "KDKLEJFHDJG": {
                    "x": -453.7300109863281,
                    "y": 236.69700622558594,
                    "z": 2766.947021484375
                },
                "BBNLLCHBKAI": true,
                "KIPMIDIKECP": "",
                "FDLMFGAMGJK": true,
                "AOFBAGFCGPJ": ""
            },
            {
                "$type": "IBPNIIGAIPF",
                "type": "LOOK_AT",
                "delayTime": 0.9710000157356262,
                "aliasList": [
                    "12555"
                ],
                "actionId": 149,
                "GGIENKFBOGL": true,
                "useTargetPos": true,
                "GCOONJBHNIM": true,
                "JHNJNNOPJKG": {
                    "x": -453.00201416015625,
                    "y": 238.00399780273438,
                    "z": 2765.8759765625
                },
                "NDOMJCOFKDJ": 0.5,
                "KIPMIDIKECP": "",
                "AHLPNEGAKGG": "NONE",
                "FGPHOPBEJDE": true,
                "HJJAFGPMJNJ": "",
                "AOFBAGFCGPJ": ""
            },
            {
                "$type": "CNBNGFNKLGP",
                "type": "STEER_TO",
                "delayTime": 0.9710000157356262,
                "duration": 1.0,
                "aliasList": [
                    "12555"
                ],
                "actionId": 150,
                "DEMFHGAIELL": "ABSOLUTE",
                "KDKLEJFHDJG": {
                    "x": -453.57000732421875,
                    "y": 236.69700622558594,
                    "z": 2765.799072265625
                },
                "BBNLLCHBKAI": true,
                "KIPMIDIKECP": "",
                "FDLMFGAMGJK": true,
                "AOFBAGFCGPJ": ""
            }
        ],
        [
            {
                "$type": "BCJBNCJOPCE",
                "type": "CAMERA_MOVE",
                "duration": 1.0,
                "actionId": 156,
                "AKFGKKEOEFA": {
                    "x": -450.5060119628906,
                    "y": 238.06100463867188,
                    "z": 2767.548095703125
                },
                "NGEBMAEFFGJ": {
                    "x": -451.47698974609375,
                    "y": 238.02200317382812,
                    "z": 2767.31201171875
                },
                "LIGHLBKBDEI": 30.0,
                "GFIOJGJJGCN": 6,
                "ABAEPHOGOFF": "EaseInOutCubic",
                "KFDBMBFFANN": {},
                "IEJBKHHEJEN": true,
                "CEDHIBLHMKP": false,
                "KIPMIDIKECP": "",
                "ANFHNPOCMNI": true,
                "BDLGHOJPJHD": "",
                "LCOJGFEOLCK": "",
                "BBBGAEDCJEL": ""
            },
            {
                "$type": "MoleMole.Config.ConfigTeleportToAction",
                "type": "TELEPORT_TO",
                "aliasList": [
                    "Avatar"
                ],
                "actionId": 160,
                "position": {
                    "x": -452.3919982910156,
                    "y": 236.69700622558594,
                    "z": 2766.64990234375
                },
                "forward": {
                    "x": -0.8500000238418579,
                    "z": 0.5270000100135803
                },
                "openLongDisTeleport": true,
                "posBindMovingTargetKey": "",
                "forwardBindMovingTargetKey": ""
            },
            {
                "$type": "CCEEIGNAILH",
                "type": "DIALOG",
                "aliasList": [
                    "1052"
                ],
                "KICBIOMGHIN": 30090803,
                "PNCCODDABKI": 4.11899995803833
            },
            {
                "$type": "KCBOGFFHPBD",
                "type": "BODY_LANG",
                "aliasList": [
                    "1052"
                ],
                "actionId": 158,
                "GPIEDGOMCGL": 1173,
                "FHLAMNNHMFA": true,
                "KCEHDJLKIAL": false,
                "KCOLHJBDILK": true,
                "AOFEDPBOOIE": ""
            },
            {
                "$type": "DNAEECJNBFB",
                "type": "EMO_SYNC",
                "aliasList": [
                    "1052"
                ],
                "EOGJDJKPPGE": "Cs_Emo_Avatar_Simple_Common_Set/Cs_Emo_Avatar_Talk/Cs_Emo_Avatar_MainLine/Cs_Emo_Avatar_Sumeru1/Cs_Emo_30090803",
                "IHCBGPABDLE": "",
                "CIKPDMODFPL": "",
                "HDIAHFFHNGE": "",
                "BOAAGJEEFDD": "",
                "PFDPJKHPADE": "",
                "DALINBJAHOC": [
                    16903672809933147080,
                    2576439080034631481,
                    14090759188268391432,
                    7931876179285349777
                ]
            },
            {
                "$type": "MoleMole.Config.ConfigTeleportToAction",
                "type": "TELEPORT_TO",
                "aliasList": [
                    "1005"
                ],
                "actionId": 161,
                "position": {
                    "x": -452.9670104980469,
                    "y": 236.69700622558594,
                    "z": 2765.8798828125
                },
                "forward": {
                    "x": -0.8519999980926514,
                    "z": 0.5239999890327454
                },
                "openLongDisTeleport": true,
                "posBindMovingTargetKey": "",
                "forwardBindMovingTargetKey": ""
            },
            {
                "$type": "MoleMole.Config.ConfigTeleportToAction",
                "type": "TELEPORT_TO",
                "aliasList": [
                    "12555"
                ],
                "actionId": 164,
                "position": {
                    "x": -455.343994140625,
                    "y": 236.69700622558594,
                    "z": 2766.4970703125
                },
                "forward": {
                    "x": 0.9409999847412109,
                    "z": -0.1889999955892563
                },
                "openLongDisTeleport": true,
                "posBindMovingTargetKey": "",
                "forwardBindMovingTargetKey": ""
            },
            {
                "$type": "KCBOGFFHPBD",
                "type": "BODY_LANG",
                "delayTime": 2.7780001163482666,
                "aliasList": [
                    "1052"
                ],
                "actionId": 157,
                "GPIEDGOMCGL": 1130,
                "FHLAMNNHMFA": true,
                "KCEHDJLKIAL": false,
                "KCOLHJBDILK": true,
                "AOFEDPBOOIE": ""
            },
            {
                "$type": "MEKNGCBGKEJ",
                "type": "DIALOG_SELECT",
                "delayTime": 4.11899995803833,
                "aliasList": [
                    "Avatar"
                ],
                "MLAABINGLAA": [
                    30090804,
                    30090805
                ],
                "HPBPDBFGKID": [
                    1113107374,
                    1113107374
                ],
                "CFJOJADDHHG": true,
                "APEOOMIGHNL": 1113107369
            },
            {
                "$type": "KCBOGFFHPBD",
                "type": "BODY_LANG",
                "delayTime": 4.744999885559082,
                "aliasList": [
                    "1052"
                ],
                "actionId": 162,
                "AHGOBCDHCMC": true,
                "FHLAMNNHMFA": true,
                "KCEHDJLKIAL": false,
                "KCOLHJBDILK": true,
                "AOFEDPBOOIE": ""
            }
        ],
        [
            {
                "$type": "BCJBNCJOPCE",
                "type": "CAMERA_MOVE",
                "duration": 1.0,
                "actionId": 159,
                "AKFGKKEOEFA": {
                    "x": -453.4930114746094,
                    "y": 238.16299438476562,
                    "z": 2767.81494140625
                },
                "NGEBMAEFFGJ": {
                    "x": -454.4129943847656,
                    "y": 238.12399291992188,
                    "z": 2767.425048828125
                },
                "LIGHLBKBDEI": 30.0,
                "GFIOJGJJGCN": 6,
                "ABAEPHOGOFF": "EaseInOutCubic",
                "KFDBMBFFANN": {},
                "IEJBKHHEJEN": true,
                "CEDHIBLHMKP": false,
                "KIPMIDIKECP": "",
                "ANFHNPOCMNI": true,
                "BDLGHOJPJHD": "",
                "LCOJGFEOLCK": "",
                "BBBGAEDCJEL": ""
            },
            {
                "$type": "MoleMole.Config.ConfigTeleportToAction",
                "type": "TELEPORT_TO",
                "aliasList": [
                    "Avatar"
                ],
                "actionId": 169,
                "position": {
                    "x": -452.6300048828125,
                    "y": 236.6959991455078,
                    "z": 2766.3359375
                },
                "forward": {
                    "x": -0.8500000238418579,
                    "z": 0.5270000100135803
                },
                "openLongDisTeleport": true,
                "posBindMovingTargetKey": "",
                "forwardBindMovingTargetKey": ""
            },
            {
                "$type": "IBPNIIGAIPF",
                "type": "LOOK_AT",
                "aliasList": [
                    "Avatar"
                ],
                "actionId": 173,
                "GGIENKFBOGL": true,
                "useTargetPos": true,
                "GCOONJBHNIM": true,
                "JHNJNNOPJKG": {
                    "x": -454.7619934082031,
                    "y": 238.23300170898438,
                    "z": 2767.52294921875
                },
                "NDOMJCOFKDJ": 0.5,
                "KIPMIDIKECP": "",
                "AHLPNEGAKGG": "NONE",
                "FGPHOPBEJDE": true,
                "HJJAFGPMJNJ": "",
                "AOFBAGFCGPJ": ""
            },
            {
                "$type": "CCEEIGNAILH",
                "type": "DIALOG",
                "aliasList": [
                    "1052"
                ],
                "KICBIOMGHIN": 30090806,
                "PNCCODDABKI": 0.5
            },
            {
                "$type": "KCBOGFFHPBD",
                "type": "BODY_LANG",
                "aliasList": [
                    "1052"
                ],
                "actionId": 163,
                "AHGOBCDHCMC": true,
                "FHLAMNNHMFA": true,
                "KCEHDJLKIAL": false,
                "KCOLHJBDILK": true,
                "AOFEDPBOOIE": ""
            },
            {
                "$type": "DNAEECJNBFB",
                "type": "EMO_SYNC",
                "aliasList": [
                    "1052"
                ],
                "EOGJDJKPPGE": "Cs_Emo_Avatar_Simple_Common_Set/Cs_Emo_Avatar_Talk/Cs_Emo_Avatar_MainLine/Cs_Emo_Avatar_Sumeru1/Cs_Emo_30090806",
                "IHCBGPABDLE": "",
                "CIKPDMODFPL": "",
                "HDIAHFFHNGE": "",
                "BOAAGJEEFDD": "",
                "PFDPJKHPADE": "",
                "DALINBJAHOC": [
                    16314116433546410122,
                    17751748392407986216,
                    10812867907501210913,
                    13224027801075111988
                ]
            },
            {
                "$type": "MoleMole.Config.ConfigTeleportToAction",
                "type": "TELEPORT_TO",
                "aliasList": [
                    "1005"
                ],
                "actionId": 170,
                "position": {
                    "x": -452.9670104980469,
                    "y": 236.69700622558594,
                    "z": 2765.8798828125
                },
                "forward": {
                    "x": -0.8519999980926514,
                    "z": 0.5239999890327454
                },
                "openLongDisTeleport": true,
                "posBindMovingTargetKey": "",
                "forwardBindMovingTargetKey": ""
            },
            {
                "$type": "IBPNIIGAIPF",
                "type": "LOOK_AT",
                "aliasList": [
                    "1005"
                ],
                "actionId": 172,
                "GGIENKFBOGL": true,
                "useTargetPos": true,
                "GCOONJBHNIM": true,
                "JHNJNNOPJKG": {
                    "x": -454.7619934082031,
                    "y": 238.23300170898438,
                    "z": 2767.52294921875
                },
                "NDOMJCOFKDJ": 0.5,
                "KIPMIDIKECP": "",
                "AHLPNEGAKGG": "NONE",
                "FGPHOPBEJDE": true,
                "HJJAFGPMJNJ": "",
                "AOFBAGFCGPJ": ""
            },
            {
                "$type": "KCBOGFFHPBD",
                "type": "BODY_LANG",
                "delayTime": 1.0110000371932983,
                "aliasList": [
                    "1052"
                ],
                "actionId": 167,
                "GPIEDGOMCGL": 1220,
                "FHLAMNNHMFA": true,
                "KCEHDJLKIAL": false,
                "KCOLHJBDILK": true,
                "AOFEDPBOOIE": ""
            },
            {
                "$type": "KCBOGFFHPBD",
                "type": "BODY_LANG",
                "delayTime": 6.76800012588501,
                "aliasList": [
                    "1052"
                ],
                "actionId": 168,
                "AHGOBCDHCMC": true,
                "FHLAMNNHMFA": true,
                "KCEHDJLKIAL": false,
                "KCOLHJBDILK": true,
                "AOFEDPBOOIE": ""
            },
            {
                "$type": "KCBOGFFHPBD",
                "type": "BODY_LANG",
                "delayTime": 8.340999603271484,
                "aliasList": [
                    "1052"
                ],
                "actionId": 165,
                "GPIEDGOMCGL": 1120,
                "FHLAMNNHMFA": true,
                "KCEHDJLKIAL": false,
                "KCOLHJBDILK": true,
                "AOFEDPBOOIE": ""
            }
        ],
        [
            {
                "$type": "BCJBNCJOPCE",
                "type": "CAMERA_MOVE",
                "duration": 1.0,
                "actionId": 166,
                "AKFGKKEOEFA": {
                    "x": -455.45001220703125,
                    "y": 238.3699951171875,
                    "z": 2769.048095703125
                },
                "NGEBMAEFFGJ": {
                    "x": -454.9079895019531,
                    "y": 238.2239990234375,
                    "z": 2768.219970703125
                },
                "LIGHLBKBDEI": 20.0,
                "GFIOJGJJGCN": 6,
                "ABAEPHOGOFF": "EaseInOutCubic",
                "KFDBMBFFANN": {},
                "IEJBKHHEJEN": true,
                "CEDHIBLHMKP": false,
                "KIPMIDIKECP": "",
                "ANFHNPOCMNI": true,
                "BDLGHOJPJHD": "",
                "LCOJGFEOLCK": "",
                "BBBGAEDCJEL": ""
            },
            {
                "$type": "CCEEIGNAILH",
                "type": "DIALOG",
                "aliasList": [
                    "1005"
                ],
                "KICBIOMGHIN": 30090807,
                "PNCCODDABKI": 0.5
            },
            {
                "$type": "KCBOGFFHPBD",
                "type": "BODY_LANG",
                "aliasList": [
                    "1005"
                ],
                "actionId": 175,
                "GPIEDGOMCGL": 1170,
                "FHLAMNNHMFA": true,
                "KCEHDJLKIAL": false,
                "KCOLHJBDILK": true,
                "AOFEDPBOOIE": ""
            },
            {
                "$type": "DNAEECJNBFB",
                "type": "EMO_SYNC",
                "aliasList": [
                    "1005"
                ],
                "EOGJDJKPPGE": "Cs_Emo_Avatar_Simple_Common_Set/Cs_Emo_Avatar_Talk/Cs_Emo_Avatar_MainLine/Cs_Emo_Avatar_Sumeru1/Cs_Emo_30090807",
                "IHCBGPABDLE": "",
                "CIKPDMODFPL": "",
                "HDIAHFFHNGE": "",
                "BOAAGJEEFDD": "",
                "PFDPJKHPADE": "",
                "DALINBJAHOC": [
                    17858301602355980090,
                    5619167108446521163,
                    14701074008445582916,
                    16974426566660257622
                ]
            },
            {
                "$type": "KCBOGFFHPBD",
                "type": "BODY_LANG",
                "delayTime": 5.293000221252441,
                "aliasList": [
                    "1005"
                ],
                "actionId": 176,
                "AHGOBCDHCMC": true,
                "FHLAMNNHMFA": true,
                "KCEHDJLKIAL": false,
                "KCOLHJBDILK": true,
                "AOFEDPBOOIE": ""
            }
        ],
        [
            {
                "$type": "BCJBNCJOPCE",
                "type": "CAMERA_MOVE",
                "duration": 1.0,
                "actionId": 177,
                "AKFGKKEOEFA": {
                    "x": -453.40301513671875,
                    "y": 238.05499267578125,
                    "z": 2767.657958984375
                },
                "NGEBMAEFFGJ": {
                    "x": -454.375,
                    "y": 238.1060028076172,
                    "z": 2767.427001953125
                },
                "LIGHLBKBDEI": 25.0,
                "GFIOJGJJGCN": 6,
                "ABAEPHOGOFF": "EaseInOutCubic",
                "KFDBMBFFANN": {},
                "IEJBKHHEJEN": true,
                "CEDHIBLHMKP": false,
                "KIPMIDIKECP": "",
                "ANFHNPOCMNI": true,
                "BDLGHOJPJHD": "",
                "LCOJGFEOLCK": "",
                "BBBGAEDCJEL": ""
            },
            {
                "$type": "CCEEIGNAILH",
                "type": "DIALOG",
                "aliasList": [
                    "1052"
                ],
                "KICBIOMGHIN": 30090808,
                "PNCCODDABKI": 0.5
            },
            {
                "$type": "KCBOGFFHPBD",
                "type": "BODY_LANG",
                "aliasList": [
                    "1052"
                ],
                "actionId": 178,
                "AHGOBCDHCMC": true,
                "FHLAMNNHMFA": true,
                "KCEHDJLKIAL": false,
                "KCOLHJBDILK": true,
                "AOFEDPBOOIE": ""
            },
            {
                "$type": "DNAEECJNBFB",
                "type": "EMO_SYNC",
                "aliasList": [
                    "1052"
                ],
                "EOGJDJKPPGE": "Cs_Emo_Avatar_Simple_Common_Set/Cs_Emo_Avatar_Talk/Cs_Emo_Avatar_MainLine/Cs_Emo_Avatar_Sumeru1/Cs_Emo_30090808",
                "IHCBGPABDLE": "",
                "CIKPDMODFPL": "",
                "HDIAHFFHNGE": "",
                "BOAAGJEEFDD": "",
                "PFDPJKHPADE": "",
                "DALINBJAHOC": [
                    136436173214664289,
                    17399292078304254012,
                    8263196341722859403,
                    13054086284342876209
                ]
            },
            {
                "$type": "KCBOGFFHPBD",
                "type": "BODY_LANG",
                "delayTime": 2.0,
                "aliasList": [
                    "1052"
                ],
                "actionId": 179,
                "GPIEDGOMCGL": 1190,
                "FHLAMNNHMFA": true,
                "KCEHDJLKIAL": false,
                "KCOLHJBDILK": true,
                "AOFEDPBOOIE": ""
            }
        ],
        [
            {
                "$type": "BCJBNCJOPCE",
                "type": "CAMERA_MOVE",
                "duration": 1.0,
                "actionId": 180,
                "AKFGKKEOEFA": {
                    "x": -454.6919860839844,
                    "y": 238.03199768066406,
                    "z": 2767.14990234375
                },
                "NGEBMAEFFGJ": {
                    "x": -453.8160095214844,
                    "y": 238.0050048828125,
                    "z": 2766.66796875
                },
                "LIGHLBKBDEI": 25.0,
                "GFIOJGJJGCN": 6,
                "ABAEPHOGOFF": "EaseInOutCubic",
                "KFDBMBFFANN": {},
                "IEJBKHHEJEN": true,
                "CEDHIBLHMKP": false,
                "KIPMIDIKECP": "",
                "ANFHNPOCMNI": true,
                "BDLGHOJPJHD": "",
                "LCOJGFEOLCK": "",
                "BBBGAEDCJEL": ""
            },
            {
                "$type": "KCBOGFFHPBD",
                "type": "BODY_LANG",
                "aliasList": [
                    "Avatar"
                ],
                "actionId": 181,
                "GPIEDGOMCGL": 1190,
                "FHLAMNNHMFA": true,
                "KCEHDJLKIAL": false,
                "KCOLHJBDILK": true,
                "AOFEDPBOOIE": ""
            },
            {
                "$type": "CCEEIGNAILH",
                "type": "DIALOG",
                "aliasList": [
                    "1005"
                ],
                "KICBIOMGHIN": 30090809,
                "PNCCODDABKI": 0.5
            },
            {
                "$type": "CNBNGFNKLGP",
                "type": "STEER_TO",
                "duration": 1.0,
                "aliasList": [
                    "1005"
                ],
                "actionId": 183,
                "DEMFHGAIELL": "ABSOLUTE",
                "KDKLEJFHDJG": {
                    "x": -452.8389892578125,
                    "y": 236.69700622558594,
                    "z": 2766.41796875
                },
                "BBNLLCHBKAI": true,
                "KIPMIDIKECP": "",
                "FDLMFGAMGJK": true,
                "AOFBAGFCGPJ": ""
            },
            {
                "$type": "IBPNIIGAIPF",
                "type": "LOOK_AT",
                "aliasList": [
                    "1005"
                ],
                "actionId": 184,
                "GGIENKFBOGL": true,
                "useTargetPos": true,
                "GCOONJBHNIM": true,
                "JHNJNNOPJKG": {
                    "x": -452.5719909667969,
                    "y": 238.0,
                    "z": 2766.346923828125
                },
                "NDOMJCOFKDJ": 0.5,
                "KIPMIDIKECP": "",
                "AHLPNEGAKGG": "NONE",
                "FGPHOPBEJDE": true,
                "HJJAFGPMJNJ": "",
                "AOFBAGFCGPJ": ""
            },
            {
                "$type": "DNAEECJNBFB",
                "type": "EMO_SYNC",
                "aliasList": [
                    "1005"
                ],
                "EOGJDJKPPGE": "Cs_Emo_Avatar_Simple_Common_Set/Cs_Emo_Avatar_Talk/Cs_Emo_Avatar_MainLine/Cs_Emo_Avatar_Sumeru1/Cs_Emo_30090809",
                "IHCBGPABDLE": "",
                "CIKPDMODFPL": "",
                "HDIAHFFHNGE": "",
                "BOAAGJEEFDD": "",
                "PFDPJKHPADE": "",
                "DALINBJAHOC": [
                    16762771308957653978,
                    10144349264420485972,
                    15531657025722393662,
                    9145001899957581746
                ]
            },
            {
                "$type": "BCJBNCJOPCE",
                "type": "CAMERA_MOVE",
                "delayTime": 0.10000000149011612,
                "duration": 4.920000076293945,
                "actionId": 182,
                "AKFGKKEOEFA": {
                    "x": -454.1940002441406,
                    "y": 238.0229949951172,
                    "z": 2767.156005859375
                },
                "NGEBMAEFFGJ": {
                    "x": -453.3179931640625,
                    "y": 237.99600219726562,
                    "z": 2766.675048828125
                },
                "LIGHLBKBDEI": 25.0,
                "ABAEPHOGOFF": "EaseOutQuad",
                "KFDBMBFFANN": {},
                "IEJBKHHEJEN": true,
                "CEDHIBLHMKP": false,
                "KIPMIDIKECP": "",
                "ANFHNPOCMNI": true,
                "BDLGHOJPJHD": "",
                "LCOJGFEOLCK": "",
                "BBBGAEDCJEL": ""
            },
            {
                "$type": "KCBOGFFHPBD",
                "type": "BODY_LANG",
                "delayTime": 1.1239999532699585,
                "aliasList": [
                    "1005"
                ],
                "actionId": 185,
                "GPIEDGOMCGL": 1260,
                "FHLAMNNHMFA": true,
                "KCEHDJLKIAL": false,
                "KCOLHJBDILK": true,
                "AOFEDPBOOIE": ""
            }
        ],
        [
            {
                "$type": "MoleMole.Config.ConfigUITriggerInterAction",
                "type": "UI_TRIGGER",
                "contextName": "PlotInferenceDialog",
                "param": "1002"
            },
            {
                "$type": "MoleMole.Config.ConfigTimeProtectAction",
                "type": "TIME_PROTECT",
                "duration": 0.10000000149011612
            },
            {
                "$type": "CCEEIGNAILH",
                "type": "DIALOG_CLEAR"
            }
        ],
        [
            {
                "$type": "BCJBNCJOPCE",
                "type": "CAMERA_MOVE",
                "duration": 0.20000000298023224,
                "actionId": 187,
                "KNAICGCGOHN": "EXIT",
                "AKFGKKEOEFA": {
                    "x": -449.7099914550781,
                    "y": 237.93499755859375,
                    "z": 2764.881103515625
                },
                "KOPGEAIDOOE": "Other",
                "NGEBMAEFFGJ": {
                    "x": 1.7029999494552612,
                    "y": 295.4909973144531
                },
                "GFIOJGJJGCN": 6,
                "ABAEPHOGOFF": "EaseInOutCubic",
                "KFDBMBFFANN": {},
                "IEJBKHHEJEN": true,
                "CEDHIBLHMKP": false,
                "KIPMIDIKECP": "",
                "ANFHNPOCMNI": true,
                "BDLGHOJPJHD": "",
                "LCOJGFEOLCK": "",
                "BBBGAEDCJEL": ""
            },
            {
                "$type": "MoleMole.Config.ConfigTimeProtectAction",
                "type": "TIME_PROTECT",
                "duration": 0.10000000149011612,
                "actionId": 188
            }
        ]
    ],
    "groupId": [
        {
            "grpId": 1113107370,
            "nextGrpId": 1113107371
        },
        {
            "index": 1,
            "grpId": 1113107371,
            "nextGrpId": 1113107372
        },
        {
            "index": 2,
            "grpId": 1113107372,
            "nextGrpId": 1113107373
        },
        {
            "index": 3,
            "grpId": 1113107373,
            "nextGrpId": 1113107374
        },
        {
            "index": 4,
            "grpId": 1113107374,
            "nextGrpId": 1113107375
        },
        {
            "index": 5,
            "grpId": 1113107375,
            "nextGrpId": 1113107376
        },
        {
            "index": 6,
            "grpId": 1113107376,
            "nextGrpId": 1113107377
        },
        {
            "index": 7,
            "grpId": 1113107377,
            "nextGrpId": 1113107378
        },
        {
            "index": 8,
            "grpId": 1113107378,
            "nextGrpId": 146590150
        },
        {
            "index": 9,
            "grpId": 146590150,
            "nextGrpId": 146590151
        }
    ],
    "freeStyleDic": {
        "1052": [
            4041,
            1130,
            1173,
            1120,
            1220,
            1190
        ],
        "12555": []
    }
}