{
    "id": 5900128,
    "beginCond": [
        {
            "type": "QUEST_COND_IS_CUR_BLOSSOM_TALK"
        }
    ],
    "priority": 1,
    "initDialog": 590012801,
    "npcId": [
        5012
    ],
    "performCfg": "",
    "loadType": "TALK_BLOSSOM",
    "assetIndex": 4903713988091966450,
    "prePerformCfg": ""
}