[
    {
        "areaName": "AudioArea_1-1(20151)",
        "HGDOKIGACLA": 2747879362,
        "areaPoints": [
            {
                "x": 551.5216064453125,
                "y": 133.89999389648438,
                "z": 774.7514038085938
            },
            {
                "x": 426.6721496582031,
                "y": 133.89999389648438,
                "z": 662.7061767578125
            },
            {
                "x": 396.2900390625,
                "y": 133.89999389648438,
                "z": 523.80224609375
            },
            {
                "x": 533.4534301757812,
                "y": 133.89999389648438,
                "z": 361.8020935058594
            },
            {
                "x": 675.2094116210938,
                "y": 133.89999389648438,
                "z": 282.3377990722656
            },
            {
                "x": 789.1583862304688,
                "y": 133.89999389648438,
                "z": 389.491943359375
            },
            {
                "x": 809.561279296875,
                "y": 133.89999389648438,
                "z": 480.8999938964844
            },
            {
                "x": 761.4381713867188,
                "y": 133.89999389648438,
                "z": 686.375244140625
            }
        ],
        "yZeroAnchor": 133.89999389648438,
        "leaveEvent": {
            "text": ""
        },
        "enableHeightCheck": true,
        "AMJDAJFDDEK": 107.69999694824219,
        "GEFPLJLOBFH": 140.10000610351562,
        "auxBusName": {
            "text": ""
        },
        "DEDHAIMDHJH": true,
        "PFEBOHAJCCL": [
            {
                "group": {
                    "text": "StateGroup_musicWeather"
                },
                "ratio": {
                    "text": "State_Dungeon_XM31_DeshretTemple"
                }
            }
        ],
        "leaveStates": [
            {
                "group": {
                    "text": "StateGroup_musicWeather"
                },
                "ratio": {
                    "text": "None"
                }
            }
        ]
    }
]