[
    {
        "areaName": "AudioArea_1-1(20167)",
        "HGDOKIGACLA": 1924622434,
        "areaPoints": [
            {
                "x": 47.54239273071289,
                "y": -19.630929946899414,
                "z": -57.97750473022461
            },
            {
                "x": 6.48048210144043,
                "y": -19.630929946899414,
                "z": -57.93614959716797
            },
            {
                "x": 11.714017868041992,
                "y": -19.630929946899414,
                "z": -96.75962829589844
            },
            {
                "x": 47.653316497802734,
                "y": -19.630929946899414,
                "z": -92.50133514404297
            }
        ],
        "yZeroAnchor": -19.630929946899414,
        "leaveEvent": {
            "text": ""
        },
        "enableHeightCheck": true,
        "AMJDAJFDDEK": 12.300000190734863,
        "GEFPLJLOBFH": 20.0,
        "isAmbience": true,
        "enterEvent": [
            {
                "text": "Play_amb_Dungeon_Consciousness_Interior"
            }
        ],
        "LMKHNBEINNO": [
            {
                "text": "Stop_amb_Dungeon_Consciousness_Interior"
            }
        ],
        "auxBusName": {
            "text": ""
        }
    }
]