[
    {
        "Default": {
            "$type": "ConfigAbility",
            "abilityName": "Ability_Avatar_Dive_SealEcho",
            "abilityMixins": [
                {
                    "$type": "SightObstructDetectMixin",
                    "index": 2,
                    "otherTargets": {
                        "$type": "OOMOJBAELMP",
                        "topLimit": 1,
                        "sortType": "HigherScoreByParam",
                        "CPJMOKMCFGH": {
                            "KPJNFFNHFGF": true,
                            "MBGKHDNCIJE": true,
                            "MDDMPKCKCOK": 0.8999999761581421,
                            "MHFDHEPLLIO": 0.0
                        },
                        "shapeName": "CircleR15H30",
                        "campTargetType": "Enemy",
                        "MAHBNNIIMMA": 1.0
                    },
                    "predicates": [
                        {
                            "$type": "LBGPHNGOMBD",
                            "LHPKEOHLBPK": true
                        },
                        {
                            "$type": "KHIEIPGNOHJ",
                            "predicates": [
                                {
                                    "$type": "CDJLOJPHLNI"
                                }
                            ]
                        },
                        {
                            "$type": "HDOFEAAHAKF",
                            "entityTypes": [
                                "Gadget",
                                "Monster",
                                "Platform"
                            ]
                        },
                        {
                            "$type": "GDCNLCKIJBG",
                            "key": "_ANIMAL_ENTITY_TYPE",
                            "ratio": 0.0,
                            "AMOLMKMMOME": "NoneOrEqual"
                        }
                    ],
                    "actionQueue": [
                        {
                            "$type": "SetSelfAttackTarget",
                            "target": "Target"
                        },
                        {
                            "$type": "TriggerBullet",
                            "bulletID": 40034112,
                            "born": {
                                "$type": "KDEPFKAAHCG",
                                "offset": {
                                    "HMHIOILIGBF": 0.5,
                                    "DPPJGBOHAAL": 1.5,
                                    "DDOAGBLBCEF": -0.5
                                },
                                "GDHMBIJKMEF": {
                                    "$type": "MDFHAFBFOAD",
                                    "NNGJPPABGNH": ""
                                },
                                "FIOMHONCCNM": true
                            }
                        }
                    ],
                    "POLCCGHAIEP": [
                        {
                            "$type": "TriggerBullet",
                            "bulletID": 40034112,
                            "born": {
                                "$type": "KDEPFKAAHCG",
                                "offset": {
                                    "HMHIOILIGBF": 0.5,
                                    "DPPJGBOHAAL": 1.5,
                                    "DDOAGBLBCEF": -0.5
                                },
                                "GDHMBIJKMEF": {
                                    "$type": "DFEHJKCDGHN",
                                    "PKNBBHPAKCG": {
                                        "HMHIOILIGBF": 0.0,
                                        "DPPJGBOHAAL": 0.0,
                                        "DDOAGBLBCEF": 0.0
                                    }
                                },
                                "FIOMHONCCNM": true
                            },
                            "ownerIs": "OriginOwner",
                            "propOwnerIs": "OriginOwner"
                        }
                    ]
                }
            ],
            "abilitySpecials": {
                "DamageSystemValue": 0.0,
                "DamageRatio": 0.0
            },
            "modifiers": {
                "Avatar_Dive_SealEcho_AddSkillInfo": {
                    "modifierName": "",
                    "bonusCritical": 100.0,
                    "onAdded": [
                        {
                            "$type": "AddAvatarSkillInfo",
                            "cdDelta": true,
                            "skillID": 20062
                        }
                    ],
                    "onRemoved": [
                        {
                            "$type": "RemoveAvatarSkillInfo",
                            "cdDelta": true,
                            "skillID": 20062,
                            "doOffStage": true
                        }
                    ]
                },
                "Avatar_Dive_SealEcho_Hold_Handler": {
                    "modifierName": "",
                    "bonusCritical": 100.0,
                    "modifierMixins": [
                        {
                            "$type": "ButtonHoldChargeMixin",
                            "skillID": 20062,
                            "secondChargeTime": 0.25,
                            "OnReleaseCharged": [
                                {
                                    "$type": "ApplyModifier",
                                    "modifierName": "SealEcho_Short"
                                }
                            ],
                            "OnBeginSecondCharged": [
                                {
                                    "$type": "ApplyModifier",
                                    "modifierName": "Focus_Father"
                                },
                                {
                                    "$type": "SetAnimatorTrigger",
                                    "triggerID": "StartDiveChannelTrigger"
                                },
                                {
                                    "$type": "SetAnimatorTrigger",
                                    "triggerID": "StartDiveChannelTrigger2"
                                }
                            ],
                            "OnReleaseSecondCharged": [
                                {
                                    "$type": "SetAnimatorTrigger",
                                    "triggerID": "EndDiveChannelTrigger"
                                }
                            ],
                            "AHICPDAIBBL": [
                                {
                                    "$type": "SetAnimatorTrigger",
                                    "triggerID": "EndDiveChannelTrigger"
                                },
                                {
                                    "$type": "ApplyModifier",
                                    "modifierName": "Focus_Remove_Delay"
                                }
                            ],
                            "chargeStateIDs": [
                                "DiveChannelBS",
                                "DiveChannelLoop"
                            ]
                        }
                    ]
                },
                "Focus_Father": {
                    "modifierName": "",
                    "bonusCritical": 100.0,
                    "modifierMixins": [
                        {
                            "$type": "AttachToMultiNormalizedTimeMixin",
                            "JDFMDFLKCGK": [
                                {
                                    "stateID": "DiveChannelBS"
                                },
                                {
                                    "stateID": "DiveChannelLoop"
                                },
                                {
                                    "stateID": "DiveChannelAS",
                                    "normalizeEnd": 0.17000000178813934
                                }
                            ],
                            "modifierName": "Focus"
                        },
                        {
                            "$type": "AttachToStateIDMixin",
                            "stateIDs": [
                                "DiveChannel_BS",
                                "DiveChannel_Loop"
                            ],
                            "modifierName": "Focus_Remove_Delay_Trigger",
                            "isCheckOnAttach": true
                        }
                    ]
                },
                "Focus_Remove_Delay_Trigger": {
                    "modifierName": "",
                    "duration": 10.0,
                    "bonusCritical": 100.0,
                    "onRemoved": [
                        {
                            "$type": "SetAnimatorTrigger",
                            "triggerID": "EndDiveChannelTrigger"
                        },
                        {
                            "$type": "ApplyModifier",
                            "cdDelta": true,
                            "modifierName": "Focus_Remove_Delay"
                        }
                    ]
                },
                "Focus_Remove_Delay": {
                    "stacking": "Multiple",
                    "modifierName": "",
                    "duration": 0.5,
                    "bonusCritical": 100.0,
                    "thinkInterval": 0.12999999523162842,
                    "onAdded": [
                        {
                            "$type": "SendDungeonFogEffectTrigger",
                            "muteRemoteAction": true,
                            "parameter": "Aim_Close",
                            "cameraFogEffectName": "Eff_SkillObj_Absorb_Avatar_Aim"
                        }
                    ],
                    "onRemoved": [
                        {
                            "$type": "RemoveModifier",
                            "cdDelta": true,
                            "modifierName": "Focus"
                        }
                    ],
                    "onThinkInterval": [
                        {
                            "$type": "ApplyModifier",
                            "modifierName": "SealEcho_Hold"
                        }
                    ],
                    "OLIDLOMEEFB": true,
                    "onAvatarOut": [
                        {
                            "$type": "RemoveModifier",
                            "cdDelta": true,
                            "modifierName": "Focus"
                        }
                    ]
                },
                "Aim_Camera_Eff": {
                    "modifierName": "",
                    "bonusCritical": 100.0,
                    "modifierMixins": [
                        {
                            "$type": "AttachActionToModifierMixin",
                            "onAdded": [
                                {
                                    "$type": "DungeonFogEffects",
                                    "canBeHandledOnRecover": true,
                                    "muteRemoteAction": true,
                                    "enable": true,
                                    "cameraFogEffectName": "Eff_SkillObj_Absorb_Avatar_Aim",
                                    "playerFogEffectName": ""
                                }
                            ],
                            "onRemoved": [
                                {
                                    "$type": "DungeonFogEffects",
                                    "cdDelta": true,
                                    "canBeHandledOnRecover": true,
                                    "muteRemoteAction": true,
                                    "cameraFogEffectName": "Eff_SkillObj_Absorb_Avatar_Aim",
                                    "playerFogEffectName": ""
                                }
                            ]
                        }
                    ]
                },
                "Focus": {
                    "modifierName": "",
                    "bonusCritical": 100.0,
                    "thinkInterval": 0.5,
                    "modifierMixins": [
                        {
                            "$type": "UseShootingConfigMixin",
                            "MEEOCANBOEG": {
                                "normalShoot": {
                                    "bulletBornAttachPoint": "FocusAnchor",
                                    "detectRangeFromViewport": 100.0,
                                    "autoFocusMinRange": 2.0,
                                    "autoFocusMaxRange": 7.0
                                },
                                "aimingShoot": {
                                    "bulletBornAttachPoint": "FocusAnchor",
                                    "detectRangeFromViewport": 100.0,
                                    "detectRadiusFromViewport": 0.15000000596046448,
                                    "autoFocusMinRange": 2.0,
                                    "autoFocusMaxRange": 25.0
                                }
                            }
                        },
                        {
                            "$type": "DisableMotionBlurMixin"
                        },
                        {
                            "$type": "EffectChangeAlphaMixin",
                            "target": "Team",
                            "PFBCBNIFKEF": 0.20000000298023224,
                            "NEKGIECOHPM": 0.30000001192092896
                        },
                        {
                            "$type": "EffectChangeAlphaMixin",
                            "PFBCBNIFKEF": 0.20000000298023224,
                            "NEKGIECOHPM": 0.30000001192092896
                        }
                    ],
                    "onAdded": [
                        {
                            "$type": "AttachModifier",
                            "target": "Team",
                            "modifierName": "Aim_Camera_Eff"
                        },
                        {
                            "$type": "SetGlobalValue",
                            "target": "Team",
                            "ratio": 2.0,
                            "key": "_ABILITY_WhiteBox_Dive_Team_Trigger",
                            "maxValue": 0.0,
                            "minValue": 0.0
                        },
                        {
                            "$type": "Predicated",
                            "targetPredicates": [
                                {
                                    "$type": "LNOGFCLIEBM",
                                    "GOCIMELDHHL": [
                                        1044
                                    ]
                                }
                            ],
                            "successActions": [
                                {
                                    "$type": "AvatarEnterFocus",
                                    "cameraFollowLower": {
                                        "x": 1.0,
                                        "y": -0.05000000074505806,
                                        "z": -1.5
                                    },
                                    "cameraFollowUpper": {
                                        "x": 1.0,
                                        "y": -0.05000000074505806,
                                        "z": -1.2000000476837158
                                    },
                                    "cameraFastFocusMode": true,
                                    "dragButtonName": "Skill2",
                                    "assistance": {
                                        "ps4": {},
                                        "ps5": {},
                                        "other": {
                                            "useGyro": true
                                        }
                                    },
                                    "canMove": false,
                                    "showCrosshair": false
                                }
                            ]
                        },
                        {
                            "$type": "Predicated",
                            "targetPredicates": [
                                {
                                    "$type": "LNOGFCLIEBM",
                                    "GOCIMELDHHL": [
                                        1043
                                    ]
                                }
                            ],
                            "successActions": [
                                {
                                    "$type": "AvatarEnterFocus",
                                    "cameraFollowLower": {
                                        "x": 0.800000011920929,
                                        "y": 0.10000000149011612,
                                        "z": -1.600000023841858
                                    },
                                    "cameraFollowUpper": {
                                        "x": 0.800000011920929,
                                        "y": 0.10000000149011612,
                                        "z": -1.2000000476837158
                                    },
                                    "cameraFastFocusMode": true,
                                    "dragButtonName": "Skill2",
                                    "assistance": {
                                        "ps4": {},
                                        "ps5": {},
                                        "other": {
                                            "useGyro": true
                                        }
                                    },
                                    "canMove": false,
                                    "showCrosshair": false
                                }
                            ]
                        },
                        {
                            "$type": "Predicated",
                            "targetPredicates": [
                                {
                                    "$type": "LNOGFCLIEBM",
                                    "GOCIMELDHHL": [
                                        1042
                                    ]
                                }
                            ],
                            "successActions": [
                                {
                                    "$type": "AvatarEnterFocus",
                                    "cameraFollowLower": {
                                        "x": 1.100000023841858,
                                        "y": 0.15000000596046448,
                                        "z": -1.5
                                    },
                                    "cameraFollowUpper": {
                                        "x": 1.100000023841858,
                                        "y": 0.15000000596046448,
                                        "z": -1.100000023841858
                                    },
                                    "cameraFastFocusMode": true,
                                    "dragButtonName": "Skill2",
                                    "assistance": {
                                        "ps4": {},
                                        "ps5": {},
                                        "other": {
                                            "useGyro": true
                                        }
                                    },
                                    "canMove": false,
                                    "showCrosshair": false
                                }
                            ]
                        },
                        {
                            "$type": "Predicated",
                            "targetPredicates": [
                                {
                                    "$type": "LNOGFCLIEBM",
                                    "GOCIMELDHHL": [
                                        1041
                                    ]
                                }
                            ],
                            "successActions": [
                                {
                                    "$type": "AvatarEnterFocus",
                                    "cameraFollowLower": {
                                        "x": 0.8999999761581421,
                                        "y": 0.30000001192092896,
                                        "z": -1.600000023841858
                                    },
                                    "cameraFollowUpper": {
                                        "x": 0.8999999761581421,
                                        "y": 0.30000001192092896,
                                        "z": -1.2000000476837158
                                    },
                                    "cameraFastFocusMode": true,
                                    "dragButtonName": "Skill2",
                                    "assistance": {
                                        "ps4": {},
                                        "ps5": {},
                                        "other": {
                                            "useGyro": true
                                        }
                                    },
                                    "canMove": false,
                                    "showCrosshair": false
                                }
                            ]
                        },
                        {
                            "$type": "Predicated",
                            "targetPredicates": [
                                {
                                    "$type": "LNOGFCLIEBM",
                                    "GOCIMELDHHL": [
                                        1045
                                    ]
                                }
                            ],
                            "successActions": [
                                {
                                    "$type": "AvatarEnterFocus",
                                    "cameraFollowLower": {
                                        "x": 1.100000023841858,
                                        "y": -0.30000001192092896,
                                        "z": -1.600000023841858
                                    },
                                    "cameraFollowUpper": {
                                        "x": 1.100000023841858,
                                        "y": -0.30000001192092896,
                                        "z": -1.2000000476837158
                                    },
                                    "cameraFastFocusMode": true,
                                    "dragButtonName": "Skill2",
                                    "assistance": {
                                        "ps4": {},
                                        "ps5": {},
                                        "other": {
                                            "useGyro": true
                                        }
                                    },
                                    "canMove": false,
                                    "showCrosshair": false
                                }
                            ]
                        },
                        {
                            "$type": "SetAnimatorBool",
                            "boolID": "LockMotionFlagExitChannel",
                            "ratio": true
                        },
                        {
                            "$type": "AttachModifier",
                            "modifierName": "VFX"
                        },
                        {
                            "$type": "SetGlobalValue",
                            "ratio": 1.0,
                            "key": "_ABILITY_Common_IsChannelState",
                            "maxValue": 0.0,
                            "minValue": 0.0
                        }
                    ],
                    "onRemoved": [
                        {
                            "$type": "AvatarExitFocus",
                            "cdDelta": true
                        },
                        {
                            "$type": "SetGlobalValue",
                            "target": "Team",
                            "ratio": 3.0,
                            "key": "_ABILITY_WhiteBox_Dive_Team_Trigger",
                            "maxValue": 0.0,
                            "minValue": 0.0
                        },
                        {
                            "$type": "SetAnimatorBool",
                            "cdDelta": true,
                            "boolID": "LockMotionFlagExitChannel"
                        },
                        {
                            "$type": "SetGlobalValue",
                            "cdDelta": true,
                            "ratio": 0.0,
                            "key": "_ABILITY_Common_IsChannelState",
                            "maxValue": 0.0,
                            "minValue": 0.0
                        },
                        {
                            "$type": "RemoveModifier",
                            "cdDelta": true,
                            "modifierName": "Focus_Father"
                        }
                    ],
                    "onThinkInterval": [
                        {
                            "$type": "AttachModifier",
                            "modifierName": "Diving_Echo_Sustained_Shooting_Driver"
                        }
                    ]
                },
                "Diving_Echo_Sustained_Shooting_Driver": {
                    "stacking": "Unique",
                    "modifierName": "",
                    "bonusCritical": 100.0,
                    "modifierMixins": [
                        {
                            "$type": "AttachToStateIDMixin",
                            "stateIDs": [
                                "DiveChannel_BS",
                                "DiveChannel_Loop"
                            ],
                            "modifierName": "Diving_Echo_Sustained_Shooting",
                            "isCheckOnAttach": true
                        }
                    ]
                },
                "Diving_Echo_Sustained_Shooting": {
                    "modifierName": "",
                    "bonusCritical": 100.0,
                    "thinkInterval": 0.6000000238418579,
                    "onAdded": [
                        {
                            "$type": "TriggerBullet",
                            "bulletID": 40034109,
                            "born": {
                                "$type": "IJCOFPNPJPK",
                                "offset": {
                                    "HMHIOILIGBF": 0.0,
                                    "DPPJGBOHAAL": 0.0,
                                    "DDOAGBLBCEF": 0.0
                                },
                                "GDHMBIJKMEF": {
                                    "$type": "CAMHJDKCEOP",
                                    "PKNBBHPAKCG": {
                                        "HMHIOILIGBF": 0.0,
                                        "DPPJGBOHAAL": 0.0,
                                        "DDOAGBLBCEF": 0.0
                                    },
                                    "attachPointName": "FocusAnchor",
                                    "BKOJLOPLKJE": "Self"
                                },
                                "FIOMHONCCNM": true,
                                "attachPointName": "RHand",
                                "BKOJLOPLKJE": "Self"
                            }
                        }
                    ],
                    "onThinkInterval": [
                        {
                            "$type": "TriggerBullet",
                            "bulletID": 40034109,
                            "born": {
                                "$type": "IJCOFPNPJPK",
                                "offset": {
                                    "HMHIOILIGBF": 0.0,
                                    "DPPJGBOHAAL": 0.0,
                                    "DDOAGBLBCEF": 0.0
                                },
                                "GDHMBIJKMEF": {
                                    "$type": "CAMHJDKCEOP",
                                    "PKNBBHPAKCG": {
                                        "HMHIOILIGBF": 0.0,
                                        "DPPJGBOHAAL": 0.0,
                                        "DDOAGBLBCEF": 0.0
                                    },
                                    "attachPointName": "FocusAnchor",
                                    "BKOJLOPLKJE": "Self"
                                },
                                "FIOMHONCCNM": true,
                                "attachPointName": "RHand",
                                "BKOJLOPLKJE": "Self"
                            }
                        }
                    ]
                },
                "VFX": {
                    "modifierName": "",
                    "bonusCritical": 100.0,
                    "onAdded": [
                        {
                            "$type": "Predicated",
                            "targetPredicates": [
                                {
                                    "$type": "LNOGFCLIEBM",
                                    "GOCIMELDHHL": [
                                        1044
                                    ]
                                }
                            ],
                            "successActions": [
                                {
                                    "$type": "AttachModifier",
                                    "modifierName": "VFX_R"
                                }
                            ]
                        },
                        {
                            "$type": "Predicated",
                            "targetPredicates": [
                                {
                                    "$type": "LNOGFCLIEBM",
                                    "GOCIMELDHHL": [
                                        1042
                                    ]
                                }
                            ],
                            "successActions": [
                                {
                                    "$type": "AttachModifier",
                                    "modifierName": "VFX_R"
                                }
                            ]
                        },
                        {
                            "$type": "Predicated",
                            "targetPredicates": [
                                {
                                    "$type": "LNOGFCLIEBM",
                                    "GOCIMELDHHL": [
                                        1043
                                    ]
                                }
                            ],
                            "successActions": [
                                {
                                    "$type": "AttachModifier",
                                    "modifierName": "VFX_R"
                                }
                            ]
                        },
                        {
                            "$type": "Predicated",
                            "targetPredicates": [
                                {
                                    "$type": "LNOGFCLIEBM",
                                    "GOCIMELDHHL": [
                                        1041
                                    ]
                                }
                            ],
                            "successActions": [
                                {
                                    "$type": "AttachModifier",
                                    "modifierName": "VFX_R"
                                }
                            ]
                        },
                        {
                            "$type": "Predicated",
                            "targetPredicates": [
                                {
                                    "$type": "LNOGFCLIEBM",
                                    "GOCIMELDHHL": [
                                        1045
                                    ]
                                }
                            ],
                            "successActions": [
                                {
                                    "$type": "AttachModifier",
                                    "modifierName": "VFX_R"
                                }
                            ]
                        }
                    ]
                },
                "VFX_L": {
                    "modifierName": "",
                    "bonusCritical": 100.0,
                    "onAdded": [
                        {
                            "$type": "AttachEffect",
                            "healLimitedByCasterMaxHPRatio": "Eff_Avatar_Diving_Gadget_Loop",
                            "JAOICKHDAKL": -1.0
                        }
                    ]
                },
                "VFX_R": {
                    "modifierName": "",
                    "bonusCritical": 100.0,
                    "onAdded": [
                        {
                            "$type": "AttachEffect",
                            "healLimitedByCasterMaxHPRatio": "Eff_Avatar_Diving_Gadget_Loop_2",
                            "JAOICKHDAKL": -1.0
                        }
                    ]
                },
                "SealEcho_Hold": {
                    "modifierName": "",
                    "duration": 0.5,
                    "bonusCritical": 100.0,
                    "onAdded": [
                        {
                            "$type": "AvatarShareCDSkillStart",
                            "cdDelta": true,
                            "skillID": 20062
                        },
                        {
                            "$type": "ForceUseSkillSuccess",
                            "skillID": 20062,
                            "type": "Skill"
                        },
                        {
                            "$type": "TriggerBullet",
                            "bulletID": 40034109,
                            "born": {
                                "$type": "IJCOFPNPJPK",
                                "offset": {
                                    "HMHIOILIGBF": 0.0,
                                    "DPPJGBOHAAL": 0.0,
                                    "DDOAGBLBCEF": 0.0
                                },
                                "GDHMBIJKMEF": {
                                    "$type": "CAMHJDKCEOP",
                                    "PKNBBHPAKCG": {
                                        "HMHIOILIGBF": 0.0,
                                        "DPPJGBOHAAL": 0.0,
                                        "DDOAGBLBCEF": 0.0
                                    },
                                    "attachPointName": "FocusAnchor",
                                    "BKOJLOPLKJE": "Self"
                                },
                                "FIOMHONCCNM": true,
                                "attachPointName": "RHand",
                                "BKOJLOPLKJE": "Self"
                            }
                        }
                    ]
                },
                "SealEcho_Short": {
                    "modifierName": "",
                    "duration": 0.5,
                    "bonusCritical": 100.0,
                    "onAdded": [
                        {
                            "$type": "AvatarShareCDSkillStart",
                            "cdDelta": true,
                            "skillID": 20062
                        },
                        {
                            "$type": "ForceUseSkillSuccess",
                            "skillID": 20062,
                            "type": "Skill"
                        },
                        {
                            "$type": "SetSystemValueToOverrideMap",
                            "cdDelta": true,
                            "key": "DamageSystemValue",
                            "type": "ElementLevelCo"
                        },
                        {
                            "$type": "ClearLockTarget",
                            "FLGOOKHCGAM": false
                        },
                        {
                            "$type": "SetGlobalValue",
                            "target": "Team",
                            "ratio": 1.0,
                            "key": "_ABILITY_WhiteBox_Dive_Team_Trigger",
                            "maxValue": 0.0,
                            "minValue": 0.0
                        },
                        {
                            "$type": "SightObstructDetect",
                            "index": 2
                        }
                    ]
                }
            },
            "onAdded": [
                {
                    "$type": "SetGlobalValue",
                    "cdDelta": true,
                    "ratio": 0.0,
                    "key": "_ABILITY_Dive_SealEcho_Hold_Search_Tick",
                    "maxValue": 0.0,
                    "minValue": 0.0
                },
                {
                    "$type": "SetSystemValueToOverrideMap",
                    "cdDelta": true,
                    "key": "DamageSystemValue",
                    "type": "ElementLevelCo"
                },
                {
                    "$type": "AttachModifier",
                    "modifierName": "Avatar_Dive_SealEcho_AddSkillInfo"
                },
                {
                    "$type": "AttachModifier",
                    "modifierName": "Avatar_Dive_SealEcho_Hold_Handler"
                }
            ],
            "isDynamicAbility": true,
            "COAONADHFEC": true
        }
    },
    {
        "Default": {
            "$type": "ConfigAbility",
            "abilityName": "Absorb_SealEcho_Bullet_01",
            "abilitySpecials": {
                "DamageSystemValue": 0.0,
                "DamageRatio": 0.0
            },
            "modifiers": {
                "SealEcho_Bullet_Eff": {
                    "modifierName": "",
                    "bonusCritical": 100.0,
                    "onAdded": [
                        {
                            "$type": "AttachEffect",
                            "healLimitedByCasterMaxHPRatio": "Eff_Avatar_Diving_Echo_Hold_Bullet",
                            "JAOICKHDAKL": -1.0
                        }
                    ]
                }
            },
            "onAdded": [
                {
                    "$type": "AttachModifier",
                    "modifierName": "SealEcho_Bullet_Eff"
                },
                {
                    "$type": "SetSystemValueToOverrideMap",
                    "cdDelta": true,
                    "key": "DamageSystemValue",
                    "type": "ElementLevelCo"
                }
            ],
            "onAbilityStart": [
                {
                    "$type": "DamageByAttackValue",
                    "target": "Target",
                    "born": {
                        "$type": "GBFINJHCBPI",
                        "offset": {
                            "HMHIOILIGBF": 0.0,
                            "DPPJGBOHAAL": 0.0,
                            "DDOAGBLBCEF": 0.0
                        }
                    },
                    "attackInfo": {
                        "attackTag": "Dive_Echo_Bullet",
                        "attenuationTag": "",
                        "attenuationGroup": "default",
                        "attackProperty": {
                            "LCCBNOKMNFG": 0.0,
                            "bonusCritical": 0.0,
                            "strikeType": "Default",
                            "enBreak": 0.0,
                            "attackType": "Range",
                            "damageExtra": [
                                "DamageRatio",
                                "DamageSystemValue",
                                "MUL"
                            ],
                            "trueDamage": true,
                            "FKGFPFNOJMN": 0.0
                        },
                        "hitPattern": {
                            "onHitEffectName": "Eff_Avatar_Diving_Echo_Hit",
                            "hitImpulseType": "LV0"
                        },
                        "canBeModifiedBy": "OriginOwner"
                    }
                }
            ]
        }
    },
    {
        "Default": {
            "$type": "ConfigAbility",
            "abilityName": "Absorb_SealEcho_Bullet_02",
            "abilitySpecials": {
                "DamageSystemValue": 0.0,
                "DamageRatio": 0.0
            },
            "modifiers": {
                "SealEcho_Bullet_Eff": {
                    "modifierName": "",
                    "bonusCritical": 100.0,
                    "onAdded": [
                        {
                            "$type": "AttachEffect",
                            "healLimitedByCasterMaxHPRatio": "Eff_Avatar_Diving_Echo_Short",
                            "JAOICKHDAKL": -1.0
                        }
                    ]
                }
            },
            "onAdded": [
                {
                    "$type": "SetSystemValueToOverrideMap",
                    "cdDelta": true,
                    "key": "DamageSystemValue",
                    "type": "ElementLevelCo"
                },
                {
                    "$type": "AttachModifier",
                    "modifierName": "SealEcho_Bullet_Eff"
                }
            ],
            "onAbilityStart": [
                {
                    "$type": "DamageByAttackValue",
                    "target": "Target",
                    "born": {
                        "$type": "GBFINJHCBPI",
                        "offset": {
                            "HMHIOILIGBF": 0.0,
                            "DPPJGBOHAAL": 0.0,
                            "DDOAGBLBCEF": 0.0
                        }
                    },
                    "attackInfo": {
                        "attackTag": "Dive_Echo_Bullet",
                        "attenuationTag": "",
                        "attenuationGroup": "default",
                        "attackProperty": {
                            "LCCBNOKMNFG": 0.0,
                            "bonusCritical": 0.0,
                            "strikeType": "Default",
                            "enBreak": 0.0,
                            "damageExtra": [
                                "DamageRatio",
                                "DamageSystemValue",
                                "MUL"
                            ],
                            "trueDamage": true,
                            "FKGFPFNOJMN": 0.0
                        },
                        "hitPattern": {
                            "onHitEffectName": "Eff_Avatar_Diving_Echo_Hit",
                            "hitImpulseType": "LV0"
                        },
                        "canBeModifiedBy": "OriginOwner"
                    }
                }
            ]
        }
    }
]