{
    "luaDataPath": "",
    "dontUseDefaultFinish": true,
    "startBlackKeepTime": 0.5,
    "entityBan": "",
    "disableNpcLod": true,
    "isAutoBanNpc": true,
    "isBanWidgetPet": true,
    "protectNpcMobileLod": true,
    "MNHFNFDCEFG": 7,
    "startFade": {
        "startFadeInDuration": 0.5,
        "startFadeOutDuration": 0.5
    },
    "endFade": {
        "startFadeOutDuration": 0.0
    },
    "actors": [
        {
            "alias": "Avatar",
            "visible": true,
            "bornPointName": "[3_340200113:3329.162,454.452,3811.095,0.000,122.476,0.000]",
            "relativePosType": "AVATAR_NEW",
            "relativePosNpcAlias": "",
            "bindMovingTargetKey": ""
        },
        {
            "alias": "AvatarNpc",
            "visible": true,
            "bornPointName": "[3_340200113:3329.162,454.452,3811.095,0.000,122.476,0.000]",
            "removeActorType": "NEW_REMOVE",
            "relativePosType": "AVATAR_NEW",
            "relativePosNpcAlias": "",
            "bindMovingTargetKey": ""
        },
        {
            "configID": 1076,
            "alias": "1076",
            "visible": true,
            "bornPointName": "[3_340200113:3329.162,454.452,3811.095,0.000,122.476,0.000]",
            "relativePosType": "AVATAR_NEW",
            "relativePosNpcAlias": "",
            "bindMovingTargetKey": ""
        },
        {
            "configID": 1005,
            "alias": "1005",
            "visible": true,
            "bornPointName": "",
            "useRelativePos": true,
            "relativePos": {
                "x": 0.5,
                "z": -0.5
            },
            "removeActorType": "NEW_REMOVE_WITH_DISAPPEAR",
            "relativePosType": "AVATAR_NEW",
            "relativePosNpcAlias": "",
            "bindMovingTargetKey": ""
        }
    ],
    "group": [
        [
            {
                "$type": "MoleMole.Config.ConfigTimeProtectAction",
                "type": "TIME_PROTECT",
                "duration": 1.0,
                "actionId": 104
            },
            {
                "$type": "MoleMole.Config.ConfigBlackScreenAction",
                "type": "BLACK_SCREEN",
                "duration": 1.0,
                "actionId": 194,
                "blackScreenType": "KEEP_BLACK",
                "durationToBlack": 0.5,
                "durationKeepBlack": 1.0,
                "durationFromBlack": 0.5,
                "inteePos": "",
                "textMapID": "",
                "useTextFade": true,
                "changeAudioState": true
            },
            {
                "$type": "MoleMole.Config.ConfigSitOrStandAction",
                "type": "SIT_OR_STAND",
                "aliasList": [
                    "Avatar"
                ],
                "actionId": 202,
                "banResetFreestyle": true
            },
            {
                "$type": "MoleMole.Config.ConfigVisibleInterAction",
                "type": "VISIBLE",
                "aliasList": [
                    "Avatar"
                ],
                "actionId": 207,
                "extraParam": ""
            },
            {
                "$type": "MoleMole.Config.ConfigPlayerNPCEnergyTypeAction",
                "type": "SET_PLAYER_NPC_ENERGY_TYPE",
                "aliasList": [
                    "AvatarNpc"
                ],
                "actionId": 203,
                "setHeroEngergyType": true
            },
            {
                "$type": "KCBOGFFHPBD",
                "type": "BODY_LANG",
                "aliasList": [
                    "AvatarNpc"
                ],
                "actionId": 204,
                "AHGOBCDHCMC": true,
                "FHLAMNNHMFA": true,
                "KCEHDJLKIAL": false,
                "AOFEDPBOOIE": ""
            },
            {
                "$type": "KCBOGFFHPBD",
                "type": "BODY_LANG",
                "aliasList": [
                    "1076"
                ],
                "actionId": 190,
                "AHGOBCDHCMC": true,
                "FHLAMNNHMFA": true,
                "KCEHDJLKIAL": false,
                "AOFEDPBOOIE": ""
            },
            {
                "$type": "KCBOGFFHPBD",
                "type": "BODY_LANG",
                "aliasList": [
                    "1005"
                ],
                "actionId": 192,
                "AHGOBCDHCMC": true,
                "FHLAMNNHMFA": true,
                "KCEHDJLKIAL": false,
                "AOFEDPBOOIE": ""
            }
        ],
        [
            {
                "$type": "MoleMole.Config.ConfigBlackScreenAction",
                "type": "BLACK_SCREEN",
                "duration": 0.5,
                "actionId": 195,
                "blackScreenType": "FROM_BLACK",
                "durationToBlack": 0.5,
                "durationKeepBlack": 0.5,
                "durationFromBlack": 0.5,
                "inteePos": "",
                "textMapID": "",
                "useTextFade": true,
                "changeAudioState": true
            },
            {
                "$type": "CCEEIGNAILH",
                "type": "DIALOG",
                "aliasList": [
                    "1076"
                ],
                "actionId": 107,
                "KICBIOMGHIN": 40250901,
                "PNCCODDABKI": 0.5
            }
        ],
        [
            {
                "$type": "CCEEIGNAILH",
                "type": "DIALOG",
                "aliasList": [
                    "1005"
                ],
                "actionId": 109,
                "KICBIOMGHIN": 40250902,
                "PNCCODDABKI": 0.5
            }
        ],
        [
            {
                "$type": "CCEEIGNAILH",
                "type": "DIALOG",
                "aliasList": [
                    "1005"
                ],
                "actionId": 111,
                "KICBIOMGHIN": 40250903,
                "PNCCODDABKI": 0.5
            }
        ],
        [
            {
                "$type": "CCEEIGNAILH",
                "type": "DIALOG",
                "aliasList": [
                    "1076"
                ],
                "actionId": 113,
                "KICBIOMGHIN": 40250904,
                "PNCCODDABKI": 0.5
            },
            {
                "$type": "MEKNGCBGKEJ",
                "type": "DIALOG_SELECT",
                "delayTime": 0.4000000059604645,
                "aliasList": [
                    "AvatarNpc"
                ],
                "actionId": 197,
                "MLAABINGLAA": [
                    40250905
                ],
                "HPBPDBFGKID": [
                    1836656968
                ],
                "CFJOJADDHHG": true,
                "APEOOMIGHNL": 1836656962
            }
        ],
        [
            {
                "$type": "MoleMole.Config.ConfigTimeProtectAction",
                "type": "TIME_PROTECT",
                "duration": 0.5,
                "aliasList": [
                    "AvatarNpc"
                ],
                "actionId": 208
            },
            {
                "$type": "MEKNGCBGKEJ",
                "type": "DIALOG_SELECT",
                "delayTime": 0.4000000059604645,
                "aliasList": [
                    "AvatarNpc"
                ],
                "actionId": 198,
                "MLAABINGLAA": [
                    40250906
                ],
                "HPBPDBFGKID": [
                    1836656969
                ],
                "CFJOJADDHHG": true,
                "APEOOMIGHNL": 1836656962
            }
        ],
        [
            {
                "$type": "CCEEIGNAILH",
                "type": "DIALOG",
                "aliasList": [
                    "1076"
                ],
                "actionId": 118,
                "KICBIOMGHIN": 40250907,
                "PNCCODDABKI": 0.5
            }
        ],
        [
            {
                "$type": "CCEEIGNAILH",
                "type": "DIALOG",
                "aliasList": [
                    "1076"
                ],
                "actionId": 120,
                "KICBIOMGHIN": 40250908,
                "PNCCODDABKI": 0.5
            }
        ],
        [
            {
                "$type": "CCEEIGNAILH",
                "type": "DIALOG",
                "aliasList": [
                    "1076"
                ],
                "actionId": 122,
                "KICBIOMGHIN": 40250909,
                "PNCCODDABKI": 0.5
            }
        ],
        [
            {
                "$type": "CCEEIGNAILH",
                "type": "DIALOG",
                "aliasList": [
                    "1076"
                ],
                "actionId": 124,
                "KICBIOMGHIN": 40250910,
                "PNCCODDABKI": 0.5
            }
        ],
        [
            {
                "$type": "CCEEIGNAILH",
                "type": "DIALOG",
                "aliasList": [
                    "1076"
                ],
                "actionId": 126,
                "KICBIOMGHIN": 40250911,
                "PNCCODDABKI": 0.5
            }
        ],
        [
            {
                "$type": "CCEEIGNAILH",
                "type": "DIALOG",
                "aliasList": [
                    "1076"
                ],
                "actionId": 128,
                "KICBIOMGHIN": 40250912,
                "PNCCODDABKI": 0.5
            },
            {
                "$type": "MEKNGCBGKEJ",
                "type": "DIALOG_SELECT",
                "delayTime": 0.4000000059604645,
                "aliasList": [
                    "AvatarNpc"
                ],
                "actionId": 199,
                "MLAABINGLAA": [
                    40250913
                ],
                "HPBPDBFGKID": [
                    1101791056
                ],
                "CFJOJADDHHG": true,
                "APEOOMIGHNL": 1836656962
            }
        ],
        [
            {
                "$type": "CCEEIGNAILH",
                "type": "DIALOG",
                "aliasList": [
                    "1005"
                ],
                "actionId": 131,
                "KICBIOMGHIN": 40250914,
                "PNCCODDABKI": 0.5
            }
        ],
        [
            {
                "$type": "CCEEIGNAILH",
                "type": "DIALOG",
                "aliasList": [
                    "1076"
                ],
                "actionId": 133,
                "KICBIOMGHIN": 40250915,
                "PNCCODDABKI": 0.5
            }
        ],
        [
            {
                "$type": "CCEEIGNAILH",
                "type": "DIALOG",
                "aliasList": [
                    "1005"
                ],
                "actionId": 135,
                "KICBIOMGHIN": 40250916,
                "PNCCODDABKI": 0.5
            }
        ],
        [
            {
                "$type": "CCEEIGNAILH",
                "type": "DIALOG",
                "aliasList": [
                    "1076"
                ],
                "actionId": 137,
                "KICBIOMGHIN": 40250917,
                "PNCCODDABKI": 0.5
            }
        ],
        [
            {
                "$type": "CCEEIGNAILH",
                "type": "DIALOG",
                "aliasList": [
                    "1076"
                ],
                "actionId": 139,
                "KICBIOMGHIN": 40250918,
                "PNCCODDABKI": 0.5
            }
        ],
        [
            {
                "$type": "CCEEIGNAILH",
                "type": "DIALOG",
                "aliasList": [
                    "1005"
                ],
                "actionId": 141,
                "KICBIOMGHIN": 40250919,
                "PNCCODDABKI": 0.5
            }
        ],
        [
            {
                "$type": "CCEEIGNAILH",
                "type": "DIALOG",
                "aliasList": [
                    "1076"
                ],
                "actionId": 143,
                "KICBIOMGHIN": 40250920,
                "PNCCODDABKI": 0.5
            }
        ],
        [
            {
                "$type": "CCEEIGNAILH",
                "type": "DIALOG",
                "aliasList": [
                    "1076"
                ],
                "actionId": 145,
                "KICBIOMGHIN": 40250921,
                "PNCCODDABKI": 0.5
            },
            {
                "$type": "MEKNGCBGKEJ",
                "type": "DIALOG_SELECT",
                "delayTime": 0.4000000059604645,
                "aliasList": [
                    "AvatarNpc"
                ],
                "actionId": 200,
                "MLAABINGLAA": [
                    40250922
                ],
                "HPBPDBFGKID": [
                    1101791085
                ],
                "CFJOJADDHHG": true,
                "APEOOMIGHNL": 1836656962
            }
        ],
        [
            {
                "$type": "CCEEIGNAILH",
                "type": "DIALOG",
                "aliasList": [
                    "1076"
                ],
                "actionId": 148,
                "KICBIOMGHIN": 40250923,
                "PNCCODDABKI": 0.5
            }
        ],
        [
            {
                "$type": "CCEEIGNAILH",
                "type": "DIALOG",
                "aliasList": [
                    "1005"
                ],
                "actionId": 150,
                "KICBIOMGHIN": 40250924,
                "PNCCODDABKI": 0.5
            }
        ],
        [
            {
                "$type": "CCEEIGNAILH",
                "type": "DIALOG",
                "aliasList": [
                    "1076"
                ],
                "actionId": 152,
                "KICBIOMGHIN": 40250925,
                "PNCCODDABKI": 0.5
            }
        ],
        [
            {
                "$type": "CCEEIGNAILH",
                "type": "DIALOG",
                "aliasList": [
                    "1076"
                ],
                "actionId": 154,
                "KICBIOMGHIN": 40250926,
                "PNCCODDABKI": 0.5
            }
        ],
        [
            {
                "$type": "CCEEIGNAILH",
                "type": "DIALOG",
                "aliasList": [
                    "1076"
                ],
                "actionId": 156,
                "KICBIOMGHIN": 40250927,
                "PNCCODDABKI": 0.5
            }
        ],
        [
            {
                "$type": "CCEEIGNAILH",
                "type": "DIALOG",
                "aliasList": [
                    "1005"
                ],
                "actionId": 158,
                "KICBIOMGHIN": 40250928,
                "PNCCODDABKI": 0.5
            }
        ],
        [
            {
                "$type": "CCEEIGNAILH",
                "type": "DIALOG",
                "aliasList": [
                    "1076"
                ],
                "actionId": 160,
                "KICBIOMGHIN": 40250929,
                "PNCCODDABKI": 0.5
            }
        ],
        [
            {
                "$type": "CCEEIGNAILH",
                "type": "DIALOG",
                "aliasList": [
                    "1076"
                ],
                "actionId": 162,
                "KICBIOMGHIN": 40250930,
                "PNCCODDABKI": 0.5
            }
        ],
        [
            {
                "$type": "CCEEIGNAILH",
                "type": "DIALOG",
                "aliasList": [
                    "1076"
                ],
                "actionId": 164,
                "KICBIOMGHIN": 40250931,
                "PNCCODDABKI": 0.5
            }
        ],
        [
            {
                "$type": "CCEEIGNAILH",
                "type": "DIALOG",
                "aliasList": [
                    "1005"
                ],
                "actionId": 166,
                "KICBIOMGHIN": 40250932,
                "PNCCODDABKI": 0.5
            }
        ],
        [
            {
                "$type": "CCEEIGNAILH",
                "type": "DIALOG",
                "aliasList": [
                    "1005"
                ],
                "actionId": 168,
                "KICBIOMGHIN": 40250933,
                "PNCCODDABKI": 0.5
            }
        ],
        [
            {
                "$type": "CCEEIGNAILH",
                "type": "DIALOG",
                "aliasList": [
                    "1076"
                ],
                "actionId": 170,
                "KICBIOMGHIN": 40250934,
                "PNCCODDABKI": 0.5
            }
        ],
        [
            {
                "$type": "CCEEIGNAILH",
                "type": "DIALOG",
                "aliasList": [
                    "1076"
                ],
                "actionId": 172,
                "KICBIOMGHIN": 40250935,
                "PNCCODDABKI": 0.5
            }
        ],
        [
            {
                "$type": "CCEEIGNAILH",
                "type": "DIALOG",
                "aliasList": [
                    "1076"
                ],
                "actionId": 174,
                "KICBIOMGHIN": 40250936,
                "PNCCODDABKI": 0.5
            }
        ],
        [
            {
                "$type": "CCEEIGNAILH",
                "type": "DIALOG",
                "aliasList": [
                    "1076"
                ],
                "actionId": 176,
                "KICBIOMGHIN": 40250937,
                "PNCCODDABKI": 0.5
            }
        ],
        [
            {
                "$type": "CCEEIGNAILH",
                "type": "DIALOG",
                "aliasList": [
                    "1076"
                ],
                "actionId": 178,
                "KICBIOMGHIN": 40250938,
                "PNCCODDABKI": 0.5
            }
        ],
        [
            {
                "$type": "CCEEIGNAILH",
                "type": "DIALOG",
                "aliasList": [
                    "1076"
                ],
                "actionId": 180,
                "KICBIOMGHIN": 40250939,
                "PNCCODDABKI": 0.5
            },
            {
                "$type": "MEKNGCBGKEJ",
                "type": "DIALOG_SELECT",
                "delayTime": 0.4000000059604645,
                "aliasList": [
                    "AvatarNpc"
                ],
                "actionId": 201,
                "MLAABINGLAA": [
                    40250940
                ],
                "HPBPDBFGKID": [
                    1101791123
                ],
                "CFJOJADDHHG": true,
                "APEOOMIGHNL": 1836656962
            }
        ],
        [
            {
                "$type": "CCEEIGNAILH",
                "type": "DIALOG",
                "aliasList": [
                    "1076"
                ],
                "actionId": 183,
                "KICBIOMGHIN": 40250941,
                "PNCCODDABKI": 0.5
            }
        ],
        [
            {
                "$type": "CCEEIGNAILH",
                "type": "DIALOG",
                "aliasList": [
                    "1076"
                ],
                "actionId": 185,
                "KICBIOMGHIN": 40250942,
                "PNCCODDABKI": 0.5
            }
        ],
        [
            {
                "$type": "CCEEIGNAILH",
                "type": "DIALOG",
                "aliasList": [
                    "1076"
                ],
                "actionId": 187,
                "KICBIOMGHIN": 40250943,
                "PNCCODDABKI": 0.5
            }
        ],
        [
            {
                "$type": "MoleMole.Config.ConfigTimeProtectAction",
                "type": "TIME_PROTECT",
                "duration": 0.10000000149011612,
                "actionId": 105
            },
            {
                "$type": "MoleMole.Config.ConfigSimpleBlackScreenAction",
                "type": "SIMPLE_BLACK_SCREEN",
                "actionId": 188,
                "durationToBlack": 0.5,
                "durationKeepBlack": 1.5,
                "durationFromBlack": 0.5,
                "textMapID": ""
            },
            {
                "$type": "MoleMole.Config.ConfigTimeProtectAction",
                "type": "TIME_PROTECT",
                "duration": 0.699999988079071,
                "actionId": 189
            },
            {
                "$type": "BCJBNCJOPCE",
                "type": "CAMERA_MOVE",
                "delayTime": 0.5,
                "duration": 0.10000000149011612,
                "actionId": 196,
                "KNAICGCGOHN": "EXIT",
                "NGEBMAEFFGJ": {
                    "z": 1.0
                },
                "LIGHLBKBDEI": 30.0,
                "GFIOJGJJGCN": 5,
                "ABAEPHOGOFF": "EaseInOutCubic",
                "KFDBMBFFANN": {},
                "CEDHIBLHMKP": false,
                "KIPMIDIKECP": "",
                "ANFHNPOCMNI": true,
                "BDLGHOJPJHD": "",
                "LCOJGFEOLCK": "",
                "BBBGAEDCJEL": ""
            },
            {
                "$type": "MoleMole.Config.ConfigVisibleInterAction",
                "type": "VISIBLE",
                "delayTime": 0.6000000238418579,
                "aliasList": [
                    "Avatar"
                ],
                "actionId": 206,
                "isVisible": true,
                "extraParam": ""
            },
            {
                "$type": "KCBOGFFHPBD",
                "type": "BODY_LANG",
                "delayTime": 0.6000000238418579,
                "aliasList": [
                    "AvatarNpc"
                ],
                "actionId": 205,
                "AHGOBCDHCMC": true,
                "FHLAMNNHMFA": true,
                "KCEHDJLKIAL": false,
                "AOFEDPBOOIE": ""
            },
            {
                "$type": "KCBOGFFHPBD",
                "type": "BODY_LANG",
                "delayTime": 0.6000000238418579,
                "aliasList": [
                    "1076"
                ],
                "actionId": 191,
                "AHGOBCDHCMC": true,
                "FHLAMNNHMFA": true,
                "KCEHDJLKIAL": false,
                "AOFEDPBOOIE": ""
            },
            {
                "$type": "KCBOGFFHPBD",
                "type": "BODY_LANG",
                "delayTime": 0.6000000238418579,
                "aliasList": [
                    "1005"
                ],
                "actionId": 193,
                "AHGOBCDHCMC": true,
                "FHLAMNNHMFA": true,
                "KCEHDJLKIAL": false,
                "AOFEDPBOOIE": ""
            }
        ]
    ],
    "groupId": [
        {
            "grpId": 1836656963,
            "nextGrpId": 1836656964
        },
        {
            "index": 1,
            "grpId": 1836656964,
            "nextGrpId": 1836656965
        },
        {
            "index": 2,
            "grpId": 1836656965,
            "nextGrpId": 1836656966
        },
        {
            "index": 3,
            "grpId": 1836656966,
            "nextGrpId": 1836656967
        },
        {
            "index": 4,
            "grpId": 1836656967,
            "nextGrpId": 1836656968
        },
        {
            "index": 5,
            "grpId": 1836656968,
            "nextGrpId": 1836656969
        },
        {
            "index": 6,
            "grpId": 1836656969,
            "nextGrpId": 1836656970
        },
        {
            "index": 7,
            "grpId": 1836656970,
            "nextGrpId": 1836656971
        },
        {
            "index": 8,
            "grpId": 1836656971,
            "nextGrpId": 1101791053
        },
        {
            "index": 9,
            "grpId": 1101791053,
            "nextGrpId": 1101791054
        },
        {
            "index": 10,
            "grpId": 1101791054,
            "nextGrpId": 1101791055
        },
        {
            "index": 11,
            "grpId": 1101791055,
            "nextGrpId": 1101791056
        },
        {
            "index": 12,
            "grpId": 1101791056,
            "nextGrpId": 1101791057
        },
        {
            "index": 13,
            "grpId": 1101791057,
            "nextGrpId": 1101791058
        },
        {
            "index": 14,
            "grpId": 1101791058,
            "nextGrpId": 1101791059
        },
        {
            "index": 15,
            "grpId": 1101791059,
            "nextGrpId": 1101791060
        },
        {
            "index": 16,
            "grpId": 1101791060,
            "nextGrpId": 1101791061
        },
        {
            "index": 17,
            "grpId": 1101791061,
            "nextGrpId": 1101791062
        },
        {
            "index": 18,
            "grpId": 1101791062,
            "nextGrpId": 1101791084
        },
        {
            "index": 19,
            "grpId": 1101791084,
            "nextGrpId": 1101791085
        },
        {
            "index": 20,
            "grpId": 1101791085,
            "nextGrpId": 1101791086
        },
        {
            "index": 21,
            "grpId": 1101791086,
            "nextGrpId": 1101791087
        },
        {
            "index": 22,
            "grpId": 1101791087,
            "nextGrpId": 1101791088
        },
        {
            "index": 23,
            "grpId": 1101791088,
            "nextGrpId": 1101791089
        },
        {
            "index": 24,
            "grpId": 1101791089,
            "nextGrpId": 1101791090
        },
        {
            "index": 25,
            "grpId": 1101791090,
            "nextGrpId": 1101791091
        },
        {
            "index": 26,
            "grpId": 1101791091,
            "nextGrpId": 1101791092
        },
        {
            "index": 27,
            "grpId": 1101791092,
            "nextGrpId": 1101791093
        },
        {
            "index": 28,
            "grpId": 1101791093,
            "nextGrpId": 1101791115
        },
        {
            "index": 29,
            "grpId": 1101791115,
            "nextGrpId": 1101791116
        },
        {
            "index": 30,
            "grpId": 1101791116,
            "nextGrpId": 1101791117
        },
        {
            "index": 31,
            "grpId": 1101791117,
            "nextGrpId": 1101791118
        },
        {
            "index": 32,
            "grpId": 1101791118,
            "nextGrpId": 1101791119
        },
        {
            "index": 33,
            "grpId": 1101791119,
            "nextGrpId": 1101791120
        },
        {
            "index": 34,
            "grpId": 1101791120,
            "nextGrpId": 1101791121
        },
        {
            "index": 35,
            "grpId": 1101791121,
            "nextGrpId": 1101791122
        },
        {
            "index": 36,
            "grpId": 1101791122,
            "nextGrpId": 1101791123
        },
        {
            "index": 37,
            "grpId": 1101791123,
            "nextGrpId": 1101791124
        },
        {
            "index": 38,
            "grpId": 1101791124,
            "nextGrpId": 1101791146
        },
        {
            "index": 39,
            "grpId": 1101791146,
            "nextGrpId": 1101791147
        },
        {
            "index": 40,
            "grpId": 1101791147,
            "nextGrpId": 1101791148
        }
    ],
    "freeStyleDic": {
        "1025": [],
        "1026": [],
        "1076": []
    }
}