{
    "luaDataPath": "",
    "entityBan": "",
    "disableNpcLod": true,
    "isAutoBanNpc": true,
    "isBanWidgetPet": true,
    "protectNpcMobileLod": true,
    "startFade": {
        "startFadeOutDuration": 0.0
    },
    "endFade": {
        "startFadeOutDuration": 0.0
    },
    "actors": [
        {
            "alias": "Avatar",
            "visible": true,
            "bornPointName": "21036paoku_player",
            "relativePosType": "AVATAR_NEW",
            "relativePosNpcAlias": "",
            "bindMovingTargetKey": ""
        },
        {
            "alias": "AvatarNpc",
            "visible": true,
            "bornPointName": "21036paoku_player",
            "removeActorType": "NEW_REMOVE",
            "relativePosType": "AVATAR_NEW",
            "relativePosNpcAlias": "",
            "bindMovingTargetKey": ""
        },
        {
            "configID": 2400,
            "alias": "2400",
            "visible": true,
            "bornPointName": "Q2103605",
            "forceCreateDaily": true,
            "relativePosType": "AVATAR_NEW",
            "relativePosNpcAlias": "",
            "bindMovingTargetKey": ""
        }
    ],
    "group": [
        [
            {
                "$type": "MoleMole.Config.ConfigTimeProtectAction",
                "type": "TIME_PROTECT",
                "duration": 1.0,
                "actionId": 104
            },
            {
                "$type": "MoleMole.Config.ConfigBlackScreenAction",
                "type": "BLACK_SCREEN",
                "duration": 1.0,
                "actionId": 132,
                "blackScreenType": "KEEP_BLACK",
                "durationToBlack": 0.5,
                "durationKeepBlack": 1.0,
                "durationFromBlack": 0.5,
                "inteePos": "",
                "textMapID": "",
                "useTextFade": true
            },
            {
                "$type": "MoleMole.Config.ConfigVisibleInterAction",
                "type": "VISIBLE",
                "aliasList": [
                    "Avatar"
                ],
                "actionId": 139,
                "extraParam": ""
            },
            {
                "$type": "MoleMole.Config.ConfigPlayerNPCEnergyTypeAction",
                "type": "SET_PLAYER_NPC_ENERGY_TYPE",
                "aliasList": [
                    "AvatarNpc"
                ],
                "actionId": 137,
                "setHeroEngergyType": true
            }
        ],
        [
            {
                "$type": "MoleMole.Config.ConfigBlackScreenAction",
                "type": "BLACK_SCREEN",
                "duration": 0.5,
                "actionId": 133,
                "blackScreenType": "FROM_BLACK",
                "durationToBlack": 0.5,
                "durationKeepBlack": 0.5,
                "durationFromBlack": 0.5,
                "inteePos": "",
                "textMapID": "",
                "useTextFade": true
            },
            {
                "$type": "IBPNIIGAIPF",
                "type": "LOOK_AT",
                "aliasList": [
                    "Avatar"
                ],
                "actionId": 142,
                "GGIENKFBOGL": true,
                "NDOMJCOFKDJ": 0.5,
                "KIPMIDIKECP": "2400",
                "FGPHOPBEJDE": true,
                "HJJAFGPMJNJ": "",
                "AOFBAGFCGPJ": ""
            },
            {
                "$type": "IBPNIIGAIPF",
                "type": "LOOK_AT",
                "aliasList": [
                    "AvatarNpc"
                ],
                "actionId": 143,
                "GGIENKFBOGL": true,
                "NDOMJCOFKDJ": 0.5,
                "KIPMIDIKECP": "2400",
                "FGPHOPBEJDE": true,
                "HJJAFGPMJNJ": "",
                "AOFBAGFCGPJ": ""
            },
            {
                "$type": "CCEEIGNAILH",
                "type": "DIALOG",
                "aliasList": [
                    "2400"
                ],
                "actionId": 107,
                "KICBIOMGHIN": 210360501,
                "PNCCODDABKI": 0.5
            },
            {
                "$type": "KCBOGFFHPBD",
                "type": "BODY_LANG",
                "aliasList": [
                    "2400"
                ],
                "actionId": 144,
                "GPIEDGOMCGL": 1160,
                "FHLAMNNHMFA": true,
                "KCEHDJLKIAL": false,
                "KCOLHJBDILK": true,
                "AOFEDPBOOIE": ""
            },
            {
                "$type": "MEKNGCBGKEJ",
                "type": "DIALOG_SELECT",
                "delayTime": 0.4000000059604645,
                "aliasList": [
                    "AvatarNpc"
                ],
                "actionId": 135,
                "MLAABINGLAA": [
                    210360502,
                    210360504
                ],
                "HPBPDBFGKID": [
                    337511428,
                    337511429
                ],
                "CFJOJADDHHG": true,
                "APEOOMIGHNL": 337511425
            }
        ],
        [
            {
                "$type": "CCEEIGNAILH",
                "type": "DIALOG",
                "aliasList": [
                    "2400"
                ],
                "actionId": 110,
                "KICBIOMGHIN": 210360503,
                "PNCCODDABKI": 0.5
            }
        ],
        [
            {
                "$type": "CCEEIGNAILH",
                "type": "DIALOG",
                "aliasList": [
                    "2400"
                ],
                "actionId": 112,
                "KICBIOMGHIN": 210360505,
                "PNCCODDABKI": 0.5
            }
        ],
        [
            {
                "$type": "CCEEIGNAILH",
                "type": "DIALOG",
                "aliasList": [
                    "2400"
                ],
                "actionId": 114,
                "KICBIOMGHIN": 210360506,
                "PNCCODDABKI": 0.5
            },
            {
                "$type": "KCBOGFFHPBD",
                "type": "BODY_LANG",
                "delayTime": 0.382999986410141,
                "aliasList": [
                    "2400"
                ],
                "actionId": 145,
                "GPIEDGOMCGL": 1030,
                "FHLAMNNHMFA": true,
                "KCEHDJLKIAL": false,
                "KCOLHJBDILK": true,
                "AOFEDPBOOIE": ""
            },
            {
                "$type": "MEKNGCBGKEJ",
                "type": "DIALOG_SELECT",
                "delayTime": 0.4000000059604645,
                "aliasList": [
                    "AvatarNpc"
                ],
                "actionId": 136,
                "MLAABINGLAA": [
                    210360507,
                    210360510
                ],
                "HPBPDBFGKID": [
                    337511431,
                    337511433
                ],
                "CFJOJADDHHG": true,
                "APEOOMIGHNL": 337511425
            }
        ],
        [
            {
                "$type": "CCEEIGNAILH",
                "type": "DIALOG",
                "aliasList": [
                    "2400"
                ],
                "actionId": 117,
                "KICBIOMGHIN": 210360508,
                "PNCCODDABKI": 0.5
            },
            {
                "$type": "KCBOGFFHPBD",
                "type": "BODY_LANG",
                "aliasList": [
                    "2400"
                ],
                "actionId": 146,
                "GPIEDGOMCGL": 1050,
                "FHLAMNNHMFA": true,
                "KCEHDJLKIAL": false,
                "KCOLHJBDILK": true,
                "AOFEDPBOOIE": ""
            }
        ],
        [
            {
                "$type": "CCEEIGNAILH",
                "type": "DIALOG",
                "aliasList": [
                    "2400"
                ],
                "actionId": 119,
                "KICBIOMGHIN": 210360509,
                "PNCCODDABKI": 0.5
            }
        ],
        [
            {
                "$type": "CCEEIGNAILH",
                "type": "DIALOG",
                "aliasList": [
                    "2400"
                ],
                "actionId": 121,
                "KICBIOMGHIN": 210360511,
                "PNCCODDABKI": 0.5
            },
            {
                "$type": "KCBOGFFHPBD",
                "type": "BODY_LANG",
                "aliasList": [
                    "2400"
                ],
                "actionId": 147,
                "FHLAMNNHMFA": true,
                "KCEHDJLKIAL": false,
                "KCOLHJBDILK": true,
                "AOFEDPBOOIE": ""
            }
        ],
        [
            {
                "$type": "CCEEIGNAILH",
                "type": "DIALOG",
                "aliasList": [
                    "2400"
                ],
                "actionId": 123,
                "KICBIOMGHIN": 210360512,
                "PNCCODDABKI": 0.5
            }
        ],
        [
            {
                "$type": "CCEEIGNAILH",
                "type": "DIALOG",
                "aliasList": [
                    "2400"
                ],
                "actionId": 125,
                "KICBIOMGHIN": 210360513,
                "PNCCODDABKI": 0.5
            }
        ],
        [
            {
                "$type": "CCEEIGNAILH",
                "type": "DIALOG",
                "aliasList": [
                    "2400"
                ],
                "actionId": 127,
                "KICBIOMGHIN": 210360514,
                "PNCCODDABKI": 0.5
            },
            {
                "$type": "KCBOGFFHPBD",
                "type": "BODY_LANG",
                "aliasList": [
                    "2400"
                ],
                "actionId": 148,
                "GPIEDGOMCGL": 1050,
                "FHLAMNNHMFA": true,
                "KCEHDJLKIAL": false,
                "KCOLHJBDILK": true,
                "AOFEDPBOOIE": ""
            }
        ],
        [
            {
                "$type": "MoleMole.Config.ConfigTimeProtectAction",
                "type": "TIME_PROTECT",
                "duration": 0.10000000149011612,
                "actionId": 129
            }
        ],
        [
            {
                "$type": "MoleMole.Config.ConfigTimeProtectAction",
                "type": "TIME_PROTECT",
                "duration": 0.10000000149011612,
                "actionId": 105
            },
            {
                "$type": "MoleMole.Config.ConfigSimpleBlackScreenAction",
                "type": "SIMPLE_BLACK_SCREEN",
                "actionId": 130,
                "durationToBlack": 0.5,
                "durationKeepBlack": 1.0,
                "durationFromBlack": 0.5,
                "textMapID": ""
            },
            {
                "$type": "MoleMole.Config.ConfigTimeProtectAction",
                "type": "TIME_PROTECT",
                "duration": 0.699999988079071,
                "actionId": 131
            },
            {
                "$type": "MoleMole.Config.ConfigVisibleInterAction",
                "type": "VISIBLE",
                "aliasList": [
                    "AvatarNpc"
                ],
                "actionId": 140,
                "extraParam": ""
            },
            {
                "$type": "BCJBNCJOPCE",
                "type": "CAMERA_MOVE",
                "delayTime": 0.5,
                "duration": 0.10000000149011612,
                "actionId": 134,
                "NGEBMAEFFGJ": {
                    "z": 1.0
                },
                "LIGHLBKBDEI": 30.0,
                "GFIOJGJJGCN": 5,
                "ABAEPHOGOFF": "EaseInOutCubic",
                "KFDBMBFFANN": {},
                "CEDHIBLHMKP": false,
                "KIPMIDIKECP": "",
                "ANFHNPOCMNI": true,
                "BDLGHOJPJHD": "",
                "LCOJGFEOLCK": "",
                "BBBGAEDCJEL": ""
            },
            {
                "$type": "MoleMole.Config.ConfigVisibleInterAction",
                "type": "VISIBLE",
                "delayTime": 0.6000000238418579,
                "aliasList": [
                    "Avatar"
                ],
                "actionId": 138,
                "isVisible": true,
                "extraParam": ""
            }
        ]
    ],
    "groupId": [
        {
            "grpId": 337511426,
            "nextGrpId": 337511427
        },
        {
            "index": 1,
            "grpId": 337511427,
            "nextGrpId": 337511428
        },
        {
            "index": 2,
            "grpId": 337511428,
            "nextGrpId": 337511430
        },
        {
            "index": 3,
            "grpId": 337511429,
            "nextGrpId": 337511430
        },
        {
            "index": 4,
            "grpId": 337511430,
            "nextGrpId": 337511431
        },
        {
            "index": 5,
            "grpId": 337511431,
            "nextGrpId": 337511432
        },
        {
            "index": 6,
            "grpId": 337511432,
            "nextGrpId": 1872919664
        },
        {
            "index": 7,
            "grpId": 337511433,
            "nextGrpId": 337511434
        },
        {
            "index": 8,
            "grpId": 337511434,
            "nextGrpId": 1872919662
        },
        {
            "index": 9,
            "grpId": 1872919662,
            "nextGrpId": 1872919663
        },
        {
            "index": 10,
            "grpId": 1872919663,
            "nextGrpId": 1872919664
        },
        {
            "index": 11,
            "grpId": 1872919664,
            "nextGrpId": 1872919665
        },
        {
            "index": 12,
            "grpId": 1872919665,
            "nextGrpId": 1872919666
        }
    ],
    "freeStyleDic": {
        "1025": [],
        "1026": [],
        "2400": [
            1160,
            1030,
            1050
        ]
    }
}