{
    "luaDataPath": "",
    "isSimpleTalk": true,
    "entityBan": "",
    "disableNpcLod": true,
    "protectNpcMobileLod": true,
    "startFade": {
        "startFadeOutDuration": 0.0
    },
    "endFade": {
        "startFadeOutDuration": 0.0
    },
    "actors": [
        {
            "alias": "Avatar",
            "visible": true,
            "bornPointName": "N10000005_T7329405",
            "relativePosType": "AVATAR_NEW",
            "relativePosNpcAlias": "",
            "bindMovingTargetKey": ""
        },
        {
            "configID": 1005,
            "alias": "1005",
            "visible": true,
            "bornPointName": "",
            "relativePosType": "AVATAR_NEW",
            "relativePosNpcAlias": "",
            "bindMovingTargetKey": ""
        },
        {
            "configID": 20930,
            "alias": "20930",
            "visible": true,
            "bornPointName": "",
            "relativePosType": "AVATAR_NEW",
            "relativePosNpcAlias": "",
            "bindMovingTargetKey": ""
        }
    ],
    "group": [
        [
            {
                "$type": "BCJBNCJOPCE",
                "type": "CAMERA_FOCUS",
                "duration": 0.10000000149011612,
                "actionId": 103,
                "KIPMIDIKECP": "",
                "BDLGHOJPJHD": "",
                "LCOJGFEOLCK": "",
                "BBBGAEDCJEL": ""
            },
            {
                "$type": "MoleMole.Config.ConfigTimeProtectAction",
                "type": "TIME_PROTECT",
                "duration": 0.10000000149011612,
                "actionId": 104
            },
            {
                "$type": "BCJBNCJOPCE",
                "type": "CAMERA_MOVE",
                "duration": 1.0,
                "actionId": 132,
                "AKFGKKEOEFA": {
                    "x": 1037.510986328125,
                    "y": 208.91099548339844,
                    "z": 6346.47314453125
                },
                "NGEBMAEFFGJ": {
                    "x": 1036.8199462890625,
                    "y": 208.47300720214844,
                    "z": 6347.048828125
                },
                "LIGHLBKBDEI": 61.138999938964844,
                "GFIOJGJJGCN": 6,
                "ABAEPHOGOFF": "EaseInOutCubic",
                "KFDBMBFFANN": {},
                "IEJBKHHEJEN": true,
                "CEDHIBLHMKP": false,
                "KIPMIDIKECP": "",
                "ANFHNPOCMNI": true,
                "BDLGHOJPJHD": "",
                "LCOJGFEOLCK": "",
                "BBBGAEDCJEL": ""
            },
            {
                "$type": "CNBNGFNKLGP",
                "type": "STEER_TO",
                "delayTime": 0.30000001192092896,
                "duration": 0.800000011920929,
                "aliasList": [
                    "Avatar"
                ],
                "actionId": 129,
                "DEMFHGAIELL": "TO_TARGET_ADVANCED",
                "BBNLLCHBKAI": true,
                "COJBPJMLIFM": true,
                "NLIKMFJCLBP": true,
                "KIPMIDIKECP": "1005",
                "FDLMFGAMGJK": true,
                "AOFBAGFCGPJ": ""
            },
            {
                "$type": "CNBNGFNKLGP",
                "type": "STEER_TO",
                "delayTime": 0.30000001192092896,
                "duration": 0.800000011920929,
                "aliasList": [
                    "20930"
                ],
                "actionId": 130,
                "DEMFHGAIELL": "TO_LOCAL_AVATAR_ADVANCED",
                "BBNLLCHBKAI": true,
                "COJBPJMLIFM": true,
                "NLIKMFJCLBP": true,
                "KIPMIDIKECP": "",
                "FDLMFGAMGJK": true,
                "AOFBAGFCGPJ": ""
            }
        ],
        [
            {
                "$type": "CCEEIGNAILH",
                "type": "DIALOG",
                "aliasList": [
                    "1005"
                ],
                "actionId": 107,
                "KICBIOMGHIN": 732940501,
                "PNCCODDABKI": 0.5
            }
        ],
        [
            {
                "$type": "CCEEIGNAILH",
                "type": "DIALOG",
                "aliasList": [
                    "20930"
                ],
                "actionId": 109,
                "KICBIOMGHIN": 732940502,
                "PNCCODDABKI": 0.5
            }
        ],
        [
            {
                "$type": "CCEEIGNAILH",
                "type": "DIALOG",
                "aliasList": [
                    "1005"
                ],
                "actionId": 111,
                "KICBIOMGHIN": 732940503,
                "PNCCODDABKI": 0.5
            }
        ],
        [
            {
                "$type": "CCEEIGNAILH",
                "type": "DIALOG",
                "aliasList": [
                    "20930"
                ],
                "actionId": 113,
                "KICBIOMGHIN": 732940504,
                "PNCCODDABKI": 0.5
            }
        ],
        [
            {
                "$type": "CCEEIGNAILH",
                "type": "DIALOG",
                "aliasList": [
                    "1005"
                ],
                "actionId": 115,
                "KICBIOMGHIN": 732940505,
                "PNCCODDABKI": 0.5
            }
        ],
        [
            {
                "$type": "CCEEIGNAILH",
                "type": "DIALOG",
                "aliasList": [
                    "20930"
                ],
                "actionId": 117,
                "KICBIOMGHIN": 732940506,
                "PNCCODDABKI": 0.5
            }
        ],
        [
            {
                "$type": "CCEEIGNAILH",
                "type": "DIALOG",
                "aliasList": [
                    "20930"
                ],
                "actionId": 119,
                "KICBIOMGHIN": 732940507,
                "PNCCODDABKI": 0.5
            }
        ],
        [
            {
                "$type": "CCEEIGNAILH",
                "type": "DIALOG",
                "aliasList": [
                    "20930"
                ],
                "actionId": 121,
                "KICBIOMGHIN": 732940508,
                "PNCCODDABKI": 0.5
            },
            {
                "$type": "MEKNGCBGKEJ",
                "type": "DIALOG_SELECT",
                "delayTime": 0.4000000059604645,
                "aliasList": [
                    "Avatar"
                ],
                "actionId": 122,
                "MLAABINGLAA": [
                    732940509
                ],
                "HPBPDBFGKID": [
                    1733860369
                ],
                "CFJOJADDHHG": true,
                "APEOOMIGHNL": 1025762302
            }
        ],
        [
            {
                "$type": "CCEEIGNAILH",
                "type": "DIALOG",
                "aliasList": [
                    "20930"
                ],
                "actionId": 124,
                "KICBIOMGHIN": 732940510,
                "PNCCODDABKI": 0.5
            }
        ],
        [
            {
                "$type": "CCEEIGNAILH",
                "type": "DIALOG",
                "aliasList": [
                    "1005"
                ],
                "actionId": 126,
                "KICBIOMGHIN": 732940511,
                "PNCCODDABKI": 0.5
            }
        ],
        [
            {
                "$type": "CCEEIGNAILH",
                "type": "DIALOG",
                "aliasList": [
                    "20930"
                ],
                "actionId": 128,
                "KICBIOMGHIN": 732940512,
                "PNCCODDABKI": 0.5
            }
        ],
        [
            {
                "$type": "MoleMole.Config.ConfigTimeProtectAction",
                "type": "TIME_PROTECT",
                "duration": 0.10000000149011612,
                "actionId": 105
            }
        ]
    ],
    "groupId": [
        {
            "grpId": 1025762303,
            "nextGrpId": 1025762304
        },
        {
            "index": 1,
            "grpId": 1025762304,
            "nextGrpId": 1025762305
        },
        {
            "index": 2,
            "grpId": 1025762305,
            "nextGrpId": 1025762306
        },
        {
            "index": 3,
            "grpId": 1025762306,
            "nextGrpId": 1025762307
        },
        {
            "index": 4,
            "grpId": 1025762307,
            "nextGrpId": 1025762308
        },
        {
            "index": 5,
            "grpId": 1025762308,
            "nextGrpId": 1025762309
        },
        {
            "index": 6,
            "grpId": 1025762309,
            "nextGrpId": 1025762310
        },
        {
            "index": 7,
            "grpId": 1025762310,
            "nextGrpId": 1025762311
        },
        {
            "index": 8,
            "grpId": 1025762311,
            "nextGrpId": 1733860369
        },
        {
            "index": 9,
            "grpId": 1733860369,
            "nextGrpId": 1733860370
        },
        {
            "index": 10,
            "grpId": 1733860370,
            "nextGrpId": 1733860371
        },
        {
            "index": 11,
            "grpId": 1733860371,
            "nextGrpId": 1733860372
        },
        {
            "index": 12,
            "grpId": 1733860372,
            "nextGrpId": 1733860373
        }
    ],
    "freeStyleDic": {
        "20930": []
    }
}