{
    "radius": 31.5,
    "height": 5.0,
    "furnitureUnits": [
        {
            "furnitureID": 373303,
            "position": {
                "x": -17.219999313354492,
                "z": -3.473794937133789
            },
            "rotation": {
                "y": 26.269559860229492
            }
        },
        {
            "furnitureID": 373302,
            "position": {
                "x": -12.726969718933105,
                "z": -1.8452982902526855
            },
            "rotation": {
                "y": 312.85296630859375
            }
        },
        {
            "furnitureID": 373301,
            "position": {
                "x": -15.330913543701172,
                "z": -3.870070457458496
            },
            "rotation": {
                "y": 342.02288818359375
            }
        },
        {
            "furnitureID": 374104,
            "position": {
                "x": 8.227386474609375,
                "z": 25.56148910522461
            },
            "rotation": {
                "y": 34.414390563964844
            }
        },
        {
            "furnitureID": 374103,
            "position": {
                "x": -8.404496192932129,
                "y": 0.0029032230377197266,
                "z": 26.52527618408203
            },
            "rotation": {
                "x": 0.4705352187156677,
                "y": 351.2826232910156,
                "z": 2.3482844829559326
            }
        },
        {
            "furnitureID": 373112,
            "position": {
                "x": -1.9464335441589355,
                "z": 15.541359901428223
            },
            "rotation": {
                "y": 46.89988708496094
            }
        },
        {
            "furnitureID": 373111,
            "position": {
                "x": -20.695236206054688,
                "z": 17.45103645324707
            },
            "rotation": {
                "y": 73.1680908203125
            }
        },
        {
            "furnitureID": 371103,
            "position": {
                "x": -26.596426010131836,
                "z": -2.5199999809265137
            },
            "rotation": {
                "y": 223.6625213623047
            }
        },
        {
            "furnitureID": 374301,
            "position": {
                "x": 23.164323806762695,
                "z": -2.1699635982513428
            },
            "rotation": {
                "y": 1.7068911790847778
            }
        },
        {
            "furnitureID": 370402,
            "position": {
                "x": -2.356426477432251,
                "z": -12.039999961853027
            }
        },
        {
            "furnitureID": 371102,
            "position": {
                "x": -21.56642723083496,
                "z": -4.800000190734863
            }
        },
        {
            "furnitureID": 370401,
            "position": {
                "x": 18.903573989868164,
                "z": 5.400000095367432
            },
            "rotation": {
                "y": 268.5054016113281
            }
        },
        {
            "furnitureID": 374104,
            "position": {
                "x": -16.596426010131836,
                "z": 23.010000228881836
            },
            "rotation": {
                "y": 345.9394836425781
            }
        },
        {
            "furnitureID": 372307,
            "position": {
                "x": 14.43815803527832,
                "z": -14.617977142333984
            },
            "rotation": {
                "y": 36.047401428222656
            }
        },
        {
            "furnitureID": 372211,
            "position": {
                "x": -0.06642651557922363,
                "z": 14.630000114440918
            },
            "rotation": {
                "y": 46.89988708496094
            }
        },
        {
            "furnitureID": 372201,
            "position": {
                "x": 16.803573608398438,
                "z": -12.100000381469727
            },
            "rotation": {
                "y": 205.48703002929688
            }
        },
        {
            "furnitureID": 372411,
            "position": {
                "x": 20.493574142456055,
                "z": 12.739999771118164
            }
        },
        {
            "furnitureID": 372410,
            "position": {
                "x": 10.983573913574219,
                "z": -12.920000076293945
            }
        },
        {
            "furnitureID": 374103,
            "position": {
                "x": 25.803573608398438,
                "z": 12.569999694824219
            },
            "rotation": {
                "y": 59.037445068359375
            }
        },
        {
            "furnitureID": 372301,
            "position": {
                "x": 27.194477081298828,
                "z": 4.432629108428955
            },
            "rotation": {
                "y": 71.83190155029297
            }
        }
    ],
    "npcSpawnPoints": [
        {},
        {},
        {},
        {},
        {}
    ]
}