{
    "luaDataPath": "",
    "isSimpleTalk": true,
    "entityBan": "",
    "disableNpcLod": true,
    "startFade": {
        "startFadeInDuration": 0.5,
        "startFadeOutDuration": 0.5
    },
    "endFade": {
        "startFadeOutDuration": 0.0
    },
    "actors": [
        {
            "alias": "Avatar",
            "visible": true,
            "bornPointName": "WQ-7226607-Player",
            "relativePosNpcAlias": "",
            "bindMovingTargetKey": ""
        },
        {
            "configID": 1005,
            "alias": "1005",
            "visible": true,
            "bornPointName": "",
            "useRelativePos": true,
            "relativePos": {
                "x": -0.5,
                "z": 0.5
            },
            "removeActorType": "REMOVE_WITH_DISAPPEAR",
            "relativePosNpcAlias": "",
            "bindMovingTargetKey": ""
        },
        {
            "configID": 20485,
            "alias": "20485",
            "visible": true,
            "bornPointName": "",
            "relativePosNpcAlias": "",
            "bindMovingTargetKey": ""
        }
    ],
    "group": [
        [
            {
                "$type": "MoleMole.Config.ConfigTimeProtectAction",
                "type": "TIME_PROTECT",
                "duration": 0.10000000149011612
            },
            {
                "$type": "BCJBNCJOPCE",
                "type": "CAMERA_FOCUS",
                "duration": 0.10000000149011612,
                "KIPMIDIKECP": "",
                "BDLGHOJPJHD": "",
                "LCOJGFEOLCK": "",
                "BBBGAEDCJEL": ""
            }
        ],
        [
            {
                "$type": "CCEEIGNAILH",
                "type": "DIALOG",
                "aliasList": [
                    "1005"
                ],
                "KICBIOMGHIN": 722651601,
                "PNCCODDABKI": 0.5
            }
        ],
        [
            {
                "$type": "CCEEIGNAILH",
                "type": "DIALOG",
                "aliasList": [
                    "20485"
                ],
                "KICBIOMGHIN": 722651602,
                "PNCCODDABKI": 0.5
            }
        ],
        [
            {
                "$type": "CCEEIGNAILH",
                "type": "DIALOG",
                "aliasList": [
                    "1005"
                ],
                "KICBIOMGHIN": 722651603,
                "PNCCODDABKI": 0.5
            }
        ],
        [
            {
                "$type": "CCEEIGNAILH",
                "type": "DIALOG",
                "aliasList": [
                    "20485"
                ],
                "KICBIOMGHIN": 722651604,
                "PNCCODDABKI": 0.5
            }
        ],
        [
            {
                "$type": "MoleMole.Config.ConfigAudioPlayAction",
                "type": "AUDIO_PLAY",
                "audioEventStr": "Play_sfx_quest_LineXiaogong_1201004_window_climb"
            },
            {
                "$type": "MoleMole.Config.ConfigBlackScreenAction",
                "type": "BLACK_SCREEN",
                "duration": 1.0,
                "durationToBlack": 0.5,
                "durationKeepBlack": 1.0,
                "durationFromBlack": 0.5,
                "inteePos": "",
                "textMapID": "",
                "useTextFade": true
            }
        ],
        [
            {
                "$type": "CCEEIGNAILH",
                "type": "DIALOG",
                "aliasList": [
                    "20485"
                ],
                "KICBIOMGHIN": 722651605,
                "PNCCODDABKI": 0.5
            }
        ],
        [
            {
                "$type": "CCEEIGNAILH",
                "type": "DIALOG",
                "aliasList": [
                    "1005"
                ],
                "KICBIOMGHIN": 722651606,
                "PNCCODDABKI": 0.5
            }
        ],
        [
            {
                "$type": "CCEEIGNAILH",
                "type": "DIALOG",
                "aliasList": [
                    "20485"
                ],
                "KICBIOMGHIN": 722651607,
                "PNCCODDABKI": 0.5
            }
        ],
        [
            {
                "$type": "CCEEIGNAILH",
                "type": "DIALOG",
                "aliasList": [
                    "1005"
                ],
                "KICBIOMGHIN": 722651608,
                "PNCCODDABKI": 0.5
            }
        ],
        [
            {
                "$type": "CCEEIGNAILH",
                "type": "DIALOG",
                "aliasList": [
                    "20485"
                ],
                "KICBIOMGHIN": 722651609,
                "PNCCODDABKI": 0.5
            }
        ],
        [
            {
                "$type": "MoleMole.Config.ConfigTimeProtectAction",
                "type": "TIME_PROTECT",
                "duration": 0.10000000149011612
            }
        ]
    ],
    "groupId": [
        {
            "grpId": 2877770198,
            "nextGrpId": 2877770199
        },
        {
            "index": 1,
            "grpId": 2877770199,
            "nextGrpId": 2877770200
        },
        {
            "index": 2,
            "grpId": 2877770200,
            "nextGrpId": 2877770201
        },
        {
            "index": 3,
            "grpId": 2877770201,
            "nextGrpId": 2877770202
        },
        {
            "index": 4,
            "grpId": 2877770202,
            "nextGrpId": 2877770203
        },
        {
            "index": 5,
            "grpId": 2877770203,
            "nextGrpId": 2877770204
        },
        {
            "index": 6,
            "grpId": 2877770204,
            "nextGrpId": 2877770205
        },
        {
            "index": 7,
            "grpId": 2877770205,
            "nextGrpId": 2877770206
        },
        {
            "index": 8,
            "grpId": 2877770206,
            "nextGrpId": 3311530266
        },
        {
            "index": 9,
            "grpId": 3311530266,
            "nextGrpId": 3311530267
        },
        {
            "index": 10,
            "grpId": 3311530267,
            "nextGrpId": 3311530268
        },
        {
            "index": 11,
            "grpId": 3311530268,
            "nextGrpId": 3311530269
        }
    ],
    "freeStyleDic": {
        "20485": []
    }
}