{
    "luaDataPath": "",
    "entityBan": "",
    "disableNpcLod": true,
    "startFade": {
        "startFadeInDuration": 0.5,
        "startFadeOutDuration": 0.5
    },
    "endFade": {
        "startFadeOutDuration": 0.0
    },
    "actors": [
        {
            "alias": "Avatar",
            "visible": true,
            "bornPointName": "WQ-7226504-NPC",
            "relativePosNpcAlias": "",
            "bindMovingTargetKey": ""
        },
        {
            "configID": 20485,
            "alias": "20485",
            "visible": true,
            "bornPointName": "",
            "relativePosNpcAlias": "",
            "bindMovingTargetKey": ""
        },
        {
            "configID": 1005,
            "alias": "1005",
            "visible": true,
            "bornPointName": "",
            "useRelativePos": true,
            "relativePos": {
                "x": -0.5,
                "z": 0.5
            },
            "removeActorType": "REMOVE_WITH_DISAPPEAR",
            "relativePosNpcAlias": "",
            "bindMovingTargetKey": ""
        }
    ],
    "group": [
        [
            {
                "$type": "MoleMole.Config.ConfigTimeProtectAction",
                "type": "TIME_PROTECT",
                "duration": 0.10000000149011612
            },
            {
                "$type": "BCJBNCJOPCE",
                "type": "CAMERA_FOCUS",
                "duration": 0.10000000149011612,
                "KIPMIDIKECP": "",
                "BDLGHOJPJHD": "",
                "LCOJGFEOLCK": "",
                "BBBGAEDCJEL": ""
            }
        ],
        [
            {
                "$type": "IBPNIIGAIPF",
                "type": "LOOK_AT",
                "aliasList": [
                    "1005"
                ],
                "GGIENKFBOGL": true,
                "NDOMJCOFKDJ": 0.5,
                "KIPMIDIKECP": "20485",
                "HJJAFGPMJNJ": "",
                "AOFBAGFCGPJ": ""
            },
            {
                "$type": "CCEEIGNAILH",
                "type": "DIALOG",
                "aliasList": [
                    "20485"
                ],
                "KICBIOMGHIN": 722650801,
                "PNCCODDABKI": 0.5
            },
            {
                "$type": "IBPNIIGAIPF",
                "type": "LOOK_AT",
                "aliasList": [
                    "Avatar"
                ],
                "GGIENKFBOGL": true,
                "NDOMJCOFKDJ": 0.5,
                "KIPMIDIKECP": "20485",
                "HJJAFGPMJNJ": "",
                "AOFBAGFCGPJ": ""
            }
        ],
        [
            {
                "$type": "CCEEIGNAILH",
                "type": "DIALOG",
                "aliasList": [
                    "1005"
                ],
                "KICBIOMGHIN": 722650802,
                "PNCCODDABKI": 0.5
            },
            {
                "$type": "MEKNGCBGKEJ",
                "type": "DIALOG_SELECT",
                "delayTime": 0.4000000059604645,
                "aliasList": [
                    "Avatar"
                ],
                "MLAABINGLAA": [
                    722650803
                ],
                "HPBPDBFGKID": [
                    2877742332
                ],
                "CFJOJADDHHG": true
            }
        ],
        [
            {
                "$type": "CCEEIGNAILH",
                "type": "DIALOG",
                "aliasList": [
                    "20485"
                ],
                "KICBIOMGHIN": 722650804,
                "PNCCODDABKI": 0.5
            }
        ],
        [
            {
                "$type": "CCEEIGNAILH",
                "type": "DIALOG",
                "aliasList": [
                    "20485"
                ],
                "KICBIOMGHIN": 722650805,
                "PNCCODDABKI": 0.5
            },
            {
                "$type": "MEKNGCBGKEJ",
                "type": "DIALOG_SELECT",
                "delayTime": 0.4000000059604645,
                "aliasList": [
                    "Avatar"
                ],
                "MLAABINGLAA": [
                    722650806
                ],
                "HPBPDBFGKID": [
                    2877742334
                ],
                "CFJOJADDHHG": true
            }
        ],
        [
            {
                "$type": "MEKNGCBGKEJ",
                "type": "DIALOG_SELECT",
                "delayTime": 0.4000000059604645,
                "aliasList": [
                    "Avatar"
                ],
                "MLAABINGLAA": [
                    722650807
                ],
                "HPBPDBFGKID": [
                    2877742335
                ],
                "CFJOJADDHHG": true
            }
        ],
        [
            {
                "$type": "CCEEIGNAILH",
                "type": "DIALOG",
                "aliasList": [
                    "20485"
                ],
                "KICBIOMGHIN": 722650808,
                "PNCCODDABKI": 0.5
            }
        ],
        [
            {
                "$type": "CCEEIGNAILH",
                "type": "DIALOG",
                "aliasList": [
                    "1005"
                ],
                "KICBIOMGHIN": 722650809,
                "PNCCODDABKI": 0.5
            },
            {
                "$type": "MEKNGCBGKEJ",
                "type": "DIALOG_SELECT",
                "delayTime": 0.4000000059604645,
                "aliasList": [
                    "Avatar"
                ],
                "MLAABINGLAA": [
                    722650810,
                    722650811
                ],
                "HPBPDBFGKID": [
                    2877742337,
                    2877742337
                ],
                "CFJOJADDHHG": true
            }
        ],
        [
            {
                "$type": "CCEEIGNAILH",
                "type": "DIALOG",
                "aliasList": [
                    "20485"
                ],
                "KICBIOMGHIN": 722650812,
                "PNCCODDABKI": 0.5
            },
            {
                "$type": "MEKNGCBGKEJ",
                "type": "DIALOG_SELECT",
                "delayTime": 0.4000000059604645,
                "aliasList": [
                    "Avatar"
                ],
                "MLAABINGLAA": [
                    722650813
                ],
                "HPBPDBFGKID": [
                    3310666327
                ],
                "CFJOJADDHHG": true
            }
        ],
        [
            {
                "$type": "CCEEIGNAILH",
                "type": "DIALOG",
                "aliasList": [
                    "1005"
                ],
                "KICBIOMGHIN": 722650814,
                "PNCCODDABKI": 0.5
            }
        ],
        [
            {
                "$type": "CCEEIGNAILH",
                "type": "DIALOG",
                "aliasList": [
                    "20485"
                ],
                "KICBIOMGHIN": 722650815,
                "PNCCODDABKI": 0.5
            },
            {
                "$type": "MEKNGCBGKEJ",
                "type": "DIALOG_SELECT",
                "delayTime": 0.4000000059604645,
                "aliasList": [
                    "Avatar"
                ],
                "MLAABINGLAA": [
                    722650816,
                    722650818
                ],
                "HPBPDBFGKID": [
                    3310666329,
                    3310666330
                ],
                "CFJOJADDHHG": true
            }
        ],
        [
            {
                "$type": "CCEEIGNAILH",
                "type": "DIALOG",
                "aliasList": [
                    "1005"
                ],
                "KICBIOMGHIN": 722650817,
                "PNCCODDABKI": 0.5
            }
        ],
        [
            {
                "$type": "CCEEIGNAILH",
                "type": "DIALOG",
                "aliasList": [
                    "1005"
                ],
                "KICBIOMGHIN": 722650819,
                "PNCCODDABKI": 0.5
            }
        ],
        [
            {
                "$type": "CCEEIGNAILH",
                "type": "DIALOG",
                "aliasList": [
                    "20485"
                ],
                "KICBIOMGHIN": 722650820,
                "PNCCODDABKI": 0.5
            }
        ],
        [
            {
                "$type": "CCEEIGNAILH",
                "type": "DIALOG",
                "aliasList": [
                    "20485"
                ],
                "KICBIOMGHIN": 722650821,
                "PNCCODDABKI": 0.5
            }
        ],
        [
            {
                "$type": "CCEEIGNAILH",
                "type": "DIALOG",
                "aliasList": [
                    "20485"
                ],
                "KICBIOMGHIN": 722650822,
                "PNCCODDABKI": 0.5
            }
        ],
        [
            {
                "$type": "CCEEIGNAILH",
                "type": "DIALOG",
                "aliasList": [
                    "1005"
                ],
                "KICBIOMGHIN": 722650823,
                "PNCCODDABKI": 0.5
            },
            {
                "$type": "MEKNGCBGKEJ",
                "type": "DIALOG_SELECT",
                "delayTime": 0.4000000059604645,
                "aliasList": [
                    "Avatar"
                ],
                "MLAABINGLAA": [
                    722650824,
                    722650825
                ],
                "HPBPDBFGKID": [
                    3310666335,
                    3310666335
                ],
                "CFJOJADDHHG": true
            }
        ],
        [
            {
                "$type": "CCEEIGNAILH",
                "type": "DIALOG",
                "aliasList": [
                    "20485"
                ],
                "KICBIOMGHIN": 722650826,
                "PNCCODDABKI": 0.5
            }
        ],
        [
            {
                "$type": "CCEEIGNAILH",
                "type": "DIALOG",
                "aliasList": [
                    "20485"
                ],
                "KICBIOMGHIN": 722650827,
                "PNCCODDABKI": 0.5
            }
        ],
        [
            {
                "$type": "CCEEIGNAILH",
                "type": "DIALOG",
                "aliasList": [
                    "20485"
                ],
                "KICBIOMGHIN": 722650828,
                "PNCCODDABKI": 0.5
            }
        ],
        [
            {
                "$type": "CCEEIGNAILH",
                "type": "DIALOG",
                "aliasList": [
                    "20485"
                ],
                "KICBIOMGHIN": 722650829,
                "PNCCODDABKI": 0.5
            }
        ],
        [
            {
                "$type": "CCEEIGNAILH",
                "type": "DIALOG",
                "aliasList": [
                    "20485"
                ],
                "KICBIOMGHIN": 722650830,
                "PNCCODDABKI": 0.5
            }
        ],
        [
            {
                "$type": "CCEEIGNAILH",
                "type": "DIALOG",
                "aliasList": [
                    "1005"
                ],
                "KICBIOMGHIN": 722650831,
                "PNCCODDABKI": 0.5
            }
        ],
        [
            {
                "$type": "CCEEIGNAILH",
                "type": "DIALOG",
                "aliasList": [
                    "20485"
                ],
                "KICBIOMGHIN": 722650832,
                "PNCCODDABKI": 0.5
            }
        ],
        [
            {
                "$type": "CCEEIGNAILH",
                "type": "DIALOG",
                "aliasList": [
                    "1005"
                ],
                "KICBIOMGHIN": 722650833,
                "PNCCODDABKI": 0.5
            }
        ],
        [
            {
                "$type": "CCEEIGNAILH",
                "type": "DIALOG",
                "aliasList": [
                    "20485"
                ],
                "KICBIOMGHIN": 722650834,
                "PNCCODDABKI": 0.5
            }
        ],
        [
            {
                "$type": "CCEEIGNAILH",
                "type": "DIALOG",
                "aliasList": [
                    "20485"
                ],
                "KICBIOMGHIN": 722650835,
                "PNCCODDABKI": 0.5
            }
        ],
        [
            {
                "$type": "CCEEIGNAILH",
                "type": "DIALOG",
                "aliasList": [
                    "1005"
                ],
                "KICBIOMGHIN": 722650836,
                "PNCCODDABKI": 0.5
            },
            {
                "$type": "MEKNGCBGKEJ",
                "type": "DIALOG_SELECT",
                "delayTime": 0.4000000059604645,
                "aliasList": [
                    "Avatar"
                ],
                "MLAABINGLAA": [
                    722650837
                ],
                "HPBPDBFGKID": [
                    3310666367
                ],
                "CFJOJADDHHG": true
            }
        ],
        [
            {
                "$type": "CCEEIGNAILH",
                "type": "DIALOG",
                "aliasList": [
                    "20485"
                ],
                "KICBIOMGHIN": 722650838,
                "PNCCODDABKI": 0.5
            },
            {
                "$type": "MEKNGCBGKEJ",
                "type": "DIALOG_SELECT",
                "delayTime": 0.4000000059604645,
                "aliasList": [
                    "Avatar"
                ],
                "MLAABINGLAA": [
                    722650839
                ],
                "HPBPDBFGKID": [
                    3310666389
                ],
                "CFJOJADDHHG": true
            }
        ],
        [
            {
                "$type": "CCEEIGNAILH",
                "type": "DIALOG",
                "aliasList": [
                    "1005"
                ],
                "KICBIOMGHIN": 722650840,
                "PNCCODDABKI": 0.5
            },
            {
                "$type": "MEKNGCBGKEJ",
                "type": "DIALOG_SELECT",
                "delayTime": 0.4000000059604645,
                "aliasList": [
                    "Avatar"
                ],
                "MLAABINGLAA": [
                    722650841
                ],
                "HPBPDBFGKID": [
                    3310666390
                ],
                "CFJOJADDHHG": true
            }
        ],
        [
            {
                "$type": "CCEEIGNAILH",
                "type": "DIALOG",
                "aliasList": [
                    "20485"
                ],
                "KICBIOMGHIN": 722650842,
                "PNCCODDABKI": 0.5
            }
        ],
        [
            {
                "$type": "CCEEIGNAILH",
                "type": "DIALOG",
                "aliasList": [
                    "20485"
                ],
                "KICBIOMGHIN": 722650843,
                "PNCCODDABKI": 0.5
            }
        ],
        [
            {
                "$type": "CCEEIGNAILH",
                "type": "DIALOG",
                "aliasList": [
                    "20485"
                ],
                "KICBIOMGHIN": 722650844,
                "PNCCODDABKI": 0.5
            }
        ],
        [
            {
                "$type": "CCEEIGNAILH",
                "type": "DIALOG",
                "aliasList": [
                    "20485"
                ],
                "KICBIOMGHIN": 722650845,
                "PNCCODDABKI": 0.5
            }
        ],
        [
            {
                "$type": "CCEEIGNAILH",
                "type": "DIALOG",
                "aliasList": [
                    "20485"
                ],
                "KICBIOMGHIN": 722650846,
                "PNCCODDABKI": 0.5
            }
        ],
        [
            {
                "$type": "CCEEIGNAILH",
                "type": "DIALOG",
                "aliasList": [
                    "20485"
                ],
                "KICBIOMGHIN": 722650847,
                "PNCCODDABKI": 0.5
            },
            {
                "$type": "MEKNGCBGKEJ",
                "type": "DIALOG_SELECT",
                "delayTime": 0.4000000059604645,
                "aliasList": [
                    "Avatar"
                ],
                "MLAABINGLAA": [
                    722650848
                ],
                "HPBPDBFGKID": [
                    3310666396
                ],
                "CFJOJADDHHG": true
            }
        ],
        [
            {
                "$type": "CCEEIGNAILH",
                "type": "DIALOG",
                "aliasList": [
                    "1005"
                ],
                "KICBIOMGHIN": 722650849,
                "PNCCODDABKI": 0.5
            }
        ],
        [
            {
                "$type": "CCEEIGNAILH",
                "type": "DIALOG",
                "aliasList": [
                    "20485"
                ],
                "KICBIOMGHIN": 722650850,
                "PNCCODDABKI": 0.5
            }
        ],
        [
            {
                "$type": "CCEEIGNAILH",
                "type": "DIALOG",
                "aliasList": [
                    "20485"
                ],
                "KICBIOMGHIN": 722650851,
                "PNCCODDABKI": 0.5
            }
        ],
        [
            {
                "$type": "CCEEIGNAILH",
                "type": "DIALOG",
                "aliasList": [
                    "1005"
                ],
                "KICBIOMGHIN": 722650852,
                "PNCCODDABKI": 0.5
            }
        ],
        [
            {
                "$type": "CCEEIGNAILH",
                "type": "DIALOG",
                "aliasList": [
                    "1005"
                ],
                "KICBIOMGHIN": 722650853,
                "PNCCODDABKI": 0.5
            },
            {
                "$type": "MEKNGCBGKEJ",
                "type": "DIALOG_SELECT",
                "delayTime": 0.4000000059604645,
                "aliasList": [
                    "Avatar"
                ],
                "MLAABINGLAA": [
                    722650854
                ],
                "HPBPDBFGKID": [
                    3310666422
                ],
                "CFJOJADDHHG": true
            }
        ],
        [
            {
                "$type": "CCEEIGNAILH",
                "type": "DIALOG",
                "aliasList": [
                    "1005"
                ],
                "KICBIOMGHIN": 722650855,
                "PNCCODDABKI": 0.5
            },
            {
                "$type": "MEKNGCBGKEJ",
                "type": "DIALOG_SELECT",
                "delayTime": 0.4000000059604645,
                "aliasList": [
                    "Avatar"
                ],
                "MLAABINGLAA": [
                    722650856
                ],
                "HPBPDBFGKID": [
                    3310666423
                ],
                "CFJOJADDHHG": true
            }
        ],
        [
            {
                "$type": "CCEEIGNAILH",
                "type": "DIALOG",
                "aliasList": [
                    "1005"
                ],
                "KICBIOMGHIN": 722650857,
                "PNCCODDABKI": 0.5
            }
        ],
        [
            {
                "$type": "CCEEIGNAILH",
                "type": "DIALOG",
                "aliasList": [
                    "20485"
                ],
                "KICBIOMGHIN": 722650858,
                "PNCCODDABKI": 0.5
            }
        ],
        [
            {
                "$type": "CCEEIGNAILH",
                "type": "DIALOG",
                "aliasList": [
                    "1005"
                ],
                "KICBIOMGHIN": 722650859,
                "PNCCODDABKI": 0.5
            }
        ],
        [
            {
                "$type": "CCEEIGNAILH",
                "type": "DIALOG",
                "aliasList": [
                    "1005"
                ],
                "KICBIOMGHIN": 722650860,
                "PNCCODDABKI": 0.5
            }
        ],
        [
            {
                "$type": "CCEEIGNAILH",
                "type": "DIALOG",
                "aliasList": [
                    "20485"
                ],
                "KICBIOMGHIN": 722650861,
                "PNCCODDABKI": 0.5
            }
        ],
        [
            {
                "$type": "CCEEIGNAILH",
                "type": "DIALOG",
                "aliasList": [
                    "20485"
                ],
                "KICBIOMGHIN": 722650862,
                "PNCCODDABKI": 0.5
            }
        ],
        [
            {
                "$type": "CCEEIGNAILH",
                "type": "DIALOG",
                "aliasList": [
                    "20485"
                ],
                "KICBIOMGHIN": 722650863,
                "PNCCODDABKI": 0.5
            }
        ],
        [
            {
                "$type": "CCEEIGNAILH",
                "type": "DIALOG",
                "aliasList": [
                    "1005"
                ],
                "KICBIOMGHIN": 722650864,
                "PNCCODDABKI": 0.5
            },
            {
                "$type": "MEKNGCBGKEJ",
                "type": "DIALOG_SELECT",
                "delayTime": 0.4000000059604645,
                "aliasList": [
                    "Avatar"
                ],
                "MLAABINGLAA": [
                    722650865
                ],
                "HPBPDBFGKID": [
                    3310666452
                ],
                "CFJOJADDHHG": true
            }
        ],
        [
            {
                "$type": "CCEEIGNAILH",
                "type": "DIALOG",
                "aliasList": [
                    "1005"
                ],
                "KICBIOMGHIN": 722650866,
                "PNCCODDABKI": 0.5
            }
        ],
        [
            {
                "$type": "CCEEIGNAILH",
                "type": "DIALOG",
                "aliasList": [
                    "20485"
                ],
                "KICBIOMGHIN": 722650867,
                "PNCCODDABKI": 0.5
            }
        ],
        [
            {
                "$type": "CCEEIGNAILH",
                "type": "DIALOG",
                "aliasList": [
                    "20485"
                ],
                "KICBIOMGHIN": 722650868,
                "PNCCODDABKI": 0.5
            }
        ],
        [
            {
                "$type": "MoleMole.Config.ConfigSimpleBlackScreenAction",
                "type": "SIMPLE_BLACK_SCREEN",
                "duration": 1.0,
                "durationToBlack": 0.5,
                "durationKeepBlack": 1.0,
                "durationFromBlack": 0.5,
                "textMapID": "",
                "useTextFade": true
            },
            {
                "$type": "MoleMole.Config.ConfigVisibleInterAction",
                "type": "VISIBLE",
                "delayTime": 0.5,
                "aliasList": [
                    "20485"
                ],
                "extraParam": ""
            }
        ],
        [
            {
                "$type": "CCEEIGNAILH",
                "type": "DIALOG",
                "aliasList": [
                    "1005"
                ],
                "KICBIOMGHIN": 722650870,
                "PNCCODDABKI": 0.5
            },
            {
                "$type": "MoleMole.Config.ConfigVisibleInterAction",
                "type": "VISIBLE",
                "aliasList": [
                    "20485"
                ],
                "extraParam": ""
            }
        ],
        [
            {
                "$type": "MoleMole.Config.ConfigVisibleInterAction",
                "type": "VISIBLE",
                "aliasList": [
                    "20485"
                ],
                "extraParam": ""
            },
            {
                "$type": "MoleMole.Config.ConfigTimeProtectAction",
                "type": "TIME_PROTECT",
                "duration": 0.10000000149011612
            }
        ]
    ],
    "groupId": [
        {
            "grpId": 2877742329,
            "nextGrpId": 2877742330
        },
        {
            "index": 1,
            "grpId": 2877742330,
            "nextGrpId": 2877742331
        },
        {
            "index": 2,
            "grpId": 2877742331,
            "nextGrpId": 2877742332
        },
        {
            "index": 3,
            "grpId": 2877742332,
            "nextGrpId": 2877742333
        },
        {
            "index": 4,
            "grpId": 2877742333,
            "nextGrpId": 2877742334
        },
        {
            "index": 5,
            "grpId": 2877742334,
            "nextGrpId": 2877742335
        },
        {
            "index": 6,
            "grpId": 2877742335,
            "nextGrpId": 2877742336
        },
        {
            "index": 7,
            "grpId": 2877742336,
            "nextGrpId": 2877742337
        },
        {
            "index": 8,
            "grpId": 2877742337,
            "nextGrpId": 3310666327
        },
        {
            "index": 9,
            "grpId": 3310666327,
            "nextGrpId": 3310666328
        },
        {
            "index": 10,
            "grpId": 3310666328,
            "nextGrpId": 3310666329
        },
        {
            "index": 11,
            "grpId": 3310666329,
            "nextGrpId": 3310666330
        },
        {
            "index": 12,
            "grpId": 3310666330,
            "nextGrpId": 3310666331
        },
        {
            "index": 13,
            "grpId": 3310666331,
            "nextGrpId": 3310666332
        },
        {
            "index": 14,
            "grpId": 3310666332,
            "nextGrpId": 3310666333
        },
        {
            "index": 15,
            "grpId": 3310666333,
            "nextGrpId": 3310666334
        },
        {
            "index": 16,
            "grpId": 3310666334,
            "nextGrpId": 3310666335
        },
        {
            "index": 17,
            "grpId": 3310666335,
            "nextGrpId": 3310666336
        },
        {
            "index": 18,
            "grpId": 3310666336,
            "nextGrpId": 3310666358
        },
        {
            "index": 19,
            "grpId": 3310666358,
            "nextGrpId": 3310666359
        },
        {
            "index": 20,
            "grpId": 3310666359,
            "nextGrpId": 3310666360
        },
        {
            "index": 21,
            "grpId": 3310666360,
            "nextGrpId": 3310666361
        },
        {
            "index": 22,
            "grpId": 3310666361,
            "nextGrpId": 3310666362
        },
        {
            "index": 23,
            "grpId": 3310666362,
            "nextGrpId": 3310666363
        },
        {
            "index": 24,
            "grpId": 3310666363,
            "nextGrpId": 3310666364
        },
        {
            "index": 25,
            "grpId": 3310666364,
            "nextGrpId": 3310666365
        },
        {
            "index": 26,
            "grpId": 3310666365,
            "nextGrpId": 3310666366
        },
        {
            "index": 27,
            "grpId": 3310666366,
            "nextGrpId": 3310666367
        },
        {
            "index": 28,
            "grpId": 3310666367,
            "nextGrpId": 3310666389
        },
        {
            "index": 29,
            "grpId": 3310666389,
            "nextGrpId": 3310666390
        },
        {
            "index": 30,
            "grpId": 3310666390,
            "nextGrpId": 3310666391
        },
        {
            "index": 31,
            "grpId": 3310666391,
            "nextGrpId": 3310666392
        },
        {
            "index": 32,
            "grpId": 3310666392,
            "nextGrpId": 3310666393
        },
        {
            "index": 33,
            "grpId": 3310666393,
            "nextGrpId": 3310666394
        },
        {
            "index": 34,
            "grpId": 3310666394,
            "nextGrpId": 3310666395
        },
        {
            "index": 35,
            "grpId": 3310666395,
            "nextGrpId": 3310666396
        },
        {
            "index": 36,
            "grpId": 3310666396,
            "nextGrpId": 3310666397
        },
        {
            "index": 37,
            "grpId": 3310666397,
            "nextGrpId": 3310666398
        },
        {
            "index": 38,
            "grpId": 3310666398,
            "nextGrpId": 3310666420
        },
        {
            "index": 39,
            "grpId": 3310666420,
            "nextGrpId": 3310666421
        },
        {
            "index": 40,
            "grpId": 3310666421,
            "nextGrpId": 3310666422
        },
        {
            "index": 41,
            "grpId": 3310666422,
            "nextGrpId": 3310666423
        },
        {
            "index": 42,
            "grpId": 3310666423,
            "nextGrpId": 3310666424
        },
        {
            "index": 43,
            "grpId": 3310666424,
            "nextGrpId": 3310666425
        },
        {
            "index": 44,
            "grpId": 3310666425,
            "nextGrpId": 3310666426
        },
        {
            "index": 45,
            "grpId": 3310666426,
            "nextGrpId": 3310666427
        },
        {
            "index": 46,
            "grpId": 3310666427,
            "nextGrpId": 3310666428
        },
        {
            "index": 47,
            "grpId": 3310666428,
            "nextGrpId": 3310666429
        },
        {
            "index": 48,
            "grpId": 3310666429,
            "nextGrpId": 3310666451
        },
        {
            "index": 49,
            "grpId": 3310666451,
            "nextGrpId": 3310666452
        },
        {
            "index": 50,
            "grpId": 3310666452,
            "nextGrpId": 3310666453
        },
        {
            "index": 51,
            "grpId": 3310666453,
            "nextGrpId": 3310666454
        },
        {
            "index": 52,
            "grpId": 3310666454,
            "nextGrpId": 3310666455
        },
        {
            "index": 53,
            "grpId": 3310666455,
            "nextGrpId": 3310666456
        },
        {
            "index": 54,
            "grpId": 3310666456,
            "nextGrpId": 3310666457
        },
        {
            "index": 55,
            "grpId": 3310666457,
            "nextGrpId": 3310666458
        }
    ],
    "freeStyleDic": {
        "20485": []
    }
}