{
    "entities": {
        "1": {
            "$type": "MBIKCEBOCKA",
            "gadgetId": 70010006,
            "pos": {
                "x": -0.48540911078453064,
                "y": -21.54844093322754,
                "z": -5.2005228996276855
            },
            "unlocked": true,
            "alias": "",
            "triggerFlag": "LevelAbility",
            "shape": {
                "$type": "BHMDEDHPEFH",
                "EAIPPAJKGFO": true,
                "height": 10.0,
                "LDMENJHNDON": "Center",
                "width": 240.0,
                "length": 240.0
            },
            "stringParam": "Dvalin_S04_DeadRegion"
        },
        "2": {
            "$type": "MBIKCEBOCKA",
            "gadgetId": 70010006,
            "pos": {
                "x": 1.3488919734954834,
                "y": -56.40726089477539,
                "z": -6.711201190948486
            },
            "unlocked": true,
            "alias": "",
            "triggerFlag": "NoReviveRegion",
            "shape": {
                "$type": "BHMDEDHPEFH",
                "EAIPPAJKGFO": true,
                "height": 100.0,
                "LDMENJHNDON": "Center",
                "width": 240.0,
                "length": 240.0
            },
            "stringParam": "Dvalin_S04_DeadRegion"
        }
    },
    "AGHEGEFDJOA": {}
}