{
    "NMLGOIJIDMO": {
        "1": {
            "$type": "FHNGLBIHCJO",
            "gadgetId": 70120004,
            "pos": {
                "x": 20.554119110107422,
                "y": 0.46000048518180847,
                "z": -20.615869522094727
            },
            "tranPos": {
                "x": 20.554122924804688,
                "y": 0.46000051498413086,
                "z": -21.35207748413086
            },
            "alias": "",
            "musicSubStates": {
                "x": 5.0,
                "y": 5.0,
                "z": 5.0
            }
        }
    },
    "AGHEGEFDJOA": {}
}