{
    "NMLGOIJIDMO": {
        "1": {
            "$type": "HAMECKLBPHA",
            "gadgetId": 70010006,
            "pos": {
                "x": 863.9320068359375,
                "y": 20.780969619750977,
                "z": 507.3594055175781
            },
            "alias": "",
            "MLEILPJGHHM": true
        },
        "2": {
            "$type": "HAMECKLBPHA",
            "gadgetId": 70010006,
            "pos": {
                "x": 108.67310333251953,
                "y": 21.04528045654297,
                "z": 784.518798828125
            },
            "rot": {
                "y": 90.0
            },
            "alias": "",
            "MLEILPJGHHM": true
        },
        "3": {
            "$type": "HAMECKLBPHA",
            "gadgetId": 70010006,
            "pos": {
                "x": 575.4808959960938,
                "y": 21.04528045654297,
                "z": 98.65825653076172
            },
            "alias": "",
            "MLEILPJGHHM": true
        },
        "4": {
            "$type": "HAMECKLBPHA",
            "gadgetId": 70010006,
            "pos": {
                "x": 170.90769958496094,
                "y": 17.202070236206055,
                "z": 361.9497985839844
            },
            "rot": {
                "y": 180.0
            },
            "alias": "",
            "MLEILPJGHHM": true
        },
        "5": {
            "$type": "HAMECKLBPHA",
            "gadgetId": 70010006,
            "pos": {
                "x": 153.67149353027344,
                "y": 17.182069778442383,
                "z": 326.80279541015625
            },
            "rot": {
                "y": 52.0
            },
            "alias": "",
            "MLEILPJGHHM": true
        },
        "6": {
            "$type": "HAMECKLBPHA",
            "gadgetId": 70010006,
            "pos": {
                "x": 187.7700958251953,
                "y": 17.182069778442383,
                "z": 325.87310791015625
            },
            "rot": {
                "y": 310.0
            },
            "alias": "",
            "MLEILPJGHHM": true
        }
    },
    "entities": {
        "1": {
            "$type": "MBIKCEBOCKA",
            "gadgetId": 70010006,
            "pos": {
                "x": 171.0688934326172,
                "z": 339.90789794921875
            },
            "alias": "",
            "DFEBCOOIEHF": 500.0,
            "triggerFlag": "DeadRegion",
            "shape": {
                "$type": "BHMDEDHPEFH",
                "EAIPPAJKGFO": true,
                "height": 20.0,
                "LDMENJHNDON": "Center",
                "width": 150.0,
                "length": 150.0
            },
            "stringParam": ""
        },
        "2": {
            "$type": "MBIKCEBOCKA",
            "gadgetId": 70010006,
            "pos": {
                "x": 863.9644165039062,
                "y": 2.2542970180511475,
                "z": 522.0341186523438
            },
            "alias": "",
            "DFEBCOOIEHF": 500.0,
            "triggerFlag": "DeadRegion",
            "shape": {
                "$type": "BHMDEDHPEFH",
                "EAIPPAJKGFO": true,
                "height": 20.0,
                "LDMENJHNDON": "Center",
                "width": 150.0,
                "length": 150.0
            },
            "stringParam": ""
        },
        "3": {
            "$type": "MBIKCEBOCKA",
            "gadgetId": 70010006,
            "pos": {
                "x": 123.3551025390625,
                "y": 3.3106210231781006,
                "z": 784.5009155273438
            },
            "alias": "",
            "DFEBCOOIEHF": 500.0,
            "triggerFlag": "DeadRegion",
            "shape": {
                "$type": "BHMDEDHPEFH",
                "EAIPPAJKGFO": true,
                "height": 20.0,
                "LDMENJHNDON": "Center",
                "width": 150.0,
                "length": 150.0
            },
            "stringParam": ""
        },
        "4": {
            "$type": "MBIKCEBOCKA",
            "gadgetId": 70010006,
            "pos": {
                "x": 575.5316162109375,
                "y": 3.5406088829040527,
                "z": 113.36910247802734
            },
            "alias": "",
            "DFEBCOOIEHF": 500.0,
            "triggerFlag": "DeadRegion",
            "shape": {
                "$type": "BHMDEDHPEFH",
                "EAIPPAJKGFO": true,
                "height": 20.0,
                "LDMENJHNDON": "Center",
                "width": 150.0,
                "length": 150.0
            },
            "stringParam": ""
        },
        "5": {
            "$type": "MBIKCEBOCKA",
            "gadgetId": 70010006,
            "pos": {
                "x": 171.0688934326172,
                "y": 4.511563777923584,
                "z": 339.90789794921875
            },
            "alias": "",
            "DFEBCOOIEHF": 500.0,
            "triggerFlag": "NoReviveRegion",
            "shape": {
                "$type": "BHMDEDHPEFH",
                "EAIPPAJKGFO": true,
                "height": 20.0,
                "LDMENJHNDON": "Center",
                "width": 150.0,
                "length": 150.0
            },
            "stringParam": ""
        },
        "6": {
            "$type": "MBIKCEBOCKA",
            "gadgetId": 70010006,
            "pos": {
                "x": 863.9644165039062,
                "y": 8.115704536437988,
                "z": 522.0341186523438
            },
            "alias": "",
            "DFEBCOOIEHF": 500.0,
            "triggerFlag": "NoReviveRegion",
            "shape": {
                "$type": "BHMDEDHPEFH",
                "EAIPPAJKGFO": true,
                "height": 20.0,
                "LDMENJHNDON": "Center",
                "width": 150.0,
                "length": 150.0
            },
            "stringParam": ""
        },
        "7": {
            "$type": "MBIKCEBOCKA",
            "gadgetId": 70010006,
            "pos": {
                "x": 123.3551025390625,
                "y": 7.917425155639648,
                "z": 784.5009155273438
            },
            "alias": "",
            "DFEBCOOIEHF": 500.0,
            "triggerFlag": "NoReviveRegion",
            "shape": {
                "$type": "BHMDEDHPEFH",
                "EAIPPAJKGFO": true,
                "height": 20.0,
                "LDMENJHNDON": "Center",
                "width": 150.0,
                "length": 150.0
            },
            "stringParam": ""
        },
        "8": {
            "$type": "MBIKCEBOCKA",
            "gadgetId": 70010006,
            "pos": {
                "x": 575.5316162109375,
                "y": 8.081584930419922,
                "z": 113.36910247802734
            },
            "alias": "",
            "DFEBCOOIEHF": 500.0,
            "triggerFlag": "NoReviveRegion",
            "shape": {
                "$type": "BHMDEDHPEFH",
                "EAIPPAJKGFO": true,
                "height": 20.0,
                "LDMENJHNDON": "Center",
                "width": 150.0,
                "length": 150.0
            },
            "stringParam": ""
        }
    },
    "AGHEGEFDJOA": {}
}