{
    "NMLGOIJIDMO": {
        "1": {
            "$type": "FHNGLBIHCJO",
            "gadgetId": 70120004,
            "pos": {
                "x": -0.09255535155534744,
                "y": 2.5093650817871094,
                "z": -56.60274887084961
            },
            "unlocked": true,
            "alias": "",
            "musicSubStates": {
                "x": 2.0,
                "y": 2.0,
                "z": 2.0
            }
        }
    },
    "entities": {
        "1": {
            "$type": "MBIKCEBOCKA",
            "gadgetId": 70010006,
            "pos": {
                "x": -3.1175529956817627,
                "y": -16.13861083984375,
                "z": -85.54316711425781
            },
            "tranPos": {
                "x": -3.117553234100342,
                "y": 0.0017449641600251198,
                "z": -12.171515464782715
            },
            "unlocked": true,
            "alias": "",
            "triggerFlag": "NoReviveRegion",
            "shape": {
                "$type": "BHMDEDHPEFH",
                "EAIPPAJKGFO": true,
                "height": 30.0,
                "width": 200.0,
                "length": 123.0
            },
            "stringParam": ""
        }
    },
    "AGHEGEFDJOA": {}
}