{
    "NMLGOIJIDMO": {
        "1": {
            "$type": "FHNGLBIHCJO",
            "gadgetId": 70360297,
            "pos": {
                "x": 26.71800994873047,
                "y": 0.5,
                "z": -1.1186519861221313
            },
            "rot": {
                "y": 270.0
            },
            "tranPos": {
                "x": 305.36627197265625,
                "y": -3.1389966011047363,
                "z": 79.37376403808594
            },
            "alias": "",
            "musicSubStates": {
                "x": 5.0,
                "y": 5.0,
                "z": 5.0
            }
        }
    },
    "entities": {
        "1": {
            "$type": "MBIKCEBOCKA",
            "gadgetId": 70010006,
            "pos": {
                "x": -30.18828010559082,
                "y": 5.264926910400391,
                "z": 331.5592956542969
            },
            "tranPos": {
                "x": 6.0857086181640625,
                "y": -3.5182533264160156,
                "z": 6.182591915130615
            },
            "unlocked": true,
            "alias": "",
            "triggerFlag": "DeadRegion",
            "shape": {
                "$type": "BHMDEDHPEFH",
                "EAIPPAJKGFO": true,
                "height": 20.0,
                "LDMENJHNDON": "Center",
                "width": 196.0,
                "length": 196.0
            },
            "stringParam": ""
        },
        "2": {
            "$type": "MBIKCEBOCKA",
            "gadgetId": 70010006,
            "pos": {
                "x": 127.6592025756836,
                "y": -6.458803176879883,
                "z": 33.85332107543945
            },
            "tranPos": {
                "x": 127.65916442871094,
                "y": -13.811983108520508,
                "z": 10.441397666931152
            },
            "unlocked": true,
            "alias": "",
            "shape": {
                "$type": "BHMDEDHPEFH",
                "EAIPPAJKGFO": true,
                "height": 10.0,
                "LDMENJHNDON": "Center",
                "width": 50.0,
                "length": 50.0
            },
            "stringParam": ""
        }
    },
    "AGHEGEFDJOA": {}
}