{
    "entities": {
        "1": {
            "$type": "MBIKCEBOCKA",
            "gadgetId": 70010006,
            "pos": {
                "x": 735.4019775390625,
                "y": 83.81620025634766,
                "z": 778.2030029296875
            },
            "tranPos": {
                "x": 227.3800048828125,
                "y": 90.18360900878906,
                "z": 213.28030395507812
            },
            "unlocked": true,
            "alias": "",
            "DFEBCOOIEHF": 150.0,
            "triggerFlag": "DeadRegion",
            "shape": {
                "$type": "BHMDEDHPEFH",
                "EAIPPAJKGFO": true,
                "height": 3.0,
                "LDMENJHNDON": "Center",
                "width": 150.0,
                "length": 150.0
            },
            "stringParam": ""
        }
    },
    "AGHEGEFDJOA": {}
}