{
    "NMLGOIJIDMO": {
        "1": {
            "$type": "FHNGLBIHCJO",
            "gadgetId": 70120004,
            "pos": {
                "x": 0.033393971621990204,
                "y": 2.849364995956421,
                "z": -50.5163688659668
            },
            "alias": "",
            "musicSubStates": {
                "x": 2.0,
                "y": 2.0,
                "z": 2.0
            }
        }
    },
    "entities": {
        "1": {
            "$type": "MBIKCEBOCKA",
            "gadgetId": 70010006,
            "pos": {
                "x": 21.003440856933594,
                "y": 4.614306926727295,
                "z": 69.8988265991211
            },
            "unlocked": true,
            "alias": "",
            "triggerFlag": "NoReviveRegion",
            "shape": {
                "$type": "BHMDEDHPEFH",
                "EAIPPAJKGFO": true,
                "height": 100.0,
                "width": 20.0,
                "length": 30.0
            },
            "stringParam": ""
        },
        "10": {
            "$type": "MBIKCEBOCKA",
            "gadgetId": 70010006,
            "pos": {
                "x": -13.981229782104492,
                "y": -2.665260076522827,
                "z": -35.436161041259766
            },
            "unlocked": true,
            "alias": "",
            "triggerFlag": "NoReviveRegion",
            "shape": {
                "$type": "BHMDEDHPEFH",
                "EAIPPAJKGFO": true,
                "height": 100.0,
                "width": 20.0,
                "length": 20.0
            },
            "stringParam": ""
        },
        "11": {
            "$type": "MBIKCEBOCKA",
            "gadgetId": 70010006,
            "pos": {
                "x": 19.978559494018555,
                "y": -6.491808891296387,
                "z": -62.48183059692383
            },
            "unlocked": true,
            "alias": "",
            "triggerFlag": "NoReviveRegion",
            "shape": {
                "$type": "BHMDEDHPEFH",
                "EAIPPAJKGFO": true,
                "height": 100.0,
                "width": 20.0,
                "length": 20.0
            },
            "stringParam": ""
        },
        "12": {
            "$type": "MBIKCEBOCKA",
            "gadgetId": 70010006,
            "pos": {
                "x": 18.183349609375,
                "y": -5.769015789031982,
                "z": -43.00209045410156
            },
            "unlocked": true,
            "alias": "",
            "triggerFlag": "NoReviveRegion",
            "shape": {
                "$type": "BHMDEDHPEFH",
                "EAIPPAJKGFO": true,
                "height": 100.0,
                "width": 20.0,
                "length": 20.0
            },
            "stringParam": ""
        },
        "13": {
            "$type": "MBIKCEBOCKA",
            "gadgetId": 70010006,
            "pos": {
                "x": -15.029500007629395,
                "y": -3.5452940464019775,
                "z": -67.64349365234375
            },
            "unlocked": true,
            "alias": "",
            "triggerFlag": "NoReviveRegion",
            "shape": {
                "$type": "BHMDEDHPEFH",
                "EAIPPAJKGFO": true,
                "height": 100.0,
                "width": 20.0,
                "length": 20.0
            },
            "stringParam": ""
        },
        "14": {
            "$type": "MBIKCEBOCKA",
            "gadgetId": 70010006,
            "pos": {
                "x": -20.478349685668945,
                "y": -2.5010640621185303,
                "z": -52.71453857421875
            },
            "unlocked": true,
            "alias": "",
            "triggerFlag": "NoReviveRegion",
            "shape": {
                "$type": "BHMDEDHPEFH",
                "EAIPPAJKGFO": true,
                "height": 100.0,
                "width": 20.0,
                "length": 20.0
            },
            "stringParam": ""
        },
        "15": {
            "$type": "MBIKCEBOCKA",
            "gadgetId": 70010006,
            "pos": {
                "x": 13.549070358276367,
                "y": -1.4096930027008057,
                "z": -29.10774040222168
            },
            "unlocked": true,
            "alias": "",
            "triggerFlag": "NoReviveRegion",
            "shape": {
                "$type": "BHMDEDHPEFH",
                "EAIPPAJKGFO": true,
                "height": 100.0,
                "width": 20.0,
                "length": 14.0
            },
            "stringParam": ""
        },
        "16": {
            "$type": "MBIKCEBOCKA",
            "gadgetId": 70010006,
            "pos": {
                "x": 1.8889570236206055,
                "y": -25.01279067993164,
                "z": -102.7156982421875
            },
            "unlocked": true,
            "alias": "",
            "triggerFlag": "NoReviveRegion",
            "shape": {
                "$type": "BHMDEDHPEFH",
                "EAIPPAJKGFO": true,
                "height": 50.0,
                "width": 200.0,
                "length": 200.0
            },
            "stringParam": ""
        },
        "17": {
            "$type": "MBIKCEBOCKA",
            "gadgetId": 70010006,
            "pos": {
                "x": -12.504690170288086,
                "y": -3.86153507232666,
                "z": -54.78947830200195
            },
            "unlocked": true,
            "alias": "",
            "triggerFlag": "DeadRegion",
            "shape": {
                "$type": "BHMDEDHPEFH",
                "EAIPPAJKGFO": true,
                "height": 5.0,
                "width": 10.0,
                "length": 15.0
            },
            "stringParam": ""
        },
        "18": {
            "$type": "MBIKCEBOCKA",
            "gadgetId": 70010006,
            "pos": {
                "x": 14.676010131835938,
                "y": -4.1089091300964355,
                "z": -47.87657928466797
            },
            "unlocked": true,
            "alias": "",
            "triggerFlag": "DeadRegion",
            "shape": {
                "$type": "BHMDEDHPEFH",
                "EAIPPAJKGFO": true,
                "height": 5.0,
                "width": 10.0,
                "length": 15.0
            },
            "stringParam": ""
        },
        "19": {
            "$type": "MBIKCEBOCKA",
            "gadgetId": 70010006,
            "pos": {
                "x": -21.655370712280273,
                "y": -3.1735990047454834,
                "z": 68.9177017211914
            },
            "unlocked": true,
            "alias": "",
            "triggerFlag": "DeadRegion",
            "shape": {
                "$type": "BHMDEDHPEFH",
                "EAIPPAJKGFO": true,
                "height": 5.0,
                "width": 20.0,
                "length": 15.0
            },
            "stringParam": ""
        },
        "2": {
            "$type": "MBIKCEBOCKA",
            "gadgetId": 70010006,
            "pos": {
                "x": 38.57149887084961,
                "y": -4.746152877807617,
                "z": -24.187240600585938
            },
            "unlocked": true,
            "alias": "",
            "triggerFlag": "NoReviveRegion",
            "shape": {
                "$type": "BHMDEDHPEFH",
                "EAIPPAJKGFO": true,
                "height": 100.0,
                "width": 40.0,
                "length": 60.0
            },
            "stringParam": ""
        },
        "3": {
            "$type": "MBIKCEBOCKA",
            "gadgetId": 70010006,
            "pos": {
                "x": -39.20848846435547,
                "y": -5.495343208312988,
                "z": -22.14419937133789
            },
            "unlocked": true,
            "alias": "",
            "triggerFlag": "NoReviveRegion",
            "shape": {
                "$type": "BHMDEDHPEFH",
                "EAIPPAJKGFO": true,
                "height": 100.0,
                "width": 40.0,
                "length": 60.0
            },
            "stringParam": ""
        },
        "4": {
            "$type": "MBIKCEBOCKA",
            "gadgetId": 70010006,
            "pos": {
                "x": 2.8234920501708984,
                "y": 4.05827522277832,
                "z": 94.8027114868164
            },
            "unlocked": true,
            "alias": "",
            "triggerFlag": "NoReviveRegion",
            "shape": {
                "$type": "BHMDEDHPEFH",
                "EAIPPAJKGFO": true,
                "height": 100.0,
                "width": 30.0,
                "length": 10.0
            },
            "stringParam": ""
        },
        "5": {
            "$type": "MBIKCEBOCKA",
            "gadgetId": 70010006,
            "pos": {
                "x": -13.138699531555176,
                "y": -1.7139699459075928,
                "z": 22.3270206451416
            },
            "unlocked": true,
            "alias": "",
            "triggerFlag": "NoReviveRegion",
            "shape": {
                "$type": "BHMDEDHPEFH",
                "EAIPPAJKGFO": true,
                "height": 100.0,
                "width": 20.0,
                "length": 40.0
            },
            "stringParam": ""
        },
        "6": {
            "$type": "MBIKCEBOCKA",
            "gadgetId": 70010006,
            "pos": {
                "x": -21.03976058959961,
                "y": -1.6224130392074585,
                "z": 64.4482421875
            },
            "unlocked": true,
            "alias": "",
            "triggerFlag": "NoReviveRegion",
            "shape": {
                "$type": "BHMDEDHPEFH",
                "EAIPPAJKGFO": true,
                "height": 100.0,
                "width": 20.0,
                "length": 30.0
            },
            "stringParam": ""
        },
        "7": {
            "$type": "MBIKCEBOCKA",
            "gadgetId": 70010006,
            "pos": {
                "x": 23.77618980407715,
                "y": 2.0475399494171143,
                "z": 31.97216033935547
            },
            "unlocked": true,
            "alias": "",
            "triggerFlag": "NoReviveRegion",
            "shape": {
                "$type": "BHMDEDHPEFH",
                "EAIPPAJKGFO": true,
                "height": 100.0,
                "width": 40.0,
                "length": 40.0
            },
            "stringParam": ""
        },
        "8": {
            "$type": "MBIKCEBOCKA",
            "gadgetId": 70010006,
            "pos": {
                "x": 12.357769966125488,
                "y": -6.759346961975098,
                "z": 22.068450927734375
            },
            "unlocked": true,
            "alias": "",
            "triggerFlag": "NoReviveRegion",
            "shape": {
                "$type": "BHMDEDHPEFH",
                "EAIPPAJKGFO": true,
                "height": 100.0,
                "width": 10.0,
                "length": 10.0
            },
            "stringParam": ""
        },
        "9": {
            "$type": "MBIKCEBOCKA",
            "gadgetId": 70010006,
            "pos": {
                "x": -9.314677238464355,
                "y": 7.6816840171813965,
                "z": 62.273319244384766
            },
            "unlocked": true,
            "alias": "",
            "triggerFlag": "NoReviveRegion",
            "shape": {
                "$type": "BHMDEDHPEFH",
                "EAIPPAJKGFO": true,
                "height": 100.0,
                "width": 10.0,
                "length": 10.0
            },
            "stringParam": ""
        }
    },
    "AGHEGEFDJOA": {}
}