{
    "NMLGOIJIDMO": {
        "1": {
            "$type": "KJJGLEGGNLA",
            "gadgetId": 70120003,
            "pos": {
                "x": -109.54460144042969,
                "y": -37.482688903808594,
                "z": 61.715309143066406
            },
            "unlocked": true,
            "alias": "",
            "musicSubStates": {
                "x": 20.0,
                "y": 10.0,
                "z": 30.0
            }
        },
        "2": {
            "$type": "FHNGLBIHCJO",
            "gadgetId": 70120004,
            "pos": {
                "x": -56.3851203918457,
                "y": -67.48124694824219,
                "z": -178.90609741210938
            },
            "unlocked": true,
            "alias": "",
            "musicSubStates": {
                "x": 5.0,
                "y": 5.0,
                "z": 5.0
            }
        },
        "3": {
            "$type": "KJJGLEGGNLA",
            "gadgetId": 70120003,
            "pos": {
                "x": -64.81147766113281,
                "y": -67.74526977539062,
                "z": -95.06867980957031
            },
            "rot": {
                "y": 90.0
            },
            "unlocked": true,
            "alias": "",
            "musicSubStates": {
                "x": 40.0,
                "y": 10.0,
                "z": 20.0
            }
        },
        "4": {
            "$type": "KJJGLEGGNLA",
            "gadgetId": 70120003,
            "pos": {
                "x": -97.37194061279297,
                "y": -80.56694793701172,
                "z": -190.7346954345703
            },
            "rot": {
                "y": 90.0
            },
            "unlocked": true,
            "alias": "",
            "musicSubStates": {
                "x": 20.0,
                "y": 10.0,
                "z": 20.0
            }
        },
        "5": {
            "$type": "HAMECKLBPHA",
            "gadgetId": 70010006,
            "pos": {
                "x": 108.01000213623047,
                "y": -92.30342864990234,
                "z": -211.72940063476562
            },
            "rot": {
                "y": 54.63330078125
            },
            "unlocked": true,
            "alias": "",
            "musicSubStates": {
                "x": 30.0,
                "y": 10.0,
                "z": 30.0
            }
        },
        "6": {
            "$type": "HAMECKLBPHA",
            "gadgetId": 70010006,
            "pos": {
                "x": -45.8973388671875,
                "y": -32.41558074951172,
                "z": 26.46742057800293
            },
            "rot": {
                "y": 359.1877136230469
            },
            "unlocked": true,
            "alias": "",
            "musicSubStates": {
                "x": 10.0,
                "y": 10.0,
                "z": 10.0
            }
        },
        "7": {
            "$type": "HAMECKLBPHA",
            "gadgetId": 70010006,
            "pos": {
                "x": -110.69490051269531,
                "y": -37.345680236816406,
                "z": 69.72505950927734
            },
            "rot": {
                "y": 88.13069915771484
            },
            "unlocked": true,
            "alias": "",
            "musicSubStates": {
                "x": 20.0,
                "y": 20.0,
                "z": 20.0
            }
        },
        "8": {
            "$type": "HAMECKLBPHA",
            "gadgetId": 70010006,
            "pos": {
                "x": -62.582698822021484,
                "y": -67.65986633300781,
                "z": -192.09860229492188
            },
            "rot": {
                "y": 177.43519592285156
            },
            "unlocked": true,
            "alias": "",
            "musicSubStates": {
                "x": 10.0,
                "y": 10.0,
                "z": 10.0
            }
        }
    },
    "forces": {
        "1": {
            "$type": "PNLHGEKFOPA",
            "gadgetId": 70610102,
            "pos": {
                "x": -57.01129913330078,
                "y": -78.40540313720703,
                "z": -32.89897918701172
            },
            "unlocked": true,
            "alias": "",
            "velocity": 8.0,
            "stayEffect": "Eff_Windfield_Stay",
            "enterEffect": "Eff_Windfield_Enter"
        }
    },
    "entities": {
        "1": {
            "$type": "MBIKCEBOCKA",
            "gadgetId": 70010006,
            "pos": {
                "x": -56.860469818115234,
                "y": -116.37229919433594,
                "z": 132.1154022216797
            },
            "unlocked": true,
            "alias": "",
            "DFEBCOOIEHF": 500.0,
            "BJPHFBMFCKK": true,
            "triggerFlag": "NoReviveRegion",
            "shape": {
                "$type": "BHMDEDHPEFH",
                "EAIPPAJKGFO": true,
                "height": 2002.0,
                "LDMENJHNDON": "Center",
                "width": 100.0,
                "length": 50.0
            },
            "stringParam": ""
        },
        "10": {
            "$type": "MBIKCEBOCKA",
            "gadgetId": 70010006,
            "pos": {
                "x": 105.339599609375,
                "y": -89.89691162109375,
                "z": -36.40346908569336
            },
            "unlocked": true,
            "alias": "",
            "DFEBCOOIEHF": 500.0,
            "BJPHFBMFCKK": true,
            "triggerFlag": "DeadRegion",
            "shape": {
                "$type": "BHMDEDHPEFH",
                "EAIPPAJKGFO": true,
                "height": 200.0,
                "LDMENJHNDON": "Center",
                "width": 200.0,
                "length": 250.0
            },
            "stringParam": ""
        },
        "11": {
            "$type": "MBIKCEBOCKA",
            "gadgetId": 70010006,
            "pos": {
                "x": 82.73174285888672,
                "y": 45.54658889770508,
                "z": -214.2631072998047
            },
            "unlocked": true,
            "alias": "",
            "DFEBCOOIEHF": 500.0,
            "BJPHFBMFCKK": true,
            "triggerFlag": "DeadRegion",
            "shape": {
                "$type": "BHMDEDHPEFH",
                "EAIPPAJKGFO": true,
                "height": 200.0,
                "LDMENJHNDON": "Center",
                "width": 200.0,
                "length": 150.0
            },
            "stringParam": ""
        },
        "12": {
            "$type": "MBIKCEBOCKA",
            "gadgetId": 70010006,
            "pos": {
                "x": 31.356149673461914,
                "y": -80.28324127197266,
                "z": -163.14039611816406
            },
            "unlocked": true,
            "alias": "",
            "DFEBCOOIEHF": 500.0,
            "BJPHFBMFCKK": true,
            "triggerFlag": "DeadRegion",
            "shape": {
                "$type": "BHMDEDHPEFH",
                "EAIPPAJKGFO": true,
                "height": 100.0,
                "LDMENJHNDON": "Center",
                "width": 100.0,
                "length": 50.0
            },
            "stringParam": ""
        },
        "13": {
            "$type": "MBIKCEBOCKA",
            "gadgetId": 70010006,
            "pos": {
                "x": -113.8823013305664,
                "y": -67.64774322509766,
                "z": -158.71949768066406
            },
            "unlocked": true,
            "alias": "",
            "DFEBCOOIEHF": 500.0,
            "BJPHFBMFCKK": true,
            "triggerFlag": "DeadRegion",
            "shape": {
                "$type": "BHMDEDHPEFH",
                "EAIPPAJKGFO": true,
                "height": 50.0,
                "LDMENJHNDON": "Center",
                "width": 50.0,
                "length": 40.0
            },
            "stringParam": ""
        },
        "14": {
            "$type": "MBIKCEBOCKA",
            "gadgetId": 70010006,
            "pos": {
                "x": -59.695438385009766,
                "y": -95.00140380859375,
                "z": -192.59100341796875
            },
            "unlocked": true,
            "alias": "",
            "DFEBCOOIEHF": 500.0,
            "BJPHFBMFCKK": true,
            "triggerFlag": "DeadRegion",
            "shape": {
                "$type": "BHMDEDHPEFH",
                "EAIPPAJKGFO": true,
                "height": 20.0,
                "LDMENJHNDON": "Center",
                "width": 50.0,
                "length": 50.0
            },
            "stringParam": ""
        },
        "2": {
            "$type": "MBIKCEBOCKA",
            "gadgetId": 70010006,
            "pos": {
                "x": -140.18679809570312,
                "y": -32.53171920776367,
                "z": 99.91126251220703
            },
            "unlocked": true,
            "alias": "",
            "DFEBCOOIEHF": 500.0,
            "BJPHFBMFCKK": true,
            "triggerFlag": "NoReviveRegion",
            "shape": {
                "$type": "BHMDEDHPEFH",
                "EAIPPAJKGFO": true,
                "height": 2002.0,
                "LDMENJHNDON": "Center",
                "width": 100.0,
                "length": 50.0
            },
            "stringParam": ""
        },
        "3": {
            "$type": "MBIKCEBOCKA",
            "gadgetId": 70010006,
            "pos": {
                "x": -40.46995162963867,
                "y": -86.86418151855469,
                "z": 134.70359802246094
            },
            "unlocked": true,
            "alias": "",
            "DFEBCOOIEHF": 500.0,
            "BJPHFBMFCKK": true,
            "triggerFlag": "NoReviveRegion",
            "shape": {
                "$type": "BHMDEDHPEFH",
                "EAIPPAJKGFO": true,
                "height": 100.0,
                "LDMENJHNDON": "Center",
                "width": 200.0,
                "length": 200.0
            },
            "stringParam": ""
        },
        "4": {
            "$type": "MBIKCEBOCKA",
            "gadgetId": 70010006,
            "pos": {
                "x": -62.66802978515625,
                "y": -118.86589813232422,
                "z": -73.36490631103516
            },
            "unlocked": true,
            "alias": "",
            "DFEBCOOIEHF": 500.0,
            "BJPHFBMFCKK": true,
            "triggerFlag": "NoReviveRegion",
            "shape": {
                "$type": "BHMDEDHPEFH",
                "EAIPPAJKGFO": true,
                "height": 100.0,
                "LDMENJHNDON": "Center",
                "width": 200.0,
                "length": 200.0
            },
            "stringParam": ""
        },
        "5": {
            "$type": "MBIKCEBOCKA",
            "gadgetId": 70010006,
            "pos": {
                "x": 87.00110626220703,
                "y": -150.7071990966797,
                "z": -15.264690399169922
            },
            "unlocked": true,
            "alias": "",
            "DFEBCOOIEHF": 500.0,
            "BJPHFBMFCKK": true,
            "triggerFlag": "DeadRegion",
            "shape": {
                "$type": "BHMDEDHPEFH",
                "EAIPPAJKGFO": true,
                "height": 300.0,
                "LDMENJHNDON": "Center",
                "width": 200.0,
                "length": 150.0
            },
            "stringParam": ""
        },
        "6": {
            "$type": "MBIKCEBOCKA",
            "gadgetId": 70010006,
            "pos": {
                "x": -15.440890312194824,
                "y": -12.817290306091309,
                "z": -289.00189208984375
            },
            "unlocked": true,
            "alias": "",
            "DFEBCOOIEHF": 500.0,
            "BJPHFBMFCKK": true,
            "triggerFlag": "NoReviveRegion",
            "shape": {
                "$type": "BHMDEDHPEFH",
                "EAIPPAJKGFO": true,
                "height": 100.0,
                "LDMENJHNDON": "Center",
                "width": 200.0,
                "length": 200.0
            },
            "stringParam": ""
        },
        "7": {
            "$type": "MBIKCEBOCKA",
            "gadgetId": 70010006,
            "pos": {
                "x": -35.45444107055664,
                "y": -90.37045288085938,
                "z": 127.71900177001953
            },
            "unlocked": true,
            "alias": "",
            "DFEBCOOIEHF": 500.0,
            "BJPHFBMFCKK": true,
            "triggerFlag": "DeadRegion",
            "shape": {
                "$type": "BHMDEDHPEFH",
                "EAIPPAJKGFO": true,
                "height": 100.0,
                "LDMENJHNDON": "Center",
                "width": 400.0,
                "length": 200.0
            },
            "stringParam": ""
        },
        "8": {
            "$type": "MBIKCEBOCKA",
            "gadgetId": 70010006,
            "pos": {
                "x": -195.2095947265625,
                "y": -10.186739921569824,
                "z": -28.824539184570312
            },
            "unlocked": true,
            "alias": "",
            "DFEBCOOIEHF": 500.0,
            "BJPHFBMFCKK": true,
            "triggerFlag": "DeadRegion",
            "shape": {
                "$type": "BHMDEDHPEFH",
                "EAIPPAJKGFO": true,
                "height": 200.0,
                "LDMENJHNDON": "Center",
                "width": 200.0,
                "length": 150.0
            },
            "stringParam": ""
        },
        "9": {
            "$type": "MBIKCEBOCKA",
            "gadgetId": 70010006,
            "pos": {
                "x": -217.7801971435547,
                "y": -37.5340690612793,
                "z": -154.73069763183594
            },
            "unlocked": true,
            "alias": "",
            "DFEBCOOIEHF": 500.0,
            "BJPHFBMFCKK": true,
            "triggerFlag": "DeadRegion",
            "shape": {
                "$type": "BHMDEDHPEFH",
                "EAIPPAJKGFO": true,
                "height": 200.0,
                "LDMENJHNDON": "Center",
                "width": 200.0,
                "length": 150.0
            },
            "stringParam": ""
        }
    },
    "AGHEGEFDJOA": {}
}