{
    "NMLGOIJIDMO": {
        "1": {
            "$type": "FHNGLBIHCJO",
            "type": "TOWER",
            "gadgetId": 70120004,
            "pos": {
                "x": 82.214111328125,
                "y": 10.050000190734863,
                "z": 100.11199951171875
            },
            "tranPos": {
                "x": -17.390674591064453,
                "y": 119.0380859375,
                "z": 98.47406005859375
            },
            "alias": "",
            "musicSubStates": {
                "x": 3.0,
                "y": 3.0,
                "z": 3.0
            }
        }
    },
    "AGHEGEFDJOA": {}
}