{
    "NMLGOIJIDMO": {
        "1": {
            "$type": "FHNGLBIHCJO",
            "gadgetId": 70120004,
            "pos": {
                "x": 2497.783935546875,
                "y": 571.246826171875,
                "z": -1393.72900390625
            },
            "tranPos": {
                "x": -9.340493202209473,
                "y": 139.9784698486328,
                "z": 601.1798095703125
            },
            "alias": "",
            "musicSubStates": {
                "x": 2.0,
                "y": 2.0,
                "z": 2.0
            }
        }
    },
    "entities": {
        "1": {
            "$type": "MBIKCEBOCKA",
            "gadgetId": 70010006,
            "pos": {
                "x": 2223.5419921875,
                "y": 453.9856872558594,
                "z": 37.173248291015625
            },
            "tranPos": {
                "x": 2273.989990234375,
                "y": 509.65948486328125,
                "z": 451.97174072265625
            },
            "unlocked": true,
            "alias": "",
            "DFEBCOOIEHF": 1400.0,
            "triggerFlag": "DeadRegion",
            "shape": {
                "$type": "BHMDEDHPEFH",
                "EAIPPAJKGFO": true,
                "height": 100.0,
                "width": 1200.0,
                "length": 1200.0
            },
            "stringParam": ""
        },
        "2": {
            "$type": "MBIKCEBOCKA",
            "gadgetId": 70010006,
            "pos": {
                "x": 2092.864990234375,
                "y": 406.9739074707031,
                "z": 422.72198486328125
            },
            "tranPos": {
                "x": 2055.78076171875,
                "y": 522.4524536132812,
                "z": 422.7219543457031
            },
            "unlocked": true,
            "alias": "",
            "DFEBCOOIEHF": 1400.0,
            "triggerFlag": "NoReviveRegion",
            "shape": {
                "$type": "CBEPDCAIJDC",
                "EAIPPAJKGFO": true,
                "height": 500.0,
                "width": 1200.0,
                "length": 1200.0
            },
            "stringParam": ""
        },
        "3": {
            "$type": "MBIKCEBOCKA",
            "gadgetId": 70010006,
            "pos": {
                "x": 2387.52490234375,
                "y": 536.238525390625,
                "z": 341.860107421875
            },
            "tranPos": {
                "x": 2358.205322265625,
                "y": 536.2384643554688,
                "z": 561.8160400390625
            },
            "unlocked": true,
            "alias": "",
            "DFEBCOOIEHF": 800.0,
            "shape": {
                "$type": "BHMDEDHPEFH",
                "EAIPPAJKGFO": true,
                "height": 300.0,
                "width": 120.0,
                "length": 700.0
            },
            "stringParam": ""
        },
        "4": {
            "$type": "MBIKCEBOCKA",
            "gadgetId": 70010006,
            "pos": {
                "x": 2037.550048828125,
                "y": 536.238525390625,
                "z": 318.8351135253906
            },
            "tranPos": {
                "x": 2358.205322265625,
                "y": 536.2384643554688,
                "z": 561.8160400390625
            },
            "unlocked": true,
            "alias": "",
            "DFEBCOOIEHF": 800.0,
            "shape": {
                "$type": "BHMDEDHPEFH",
                "EAIPPAJKGFO": true,
                "height": 300.0,
                "width": 120.0,
                "length": 700.0
            },
            "stringParam": ""
        },
        "5": {
            "$type": "MBIKCEBOCKA",
            "gadgetId": 70010006,
            "pos": {
                "x": 2263.618896484375,
                "y": 536.238525390625,
                "z": 775.13232421875
            },
            "tranPos": {
                "x": 2358.205322265625,
                "y": 536.2384643554688,
                "z": 561.8160400390625
            },
            "unlocked": true,
            "alias": "",
            "DFEBCOOIEHF": 800.0,
            "shape": {
                "$type": "BHMDEDHPEFH",
                "EAIPPAJKGFO": true,
                "height": 300.0,
                "width": 600.0,
                "length": 200.0
            },
            "stringParam": ""
        },
        "6": {
            "$type": "MBIKCEBOCKA",
            "gadgetId": 70010006,
            "pos": {
                "x": 2263.618896484375,
                "y": 536.238525390625,
                "z": 152.99169921875
            },
            "tranPos": {
                "x": 2358.205322265625,
                "y": 536.2384643554688,
                "z": 561.8160400390625
            },
            "unlocked": true,
            "alias": "",
            "DFEBCOOIEHF": 800.0,
            "shape": {
                "$type": "BHMDEDHPEFH",
                "EAIPPAJKGFO": true,
                "height": 300.0,
                "width": 600.0,
                "length": 200.0
            },
            "stringParam": ""
        }
    },
    "AGHEGEFDJOA": {}
}