{
    "NMLGOIJIDMO": {
        "1": {
            "$type": "KJJGLEGGNLA",
            "gadgetId": 70010006,
            "pos": {
                "x": 529.1572265625,
                "y": 130.39199829101562,
                "z": 699.1727294921875
            },
            "rot": {
                "y": 180.0
            },
            "tranPos": {
                "x": 529.39599609375,
                "y": 130.3665771484375,
                "z": 699.1726684570312
            },
            "tranRot": {
                "y": 180.0
            },
            "alias": "",
            "musicSubStates": {
                "x": 15.0,
                "y": 10.0,
                "z": 10.0
            }
        }
    },
    "entities": {
        "1": {
            "$type": "MBIKCEBOCKA",
            "gadgetId": 70010006,
            "pos": {
                "x": 542.7318725585938,
                "y": 110.88980102539062,
                "z": 740.7846069335938
            },
            "rot": {
                "y": 18.0
            },
            "unlocked": true,
            "alias": "",
            "triggerFlag": "DeadRegion",
            "shape": {
                "$type": "BHMDEDHPEFH",
                "EAIPPAJKGFO": true,
                "height": 30.0,
                "LDMENJHNDON": "Center",
                "width": 50.0,
                "length": 40.0
            },
            "stringParam": ""
        },
        "4": {
            "$type": "MBIKCEBOCKA",
            "gadgetId": 70010006,
            "pos": {
                "x": 516.8895874023438,
                "y": 100.0,
                "z": 724.2943725585938
            },
            "unlocked": true,
            "alias": "",
            "DFEBCOOIEHF": 300.0,
            "triggerFlag": "DeadRegion",
            "shape": {
                "$type": "BHMDEDHPEFH",
                "EAIPPAJKGFO": true,
                "height": 30.0,
                "LDMENJHNDON": "Center",
                "width": 300.0,
                "length": 200.0
            },
            "stringParam": ""
        },
        "5": {
            "$type": "MBIKCEBOCKA",
            "gadgetId": 70010006,
            "pos": {
                "x": 516.8895874023438,
                "y": 110.6229019165039,
                "z": 724.2943725585938
            },
            "tranPos": {
                "x": 516.8895874023438,
                "y": 100.0,
                "z": 724.29443359375
            },
            "unlocked": true,
            "alias": "",
            "DFEBCOOIEHF": 300.0,
            "triggerFlag": "NoReviveRegion",
            "shape": {
                "$type": "BHMDEDHPEFH",
                "EAIPPAJKGFO": true,
                "height": 30.0,
                "LDMENJHNDON": "Center",
                "width": 300.0,
                "length": 200.0
            },
            "stringParam": ""
        }
    },
    "AGHEGEFDJOA": {}
}