{
    "sceneId": 3,
    "polygons": [
        {
            "localPolygonId": 340600001,
            "yMax": 323.0,
            "yMin": 305.0,
            "vertices": [
                {
                    "x": 3397.61376953125,
                    "y": 307.0899963378906,
                    "z": 5269.87841796875
                },
                {
                    "x": 3407.11328125,
                    "y": 307.0899963378906,
                    "z": 5268.7333984375
                },
                {
                    "x": 3415.052734375,
                    "y": 307.0899963378906,
                    "z": 5264.662109375
                },
                {
                    "x": 3420.8310546875,
                    "y": 307.0899963378906,
                    "z": 5259.1083984375
                },
                {
                    "x": 3423.973876953125,
                    "y": 307.0899963378906,
                    "z": 5252.2822265625
                },
                {
                    "x": 3425.923095703125,
                    "y": 307.0899963378906,
                    "z": 5244.65380859375
                },
                {
                    "x": 3425.26904296875,
                    "y": 307.153564453125,
                    "z": 5236.4775390625
                },
                {
                    "x": 3421.828857421875,
                    "y": 307.0899963378906,
                    "z": 5228.2958984375
                },
                {
                    "x": 3415.1259765625,
                    "y": 307.0899963378906,
                    "z": 5221.2685546875
                },
                {
                    "x": 3404.717041015625,
                    "y": 307.0899963378906,
                    "z": 5217.525390625
                },
                {
                    "x": 3394.59765625,
                    "y": 307.2532958984375,
                    "z": 5217.28662109375
                },
                {
                    "x": 3383.577880859375,
                    "y": 307.0899963378906,
                    "z": 5220.8369140625
                },
                {
                    "x": 3377.679931640625,
                    "y": 307.0899963378906,
                    "z": 5226.291015625
                },
                {
                    "x": 3373.87646484375,
                    "y": 307.0899963378906,
                    "z": 5233.41064453125
                },
                {
                    "x": 3372.179931640625,
                    "y": 307.3580017089844,
                    "z": 5241.7685546875
                },
                {
                    "x": 3373.498046875,
                    "y": 307.0899963378906,
                    "z": 5249.939453125
                },
                {
                    "x": 3376.949951171875,
                    "y": 307.0899963378906,
                    "z": 5257.349609375
                },
                {
                    "x": 3383.0869140625,
                    "y": 307.0899963378906,
                    "z": 5263.62548828125
                },
                {
                    "x": 3388.1767578125,
                    "y": 307.8902893066406,
                    "z": 5265.68115234375
                }
            ]
        }
    ]
}