{
    "talkId": 93,
    "type": "COOP",
    "dialogList": [
        {
            "id": 190590601,
            "nextDialogs": [
                190590602
            ],
            "talkRole": {
                "type": "TALK_ROLE_NPC",
                "id": "515"
            },
            "talkContentTextMapHash": 2232116602,
            "talkAssetPath": "",
            "talkAssetPathAlter": "",
            "talkAudioName": "",
            "actionBefore": "",
            "actionWhile": "",
            "actionAfter": "",
            "optionIcon": ""
        },
        {
            "id": 190590602,
            "nextDialogs": [
                190590603
            ],
            "talkRole": {
                "type": "TALK_ROLE_NPC",
                "id": "515"
            },
            "talkContentTextMapHash": 2431631066,
            "talkAssetPath": "",
            "talkAssetPathAlter": "",
            "talkAudioName": "",
            "actionBefore": "",
            "actionWhile": "",
            "actionAfter": "",
            "optionIcon": ""
        },
        {
            "id": 190590603,
            "nextDialogs": [
                190590604
            ],
            "talkRole": {
                "type": "TALK_ROLE_NPC",
                "id": "515"
            },
            "talkContentTextMapHash": 3355639746,
            "talkAssetPath": "",
            "talkAssetPathAlter": "",
            "talkAudioName": "",
            "actionBefore": "",
            "actionWhile": "",
            "actionAfter": "",
            "optionIcon": ""
        },
        {
            "id": 190590604,
            "nextDialogs": [
                190590605
            ],
            "talkRole": {
                "type": "TALK_ROLE_NPC",
                "id": "13277"
            },
            "talkContentTextMapHash": 1801243770,
            "talkAssetPath": "",
            "talkAssetPathAlter": "",
            "talkAudioName": "",
            "actionBefore": "",
            "actionWhile": "",
            "actionAfter": "",
            "optionIcon": ""
        },
        {
            "id": 190590605,
            "nextDialogs": [
                190590699
            ],
            "talkRole": {
                "type": "TALK_ROLE_NPC",
                "id": "515"
            },
            "talkContentTextMapHash": 1258748354,
            "talkAssetPath": "",
            "talkAssetPathAlter": "",
            "talkAudioName": "",
            "actionBefore": "",
            "actionWhile": "",
            "actionAfter": "",
            "optionIcon": ""
        },
        {
            "id": 190590606,
            "nextDialogs": [
                190590698
            ],
            "talkRole": {
                "type": "TALK_ROLE_NPC",
                "id": "515"
            },
            "talkContentTextMapHash": 1709046458,
            "talkAssetPath": "",
            "talkAssetPathAlter": "",
            "talkAudioName": "",
            "actionBefore": "",
            "actionWhile": "",
            "actionAfter": "",
            "optionIcon": ""
        },
        {
            "id": 190590607,
            "nextDialogs": [
                190590608
            ],
            "talkRole": {
                "type": "TALK_ROLE_NPC",
                "id": "515"
            },
            "talkContentTextMapHash": 69015522,
            "talkAssetPath": "",
            "talkAssetPathAlter": "",
            "talkAudioName": "",
            "actionBefore": "",
            "actionWhile": "",
            "actionAfter": "",
            "optionIcon": ""
        },
        {
            "id": 190590608,
            "talkRole": {
                "type": "TALK_ROLE_NPC",
                "id": "515"
            },
            "talkContentTextMapHash": 559849442,
            "talkAssetPath": "",
            "talkAssetPathAlter": "",
            "talkAudioName": "",
            "actionBefore": "",
            "actionWhile": "",
            "actionAfter": "",
            "optionIcon": ""
        },
        {
            "id": 190590698,
            "nextDialogs": [
                190590607
            ],
            "talkShowType": "TALK_SHOW_FORCE_SELECT",
            "talkRole": {
                "type": "TALK_ROLE_PLAYER",
                "id": ""
            },
            "talkContentTextMapHash": 2660184114,
            "talkAssetPath": "",
            "talkAssetPathAlter": "",
            "talkAudioName": "",
            "actionBefore": "",
            "actionWhile": "",
            "actionAfter": "",
            "optionIcon": ""
        },
        {
            "id": 190590699,
            "nextDialogs": [
                190590606
            ],
            "talkShowType": "TALK_SHOW_FORCE_SELECT",
            "talkRole": {
                "type": "TALK_ROLE_PLAYER",
                "id": ""
            },
            "talkContentTextMapHash": 2427860642,
            "talkAssetPath": "",
            "talkAssetPathAlter": "",
            "talkAudioName": "",
            "actionBefore": "",
            "actionWhile": "",
            "actionAfter": "",
            "optionIcon": ""
        }
    ],
    "EIPOLMFCODP": [
        "[3_330400461:-1999.523,202.407,2595.228,0.000,111.127,0.000]"
    ]
}