{
    "talkId": 207,
    "type": "COOP",
    "dialogList": [
        {
            "id": 190760801,
            "nextDialogs": [
                190760802
            ],
            "talkRole": {
                "type": "TALK_ROLE_NPC",
                "id": "515"
            },
            "talkContentTextMapHash": 2098322522,
            "talkAssetPath": "",
            "talkAssetPathAlter": "",
            "talkAudioName": "",
            "actionBefore": "",
            "actionWhile": "",
            "actionAfter": "",
            "optionIcon": ""
        },
        {
            "id": 190760802,
            "nextDialogs": [
                190760803
            ],
            "talkRole": {
                "type": "TALK_ROLE_NPC",
                "id": "515"
            },
            "talkContentTextMapHash": 2770174962,
            "talkAssetPath": "",
            "talkAssetPathAlter": "",
            "talkAudioName": "",
            "actionBefore": "",
            "actionWhile": "",
            "actionAfter": "",
            "optionIcon": ""
        },
        {
            "id": 190760803,
            "nextDialogs": [
                190760899
            ],
            "talkRole": {
                "type": "TALK_ROLE_NPC",
                "id": "515"
            },
            "talkContentTextMapHash": 1602593682,
            "talkAssetPath": "",
            "talkAssetPathAlter": "",
            "talkAudioName": "",
            "actionBefore": "",
            "actionWhile": "",
            "actionAfter": "",
            "optionIcon": ""
        },
        {
            "id": 190760804,
            "nextDialogs": [
                190760805
            ],
            "talkRole": {
                "type": "TALK_ROLE_NPC",
                "id": "515"
            },
            "talkContentTextMapHash": 2782728530,
            "talkAssetPath": "",
            "talkAssetPathAlter": "",
            "talkAudioName": "",
            "actionBefore": "",
            "actionWhile": "",
            "actionAfter": "",
            "optionIcon": ""
        },
        {
            "id": 190760805,
            "nextDialogs": [
                190760898
            ],
            "talkRole": {
                "type": "TALK_ROLE_NPC",
                "id": "515"
            },
            "talkContentTextMapHash": 4050901186,
            "talkAssetPath": "",
            "talkAssetPathAlter": "",
            "talkAudioName": "",
            "actionBefore": "",
            "actionWhile": "",
            "actionAfter": "",
            "optionIcon": ""
        },
        {
            "id": 190760806,
            "nextDialogs": [
                190760807
            ],
            "talkRole": {
                "type": "TALK_ROLE_NPC",
                "id": "515"
            },
            "talkContentTextMapHash": 609548938,
            "talkAssetPath": "",
            "talkAssetPathAlter": "",
            "talkAudioName": "",
            "actionBefore": "",
            "actionWhile": "",
            "actionAfter": "",
            "optionIcon": ""
        },
        {
            "id": 190760807,
            "nextDialogs": [
                190760808
            ],
            "talkRole": {
                "type": "TALK_ROLE_NPC",
                "id": "515"
            },
            "talkContentTextMapHash": 4151366602,
            "talkAssetPath": "",
            "talkAssetPathAlter": "",
            "talkAudioName": "",
            "actionBefore": "",
            "actionWhile": "",
            "actionAfter": "",
            "optionIcon": ""
        },
        {
            "id": 190760808,
            "talkRole": {
                "type": "TALK_ROLE_NPC",
                "id": "515"
            },
            "talkContentTextMapHash": 4056893626,
            "talkAssetPath": "",
            "talkAssetPathAlter": "",
            "talkAudioName": "",
            "actionBefore": "",
            "actionWhile": "",
            "actionAfter": "",
            "optionIcon": ""
        },
        {
            "id": 190760898,
            "nextDialogs": [
                190760806
            ],
            "talkShowType": "TALK_SHOW_FORCE_SELECT",
            "talkRole": {
                "type": "TALK_ROLE_PLAYER",
                "id": ""
            },
            "talkContentTextMapHash": 3249419930,
            "talkAssetPath": "",
            "talkAssetPathAlter": "",
            "talkAudioName": "",
            "actionBefore": "",
            "actionWhile": "",
            "actionAfter": "",
            "optionIcon": ""
        },
        {
            "id": 190760899,
            "nextDialogs": [
                190760804
            ],
            "talkShowType": "TALK_SHOW_FORCE_SELECT",
            "talkRole": {
                "type": "TALK_ROLE_PLAYER",
                "id": ""
            },
            "talkContentTextMapHash": 2100495034,
            "talkAssetPath": "",
            "talkAssetPathAlter": "",
            "talkAudioName": "",
            "actionBefore": "",
            "actionWhile": "",
            "actionAfter": "",
            "optionIcon": ""
        }
    ],
    "EIPOLMFCODP": [
        "[3_330400476:-1901.040,245.681,2539.481,0.000,259.101,0.000]"
    ]
}