{
    "talkId": 12,
    "type": "COOP",
    "dialogList": [
        {
            "id": 190710101,
            "nextDialogs": [
                190710102
            ],
            "talkRole": {
                "type": "TALK_ROLE_NPC",
                "id": "515"
            },
            "talkContentTextMapHash": 2814000826,
            "talkAssetPath": "",
            "talkAssetPathAlter": "",
            "talkAudioName": "",
            "actionBefore": "",
            "actionWhile": "",
            "actionAfter": "",
            "optionIcon": ""
        },
        {
            "id": 190710102,
            "nextDialogs": [
                190710103
            ],
            "talkRole": {
                "type": "TALK_ROLE_NPC",
                "id": "515"
            },
            "talkContentTextMapHash": 262101730,
            "talkAssetPath": "",
            "talkAssetPathAlter": "",
            "talkAudioName": "",
            "actionBefore": "",
            "actionWhile": "",
            "actionAfter": "",
            "optionIcon": ""
        },
        {
            "id": 190710103,
            "talkRole": {
                "type": "TALK_ROLE_NPC",
                "id": "13277"
            },
            "talkContentTextMapHash": 3904255874,
            "talkAssetPath": "",
            "talkAssetPathAlter": "",
            "talkAudioName": "",
            "actionBefore": "",
            "actionWhile": "",
            "actionAfter": "",
            "optionIcon": ""
        }
    ],
    "EIPOLMFCODP": [
        "[3_330300385:-1909.868,275.633,3962.610,0.000,232.669,0.000]",
        "[3_330300386:-1912.449,276.043,3960.077,0.000,22.979,0.000]",
        "[3_330300387:-1911.351,275.676,3963.766,0.000,209.754,0.000]"
    ]
}