{
    "talkId": 244,
    "type": "COOP",
    "dialogList": [
        {
            "id": 190800301,
            "nextDialogs": [
                190800302
            ],
            "talkRole": {
                "type": "TALK_ROLE_NPC",
                "id": "2054"
            },
            "talkContentTextMapHash": 1152609666,
            "talkAssetPath": "",
            "talkAssetPathAlter": "",
            "talkAudioName": "",
            "actionBefore": "",
            "actionWhile": "",
            "actionAfter": "",
            "optionIcon": ""
        },
        {
            "id": 190800302,
            "nextDialogs": [
                190800399,
                190800398
            ],
            "talkRole": {
                "type": "TALK_ROLE_NPC",
                "id": "516"
            },
            "talkContentTextMapHash": 1984720858,
            "talkAssetPath": "",
            "talkAssetPathAlter": "",
            "talkAudioName": "",
            "actionBefore": "",
            "actionWhile": "",
            "actionAfter": "",
            "optionIcon": ""
        },
        {
            "id": 190800303,
            "nextDialogs": [
                190800304
            ],
            "talkRole": {
                "type": "TALK_ROLE_NPC",
                "id": "2054"
            },
            "talkContentTextMapHash": 2712880746,
            "talkAssetPath": "",
            "talkAssetPathAlter": "",
            "talkAudioName": "",
            "actionBefore": "",
            "actionWhile": "",
            "actionAfter": "",
            "optionIcon": ""
        },
        {
            "id": 190800304,
            "nextDialogs": [
                190800305
            ],
            "talkRole": {
                "type": "TALK_ROLE_NPC",
                "id": "2054"
            },
            "talkContentTextMapHash": 2642113154,
            "talkAssetPath": "",
            "talkAssetPathAlter": "",
            "talkAudioName": "",
            "actionBefore": "",
            "actionWhile": "",
            "actionAfter": "",
            "optionIcon": ""
        },
        {
            "id": 190800305,
            "nextDialogs": [
                190800306
            ],
            "talkRole": {
                "type": "TALK_ROLE_NPC",
                "id": "2054"
            },
            "talkContentTextMapHash": 1708080778,
            "talkAssetPath": "",
            "talkAssetPathAlter": "",
            "talkAudioName": "",
            "actionBefore": "",
            "actionWhile": "",
            "actionAfter": "",
            "optionIcon": ""
        },
        {
            "id": 190800306,
            "nextDialogs": [
                190800307
            ],
            "talkRole": {
                "type": "TALK_ROLE_NPC",
                "id": "2054"
            },
            "talkContentTextMapHash": 1990843802,
            "talkAssetPath": "",
            "talkAssetPathAlter": "",
            "talkAudioName": "",
            "actionBefore": "",
            "actionWhile": "",
            "actionAfter": "",
            "optionIcon": ""
        },
        {
            "id": 190800307,
            "nextDialogs": [
                190800308
            ],
            "talkRole": {
                "type": "TALK_ROLE_NPC",
                "id": "516"
            },
            "talkContentTextMapHash": 2712881074,
            "talkAssetPath": "",
            "talkAssetPathAlter": "",
            "talkAudioName": "",
            "actionBefore": "",
            "actionWhile": "",
            "actionAfter": "",
            "optionIcon": ""
        },
        {
            "id": 190800308,
            "nextDialogs": [
                190800309
            ],
            "talkRole": {
                "type": "TALK_ROLE_NPC",
                "id": "2054"
            },
            "talkContentTextMapHash": 2244573786,
            "talkAssetPath": "",
            "talkAssetPathAlter": "",
            "talkAudioName": "",
            "actionBefore": "",
            "actionWhile": "",
            "actionAfter": "",
            "optionIcon": ""
        },
        {
            "id": 190800309,
            "nextDialogs": [
                190800310
            ],
            "talkRole": {
                "type": "TALK_ROLE_NPC",
                "id": "2054"
            },
            "talkContentTextMapHash": 1455073730,
            "talkAssetPath": "",
            "talkAssetPathAlter": "",
            "talkAudioName": "",
            "actionBefore": "",
            "actionWhile": "",
            "actionAfter": "",
            "optionIcon": ""
        },
        {
            "id": 190800310,
            "nextDialogs": [
                190800311
            ],
            "talkRole": {
                "type": "TALK_ROLE_NPC",
                "id": "2054"
            },
            "talkContentTextMapHash": 3888998418,
            "talkAssetPath": "",
            "talkAssetPathAlter": "",
            "talkAudioName": "",
            "actionBefore": "",
            "actionWhile": "",
            "actionAfter": "",
            "optionIcon": ""
        },
        {
            "id": 190800311,
            "nextDialogs": [
                190800397
            ],
            "talkRole": {
                "type": "TALK_ROLE_NPC",
                "id": "516"
            },
            "talkContentTextMapHash": 3921697178,
            "talkAssetPath": "",
            "talkAssetPathAlter": "",
            "talkAudioName": "",
            "actionBefore": "",
            "actionWhile": "",
            "actionAfter": "",
            "optionIcon": ""
        },
        {
            "id": 190800312,
            "nextDialogs": [
                190800396,
                190800395
            ],
            "talkRole": {
                "type": "TALK_ROLE_NPC",
                "id": "516"
            },
            "talkContentTextMapHash": 1108268450,
            "talkAssetPath": "",
            "talkAssetPathAlter": "",
            "talkAudioName": "",
            "actionBefore": "",
            "actionWhile": "",
            "actionAfter": "",
            "optionIcon": ""
        },
        {
            "id": 190800313,
            "nextDialogs": [
                190800314
            ],
            "talkRole": {
                "type": "TALK_ROLE_NPC",
                "id": "516"
            },
            "talkContentTextMapHash": 3034756458,
            "talkAssetPath": "",
            "talkAssetPathAlter": "",
            "talkAudioName": "",
            "actionBefore": "",
            "actionWhile": "",
            "actionAfter": "",
            "optionIcon": ""
        },
        {
            "id": 190800314,
            "nextDialogs": [
                190800315
            ],
            "talkRole": {
                "type": "TALK_ROLE_NPC",
                "id": "2054"
            },
            "talkContentTextMapHash": 2767445826,
            "talkAssetPath": "",
            "talkAssetPathAlter": "",
            "talkAudioName": "",
            "actionBefore": "",
            "actionWhile": "",
            "actionAfter": "",
            "optionIcon": ""
        },
        {
            "id": 190800315,
            "nextDialogs": [
                190800316
            ],
            "talkRole": {
                "type": "TALK_ROLE_NPC",
                "id": "2041"
            },
            "talkContentTextMapHash": 3473550650,
            "talkAssetPath": "",
            "talkAssetPathAlter": "",
            "talkAudioName": "",
            "actionBefore": "",
            "actionWhile": "",
            "actionAfter": "",
            "optionIcon": ""
        },
        {
            "id": 190800316,
            "nextDialogs": [
                190800317
            ],
            "talkRole": {
                "type": "TALK_ROLE_NPC",
                "id": "2054"
            },
            "talkContentTextMapHash": 3006814050,
            "talkAssetPath": "",
            "talkAssetPathAlter": "",
            "talkAudioName": "",
            "actionBefore": "",
            "actionWhile": "",
            "actionAfter": "",
            "optionIcon": ""
        },
        {
            "id": 190800317,
            "nextDialogs": [
                190800318
            ],
            "talkRole": {
                "type": "TALK_ROLE_NPC",
                "id": "2041"
            },
            "talkContentTextMapHash": 3786101858,
            "talkAssetPath": "",
            "talkAssetPathAlter": "",
            "talkAudioName": "",
            "actionBefore": "",
            "actionWhile": "",
            "actionAfter": "",
            "optionIcon": ""
        },
        {
            "id": 190800318,
            "nextDialogs": [
                190800319
            ],
            "talkRole": {
                "type": "TALK_ROLE_NPC",
                "id": "2041"
            },
            "talkContentTextMapHash": 2598699362,
            "talkAssetPath": "",
            "talkAssetPathAlter": "",
            "talkAudioName": "",
            "actionBefore": "",
            "actionWhile": "",
            "actionAfter": "",
            "optionIcon": ""
        },
        {
            "id": 190800319,
            "nextDialogs": [
                190800320
            ],
            "talkRole": {
                "type": "TALK_ROLE_NPC",
                "id": "516"
            },
            "talkContentTextMapHash": 4198404842,
            "talkAssetPath": "",
            "talkAssetPathAlter": "",
            "talkAudioName": "",
            "actionBefore": "",
            "actionWhile": "",
            "actionAfter": "",
            "optionIcon": ""
        },
        {
            "id": 190800320,
            "nextDialogs": [
                190800321
            ],
            "talkRole": {
                "type": "TALK_ROLE_NPC",
                "id": "2041"
            },
            "talkContentTextMapHash": 2178600890,
            "talkAssetPath": "",
            "talkAssetPathAlter": "",
            "talkAudioName": "",
            "actionBefore": "",
            "actionWhile": "",
            "actionAfter": "",
            "optionIcon": ""
        },
        {
            "id": 190800321,
            "nextDialogs": [
                190800322
            ],
            "talkRole": {
                "type": "TALK_ROLE_NPC",
                "id": "516"
            },
            "talkContentTextMapHash": 1664477914,
            "talkAssetPath": "",
            "talkAssetPathAlter": "",
            "talkAudioName": "",
            "actionBefore": "",
            "actionWhile": "",
            "actionAfter": "",
            "optionIcon": ""
        },
        {
            "id": 190800322,
            "nextDialogs": [
                190800323
            ],
            "talkRole": {
                "type": "TALK_ROLE_NPC",
                "id": "516"
            },
            "talkContentTextMapHash": 2174206090,
            "talkAssetPath": "",
            "talkAssetPathAlter": "",
            "talkAudioName": "",
            "actionBefore": "",
            "actionWhile": "",
            "actionAfter": "",
            "optionIcon": ""
        },
        {
            "id": 190800323,
            "nextDialogs": [
                190800324
            ],
            "talkRole": {
                "type": "TALK_ROLE_NPC",
                "id": "2041"
            },
            "talkContentTextMapHash": 2075897874,
            "talkAssetPath": "",
            "talkAssetPathAlter": "",
            "talkAudioName": "",
            "actionBefore": "",
            "actionWhile": "",
            "actionAfter": "",
            "optionIcon": ""
        },
        {
            "id": 190800324,
            "nextDialogs": [
                190800325
            ],
            "talkRole": {
                "type": "TALK_ROLE_NPC",
                "id": "2041"
            },
            "talkContentTextMapHash": 3614307866,
            "talkAssetPath": "",
            "talkAssetPathAlter": "",
            "talkAudioName": "",
            "actionBefore": "",
            "actionWhile": "",
            "actionAfter": "",
            "optionIcon": ""
        },
        {
            "id": 190800325,
            "nextDialogs": [
                190800326
            ],
            "talkRole": {
                "type": "TALK_ROLE_NPC",
                "id": "516"
            },
            "talkContentTextMapHash": 2774691242,
            "talkAssetPath": "",
            "talkAssetPathAlter": "",
            "talkAudioName": "",
            "actionBefore": "",
            "actionWhile": "",
            "actionAfter": "",
            "optionIcon": ""
        },
        {
            "id": 190800326,
            "nextDialogs": [
                190800327
            ],
            "talkRole": {
                "type": "TALK_ROLE_NPC",
                "id": "2041"
            },
            "talkContentTextMapHash": 2295041114,
            "talkAssetPath": "",
            "talkAssetPathAlter": "",
            "talkAudioName": "",
            "actionBefore": "",
            "actionWhile": "",
            "actionAfter": "",
            "optionIcon": ""
        },
        {
            "id": 190800327,
            "nextDialogs": [
                190800328
            ],
            "talkRole": {
                "type": "TALK_ROLE_NPC",
                "id": "516"
            },
            "talkContentTextMapHash": 3009917202,
            "talkAssetPath": "",
            "talkAssetPathAlter": "",
            "talkAudioName": "",
            "actionBefore": "",
            "actionWhile": "",
            "actionAfter": "",
            "optionIcon": ""
        },
        {
            "id": 190800328,
            "nextDialogs": [
                190800329
            ],
            "talkRole": {
                "type": "TALK_ROLE_NPC",
                "id": "516"
            },
            "talkContentTextMapHash": 831511154,
            "talkAssetPath": "",
            "talkAssetPathAlter": "",
            "talkAudioName": "",
            "actionBefore": "",
            "actionWhile": "",
            "actionAfter": "",
            "optionIcon": ""
        },
        {
            "id": 190800329,
            "nextDialogs": [
                190800330
            ],
            "talkRole": {
                "type": "TALK_ROLE_NPC",
                "id": "2054"
            },
            "talkContentTextMapHash": 3118853946,
            "talkAssetPath": "",
            "talkAssetPathAlter": "",
            "talkAudioName": "",
            "actionBefore": "",
            "actionWhile": "",
            "actionAfter": "",
            "optionIcon": ""
        },
        {
            "id": 190800330,
            "nextDialogs": [
                190800394,
                190800393
            ],
            "talkRole": {
                "type": "TALK_ROLE_NPC",
                "id": "2054"
            },
            "talkContentTextMapHash": 2355255866,
            "talkAssetPath": "",
            "talkAssetPathAlter": "",
            "talkAudioName": "",
            "actionBefore": "",
            "actionWhile": "",
            "actionAfter": "",
            "optionIcon": ""
        },
        {
            "id": 190800331,
            "nextDialogs": [
                190800333
            ],
            "talkRole": {
                "type": "TALK_ROLE_NPC",
                "id": "516"
            },
            "talkContentTextMapHash": 4005366378,
            "talkAssetPath": "",
            "talkAssetPathAlter": "",
            "talkAudioName": "",
            "actionBefore": "",
            "actionWhile": "",
            "actionAfter": "",
            "optionIcon": ""
        },
        {
            "id": 190800332,
            "nextDialogs": [
                190800333
            ],
            "talkRole": {
                "type": "TALK_ROLE_NPC",
                "id": "516"
            },
            "talkContentTextMapHash": 285734170,
            "talkAssetPath": "",
            "talkAssetPathAlter": "",
            "talkAudioName": "",
            "actionBefore": "",
            "actionWhile": "",
            "actionAfter": "",
            "optionIcon": ""
        },
        {
            "id": 190800333,
            "nextDialogs": [
                190800334
            ],
            "talkRole": {
                "type": "TALK_ROLE_NPC",
                "id": "516"
            },
            "talkContentTextMapHash": 2938023002,
            "talkAssetPath": "",
            "talkAssetPathAlter": "",
            "talkAudioName": "",
            "actionBefore": "",
            "actionWhile": "",
            "actionAfter": "",
            "optionIcon": ""
        },
        {
            "id": 190800334,
            "nextDialogs": [
                190800335
            ],
            "talkRole": {
                "type": "TALK_ROLE_NPC",
                "id": "2054"
            },
            "talkContentTextMapHash": 2457514946,
            "talkAssetPath": "",
            "talkAssetPathAlter": "",
            "talkAudioName": "",
            "actionBefore": "",
            "actionWhile": "",
            "actionAfter": "",
            "optionIcon": ""
        },
        {
            "id": 190800335,
            "nextDialogs": [
                190800336
            ],
            "talkRole": {
                "type": "TALK_ROLE_NPC",
                "id": "2054"
            },
            "talkContentTextMapHash": 3010857298,
            "talkAssetPath": "",
            "talkAssetPathAlter": "",
            "talkAudioName": "",
            "actionBefore": "",
            "actionWhile": "",
            "actionAfter": "",
            "optionIcon": ""
        },
        {
            "id": 190800336,
            "nextDialogs": [
                190800337
            ],
            "talkRole": {
                "type": "TALK_ROLE_NPC",
                "id": "2054"
            },
            "talkContentTextMapHash": 3687863210,
            "talkAssetPath": "",
            "talkAssetPathAlter": "",
            "talkAudioName": "",
            "actionBefore": "",
            "actionWhile": "",
            "actionAfter": "",
            "optionIcon": ""
        },
        {
            "id": 190800337,
            "nextDialogs": [
                190800338
            ],
            "talkRole": {
                "type": "TALK_ROLE_NPC",
                "id": "516"
            },
            "talkContentTextMapHash": 186263930,
            "talkAssetPath": "",
            "talkAssetPathAlter": "",
            "talkAudioName": "",
            "actionBefore": "",
            "actionWhile": "",
            "actionAfter": "",
            "optionIcon": ""
        },
        {
            "id": 190800338,
            "nextDialogs": [
                190800339
            ],
            "talkRole": {
                "type": "TALK_ROLE_NPC",
                "id": "2054"
            },
            "talkContentTextMapHash": 1906138162,
            "talkAssetPath": "",
            "talkAssetPathAlter": "",
            "talkAudioName": "",
            "actionBefore": "",
            "actionWhile": "",
            "actionAfter": "",
            "optionIcon": ""
        },
        {
            "id": 190800339,
            "nextDialogs": [
                190800340
            ],
            "talkRole": {
                "type": "TALK_ROLE_NPC",
                "id": "2054"
            },
            "talkContentTextMapHash": 3614180786,
            "talkAssetPath": "",
            "talkAssetPathAlter": "",
            "talkAudioName": "",
            "actionBefore": "",
            "actionWhile": "",
            "actionAfter": "",
            "optionIcon": ""
        },
        {
            "id": 190800340,
            "nextDialogs": [
                190800341
            ],
            "talkRole": {
                "type": "TALK_ROLE_NPC",
                "id": "2054"
            },
            "talkContentTextMapHash": 3316976890,
            "talkAssetPath": "",
            "talkAssetPathAlter": "",
            "talkAudioName": "",
            "actionBefore": "",
            "actionWhile": "",
            "actionAfter": "",
            "optionIcon": ""
        },
        {
            "id": 190800341,
            "nextDialogs": [
                190800392,
                190800391
            ],
            "talkRole": {
                "type": "TALK_ROLE_NPC",
                "id": "2054"
            },
            "talkContentTextMapHash": 800332738,
            "talkAssetPath": "",
            "talkAssetPathAlter": "",
            "talkAudioName": "",
            "actionBefore": "",
            "actionWhile": "",
            "actionAfter": "",
            "optionIcon": ""
        },
        {
            "id": 190800342,
            "nextDialogs": [
                190800343
            ],
            "talkRole": {
                "type": "TALK_ROLE_NPC",
                "id": "516"
            },
            "talkContentTextMapHash": 3372610818,
            "talkAssetPath": "",
            "talkAssetPathAlter": "",
            "talkAudioName": "",
            "actionBefore": "",
            "actionWhile": "",
            "actionAfter": "",
            "optionIcon": ""
        },
        {
            "id": 190800343,
            "nextDialogs": [
                190800344
            ],
            "talkRole": {
                "type": "TALK_ROLE_NPC",
                "id": "2054"
            },
            "talkContentTextMapHash": 245799210,
            "talkAssetPath": "",
            "talkAssetPathAlter": "",
            "talkAudioName": "",
            "actionBefore": "",
            "actionWhile": "",
            "actionAfter": "",
            "optionIcon": ""
        },
        {
            "id": 190800344,
            "nextDialogs": [
                190800345
            ],
            "talkRole": {
                "type": "TALK_ROLE_NPC",
                "id": "2054"
            },
            "talkContentTextMapHash": 4134222666,
            "talkAssetPath": "",
            "talkAssetPathAlter": "",
            "talkAudioName": "",
            "actionBefore": "",
            "actionWhile": "",
            "actionAfter": "",
            "optionIcon": ""
        },
        {
            "id": 190800345,
            "talkRole": {
                "type": "TALK_ROLE_NPC",
                "id": "516"
            },
            "talkContentTextMapHash": 930585330,
            "talkAssetPath": "",
            "talkAssetPathAlter": "",
            "talkAudioName": "",
            "actionBefore": "",
            "actionWhile": "",
            "actionAfter": "",
            "optionIcon": ""
        },
        {
            "id": 190800391,
            "nextDialogs": [
                190800342
            ],
            "talkRole": {
                "type": "TALK_ROLE_PLAYER",
                "id": ""
            },
            "talkContentTextMapHash": 2596922786,
            "talkAssetPath": "",
            "talkAssetPathAlter": "",
            "talkAudioName": "",
            "actionBefore": "",
            "actionWhile": "",
            "actionAfter": "",
            "optionIcon": ""
        },
        {
            "id": 190800392,
            "nextDialogs": [
                190800342
            ],
            "talkRole": {
                "type": "TALK_ROLE_PLAYER",
                "id": ""
            },
            "talkContentTextMapHash": 220670858,
            "talkAssetPath": "",
            "talkAssetPathAlter": "",
            "talkAudioName": "",
            "actionBefore": "",
            "actionWhile": "",
            "actionAfter": "",
            "optionIcon": ""
        },
        {
            "id": 190800393,
            "nextDialogs": [
                190800332
            ],
            "talkRole": {
                "type": "TALK_ROLE_PLAYER",
                "id": ""
            },
            "talkContentTextMapHash": 4252028970,
            "talkAssetPath": "",
            "talkAssetPathAlter": "",
            "talkAudioName": "",
            "actionBefore": "",
            "actionWhile": "",
            "actionAfter": "",
            "optionIcon": ""
        },
        {
            "id": 190800394,
            "nextDialogs": [
                190800331
            ],
            "talkRole": {
                "type": "TALK_ROLE_PLAYER",
                "id": ""
            },
            "talkContentTextMapHash": 3345059098,
            "talkAssetPath": "",
            "talkAssetPathAlter": "",
            "talkAudioName": "",
            "actionBefore": "",
            "actionWhile": "",
            "actionAfter": "",
            "optionIcon": ""
        },
        {
            "id": 190800395,
            "nextDialogs": [
                190800313
            ],
            "talkRole": {
                "type": "TALK_ROLE_PLAYER",
                "id": ""
            },
            "talkContentTextMapHash": 887380634,
            "talkAssetPath": "",
            "talkAssetPathAlter": "",
            "talkAudioName": "",
            "actionBefore": "",
            "actionWhile": "",
            "actionAfter": "",
            "optionIcon": ""
        },
        {
            "id": 190800396,
            "nextDialogs": [
                190800313
            ],
            "talkRole": {
                "type": "TALK_ROLE_PLAYER",
                "id": ""
            },
            "talkContentTextMapHash": 3819787522,
            "talkAssetPath": "",
            "talkAssetPathAlter": "",
            "talkAudioName": "",
            "actionBefore": "",
            "actionWhile": "",
            "actionAfter": "",
            "optionIcon": ""
        },
        {
            "id": 190800397,
            "nextDialogs": [
                190800312
            ],
            "talkShowType": "TALK_SHOW_FORCE_SELECT",
            "talkRole": {
                "type": "TALK_ROLE_PLAYER",
                "id": ""
            },
            "talkContentTextMapHash": 3900672482,
            "talkAssetPath": "",
            "talkAssetPathAlter": "",
            "talkAudioName": "",
            "actionBefore": "",
            "actionWhile": "",
            "actionAfter": "",
            "optionIcon": ""
        },
        {
            "id": 190800398,
            "nextDialogs": [
                190800303
            ],
            "talkRole": {
                "type": "TALK_ROLE_PLAYER",
                "id": ""
            },
            "talkContentTextMapHash": 306198554,
            "talkAssetPath": "",
            "talkAssetPathAlter": "",
            "talkAudioName": "",
            "actionBefore": "",
            "actionWhile": "",
            "actionAfter": "",
            "optionIcon": ""
        },
        {
            "id": 190800399,
            "nextDialogs": [
                190800303
            ],
            "talkRole": {
                "type": "TALK_ROLE_PLAYER",
                "id": ""
            },
            "talkContentTextMapHash": 2181291402,
            "talkAssetPath": "",
            "talkAssetPathAlter": "",
            "talkAudioName": "",
            "actionBefore": "",
            "actionWhile": "",
            "actionAfter": "",
            "optionIcon": ""
        }
    ],
    "EIPOLMFCODP": [
        "[3_4202:-633.322,219.543,262.327,0.000,277.600,0.000]",
        "[3_4372:-634.600,219.543,259.100]",
        "[3_4943:-637.261,219.543,263.107,0.000,83.970,0.000]"
    ]
}