{
    "talkId": 142,
    "type": "COOP",
    "dialogList": [
        {
            "id": 190970101,
            "nextDialogs": [
                190970102
            ],
            "talkRole": {
                "type": "TALK_ROLE_NPC",
                "id": "516"
            },
            "talkContentTextMapHash": 2869634234,
            "talkAssetPath": "",
            "talkAssetPathAlter": "",
            "talkAudioName": "",
            "actionBefore": "",
            "actionWhile": "",
            "actionAfter": "",
            "optionIcon": ""
        },
        {
            "id": 190970102,
            "talkRole": {
                "type": "TALK_ROLE_NPC",
                "id": "516"
            },
            "talkContentTextMapHash": 1225639674,
            "talkAssetPath": "",
            "talkAssetPathAlter": "",
            "talkAudioName": "",
            "actionBefore": "",
            "actionWhile": "",
            "actionAfter": "",
            "optionIcon": ""
        }
    ],
    "EIPOLMFCODP": [
        "[3_4362:1769.771,222.123,-399.388,0.000,12.703,0.000]"
    ]
}