{
    "HGAMDAONNMG": 1001,
    "groupId": 235872001,
    "talks": [
        {
            "id": 6800421,
            "beginWay": "TALK_BEGIN_MANUAL",
            "activeMode": "PLAY_MODE_HOST",
            "priority": 5,
            "nextTalks": [
                6800428,
                6800429
            ],
            "initDialog": 680041901,
            "performCfg": "",
            "loadType": "TALK_GADGET",
            "assetIndex": 4727460507151060215,
            "prePerformCfg": ""
        },
        {
            "id": 6800428,
            "activeMode": "PLAY_MODE_HOST",
            "initDialog": 680042401,
            "performCfg": "",
            "loadType": "TALK_GADGET",
            "assetIndex": 9284582570153880515,
            "prePerformCfg": "",
            "finishExec": [
                {
                    "type": "TALK_EXEC_SET_GADGET_STATE",
                    "param": [
                        "6800419"
                    ]
                }
            ]
        },
        {
            "id": 6800429,
            "activeMode": "PLAY_MODE_HOST",
            "initDialog": 680042501,
            "performCfg": "",
            "loadType": "TALK_GADGET",
            "assetIndex": 3662638204682504452,
            "prePerformCfg": ""
        }
    ]
}