{
    "HGAMDAONNMG": 1001,
    "groupId": 235871001,
    "talks": [
        {
            "id": 6800420,
            "beginWay": "TALK_BEGIN_MANUAL",
            "activeMode": "PLAY_MODE_HOST",
            "priority": 5,
            "nextTalks": [
                6800426,
                6800427
            ],
            "initDialog": 680041901,
            "performCfg": "",
            "loadType": "TALK_GADGET",
            "assetIndex": 2388280067741758046,
            "prePerformCfg": ""
        },
        {
            "id": 6800426,
            "activeMode": "PLAY_MODE_HOST",
            "initDialog": 680042401,
            "performCfg": "",
            "loadType": "TALK_GADGET",
            "assetIndex": 16137183094830461013,
            "prePerformCfg": "",
            "finishExec": [
                {
                    "type": "TALK_EXEC_SET_GADGET_STATE",
                    "param": [
                        "6800419"
                    ]
                }
            ]
        },
        {
            "id": 6800427,
            "activeMode": "PLAY_MODE_HOST",
            "initDialog": 680042501,
            "performCfg": "",
            "loadType": "TALK_GADGET",
            "assetIndex": 3153122345316255270,
            "prePerformCfg": ""
        }
    ]
}