{
    "HGAMDAONNMG": 106001,
    "groupId": 133408106,
    "talks": [
        {
            "id": 6841100,
            "beginWay": "TALK_BEGIN_MANUAL",
            "priority": 5,
            "nextTalks": [
                6841101,
                6841102
            ],
            "initDialog": 684110001,
            "performCfg": "",
            "loadType": "TALK_GADGET",
            "assetIndex": 5311770025934822480,
            "prePerformCfg": ""
        },
        {
            "id": 6841101,
            "priority": 5,
            "nextRandomTalks": [
                6841103,
                6841104,
                6841105,
                6841106,
                6841107,
                6841108,
                6841109,
                6841110,
                6841111,
                6841112,
                6841113,
                6841114,
                6841115
            ],
            "DGGPIHLKCDJ": 1,
            "EOKFKPMLCKF": true,
            "IDDGIDENGIP": [
                0,
                0,
                0,
                0,
                0,
                0,
                0,
                0,
                0,
                0,
                0,
                0,
                0
            ],
            "initDialog": 684110101,
            "performCfg": "",
            "loadType": "TALK_GADGET",
            "assetIndex": 16942738752803641916,
            "prePerformCfg": ""
        },
        {
            "id": 6841102,
            "priority": 5,
            "initDialog": 684110201,
            "performCfg": "",
            "loadType": "TALK_GADGET",
            "assetIndex": 13398298861977825953,
            "prePerformCfg": ""
        },
        {
            "id": 6841103,
            "priority": 5,
            "nextTalks": [
                6841101,
                6841102
            ],
            "initDialog": 684110301,
            "performCfg": "",
            "loadType": "TALK_GADGET",
            "assetIndex": 18023632249590520192,
            "prePerformCfg": ""
        },
        {
            "id": 6841104,
            "priority": 5,
            "nextTalks": [
                6841101,
                6841102
            ],
            "initDialog": 684110401,
            "performCfg": "",
            "loadType": "TALK_GADGET",
            "assetIndex": 12630278460272682124,
            "prePerformCfg": ""
        },
        {
            "id": 6841105,
            "priority": 5,
            "nextTalks": [
                6841101,
                6841102
            ],
            "initDialog": 684110501,
            "performCfg": "",
            "loadType": "TALK_GADGET",
            "assetIndex": 14659647991850495750,
            "prePerformCfg": ""
        },
        {
            "id": 6841106,
            "priority": 5,
            "nextTalks": [
                6841101,
                6841102
            ],
            "initDialog": 684110601,
            "performCfg": "",
            "loadType": "TALK_GADGET",
            "assetIndex": 1313677786278430825,
            "prePerformCfg": ""
        },
        {
            "id": 6841107,
            "beginCond": [
                {
                    "type": "QUEST_COND_QUEST_GLOBAL_VAR_EQUAL",
                    "param": [
                        "7406501",
                        "0"
                    ]
                }
            ],
            "priority": 5,
            "nextTalks": [
                6841101,
                6841102
            ],
            "initDialog": 684110701,
            "performCfg": "",
            "loadType": "TALK_GADGET",
            "assetIndex": 1130372787171023429,
            "prePerformCfg": ""
        },
        {
            "id": 6841108,
            "beginCond": [
                {
                    "type": "QUEST_COND_QUEST_GLOBAL_VAR_EQUAL",
                    "param": [
                        "7406501",
                        "1"
                    ]
                }
            ],
            "priority": 5,
            "nextTalks": [
                6841101,
                6841102
            ],
            "initDialog": 684110801,
            "performCfg": "",
            "loadType": "TALK_GADGET",
            "assetIndex": 5729458763451473504,
            "prePerformCfg": ""
        },
        {
            "id": 6841109,
            "beginCondComb": "LOGIC_AND",
            "beginCond": [
                {
                    "type": "QUEST_COND_QUEST_GLOBAL_VAR_GREATER",
                    "param": [
                        "7402507",
                        "0"
                    ]
                },
                {
                    "type": "QUEST_COND_QUEST_GLOBAL_VAR_LESS",
                    "param": [
                        "7402507",
                        "5"
                    ]
                }
            ],
            "priority": 5,
            "nextTalks": [
                6841101,
                6841102
            ],
            "initDialog": 684110901,
            "performCfg": "",
            "loadType": "TALK_GADGET",
            "assetIndex": 2043350835531137528,
            "prePerformCfg": ""
        },
        {
            "id": 6841110,
            "beginCondComb": "LOGIC_AND",
            "beginCond": [
                {
                    "type": "QUEST_COND_QUEST_GLOBAL_VAR_GREATER",
                    "param": [
                        "7402507",
                        "1"
                    ]
                },
                {
                    "type": "QUEST_COND_QUEST_GLOBAL_VAR_LESS",
                    "param": [
                        "7402507",
                        "5"
                    ]
                }
            ],
            "priority": 5,
            "nextTalks": [
                6841101,
                6841102
            ],
            "initDialog": 684111001,
            "performCfg": "",
            "loadType": "TALK_GADGET",
            "assetIndex": 6463476027596387037,
            "prePerformCfg": ""
        },
        {
            "id": 6841111,
            "beginCondComb": "LOGIC_AND",
            "beginCond": [
                {
                    "type": "QUEST_COND_QUEST_GLOBAL_VAR_GREATER",
                    "param": [
                        "7402507",
                        "2"
                    ]
                },
                {
                    "type": "QUEST_COND_QUEST_GLOBAL_VAR_LESS",
                    "param": [
                        "7402507",
                        "5"
                    ]
                }
            ],
            "priority": 5,
            "nextTalks": [
                6841101,
                6841102
            ],
            "initDialog": 684111101,
            "performCfg": "",
            "loadType": "TALK_GADGET",
            "assetIndex": 2984747532129929379,
            "prePerformCfg": ""
        },
        {
            "id": 6841112,
            "priority": 5,
            "nextTalks": [
                6841101,
                6841102
            ],
            "initDialog": 684111201,
            "performCfg": "",
            "loadType": "TALK_GADGET",
            "assetIndex": 3025315052740046549,
            "prePerformCfg": ""
        },
        {
            "id": 6841113,
            "priority": 5,
            "nextTalks": [
                6841101,
                6841102
            ],
            "initDialog": 684111301,
            "performCfg": "",
            "loadType": "TALK_GADGET",
            "assetIndex": 2598709418161817383,
            "prePerformCfg": ""
        },
        {
            "id": 6841114,
            "priority": 5,
            "nextTalks": [
                6841101,
                6841102
            ],
            "initDialog": 684111401,
            "performCfg": "",
            "loadType": "TALK_GADGET",
            "assetIndex": 1303428414852307119,
            "prePerformCfg": ""
        },
        {
            "id": 6841115,
            "priority": 5,
            "nextTalks": [
                6841101,
                6841102
            ],
            "initDialog": 684111501,
            "performCfg": "",
            "loadType": "TALK_GADGET",
            "assetIndex": 18063170017541027756,
            "prePerformCfg": ""
        }
    ]
}