{
    "HGAMDAONNMG": 2000,
    "groupId": 999999900,
    "talks": [
        {
            "id": 6890501,
            "beginWay": "TALK_BEGIN_MANUAL",
            "activeMode": "PLAY_MODE_HOST",
            "priority": 5,
            "nextTalks": [
                6890502,
                6890503
            ],
            "initDialog": 689050101,
            "performCfg": "",
            "loadType": "TALK_GADGET",
            "assetIndex": 12645742940003603676,
            "prePerformCfg": ""
        },
        {
            "id": 6890502,
            "beginWay": "TALK_BEGIN_MANUAL",
            "activeMode": "PLAY_MODE_HOST",
            "priority": 1,
            "initDialog": 689050201,
            "performCfg": "",
            "loadType": "TALK_GADGET",
            "assetIndex": 2763753932419539084,
            "prePerformCfg": ""
        },
        {
            "id": 6890503,
            "beginWay": "TALK_BEGIN_MANUAL",
            "activeMode": "PLAY_MODE_HOST",
            "priority": 1,
            "initDialog": 689050301,
            "performCfg": "",
            "loadType": "TALK_GADGET",
            "assetIndex": 1684461516582836469,
            "prePerformCfg": ""
        },
        {
            "id": 6890511,
            "beginWay": "TALK_BEGIN_MANUAL",
            "activeMode": "PLAY_MODE_GUEST",
            "priority": 5,
            "initDialog": 689051101,
            "performCfg": "",
            "loadType": "TALK_GADGET",
            "assetIndex": 17819389571926116333,
            "prePerformCfg": ""
        }
    ]
}