{
    "HGAMDAONNMG": 297002,
    "groupId": 133212297,
    "talks": [
        {
            "id": 6800903,
            "beginWay": "TALK_BEGIN_MANUAL",
            "activeMode": "PLAY_MODE_HOST",
            "priority": 5,
            "initDialog": 680090301,
            "performCfg": "",
            "loadType": "TALK_GADGET",
            "assetIndex": 10300111203662797336,
            "prePerformCfg": ""
        }
    ]
}