{
    "HGAMDAONNMG": 739006,
    "groupId": 133302739,
    "talks": [
        {
            "id": 800906,
            "beginWay": "TALK_BEGIN_MANUAL",
            "beginCond": [
                {
                    "type": "QUEST_COND_STATE_EQUAL",
                    "param": [
                        "800911",
                        "2"
                    ]
                }
            ],
            "priority": 5,
            "initDialog": 80090601,
            "performCfg": "QuestDialogue/AQ/Twins3_8009/Q800906",
            "heroTalk": "TALK_HERO_MAIN",
            "loadType": "TALK_GADGET",
            "questId": 8009,
            "assetIndex": 924076813020277491,
            "prePerformCfg": ""
        }
    ]
}