{
    "HGAMDAONNMG": 81001,
    "groupId": 144001081,
    "talks": [
        {
            "id": 6800215,
            "beginWay": "TALK_BEGIN_MANUAL",
            "activeMode": "PLAY_MODE_ALL",
            "beginCond": [
                {
                    "type": "QUEST_COND_GADGET_TALK_STATE_EQUAL",
                    "param": [
                        "81001",
                        "144001081",
                        "6800215"
                    ]
                }
            ],
            "priority": 5,
            "initDialog": 680021501,
            "performCfg": "",
            "loadType": "TALK_GADGET",
            "assetIndex": 15064085647292831296,
            "prePerformCfg": "",
            "finishExec": [
                {
                    "type": "TALK_EXEC_SET_GADGET_STATE",
                    "param": [
                        "6800215"
                    ]
                }
            ]
        }
    ]
}