{
    "HGAMDAONNMG": 841001,
    "groupId": 133308841,
    "talks": [
        {
            "id": 6833010,
            "beginWay": "TALK_BEGIN_MANUAL",
            "activeMode": "PLAY_MODE_HOST",
            "beginCond": [
                {
                    "type": "QUEST_COND_GADGET_TALK_STATE_EQUAL",
                    "param": [
                        "841001",
                        "133308841",
                        "0"
                    ]
                }
            ],
            "priority": 5,
            "initDialog": 683301001,
            "performCfg": "",
            "loadType": "TALK_GADGET",
            "assetIndex": 17678549748965499002,
            "prePerformCfg": ""
        }
    ]
}