{
    "luaDataPath": "",
    "entityBan": "",
    "disableNpcLod": true,
    "isAutoBanNpc": true,
    "isBanWidgetPet": true,
    "protectNpcMobileLod": true,
    "startFade": {
        "startFadeOutDuration": 0.0
    },
    "endFade": {
        "startFadeOutDuration": 0.0
    },
    "actors": [
        {
            "alias": "Avatar",
            "visible": true,
            "bornPointName": "T7328701_player",
            "relativePosType": "AVATAR_NEW",
            "relativePosNpcAlias": "",
            "bindMovingTargetKey": ""
        },
        {
            "configID": 4019,
            "alias": "4019",
            "visible": true,
            "bornPointName": "",
            "removeActorType": "REMOVE",
            "forceCreateDaily": true,
            "relativePosType": "AVATAR_NEW",
            "relativePosNpcAlias": "",
            "bindMovingTargetKey": ""
        },
        {
            "configID": 1005,
            "alias": "1005",
            "visible": true,
            "bornPointName": "N1005_T7328701",
            "relativePos": {
                "x": 0.5,
                "z": 0.5
            },
            "removeActorType": "NEW_REMOVE_WITH_DISAPPEAR",
            "relativePosType": "AVATAR_NEW",
            "relativePosNpcAlias": "",
            "bindMovingTargetKey": ""
        }
    ],
    "group": [
        [
            {
                "$type": "MoleMole.Config.ConfigTimeProtectAction",
                "type": "TIME_PROTECT",
                "duration": 1.0,
                "actionId": 104
            },
            {
                "$type": "MoleMole.Config.ConfigBlackScreenAction",
                "type": "BLACK_SCREEN",
                "duration": 1.0,
                "actionId": 147,
                "blackScreenType": "KEEP_BLACK",
                "durationToBlack": 0.5,
                "durationKeepBlack": 1.0,
                "durationFromBlack": 0.5,
                "inteePos": "",
                "textMapID": "",
                "useTextFade": true
            },
            {
                "$type": "IBPNIIGAIPF",
                "type": "LOOK_AT",
                "delayTime": 0.753000020980835,
                "aliasList": [
                    "Avatar"
                ],
                "actionId": 268,
                "GGIENKFBOGL": true,
                "NDOMJCOFKDJ": 0.5,
                "KIPMIDIKECP": "4019",
                "FGPHOPBEJDE": true,
                "HJJAFGPMJNJ": "",
                "AOFBAGFCGPJ": ""
            }
        ],
        [
            {
                "$type": "MoleMole.Config.ConfigBlackScreenAction",
                "type": "BLACK_SCREEN",
                "duration": 0.5,
                "actionId": 148,
                "blackScreenType": "FROM_BLACK",
                "durationToBlack": 0.5,
                "durationKeepBlack": 0.5,
                "durationFromBlack": 0.5,
                "inteePos": "",
                "textMapID": "",
                "useTextFade": true
            },
            {
                "$type": "BCJBNCJOPCE",
                "type": "CAMERA_MOVE",
                "duration": 0.5,
                "actionId": 156,
                "AKFGKKEOEFA": {
                    "x": -476.6730041503906,
                    "y": 231.718994140625,
                    "z": 2765.114013671875
                },
                "NGEBMAEFFGJ": {
                    "x": -476.1919860839844,
                    "y": 231.63299560546875,
                    "z": 2764.240966796875
                },
                "LIGHLBKBDEI": 50.0,
                "GFIOJGJJGCN": 6,
                "ABAEPHOGOFF": "EaseInOutCubic",
                "KFDBMBFFANN": {},
                "IEJBKHHEJEN": true,
                "GDHBGCNKHDE": -0.0020000000949949026,
                "CEDHIBLHMKP": false,
                "KIPMIDIKECP": "",
                "ANFHNPOCMNI": true,
                "BDLGHOJPJHD": "",
                "LCOJGFEOLCK": "",
                "BBBGAEDCJEL": ""
            },
            {
                "$type": "CCEEIGNAILH",
                "type": "DIALOG",
                "aliasList": [
                    "4019"
                ],
                "actionId": 107,
                "KICBIOMGHIN": 732870101,
                "PNCCODDABKI": 3.5
            },
            {
                "$type": "KCBOGFFHPBD",
                "type": "BODY_LANG",
                "delayTime": 0.6499999761581421,
                "aliasList": [
                    "4019"
                ],
                "actionId": 177,
                "GPIEDGOMCGL": 1172,
                "FHLAMNNHMFA": true,
                "KCEHDJLKIAL": false,
                "KCOLHJBDILK": true,
                "AOFEDPBOOIE": ""
            },
            {
                "$type": "BCJBNCJOPCE",
                "type": "CAMERA_MOVE",
                "delayTime": 2.3420000076293945,
                "duration": 0.0,
                "actionId": 231,
                "AKFGKKEOEFA": {
                    "x": -476.9909973144531,
                    "y": 232.14700317382812,
                    "z": 2762.93603515625
                },
                "NGEBMAEFFGJ": {
                    "x": -476.593994140625,
                    "y": 231.75100708007812,
                    "z": 2763.763916015625
                },
                "LIGHLBKBDEI": 50.0,
                "GFIOJGJJGCN": 6,
                "ABAEPHOGOFF": "EaseOutQuad",
                "KFDBMBFFANN": {},
                "IEJBKHHEJEN": true,
                "GDHBGCNKHDE": -0.0020000000949949026,
                "CEDHIBLHMKP": false,
                "KIPMIDIKECP": "",
                "ANFHNPOCMNI": true,
                "BDLGHOJPJHD": "",
                "LCOJGFEOLCK": "",
                "BBBGAEDCJEL": ""
            },
            {
                "$type": "KCBOGFFHPBD",
                "type": "BODY_LANG",
                "delayTime": 3.365000009536743,
                "aliasList": [
                    "4019"
                ],
                "actionId": 230,
                "GPIEDGOMCGL": 1030,
                "FHLAMNNHMFA": true,
                "KCEHDJLKIAL": false,
                "KCOLHJBDILK": true,
                "AOFEDPBOOIE": ""
            }
        ],
        [
            {
                "$type": "BCJBNCJOPCE",
                "type": "CAMERA_MOVE",
                "duration": 0.0,
                "actionId": 158,
                "AKFGKKEOEFA": {
                    "x": -476.635986328125,
                    "y": 231.69000244140625,
                    "z": 2763.68505859375
                },
                "NGEBMAEFFGJ": {
                    "x": -476.15399169921875,
                    "y": 231.55099487304688,
                    "z": 2764.550048828125
                },
                "GFIOJGJJGCN": 6,
                "ABAEPHOGOFF": "EaseInOutCubic",
                "KFDBMBFFANN": {},
                "IEJBKHHEJEN": true,
                "GDHBGCNKHDE": -0.0020000000949949026,
                "CEDHIBLHMKP": false,
                "KIPMIDIKECP": "",
                "ANFHNPOCMNI": true,
                "BDLGHOJPJHD": "",
                "LCOJGFEOLCK": "",
                "BBBGAEDCJEL": ""
            },
            {
                "$type": "KCBOGFFHPBD",
                "type": "BODY_LANG",
                "aliasList": [
                    "4019"
                ],
                "actionId": 232,
                "AHGOBCDHCMC": true,
                "FHLAMNNHMFA": true,
                "KCEHDJLKIAL": false,
                "KCOLHJBDILK": true,
                "AOFEDPBOOIE": ""
            },
            {
                "$type": "CCEEIGNAILH",
                "type": "DIALOG",
                "aliasList": [
                    "1005"
                ],
                "actionId": 109,
                "KICBIOMGHIN": 732870102,
                "PNCCODDABKI": 1.5
            },
            {
                "$type": "KCBOGFFHPBD",
                "type": "BODY_LANG",
                "delayTime": 0.08500000089406967,
                "aliasList": [
                    "1005"
                ],
                "actionId": 178,
                "GPIEDGOMCGL": 1060,
                "FHLAMNNHMFA": true,
                "KCEHDJLKIAL": false,
                "KCOLHJBDILK": true,
                "AOFEDPBOOIE": ""
            },
            {
                "$type": "IBPNIIGAIPF",
                "type": "LOOK_AT",
                "delayTime": 0.10700000077486038,
                "aliasList": [
                    "1005"
                ],
                "actionId": 233,
                "GGIENKFBOGL": true,
                "NDOMJCOFKDJ": 0.5,
                "KIPMIDIKECP": "4019",
                "FGPHOPBEJDE": true,
                "HJJAFGPMJNJ": "",
                "AOFBAGFCGPJ": ""
            },
            {
                "$type": "BCJBNCJOPCE",
                "type": "CAMERA_MOVE",
                "delayTime": 0.2750000059604645,
                "duration": 5.0,
                "actionId": 257,
                "AKFGKKEOEFA": {
                    "x": -476.635986328125,
                    "y": 231.69000244140625,
                    "z": 2763.68505859375
                },
                "NGEBMAEFFGJ": {
                    "x": -476.1719970703125,
                    "y": 231.49200439453125,
                    "z": 2764.549072265625
                },
                "LIGHLBKBDEI": 44.0,
                "GFIOJGJJGCN": 2,
                "ABAEPHOGOFF": "Linear",
                "KFDBMBFFANN": {},
                "IEJBKHHEJEN": true,
                "GDHBGCNKHDE": -0.0020000000949949026,
                "CEDHIBLHMKP": false,
                "KIPMIDIKECP": "",
                "ANFHNPOCMNI": true,
                "BDLGHOJPJHD": "",
                "LCOJGFEOLCK": "",
                "BBBGAEDCJEL": ""
            },
            {
                "$type": "KCBOGFFHPBD",
                "type": "BODY_LANG",
                "delayTime": 3.109999895095825,
                "aliasList": [
                    "1005"
                ],
                "actionId": 179,
                "AHGOBCDHCMC": true,
                "FHLAMNNHMFA": true,
                "KCEHDJLKIAL": false,
                "KCOLHJBDILK": true,
                "AOFEDPBOOIE": ""
            }
        ],
        [
            {
                "$type": "BCJBNCJOPCE",
                "type": "CAMERA_MOVE",
                "duration": 0.5,
                "actionId": 159,
                "AKFGKKEOEFA": {
                    "x": -477.30999755859375,
                    "y": 231.7270050048828,
                    "z": 2766.48095703125
                },
                "NGEBMAEFFGJ": {
                    "x": -476.6610107421875,
                    "y": 231.53700256347656,
                    "z": 2765.7451171875
                },
                "GFIOJGJJGCN": 6,
                "ABAEPHOGOFF": "EaseInOutCubic",
                "KFDBMBFFANN": {},
                "IEJBKHHEJEN": true,
                "GDHBGCNKHDE": -0.0020000000949949026,
                "CEDHIBLHMKP": false,
                "KIPMIDIKECP": "",
                "ANFHNPOCMNI": true,
                "BDLGHOJPJHD": "",
                "LCOJGFEOLCK": "",
                "BBBGAEDCJEL": ""
            },
            {
                "$type": "CCEEIGNAILH",
                "type": "DIALOG",
                "aliasList": [
                    "4019"
                ],
                "actionId": 111,
                "KICBIOMGHIN": 732870103,
                "PNCCODDABKI": 1.5
            },
            {
                "$type": "KCBOGFFHPBD",
                "type": "BODY_LANG",
                "aliasList": [
                    "1005"
                ],
                "actionId": 180,
                "AHGOBCDHCMC": true,
                "FHLAMNNHMFA": true,
                "KCEHDJLKIAL": false,
                "KCOLHJBDILK": true,
                "AOFEDPBOOIE": ""
            },
            {
                "$type": "KCBOGFFHPBD",
                "type": "BODY_LANG",
                "delayTime": 0.012000000104308128,
                "aliasList": [
                    "4019"
                ],
                "actionId": 181,
                "GPIEDGOMCGL": 1172,
                "FHLAMNNHMFA": true,
                "KCEHDJLKIAL": false,
                "KCOLHJBDILK": true,
                "AOFEDPBOOIE": ""
            },
            {
                "$type": "KCBOGFFHPBD",
                "type": "BODY_LANG",
                "delayTime": 2.0409998893737793,
                "aliasList": [
                    "1005"
                ],
                "actionId": 187,
                "GPIEDGOMCGL": 1260,
                "FHLAMNNHMFA": true,
                "KCEHDJLKIAL": false,
                "KCOLHJBDILK": true,
                "AOFEDPBOOIE": ""
            },
            {
                "$type": "KCBOGFFHPBD",
                "type": "BODY_LANG",
                "delayTime": 3.3310000896453857,
                "aliasList": [
                    "4019"
                ],
                "actionId": 182,
                "AHGOBCDHCMC": true,
                "FHLAMNNHMFA": true,
                "KCEHDJLKIAL": false,
                "KCOLHJBDILK": true,
                "AOFEDPBOOIE": ""
            },
            {
                "$type": "KCBOGFFHPBD",
                "type": "BODY_LANG",
                "delayTime": 4.925000190734863,
                "aliasList": [
                    "1005"
                ],
                "actionId": 188,
                "AHGOBCDHCMC": true,
                "FHLAMNNHMFA": true,
                "KCEHDJLKIAL": false,
                "KCOLHJBDILK": true,
                "AOFEDPBOOIE": ""
            }
        ],
        [
            {
                "$type": "BCJBNCJOPCE",
                "type": "CAMERA_MOVE",
                "duration": 0.5,
                "actionId": 160,
                "AKFGKKEOEFA": {
                    "x": -476.6520080566406,
                    "y": 231.5590057373047,
                    "z": 2764.5380859375
                },
                "NGEBMAEFFGJ": {
                    "x": -476.1960144042969,
                    "y": 231.36599731445312,
                    "z": 2765.406982421875
                },
                "LIGHLBKBDEI": 50.0,
                "GFIOJGJJGCN": 6,
                "ABAEPHOGOFF": "EaseInOutCubic",
                "KFDBMBFFANN": {},
                "IEJBKHHEJEN": true,
                "GDHBGCNKHDE": -0.0020000000949949026,
                "CEDHIBLHMKP": false,
                "KIPMIDIKECP": "",
                "ANFHNPOCMNI": true,
                "BDLGHOJPJHD": "",
                "LCOJGFEOLCK": "",
                "BBBGAEDCJEL": ""
            },
            {
                "$type": "KCBOGFFHPBD",
                "type": "BODY_LANG",
                "aliasList": [
                    "4019"
                ],
                "actionId": 183,
                "AHGOBCDHCMC": true,
                "FHLAMNNHMFA": true,
                "KCEHDJLKIAL": false,
                "KCOLHJBDILK": true,
                "AOFEDPBOOIE": ""
            },
            {
                "$type": "CCEEIGNAILH",
                "type": "DIALOG",
                "aliasList": [
                    "1005"
                ],
                "actionId": 113,
                "KICBIOMGHIN": 732870104,
                "PNCCODDABKI": 2.5
            },
            {
                "$type": "KCBOGFFHPBD",
                "type": "BODY_LANG",
                "aliasList": [
                    "1005"
                ],
                "actionId": 185,
                "GPIEDGOMCGL": 1250,
                "FHLAMNNHMFA": true,
                "KCEHDJLKIAL": false,
                "KCOLHJBDILK": true,
                "AOFEDPBOOIE": ""
            },
            {
                "$type": "IBPNIIGAIPF",
                "type": "LOOK_AT",
                "delayTime": 1.7170000076293945,
                "aliasList": [
                    "1005"
                ],
                "actionId": 234,
                "GGIENKFBOGL": true,
                "NDOMJCOFKDJ": 0.5,
                "KIPMIDIKECP": "Avatar",
                "FGPHOPBEJDE": true,
                "HJJAFGPMJNJ": "",
                "AOFBAGFCGPJ": ""
            },
            {
                "$type": "BCJBNCJOPCE",
                "type": "CAMERA_MOVE",
                "delayTime": 1.975000023841858,
                "duration": 2.0,
                "actionId": 235,
                "AKFGKKEOEFA": {
                    "x": -476.6520080566406,
                    "y": 231.5590057373047,
                    "z": 2764.5380859375
                },
                "NGEBMAEFFGJ": {
                    "x": -476.1199951171875,
                    "y": 231.38699340820312,
                    "z": 2765.366943359375
                },
                "LIGHLBKBDEI": 50.0,
                "GFIOJGJJGCN": 2,
                "ABAEPHOGOFF": "Linear",
                "KFDBMBFFANN": {},
                "IEJBKHHEJEN": true,
                "GDHBGCNKHDE": -0.0020000000949949026,
                "CEDHIBLHMKP": false,
                "KIPMIDIKECP": "",
                "ANFHNPOCMNI": true,
                "BDLGHOJPJHD": "",
                "LCOJGFEOLCK": "",
                "BBBGAEDCJEL": ""
            },
            {
                "$type": "IBPNIIGAIPF",
                "type": "LOOK_AT",
                "delayTime": 1.9919999837875366,
                "aliasList": [
                    "Avatar"
                ],
                "actionId": 236,
                "GGIENKFBOGL": true,
                "MHMKIICCEDG": {
                    "x": 20.0
                },
                "IDICBCPKDPM": true,
                "AHMNGABHGCA": 10.0,
                "NDOMJCOFKDJ": 0.5,
                "KIPMIDIKECP": "",
                "AHLPNEGAKGG": "NONE",
                "FGPHOPBEJDE": true,
                "HJJAFGPMJNJ": "",
                "AOFBAGFCGPJ": ""
            },
            {
                "$type": "CNBNGFNKLGP",
                "type": "STEER_TO",
                "delayTime": 2.255000114440918,
                "duration": 1.0,
                "aliasList": [
                    "1005"
                ],
                "actionId": 186,
                "DEMFHGAIELL": "TO_TARGET",
                "KDKLEJFHDJG": {
                    "x": -476.26800537109375,
                    "y": 230.0780029296875,
                    "z": 2764.679931640625
                },
                "BBNLLCHBKAI": true,
                "COJBPJMLIFM": true,
                "NLIKMFJCLBP": true,
                "KIPMIDIKECP": "Avatar",
                "IDIIDHLNENJ": true,
                "FDLMFGAMGJK": true,
                "AOFBAGFCGPJ": ""
            }
        ],
        [
            {
                "$type": "MoleMole.Config.ConfigUITriggerInterAction",
                "type": "UI_TRIGGER",
                "actionId": 267,
                "contextName": "QuestReadingDialog",
                "param": "120219"
            }
        ],
        [
            {
                "$type": "BCJBNCJOPCE",
                "type": "CAMERA_MOVE",
                "duration": 0.5,
                "actionId": 161,
                "AKFGKKEOEFA": {
                    "x": -475.5849914550781,
                    "y": 231.35400390625,
                    "z": 2765.98193359375
                },
                "NGEBMAEFFGJ": {
                    "x": -476.5060119628906,
                    "y": 231.39700317382812,
                    "z": 2765.593994140625
                },
                "GFIOJGJJGCN": 6,
                "ABAEPHOGOFF": "EaseInOutCubic",
                "KFDBMBFFANN": {},
                "IEJBKHHEJEN": true,
                "GDHBGCNKHDE": -0.0020000000949949026,
                "CEDHIBLHMKP": false,
                "KIPMIDIKECP": "",
                "ANFHNPOCMNI": true,
                "BDLGHOJPJHD": "",
                "LCOJGFEOLCK": "",
                "BBBGAEDCJEL": ""
            },
            {
                "$type": "KCBOGFFHPBD",
                "type": "BODY_LANG",
                "aliasList": [
                    "Avatar"
                ],
                "actionId": 191,
                "GPIEDGOMCGL": 201,
                "FHLAMNNHMFA": true,
                "KCEHDJLKIAL": false,
                "KCOLHJBDILK": true,
                "AOFEDPBOOIE": ""
            },
            {
                "$type": "KCBOGFFHPBD",
                "type": "BODY_LANG",
                "delayTime": 0.06700000166893005,
                "aliasList": [
                    "1005"
                ],
                "actionId": 258,
                "GPIEDGOMCGL": 1190,
                "FHLAMNNHMFA": true,
                "KCEHDJLKIAL": false,
                "KCOLHJBDILK": true,
                "AOFEDPBOOIE": ""
            },
            {
                "$type": "IBPNIIGAIPF",
                "type": "LOOK_AT",
                "delayTime": 0.1589999943971634,
                "aliasList": [
                    "Avatar"
                ],
                "actionId": 189,
                "GGIENKFBOGL": true,
                "MHMKIICCEDG": {
                    "x": 10.0,
                    "y": 15.0
                },
                "IDICBCPKDPM": true,
                "AHMNGABHGCA": 10.0,
                "NDOMJCOFKDJ": 0.5,
                "KIPMIDIKECP": "4019",
                "FGPHOPBEJDE": true,
                "HJJAFGPMJNJ": "",
                "AOFBAGFCGPJ": ""
            },
            {
                "$type": "IBPNIIGAIPF",
                "type": "LOOK_AT",
                "delayTime": 0.21699999272823334,
                "aliasList": [
                    "1005"
                ],
                "actionId": 190,
                "GGIENKFBOGL": true,
                "MHMKIICCEDG": {
                    "y": 15.0
                },
                "NDOMJCOFKDJ": 0.5,
                "KIPMIDIKECP": "",
                "AHLPNEGAKGG": "NONE",
                "FGPHOPBEJDE": true,
                "HJJAFGPMJNJ": "",
                "AOFBAGFCGPJ": ""
            },
            {
                "$type": "CCEEIGNAILH",
                "type": "DIALOG",
                "delayTime": 1.0420000553131104,
                "aliasList": [
                    "1005"
                ],
                "actionId": 115,
                "KICBIOMGHIN": 732870105,
                "PNCCODDABKI": 1.5
            },
            {
                "$type": "KCBOGFFHPBD",
                "type": "BODY_LANG",
                "delayTime": 1.7940000295639038,
                "aliasList": [
                    "1005"
                ],
                "actionId": 208,
                "GPIEDGOMCGL": 1300,
                "FHLAMNNHMFA": true,
                "KCEHDJLKIAL": false,
                "KCOLHJBDILK": true,
                "AOFEDPBOOIE": ""
            },
            {
                "$type": "KCBOGFFHPBD",
                "type": "BODY_LANG",
                "delayTime": 6.389999866485596,
                "aliasList": [
                    "Avatar"
                ],
                "actionId": 192,
                "AHGOBCDHCMC": true,
                "FHLAMNNHMFA": true,
                "KCEHDJLKIAL": false,
                "KCOLHJBDILK": true,
                "AOFEDPBOOIE": ""
            }
        ],
        [
            {
                "$type": "BCJBNCJOPCE",
                "type": "CAMERA_MOVE",
                "duration": 0.5,
                "actionId": 209,
                "AKFGKKEOEFA": {
                    "x": -476.54400634765625,
                    "y": 231.3699951171875,
                    "z": 2764.9609375
                },
                "NGEBMAEFFGJ": {
                    "x": -476.31500244140625,
                    "y": 231.31700134277344,
                    "z": 2765.93310546875
                },
                "LIGHLBKBDEI": 49.0,
                "GFIOJGJJGCN": 6,
                "ABAEPHOGOFF": "EaseInOutCubic",
                "KFDBMBFFANN": {},
                "IEJBKHHEJEN": true,
                "GDHBGCNKHDE": -0.0020000000949949026,
                "CEDHIBLHMKP": false,
                "KIPMIDIKECP": "",
                "ANFHNPOCMNI": true,
                "BDLGHOJPJHD": "",
                "LCOJGFEOLCK": "",
                "BBBGAEDCJEL": ""
            },
            {
                "$type": "KCBOGFFHPBD",
                "type": "BODY_LANG",
                "aliasList": [
                    "Avatar"
                ],
                "actionId": 193,
                "AHGOBCDHCMC": true,
                "FHLAMNNHMFA": true,
                "KCEHDJLKIAL": false,
                "KCOLHJBDILK": true,
                "AOFEDPBOOIE": ""
            },
            {
                "$type": "CCEEIGNAILH",
                "type": "DIALOG",
                "aliasList": [
                    "1005"
                ],
                "actionId": 117,
                "KICBIOMGHIN": 732870106,
                "PNCCODDABKI": 1.5
            },
            {
                "$type": "CNBNGFNKLGP",
                "type": "STEER_TO",
                "delayTime": 0.004000000189989805,
                "duration": 1.0,
                "aliasList": [
                    "1005"
                ],
                "actionId": 194,
                "DEMFHGAIELL": "TO_TARGET",
                "KDKLEJFHDJG": {
                    "x": -476.26800537109375,
                    "y": 230.0780029296875,
                    "z": 2764.679931640625
                },
                "BBNLLCHBKAI": true,
                "COJBPJMLIFM": true,
                "NLIKMFJCLBP": true,
                "KIPMIDIKECP": "4019",
                "IDIIDHLNENJ": true,
                "FDLMFGAMGJK": true,
                "AOFBAGFCGPJ": ""
            },
            {
                "$type": "KCBOGFFHPBD",
                "type": "BODY_LANG",
                "delayTime": 0.004000000189989805,
                "aliasList": [
                    "1005"
                ],
                "actionId": 195,
                "GPIEDGOMCGL": 9040,
                "FHLAMNNHMFA": true,
                "KCEHDJLKIAL": false,
                "KCOLHJBDILK": true,
                "AOFEDPBOOIE": ""
            },
            {
                "$type": "IBPNIIGAIPF",
                "type": "LOOK_AT",
                "delayTime": 0.6620000004768372,
                "aliasList": [
                    "1005"
                ],
                "actionId": 237,
                "GGIENKFBOGL": true,
                "MHMKIICCEDG": {
                    "y": 10.0
                },
                "NDOMJCOFKDJ": 0.5,
                "KIPMIDIKECP": "4019",
                "FGPHOPBEJDE": true,
                "HJJAFGPMJNJ": "",
                "AOFBAGFCGPJ": ""
            },
            {
                "$type": "KCBOGFFHPBD",
                "type": "BODY_LANG",
                "delayTime": 0.9539999961853027,
                "aliasList": [
                    "1005"
                ],
                "actionId": 196,
                "GPIEDGOMCGL": 1050,
                "FHLAMNNHMFA": true,
                "KCEHDJLKIAL": false,
                "KCOLHJBDILK": true,
                "AOFEDPBOOIE": ""
            }
        ],
        [
            {
                "$type": "BCJBNCJOPCE",
                "type": "CAMERA_MOVE",
                "duration": 0.0,
                "actionId": 162,
                "AKFGKKEOEFA": {
                    "x": -476.072998046875,
                    "y": 231.63600158691406,
                    "z": 2765.300048828125
                },
                "NGEBMAEFFGJ": {
                    "x": -476.156005859375,
                    "y": 231.57699584960938,
                    "z": 2764.304931640625
                },
                "LIGHLBKBDEI": 50.0,
                "GFIOJGJJGCN": 6,
                "ABAEPHOGOFF": "EaseInOutCubic",
                "KFDBMBFFANN": {},
                "IEJBKHHEJEN": true,
                "GDHBGCNKHDE": -0.0020000000949949026,
                "CEDHIBLHMKP": false,
                "KIPMIDIKECP": "",
                "ANFHNPOCMNI": true,
                "BDLGHOJPJHD": "",
                "LCOJGFEOLCK": "",
                "BBBGAEDCJEL": ""
            },
            {
                "$type": "CCEEIGNAILH",
                "type": "DIALOG",
                "aliasList": [
                    "4019"
                ],
                "actionId": 119,
                "KICBIOMGHIN": 732870107,
                "PNCCODDABKI": 1.5
            },
            {
                "$type": "KCBOGFFHPBD",
                "type": "BODY_LANG",
                "delayTime": 0.13300000131130219,
                "aliasList": [
                    "1005"
                ],
                "actionId": 197,
                "AHGOBCDHCMC": true,
                "FHLAMNNHMFA": true,
                "KCEHDJLKIAL": false,
                "KCOLHJBDILK": true,
                "AOFEDPBOOIE": ""
            },
            {
                "$type": "BCJBNCJOPCE",
                "type": "CAMERA_MOVE",
                "delayTime": 0.4169999957084656,
                "duration": 6.0,
                "actionId": 210,
                "AKFGKKEOEFA": {
                    "x": -476.1109924316406,
                    "y": 231.61000061035156,
                    "z": 2765.06103515625
                },
                "NGEBMAEFFGJ": {
                    "x": -476.18499755859375,
                    "y": 231.5030059814453,
                    "z": 2764.070068359375
                },
                "LIGHLBKBDEI": 49.0,
                "GFIOJGJJGCN": 2,
                "ABAEPHOGOFF": "Linear",
                "KFDBMBFFANN": {},
                "IEJBKHHEJEN": true,
                "GDHBGCNKHDE": -0.0020000000949949026,
                "CEDHIBLHMKP": false,
                "KIPMIDIKECP": "",
                "ANFHNPOCMNI": true,
                "BDLGHOJPJHD": "",
                "LCOJGFEOLCK": "",
                "BBBGAEDCJEL": ""
            },
            {
                "$type": "KCBOGFFHPBD",
                "type": "BODY_LANG",
                "delayTime": 0.968999981880188,
                "aliasList": [
                    "4019"
                ],
                "actionId": 198,
                "GPIEDGOMCGL": 1172,
                "FHLAMNNHMFA": true,
                "KCEHDJLKIAL": false,
                "KCOLHJBDILK": true,
                "AOFEDPBOOIE": ""
            },
            {
                "$type": "KCBOGFFHPBD",
                "type": "BODY_LANG",
                "delayTime": 4.442999839782715,
                "aliasList": [
                    "4019"
                ],
                "actionId": 199,
                "AHGOBCDHCMC": true,
                "FHLAMNNHMFA": true,
                "KCEHDJLKIAL": false,
                "KCOLHJBDILK": true,
                "AOFEDPBOOIE": ""
            }
        ],
        [
            {
                "$type": "BCJBNCJOPCE",
                "type": "CAMERA_MOVE",
                "duration": 0.0,
                "actionId": 163,
                "AKFGKKEOEFA": {
                    "x": -478.9419860839844,
                    "y": 232.2550048828125,
                    "z": 2771.968017578125
                },
                "NGEBMAEFFGJ": {
                    "x": -478.6319885253906,
                    "y": 232.11000061035156,
                    "z": 2771.028076171875
                },
                "GFIOJGJJGCN": 6,
                "ABAEPHOGOFF": "EaseInOutCubic",
                "KFDBMBFFANN": {},
                "IEJBKHHEJEN": true,
                "GDHBGCNKHDE": -0.0020000000949949026,
                "CEDHIBLHMKP": false,
                "KIPMIDIKECP": "",
                "ANFHNPOCMNI": true,
                "BDLGHOJPJHD": "",
                "LCOJGFEOLCK": "",
                "BBBGAEDCJEL": ""
            },
            {
                "$type": "KCBOGFFHPBD",
                "type": "BODY_LANG",
                "aliasList": [
                    "4019"
                ],
                "actionId": 200,
                "AHGOBCDHCMC": true,
                "FHLAMNNHMFA": true,
                "KCEHDJLKIAL": false,
                "KCOLHJBDILK": true,
                "AOFEDPBOOIE": ""
            },
            {
                "$type": "CCEEIGNAILH",
                "type": "DIALOG",
                "aliasList": [
                    "1005"
                ],
                "actionId": 121,
                "KICBIOMGHIN": 732870108,
                "PNCCODDABKI": 1.5
            },
            {
                "$type": "IBPNIIGAIPF",
                "type": "LOOK_AT",
                "delayTime": 0.0820000022649765,
                "aliasList": [
                    "Avatar"
                ],
                "actionId": 269,
                "GGIENKFBOGL": true,
                "NDOMJCOFKDJ": 0.5,
                "KIPMIDIKECP": "4019",
                "FGPHOPBEJDE": true,
                "HJJAFGPMJNJ": "",
                "AOFBAGFCGPJ": ""
            },
            {
                "$type": "KCBOGFFHPBD",
                "type": "BODY_LANG",
                "delayTime": 0.11900000274181366,
                "aliasList": [
                    "1005"
                ],
                "actionId": 247,
                "GPIEDGOMCGL": 1250,
                "FHLAMNNHMFA": true,
                "KCEHDJLKIAL": false,
                "KCOLHJBDILK": true,
                "AOFEDPBOOIE": ""
            },
            {
                "$type": "BCJBNCJOPCE",
                "type": "CAMERA_MOVE",
                "delayTime": 0.25,
                "duration": 7.0,
                "actionId": 164,
                "AKFGKKEOEFA": {
                    "x": -478.5,
                    "y": 232.2550048828125,
                    "z": 2772.14990234375
                },
                "NGEBMAEFFGJ": {
                    "x": -478.21600341796875,
                    "y": 232.10699462890625,
                    "z": 2771.202880859375
                },
                "GFIOJGJJGCN": 2,
                "ABAEPHOGOFF": "Linear",
                "KFDBMBFFANN": {},
                "IEJBKHHEJEN": true,
                "GDHBGCNKHDE": -0.0020000000949949026,
                "CEDHIBLHMKP": false,
                "KIPMIDIKECP": "",
                "ANFHNPOCMNI": true,
                "BDLGHOJPJHD": "",
                "LCOJGFEOLCK": "",
                "BBBGAEDCJEL": ""
            },
            {
                "$type": "MEKNGCBGKEJ",
                "type": "DIALOG_SELECT",
                "delayTime": 0.4000000059604645,
                "aliasList": [
                    "Avatar"
                ],
                "actionId": 265,
                "MLAABINGLAA": [
                    732870109,
                    732870110
                ],
                "HPBPDBFGKID": [
                    3445295531,
                    3445295531
                ],
                "CFJOJADDHHG": true,
                "APEOOMIGHNL": 2327895877
            },
            {
                "$type": "KCBOGFFHPBD",
                "type": "BODY_LANG",
                "delayTime": 1.1119999885559082,
                "aliasList": [
                    "4019"
                ],
                "actionId": 201,
                "GPIEDGOMCGL": 1290,
                "FHLAMNNHMFA": true,
                "KCEHDJLKIAL": false,
                "KCOLHJBDILK": true,
                "AOFEDPBOOIE": ""
            }
        ],
        [
            {
                "$type": "BCJBNCJOPCE",
                "type": "CAMERA_MOVE",
                "duration": 0.5,
                "actionId": 165,
                "AKFGKKEOEFA": {
                    "x": -476.468994140625,
                    "y": 231.63999938964844,
                    "z": 2764.7099609375
                },
                "NGEBMAEFFGJ": {
                    "x": -476.0190124511719,
                    "y": 231.4709930419922,
                    "z": 2763.8330078125
                },
                "LIGHLBKBDEI": 49.0,
                "GFIOJGJJGCN": 6,
                "ABAEPHOGOFF": "EaseInOutCubic",
                "KFDBMBFFANN": {},
                "IEJBKHHEJEN": true,
                "GDHBGCNKHDE": -0.0020000000949949026,
                "CEDHIBLHMKP": false,
                "KIPMIDIKECP": "",
                "ANFHNPOCMNI": true,
                "BDLGHOJPJHD": "",
                "LCOJGFEOLCK": "",
                "BBBGAEDCJEL": ""
            },
            {
                "$type": "CCEEIGNAILH",
                "type": "DIALOG",
                "aliasList": [
                    "4019"
                ],
                "actionId": 124,
                "KICBIOMGHIN": 732870111,
                "PNCCODDABKI": 1.5
            },
            {
                "$type": "KCBOGFFHPBD",
                "type": "BODY_LANG",
                "delayTime": 0.01899999938905239,
                "aliasList": [
                    "1005"
                ],
                "actionId": 248,
                "AHGOBCDHCMC": true,
                "FHLAMNNHMFA": true,
                "KCEHDJLKIAL": false,
                "KCOLHJBDILK": true,
                "AOFEDPBOOIE": ""
            },
            {
                "$type": "KCBOGFFHPBD",
                "type": "BODY_LANG",
                "delayTime": 0.16300000250339508,
                "aliasList": [
                    "4019"
                ],
                "actionId": 203,
                "GPIEDGOMCGL": 1290,
                "FHLAMNNHMFA": true,
                "KCEHDJLKIAL": false,
                "KCOLHJBDILK": true,
                "AOFEDPBOOIE": ""
            },
            {
                "$type": "KCBOGFFHPBD",
                "type": "BODY_LANG",
                "delayTime": 3.440000057220459,
                "aliasList": [
                    "4019"
                ],
                "actionId": 204,
                "GPIEDGOMCGL": 9000,
                "FHLAMNNHMFA": true,
                "KCEHDJLKIAL": false,
                "KCOLHJBDILK": true,
                "AOFEDPBOOIE": ""
            }
        ],
        [
            {
                "$type": "CCEEIGNAILH",
                "type": "DIALOG",
                "aliasList": [
                    "4019"
                ],
                "actionId": 126,
                "KICBIOMGHIN": 732870112,
                "PNCCODDABKI": 1.5
            },
            {
                "$type": "KCBOGFFHPBD",
                "type": "BODY_LANG",
                "delayTime": 0.5709999799728394,
                "aliasList": [
                    "4019"
                ],
                "actionId": 205,
                "GPIEDGOMCGL": 1173,
                "FHLAMNNHMFA": true,
                "KCEHDJLKIAL": false,
                "KCOLHJBDILK": true,
                "AOFEDPBOOIE": ""
            },
            {
                "$type": "KCBOGFFHPBD",
                "type": "BODY_LANG",
                "delayTime": 4.914999961853027,
                "aliasList": [
                    "4019"
                ],
                "actionId": 206,
                "AHGOBCDHCMC": true,
                "FHLAMNNHMFA": true,
                "KCEHDJLKIAL": false,
                "KCOLHJBDILK": true,
                "AOFEDPBOOIE": ""
            }
        ],
        [
            {
                "$type": "BCJBNCJOPCE",
                "type": "CAMERA_MOVE",
                "duration": 0.0,
                "actionId": 166,
                "AKFGKKEOEFA": {
                    "x": -476.8080139160156,
                    "y": 231.51100158691406,
                    "z": 2764.916015625
                },
                "NGEBMAEFFGJ": {
                    "x": -476.1520080566406,
                    "y": 231.33900451660156,
                    "z": 2765.65087890625
                },
                "GFIOJGJJGCN": 6,
                "ABAEPHOGOFF": "EaseInOutCubic",
                "KFDBMBFFANN": {},
                "IEJBKHHEJEN": true,
                "GDHBGCNKHDE": -0.0020000000949949026,
                "CEDHIBLHMKP": false,
                "KIPMIDIKECP": "",
                "ANFHNPOCMNI": true,
                "BDLGHOJPJHD": "",
                "LCOJGFEOLCK": "",
                "BBBGAEDCJEL": ""
            },
            {
                "$type": "KCBOGFFHPBD",
                "type": "BODY_LANG",
                "aliasList": [
                    "4019"
                ],
                "actionId": 207,
                "AHGOBCDHCMC": true,
                "FHLAMNNHMFA": true,
                "KCEHDJLKIAL": false,
                "KCOLHJBDILK": true,
                "AOFEDPBOOIE": ""
            },
            {
                "$type": "CCEEIGNAILH",
                "type": "DIALOG",
                "aliasList": [
                    "1005"
                ],
                "actionId": 128,
                "KICBIOMGHIN": 732870113,
                "PNCCODDABKI": 2.5
            },
            {
                "$type": "KCBOGFFHPBD",
                "type": "BODY_LANG",
                "delayTime": 0.09600000083446503,
                "aliasList": [
                    "1005"
                ],
                "actionId": 211,
                "GPIEDGOMCGL": 1050,
                "FHLAMNNHMFA": true,
                "KCEHDJLKIAL": false,
                "KCOLHJBDILK": true,
                "AOFEDPBOOIE": ""
            },
            {
                "$type": "BCJBNCJOPCE",
                "type": "CAMERA_MOVE",
                "delayTime": 0.22499999403953552,
                "duration": 5.0,
                "actionId": 215,
                "AKFGKKEOEFA": {
                    "x": -476.8080139160156,
                    "y": 231.51100158691406,
                    "z": 2764.916015625
                },
                "NGEBMAEFFGJ": {
                    "x": -476.1059875488281,
                    "y": 231.38400268554688,
                    "z": 2765.616943359375
                },
                "LIGHLBKBDEI": 44.0,
                "ABAEPHOGOFF": "EaseOutQuad",
                "KFDBMBFFANN": {},
                "IEJBKHHEJEN": true,
                "GDHBGCNKHDE": -0.0020000000949949026,
                "CEDHIBLHMKP": false,
                "KIPMIDIKECP": "",
                "ANFHNPOCMNI": true,
                "BDLGHOJPJHD": "",
                "LCOJGFEOLCK": "",
                "BBBGAEDCJEL": ""
            },
            {
                "$type": "KCBOGFFHPBD",
                "type": "BODY_LANG",
                "delayTime": 2.0460000038146973,
                "aliasList": [
                    "1005"
                ],
                "actionId": 212,
                "GPIEDGOMCGL": 1300,
                "FHLAMNNHMFA": true,
                "KCEHDJLKIAL": false,
                "KCOLHJBDILK": true,
                "AOFEDPBOOIE": ""
            },
            {
                "$type": "KCBOGFFHPBD",
                "type": "BODY_LANG",
                "delayTime": 3.6440000534057617,
                "aliasList": [
                    "1005"
                ],
                "actionId": 238,
                "GPIEDGOMCGL": 1030,
                "FHLAMNNHMFA": true,
                "KCEHDJLKIAL": false,
                "KCOLHJBDILK": true,
                "AOFEDPBOOIE": ""
            }
        ],
        [
            {
                "$type": "BCJBNCJOPCE",
                "type": "CAMERA_MOVE",
                "duration": 0.5,
                "actionId": 167,
                "AKFGKKEOEFA": {
                    "x": -476.64300537109375,
                    "y": 231.63499450683594,
                    "z": 2765.10205078125
                },
                "NGEBMAEFFGJ": {
                    "x": -476.14599609375,
                    "y": 231.54600524902344,
                    "z": 2764.239013671875
                },
                "GFIOJGJJGCN": 6,
                "ABAEPHOGOFF": "EaseInOutCubic",
                "KFDBMBFFANN": {},
                "IEJBKHHEJEN": true,
                "GDHBGCNKHDE": -0.0020000000949949026,
                "CEDHIBLHMKP": false,
                "KIPMIDIKECP": "",
                "ANFHNPOCMNI": true,
                "BDLGHOJPJHD": "",
                "LCOJGFEOLCK": "",
                "BBBGAEDCJEL": ""
            },
            {
                "$type": "CCEEIGNAILH",
                "type": "DIALOG",
                "aliasList": [
                    "4019"
                ],
                "actionId": 130,
                "KICBIOMGHIN": 732870114,
                "PNCCODDABKI": 2.0
            },
            {
                "$type": "KCBOGFFHPBD",
                "type": "BODY_LANG",
                "aliasList": [
                    "1005"
                ],
                "actionId": 214,
                "AHGOBCDHCMC": true,
                "FHLAMNNHMFA": true,
                "KCEHDJLKIAL": false,
                "KCOLHJBDILK": true,
                "AOFEDPBOOIE": ""
            },
            {
                "$type": "KCBOGFFHPBD",
                "type": "BODY_LANG",
                "delayTime": 0.17000000178813934,
                "aliasList": [
                    "4019"
                ],
                "actionId": 216,
                "GPIEDGOMCGL": 4040,
                "FHLAMNNHMFA": true,
                "KCEHDJLKIAL": false,
                "KCOLHJBDILK": true,
                "AOFEDPBOOIE": ""
            },
            {
                "$type": "BCJBNCJOPCE",
                "type": "CAMERA_MOVE",
                "delayTime": 0.367000013589859,
                "duration": 5.0,
                "actionId": 249,
                "AKFGKKEOEFA": {
                    "x": -476.64300537109375,
                    "y": 231.63499450683594,
                    "z": 2765.10205078125
                },
                "NGEBMAEFFGJ": {
                    "x": -476.1719970703125,
                    "y": 231.5399932861328,
                    "z": 2764.22509765625
                },
                "LIGHLBKBDEI": 43.0,
                "GFIOJGJJGCN": 2,
                "ABAEPHOGOFF": "Linear",
                "KFDBMBFFANN": {},
                "IEJBKHHEJEN": true,
                "GDHBGCNKHDE": -0.0020000000949949026,
                "CEDHIBLHMKP": false,
                "KIPMIDIKECP": "",
                "ANFHNPOCMNI": true,
                "BDLGHOJPJHD": "",
                "LCOJGFEOLCK": "",
                "BBBGAEDCJEL": ""
            },
            {
                "$type": "KCBOGFFHPBD",
                "type": "BODY_LANG",
                "delayTime": 1.7910000085830688,
                "aliasList": [
                    "4019"
                ],
                "actionId": 239,
                "GPIEDGOMCGL": 1171,
                "FHLAMNNHMFA": true,
                "KCEHDJLKIAL": false,
                "KCOLHJBDILK": true,
                "AOFEDPBOOIE": ""
            }
        ],
        [
            {
                "$type": "BCJBNCJOPCE",
                "type": "CAMERA_MOVE",
                "duration": 0.5,
                "actionId": 168,
                "AKFGKKEOEFA": {
                    "x": -477.4010009765625,
                    "y": 232.447998046875,
                    "z": 2763.009033203125
                },
                "NGEBMAEFFGJ": {
                    "x": -476.9429931640625,
                    "y": 232.02200317382812,
                    "z": 2763.7890625
                },
                "GFIOJGJJGCN": 6,
                "ABAEPHOGOFF": "EaseInOutCubic",
                "KFDBMBFFANN": {},
                "IEJBKHHEJEN": true,
                "GDHBGCNKHDE": -0.0020000000949949026,
                "CEDHIBLHMKP": false,
                "KIPMIDIKECP": "",
                "ANFHNPOCMNI": true,
                "BDLGHOJPJHD": "",
                "LCOJGFEOLCK": "",
                "BBBGAEDCJEL": ""
            },
            {
                "$type": "CCEEIGNAILH",
                "type": "DIALOG",
                "aliasList": [
                    "1005"
                ],
                "actionId": 132,
                "KICBIOMGHIN": 732870115,
                "PNCCODDABKI": 1.5
            },
            {
                "$type": "KCBOGFFHPBD",
                "type": "BODY_LANG",
                "delayTime": 0.14900000393390656,
                "aliasList": [
                    "Avatar"
                ],
                "actionId": 250,
                "GPIEDGOMCGL": 1230,
                "FHLAMNNHMFA": true,
                "KCEHDJLKIAL": false,
                "KCOLHJBDILK": true,
                "AOFEDPBOOIE": ""
            },
            {
                "$type": "KCBOGFFHPBD",
                "type": "BODY_LANG",
                "delayTime": 0.19200000166893005,
                "aliasList": [
                    "1005"
                ],
                "actionId": 240,
                "GPIEDGOMCGL": 1180,
                "FHLAMNNHMFA": true,
                "KCEHDJLKIAL": false,
                "KCOLHJBDILK": true,
                "AOFEDPBOOIE": ""
            },
            {
                "$type": "BCJBNCJOPCE",
                "type": "CAMERA_MOVE",
                "delayTime": 0.4000000059604645,
                "duration": 7.0,
                "actionId": 172,
                "AKFGKKEOEFA": {
                    "x": -477.4010009765625,
                    "y": 232.447998046875,
                    "z": 2763.009033203125
                },
                "NGEBMAEFFGJ": {
                    "x": -476.9540100097656,
                    "y": 231.9770050048828,
                    "z": 2763.77001953125
                },
                "GFIOJGJJGCN": 2,
                "ABAEPHOGOFF": "Linear",
                "KFDBMBFFANN": {},
                "IEJBKHHEJEN": true,
                "GDHBGCNKHDE": -0.0020000000949949026,
                "CEDHIBLHMKP": false,
                "KIPMIDIKECP": "",
                "ANFHNPOCMNI": true,
                "BDLGHOJPJHD": "",
                "LCOJGFEOLCK": "",
                "BBBGAEDCJEL": ""
            },
            {
                "$type": "KCBOGFFHPBD",
                "type": "BODY_LANG",
                "delayTime": 3.6429998874664307,
                "aliasList": [
                    "1005"
                ],
                "actionId": 241,
                "AHGOBCDHCMC": true,
                "FHLAMNNHMFA": true,
                "KCEHDJLKIAL": false,
                "KCOLHJBDILK": true,
                "AOFEDPBOOIE": ""
            }
        ],
        [
            {
                "$type": "BCJBNCJOPCE",
                "type": "CAMERA_MOVE",
                "duration": 0.5,
                "actionId": 173,
                "AKFGKKEOEFA": {
                    "x": -476.4830017089844,
                    "y": 231.81199645996094,
                    "z": 2764.85009765625
                },
                "NGEBMAEFFGJ": {
                    "x": -476.09100341796875,
                    "y": 231.49200439453125,
                    "z": 2763.988037109375
                },
                "GFIOJGJJGCN": 6,
                "ABAEPHOGOFF": "EaseInOutCubic",
                "KFDBMBFFANN": {},
                "IEJBKHHEJEN": true,
                "GDHBGCNKHDE": -0.0020000000949949026,
                "CEDHIBLHMKP": false,
                "KIPMIDIKECP": "",
                "ANFHNPOCMNI": true,
                "BDLGHOJPJHD": "",
                "LCOJGFEOLCK": "",
                "BBBGAEDCJEL": ""
            },
            {
                "$type": "KCBOGFFHPBD",
                "type": "BODY_LANG",
                "aliasList": [
                    "Avatar"
                ],
                "actionId": 251,
                "AHGOBCDHCMC": true,
                "FHLAMNNHMFA": true,
                "KCEHDJLKIAL": false,
                "KCOLHJBDILK": true,
                "AOFEDPBOOIE": ""
            },
            {
                "$type": "CCEEIGNAILH",
                "type": "DIALOG",
                "aliasList": [
                    "4019"
                ],
                "actionId": 134,
                "KICBIOMGHIN": 732870116,
                "PNCCODDABKI": 2.0
            },
            {
                "$type": "KCBOGFFHPBD",
                "type": "BODY_LANG",
                "aliasList": [
                    "1005"
                ],
                "actionId": 242,
                "AHGOBCDHCMC": true,
                "FHLAMNNHMFA": true,
                "KCEHDJLKIAL": false,
                "KCOLHJBDILK": true,
                "AOFEDPBOOIE": ""
            },
            {
                "$type": "KCBOGFFHPBD",
                "type": "BODY_LANG",
                "delayTime": 0.06499999761581421,
                "aliasList": [
                    "4019"
                ],
                "actionId": 217,
                "GPIEDGOMCGL": 4040,
                "FHLAMNNHMFA": true,
                "KCEHDJLKIAL": false,
                "KCOLHJBDILK": true,
                "AOFEDPBOOIE": ""
            },
            {
                "$type": "KCBOGFFHPBD",
                "type": "BODY_LANG",
                "delayTime": 1.6230000257492065,
                "aliasList": [
                    "4019"
                ],
                "actionId": 218,
                "GPIEDGOMCGL": 9000,
                "FHLAMNNHMFA": true,
                "KCEHDJLKIAL": false,
                "KCOLHJBDILK": true,
                "AOFEDPBOOIE": ""
            }
        ],
        [
            {
                "$type": "CCEEIGNAILH",
                "type": "DIALOG",
                "aliasList": [
                    "4019"
                ],
                "actionId": 136,
                "KICBIOMGHIN": 732870117,
                "PNCCODDABKI": 2.0
            },
            {
                "$type": "KCBOGFFHPBD",
                "type": "BODY_LANG",
                "aliasList": [
                    "4019"
                ],
                "actionId": 219,
                "AHGOBCDHCMC": true,
                "FHLAMNNHMFA": true,
                "KCEHDJLKIAL": false,
                "KCOLHJBDILK": true,
                "AOFEDPBOOIE": ""
            },
            {
                "$type": "KCBOGFFHPBD",
                "type": "BODY_LANG",
                "delayTime": 1.0210000276565552,
                "aliasList": [
                    "4019"
                ],
                "actionId": 243,
                "GPIEDGOMCGL": 1170,
                "FHLAMNNHMFA": true,
                "KCEHDJLKIAL": false,
                "KCOLHJBDILK": true,
                "AOFEDPBOOIE": ""
            }
        ],
        [
            {
                "$type": "CCEEIGNAILH",
                "type": "DIALOG",
                "aliasList": [
                    "4019"
                ],
                "actionId": 138,
                "KICBIOMGHIN": 732870118,
                "PNCCODDABKI": 1.5
            },
            {
                "$type": "KCBOGFFHPBD",
                "type": "BODY_LANG",
                "delayTime": 1.1720000505447388,
                "aliasList": [
                    "4019"
                ],
                "actionId": 221,
                "AHGOBCDHCMC": true,
                "FHLAMNNHMFA": true,
                "KCEHDJLKIAL": false,
                "KCOLHJBDILK": true,
                "AOFEDPBOOIE": ""
            }
        ],
        [
            {
                "$type": "BCJBNCJOPCE",
                "type": "CAMERA_MOVE",
                "duration": 0.5,
                "actionId": 171,
                "AKFGKKEOEFA": {
                    "x": -476.0610046386719,
                    "y": 231.67100524902344,
                    "z": 2764.551025390625
                },
                "NGEBMAEFFGJ": {
                    "x": -475.9580078125,
                    "y": 231.38499450683594,
                    "z": 2765.50390625
                },
                "LIGHLBKBDEI": 49.0,
                "GFIOJGJJGCN": 6,
                "ABAEPHOGOFF": "EaseInOutCubic",
                "KFDBMBFFANN": {},
                "IEJBKHHEJEN": true,
                "GDHBGCNKHDE": -0.0020000000949949026,
                "CEDHIBLHMKP": false,
                "KIPMIDIKECP": "",
                "ANFHNPOCMNI": true,
                "BDLGHOJPJHD": "",
                "LCOJGFEOLCK": "",
                "BBBGAEDCJEL": ""
            },
            {
                "$type": "CCEEIGNAILH",
                "type": "DIALOG",
                "aliasList": [
                    "1005"
                ],
                "actionId": 140,
                "KICBIOMGHIN": 732870119,
                "PNCCODDABKI": 2.0
            },
            {
                "$type": "KCBOGFFHPBD",
                "type": "BODY_LANG",
                "aliasList": [
                    "1005"
                ],
                "actionId": 222,
                "GPIEDGOMCGL": 1300,
                "FHLAMNNHMFA": true,
                "KCEHDJLKIAL": false,
                "KCOLHJBDILK": true,
                "AOFEDPBOOIE": ""
            },
            {
                "$type": "IBPNIIGAIPF",
                "type": "LOOK_AT",
                "aliasList": [
                    "1005"
                ],
                "actionId": 222,
                "NDOMJCOFKDJ": 0.5,
                "KIPMIDIKECP": "",
                "FGPHOPBEJDE": true,
                "HJJAFGPMJNJ": "",
                "AOFBAGFCGPJ": ""
            },
            {
                "$type": "KCBOGFFHPBD",
                "type": "BODY_LANG",
                "delayTime": 2.7309999465942383,
                "aliasList": [
                    "1005"
                ],
                "actionId": 223,
                "GPIEDGOMCGL": 1110,
                "FHLAMNNHMFA": true,
                "KCEHDJLKIAL": false,
                "KCOLHJBDILK": true,
                "AOFEDPBOOIE": ""
            },
            {
                "$type": "KCBOGFFHPBD",
                "type": "BODY_LANG",
                "delayTime": 5.072999954223633,
                "aliasList": [
                    "1005"
                ],
                "actionId": 252,
                "AHGOBCDHCMC": true,
                "FHLAMNNHMFA": true,
                "KCEHDJLKIAL": false,
                "KCOLHJBDILK": true,
                "AOFEDPBOOIE": ""
            }
        ],
        [
            {
                "$type": "CCEEIGNAILH",
                "type": "DIALOG",
                "aliasList": [
                    "1005"
                ],
                "actionId": 142,
                "KICBIOMGHIN": 732870120,
                "PNCCODDABKI": 2.0
            },
            {
                "$type": "CNBNGFNKLGP",
                "type": "STEER_TO",
                "duration": 1.0,
                "aliasList": [
                    "1005"
                ],
                "actionId": 225,
                "DEMFHGAIELL": "TO_TARGET",
                "KDKLEJFHDJG": {
                    "x": -476.26800537109375,
                    "y": 230.0780029296875,
                    "z": 2764.679931640625
                },
                "BBNLLCHBKAI": true,
                "COJBPJMLIFM": true,
                "NLIKMFJCLBP": true,
                "KIPMIDIKECP": "Avatar",
                "IDIIDHLNENJ": true,
                "FDLMFGAMGJK": true,
                "AOFBAGFCGPJ": ""
            },
            {
                "$type": "KCBOGFFHPBD",
                "type": "BODY_LANG",
                "delayTime": 0.035999998450279236,
                "aliasList": [
                    "4019"
                ],
                "actionId": 246,
                "AHGOBCDHCMC": true,
                "FHLAMNNHMFA": true,
                "KCEHDJLKIAL": false,
                "KCOLHJBDILK": true,
                "AOFEDPBOOIE": ""
            },
            {
                "$type": "KCBOGFFHPBD",
                "type": "BODY_LANG",
                "delayTime": 0.09200000017881393,
                "aliasList": [
                    "1005"
                ],
                "actionId": 224,
                "GPIEDGOMCGL": 9030,
                "FHLAMNNHMFA": true,
                "KCEHDJLKIAL": false,
                "KCOLHJBDILK": true,
                "AOFEDPBOOIE": ""
            },
            {
                "$type": "IBPNIIGAIPF",
                "type": "LOOK_AT",
                "delayTime": 0.15000000596046448,
                "aliasList": [
                    "Avatar"
                ],
                "actionId": 253,
                "GGIENKFBOGL": true,
                "MHMKIICCEDG": {
                    "x": 20.0
                },
                "IDICBCPKDPM": true,
                "AHMNGABHGCA": 15.0,
                "NDOMJCOFKDJ": 0.5,
                "KIPMIDIKECP": "1005",
                "AHLPNEGAKGG": "NONE",
                "FGPHOPBEJDE": true,
                "HJJAFGPMJNJ": "",
                "AOFBAGFCGPJ": ""
            },
            {
                "$type": "IBPNIIGAIPF",
                "type": "LOOK_AT",
                "delayTime": 1.0080000162124634,
                "duration": 1.0,
                "aliasList": [
                    "1005"
                ],
                "actionId": 262,
                "GGIENKFBOGL": true,
                "MHMKIICCEDG": {
                    "x": 8.045000076293945
                },
                "NDOMJCOFKDJ": 0.5,
                "KIPMIDIKECP": "",
                "AHLPNEGAKGG": "NONE",
                "FGPHOPBEJDE": true,
                "HJJAFGPMJNJ": "",
                "AOFBAGFCGPJ": ""
            },
            {
                "$type": "KCBOGFFHPBD",
                "type": "BODY_LANG",
                "delayTime": 1.125,
                "aliasList": [
                    "1005"
                ],
                "actionId": 226,
                "GPIEDGOMCGL": 1230,
                "FHLAMNNHMFA": true,
                "KCEHDJLKIAL": false,
                "KCOLHJBDILK": true,
                "AOFEDPBOOIE": ""
            },
            {
                "$type": "KCBOGFFHPBD",
                "type": "BODY_LANG",
                "delayTime": 1.2419999837875366,
                "aliasList": [
                    "Avatar"
                ],
                "actionId": 254,
                "GPIEDGOMCGL": 4031,
                "FHLAMNNHMFA": true,
                "KCEHDJLKIAL": false,
                "KCOLHJBDILK": true,
                "AOFEDPBOOIE": ""
            }
        ],
        [
            {
                "$type": "BCJBNCJOPCE",
                "type": "CAMERA_MOVE",
                "duration": 0.5,
                "actionId": 170,
                "AKFGKKEOEFA": {
                    "x": -476.09600830078125,
                    "y": 231.61199951171875,
                    "z": 2765.125
                },
                "NGEBMAEFFGJ": {
                    "x": -476.1319885253906,
                    "y": 231.625,
                    "z": 2764.1259765625
                },
                "LIGHLBKBDEI": 50.0,
                "GFIOJGJJGCN": 6,
                "ABAEPHOGOFF": "EaseInOutCubic",
                "KFDBMBFFANN": {},
                "IEJBKHHEJEN": true,
                "GDHBGCNKHDE": -0.0020000000949949026,
                "CEDHIBLHMKP": false,
                "KIPMIDIKECP": "",
                "ANFHNPOCMNI": true,
                "BDLGHOJPJHD": "",
                "LCOJGFEOLCK": "",
                "BBBGAEDCJEL": ""
            },
            {
                "$type": "KCBOGFFHPBD",
                "type": "BODY_LANG",
                "aliasList": [
                    "Avatar"
                ],
                "actionId": 260,
                "AHGOBCDHCMC": true,
                "FHLAMNNHMFA": true,
                "KCEHDJLKIAL": false,
                "KCOLHJBDILK": true,
                "AOFEDPBOOIE": ""
            },
            {
                "$type": "CCEEIGNAILH",
                "type": "DIALOG",
                "aliasList": [
                    "4019"
                ],
                "actionId": 144,
                "KICBIOMGHIN": 732870121,
                "PNCCODDABKI": 1.5
            },
            {
                "$type": "IBPNIIGAIPF",
                "type": "LOOK_AT",
                "delayTime": 0.017000000923871994,
                "aliasList": [
                    "Avatar"
                ],
                "actionId": 255,
                "GGIENKFBOGL": true,
                "NDOMJCOFKDJ": 0.5,
                "KIPMIDIKECP": "4019",
                "FGPHOPBEJDE": true,
                "HJJAFGPMJNJ": "",
                "AOFBAGFCGPJ": ""
            },
            {
                "$type": "BCJBNCJOPCE",
                "type": "CAMERA_MOVE",
                "delayTime": 0.3330000042915344,
                "duration": 6.0,
                "actionId": 174,
                "AKFGKKEOEFA": {
                    "x": -476.09600830078125,
                    "y": 231.61199951171875,
                    "z": 2765.125
                },
                "NGEBMAEFFGJ": {
                    "x": -476.12298583984375,
                    "y": 231.55599975585938,
                    "z": 2764.126953125
                },
                "LIGHLBKBDEI": 50.0,
                "ABAEPHOGOFF": "EaseOutQuad",
                "KFDBMBFFANN": {},
                "IEJBKHHEJEN": true,
                "GDHBGCNKHDE": -0.0020000000949949026,
                "CEDHIBLHMKP": false,
                "KIPMIDIKECP": "",
                "ANFHNPOCMNI": true,
                "BDLGHOJPJHD": "",
                "LCOJGFEOLCK": "",
                "BBBGAEDCJEL": ""
            }
        ],
        [
            {
                "$type": "BCJBNCJOPCE",
                "type": "CAMERA_MOVE",
                "duration": 0.5,
                "actionId": 175,
                "AKFGKKEOEFA": {
                    "x": -477.68701171875,
                    "y": 231.77099609375,
                    "z": 2768.464111328125
                },
                "NGEBMAEFFGJ": {
                    "x": -477.1839904785156,
                    "y": 231.58999633789062,
                    "z": 2767.618896484375
                },
                "LIGHLBKBDEI": 55.79999923706055,
                "GFIOJGJJGCN": 6,
                "ABAEPHOGOFF": "EaseInOutCubic",
                "KFDBMBFFANN": {},
                "IEJBKHHEJEN": true,
                "GDHBGCNKHDE": -0.0020000000949949026,
                "CEDHIBLHMKP": false,
                "KIPMIDIKECP": "",
                "ANFHNPOCMNI": true,
                "BDLGHOJPJHD": "",
                "LCOJGFEOLCK": "",
                "BBBGAEDCJEL": ""
            },
            {
                "$type": "CCEEIGNAILH",
                "type": "DIALOG",
                "aliasList": [
                    "4019"
                ],
                "actionId": 146,
                "KICBIOMGHIN": 732870122,
                "PNCCODDABKI": 1.5
            },
            {
                "$type": "BCJBNCJOPCE",
                "type": "CAMERA_MOVE",
                "delayTime": 0.10000000149011612,
                "duration": 5.0,
                "actionId": 229,
                "AKFGKKEOEFA": {
                    "x": -477.114990234375,
                    "y": 231.77099609375,
                    "z": 2768.7958984375
                },
                "NGEBMAEFFGJ": {
                    "x": -476.718994140625,
                    "y": 231.58999633789062,
                    "z": 2767.89599609375
                },
                "LIGHLBKBDEI": 55.79999923706055,
                "ABAEPHOGOFF": "EaseOutQuad",
                "KFDBMBFFANN": {},
                "IEJBKHHEJEN": true,
                "GDHBGCNKHDE": -0.0020000000949949026,
                "CEDHIBLHMKP": false,
                "KIPMIDIKECP": "",
                "ANFHNPOCMNI": true,
                "BDLGHOJPJHD": "",
                "LCOJGFEOLCK": "",
                "BBBGAEDCJEL": ""
            },
            {
                "$type": "CNBNGFNKLGP",
                "type": "STEER_TO",
                "delayTime": 0.11999999731779099,
                "duration": 1.0,
                "aliasList": [
                    "1005"
                ],
                "actionId": 227,
                "DEMFHGAIELL": "TO_TARGET",
                "KDKLEJFHDJG": {
                    "x": -476.26800537109375,
                    "y": 230.0780029296875,
                    "z": 2764.679931640625
                },
                "BBNLLCHBKAI": true,
                "COJBPJMLIFM": true,
                "NLIKMFJCLBP": true,
                "KIPMIDIKECP": "4019",
                "IDIIDHLNENJ": true,
                "FDLMFGAMGJK": true,
                "AOFBAGFCGPJ": ""
            },
            {
                "$type": "KCBOGFFHPBD",
                "type": "BODY_LANG",
                "delayTime": 0.12800000607967377,
                "aliasList": [
                    "1005"
                ],
                "actionId": 228,
                "GPIEDGOMCGL": 9040,
                "FHLAMNNHMFA": true,
                "KCEHDJLKIAL": false,
                "KCOLHJBDILK": true,
                "AOFEDPBOOIE": ""
            },
            {
                "$type": "IBPNIIGAIPF",
                "type": "LOOK_AT",
                "delayTime": 0.3659999966621399,
                "aliasList": [
                    "1005"
                ],
                "actionId": 256,
                "GGIENKFBOGL": true,
                "NDOMJCOFKDJ": 0.5,
                "KIPMIDIKECP": "4019",
                "FGPHOPBEJDE": true,
                "HJJAFGPMJNJ": "",
                "AOFBAGFCGPJ": ""
            }
        ],
        [
            {
                "$type": "MoleMole.Config.ConfigTimeProtectAction",
                "type": "TIME_PROTECT",
                "duration": 0.10000000149011612,
                "actionId": 105
            }
        ]
    ],
    "groupId": [
        {
            "grpId": 2327895878,
            "nextGrpId": 2327895879
        },
        {
            "index": 1,
            "grpId": 2327895879,
            "nextGrpId": 2327895880
        },
        {
            "index": 2,
            "grpId": 2327895880,
            "nextGrpId": 2327895881
        },
        {
            "index": 3,
            "grpId": 2327895881,
            "nextGrpId": 2327895882
        },
        {
            "index": 4,
            "grpId": 2327895882,
            "nextGrpId": 2327895883
        },
        {
            "index": 5,
            "grpId": 2327895883,
            "nextGrpId": 2327895884
        },
        {
            "index": 6,
            "grpId": 2327895884,
            "nextGrpId": 2327895885
        },
        {
            "index": 7,
            "grpId": 2327895885,
            "nextGrpId": 2327895886
        },
        {
            "index": 8,
            "grpId": 2327895886,
            "nextGrpId": 3445295530
        },
        {
            "index": 9,
            "grpId": 3445295530,
            "nextGrpId": 3445295531
        },
        {
            "index": 10,
            "grpId": 3445295531,
            "nextGrpId": 3445295532
        },
        {
            "index": 11,
            "grpId": 3445295532,
            "nextGrpId": 3445295533
        },
        {
            "index": 12,
            "grpId": 3445295533,
            "nextGrpId": 3445295534
        },
        {
            "index": 13,
            "grpId": 3445295534,
            "nextGrpId": 3445295535
        },
        {
            "index": 14,
            "grpId": 3445295535,
            "nextGrpId": 3445295536
        },
        {
            "index": 15,
            "grpId": 3445295536,
            "nextGrpId": 3445295537
        },
        {
            "index": 16,
            "grpId": 3445295537,
            "nextGrpId": 3445295538
        },
        {
            "index": 17,
            "grpId": 3445295538,
            "nextGrpId": 3445295539
        },
        {
            "index": 18,
            "grpId": 3445295539,
            "nextGrpId": 3445295561
        },
        {
            "index": 19,
            "grpId": 3445295561,
            "nextGrpId": 3445295562
        },
        {
            "index": 20,
            "grpId": 3445295562,
            "nextGrpId": 3445295563
        },
        {
            "index": 21,
            "grpId": 3445295563,
            "nextGrpId": 3445295564
        },
        {
            "index": 22,
            "grpId": 3445295564,
            "nextGrpId": 3445295565
        }
    ],
    "freeStyleDic": {
        "4019": [
            1172,
            1030,
            1290,
            9000,
            1173,
            4040,
            1171,
            1170
        ]
    }
}