{
    "luaDataPath": "",
    "entityBan": "",
    "disableNpcLod": true,
    "isAutoBanNpc": true,
    "isBanWidgetPet": true,
    "protectNpcMobileLod": true,
    "startFade": {
        "startFadeOutDuration": 0.0
    },
    "endFade": {
        "startFadeOutDuration": 0.0
    },
    "actors": [
        {
            "alias": "Avatar",
            "visible": true,
            "bornPointName": "",
            "relativePosType": "AVATAR_NEW",
            "relativePosNpcAlias": "",
            "bindMovingTargetKey": ""
        },
        {
            "configID": 1019,
            "alias": "1019",
            "visible": true,
            "bornPointName": "",
            "relativePosType": "AVATAR_NEW",
            "relativePosNpcAlias": "",
            "bindMovingTargetKey": ""
        }
    ],
    "group": [
        [
            {
                "$type": "MoleMole.Config.ConfigTimeProtectAction",
                "type": "TIME_PROTECT",
                "duration": 0.10000000149011612,
                "actionId": 104
            },
            {
                "$type": "BCJBNCJOPCE",
                "type": "CAMERA_FOCUS",
                "duration": 1.0,
                "actionId": 123,
                "KIPMIDIKECP": "",
                "BDLGHOJPJHD": "",
                "LCOJGFEOLCK": "",
                "BBBGAEDCJEL": ""
            },
            {
                "$type": "CNBNGFNKLGP",
                "type": "STEER_TO",
                "duration": 1.0,
                "aliasList": [
                    "Avatar"
                ],
                "actionId": 129,
                "DEMFHGAIELL": "TO_TARGET",
                "KDKLEJFHDJG": {
                    "x": 20.187999725341797,
                    "z": 11.937999725341797
                },
                "BBNLLCHBKAI": true,
                "COJBPJMLIFM": true,
                "NLIKMFJCLBP": true,
                "KIPMIDIKECP": "1019",
                "IDIIDHLNENJ": true,
                "FDLMFGAMGJK": true,
                "AOFBAGFCGPJ": ""
            },
            {
                "$type": "IBPNIIGAIPF",
                "type": "LOOK_AT",
                "aliasList": [
                    "Avatar"
                ],
                "actionId": 130,
                "GGIENKFBOGL": true,
                "NDOMJCOFKDJ": 0.5,
                "KIPMIDIKECP": "1019",
                "FGPHOPBEJDE": true,
                "HJJAFGPMJNJ": "",
                "AOFBAGFCGPJ": ""
            },
            {
                "$type": "CNBNGFNKLGP",
                "type": "STEER_TO",
                "duration": 1.0,
                "aliasList": [
                    "1019"
                ],
                "actionId": 127,
                "DEMFHGAIELL": "TO_LOCAL_AVATAR",
                "KDKLEJFHDJG": {
                    "x": 20.187999725341797,
                    "z": 11.937999725341797
                },
                "BBNLLCHBKAI": true,
                "COJBPJMLIFM": true,
                "NLIKMFJCLBP": true,
                "KIPMIDIKECP": "",
                "IDIIDHLNENJ": true,
                "FDLMFGAMGJK": true,
                "AOFBAGFCGPJ": ""
            },
            {
                "$type": "IBPNIIGAIPF",
                "type": "LOOK_AT",
                "aliasList": [
                    "1019"
                ],
                "actionId": 128,
                "GGIENKFBOGL": true,
                "NDOMJCOFKDJ": 0.5,
                "KIPMIDIKECP": "Avatar",
                "FGPHOPBEJDE": true,
                "HJJAFGPMJNJ": "",
                "AOFBAGFCGPJ": ""
            }
        ],
        [
            {
                "$type": "CCEEIGNAILH",
                "type": "DIALOG",
                "aliasList": [
                    "1019"
                ],
                "actionId": 107,
                "KICBIOMGHIN": 706651301,
                "PNCCODDABKI": 0.5
            },
            {
                "$type": "KCBOGFFHPBD",
                "type": "BODY_LANG",
                "aliasList": [
                    "1019"
                ],
                "actionId": 131,
                "GPIEDGOMCGL": 1230,
                "FHLAMNNHMFA": true,
                "KCEHDJLKIAL": false,
                "KCOLHJBDILK": true,
                "AOFEDPBOOIE": ""
            },
            {
                "$type": "DNAEECJNBFB",
                "type": "EMO_SYNC",
                "aliasList": [
                    "1019"
                ],
                "actionId": 138,
                "EOGJDJKPPGE": "Cs_Emo_Avatar_Simple_Common_Set/Cs_Emo_Avatar_Talk/Cs_Emo_WorldQuest/Cs_Emo_Mengde_70665/Cs_Emo_706651301",
                "IHCBGPABDLE": "",
                "CIKPDMODFPL": "",
                "HDIAHFFHNGE": "",
                "BOAAGJEEFDD": "",
                "PFDPJKHPADE": "",
                "DALINBJAHOC": [
                    10303936556871147402,
                    15199526479502408911,
                    6072553563714634570,
                    11644399819798240062
                ]
            },
            {
                "$type": "MEKNGCBGKEJ",
                "type": "DIALOG_SELECT",
                "delayTime": 0.4000000059604645,
                "aliasList": [
                    "Avatar"
                ],
                "actionId": 122,
                "MLAABINGLAA": [
                    706651302,
                    706651303
                ],
                "HPBPDBFGKID": [
                    3734263700,
                    3734263702
                ],
                "CFJOJADDHHG": true,
                "APEOOMIGHNL": 3734263697
            }
        ],
        [
            {
                "$type": "CCEEIGNAILH",
                "type": "DIALOG",
                "aliasList": [
                    "1019"
                ],
                "actionId": 110,
                "KICBIOMGHIN": 706651305,
                "PNCCODDABKI": 1.0
            },
            {
                "$type": "KCBOGFFHPBD",
                "type": "BODY_LANG",
                "aliasList": [
                    "1019"
                ],
                "actionId": 132,
                "GPIEDGOMCGL": 4030,
                "FHLAMNNHMFA": true,
                "KCEHDJLKIAL": false,
                "KCOLHJBDILK": true,
                "AOFEDPBOOIE": ""
            },
            {
                "$type": "KCBOGFFHPBD",
                "type": "BODY_LANG",
                "aliasList": [
                    "1019"
                ],
                "actionId": 133,
                "AHGOBCDHCMC": true,
                "FHLAMNNHMFA": true,
                "KCEHDJLKIAL": false,
                "KCOLHJBDILK": true,
                "AOFEDPBOOIE": ""
            },
            {
                "$type": "DNAEECJNBFB",
                "type": "EMO_SYNC",
                "aliasList": [
                    "1019"
                ],
                "actionId": 139,
                "EOGJDJKPPGE": "Cs_Emo_Avatar_Simple_Common_Set/Cs_Emo_Avatar_Talk/Cs_Emo_WorldQuest/Cs_Emo_Mengde_70665/Cs_Emo_706651305",
                "IHCBGPABDLE": "",
                "CIKPDMODFPL": "",
                "HDIAHFFHNGE": "",
                "BOAAGJEEFDD": "",
                "PFDPJKHPADE": "",
                "DALINBJAHOC": [
                    1961556253482663053,
                    13429337765976037821,
                    11852990098573384966,
                    10586246303769598565
                ]
            },
            {
                "$type": "KCBOGFFHPBD",
                "type": "BODY_LANG",
                "delayTime": 1.0,
                "aliasList": [
                    "1019"
                ],
                "actionId": 134,
                "GPIEDGOMCGL": 1120,
                "FHLAMNNHMFA": true,
                "KCEHDJLKIAL": false,
                "KCOLHJBDILK": true,
                "AOFEDPBOOIE": ""
            }
        ],
        [
            {
                "$type": "MoleMole.Config.ConfigTimeProtectAction",
                "type": "TIME_PROTECT",
                "duration": 0.10000000149011612,
                "actionId": 125
            },
            {
                "$type": "MoleMole.Config.ConfigRequestMsgAction",
                "type": "REQUEST_MSG",
                "duration": 0.10000000149011612,
                "actionId": 126,
                "msgName": "GCGStartQuestChallenge",
                "param": "7066507"
            }
        ],
        [
            {
                "$type": "CCEEIGNAILH",
                "type": "DIALOG",
                "aliasList": [
                    "1019"
                ],
                "actionId": 112,
                "KICBIOMGHIN": 706651304,
                "PNCCODDABKI": 1.0
            },
            {
                "$type": "KCBOGFFHPBD",
                "type": "BODY_LANG",
                "aliasList": [
                    "1019"
                ],
                "actionId": 135,
                "AHGOBCDHCMC": true,
                "FHLAMNNHMFA": true,
                "KCEHDJLKIAL": false,
                "KCOLHJBDILK": true,
                "AOFEDPBOOIE": ""
            },
            {
                "$type": "KCBOGFFHPBD",
                "type": "BODY_LANG",
                "aliasList": [
                    "1019"
                ],
                "actionId": 136,
                "GPIEDGOMCGL": 4030,
                "FHLAMNNHMFA": true,
                "KCEHDJLKIAL": false,
                "KCOLHJBDILK": true,
                "AOFEDPBOOIE": ""
            },
            {
                "$type": "DNAEECJNBFB",
                "type": "EMO_SYNC",
                "aliasList": [
                    "1019"
                ],
                "actionId": 140,
                "EOGJDJKPPGE": "Cs_Emo_Avatar_Simple_Common_Set/Cs_Emo_Avatar_Talk/Cs_Emo_WorldQuest/Cs_Emo_Mengde_70665/Cs_Emo_706651304",
                "IHCBGPABDLE": "",
                "CIKPDMODFPL": "",
                "HDIAHFFHNGE": "",
                "BOAAGJEEFDD": "",
                "PFDPJKHPADE": "",
                "DALINBJAHOC": [
                    2354290691761569602,
                    5133620282687362146,
                    7632866729236377943,
                    8822932703476620423
                ]
            },
            {
                "$type": "KCBOGFFHPBD",
                "type": "BODY_LANG",
                "delayTime": 1.0,
                "aliasList": [
                    "1019"
                ],
                "actionId": 137,
                "GPIEDGOMCGL": 1172,
                "FHLAMNNHMFA": true,
                "KCEHDJLKIAL": false,
                "KCOLHJBDILK": true,
                "AOFEDPBOOIE": ""
            }
        ],
        [
            {
                "$type": "MoleMole.Config.ConfigTimeProtectAction",
                "type": "TIME_PROTECT",
                "duration": 0.10000000149011612,
                "actionId": 114
            },
            {
                "$type": "CNBNGFNKLGP",
                "type": "STEER_TO",
                "duration": 1.0,
                "aliasList": [
                    "1019"
                ],
                "actionId": 141,
                "DEMFHGAIELL": "RETURN",
                "KDKLEJFHDJG": {
                    "x": 20.145000457763672,
                    "y": 0.003000000026077032,
                    "z": 12.166999816894531
                },
                "BBNLLCHBKAI": true,
                "COJBPJMLIFM": true,
                "NLIKMFJCLBP": true,
                "KIPMIDIKECP": "",
                "IDIIDHLNENJ": true,
                "FDLMFGAMGJK": true,
                "AOFBAGFCGPJ": ""
            },
            {
                "$type": "IBPNIIGAIPF",
                "type": "LOOK_AT",
                "aliasList": [
                    "1019"
                ],
                "actionId": 142,
                "NDOMJCOFKDJ": 0.5,
                "KIPMIDIKECP": "",
                "FGPHOPBEJDE": true,
                "HJJAFGPMJNJ": "",
                "AOFBAGFCGPJ": ""
            }
        ]
    ],
    "groupId": [
        {
            "grpId": 3734263698,
            "nextGrpId": 3734263699
        },
        {
            "index": 1,
            "grpId": 3734263699,
            "nextGrpId": 3734263700
        },
        {
            "index": 2,
            "grpId": 3734263700,
            "nextGrpId": 3734263701
        },
        {
            "index": 3,
            "grpId": 3734263701,
            "nextGrpId": 3734263703
        },
        {
            "index": 4,
            "grpId": 3734263702,
            "nextGrpId": 3734263703
        },
        {
            "index": 5,
            "grpId": 3734263703,
            "nextGrpId": 3734263704
        }
    ],
    "freeStyleDic": {
        "1019": [
            1230,
            4030,
            1120,
            1172
        ]
    }
}