{
    "talkId": 4013012,
    "type": "ACTIVITY",
    "dialogList": [
        {
            "id": 401301201,
            "talkRole": {
                "type": "TALK_ROLE_NPC",
                "id": "13850"
            },
            "talkContentTextMapHash": 1947170362,
            "talkAssetPath": "",
            "talkAssetPathAlter": "",
            "talkAudioName": "",
            "actionBefore": "",
            "actionWhile": "",
            "actionAfter": "",
            "optionIcon": ""
        }
    ]
}