{
    "talkId": 7413750,
    "type": "ACTIVITY",
    "dialogList": [
        {
            "id": 741375001,
            "nextDialogs": [
                741375002,
                741375008
            ],
            "talkRole": {
                "type": "TALK_ROLE_NPC",
                "id": "30420"
            },
            "talkContentTextMapHash": 954688234,
            "talkAssetPath": "",
            "talkAssetPathAlter": "",
            "talkAudioName": "",
            "actionBefore": "",
            "actionWhile": "",
            "actionAfter": "",
            "optionIcon": ""
        },
        {
            "id": 741375002,
            "nextDialogs": [
                741375003
            ],
            "talkShowType": "TALK_SHOW_FORCE_SELECT",
            "talkRole": {
                "type": "TALK_ROLE_PLAYER",
                "id": ""
            },
            "talkContentTextMapHash": 870000538,
            "talkAssetPath": "",
            "talkAssetPathAlter": "",
            "talkAudioName": "",
            "actionBefore": "",
            "actionWhile": "",
            "actionAfter": "",
            "optionIcon": ""
        },
        {
            "id": 741375003,
            "nextDialogs": [
                741375004
            ],
            "talkRole": {
                "type": "TALK_ROLE_NPC",
                "id": "30420"
            },
            "talkContentTextMapHash": 3508744226,
            "talkAssetPath": "",
            "talkAssetPathAlter": "",
            "talkAudioName": "",
            "actionBefore": "",
            "actionWhile": "SimpleTalk/StrikeChest",
            "actionAfter": "",
            "optionIcon": ""
        },
        {
            "id": 741375004,
            "nextDialogs": [
                741375005
            ],
            "talkRole": {
                "type": "TALK_ROLE_NPC",
                "id": "30420"
            },
            "talkContentTextMapHash": 329213554,
            "talkAssetPath": "",
            "talkAssetPathAlter": "",
            "talkAudioName": "",
            "actionBefore": "",
            "actionWhile": "",
            "actionAfter": "SimpleTalk/Standby",
            "optionIcon": ""
        },
        {
            "id": 741375005,
            "nextDialogs": [
                741375006
            ],
            "talkShowType": "TALK_SHOW_FORCE_SELECT",
            "talkRole": {
                "type": "TALK_ROLE_PLAYER",
                "id": ""
            },
            "talkContentTextMapHash": 1039690770,
            "talkAssetPath": "",
            "talkAssetPathAlter": "",
            "talkAudioName": "",
            "actionBefore": "",
            "actionWhile": "",
            "actionAfter": "",
            "optionIcon": ""
        },
        {
            "id": 741375006,
            "nextDialogs": [
                741375007
            ],
            "talkRole": {
                "type": "TALK_ROLE_NPC",
                "id": "30420"
            },
            "talkContentTextMapHash": 3646554602,
            "talkAssetPath": "",
            "talkAssetPathAlter": "",
            "talkAudioName": "",
            "actionBefore": "",
            "actionWhile": "SimpleTalk/RandomTalk",
            "actionAfter": "",
            "optionIcon": ""
        },
        {
            "id": 741375007,
            "talkRole": {
                "type": "TALK_ROLE_NPC",
                "id": "30420"
            },
            "talkContentTextMapHash": 937865682,
            "talkAssetPath": "",
            "talkAssetPathAlter": "",
            "talkAudioName": "",
            "actionBefore": "",
            "actionWhile": "",
            "actionAfter": "SimpleTalk/Idle_End",
            "optionIcon": ""
        },
        {
            "id": 741375008,
            "nextDialogs": [
                741375009
            ],
            "talkShowType": "TALK_SHOW_FORCE_SELECT",
            "talkRole": {
                "type": "TALK_ROLE_PLAYER",
                "id": ""
            },
            "talkContentTextMapHash": 2951335138,
            "talkAssetPath": "",
            "talkAssetPathAlter": "",
            "talkAudioName": "",
            "actionBefore": "",
            "actionWhile": "",
            "actionAfter": "",
            "optionIcon": ""
        },
        {
            "id": 741375009,
            "nextDialogs": [
                741375010
            ],
            "talkRole": {
                "type": "TALK_ROLE_NPC",
                "id": "30420"
            },
            "talkContentTextMapHash": 2905418810,
            "talkAssetPath": "",
            "talkAssetPathAlter": "",
            "talkAudioName": "",
            "actionBefore": "",
            "actionWhile": "SimpleTalk/StrikeChest",
            "actionAfter": "",
            "optionIcon": ""
        },
        {
            "id": 741375010,
            "nextDialogs": [
                741375011
            ],
            "talkRole": {
                "type": "TALK_ROLE_NPC",
                "id": "30420"
            },
            "talkContentTextMapHash": 2350983754,
            "talkAssetPath": "",
            "talkAssetPathAlter": "",
            "talkAudioName": "",
            "actionBefore": "",
            "actionWhile": "SimpleTalk/Standby",
            "actionAfter": "",
            "optionIcon": ""
        },
        {
            "id": 741375011,
            "nextDialogs": [
                741375012
            ],
            "talkRole": {
                "type": "TALK_ROLE_NPC",
                "id": "30420"
            },
            "talkContentTextMapHash": 2812532770,
            "talkAssetPath": "",
            "talkAssetPathAlter": "",
            "talkAudioName": "",
            "actionBefore": "",
            "actionWhile": "SimpleTalk/RandomTalk",
            "actionAfter": "",
            "optionIcon": ""
        },
        {
            "id": 741375012,
            "talkRole": {
                "type": "TALK_ROLE_NPC",
                "id": "30420"
            },
            "talkContentTextMapHash": 3641901738,
            "talkAssetPath": "",
            "talkAssetPathAlter": "",
            "talkAudioName": "",
            "actionBefore": "",
            "actionWhile": "",
            "actionAfter": "SimpleTalk/Idle_End",
            "optionIcon": ""
        }
    ]
}