{
    "talkId": 7450720,
    "type": "ACTIVITY",
    "dialogList": [
        {
            "id": 745072001,
            "nextDialogs": [
                745072002
            ],
            "talkRole": {
                "type": "TALK_ROLE_NPC",
                "id": "30484"
            },
            "talkContentTextMapHash": 3659044386,
            "talkAssetPath": "",
            "talkAssetPathAlter": "",
            "talkAudioName": "",
            "actionBefore": "",
            "actionWhile": "",
            "actionAfter": "",
            "optionIcon": ""
        },
        {
            "id": 745072002,
            "nextDialogs": [
                745072003
            ],
            "talkRole": {
                "type": "TALK_ROLE_NPC",
                "id": "30484"
            },
            "talkContentTextMapHash": 1300026314,
            "talkAssetPath": "",
            "talkAssetPathAlter": "",
            "talkAudioName": "",
            "actionBefore": "",
            "actionWhile": "",
            "actionAfter": "",
            "optionIcon": ""
        },
        {
            "id": 745072003,
            "talkRole": {
                "type": "TALK_ROLE_NPC",
                "id": "30484"
            },
            "talkContentTextMapHash": 94669754,
            "talkAssetPath": "",
            "talkAssetPathAlter": "",
            "talkAudioName": "",
            "actionBefore": "",
            "actionWhile": "",
            "actionAfter": "",
            "optionIcon": ""
        }
    ]
}