{
    "luaDataPath": "",
    "isSimpleTalk": true,
    "entityBan": "",
    "disableNpcLod": true,
    "startFade": {
        "startFadeOutDuration": 0.0
    },
    "endFade": {
        "startFadeOutDuration": 0.0
    },
    "actors": [
        {
            "alias": "Avatar",
            "visible": true,
            "bornPointName": "",
            "relativePosNpcAlias": "",
            "bindMovingTargetKey": ""
        },
        {
            "configID": 3181,
            "alias": "3181",
            "visible": true,
            "bornPointName": "",
            "relativePosNpcAlias": "",
            "bindMovingTargetKey": ""
        },
        {
            "configID": 3180,
            "alias": "3180",
            "visible": true,
            "bornPointName": "",
            "relativePosNpcAlias": "",
            "bindMovingTargetKey": ""
        },
        {
            "configID": 1005,
            "alias": "1005",
            "visible": true,
            "bornPointName": "",
            "useRelativePos": true,
            "relativePos": {
                "x": 0.5,
                "z": 0.5
            },
            "removeActorType": "REMOVE_WITH_DISAPPEAR",
            "relativePosNpcAlias": "",
            "bindMovingTargetKey": ""
        }
    ],
    "group": [
        [
            {
                "$type": "BCJBNCJOPCE",
                "type": "CAMERA_FOCUS",
                "duration": 0.10000000149011612,
                "KIPMIDIKECP": "",
                "BDLGHOJPJHD": "",
                "LCOJGFEOLCK": "",
                "BBBGAEDCJEL": ""
            },
            {
                "$type": "MoleMole.Config.ConfigTimeProtectAction",
                "type": "TIME_PROTECT",
                "duration": 0.10000000149011612
            }
        ],
        [
            {
                "$type": "CCEEIGNAILH",
                "type": "DIALOG",
                "aliasList": [
                    "3181"
                ],
                "KICBIOMGHIN": 722110101,
                "PNCCODDABKI": 0.5
            }
        ],
        [
            {
                "$type": "CCEEIGNAILH",
                "type": "DIALOG",
                "aliasList": [
                    "3180"
                ],
                "KICBIOMGHIN": 722110102,
                "PNCCODDABKI": 0.5
            }
        ],
        [
            {
                "$type": "MEKNGCBGKEJ",
                "type": "DIALOG_SELECT",
                "delayTime": 0.4000000059604645,
                "aliasList": [
                    "Avatar"
                ],
                "MLAABINGLAA": [
                    722110104
                ],
                "HPBPDBFGKID": [
                    3681579926
                ],
                "CFJOJADDHHG": true
            },
            {
                "$type": "CCEEIGNAILH",
                "type": "DIALOG",
                "aliasList": [
                    "3180"
                ],
                "KICBIOMGHIN": 722110103,
                "PNCCODDABKI": 0.5
            }
        ],
        [
            {
                "$type": "CCEEIGNAILH",
                "type": "DIALOG",
                "aliasList": [
                    "3181"
                ],
                "KICBIOMGHIN": 722110105,
                "PNCCODDABKI": 0.5
            }
        ],
        [
            {
                "$type": "CCEEIGNAILH",
                "type": "DIALOG",
                "aliasList": [
                    "1005"
                ],
                "KICBIOMGHIN": 722110106,
                "PNCCODDABKI": 0.5
            }
        ],
        [
            {
                "$type": "MoleMole.Config.ConfigBlackScreenAction",
                "type": "BLACK_SCREEN",
                "duration": 3.0,
                "durationToBlack": 0.5,
                "durationKeepBlack": 2.0,
                "durationFromBlack": 0.5,
                "inteePos": "",
                "textMapID": "QUEST_Message_Q7221101",
                "useTextFade": true
            },
            {
                "$type": "CCEEIGNAILH",
                "type": "DIALOG_CLEAR",
                "duration": 3.0
            }
        ],
        [
            {
                "$type": "CCEEIGNAILH",
                "type": "DIALOG",
                "aliasList": [
                    "3181"
                ],
                "KICBIOMGHIN": 722110107,
                "PNCCODDABKI": 0.5
            }
        ],
        [
            {
                "$type": "CCEEIGNAILH",
                "type": "DIALOG",
                "aliasList": [
                    "3181"
                ],
                "KICBIOMGHIN": 722110108,
                "PNCCODDABKI": 0.5
            }
        ],
        [
            {
                "$type": "CCEEIGNAILH",
                "type": "DIALOG",
                "aliasList": [
                    "3180"
                ],
                "KICBIOMGHIN": 722110109,
                "PNCCODDABKI": 0.5
            }
        ],
        [
            {
                "$type": "CCEEIGNAILH",
                "type": "DIALOG",
                "aliasList": [
                    "3180"
                ],
                "KICBIOMGHIN": 722110110,
                "PNCCODDABKI": 0.5
            }
        ],
        [
            {
                "$type": "CCEEIGNAILH",
                "type": "DIALOG",
                "aliasList": [
                    "3180"
                ],
                "KICBIOMGHIN": 722110111,
                "PNCCODDABKI": 0.5
            }
        ],
        [
            {
                "$type": "MEKNGCBGKEJ",
                "type": "DIALOG_SELECT",
                "delayTime": 0.4000000059604645,
                "aliasList": [
                    "Avatar"
                ],
                "MLAABINGLAA": [
                    722110113
                ],
                "HPBPDBFGKID": [
                    2459827938
                ],
                "CFJOJADDHHG": true
            },
            {
                "$type": "CCEEIGNAILH",
                "type": "DIALOG",
                "aliasList": [
                    "3180"
                ],
                "KICBIOMGHIN": 722110112,
                "PNCCODDABKI": 0.5
            }
        ],
        [
            {
                "$type": "CCEEIGNAILH",
                "type": "DIALOG",
                "aliasList": [
                    "3180"
                ],
                "KICBIOMGHIN": 722110114,
                "PNCCODDABKI": 0.5
            }
        ],
        [
            {
                "$type": "CCEEIGNAILH",
                "type": "DIALOG",
                "aliasList": [
                    "3180"
                ],
                "KICBIOMGHIN": 722110115,
                "PNCCODDABKI": 0.5
            }
        ],
        [
            {
                "$type": "CCEEIGNAILH",
                "type": "DIALOG",
                "aliasList": [
                    "3180"
                ],
                "KICBIOMGHIN": 722110116,
                "PNCCODDABKI": 0.5
            }
        ],
        [
            {
                "$type": "MoleMole.Config.ConfigTimeProtectAction",
                "type": "TIME_PROTECT",
                "duration": 0.10000000149011612
            }
        ]
    ],
    "groupId": [
        {
            "grpId": 3681579922,
            "nextGrpId": 3681579923
        },
        {
            "index": 1,
            "grpId": 3681579923,
            "nextGrpId": 3681579924
        },
        {
            "index": 2,
            "grpId": 3681579924,
            "nextGrpId": 3681579925
        },
        {
            "index": 3,
            "grpId": 3681579925,
            "nextGrpId": 3681579926
        },
        {
            "index": 4,
            "grpId": 3681579926,
            "nextGrpId": 3681579927
        },
        {
            "index": 5,
            "grpId": 3681579927,
            "nextGrpId": 3681579928
        },
        {
            "index": 6,
            "grpId": 3681579928,
            "nextGrpId": 3681579929
        },
        {
            "index": 7,
            "grpId": 3681579929,
            "nextGrpId": 3681579930
        },
        {
            "index": 8,
            "grpId": 3681579930,
            "nextGrpId": 2459827934
        },
        {
            "index": 9,
            "grpId": 2459827934,
            "nextGrpId": 2459827935
        },
        {
            "index": 10,
            "grpId": 2459827935,
            "nextGrpId": 2459827936
        },
        {
            "index": 11,
            "grpId": 2459827936,
            "nextGrpId": 2459827937
        },
        {
            "index": 12,
            "grpId": 2459827937,
            "nextGrpId": 2459827938
        },
        {
            "index": 13,
            "grpId": 2459827938,
            "nextGrpId": 2459827939
        },
        {
            "index": 14,
            "grpId": 2459827939,
            "nextGrpId": 2459827940
        },
        {
            "index": 15,
            "grpId": 2459827940,
            "nextGrpId": 2459827941
        },
        {
            "index": 16,
            "grpId": 2459827941,
            "nextGrpId": 2459827942
        }
    ],
    "freeStyleDic": {
        "3181": [],
        "3180": []
    }
}